(module Fairchild_DualPower33-6_3x3mm (layer F.Cu) (tedit 607FD723)
  (descr "Fairchild Power33 MOSFET package, 3x3mm (see https://www.fairchildsemi.com/datasheets/FD/FDMC8032L.pdf), Alternate KiCad Library")
  (tags mosfet)
  (attr smd)
  (fp_text reference REF** (at 0 -2.5) (layer F.SilkS)
    (effects (font (size 1 1) (thickness 0.15)))
  )
  (fp_text value Fairchild_DualPower33-6_3x3mm (at 0 2.4) (layer F.Fab)
    (effects (font (size 1 1) (thickness 0.15)))
  )
  (fp_line (start -1.905 1.778) (end -1.905 -1.3335) (layer F.SilkS) (width 0.12))
  (fp_line (start 1.905 1.778) (end -1.905 1.778) (layer F.SilkS) (width 0.12))
  (fp_line (start 1.905 -1.778) (end 1.905 1.778) (layer F.SilkS) (width 0.12))
  (fp_line (start -1.4605 -1.778) (end 1.905 -1.778) (layer F.SilkS) (width 0.12))
  (fp_line (start -1.9 -1.75) (end 1.9 -1.75) (layer F.CrtYd) (width 0.05))
  (fp_line (start -1.9 1.75) (end -1.9 -1.75) (layer F.CrtYd) (width 0.05))
  (fp_line (start 1.9 1.75) (end -1.9 1.75) (layer F.CrtYd) (width 0.05))
  (fp_line (start 1.9 -1.75) (end 1.9 1.75) (layer F.CrtYd) (width 0.05))
  (fp_line (start -0.5 -1.5) (end 1.5 -1.5) (layer F.Fab) (width 0.1))
  (fp_line (start -1.5 -0.5) (end -0.5 -1.5) (layer F.Fab) (width 0.1))
  (fp_line (start -1.5 1.5) (end -1.5 -0.5) (layer F.Fab) (width 0.1))
  (fp_line (start 1.5 1.5) (end -1.5 1.5) (layer F.Fab) (width 0.1))
  (fp_line (start 1.5 -1.5) (end 1.5 1.5) (layer F.Fab) (width 0.1))
  (fp_circle (center -1.778 -1.651) (end -1.7145 -1.651) (layer F.SilkS) (width 0.2))
  (fp_text user %R (at 0 0) (layer F.Fab)
    (effects (font (size 0.65 0.65) (thickness 0.1)))
  )
  (pad "" smd roundrect (at 0.55 -0.5) (size 0.65 0.8) (layers F.Paste F.Mask) (roundrect_rratio 0.25))
  (pad "" smd roundrect (at 0.55 0.5) (size 0.65 0.8) (layers F.Paste F.Mask) (roundrect_rratio 0.25))
  (pad "" smd roundrect (at -0.55 0.5) (size 0.65 0.8) (layers F.Paste F.Mask) (roundrect_rratio 0.25))
  (pad "" smd roundrect (at -0.55 -0.5) (size 0.65 0.8) (layers F.Paste F.Mask) (roundrect_rratio 0.25))
  (pad "" smd roundrect (at -1.39 0.975) (size 0.35 0.35) (layers F.Paste F.Mask) (roundrect_rratio 0.25))
  (pad "" smd roundrect (at -1.39 0.325) (size 0.35 0.35) (layers F.Paste F.Mask) (roundrect_rratio 0.25))
  (pad "" smd roundrect (at -1.39 -0.325) (size 0.35 0.35) (layers F.Paste F.Mask) (roundrect_rratio 0.25))
  (pad "" smd roundrect (at 1.39 0.975) (size 0.35 0.35) (layers F.Paste F.Mask) (roundrect_rratio 0.25))
  (pad "" smd roundrect (at 1.39 0.325) (size 0.35 0.35) (layers F.Paste F.Mask) (roundrect_rratio 0.25))
  (pad "" smd roundrect (at 1.39 -0.325) (size 0.35 0.35) (layers F.Paste F.Mask) (roundrect_rratio 0.25))
  (pad "" smd roundrect (at 1.39 -0.975) (size 0.35 0.35) (layers F.Paste F.Mask) (roundrect_rratio 0.25))
  (pad "" smd roundrect (at -1.39 -0.975) (size 0.35 0.35) (layers F.Paste F.Mask) (roundrect_rratio 0.25))
  (pad 3 smd roundrect (at 1.39 0.325) (size 0.52 1.75) (layers F.Cu F.Mask) (roundrect_rratio 0.25))
  (pad 4 smd roundrect (at 1.39 -0.975) (size 0.52 0.45) (layers F.Cu F.Mask) (roundrect_rratio 0.25))
  (pad 6 smd roundrect (at 0.55 0) (size 0.75 2.52) (layers F.Cu F.Mask) (roundrect_rratio 0.25))
  (pad 5 smd roundrect (at -0.55 0) (size 0.75 2.52) (layers F.Cu F.Mask) (roundrect_rratio 0.25))
  (pad 2 smd roundrect (at -1.39 0.325) (size 0.52 1.75) (layers F.Cu F.Mask) (roundrect_rratio 0.25))
  (pad 1 smd roundrect (at -1.39 -0.975) (size 0.52 0.45) (layers F.Cu F.Mask) (roundrect_rratio 0.25))
  (model ${KISYS3DMOD}/Package_SON.3dshapes/Fairchild_DualPower33-6_3x3mm.wrl
    (at (xyz 0 0 0))
    (scale (xyz 1 1 1))
    (rotate (xyz 0 0 0))
  )
)
