(module Infineon_PG-TISON-8-2 (layer F.Cu) (tedit 607FD740)
  (descr "Infineon, PG-TISON-8-2, 5x6x1.15mm, 1.27mm Pitch, Exposed Paddle, https://www.infineon.com/cms/en/product/packages/PG-TISON/PG-TISON-8-2/, Alternate KiCad Library")
  (tags tison)
  (solder_paste_margin -0.05)
  (attr smd)
  (fp_text reference REF** (at 0 -3.5) (layer F.SilkS)
    (effects (font (size 1 1) (thickness 0.15)))
  )
  (fp_text value Infineon_PG-TISON-8-2 (at 0 3.5) (layer F.Fab)
    (effects (font (size 1 1) (thickness 0.15)))
  )
  (fp_line (start -3.4925 2.7305) (end -3.4925 -2.286) (layer F.SilkS) (width 0.12))
  (fp_line (start 3.4925 2.7305) (end -3.4925 2.7305) (layer F.SilkS) (width 0.12))
  (fp_line (start 3.4925 -2.7305) (end 3.4925 2.7305) (layer F.SilkS) (width 0.12))
  (fp_line (start -3.048 -2.7305) (end 3.4925 -2.7305) (layer F.SilkS) (width 0.12))
  (fp_circle (center -3.3655 -2.6035) (end -3.302 -2.6035) (layer F.SilkS) (width 0.2))
  (fp_line (start 3.5 -2.75) (end 3.5 2.75) (layer F.CrtYd) (width 0.05))
  (fp_line (start 3.5 2.75) (end -3.5 2.75) (layer F.CrtYd) (width 0.05))
  (fp_line (start -3.5 2.75) (end -3.5 -2.75) (layer F.CrtYd) (width 0.05))
  (fp_line (start -3.5 -2.75) (end 3.5 -2.75) (layer F.CrtYd) (width 0.05))
  (fp_line (start -2 -2.5) (end 3 -2.5) (layer F.Fab) (width 0.1))
  (fp_line (start -3 -1.5) (end -3 2.5) (layer F.Fab) (width 0.1))
  (fp_line (start -2 -2.5) (end -3 -1.5) (layer F.Fab) (width 0.1))
  (fp_line (start 3 -2.5) (end 3 2.5) (layer F.Fab) (width 0.1))
  (fp_line (start 3 2.5) (end -3 2.5) (layer F.Fab) (width 0.1))
  (fp_text user %R (at 0 0) (layer F.Fab)
    (effects (font (size 1 1) (thickness 0.15)))
  )
  (pad "" smd rect (at -2.84 1.905) (size 0.73 0.51) (layers F.Paste))
  (pad "" smd rect (at -2.84 0.635) (size 0.73 0.51) (layers F.Paste))
  (pad "" smd rect (at -2.84 -0.635) (size 0.73 0.51) (layers F.Paste))
  (pad "" smd rect (at -1.545 -1.6) (size 0.35 0.6) (layers F.Paste))
  (pad "" smd rect (at -1.82 1.46) (size 0.9 0.5) (layers F.Paste))
  (pad "" smd rect (at -1.82 0.76) (size 0.9 0.5) (layers F.Paste))
  (pad "" smd rect (at -1.82 0.06) (size 0.9 0.5) (layers F.Paste))
  (pad "" smd rect (at -1.82 -0.64) (size 0.9 0.5) (layers F.Paste))
  (pad "" smd rect (at 0 0.475) (size 0.75 0.75) (layers F.Paste))
  (pad "" smd rect (at 1.025 0.475) (size 0.75 0.75) (layers F.Paste))
  (pad "" smd rect (at 0 -0.475) (size 0.75 0.75) (layers F.Paste))
  (pad "" smd rect (at 1.025 -0.475) (size 0.75 0.75) (layers F.Paste))
  (pad "" smd rect (at 0 1.425) (size 0.75 0.75) (layers F.Paste))
  (pad "" smd rect (at 1.025 1.425) (size 0.75 0.75) (layers F.Paste))
  (pad "" smd rect (at 1.025 -1.425) (size 0.75 0.75) (layers F.Paste))
  (pad 2 smd custom (at -1.555 0) (size 0.6 4) (layers F.Cu F.Mask)
    (zone_connect 2)
    (options (clearance outline) (anchor rect))
    (primitives
      (gr_poly (pts
         (xy -0.3 -1.14) (xy -1.02 -1.14) (xy -1.02 -0.94) (xy -1.7 -0.94) (xy -1.7 -0.33)
         (xy -1.02 -0.33) (xy -1.02 0.33) (xy -1.7 0.33) (xy -1.7 0.94) (xy -1.02 0.94)
         (xy -1.02 1.6) (xy -1.7 1.6) (xy -1.7 2.21) (xy -0.87 2.21) (xy -0.87 2)
         (xy -0.3 2)) (width 0))
    ))
  (pad 6 smd rect (at 2.84 -1.905) (size 0.83 0.61) (layers F.Cu F.Paste F.Mask))
  (pad 5 smd rect (at 2.84 -0.635) (size 0.83 0.61) (layers F.Cu F.Paste F.Mask))
  (pad 4 smd rect (at 2.84 0.635) (size 0.83 0.61) (layers F.Cu F.Paste F.Mask))
  (pad 3 smd rect (at 2.84 1.905) (size 0.83 0.61) (layers F.Cu F.Paste F.Mask))
  (pad 1 smd rect (at -2.84 -1.905) (size 0.83 0.61) (layers F.Cu F.Paste F.Mask))
  (pad 7 smd rect (at 0.53 0) (size 2.15 4) (layers F.Cu F.Mask))
  (pad "" smd rect (at 0 -1.425) (size 0.75 0.75) (layers F.Paste))
  (model ${KISYS3DMOD}/Package_SON.3dshapes/Infineon_PG-TISON-8-2.wrl
    (at (xyz 0 0 0))
    (scale (xyz 1 1 1))
    (rotate (xyz 0 0 0))
  )
)
