(module Infineon_PG-TISON-8-4 (layer F.Cu) (tedit 607FD74B)
  (descr "Infineon, PG-TISON-8-4, 5x6x1.15mm, 1.27mm Pitch, Exposed Paddle, https://www.infineon.com/cms/en/product/packages/PG-TISON/PG-TISON-8-4/, Alternate KiCad Library")
  (tags tison)
  (solder_paste_margin -0.05)
  (attr smd)
  (fp_text reference REF** (at 0 -3.5) (layer F.SilkS)
    (effects (font (size 1 1) (thickness 0.15)))
  )
  (fp_text value Infineon_PG-TISON-8-4 (at 0 3.5) (layer F.Fab)
    (effects (font (size 1 1) (thickness 0.15)))
  )
  (fp_line (start 3.4925 2.7305) (end -3.4925 2.7305) (layer F.SilkS) (width 0.12))
  (fp_line (start -3.4925 2.7305) (end -3.4925 -2.286) (layer F.SilkS) (width 0.12))
  (fp_circle (center -3.3655 -2.6035) (end -3.302 -2.6035) (layer F.SilkS) (width 0.2))
  (fp_line (start -3.048 -2.7305) (end 3.4925 -2.7305) (layer F.SilkS) (width 0.12))
  (fp_line (start 3.4925 -2.7305) (end 3.4925 2.7305) (layer F.SilkS) (width 0.12))
  (fp_line (start 3 2.5) (end -3 2.5) (layer F.Fab) (width 0.1))
  (fp_line (start 3 -2.5) (end 3 2.5) (layer F.Fab) (width 0.1))
  (fp_line (start -2 -2.5) (end -3 -1.5) (layer F.Fab) (width 0.1))
  (fp_line (start -3 -1.5) (end -3 2.5) (layer F.Fab) (width 0.1))
  (fp_line (start -2 -2.5) (end 3 -2.5) (layer F.Fab) (width 0.1))
  (fp_line (start -3.52 -2.75) (end 3.52 -2.75) (layer F.CrtYd) (width 0.05))
  (fp_line (start -3.52 2.75) (end -3.52 -2.75) (layer F.CrtYd) (width 0.05))
  (fp_line (start 3.52 2.75) (end -3.52 2.75) (layer F.CrtYd) (width 0.05))
  (fp_line (start 3.52 -2.75) (end 3.52 2.75) (layer F.CrtYd) (width 0.05))
  (fp_text user %R (at 0 0) (layer F.Fab)
    (effects (font (size 1 1) (thickness 0.15)))
  )
  (pad "" smd rect (at 1.92 -1.905) (size 0.8 0.35) (layers F.Paste))
  (pad "" smd rect (at 2.87 -1.905) (size 0.7 0.35) (layers F.Paste))
  (pad "" smd rect (at 1.1 1.5) (size 0.85 0.75) (layers F.Paste))
  (pad "" smd rect (at 1.1 0.5) (size 0.85 0.75) (layers F.Paste))
  (pad "" smd rect (at 1.1 -0.315) (size 0.85 0.38) (layers F.Paste))
  (pad "" smd rect (at 0 1.5) (size 0.85 0.75) (layers F.Paste))
  (pad "" smd rect (at 0 0.5) (size 0.85 0.75) (layers F.Paste))
  (pad "" smd rect (at 0 -1.5) (size 0.85 0.75) (layers F.Paste))
  (pad "" smd rect (at 0 -0.5) (size 0.85 0.75) (layers F.Paste))
  (pad "" smd rect (at -1.57 -1.5) (size 0.8 0.75) (layers F.Paste))
  (pad "" smd rect (at -1.57 -0.5) (size 0.8 0.75) (layers F.Paste))
  (pad "" smd rect (at -1.57 1.5) (size 0.8 0.75) (layers F.Paste))
  (pad "" smd rect (at -1.57 0) (size 1 4.25) (layers F.Mask))
  (pad "" smd rect (at -2.87 1.905) (size 0.8 0.45) (layers F.Mask))
  (pad "" smd rect (at -2.87 0.635) (size 0.8 0.45) (layers F.Mask))
  (pad 2 smd rect (at -2.87 -0.635) (size 0.8 0.45) (layers F.Cu F.Paste F.Mask))
  (pad "" smd rect (at -2.87 1.905) (size 0.7 0.35) (layers F.Paste))
  (pad "" smd rect (at -2.87 0.635) (size 0.7 0.35) (layers F.Paste))
  (pad "" smd rect (at -1.57 0.5) (size 0.8 0.75) (layers F.Paste))
  (pad 3 smd custom (at -1.57 0) (size 1 4.25) (layers F.Cu)
    (zone_connect 2)
    (options (clearance outline) (anchor rect))
    (primitives
      (gr_poly (pts
         (xy -0.5 0.41) (xy -1.7 0.41) (xy -1.7 2.13) (xy -0.5 2.13)) (width 0))
    ))
  (pad 7 smd rect (at 2.37 -1.905) (size 1.8 0.45) (layers F.Cu F.Mask))
  (pad 6 smd rect (at 2.87 -0.635) (size 0.8 0.45) (layers F.Cu F.Paste F.Mask))
  (pad 5 smd rect (at 2.87 0.635) (size 0.8 0.45) (layers F.Cu F.Paste F.Mask))
  (pad 4 smd rect (at 2.87 1.905) (size 0.8 0.45) (layers F.Cu F.Paste F.Mask))
  (pad 1 smd rect (at -2.87 -1.905) (size 0.8 0.45) (layers F.Cu F.Paste F.Mask))
  (pad 8 smd custom (at 0.077 0) (size 1.4 4.25) (layers F.Cu F.Mask)
    (zone_connect 2)
    (options (clearance outline) (anchor rect))
    (primitives
      (gr_poly (pts
         (xy 0.7 -0.675) (xy 1.65 -0.675) (xy 1.65 2.125) (xy 0.7 2.125)) (width 0))
    ))
  (model ${KISYS3DMOD}/Package_SON.3dshapes/Infineon_PG-TISON-8-4.wrl
    (at (xyz 0 0 0))
    (scale (xyz 1 1 1))
    (rotate (xyz 0 0 0))
  )
)
