(module NXP_XSON-16 (layer F.Cu) (tedit 607FD756)
  (descr "http://www.nxp.com/documents/outline_drawing/SOT1341-1.pdf, Alternate KiCad Library")
  (tags "NXP XSON SOT-1341")
  (attr smd)
  (fp_text reference REF** (at 0 -3) (layer F.SilkS)
    (effects (font (size 1 1) (thickness 0.15)))
  )
  (fp_text value NXP_XSON-16 (at 0 3) (layer F.Fab)
    (effects (font (size 1 1) (thickness 0.15)))
  )
  (fp_line (start -1.7145 1.905) (end -1.7145 -1.4605) (layer F.SilkS) (width 0.12))
  (fp_line (start 1.7145 1.905) (end -1.7145 1.905) (layer F.SilkS) (width 0.12))
  (fp_line (start 1.7145 -1.905) (end 1.7145 1.905) (layer F.SilkS) (width 0.12))
  (fp_line (start -1.27 -1.905) (end 1.7145 -1.905) (layer F.SilkS) (width 0.12))
  (fp_line (start 1.67 1.85) (end -1.67 1.85) (layer F.CrtYd) (width 0.05))
  (fp_line (start 1.67 1.85) (end 1.67 -1.85) (layer F.CrtYd) (width 0.05))
  (fp_line (start -1.67 -1.85) (end -1.67 1.85) (layer F.CrtYd) (width 0.05))
  (fp_line (start -1.67 -1.85) (end 1.67 -1.85) (layer F.CrtYd) (width 0.05))
  (fp_line (start -1.25 -0.975) (end -1.25 1.6) (layer F.Fab) (width 0.1))
  (fp_line (start -0.625 -1.6) (end 1.25 -1.6) (layer F.Fab) (width 0.1))
  (fp_line (start -1.25 1.6) (end 1.25 1.6) (layer F.Fab) (width 0.1))
  (fp_line (start 1.25 -1.6) (end 1.25 1.6) (layer F.Fab) (width 0.1))
  (fp_line (start -0.65 -1.6) (end -1.25 -1) (layer F.Fab) (width 0.1))
  (fp_circle (center -1.5875 -1.778) (end -1.524 -1.778) (layer F.SilkS) (width 0.2))
  (fp_text user %R (at 0 0) (layer F.Fab)
    (effects (font (size 0.6 0.6) (thickness 0.1)))
  )
  (pad 9 smd rect (at 0.885 1.4) (size 1.07 0.22) (layers F.Cu F.Paste F.Mask))
  (pad 10 smd rect (at 0.885 1) (size 1.07 0.22) (layers F.Cu F.Paste F.Mask))
  (pad 11 smd rect (at 0.885 0.6) (size 1.07 0.22) (layers F.Cu F.Paste F.Mask))
  (pad 12 smd rect (at 0.885 0.2) (size 1.07 0.22) (layers F.Cu F.Paste F.Mask))
  (pad 13 smd rect (at 0.885 -0.2) (size 1.07 0.22) (layers F.Cu F.Paste F.Mask))
  (pad 14 smd rect (at 0.885 -0.6) (size 1.07 0.22) (layers F.Cu F.Paste F.Mask))
  (pad 15 smd rect (at 0.885 -1) (size 1.07 0.22) (layers F.Cu F.Paste F.Mask))
  (pad 8 smd rect (at -0.885 1.4) (size 1.07 0.22) (layers F.Cu F.Paste F.Mask))
  (pad 7 smd rect (at -0.885 1) (size 1.07 0.22) (layers F.Cu F.Paste F.Mask))
  (pad 6 smd rect (at -0.885 0.6) (size 1.07 0.22) (layers F.Cu F.Paste F.Mask))
  (pad 5 smd rect (at -0.885 0.2) (size 1.07 0.22) (layers F.Cu F.Paste F.Mask))
  (pad 4 smd rect (at -0.885 -0.2) (size 1.07 0.22) (layers F.Cu F.Paste F.Mask))
  (pad 3 smd rect (at -0.885 -0.6) (size 1.07 0.22) (layers F.Cu F.Paste F.Mask))
  (pad 2 smd rect (at -0.885 -1) (size 1.07 0.22) (layers F.Cu F.Paste F.Mask))
  (pad 16 smd rect (at 0.885 -1.4) (size 1.07 0.22) (layers F.Cu F.Paste F.Mask))
  (pad 1 smd rect (at -0.885 -1.4) (size 1.07 0.22) (layers F.Cu F.Paste F.Mask))
  (model ${KISYS3DMOD}/Package_SON.3dshapes/NXP_XSON-16.wrl
    (at (xyz 0 0 0))
    (scale (xyz 1 1 1))
    (rotate (xyz 0 0 0))
  )
)
