(module SON-8-1EP_3x2mm_P0.5mm_EP1.4x1.6mm (layer F.Cu) (tedit 607FD771)
  (descr "SON, 8 Pin (http://www.fujitsu.com/downloads/MICRO/fsa/pdf/products/memory/fram/MB85RS16-DS501-00014-6v0-E.pdf), Alternate KiCad Library")
  (tags "SON NoLead")
  (attr smd)
  (fp_text reference REF** (at 0 -2.0955) (layer F.SilkS)
    (effects (font (size 1 1) (thickness 0.15)))
  )
  (fp_text value SON-8-1EP_3x2mm_P0.5mm_EP1.4x1.6mm (at 0 1.95) (layer F.Fab)
    (effects (font (size 1 1) (thickness 0.15)))
  )
  (fp_line (start -1.8415 1.27) (end -1.8415 -0.889) (layer F.SilkS) (width 0.12))
  (fp_line (start 1.8415 1.27) (end -1.8415 1.27) (layer F.SilkS) (width 0.12))
  (fp_line (start 1.8415 -1.27) (end 1.8415 1.27) (layer F.SilkS) (width 0.12))
  (fp_line (start 1.778 -1.27) (end 1.8415 -1.27) (layer F.SilkS) (width 0.12))
  (fp_line (start -1.4605 -1.27) (end 1.778 -1.27) (layer F.SilkS) (width 0.12))
  (fp_line (start 1.8 -1.25) (end -1.8 -1.25) (layer F.CrtYd) (width 0.05))
  (fp_line (start 1.8 1.25) (end 1.8 -1.25) (layer F.CrtYd) (width 0.05))
  (fp_line (start -1.8 1.25) (end 1.8 1.25) (layer F.CrtYd) (width 0.05))
  (fp_line (start -1.8 -1.25) (end -1.8 1.25) (layer F.CrtYd) (width 0.05))
  (fp_line (start -1.5 -0.5) (end -1 -1) (layer F.Fab) (width 0.1))
  (fp_line (start -1.5 1) (end -1.5 -0.5) (layer F.Fab) (width 0.1))
  (fp_line (start 1.5 1) (end -1.5 1) (layer F.Fab) (width 0.1))
  (fp_line (start 1.5 -1) (end 1.5 1) (layer F.Fab) (width 0.1))
  (fp_line (start -1 -1) (end 1.5 -1) (layer F.Fab) (width 0.1))
  (fp_circle (center -1.778 -1.2065) (end -1.7145 -1.2065) (layer F.SilkS) (width 0.2))
  (fp_text user %R (at 0 0) (layer F.Fab)
    (effects (font (size 0.75 0.75) (thickness 0.11)))
  )
  (pad "" smd roundrect (at 0.35 0.4) (size 0.56 0.64) (layers F.Paste) (roundrect_rratio 0.25))
  (pad "" smd roundrect (at 0.35 -0.4) (size 0.56 0.64) (layers F.Paste) (roundrect_rratio 0.25))
  (pad "" smd roundrect (at -0.35 0.4) (size 0.56 0.64) (layers F.Paste) (roundrect_rratio 0.25))
  (pad "" smd roundrect (at -0.35 -0.4) (size 0.56 0.64) (layers F.Paste) (roundrect_rratio 0.25))
  (pad 9 smd rect (at 0 0) (size 1.4 1.6) (layers F.Cu F.Mask))
  (pad 8 smd roundrect (at 1.2875 -0.75) (size 0.525 0.35) (layers F.Cu F.Paste F.Mask) (roundrect_rratio 0.25))
  (pad 7 smd roundrect (at 1.2875 -0.25) (size 0.525 0.35) (layers F.Cu F.Paste F.Mask) (roundrect_rratio 0.25))
  (pad 6 smd roundrect (at 1.2875 0.25) (size 0.525 0.35) (layers F.Cu F.Paste F.Mask) (roundrect_rratio 0.25))
  (pad 5 smd roundrect (at 1.2875 0.75) (size 0.525 0.35) (layers F.Cu F.Paste F.Mask) (roundrect_rratio 0.25))
  (pad 4 smd roundrect (at -1.2875 0.75) (size 0.525 0.35) (layers F.Cu F.Paste F.Mask) (roundrect_rratio 0.25))
  (pad 3 smd roundrect (at -1.2875 0.25) (size 0.525 0.35) (layers F.Cu F.Paste F.Mask) (roundrect_rratio 0.25))
  (pad 2 smd roundrect (at -1.2875 -0.25) (size 0.525 0.35) (layers F.Cu F.Paste F.Mask) (roundrect_rratio 0.25))
  (pad 1 smd roundrect (at -1.2875 -0.75) (size 0.525 0.35) (layers F.Cu F.Paste F.Mask) (roundrect_rratio 0.25))
  (model ${KISYS3DMOD}/Package_SON.3dshapes/SON-8-1EP_3x2mm_P0.5mm_EP1.4x1.6mm.wrl
    (at (xyz 0 0 0))
    (scale (xyz 1 1 1))
    (rotate (xyz 0 0 0))
  )
)
