(module Texas_DSC0010J_ThermalVias (layer F.Cu) (tedit 607FD78E)
  (descr "3x3mm Body, 0.5mm Pitch, DSC0010J, WSON, http://www.ti.com/lit/ds/symlink/tps61201.pdf, Alternate KiCad Library")
  (tags "0.5 DSC0010J WSON")
  (attr smd)
  (fp_text reference REF** (at 0 -2.8575) (layer F.SilkS)
    (effects (font (size 1 1) (thickness 0.15)))
  )
  (fp_text value Texas_DSC0010J_ThermalVias (at 0 2.9) (layer F.Fab)
    (effects (font (size 1 1) (thickness 0.15)))
  )
  (fp_circle (center -1.9685 -1.9685) (end -1.905 -1.9685) (layer F.SilkS) (width 0.3))
  (fp_line (start 2.159 2.159) (end -2.159 2.159) (layer F.SilkS) (width 0.12))
  (fp_line (start -2.159 2.159) (end -2.159 -1.5875) (layer F.SilkS) (width 0.12))
  (fp_line (start 2.159 -2.159) (end 2.159 2.159) (layer F.SilkS) (width 0.12))
  (fp_line (start -1.5875 -2.159) (end 2.159 -2.159) (layer F.SilkS) (width 0.12))
  (fp_line (start -2.15 2.15) (end 2.15 2.15) (layer F.CrtYd) (width 0.05))
  (fp_line (start -2.15 -2.15) (end 2.15 -2.15) (layer F.CrtYd) (width 0.05))
  (fp_line (start 2.15 -2.15) (end 2.15 2.15) (layer F.CrtYd) (width 0.05))
  (fp_line (start -2.15 -2.15) (end -2.15 2.15) (layer F.CrtYd) (width 0.05))
  (fp_line (start -0.775 -1.55) (end 1.55 -1.55) (layer F.Fab) (width 0.1))
  (fp_line (start 1.55 -1.55) (end 1.55 1.55) (layer F.Fab) (width 0.1))
  (fp_line (start 1.55 1.55) (end -1.55 1.55) (layer F.Fab) (width 0.1))
  (fp_line (start -1.55 1.55) (end -1.55 -0.775) (layer F.Fab) (width 0.1))
  (fp_line (start -0.775 -1.55) (end -1.55 -0.775) (layer F.Fab) (width 0.1))
  (fp_text user %R (at 0 0) (layer F.Fab)
    (effects (font (size 0.7 0.7) (thickness 0.1)))
  )
  (pad 11 smd rect (at 0 0) (size 2.3 2.8) (layers B.Cu B.Mask))
  (pad 11 thru_hole circle (at -0.5 0.75) (size 0.6 0.6) (drill 0.3) (layers *.Cu *.Mask))
  (pad 11 thru_hole circle (at -0.5 -0.75) (size 0.6 0.6) (drill 0.3) (layers *.Cu *.Mask))
  (pad 11 thru_hole circle (at 0.5 -0.75) (size 0.6 0.6) (drill 0.3) (layers *.Cu *.Mask))
  (pad 11 thru_hole circle (at 0 0) (size 0.6 0.6) (drill 0.3) (layers *.Cu *.Mask))
  (pad 11 thru_hole circle (at 0.5 0.75) (size 0.6 0.6) (drill 0.3) (layers *.Cu *.Mask))
  (pad 10 smd oval (at 1.475 -1) (size 0.85 0.28) (layers F.Cu F.Paste F.Mask)
    (solder_mask_margin 0.07) (solder_paste_margin -0.025))
  (pad 9 smd oval (at 1.475 -0.5) (size 0.85 0.28) (layers F.Cu F.Paste F.Mask)
    (solder_mask_margin 0.07) (solder_paste_margin -0.025))
  (pad 8 smd oval (at 1.475 0) (size 0.85 0.28) (layers F.Cu F.Paste F.Mask)
    (solder_mask_margin 0.07) (solder_paste_margin -0.025))
  (pad 7 smd rect (at 1.76 0.5) (size 0.28 0.28) (layers F.Cu F.Paste F.Mask)
    (solder_mask_margin 0.07) (solder_paste_margin -0.025))
  (pad 6 smd rect (at 1.76 1) (size 0.28 0.28) (layers F.Cu F.Paste F.Mask)
    (solder_mask_margin 0.07) (solder_paste_margin -0.025))
  (pad 5 smd oval (at -1.475 1) (size 0.85 0.28) (layers F.Cu F.Paste F.Mask)
    (solder_mask_margin 0.07) (solder_paste_margin -0.025))
  (pad 4 smd rect (at -1.76 0.5) (size 0.28 0.28) (layers F.Cu F.Paste F.Mask)
    (solder_mask_margin 0.07) (solder_paste_margin -0.025))
  (pad 3 smd oval (at -1.475 0) (size 0.85 0.28) (layers F.Cu F.Paste F.Mask)
    (solder_mask_margin 0.07) (solder_paste_margin -0.025))
  (pad 2 smd rect (at -1.76 -0.5) (size 0.28 0.28) (layers F.Cu F.Paste F.Mask)
    (solder_mask_margin 0.07) (solder_paste_margin -0.025))
  (pad 1 smd rect (at -1.76 -1) (size 0.28 0.28) (layers F.Cu F.Paste F.Mask)
    (solder_mask_margin 0.07) (solder_paste_margin -0.025))
  (pad 11 smd rect (at 0 0) (size 1.65 2.4) (layers F.Cu F.Mask))
  (pad 11 smd rect (at 0.45 0.635) (size 0.68 1.05) (layers F.Cu F.Paste F.Mask))
  (pad 11 smd rect (at -0.45 0.635) (size 0.68 1.05) (layers F.Cu F.Paste F.Mask))
  (pad 11 smd rect (at 0.45 -0.635) (size 0.68 1.05) (layers F.Cu F.Paste F.Mask))
  (pad 11 smd rect (at 0.25 1.63) (size 0.26 0.5) (layers F.Cu F.Paste F.Mask))
  (pad 11 smd rect (at -0.25 1.63) (size 0.26 0.5) (layers F.Cu F.Paste F.Mask))
  (pad 11 smd rect (at 0.25 -1.63) (size 0.26 0.5) (layers F.Cu F.Paste F.Mask))
  (pad 11 smd rect (at 0.25 1.55) (size 0.28 0.7) (layers F.Cu F.Mask))
  (pad 11 smd rect (at -0.25 1.55) (size 0.28 0.7) (layers F.Cu F.Mask))
  (pad 11 smd rect (at 0.25 -1.55) (size 0.28 0.7) (layers F.Cu F.Mask))
  (pad 11 smd rect (at -0.25 -1.63) (size 0.26 0.5) (layers F.Cu F.Paste F.Mask))
  (pad 11 smd rect (at -0.25 -1.55) (size 0.28 0.7) (layers F.Cu F.Mask))
  (pad 11 smd rect (at -0.45 -0.635) (size 0.68 1.05) (layers F.Cu F.Paste F.Mask))
  (pad 10 smd rect (at 1.76 -1) (size 0.28 0.28) (layers F.Cu F.Paste F.Mask)
    (solder_mask_margin 0.07) (solder_paste_margin -0.025))
  (pad 9 smd rect (at 1.76 -0.5) (size 0.28 0.28) (layers F.Cu F.Paste F.Mask)
    (solder_mask_margin 0.07) (solder_paste_margin -0.025))
  (pad 8 smd rect (at 1.76 0) (size 0.28 0.28) (layers F.Cu F.Paste F.Mask)
    (solder_mask_margin 0.07) (solder_paste_margin -0.025))
  (pad 7 smd oval (at 1.475 0.5) (size 0.85 0.28) (layers F.Cu F.Paste F.Mask)
    (solder_mask_margin 0.07) (solder_paste_margin -0.025))
  (pad 6 smd oval (at 1.475 1) (size 0.85 0.28) (layers F.Cu F.Paste F.Mask)
    (solder_mask_margin 0.07) (solder_paste_margin -0.025))
  (pad 5 smd rect (at -1.76 1) (size 0.28 0.28) (layers F.Cu F.Paste F.Mask)
    (solder_mask_margin 0.07) (solder_paste_margin -0.025))
  (pad 4 smd oval (at -1.475 0.5) (size 0.85 0.28) (layers F.Cu F.Paste F.Mask)
    (solder_mask_margin 0.07) (solder_paste_margin -0.025))
  (pad 3 smd rect (at -1.76 0) (size 0.28 0.28) (layers F.Cu F.Paste F.Mask)
    (solder_mask_margin 0.07) (solder_paste_margin -0.025))
  (pad 2 smd oval (at -1.475 -0.5) (size 0.85 0.28) (layers F.Cu F.Paste F.Mask)
    (solder_mask_margin 0.07) (solder_paste_margin -0.025))
  (pad 1 smd oval (at -1.475 -1) (size 0.85 0.28) (layers F.Cu F.Paste F.Mask)
    (solder_mask_margin 0.07) (solder_paste_margin -0.025))
  (model ${KISYS3DMOD}/Package_SON.3dshapes/Texas_S-DSC0010J.wrl
    (at (xyz 0 0 0))
    (scale (xyz 1 1 1))
    (rotate (xyz 0 0 0))
  )
)
