(module Texas_S-PWSON-N10 (layer F.Cu) (tedit 607FD7D4)
  (descr "3x3mm Body, 0.5mm Pitch, S-PWSON-N10, DSC, http://www.ti.com/lit/ds/symlink/tps63060.pdf, Alternate KiCad Library")
  (tags "0.5 S-PWSON-N10 DSC")
  (attr smd)
  (fp_text reference REF** (at 0 -2.8) (layer F.SilkS)
    (effects (font (size 1 1) (thickness 0.15)))
  )
  (fp_text value Texas_S-PWSON-N10 (at 0 2.8) (layer F.Fab)
    (effects (font (size 1 1) (thickness 0.15)))
  )
  (fp_line (start -2.159 2.032) (end -2.159 -1.5875) (layer F.SilkS) (width 0.12))
  (fp_line (start 2.159 2.032) (end -2.159 2.032) (layer F.SilkS) (width 0.12))
  (fp_line (start 2.159 -2.032) (end 2.159 2.032) (layer F.SilkS) (width 0.12))
  (fp_line (start -1.7145 -2.032) (end 2.159 -2.032) (layer F.SilkS) (width 0.12))
  (fp_line (start -2.15 2.03) (end 2.15 2.03) (layer F.CrtYd) (width 0.05))
  (fp_line (start -2.15 -2.03) (end 2.15 -2.03) (layer F.CrtYd) (width 0.05))
  (fp_line (start 2.15 -2.03) (end 2.15 2.03) (layer F.CrtYd) (width 0.05))
  (fp_line (start -2.15 -2.03) (end -2.15 2.03) (layer F.CrtYd) (width 0.05))
  (fp_line (start -0.7875 -1.575) (end 1.575 -1.575) (layer F.Fab) (width 0.1))
  (fp_line (start 1.575 -1.575) (end 1.575 1.575) (layer F.Fab) (width 0.1))
  (fp_line (start 1.575 1.575) (end -1.575 1.575) (layer F.Fab) (width 0.1))
  (fp_line (start -1.575 1.575) (end -1.575 -0.7875) (layer F.Fab) (width 0.1))
  (fp_line (start -0.7875 -1.575) (end -1.575 -0.7875) (layer F.Fab) (width 0.1))
  (fp_circle (center -2.032 -1.905) (end -1.9685 -1.905) (layer F.SilkS) (width 0.2))
  (fp_text user %R (at 0 0) (layer F.Fab)
    (effects (font (size 0.6 0.6) (thickness 0.09)))
  )
  (pad 11 smd rect (at 0.6 1.425) (size 0.23 0.6) (layers F.Cu F.Paste F.Mask))
  (pad 11 smd rect (at 0.2 1.425) (size 0.23 0.6) (layers F.Cu F.Paste F.Mask))
  (pad 11 smd rect (at -0.2 1.425) (size 0.23 0.6) (layers F.Cu F.Paste F.Mask))
  (pad 11 smd rect (at -0.6 1.425) (size 0.23 0.6) (layers F.Cu F.Paste F.Mask))
  (pad 11 smd rect (at 0.6 -1.425) (size 0.23 0.6) (layers F.Cu F.Paste F.Mask))
  (pad 11 smd rect (at 0.2 -1.425) (size 0.23 0.6) (layers F.Cu F.Paste F.Mask))
  (pad 11 smd rect (at -0.2 -1.425) (size 0.23 0.6) (layers F.Cu F.Paste F.Mask))
  (pad 11 smd rect (at -0.6 -1.425) (size 0.23 0.6) (layers F.Cu F.Paste F.Mask))
  (pad 11 smd rect (at 0.435 -0.56) (size 0.65 0.9) (layers F.Cu F.Paste F.Mask))
  (pad 11 smd rect (at -0.435 0.56) (size 0.65 0.9) (layers F.Cu F.Paste F.Mask))
  (pad 11 smd rect (at 0.435 0.56) (size 0.65 0.9) (layers F.Cu F.Paste F.Mask))
  (pad 11 smd rect (at -0.435 -0.56) (size 0.65 0.9) (layers F.Cu F.Paste F.Mask))
  (pad 10 smd oval (at 1.475 -1) (size 0.85 0.28) (layers F.Cu F.Paste F.Mask)
    (solder_mask_margin 0.07) (solder_paste_margin -0.025))
  (pad 9 smd oval (at 1.475 -0.5) (size 0.85 0.28) (layers F.Cu F.Paste F.Mask)
    (solder_mask_margin 0.07) (solder_paste_margin -0.025))
  (pad 8 smd oval (at 1.475 0) (size 0.85 0.28) (layers F.Cu F.Paste F.Mask)
    (solder_mask_margin 0.07) (solder_paste_margin -0.025))
  (pad 7 smd rect (at 1.76 0.5) (size 0.28 0.28) (layers F.Cu F.Paste F.Mask)
    (solder_mask_margin 0.07) (solder_paste_margin -0.025))
  (pad 6 smd rect (at 1.76 1) (size 0.28 0.28) (layers F.Cu F.Paste F.Mask)
    (solder_mask_margin 0.07) (solder_paste_margin -0.025))
  (pad 5 smd oval (at -1.475 1) (size 0.85 0.28) (layers F.Cu F.Paste F.Mask)
    (solder_mask_margin 0.07) (solder_paste_margin -0.025))
  (pad 4 smd rect (at -1.76 0.5) (size 0.28 0.28) (layers F.Cu F.Paste F.Mask)
    (solder_mask_margin 0.07) (solder_paste_margin -0.025))
  (pad 3 smd oval (at -1.475 0) (size 0.85 0.28) (layers F.Cu F.Paste F.Mask)
    (solder_mask_margin 0.07) (solder_paste_margin -0.025))
  (pad 2 smd rect (at -1.76 -0.5) (size 0.28 0.28) (layers F.Cu F.Paste F.Mask)
    (solder_mask_margin 0.07) (solder_paste_margin -0.025))
  (pad 1 smd rect (at -1.76 -1) (size 0.28 0.28) (layers F.Cu F.Paste F.Mask)
    (solder_mask_margin 0.07) (solder_paste_margin -0.025))
  (pad 11 smd rect (at 0 0) (size 1.7 2.15) (layers F.Cu F.Mask))
  (pad 11 smd rect (at 0.2 1.425) (size 0.25 0.7) (layers F.Cu F.Mask)
    (solder_paste_margin -0.05))
  (pad 11 smd rect (at -0.2 1.425) (size 0.25 0.7) (layers F.Cu F.Mask)
    (solder_paste_margin -0.05))
  (pad 11 smd rect (at 0.2 -1.425) (size 0.25 0.7) (layers F.Cu F.Mask)
    (solder_paste_margin -0.05))
  (pad 11 smd rect (at -0.2 -1.425) (size 0.25 0.7) (layers F.Cu F.Mask)
    (solder_paste_margin -0.05))
  (pad 10 smd rect (at 1.76 -1) (size 0.28 0.28) (layers F.Cu F.Paste F.Mask)
    (solder_mask_margin 0.07) (solder_paste_margin -0.025))
  (pad 9 smd rect (at 1.76 -0.5) (size 0.28 0.28) (layers F.Cu F.Paste F.Mask)
    (solder_mask_margin 0.07) (solder_paste_margin -0.025))
  (pad 8 smd rect (at 1.76 0) (size 0.28 0.28) (layers F.Cu F.Paste F.Mask)
    (solder_mask_margin 0.07) (solder_paste_margin -0.025))
  (pad 7 smd oval (at 1.475 0.5) (size 0.85 0.28) (layers F.Cu F.Paste F.Mask)
    (solder_mask_margin 0.07) (solder_paste_margin -0.025))
  (pad 6 smd oval (at 1.475 1) (size 0.85 0.28) (layers F.Cu F.Paste F.Mask)
    (solder_mask_margin 0.07) (solder_paste_margin -0.025))
  (pad 5 smd rect (at -1.76 1) (size 0.28 0.28) (layers F.Cu F.Paste F.Mask)
    (solder_mask_margin 0.07) (solder_paste_margin -0.025))
  (pad 4 smd oval (at -1.475 0.5) (size 0.85 0.28) (layers F.Cu F.Paste F.Mask)
    (solder_mask_margin 0.07) (solder_paste_margin -0.025))
  (pad 3 smd rect (at -1.76 0) (size 0.28 0.28) (layers F.Cu F.Paste F.Mask)
    (solder_mask_margin 0.07) (solder_paste_margin -0.025))
  (pad 2 smd oval (at -1.475 -0.5) (size 0.85 0.28) (layers F.Cu F.Paste F.Mask)
    (solder_mask_margin 0.07) (solder_paste_margin -0.025))
  (pad 1 smd oval (at -1.475 -1) (size 0.85 0.28) (layers F.Cu F.Paste F.Mask)
    (solder_mask_margin 0.07) (solder_paste_margin -0.025))
  (pad 11 smd rect (at 0.6 -1.425) (size 0.25 0.7) (layers F.Cu F.Mask)
    (solder_paste_margin -0.05))
  (pad 11 smd rect (at -0.6 -1.425) (size 0.25 0.7) (layers F.Cu F.Mask)
    (solder_paste_margin -0.05))
  (pad 11 smd rect (at 0.6 1.425) (size 0.25 0.7) (layers F.Cu F.Mask)
    (solder_paste_margin -0.05))
  (pad 11 smd rect (at -0.6 1.425) (size 0.25 0.7) (layers F.Cu F.Mask)
    (solder_paste_margin -0.05))
  (model ${KISYS3DMOD}/Package_SON.3dshapes/Texas_S-PWSON-N10.wrl
    (at (xyz 0 0 0))
    (scale (xyz 1 1 1))
    (rotate (xyz 0 0 0))
  )
)
