(module Texas_S-PVSON-N8 (layer F.Cu) (tedit 607FD7B3)
  (descr "8-Lead Plastic VSON, 3x3mm Body, 0.65mm Pitch, S-PVSON-N8, http://www.ti.com/lit/ds/symlink/opa2333.pdf, Alternate KiCad Library")
  (tags "DFN 0.65 S-PVSON-N8")
  (attr smd)
  (fp_text reference REF** (at 0 -2.6035) (layer F.SilkS)
    (effects (font (size 1 1) (thickness 0.15)))
  )
  (fp_text value Texas_S-PVSON-N8 (at 0 2.6) (layer F.Fab)
    (effects (font (size 1 1) (thickness 0.15)))
  )
  (fp_line (start -2.159 1.8415) (end -2.159 -1.397) (layer F.SilkS) (width 0.12))
  (fp_line (start 2.159 1.8415) (end -2.159 1.8415) (layer F.SilkS) (width 0.12))
  (fp_line (start 2.159 -1.8415) (end 2.159 1.8415) (layer F.SilkS) (width 0.12))
  (fp_line (start -1.7145 -1.8415) (end 2.159 -1.8415) (layer F.SilkS) (width 0.12))
  (fp_line (start -2.1 1.8) (end 2.1 1.8) (layer F.CrtYd) (width 0.05))
  (fp_line (start -2.1 -1.8) (end 2.1 -1.8) (layer F.CrtYd) (width 0.05))
  (fp_line (start 2.1 -1.8) (end 2.1 1.8) (layer F.CrtYd) (width 0.05))
  (fp_line (start -2.1 -1.8) (end -2.1 1.8) (layer F.CrtYd) (width 0.05))
  (fp_line (start -0.5 -1.5) (end 1.5 -1.5) (layer F.Fab) (width 0.1))
  (fp_line (start 1.5 -1.5) (end 1.5 1.5) (layer F.Fab) (width 0.1))
  (fp_line (start 1.5 1.5) (end -1.5 1.5) (layer F.Fab) (width 0.1))
  (fp_line (start -1.5 1.5) (end -1.5 -0.5) (layer F.Fab) (width 0.1))
  (fp_line (start -0.5 -1.5) (end -1.5 -0.5) (layer F.Fab) (width 0.1))
  (fp_circle (center -2.032 -1.7145) (end -1.9685 -1.7145) (layer F.SilkS) (width 0.2))
  (fp_text user %R (at 0 0) (layer F.Fab)
    (effects (font (size 0.7 0.7) (thickness 0.1)))
  )
  (pad 8 smd oval (at 1.55 -0.975) (size 0.65 0.4) (layers F.Cu F.Paste F.Mask)
    (solder_paste_margin -0.05))
  (pad 7 smd oval (at 1.55 -0.325) (size 0.65 0.4) (layers F.Cu F.Paste F.Mask)
    (solder_paste_margin -0.05))
  (pad 6 smd rect (at 1.75 0.325) (size 0.3 0.4) (layers F.Cu F.Paste F.Mask)
    (solder_paste_margin -0.05))
  (pad 5 smd rect (at 1.75 0.975) (size 0.3 0.4) (layers F.Cu F.Paste F.Mask)
    (solder_paste_margin -0.05))
  (pad 4 smd rect (at -1.75 0.975) (size 0.3 0.4) (layers F.Cu F.Paste F.Mask)
    (solder_paste_margin -0.05))
  (pad 3 smd oval (at -1.55 0.325) (size 0.65 0.4) (layers F.Cu F.Paste F.Mask)
    (solder_paste_margin -0.05))
  (pad 2 smd rect (at -1.75 -0.325) (size 0.3 0.4) (layers F.Cu F.Paste F.Mask)
    (solder_paste_margin -0.05))
  (pad 1 smd rect (at -1.75 -0.975) (size 0.3 0.4) (layers F.Cu F.Paste F.Mask)
    (solder_paste_margin -0.05))
  (pad 9 smd rect (at 0 0) (size 1.65 2.4) (layers F.Cu F.Mask))
  (pad 9 smd rect (at 0.45 0.625) (size 0.65 1) (layers F.Cu F.Paste F.Mask))
  (pad 9 smd rect (at -0.45 0.625) (size 0.65 1) (layers F.Cu F.Paste F.Mask))
  (pad 9 smd rect (at 0.45 -0.625) (size 0.65 1) (layers F.Cu F.Paste F.Mask))
  (pad 9 smd rect (at -0.45 -0.625) (size 0.65 1) (layers F.Cu F.Paste F.Mask))
  (pad 8 smd rect (at 1.75 -0.975) (size 0.3 0.4) (layers F.Cu F.Paste F.Mask)
    (solder_paste_margin -0.05))
  (pad 7 smd rect (at 1.75 -0.325) (size 0.3 0.4) (layers F.Cu F.Paste F.Mask)
    (solder_paste_margin -0.05))
  (pad 6 smd oval (at 1.55 0.325) (size 0.65 0.4) (layers F.Cu F.Paste F.Mask)
    (solder_paste_margin -0.05))
  (pad 5 smd oval (at 1.55 0.975) (size 0.65 0.4) (layers F.Cu F.Paste F.Mask)
    (solder_paste_margin -0.05))
  (pad 4 smd oval (at -1.55 0.975) (size 0.65 0.4) (layers F.Cu F.Paste F.Mask)
    (solder_paste_margin -0.05))
  (pad 3 smd rect (at -1.75 0.325) (size 0.3 0.4) (layers F.Cu F.Paste F.Mask)
    (solder_paste_margin -0.05))
  (pad 2 smd oval (at -1.55 -0.325) (size 0.65 0.4) (layers F.Cu F.Paste F.Mask)
    (solder_paste_margin -0.05))
  (pad 1 smd oval (at -1.55 -0.975) (size 0.65 0.4) (layers F.Cu F.Paste F.Mask)
    (solder_paste_margin -0.05))
  (model ${KISYS3DMOD}/Package_SON.3dshapes/Texas_S-PVSON-N8.wrl
    (at (xyz 0 0 0))
    (scale (xyz 1 1 1))
    (rotate (xyz 0 0 0))
  )
)
