(module VSON-10-1EP_3x3mm_P0.5mm_EP1.65x2.4mm_ThermalVias (layer F.Cu) (tedit 607FD813)
  (descr "VSON 10 Thermal on 11 3x3mm Pitch 0.5mm http://chip.tomsk.ru/chip/chipdoc.nsf/Package/D8A64DD165C2AAD9472579400024FC41!OpenDocument, Alternate KiCad Library")
  (tags "VSON 10 Thermal on 11 3x3mm Pitch 0.5mm")
  (attr smd)
  (fp_text reference REF** (at 0 -2.9) (layer F.SilkS)
    (effects (font (size 1 1) (thickness 0.15)))
  )
  (fp_text value VSON-10-1EP_3x3mm_P0.5mm_EP1.65x2.4mm_ThermalVias (at 0 3) (layer F.Fab)
    (effects (font (size 1 1) (thickness 0.15)))
  )
  (fp_line (start 2.159 -2.159) (end 2.159 2.159) (layer F.SilkS) (width 0.12))
  (fp_line (start -2.159 2.159) (end -2.159 -1.7145) (layer F.SilkS) (width 0.12))
  (fp_line (start -1.7145 -2.159) (end 2.159 -2.159) (layer F.SilkS) (width 0.12))
  (fp_circle (center -2.032 -2.032) (end -1.9685 -2.032) (layer F.SilkS) (width 0.2))
  (fp_line (start 2.159 2.159) (end -2.159 2.159) (layer F.SilkS) (width 0.12))
  (fp_line (start -0.5 -1.5) (end 1.5 -1.5) (layer F.Fab) (width 0.1))
  (fp_line (start 1.5 -1.5) (end 1.5 1.5) (layer F.Fab) (width 0.1))
  (fp_line (start -1.5 -0.5) (end -1.5 1.5) (layer F.Fab) (width 0.1))
  (fp_line (start -1.5 1.5) (end 1.5 1.5) (layer F.Fab) (width 0.1))
  (fp_line (start -2.15 -2.15) (end 2.15 -2.15) (layer F.CrtYd) (width 0.05))
  (fp_line (start 2.15 -2.15) (end 2.15 2.15) (layer F.CrtYd) (width 0.05))
  (fp_line (start 2.15 2.15) (end -2.15 2.15) (layer F.CrtYd) (width 0.05))
  (fp_line (start -2.15 2.15) (end -2.15 -2.15) (layer F.CrtYd) (width 0.05))
  (fp_line (start -1.5 -0.5) (end -0.5 -1.5) (layer F.Fab) (width 0.1))
  (fp_text user %R (at 0 0) (layer F.Fab)
    (effects (font (size 0.8 0.8) (thickness 0.1)))
  )
  (pad 11 smd rect (at 0 0) (size 1.65 2.4) (layers B.Cu B.Mask))
  (pad 11 thru_hole circle (at 0 0) (size 0.6 0.6) (drill 0.3) (layers *.Cu))
  (pad 11 thru_hole circle (at 0.48 0.86) (size 0.6 0.6) (drill 0.3) (layers *.Cu))
  (pad 11 thru_hole circle (at 0.48 -0.86) (size 0.6 0.6) (drill 0.3) (layers *.Cu))
  (pad 11 thru_hole circle (at -0.48 0.86) (size 0.6 0.6) (drill 0.3) (layers *.Cu))
  (pad 11 thru_hole circle (at -0.48 -0.86) (size 0.6 0.6) (drill 0.3) (layers *.Cu))
  (pad "" smd rect (at 0.48 -0.86) (size 0.64 0.64) (layers F.Paste))
  (pad "" smd rect (at -0.48 -0.86) (size 0.64 0.64) (layers F.Paste))
  (pad "" smd rect (at 0.48 0) (size 0.64 0.64) (layers F.Paste))
  (pad "" smd rect (at -0.48 0) (size 0.64 0.64) (layers F.Paste))
  (pad "" smd rect (at -0.48 0.86) (size 0.64 0.64) (layers F.Paste))
  (pad 11 smd rect (at 0.25 1.55) (size 0.28 0.7) (layers F.Cu F.Paste F.Mask))
  (pad 11 smd rect (at 0.25 -1.55) (size 0.28 0.7) (layers F.Cu F.Paste F.Mask))
  (pad 11 smd rect (at -0.25 1.55) (size 0.28 0.7) (layers F.Cu F.Paste F.Mask))
  (pad 11 smd rect (at -0.25 -1.55) (size 0.28 0.7) (layers F.Cu F.Paste F.Mask))
  (pad "" smd rect (at 0.48 0.86) (size 0.64 0.64) (layers F.Paste))
  (pad 11 smd rect (at 0 0) (size 1.65 2.4) (layers F.Cu F.Mask))
  (pad 10 smd rect (at 1.475 -1) (size 0.85 0.28) (layers F.Cu F.Paste F.Mask))
  (pad 9 smd rect (at 1.475 -0.5) (size 0.85 0.28) (layers F.Cu F.Paste F.Mask))
  (pad 8 smd rect (at 1.475 0) (size 0.85 0.28) (layers F.Cu F.Paste F.Mask))
  (pad 7 smd rect (at 1.475 0.5) (size 0.85 0.28) (layers F.Cu F.Paste F.Mask))
  (pad 6 smd rect (at 1.475 1) (size 0.85 0.28) (layers F.Cu F.Paste F.Mask))
  (pad 5 smd rect (at -1.475 1) (size 0.85 0.28) (layers F.Cu F.Paste F.Mask))
  (pad 4 smd rect (at -1.475 0.5) (size 0.85 0.28) (layers F.Cu F.Paste F.Mask))
  (pad 3 smd rect (at -1.475 0) (size 0.85 0.28) (layers F.Cu F.Paste F.Mask))
  (pad 2 smd rect (at -1.475 -0.5) (size 0.85 0.28) (layers F.Cu F.Paste F.Mask))
  (pad 1 smd rect (at -1.475 -1) (size 0.85 0.28) (layers F.Cu F.Paste F.Mask))
  (model ${KISYS3DMOD}/Package_SON.3dshapes/VSON-10-1EP_3x3mm_P0.5mm_EP1.65x2.4mm.wrl
    (at (xyz 0 0 0))
    (scale (xyz 1 1 1))
    (rotate (xyz 0 0 0))
  )
)
