(module WSON-6_1.5x1.5mm_P0.5mm (layer F.Cu) (tedit 607FD832)
  (descr "WSON6, http://www.ti.com/lit/ds/symlink/tlv702.pdf, Alternate KiCad Library")
  (tags WSON6_1.5x1.5mm_P0.5mm)
  (attr smd)
  (fp_text reference REF** (at 0 -2) (layer F.SilkS)
    (effects (font (size 1 1) (thickness 0.15)))
  )
  (fp_text value WSON6_1.5x1.5mm_P0.5mm (at 0 2) (layer F.Fab)
    (effects (font (size 1 1) (thickness 0.15)))
  )
  (fp_line (start -1.2065 1.016) (end -1.2065 -0.635) (layer F.SilkS) (width 0.12))
  (fp_line (start 1.2065 1.016) (end -1.2065 1.016) (layer F.SilkS) (width 0.12))
  (fp_line (start 1.2065 -1.016) (end 1.2065 1.016) (layer F.SilkS) (width 0.12))
  (fp_line (start -0.8255 -1.016) (end 1.2065 -1.016) (layer F.SilkS) (width 0.12))
  (fp_line (start -1.2 1.02) (end -1.2 -1.02) (layer F.CrtYd) (width 0.05))
  (fp_line (start -1.2 1.02) (end 1.2 1.02) (layer F.CrtYd) (width 0.05))
  (fp_line (start 1.2 -1.02) (end -1.2 -1.02) (layer F.CrtYd) (width 0.05))
  (fp_line (start 1.2 -1.02) (end 1.2 1.02) (layer F.CrtYd) (width 0.05))
  (fp_line (start 0.785 -0.78) (end 0.785 0.78) (layer F.Fab) (width 0.1))
  (fp_line (start -0.775 0.78) (end 0.785 0.78) (layer F.Fab) (width 0.1))
  (fp_line (start -0.775 -0.5) (end -0.775 0.78) (layer F.Fab) (width 0.1))
  (fp_line (start 0.785 -0.78) (end -0.495 -0.78) (layer F.Fab) (width 0.1))
  (fp_line (start -0.495 -0.78) (end -0.775 -0.5) (layer F.Fab) (width 0.1))
  (fp_circle (center -1.143 -0.9525) (end -1.0795 -0.9525) (layer F.SilkS) (width 0.2))
  (fp_text user %R (at 0.005 0) (layer F.Fab)
    (effects (font (size 0.4 0.4) (thickness 0.05)))
  )
  (pad 6 smd rect (at 0.575 -0.5 270) (size 0.28 0.75) (layers F.Cu F.Paste F.Mask))
  (pad 5 smd rect (at 0.575 0 270) (size 0.28 0.75) (layers F.Cu F.Paste F.Mask))
  (pad 4 smd rect (at 0.575 0.5 270) (size 0.28 0.75) (layers F.Cu F.Paste F.Mask))
  (pad 3 smd rect (at -0.575 0.5 270) (size 0.28 0.75) (layers F.Cu F.Paste F.Mask))
  (pad 2 smd rect (at -0.575 0 270) (size 0.28 0.75) (layers F.Cu F.Paste F.Mask))
  (pad 1 smd rect (at -0.525 -0.5 270) (size 0.28 0.85) (layers F.Cu F.Paste F.Mask))
  (model ${KISYS3DMOD}/Package_SON.3dshapes/WSON-6_1.5x1.5mm_P0.5mm.wrl
    (at (xyz 0 0 0))
    (scale (xyz 1 1 1))
    (rotate (xyz 0 0 0))
  )
)
