(module WSON-8-1EP_3x2.5mm_P0.5mm_EP1.2x1.5mm_PullBack (layer F.Cu) (tedit 607FD844)
  (descr "WSON, 8 Pin (http://www.ti.com/lit/ml/mpds400/mpds400.pdf), Alternate KiCad Library")
  (tags "WSON NoLead")
  (attr smd)
  (fp_text reference REF** (at 0 -2.2) (layer F.SilkS)
    (effects (font (size 1 1) (thickness 0.15)))
  )
  (fp_text value WSON-8-1EP_3x2.5mm_P0.5mm_EP1.2x1.5mm_PullBack (at 0 2.2) (layer F.Fab)
    (effects (font (size 1 1) (thickness 0.15)))
  )
  (fp_line (start -1.7145 1.4605) (end -1.7145 -1.016) (layer F.SilkS) (width 0.12))
  (fp_line (start 1.7145 1.4605) (end -1.7145 1.4605) (layer F.SilkS) (width 0.12))
  (fp_line (start 1.7145 -1.4605) (end 1.7145 1.4605) (layer F.SilkS) (width 0.12))
  (fp_line (start -1.27 -1.4605) (end 1.7145 -1.4605) (layer F.SilkS) (width 0.12))
  (fp_line (start 1.75 -1.5) (end -1.75 -1.5) (layer F.CrtYd) (width 0.05))
  (fp_line (start 1.75 1.5) (end 1.75 -1.5) (layer F.CrtYd) (width 0.05))
  (fp_line (start -1.75 1.5) (end 1.75 1.5) (layer F.CrtYd) (width 0.05))
  (fp_line (start -1.75 -1.5) (end -1.75 1.5) (layer F.CrtYd) (width 0.05))
  (fp_line (start -1.5 -0.625) (end -0.875 -1.25) (layer F.Fab) (width 0.1))
  (fp_line (start -1.5 1.25) (end -1.5 -0.625) (layer F.Fab) (width 0.1))
  (fp_line (start 1.5 1.25) (end -1.5 1.25) (layer F.Fab) (width 0.1))
  (fp_line (start 1.5 -1.25) (end 1.5 1.25) (layer F.Fab) (width 0.1))
  (fp_line (start -0.875 -1.25) (end 1.5 -1.25) (layer F.Fab) (width 0.1))
  (fp_circle (center -1.5875 -1.3335) (end -1.524 -1.3335) (layer F.SilkS) (width 0.2))
  (fp_text user %R (at 0 0) (layer F.Fab)
    (effects (font (size 0.75 0.75) (thickness 0.11)))
  )
  (pad "" smd roundrect (at 0.3 0.375) (size 0.48 0.6) (layers F.Paste) (roundrect_rratio 0.25))
  (pad "" smd roundrect (at 0.3 -0.375) (size 0.48 0.6) (layers F.Paste) (roundrect_rratio 0.25))
  (pad "" smd roundrect (at -0.3 0.375) (size 0.48 0.6) (layers F.Paste) (roundrect_rratio 0.25))
  (pad "" smd roundrect (at -0.3 -0.375) (size 0.48 0.6) (layers F.Paste) (roundrect_rratio 0.25))
  (pad 9 smd rect (at 0 0) (size 1.2 1.5) (layers F.Cu F.Mask))
  (pad 8 smd roundrect (at 1.1375 -0.75) (size 0.675 0.35) (layers F.Cu F.Paste F.Mask) (roundrect_rratio 0.25))
  (pad 7 smd roundrect (at 1.1375 -0.25) (size 0.675 0.35) (layers F.Cu F.Paste F.Mask) (roundrect_rratio 0.25))
  (pad 6 smd roundrect (at 1.1375 0.25) (size 0.675 0.35) (layers F.Cu F.Paste F.Mask) (roundrect_rratio 0.25))
  (pad 5 smd roundrect (at 1.1375 0.75) (size 0.675 0.35) (layers F.Cu F.Paste F.Mask) (roundrect_rratio 0.25))
  (pad 4 smd roundrect (at -1.1375 0.75) (size 0.675 0.35) (layers F.Cu F.Paste F.Mask) (roundrect_rratio 0.25))
  (pad 3 smd roundrect (at -1.1375 0.25) (size 0.675 0.35) (layers F.Cu F.Paste F.Mask) (roundrect_rratio 0.25))
  (pad 2 smd roundrect (at -1.1375 -0.25) (size 0.675 0.35) (layers F.Cu F.Paste F.Mask) (roundrect_rratio 0.25))
  (pad 1 smd roundrect (at -1.1375 -0.75) (size 0.675 0.35) (layers F.Cu F.Paste F.Mask) (roundrect_rratio 0.25))
  (model ${KISYS3DMOD}/Package_SON.3dshapes/WSON-8-1EP_3x2.5mm_P0.5mm_EP1.2x1.5mm_PullBack.wrl
    (at (xyz 0 0 0))
    (scale (xyz 1 1 1))
    (rotate (xyz 0 0 0))
  )
)
