(module WSON-6-1EP_2x2mm_P0.65mm_EP1x1.6mm (layer F.Cu) (tedit 607FD820)
  (descr "WSON, 6 Pin (http://www.ti.com/lit/ds/symlink/tps61040.pdf#page=35), Alternate KiCad Library")
  (tags "WSON NoLead")
  (attr smd)
  (fp_text reference REF** (at 0 -2.032) (layer F.SilkS)
    (effects (font (size 1 1) (thickness 0.15)))
  )
  (fp_text value WSON-6-1EP_2x2mm_P0.65mm_EP1x1.6mm (at 0 1.95) (layer F.Fab)
    (effects (font (size 1 1) (thickness 0.15)))
  )
  (fp_circle (center -1.2065 -1.143) (end -1.143 -1.143) (layer F.SilkS) (width 0.2))
  (fp_line (start -0.5 -1) (end 1 -1) (layer F.Fab) (width 0.1))
  (fp_line (start 1 -1) (end 1 1) (layer F.Fab) (width 0.1))
  (fp_line (start 1 1) (end -1 1) (layer F.Fab) (width 0.1))
  (fp_line (start -1 1) (end -1 -0.5) (layer F.Fab) (width 0.1))
  (fp_line (start -1 -0.5) (end -0.5 -1) (layer F.Fab) (width 0.1))
  (fp_line (start -1.32 -1.25) (end -1.32 1.25) (layer F.CrtYd) (width 0.05))
  (fp_line (start -1.32 1.25) (end 1.32 1.25) (layer F.CrtYd) (width 0.05))
  (fp_line (start 1.32 1.25) (end 1.32 -1.25) (layer F.CrtYd) (width 0.05))
  (fp_line (start 1.32 -1.25) (end -1.32 -1.25) (layer F.CrtYd) (width 0.05))
  (fp_line (start -0.889 -1.27) (end 1.3335 -1.27) (layer F.SilkS) (width 0.12))
  (fp_line (start 1.3335 -1.27) (end 1.3335 1.27) (layer F.SilkS) (width 0.12))
  (fp_line (start 1.3335 1.27) (end -1.3335 1.27) (layer F.SilkS) (width 0.12))
  (fp_line (start -1.3335 1.27) (end -1.3335 -0.8255) (layer F.SilkS) (width 0.12))
  (fp_text user %R (at 0 0) (layer F.Fab)
    (effects (font (size 0.5 0.5) (thickness 0.08)))
  )
  (pad "" smd roundrect (at 0 0.4) (size 0.81 0.64) (layers F.Paste) (roundrect_rratio 0.25))
  (pad "" smd roundrect (at 0 -0.4) (size 0.81 0.64) (layers F.Paste) (roundrect_rratio 0.25))
  (pad 7 smd rect (at 0 0) (size 1 1.6) (layers F.Cu F.Mask))
  (pad 6 smd roundrect (at 0.8875 -0.65) (size 0.375 0.4) (layers F.Cu F.Paste F.Mask) (roundrect_rratio 0.25))
  (pad 5 smd roundrect (at 0.8875 0) (size 0.375 0.4) (layers F.Cu F.Paste F.Mask) (roundrect_rratio 0.25))
  (pad 4 smd roundrect (at 0.8875 0.65) (size 0.375 0.4) (layers F.Cu F.Paste F.Mask) (roundrect_rratio 0.25))
  (pad 3 smd roundrect (at -0.8875 0.65) (size 0.375 0.4) (layers F.Cu F.Paste F.Mask) (roundrect_rratio 0.25))
  (pad 2 smd roundrect (at -0.8875 0) (size 0.375 0.4) (layers F.Cu F.Paste F.Mask) (roundrect_rratio 0.25))
  (pad 1 smd roundrect (at -0.8875 -0.65) (size 0.375 0.4) (layers F.Cu F.Paste F.Mask) (roundrect_rratio 0.25))
  (model ${KISYS3DMOD}/Package_SON.3dshapes/WSON-6-1EP_2x2mm_P0.65mm_EP1x1.6mm.wrl
    (at (xyz 0 0 0))
    (scale (xyz 1 1 1))
    (rotate (xyz 0 0 0))
  )
)
