(module WSON-8-1EP_3x3mm_P0.5mm_EP1.6x2.0mm (layer F.Cu) (tedit 607FD850)
  (descr "8-Lead Plastic WSON, 2x2mm Body, 0.5mm Pitch, WSON-8, http://www.ti.com/lit/ds/symlink/lm27761.pdf, Alternate KiCad Library")
  (tags "WSON 8 1EP")
  (attr smd)
  (fp_text reference REF** (at 0.35 -2.45) (layer F.SilkS)
    (effects (font (size 1 1) (thickness 0.15)))
  )
  (fp_text value WSON-8-1EP_3x3mm_P0.5mm_EP1.6x2.0mm (at 0.01 2.55) (layer F.Fab)
    (effects (font (size 1 1) (thickness 0.15)))
  )
  (fp_line (start -1.9685 1.7145) (end -1.9685 -1.27) (layer F.SilkS) (width 0.12))
  (fp_line (start 1.9685 1.7145) (end -1.9685 1.7145) (layer F.SilkS) (width 0.12))
  (fp_line (start 1.9685 -1.7145) (end 1.9685 1.7145) (layer F.SilkS) (width 0.12))
  (fp_line (start 1.905 -1.7145) (end 1.9685 -1.7145) (layer F.SilkS) (width 0.12))
  (fp_line (start -1.524 -1.7145) (end 1.905 -1.7145) (layer F.SilkS) (width 0.12))
  (fp_line (start -1.95 1.75) (end 1.95 1.75) (layer F.CrtYd) (width 0.05))
  (fp_line (start -1.95 -1.75) (end 1.95 -1.75) (layer F.CrtYd) (width 0.05))
  (fp_line (start 1.95 -1.75) (end 1.95 1.75) (layer F.CrtYd) (width 0.05))
  (fp_line (start -1.95 -1.75) (end -1.95 1.75) (layer F.CrtYd) (width 0.05))
  (fp_line (start -1 -1.5) (end 1.5 -1.5) (layer F.Fab) (width 0.1))
  (fp_line (start 1.5 -1.5) (end 1.5 1.5) (layer F.Fab) (width 0.1))
  (fp_line (start 1.5 1.5) (end -1.5 1.5) (layer F.Fab) (width 0.1))
  (fp_line (start -1.5 1.5) (end -1.5 -1) (layer F.Fab) (width 0.1))
  (fp_line (start -1 -1.5) (end -1.5 -1) (layer F.Fab) (width 0.1))
  (fp_circle (center -1.8415 -1.5875) (end -1.778 -1.5875) (layer F.SilkS) (width 0.2))
  (fp_text user %R (at 0 0) (layer F.Fab)
    (effects (font (size 0.7 0.7) (thickness 0.1)))
  )
  (pad "" smd rect (at 0.45 0.55) (size 0.6 0.8) (layers F.Paste))
  (pad "" smd rect (at -0.45 0.55) (size 0.6 0.8) (layers F.Paste))
  (pad "" smd rect (at 0.45 -0.55) (size 0.6 0.8) (layers F.Paste))
  (pad "" smd rect (at -0.45 -0.55) (size 0.6 0.8) (layers F.Paste))
  (pad 6 smd rect (at 1.4 0.25) (size 0.6 0.25) (layers F.Cu F.Paste F.Mask))
  (pad 5 smd rect (at 1.4 0.75) (size 0.6 0.25) (layers F.Cu F.Paste F.Mask))
  (pad 4 smd rect (at -1.4 0.75) (size 0.6 0.25) (layers F.Cu F.Paste F.Mask))
  (pad 2 smd rect (at -1.4 -0.25) (size 0.6 0.25) (layers F.Cu F.Paste F.Mask))
  (pad 1 smd rect (at -1.4 -0.75) (size 0.6 0.25) (layers F.Cu F.Paste F.Mask))
  (pad 9 smd rect (at 0 0) (size 1.6 2) (layers F.Cu F.Mask))
  (pad 8 smd rect (at 1.4 -0.75) (size 0.6 0.25) (layers F.Cu F.Paste F.Mask))
  (pad 7 smd rect (at 1.4 -0.25) (size 0.6 0.25) (layers F.Cu F.Paste F.Mask))
  (pad 3 smd rect (at -1.4 0.25) (size 0.6 0.25) (layers F.Cu F.Paste F.Mask))
  (model ${KISYS3DMOD}/Package_SON.3dshapes/WSON-8-1EP_3x3mm_P0.5mm_EP1.6x2.0mm.wrl
    (at (xyz 0 0 0))
    (scale (xyz 1 1 1))
    (rotate (xyz 0 0 0))
  )
)
