(module WSON-6-1EP_3x3mm_P0.95mm (layer F.Cu) (tedit 607FD82C)
  (descr "WSON6 3*3 MM, 0.95 PITCH; http://www.ti.com/lit/ds/symlink/lmr62421.pdf, Alternate KiCad Library")
  (tags "WSON6 0.95")
  (attr smd)
  (fp_text reference REF** (at 0 -2.575) (layer F.SilkS)
    (effects (font (size 1 1) (thickness 0.15)))
  )
  (fp_text value WSON-6-1EP_3x3mm_P0.95mm (at 0 2.575) (layer F.Fab)
    (effects (font (size 1 1) (thickness 0.15)))
  )
  (fp_line (start -1.905 1.8415) (end -1.905 -1.397) (layer F.SilkS) (width 0.12))
  (fp_line (start 1.905 1.8415) (end -1.905 1.8415) (layer F.SilkS) (width 0.12))
  (fp_line (start 1.905 -1.8415) (end 1.905 1.8415) (layer F.SilkS) (width 0.12))
  (fp_line (start -1.4605 -1.8415) (end 1.905 -1.8415) (layer F.SilkS) (width 0.12))
  (fp_line (start -1.9 1.85) (end 1.9 1.85) (layer F.CrtYd) (width 0.05))
  (fp_line (start -1.9 -1.85) (end 1.9 -1.85) (layer F.CrtYd) (width 0.05))
  (fp_line (start 1.9 -1.85) (end 1.9 1.85) (layer F.CrtYd) (width 0.05))
  (fp_line (start -1.9 -1.85) (end -1.9 1.85) (layer F.CrtYd) (width 0.05))
  (fp_line (start -1.5 -0.5) (end -0.5 -1.5) (layer F.Fab) (width 0.15))
  (fp_line (start -1.5 1.5) (end -1.5 -0.5) (layer F.Fab) (width 0.15))
  (fp_line (start 1.5 1.5) (end -1.5 1.5) (layer F.Fab) (width 0.15))
  (fp_line (start 1.5 -1.5) (end 1.5 1.5) (layer F.Fab) (width 0.15))
  (fp_line (start -0.5 -1.5) (end 1.5 -1.5) (layer F.Fab) (width 0.15))
  (fp_circle (center -1.778 -1.7145) (end -1.7145 -1.7145) (layer F.SilkS) (width 0.2))
  (fp_text user %R (at 0 0) (layer F.Fab)
    (effects (font (size 0.6 0.6) (thickness 0.1)))
  )
  (pad 7 smd rect (at -0.4 -0.525) (size 0.8 1.05) (layers F.Cu F.Paste F.Mask)
    (solder_paste_margin_ratio -0.2))
  (pad 7 smd rect (at -0.4 0.525) (size 0.8 1.05) (layers F.Cu F.Paste F.Mask)
    (solder_paste_margin_ratio -0.2))
  (pad 7 smd rect (at 0.4 -0.525) (size 0.8 1.05) (layers F.Cu F.Paste F.Mask)
    (solder_paste_margin_ratio -0.2))
  (pad 7 smd rect (at 0.4 0.525) (size 0.8 1.05) (layers F.Cu F.Paste F.Mask)
    (solder_paste_margin_ratio -0.2))
  (pad 6 smd rect (at 1.34 -0.95) (size 0.63 0.45) (layers F.Cu F.Paste F.Mask))
  (pad 5 smd rect (at 1.34 0) (size 0.63 0.45) (layers F.Cu F.Paste F.Mask))
  (pad 4 smd rect (at 1.34 0.95) (size 0.63 0.45) (layers F.Cu F.Paste F.Mask))
  (pad 3 smd rect (at -1.34 0.95) (size 0.63 0.45) (layers F.Cu F.Paste F.Mask))
  (pad 2 smd rect (at -1.34 0) (size 0.63 0.45) (layers F.Cu F.Paste F.Mask))
  (pad 1 smd rect (at -1.34 -0.95) (size 0.63 0.45) (layers F.Cu F.Paste F.Mask))
  (model ${KISYS3DMOD}/Package_SON.3dshapes/WSON-6-1EP_3x3mm_P0.95mm.wrl
    (at (xyz 0 0 0))
    (scale (xyz 1 1 1))
    (rotate (xyz 0 0 0))
  )
)
