(module D_0201_0603Metric_TVS (layer F.Cu) (tedit 60793866)
  (descr "Diode SMD 0201 (0603 Metric), square (rectangular) end terminal, IPC_7351 nominal, (Body size source: https://www.vishay.com/docs/20052/crcw0201e3.pdf), Bidirectional zener or TVS, Alternate KiCad Library")
  (tags "diode 0201 TVS")
  (attr smd)
  (fp_text reference REF** (at 0 -1.1176) (layer F.SilkS)
    (effects (font (size 1 1) (thickness 0.15)))
  )
  (fp_text value D_0201_0603Metric_TVS (at 0.127 1.05) (layer F.Fab)
    (effects (font (size 1 1) (thickness 0.15)))
  )
  (fp_line (start 0.8128 0.4572) (end -0.8128 0.4572) (layer F.CrtYd) (width 0.05))
  (fp_line (start 0.8128 0.4572) (end 0.8128 -0.4572) (layer F.CrtYd) (width 0.05))
  (fp_line (start -0.8128 -0.4572) (end 0.8128 -0.4572) (layer F.CrtYd) (width 0.05))
  (fp_line (start -0.8128 0.4572) (end -0.8128 -0.4572) (layer F.CrtYd) (width 0.05))
  (fp_line (start -0.1 0.15) (end -0.1 -0.15) (layer F.Fab) (width 0.1))
  (fp_line (start -0.2 0.15) (end -0.2 -0.15) (layer F.Fab) (width 0.1))
  (fp_line (start 0.3 0.15) (end -0.3 0.15) (layer F.Fab) (width 0.1))
  (fp_line (start 0.3 -0.15) (end 0.3 0.15) (layer F.Fab) (width 0.1))
  (fp_line (start -0.3 -0.15) (end 0.3 -0.15) (layer F.Fab) (width 0.1))
  (fp_line (start -0.3 0.15) (end -0.3 -0.15) (layer F.Fab) (width 0.1))
  (fp_line (start -0.762 -0.4064) (end 0.762 -0.4064) (layer F.SilkS) (width 0.1))
  (fp_line (start 0.762 -0.4064) (end 0.762 0.4064) (layer F.SilkS) (width 0.1))
  (fp_line (start 0.762 0.4064) (end -0.762 0.4064) (layer F.SilkS) (width 0.1))
  (fp_line (start -0.762 0.4064) (end -0.762 -0.4064) (layer F.SilkS) (width 0.1))
  (fp_text user %R (at 0.127 -0.68) (layer F.Fab)
    (effects (font (size 0.25 0.25) (thickness 0.04)))
  )
  (pad "" smd roundrect (at -0.345 0) (size 0.318 0.36) (layers F.Paste) (roundrect_rratio 0.25))
  (pad "" smd roundrect (at 0.345 0) (size 0.318 0.36) (layers F.Paste) (roundrect_rratio 0.25))
  (pad 1 smd roundrect (at -0.32 0) (size 0.46 0.4) (layers F.Cu F.Mask) (roundrect_rratio 0.25))
  (pad 2 smd roundrect (at 0.32 0) (size 0.46 0.4) (layers F.Cu F.Mask) (roundrect_rratio 0.25))
  (model ${KISYS3DMOD}/Diode_SMD.3dshapes/D_0201_0603Metric.wrl
    (at (xyz 0 0 0))
    (scale (xyz 1 1 1))
    (rotate (xyz 0 0 0))
  )
)
