(module D_0402_1005Metric (layer F.Cu) (tedit 60793B23)
  (descr "Diode SMD 0402 (1005 Metric), square (rectangular) end terminal, IPC_7351 nominal, (Body size source: http://www.tortai-tech.com/upload/download/2011102023233369053.pdf), Alternate KiCad Library")
  (tags "diode 0402")
  (attr smd)
  (fp_text reference REF** (at 0 -1.524) (layer F.SilkS)
    (effects (font (size 1 1) (thickness 0.15)))
  )
  (fp_text value D_0402_1005Metric (at 0.127 1.17) (layer F.Fab)
    (effects (font (size 1 1) (thickness 0.15)))
  )
  (fp_poly (pts (xy -0.127 0.635) (xy -0.381 0.635) (xy -0.381 0.508) (xy -0.127 0.508)) (layer F.SilkS) (width 0.1))
  (fp_poly (pts (xy -0.127 -0.508) (xy -0.381 -0.508) (xy -0.381 -0.635) (xy -0.127 -0.635)) (layer F.SilkS) (width 0.1))
  (fp_line (start -0.5 0.25) (end -0.5 -0.25) (layer F.Fab) (width 0.1))
  (fp_line (start -0.5 -0.25) (end 0.5 -0.25) (layer F.Fab) (width 0.1))
  (fp_line (start 0.5 -0.25) (end 0.5 0.25) (layer F.Fab) (width 0.1))
  (fp_line (start 0.5 0.25) (end -0.5 0.25) (layer F.Fab) (width 0.1))
  (fp_line (start -0.4 0.25) (end -0.4 -0.25) (layer F.Fab) (width 0.1))
  (fp_line (start -0.3 0.25) (end -0.3 -0.25) (layer F.Fab) (width 0.1))
  (fp_line (start -1.016 0.7112) (end -1.016 -0.7112) (layer F.CrtYd) (width 0.05))
  (fp_line (start -1.016 -0.7112) (end 1.016 -0.7112) (layer F.CrtYd) (width 0.05))
  (fp_line (start 1.016 -0.7112) (end 1.016 0.7112) (layer F.CrtYd) (width 0.05))
  (fp_line (start 1.016 0.7112) (end -1.016 0.7112) (layer F.CrtYd) (width 0.05))
  (fp_line (start 0.9652 -0.508) (end -0.9652 -0.508) (layer F.SilkS) (width 0.1))
  (fp_line (start -0.9652 -0.508) (end -0.9652 0.508) (layer F.SilkS) (width 0.1))
  (fp_line (start -0.9652 0.508) (end 0.9652 0.508) (layer F.SilkS) (width 0.1))
  (fp_line (start 0.9652 0.508) (end 0.9652 -0.508) (layer F.SilkS) (width 0.1))
  (fp_text user %R (at 0 0) (layer F.Fab)
    (effects (font (size 0.25 0.25) (thickness 0.04)))
  )
  (pad 1 smd roundrect (at -0.485 0) (size 0.59 0.64) (layers F.Cu F.Paste F.Mask) (roundrect_rratio 0.25))
  (pad 2 smd roundrect (at 0.485 0) (size 0.59 0.64) (layers F.Cu F.Paste F.Mask) (roundrect_rratio 0.25))
  (model ${KISYS3DMOD}/Diode_SMD.3dshapes/D_0402_1005Metric.wrl
    (at (xyz 0 0 0))
    (scale (xyz 1 1 1))
    (rotate (xyz 0 0 0))
  )
)
