(module D_0603_1608Metric_Pad1.05x0.95mm (layer F.Cu) (tedit 608FA0CE)
  (descr "Diode SMD 0603 (1608 Metric), square (rectangular) end terminal, IPC_7351 nominal, (Body size source: http://www.tortai-tech.com/upload/download/2011102023233369053.pdf), Alternate KiCad Library")
  (tags "diode 0603 handsolder")
  (attr smd)
  (fp_text reference REF** (at 0 -1.905) (layer F.SilkS)
    (effects (font (size 1 1) (thickness 0.15)))
  )
  (fp_text value D_0603_1608Metric_Pad1.05x0.95mm (at 0 1.43) (layer F.Fab)
    (effects (font (size 1 1) (thickness 0.15)))
  )
  (fp_line (start 1.651 0.762) (end -1.651 0.762) (layer F.SilkS) (width 0.12))
  (fp_line (start 1.651 -0.762) (end 1.651 0.762) (layer F.SilkS) (width 0.12))
  (fp_line (start -1.651 -0.762) (end 1.651 -0.762) (layer F.SilkS) (width 0.12))
  (fp_line (start -1.651 0.762) (end -1.651 -0.762) (layer F.SilkS) (width 0.12))
  (fp_line (start 0.8 -0.4) (end -0.5 -0.4) (layer F.Fab) (width 0.1))
  (fp_line (start -0.5 -0.4) (end -0.8 -0.1) (layer F.Fab) (width 0.1))
  (fp_line (start -0.8 -0.1) (end -0.8 0.4) (layer F.Fab) (width 0.1))
  (fp_line (start -0.8 0.4) (end 0.8 0.4) (layer F.Fab) (width 0.1))
  (fp_line (start 0.8 0.4) (end 0.8 -0.4) (layer F.Fab) (width 0.1))
  (fp_line (start -1.7272 1.0668) (end -1.7272 -1.0668) (layer F.CrtYd) (width 0.05))
  (fp_line (start -1.7272 -1.0668) (end 1.7272 -1.0668) (layer F.CrtYd) (width 0.05))
  (fp_line (start 1.7272 -1.0668) (end 1.7272 1.0668) (layer F.CrtYd) (width 0.05))
  (fp_line (start 1.7272 1.0668) (end -1.7272 1.0668) (layer F.CrtYd) (width 0.05))
  (fp_poly (pts (xy -0.127 -0.762) (xy -0.762 -0.762) (xy -0.762 -1.016) (xy -0.127 -1.016)) (layer F.SilkS) (width 0.1))
  (fp_poly (pts (xy -0.127 1.016) (xy -0.762 1.016) (xy -0.762 0.762) (xy -0.127 0.762)) (layer F.SilkS) (width 0.1))
  (fp_text user %R (at 0 0) (layer F.Fab)
    (effects (font (size 0.4 0.4) (thickness 0.06)))
  )
  (pad 1 smd roundrect (at -0.875 0) (size 1.05 0.95) (layers F.Cu F.Paste F.Mask) (roundrect_rratio 0.25))
  (pad 2 smd roundrect (at 0.875 0) (size 1.05 0.95) (layers F.Cu F.Paste F.Mask) (roundrect_rratio 0.25))
  (model ${KISYS3DMOD}/Diode_SMD.3dshapes/D_0603_1608Metric.wrl
    (at (xyz 0 0 0))
    (scale (xyz 1 1 1))
    (rotate (xyz 0 0 0))
  )
)
