(module D_0805_2012Metric_Pad1.15x1.40mm (layer F.Cu) (tedit 608FA0DD)
  (descr "Diode SMD 0805 (2012 Metric), square (rectangular) end terminal, IPC_7351 nominal, (Body size source: https://docs.google.com/spreadsheets/d/1BsfQQcO9C6DZCsRaXUlFlo91Tg2WpOkGARC1WS5S8t0/edit?usp=sharing), Alternate KiCad Library")
  (tags "diode 0805 handsolder")
  (attr smd)
  (fp_text reference REF** (at 0 -2.0828) (layer F.SilkS)
    (effects (font (size 1 1) (thickness 0.15)))
  )
  (fp_text value D_0805_2012Metric_Pad1.15x1.40mm (at 0 1.7008) (layer F.Fab)
    (effects (font (size 1 1) (thickness 0.15)))
  )
  (fp_line (start -0.127 -0.254) (end -0.127 0.254) (layer F.SilkS) (width 0.12))
  (fp_poly (pts (xy -0.127 1.1938) (xy -0.889 1.1938) (xy -0.889 0.9398) (xy -0.127 0.9398)) (layer F.SilkS) (width 0.1))
  (fp_poly (pts (xy -0.127 -0.9398) (xy -0.889 -0.9398) (xy -0.889 -1.1938) (xy -0.127 -1.1938)) (layer F.SilkS) (width 0.1))
  (fp_line (start 1.8288 0.9398) (end -1.8288 0.9398) (layer F.SilkS) (width 0.12))
  (fp_line (start 1.8288 -0.9398) (end 1.8288 0.9398) (layer F.SilkS) (width 0.12))
  (fp_line (start -1.8288 -0.9398) (end 1.8288 -0.9398) (layer F.SilkS) (width 0.12))
  (fp_line (start -1.8288 0.9398) (end -1.8288 -0.9398) (layer F.SilkS) (width 0.12))
  (fp_line (start 1 -0.6) (end -0.7 -0.6) (layer F.Fab) (width 0.1))
  (fp_line (start -0.7 -0.6) (end -1 -0.3) (layer F.Fab) (width 0.1))
  (fp_line (start -1 -0.3) (end -1 0.6) (layer F.Fab) (width 0.1))
  (fp_line (start -1 0.6) (end 1 0.6) (layer F.Fab) (width 0.1))
  (fp_line (start 1 0.6) (end 1 -0.6) (layer F.Fab) (width 0.1))
  (fp_line (start -1.8796 1.27) (end -1.8796 -1.27) (layer F.CrtYd) (width 0.05))
  (fp_line (start -1.8796 -1.27) (end 1.9008 -1.27) (layer F.CrtYd) (width 0.05))
  (fp_line (start 1.9008 -1.27) (end 1.9008 1.27) (layer F.CrtYd) (width 0.05))
  (fp_line (start 1.9008 1.27) (end -1.8796 1.27) (layer F.CrtYd) (width 0.05))
  (fp_poly (pts (xy 0.127 0.254) (xy -0.127 0) (xy 0.127 -0.254)) (layer F.SilkS) (width 0.1))
  (fp_text user %R (at 0 0) (layer F.Fab)
    (effects (font (size 0.5 0.5) (thickness 0.08)))
  )
  (pad 1 smd roundrect (at -1.025 0) (size 1.15 1.4) (layers F.Cu F.Paste F.Mask) (roundrect_rratio 0.217391))
  (pad 2 smd roundrect (at 1.025 0) (size 1.15 1.4) (layers F.Cu F.Paste F.Mask) (roundrect_rratio 0.217391))
  (model ${KISYS3DMOD}/Diode_SMD.3dshapes/D_0805_2012Metric.wrl
    (at (xyz 0 0 0))
    (scale (xyz 1 1 1))
    (rotate (xyz 0 0 0))
  )
)
