(module D_2114_3652Metric_Castellated (layer F.Cu) (tedit 60793CDC)
  (descr "Diode SMD 2114 (3652 Metric), castellated end terminal, IPC_7351 nominal, (Body size from: http://datasheets.avx.com/schottky.pdf), Alternate KiCad Library")
  (tags "diode 2114 castellated")
  (attr smd)
  (fp_text reference REF** (at 0 -3.048) (layer F.SilkS)
    (effects (font (size 1 1) (thickness 0.15)))
  )
  (fp_text value D_2114_3652Metric_Castellated (at 0 2.78) (layer F.Fab)
    (effects (font (size 1 1) (thickness 0.15)))
  )
  (fp_line (start 3.556 2.413) (end -3.556 2.413) (layer F.CrtYd) (width 0.05))
  (fp_line (start 3.556 -2.413) (end 3.556 2.413) (layer F.CrtYd) (width 0.05))
  (fp_line (start -3.556 -2.413) (end 3.556 -2.413) (layer F.CrtYd) (width 0.05))
  (fp_line (start -3.556 2.413) (end -3.556 -2.413) (layer F.CrtYd) (width 0.05))
  (fp_line (start 2.6 1.8) (end 2.6 -1.8) (layer F.Fab) (width 0.1))
  (fp_line (start -2.6 1.8) (end 2.6 1.8) (layer F.Fab) (width 0.1))
  (fp_line (start -2.6 -0.9) (end -2.6 1.8) (layer F.Fab) (width 0.1))
  (fp_line (start -1.7 -1.8) (end -2.6 -0.9) (layer F.Fab) (width 0.1))
  (fp_line (start 2.6 -1.8) (end -1.7 -1.8) (layer F.Fab) (width 0.1))
  (fp_line (start -3.4925 -2.0955) (end 3.4925 -2.0955) (layer F.SilkS) (width 0.12))
  (fp_line (start 3.4925 -2.0955) (end 3.4925 2.0955) (layer F.SilkS) (width 0.12))
  (fp_line (start 3.4925 2.0955) (end -3.4925 2.0955) (layer F.SilkS) (width 0.12))
  (fp_line (start -3.4925 2.0955) (end -3.4925 -2.0955) (layer F.SilkS) (width 0.12))
  (fp_poly (pts (xy -0.8255 -2.0955) (xy -1.7145 -2.0955) (xy -1.7145 -2.3495) (xy -0.8255 -2.3495)) (layer F.SilkS) (width 0.1))
  (fp_poly (pts (xy -0.8255 2.3495) (xy -1.7145 2.3495) (xy -1.7145 2.0955) (xy -0.8255 2.0955)) (layer F.SilkS) (width 0.1))
  (fp_poly (pts (xy 0.762 1.524) (xy -0.762 0) (xy 0.762 -1.524)) (layer F.SilkS) (width 0.1))
  (fp_line (start -0.762 -1.524) (end -0.762 1.524) (layer F.SilkS) (width 0.2))
  (fp_text user %R (at 0 0) (layer F.Fab)
    (effects (font (size 1 1) (thickness 0.15)))
  )
  (pad 1 smd roundrect (at -2.2125 0) (size 2.025 3.65) (layers F.Cu F.Paste F.Mask) (roundrect_rratio 0.123457))
  (pad 2 smd roundrect (at 2.2125 0) (size 2.025 3.65) (layers F.Cu F.Paste F.Mask) (roundrect_rratio 0.123457))
  (model ${KISYS3DMOD}/Diode_SMD.3dshapes/D_2114_3652Metric_Castellated.wrl
    (at (xyz 0 0 0))
    (scale (xyz 1 1 1))
    (rotate (xyz 0 0 0))
  )
)
