(module D_2816_7142Metric_Castellated (layer F.Cu) (tedit 60793D48)
  (descr "Diode SMD 2816 (7142 Metric), castellated end terminal, IPC_7351 nominal, (Body size from: https://www.vishay.com/docs/30100/wsl.pdf), Alternate KiCad Library")
  (tags "diode 2816 castellated")
  (attr smd)
  (fp_text reference REF** (at 0 -3.556) (layer F.SilkS)
    (effects (font (size 1 1) (thickness 0.15)))
  )
  (fp_text value D_2816_7142Metric_Castellated (at 0 3.13) (layer F.Fab)
    (effects (font (size 1 1) (thickness 0.15)))
  )
  (fp_line (start 4.572 2.921) (end -4.572 2.921) (layer F.CrtYd) (width 0.05))
  (fp_line (start 4.572 -2.921) (end 4.572 2.921) (layer F.CrtYd) (width 0.05))
  (fp_line (start -4.572 -2.921) (end 4.572 -2.921) (layer F.CrtYd) (width 0.05))
  (fp_line (start -4.572 2.921) (end -4.572 -2.921) (layer F.CrtYd) (width 0.05))
  (fp_line (start 3.55 2.1) (end 3.55 -2.1) (layer F.Fab) (width 0.1))
  (fp_line (start -3.55 2.1) (end 3.55 2.1) (layer F.Fab) (width 0.1))
  (fp_line (start -3.55 -1.1) (end -3.55 2.1) (layer F.Fab) (width 0.1))
  (fp_line (start -2.55 -2.1) (end -3.55 -1.1) (layer F.Fab) (width 0.1))
  (fp_line (start 3.55 -2.1) (end -2.55 -2.1) (layer F.Fab) (width 0.1))
  (fp_line (start -4.5085 -2.4765) (end 4.5085 -2.4765) (layer F.SilkS) (width 0.12))
  (fp_line (start 4.5085 -2.4765) (end 4.5085 2.4765) (layer F.SilkS) (width 0.12))
  (fp_line (start 4.5085 2.4765) (end -4.5085 2.4765) (layer F.SilkS) (width 0.12))
  (fp_line (start -4.5085 2.4765) (end -4.5085 -2.4765) (layer F.SilkS) (width 0.12))
  (fp_poly (pts (xy -1.397 -2.4765) (xy -2.667 -2.4765) (xy -2.667 -2.8575) (xy -1.397 -2.8575)) (layer F.SilkS) (width 0.1))
  (fp_poly (pts (xy -1.397 2.8575) (xy -2.667 2.8575) (xy -2.667 2.4765) (xy -1.397 2.4765)) (layer F.SilkS) (width 0.1))
  (fp_poly (pts (xy 0.381 1.27) (xy -0.508 0) (xy 0.381 -1.27)) (layer F.SilkS) (width 0.1))
  (fp_line (start -0.508 -1.27) (end -0.508 1.27) (layer F.SilkS) (width 0.12))
  (fp_text user %R (at 0 0) (layer F.Fab)
    (effects (font (size 1 1) (thickness 0.15)))
  )
  (pad 1 smd roundrect (at -2.5375 0) (size 3.375 4.35) (layers F.Cu F.Paste F.Mask) (roundrect_rratio 0.074074))
  (pad 2 smd roundrect (at 2.5375 0) (size 3.375 4.35) (layers F.Cu F.Paste F.Mask) (roundrect_rratio 0.074074))
  (model ${KISYS3DMOD}/Diode_SMD.3dshapes/D_2816_7142Metric_Castellated.wrl
    (at (xyz 0 0 0))
    (scale (xyz 1 1 1))
    (rotate (xyz 0 0 0))
  )
)
