(module D_2816_7142Metric_Pad3.20x4.45mm (layer F.Cu) (tedit 608FA149)
  (descr "Diode SMD 2816 (7142 Metric), square (rectangular) end terminal, IPC_7351 nominal, (Body size from: https://www.vishay.com/docs/30100/wsl.pdf), Alternate KiCad Library")
  (tags "diode 2816 handsolder")
  (attr smd)
  (fp_text reference REF** (at 0 -3.683) (layer F.SilkS)
    (effects (font (size 1 1) (thickness 0.15)))
  )
  (fp_text value D_2816_7142Metric_Pad3.20x4.45mm (at 0 3.18) (layer F.Fab)
    (effects (font (size 1 1) (thickness 0.15)))
  )
  (fp_line (start -0.635 -1.27) (end -0.635 1.27) (layer F.SilkS) (width 0.12))
  (fp_poly (pts (xy 0.635 1.27) (xy -0.635 0) (xy 0.635 -1.27)) (layer F.SilkS) (width 0.1))
  (fp_poly (pts (xy -1.27 2.921) (xy -2.54 2.921) (xy -2.54 2.54) (xy -1.27 2.54)) (layer F.SilkS) (width 0.1))
  (fp_poly (pts (xy -1.27 -2.54) (xy -2.54 -2.54) (xy -2.54 -2.921) (xy -1.27 -2.921)) (layer F.SilkS) (width 0.1))
  (fp_line (start 4.5085 -2.54) (end -4.5085 -2.54) (layer F.SilkS) (width 0.12))
  (fp_line (start 4.5085 2.54) (end 4.5085 -2.54) (layer F.SilkS) (width 0.12))
  (fp_line (start -4.5085 2.54) (end 4.5085 2.54) (layer F.SilkS) (width 0.12))
  (fp_line (start -4.5085 -2.54) (end -4.5085 2.54) (layer F.SilkS) (width 0.12))
  (fp_line (start 3.55 -2.1) (end -2.55 -2.1) (layer F.Fab) (width 0.1))
  (fp_line (start -2.55 -2.1) (end -3.55 -1.1) (layer F.Fab) (width 0.1))
  (fp_line (start -3.55 -1.1) (end -3.55 2.1) (layer F.Fab) (width 0.1))
  (fp_line (start -3.55 2.1) (end 3.55 2.1) (layer F.Fab) (width 0.1))
  (fp_line (start 3.55 2.1) (end 3.55 -2.1) (layer F.Fab) (width 0.1))
  (fp_line (start -4.572 2.9845) (end -4.572 -2.9845) (layer F.CrtYd) (width 0.05))
  (fp_line (start -4.572 -2.9845) (end 4.572 -2.9845) (layer F.CrtYd) (width 0.05))
  (fp_line (start 4.572 -2.9845) (end 4.572 2.9845) (layer F.CrtYd) (width 0.05))
  (fp_line (start 4.572 2.9845) (end -4.572 2.9845) (layer F.CrtYd) (width 0.05))
  (fp_text user %R (at 0 0) (layer F.Fab)
    (effects (font (size 1 1) (thickness 0.15)))
  )
  (pad 1 smd roundrect (at -2.6 0) (size 3.2 4.45) (layers F.Cu F.Paste F.Mask) (roundrect_rratio 0.078125))
  (pad 2 smd roundrect (at 2.6 0) (size 3.2 4.45) (layers F.Cu F.Paste F.Mask) (roundrect_rratio 0.078125))
  (model ${KISYS3DMOD}/Diode_SMD.3dshapes/D_2816_7142Metric.wrl
    (at (xyz 0 0 0))
    (scale (xyz 1 1 1))
    (rotate (xyz 0 0 0))
  )
)
