(module D_3220_8050Metric (layer F.Cu) (tedit 60793D63)
  (descr "Diode SMD 3220 (8050 Metric), square (rectangular) end terminal, IPC_7351 nominal, (Body size from: http://datasheets.avx.com/schottky.pdf), Alternate KiCad Library")
  (tags "diode 3220")
  (attr smd)
  (fp_text reference REF** (at 0 -4.064) (layer F.SilkS)
    (effects (font (size 1 1) (thickness 0.15)))
  )
  (fp_text value D_3220_8050Metric (at 0 3.52) (layer F.Fab)
    (effects (font (size 1 1) (thickness 0.15)))
  )
  (fp_line (start 4.7625 3.302) (end -4.7625 3.302) (layer F.CrtYd) (width 0.05))
  (fp_line (start 4.7625 -3.302) (end 4.7625 3.302) (layer F.CrtYd) (width 0.05))
  (fp_line (start -4.7625 -3.302) (end 4.7625 -3.302) (layer F.CrtYd) (width 0.05))
  (fp_line (start -4.7625 3.302) (end -4.7625 -3.302) (layer F.CrtYd) (width 0.05))
  (fp_line (start 4 2.5) (end 4 -2.5) (layer F.Fab) (width 0.1))
  (fp_line (start -4 2.5) (end 4 2.5) (layer F.Fab) (width 0.1))
  (fp_line (start -4 -1.5) (end -4 2.5) (layer F.Fab) (width 0.1))
  (fp_line (start -3 -2.5) (end -4 -1.5) (layer F.Fab) (width 0.1))
  (fp_line (start 4 -2.5) (end -3 -2.5) (layer F.Fab) (width 0.1))
  (fp_line (start -4.699 -2.8575) (end 4.699 -2.8575) (layer F.SilkS) (width 0.12))
  (fp_line (start 4.699 -2.8575) (end 4.699 2.8575) (layer F.SilkS) (width 0.12))
  (fp_line (start 4.699 2.8575) (end -4.699 2.8575) (layer F.SilkS) (width 0.12))
  (fp_line (start -4.699 2.8575) (end -4.699 -2.8575) (layer F.SilkS) (width 0.12))
  (fp_poly (pts (xy 1.397 2.032) (xy -1.397 0) (xy 1.397 -2.032)) (layer F.SilkS) (width 0.1))
  (fp_poly (pts (xy -1.524 -2.8575) (xy -2.794 -2.8575) (xy -2.794 -3.2385) (xy -1.524 -3.2385)) (layer F.SilkS) (width 0.1))
  (fp_poly (pts (xy -1.524 3.2385) (xy -2.794 3.2385) (xy -2.794 2.8575) (xy -1.524 2.8575)) (layer F.SilkS) (width 0.1))
  (fp_line (start -1.397 -2.032) (end -1.397 2.032) (layer F.SilkS) (width 0.2))
  (fp_text user %R (at 0 0) (layer F.Fab)
    (effects (font (size 1 1) (thickness 0.15)))
  )
  (pad 1 smd roundrect (at -3.1875 0) (size 2.475 5.15) (layers F.Cu F.Paste F.Mask) (roundrect_rratio 0.10101))
  (pad 2 smd roundrect (at 3.1875 0) (size 2.475 5.15) (layers F.Cu F.Paste F.Mask) (roundrect_rratio 0.10101))
  (model ${KISYS3DMOD}/Diode_SMD.3dshapes/D_3220_8050Metric.wrl
    (at (xyz 0 0 0))
    (scale (xyz 1 1 1))
    (rotate (xyz 0 0 0))
  )
)
