(module D_3220_8050Metric_Castellated (layer F.Cu) (tedit 60793D69)
  (descr "Diode SMD 3220 (8050 Metric), castellated end terminal, IPC_7351 nominal, (Body size from: http://datasheets.avx.com/schottky.pdf), Alternate KiCad Library")
  (tags "diode 3220 castellated")
  (attr smd)
  (fp_text reference REF** (at 0 -3.937) (layer F.SilkS)
    (effects (font (size 1 1) (thickness 0.15)))
  )
  (fp_text value D_3220_8050Metric_Castellated (at 0 3.48) (layer F.Fab)
    (effects (font (size 1 1) (thickness 0.15)))
  )
  (fp_line (start 4.953 3.2385) (end -4.953 3.2385) (layer F.CrtYd) (width 0.05))
  (fp_line (start 4.953 -3.2385) (end 4.953 3.2385) (layer F.CrtYd) (width 0.05))
  (fp_line (start -4.953 -3.2385) (end 4.953 -3.2385) (layer F.CrtYd) (width 0.05))
  (fp_line (start -4.953 3.2385) (end -4.953 -3.2385) (layer F.CrtYd) (width 0.05))
  (fp_line (start 4 2.5) (end 4 -2.5) (layer F.Fab) (width 0.1))
  (fp_line (start -4 2.5) (end 4 2.5) (layer F.Fab) (width 0.1))
  (fp_line (start -4 -1.5) (end -4 2.5) (layer F.Fab) (width 0.1))
  (fp_line (start -3 -2.5) (end -4 -1.5) (layer F.Fab) (width 0.1))
  (fp_line (start 4 -2.5) (end -3 -2.5) (layer F.Fab) (width 0.1))
  (fp_poly (pts (xy -1.27 -2.794) (xy -2.54 -2.794) (xy -2.54 -3.175) (xy -1.27 -3.175)) (layer F.SilkS) (width 0.1))
  (fp_poly (pts (xy -1.27 3.175) (xy -2.54 3.175) (xy -2.54 2.794) (xy -1.27 2.794)) (layer F.SilkS) (width 0.1))
  (fp_line (start 4.8895 2.794) (end -4.8895 2.794) (layer F.SilkS) (width 0.12))
  (fp_line (start -4.8895 2.794) (end -4.8895 -2.794) (layer F.SilkS) (width 0.12))
  (fp_line (start -4.8895 -2.794) (end 4.8895 -2.794) (layer F.SilkS) (width 0.12))
  (fp_line (start 4.8895 -2.794) (end 4.8895 2.794) (layer F.SilkS) (width 0.12))
  (fp_poly (pts (xy 1.143 1.905) (xy -1.143 0) (xy 1.143 -1.905)) (layer F.SilkS) (width 0.1))
  (fp_line (start -1.143 -1.905) (end -1.143 1.905) (layer F.SilkS) (width 0.2))
  (fp_text user %R (at 0 0) (layer F.Fab)
    (effects (font (size 1 1) (thickness 0.15)))
  )
  (pad 1 smd roundrect (at -3.2125 0) (size 2.825 5.05) (layers F.Cu F.Paste F.Mask) (roundrect_rratio 0.08849600000000001))
  (pad 2 smd roundrect (at 3.2125 0) (size 2.825 5.05) (layers F.Cu F.Paste F.Mask) (roundrect_rratio 0.08849600000000001))
  (model ${KISYS3DMOD}/Diode_SMD.3dshapes/D_3220_8050Metric_Castellated.wrl
    (at (xyz 0 0 0))
    (scale (xyz 1 1 1))
    (rotate (xyz 0 0 0))
  )
)
