(module D_SC-80_TVS (layer F.Cu) (tedit 60793491)
  (descr "JEITA SC-80, Bidirectional zener or TVS, Alternate KiCad Library")
  (tags "SC-80 TVS")
  (attr smd)
  (fp_text reference REF** (at 0 -1.397) (layer F.SilkS)
    (effects (font (size 1 1) (thickness 0.15)))
  )
  (fp_text value D_SC-80_TVS (at 0 1.5) (layer F.Fab)
    (effects (font (size 1 1) (thickness 0.15)))
  )
  (fp_poly (pts (xy 0 0) (xy 0.254 -0.381) (xy 0.254 0.381)) (layer F.SilkS) (width 0.1))
  (fp_poly (pts (xy 0 0) (xy -0.254 0.381) (xy -0.254 -0.381)) (layer F.SilkS) (width 0.1))
  (fp_line (start -0.0635 0.381) (end 0 0.381) (layer F.SilkS) (width 0.12))
  (fp_line (start 0 -0.381) (end 0.0635 -0.381) (layer F.SilkS) (width 0.12))
  (fp_line (start -1.143 0.635) (end -1.143 -0.635) (layer F.SilkS) (width 0.12))
  (fp_line (start 1.143 0.635) (end -1.143 0.635) (layer F.SilkS) (width 0.12))
  (fp_line (start 1.143 -0.635) (end 1.143 0.635) (layer F.SilkS) (width 0.12))
  (fp_line (start -1.143 -0.635) (end 1.143 -0.635) (layer F.SilkS) (width 0.12))
  (fp_line (start -0.65 0.4) (end -0.65 -0.4) (layer F.Fab) (width 0.1))
  (fp_line (start 0.65 0.4) (end -0.65 0.4) (layer F.Fab) (width 0.1))
  (fp_line (start 0.65 -0.4) (end 0.65 0.4) (layer F.Fab) (width 0.1))
  (fp_line (start -0.65 -0.4) (end 0.65 -0.4) (layer F.Fab) (width 0.1))
  (fp_line (start -0.2 0) (end 0.2 -0.225) (layer F.Fab) (width 0.1))
  (fp_line (start -0.2 0) (end -0.475 0) (layer F.Fab) (width 0.1))
  (fp_line (start 0.2 0.225) (end -0.2 0) (layer F.Fab) (width 0.1))
  (fp_line (start 0.2 -0.225) (end 0.2 0.225) (layer F.Fab) (width 0.1))
  (fp_line (start -0.2 -0.275) (end -0.2 0.275) (layer F.Fab) (width 0.1))
  (fp_line (start 0.2 0) (end 0.45 0) (layer F.Fab) (width 0.1))
  (fp_line (start -1.2065 0.6985) (end -1.2065 -0.6985) (layer F.CrtYd) (width 0.05))
  (fp_line (start 1.2065 0.6985) (end -1.2065 0.6985) (layer F.CrtYd) (width 0.05))
  (fp_line (start 1.2065 -0.6985) (end 1.2065 0.6985) (layer F.CrtYd) (width 0.05))
  (fp_line (start -1.2065 -0.6985) (end 1.0435 -0.6985) (layer F.CrtYd) (width 0.05))
  (fp_line (start 1.0435 -0.6985) (end 1.2065 -0.6985) (layer F.CrtYd) (width 0.05))
  (fp_line (start 0 -0.381) (end 0 0.381) (layer F.SilkS) (width 0.12))
  (fp_text user %R (at 0 -1.654) (layer F.Fab)
    (effects (font (size 1 1) (thickness 0.15)))
  )
  (pad 2 smd rect (at 0.725 0) (size 0.35 0.35) (layers F.Cu F.Paste F.Mask))
  (pad 1 smd rect (at -0.725 0) (size 0.35 0.35) (layers F.Cu F.Paste F.Mask))
  (model ${KISYS3DMOD}/Diode_SMD.3dshapes/D_SC-80.wrl
    (at (xyz 0 0 0))
    (scale (xyz 1 1 1))
    (rotate (xyz 0 0 0))
  )
)
