(module D_SMC-RM10_Universal (layer F.Cu) (tedit 608FA218)
  (descr "Diode, Universal, SMC (DO-214AB), RM10, Handsoldering, SMD, Thruhole, Alternate KiCad Library")
  (tags "Diode Universal SMC (DO-214AB) RM10 Handsoldering SMD Thruhole")
  (fp_text reference REF** (at 0 -4.572) (layer F.SilkS)
    (effects (font (size 1 1) (thickness 0.15)))
  )
  (fp_text value D_SMC-RM10_Universal (at 0 4.3) (layer F.Fab)
    (effects (font (size 1 1) (thickness 0.15)))
  )
  (fp_poly (pts (xy 1.524 1.651) (xy -1.524 0) (xy 1.524 -1.651)) (layer F.SilkS) (width 0.1))
  (fp_poly (pts (xy -2.54 3.81) (xy -4.064 3.81) (xy -4.064 3.302) (xy -2.54 3.302)) (layer F.SilkS) (width 0.1))
  (fp_poly (pts (xy -2.54 -3.302) (xy -4.064 -3.302) (xy -4.064 -3.81) (xy -2.54 -3.81)) (layer F.SilkS) (width 0.1))
  (fp_line (start 6.985 3.302) (end 6.985 -3.302) (layer F.SilkS) (width 0.12))
  (fp_line (start -6.985 3.302) (end 6.985 3.302) (layer F.SilkS) (width 0.12))
  (fp_line (start -6.985 -3.302) (end -6.985 3.302) (layer F.SilkS) (width 0.12))
  (fp_line (start 6.985 -3.302) (end -6.985 -3.302) (layer F.SilkS) (width 0.12))
  (fp_line (start 3.55 3.1) (end -3.55 3.1) (layer F.Fab) (width 0.1))
  (fp_line (start -3.55 3.1) (end -3.55 -3.1) (layer F.Fab) (width 0.1))
  (fp_line (start 3.55 -3.1) (end 3.55 3.1) (layer F.Fab) (width 0.1))
  (fp_line (start 3.55 -3.1) (end -3.55 -3.1) (layer F.Fab) (width 0.1))
  (fp_line (start -7.0485 -3.8735) (end 7.0485 -3.8735) (layer F.CrtYd) (width 0.05))
  (fp_line (start 7.0485 -3.8735) (end 7.0485 3.8735) (layer F.CrtYd) (width 0.05))
  (fp_line (start 7.0485 3.8735) (end -7.0485 3.8735) (layer F.CrtYd) (width 0.05))
  (fp_line (start -7.0485 3.8735) (end -7.0485 -3.8735) (layer F.CrtYd) (width 0.05))
  (fp_line (start -0.64944 0.00102) (end -1.55114 0.00102) (layer F.Fab) (width 0.1))
  (fp_line (start 0.50118 0.00102) (end 1.4994 0.00102) (layer F.Fab) (width 0.1))
  (fp_line (start -0.64944 -0.79908) (end -0.64944 0.80112) (layer F.Fab) (width 0.1))
  (fp_line (start 0.50118 0.75032) (end 0.50118 -0.79908) (layer F.Fab) (width 0.1))
  (fp_line (start -0.64944 0.00102) (end 0.50118 0.75032) (layer F.Fab) (width 0.1))
  (fp_line (start -0.64944 0.00102) (end 0.50118 -0.79908) (layer F.Fab) (width 0.1))
  (fp_line (start -1.524 -1.651) (end -1.524 1.651) (layer F.SilkS) (width 0.2))
  (fp_text user %R (at 0 -1.7) (layer F.Fab)
    (effects (font (size 1 1) (thickness 0.15)))
  )
  (pad 1 thru_hole rect (at -5 0) (size 4.5 3.3) (drill 1.2 (offset 0.6 0)) (layers *.Cu *.Mask))
  (pad 2 thru_hole rect (at 5 0 180) (size 4.5 3.3) (drill 1.2 (offset 0.6 0)) (layers *.Cu *.Mask))
  (model ${KISYS3DMOD}/Diode_SMD.3dshapes/D_SMC.wrl
    (at (xyz 0 0 0))
    (scale (xyz 1 1 1))
    (rotate (xyz 0 0 0))
  )
)
