(module D_SMB_TVS (layer F.Cu) (tedit 60793565)
  (descr "Diode SMB (DO-214AA), Bidirectional zener or TVS, Alternate KiCad Library")
  (tags "Diode SMB (DO-214AA) TVS")
  (attr smd)
  (fp_text reference REF** (at 0 -2.9845) (layer F.SilkS)
    (effects (font (size 1 1) (thickness 0.15)))
  )
  (fp_text value D_SMB_TVS (at 0 3.1) (layer F.Fab)
    (effects (font (size 1 1) (thickness 0.15)))
  )
  (fp_poly (pts (xy 0 0) (xy 0.5715 -0.635) (xy 0.5715 0.635)) (layer F.SilkS) (width 0.1))
  (fp_poly (pts (xy 0 0) (xy -0.5715 0.635) (xy -0.5715 -0.635)) (layer F.SilkS) (width 0.1))
  (fp_line (start -0.127 0.635) (end 0 0.635) (layer F.SilkS) (width 0.12))
  (fp_line (start 0 -0.635) (end 0.127 -0.635) (layer F.SilkS) (width 0.12))
  (fp_line (start 3.683 2.159) (end 3.683 -2.159) (layer F.SilkS) (width 0.12))
  (fp_line (start -3.683 2.159) (end 3.683 2.159) (layer F.SilkS) (width 0.12))
  (fp_line (start -3.683 -2.159) (end -3.683 2.159) (layer F.SilkS) (width 0.12))
  (fp_line (start 3.683 -2.159) (end -3.683 -2.159) (layer F.SilkS) (width 0.12))
  (fp_line (start 2.3 2) (end -2.3 2) (layer F.Fab) (width 0.1))
  (fp_line (start -2.3 2) (end -2.3 -2) (layer F.Fab) (width 0.1))
  (fp_line (start 2.3 -2) (end 2.3 2) (layer F.Fab) (width 0.1))
  (fp_line (start 2.3 -2) (end -2.3 -2) (layer F.Fab) (width 0.1))
  (fp_line (start -3.7465 -2.2225) (end 3.7465 -2.2225) (layer F.CrtYd) (width 0.05))
  (fp_line (start 3.7465 -2.2225) (end 3.7465 2.2225) (layer F.CrtYd) (width 0.05))
  (fp_line (start 3.7465 2.2225) (end -3.7465 2.2225) (layer F.CrtYd) (width 0.05))
  (fp_line (start -3.7465 2.2225) (end -3.7465 -2.2225) (layer F.CrtYd) (width 0.05))
  (fp_line (start -0.64944 0.00102) (end -1.55114 0.00102) (layer F.Fab) (width 0.1))
  (fp_line (start 0.50118 0.00102) (end 1.4994 0.00102) (layer F.Fab) (width 0.1))
  (fp_line (start -0.64944 -0.79908) (end -0.64944 0.80112) (layer F.Fab) (width 0.1))
  (fp_line (start 0.50118 0.75032) (end 0.50118 -0.79908) (layer F.Fab) (width 0.1))
  (fp_line (start -0.64944 0.00102) (end 0.50118 0.75032) (layer F.Fab) (width 0.1))
  (fp_line (start -0.64944 0.00102) (end 0.50118 -0.79908) (layer F.Fab) (width 0.1))
  (fp_line (start 0 -0.635) (end 0 0.635) (layer F.SilkS) (width 0.12))
  (fp_text user %R (at 0 -3.508) (layer F.Fab)
    (effects (font (size 1 1) (thickness 0.15)))
  )
  (pad 1 smd rect (at -2.15 0) (size 2.5 2.3) (layers F.Cu F.Paste F.Mask))
  (pad 2 smd rect (at 2.15 0) (size 2.5 2.3) (layers F.Cu F.Paste F.Mask))
  (model ${KISYS3DMOD}/Diode_SMD.3dshapes/D_SMB.wrl
    (at (xyz 0 0 0))
    (scale (xyz 1 1 1))
    (rotate (xyz 0 0 0))
  )
)
