(module D_SOD-923 (layer F.Cu) (tedit 607937CE)
  (descr "https://www.onsemi.com/pub/Collateral/ESD9B-D.PDF#page=4, Alternate KiCad Library")
  (tags "Diode SOD923")
  (attr smd)
  (fp_text reference REF** (at 0 -1.3905) (layer F.SilkS)
    (effects (font (size 1 1) (thickness 0.15)))
  )
  (fp_text value D_SOD-923 (at 0 1.2) (layer F.Fab)
    (effects (font (size 1 1) (thickness 0.15)))
  )
  (fp_line (start -0.8255 -0.6985) (end -0.8255 0.6985) (layer F.CrtYd) (width 0.05))
  (fp_line (start 0.8255 -0.6985) (end 0.8255 0.6985) (layer F.CrtYd) (width 0.05))
  (fp_line (start -0.8255 -0.6985) (end 0.8255 -0.6985) (layer F.CrtYd) (width 0.05))
  (fp_line (start 0.8255 0.6985) (end -0.8255 0.6985) (layer F.CrtYd) (width 0.05))
  (fp_line (start 0.15 0) (end 0.25 0) (layer F.Fab) (width 0.1))
  (fp_line (start 0.15 -0.2) (end -0.15 0) (layer F.Fab) (width 0.1))
  (fp_line (start 0.15 0.2) (end 0.15 -0.2) (layer F.Fab) (width 0.1))
  (fp_line (start -0.15 0) (end 0.15 0.2) (layer F.Fab) (width 0.1))
  (fp_line (start -0.15 0) (end -0.25 0) (layer F.Fab) (width 0.1))
  (fp_line (start -0.15 0.2) (end -0.15 -0.2) (layer F.Fab) (width 0.1))
  (fp_line (start 0.4 -0.3) (end 0.4 0.3) (layer F.Fab) (width 0.1))
  (fp_line (start -0.4 -0.3) (end 0.4 -0.3) (layer F.Fab) (width 0.1))
  (fp_line (start -0.4 0.3) (end -0.4 -0.3) (layer F.Fab) (width 0.1))
  (fp_line (start 0.4 0.3) (end -0.4 0.3) (layer F.Fab) (width 0.1))
  (fp_line (start 0.762 -0.4445) (end -0.762 -0.4445) (layer F.SilkS) (width 0.1))
  (fp_line (start -0.762 -0.4445) (end -0.762 0.4445) (layer F.SilkS) (width 0.1))
  (fp_line (start -0.762 0.4445) (end 0.762 0.4445) (layer F.SilkS) (width 0.1))
  (fp_line (start 0.762 0.4445) (end 0.762 -0.4445) (layer F.SilkS) (width 0.1))
  (fp_poly (pts (xy -0.127 -0.4445) (xy -0.4445 -0.4445) (xy -0.4445 -0.635) (xy -0.127 -0.635)) (layer F.SilkS) (width 0.1))
  (fp_poly (pts (xy -0.127 0.635) (xy -0.4445 0.635) (xy -0.4445 0.4445) (xy -0.127 0.4445)) (layer F.SilkS) (width 0.1))
  (fp_text user %R (at 0 -1.3905) (layer F.Fab)
    (effects (font (size 1 1) (thickness 0.15)))
  )
  (pad 1 smd rect (at -0.42 0 180) (size 0.36 0.25) (layers F.Cu F.Paste F.Mask))
  (pad 2 smd rect (at 0.42 0 180) (size 0.36 0.25) (layers F.Cu F.Paste F.Mask))
  (model ${KISYS3DMOD}/Diode_SMD.3dshapes/D_SOD-923.wrl
    (at (xyz 0 0 0))
    (scale (xyz 1 1 1))
    (rotate (xyz 0 0 0))
  )
)
