(module D_SOD-323_HandSoldering (layer F.Cu) (tedit 608FA25E)
  (descr "SOD-323, Alternate KiCad Library")
  (tags SOD-323)
  (attr smd)
  (fp_text reference REF** (at 0 -2.104) (layer F.SilkS)
    (effects (font (size 1 1) (thickness 0.15)))
  )
  (fp_text value D_SOD-323_BigPads (at 0.1 1.9) (layer F.Fab)
    (effects (font (size 1 1) (thickness 0.15)))
  )
  (fp_line (start -0.381 -0.508) (end -0.381 0.508) (layer F.SilkS) (width 0.12))
  (fp_line (start -2.0955 -1.3335) (end -2.0955 1.3335) (layer F.CrtYd) (width 0.05))
  (fp_line (start -2.0955 1.3335) (end 2.0955 1.3335) (layer F.CrtYd) (width 0.05))
  (fp_line (start 2.0955 -1.3335) (end 2.0955 1.3335) (layer F.CrtYd) (width 0.05))
  (fp_line (start -2.0955 -1.3335) (end 2.0955 -1.3335) (layer F.CrtYd) (width 0.05))
  (fp_line (start -0.9 -0.7) (end 0.9 -0.7) (layer F.Fab) (width 0.1))
  (fp_line (start 0.9 -0.7) (end 0.9 0.7) (layer F.Fab) (width 0.1))
  (fp_line (start 0.9 0.7) (end -0.9 0.7) (layer F.Fab) (width 0.1))
  (fp_line (start -0.9 0.7) (end -0.9 -0.7) (layer F.Fab) (width 0.1))
  (fp_line (start -0.3 -0.35) (end -0.3 0.35) (layer F.Fab) (width 0.1))
  (fp_line (start -0.3 0) (end -0.5 0) (layer F.Fab) (width 0.1))
  (fp_line (start -0.3 0) (end 0.2 -0.35) (layer F.Fab) (width 0.1))
  (fp_line (start 0.2 -0.35) (end 0.2 0.35) (layer F.Fab) (width 0.1))
  (fp_line (start 0.2 0.35) (end -0.3 0) (layer F.Fab) (width 0.1))
  (fp_line (start 0.2 0) (end 0.45 0) (layer F.Fab) (width 0.1))
  (fp_line (start 2.032 -0.9525) (end -2.032 -0.9525) (layer F.SilkS) (width 0.12))
  (fp_line (start -2.032 -0.9525) (end -2.032 0.9525) (layer F.SilkS) (width 0.12))
  (fp_line (start -2.032 0.9525) (end 2.032 0.9525) (layer F.SilkS) (width 0.12))
  (fp_line (start 2.032 0.9525) (end 2.032 -0.9525) (layer F.SilkS) (width 0.12))
  (fp_poly (pts (xy -0.4445 -0.9525) (xy -1.143 -0.9525) (xy -1.143 -1.27) (xy -0.4445 -1.27)) (layer F.SilkS) (width 0.1))
  (fp_poly (pts (xy -0.4445 1.27) (xy -1.143 1.27) (xy -1.143 0.9525) (xy -0.4445 0.9525)) (layer F.SilkS) (width 0.1))
  (fp_poly (pts (xy 0.381 0.508) (xy -0.381 0) (xy 0.381 -0.508)) (layer F.SilkS) (width 0.1))
  (fp_text user %R (at 0 -2.104) (layer F.Fab)
    (effects (font (size 1 1) (thickness 0.15)))
  )
  (pad 1 smd rect (at -1.25 0) (size 1 1) (layers F.Cu F.Paste F.Mask))
  (pad 2 smd rect (at 1.25 0) (size 1 1) (layers F.Cu F.Paste F.Mask))
  (model ${KISYS3DMOD}/Diode_SMD.3dshapes/D_SOD-323.wrl
    (at (xyz 0 0 0))
    (scale (xyz 1 1 1))
    (rotate (xyz 0 0 0))
  )
)
