(module D_SOD-110 (layer F.Cu) (tedit 6079361F)
  (descr "SOD-110, Alternate KiCad Library")
  (tags SOD-110)
  (attr smd)
  (fp_text reference REF** (at 0 -2.081) (layer F.SilkS)
    (effects (font (size 1 1) (thickness 0.15)))
  )
  (fp_text value D_SOD-110 (at 0 1.8) (layer F.Fab)
    (effects (font (size 1 1) (thickness 0.15)))
  )
  (fp_line (start -0.254 -0.381) (end -0.254 0.381) (layer F.SilkS) (width 0.12))
  (fp_line (start -1.7145 -1.3335) (end -1.7145 1.3335) (layer F.CrtYd) (width 0.05))
  (fp_line (start 1.7145 1.3335) (end -1.7145 1.3335) (layer F.CrtYd) (width 0.05))
  (fp_line (start 1.7145 -1.3335) (end 1.7145 1.3335) (layer F.CrtYd) (width 0.05))
  (fp_line (start -1.7145 -1.3335) (end 1.7145 -1.3335) (layer F.CrtYd) (width 0.05))
  (fp_line (start -1.05 -0.7) (end -1.05 0.7) (layer F.Fab) (width 0.1))
  (fp_line (start -1.05 0.7) (end 1.05 0.7) (layer F.Fab) (width 0.1))
  (fp_line (start 1.05 0.7) (end 1.05 -0.7) (layer F.Fab) (width 0.1))
  (fp_line (start 1.05 -0.7) (end -1.05 -0.7) (layer F.Fab) (width 0.1))
  (fp_line (start -0.2 0.2) (end -0.2 -0.2) (layer F.Fab) (width 0.1))
  (fp_line (start -0.2 0) (end -0.35 0) (layer F.Fab) (width 0.1))
  (fp_line (start -0.2 0) (end 0.1 0.2) (layer F.Fab) (width 0.1))
  (fp_line (start 0.1 0.2) (end 0.1 -0.2) (layer F.Fab) (width 0.1))
  (fp_line (start 0.1 -0.2) (end -0.2 0) (layer F.Fab) (width 0.1))
  (fp_line (start 0.1 0) (end 0.25 0) (layer F.Fab) (width 0.1))
  (fp_line (start 1.651 -1.016) (end -1.651 -1.016) (layer F.SilkS) (width 0.12))
  (fp_line (start -1.651 -1.016) (end -1.651 1.016) (layer F.SilkS) (width 0.12))
  (fp_line (start -1.651 1.016) (end 1.651 1.016) (layer F.SilkS) (width 0.12))
  (fp_line (start 1.651 1.016) (end 1.651 -1.016) (layer F.SilkS) (width 0.12))
  (fp_poly (pts (xy -0.381 -1.016) (xy -1.143 -1.016) (xy -1.143 -1.27) (xy -0.381 -1.27)) (layer F.SilkS) (width 0.1))
  (fp_poly (pts (xy -0.381 1.27) (xy -1.143 1.27) (xy -1.143 1.016) (xy -0.381 1.016)) (layer F.SilkS) (width 0.1))
  (fp_poly (pts (xy 0.254 0.381) (xy -0.254 0) (xy 0.254 -0.381)) (layer F.SilkS) (width 0.1))
  (fp_text user %R (at 0 -2.081) (layer F.Fab)
    (effects (font (size 1 1) (thickness 0.15)))
  )
  (pad 1 smd rect (at -0.95 0) (size 0.8 1) (layers F.Cu F.Paste F.Mask))
  (pad 2 smd rect (at 0.95 0) (size 0.8 1) (layers F.Cu F.Paste F.Mask))
  (model ${KISYS3DMOD}/Diode_SMD.3dshapes/D_SOD-110.wrl
    (at (xyz 0 0 0))
    (scale (xyz 1 1 1))
    (rotate (xyz 0 0 0))
  )
)
