(module D_SOD-523_TVS (layer F.Cu) (tedit 607937C7)
  (descr "http://www.diodes.com/datasheets/ap02001.pdf p.144, Bidirectional zener or TVS, Alternate KiCad Library")
  (tags "Diode SOD523 TVS")
  (attr smd)
  (fp_text reference REF** (at 0 -1.4605) (layer F.SilkS)
    (effects (font (size 1 1) (thickness 0.15)))
  )
  (fp_text value D_SOD-523_TVS (at 0 1.4) (layer F.Fab)
    (effects (font (size 1 1) (thickness 0.15)))
  )
  (fp_line (start 0.65 0.45) (end -0.65 0.45) (layer F.Fab) (width 0.1))
  (fp_line (start -0.65 0.45) (end -0.65 -0.45) (layer F.Fab) (width 0.1))
  (fp_line (start -0.65 -0.45) (end 0.65 -0.45) (layer F.Fab) (width 0.1))
  (fp_line (start 0.65 -0.45) (end 0.65 0.45) (layer F.Fab) (width 0.1))
  (fp_line (start -0.2 0.2) (end -0.2 -0.2) (layer F.Fab) (width 0.1))
  (fp_line (start -0.2 0) (end -0.35 0) (layer F.Fab) (width 0.1))
  (fp_line (start -0.2 0) (end 0.1 0.2) (layer F.Fab) (width 0.1))
  (fp_line (start 0.1 0.2) (end 0.1 -0.2) (layer F.Fab) (width 0.1))
  (fp_line (start 0.1 -0.2) (end -0.2 0) (layer F.Fab) (width 0.1))
  (fp_line (start 0.1 0) (end 0.25 0) (layer F.Fab) (width 0.1))
  (fp_line (start 1.3335 0.762) (end -1.3335 0.762) (layer F.CrtYd) (width 0.05))
  (fp_line (start -1.3335 0.762) (end -1.3335 -0.762) (layer F.CrtYd) (width 0.05))
  (fp_line (start -1.3335 -0.762) (end 1.3335 -0.762) (layer F.CrtYd) (width 0.05))
  (fp_line (start 1.3335 -0.762) (end 1.3335 0.762) (layer F.CrtYd) (width 0.05))
  (fp_line (start 1.27 -0.6985) (end -1.27 -0.6985) (layer F.SilkS) (width 0.12))
  (fp_line (start -1.27 -0.6985) (end -1.27 0.6985) (layer F.SilkS) (width 0.12))
  (fp_line (start -1.27 0.6985) (end 1.27 0.6985) (layer F.SilkS) (width 0.12))
  (fp_line (start 1.27 0.6985) (end 1.27 -0.635) (layer F.SilkS) (width 0.12))
  (fp_line (start 1.27 -0.635) (end 1.27 -0.6985) (layer F.SilkS) (width 0.12))
  (fp_text user %R (at 0 -1.6175) (layer F.Fab)
    (effects (font (size 1 1) (thickness 0.15)))
  )
  (pad 2 smd rect (at 0.7 0 180) (size 0.6 0.7) (layers F.Cu F.Paste F.Mask))
  (pad 1 smd rect (at -0.7 0 180) (size 0.6 0.7) (layers F.Cu F.Paste F.Mask))
  (model ${KISYS3DMOD}/Diode_SMD.3dshapes/D_SOD-523.wrl
    (at (xyz 0 0 0))
    (scale (xyz 1 1 1))
    (rotate (xyz 0 0 0))
  )
)
