(module D_TUMD2 (layer F.Cu) (tedit 607937F7)
  (descr "ROHM - TUMD2, Alternate KiCad Library")
  (tags TUMD2)
  (attr smd)
  (fp_text reference REF** (at 0 -1.854) (layer F.SilkS)
    (effects (font (size 1 1) (thickness 0.15)))
  )
  (fp_text value D_TUMD2 (at 0 1.7) (layer F.Fab)
    (effects (font (size 1 1) (thickness 0.15)))
  )
  (fp_line (start -1.9685 1.2065) (end -1.9685 -1.2065) (layer F.CrtYd) (width 0.05))
  (fp_line (start 1.9685 1.2065) (end -1.9685 1.2065) (layer F.CrtYd) (width 0.05))
  (fp_line (start 1.9685 -1.2065) (end 1.9685 1.2065) (layer F.CrtYd) (width 0.05))
  (fp_line (start -1.9685 -1.2065) (end 1.9685 -1.2065) (layer F.CrtYd) (width 0.05))
  (fp_line (start -0.3 -0.35) (end -0.3 0.35) (layer F.Fab) (width 0.1))
  (fp_line (start -0.3 0) (end -0.5 0) (layer F.Fab) (width 0.1))
  (fp_line (start -0.3 0) (end 0.2 -0.35) (layer F.Fab) (width 0.1))
  (fp_line (start 0.2 -0.35) (end 0.2 0.35) (layer F.Fab) (width 0.1))
  (fp_line (start 0.2 0.35) (end -0.3 0) (layer F.Fab) (width 0.1))
  (fp_line (start 0.2 0) (end 0.45 0) (layer F.Fab) (width 0.1))
  (fp_line (start -0.95 -0.65) (end 0.95 -0.65) (layer F.Fab) (width 0.1))
  (fp_line (start -0.95 0.65) (end -0.95 -0.65) (layer F.Fab) (width 0.1))
  (fp_line (start 0.95 0.65) (end -0.95 0.65) (layer F.Fab) (width 0.1))
  (fp_line (start 0.95 -0.65) (end 0.95 0.65) (layer F.Fab) (width 0.1))
  (fp_line (start 1.905 -0.889) (end -1.905 -0.889) (layer F.SilkS) (width 0.12))
  (fp_line (start -1.905 -0.889) (end -1.905 0.889) (layer F.SilkS) (width 0.12))
  (fp_line (start -1.905 0.889) (end 1.905 0.889) (layer F.SilkS) (width 0.12))
  (fp_line (start 1.905 0.889) (end 1.905 -0.889) (layer F.SilkS) (width 0.12))
  (fp_poly (pts (xy -0.3175 -1.143) (xy -0.3175 -0.889) (xy -1.016 -0.889) (xy -1.016 -1.143)) (layer F.SilkS) (width 0.1))
  (fp_poly (pts (xy -0.3175 0.889) (xy -0.3175 1.143) (xy -1.016 1.143) (xy -1.016 0.889)) (layer F.SilkS) (width 0.1))
  (fp_text user %R (at 0 -1.854) (layer F.Fab)
    (effects (font (size 1 1) (thickness 0.15)))
  )
  (pad 2 smd rect (at 1.25 0 180) (size 0.8 1.1) (layers F.Cu F.Paste F.Mask))
  (pad 1 smd rect (at -0.65 0 180) (size 2 1.1) (layers F.Cu F.Paste F.Mask))
  (model ${KISYS3DMOD}/Diode_SMD.3dshapes/D_TUMD2.wrl
    (at (xyz 0 0 0))
    (scale (xyz 1 1 1))
    (rotate (xyz 0 0 0))
  )
)
