(module Diode_Bridge_Diotec_SO-DIL-Slim (layer F.Cu) (tedit 60793815)
  (descr "SMD diode bridge Diotec SO-DIL Slim, see https://diotec.com/tl_files/diotec/files/pdf/datasheets/b40fs.pdf, Alternate KiCad Library")
  (tags "DFS SO-DIL Slim")
  (attr smd)
  (fp_text reference REF** (at 0 -5.1) (layer F.SilkS)
    (effects (font (size 1 1) (thickness 0.15)))
  )
  (fp_text value Diode_Bridge_Diotec_SO-DIL-Slim (at 0 5.2) (layer F.Fab)
    (effects (font (size 1 1) (thickness 0.15)))
  )
  (fp_line (start 5.6515 -4.445) (end -5.6515 -4.445) (layer F.SilkS) (width 0.12))
  (fp_line (start 5.6515 4.445) (end 5.6515 -4.445) (layer F.SilkS) (width 0.12))
  (fp_line (start -5.6515 4.445) (end 5.6515 4.445) (layer F.SilkS) (width 0.12))
  (fp_line (start -5.6515 -4.445) (end -5.6515 4.445) (layer F.SilkS) (width 0.12))
  (fp_line (start 3.2 -4.2) (end 3.2 4.2) (layer F.Fab) (width 0.12))
  (fp_line (start 3.2 4.2) (end -3.2 4.2) (layer F.Fab) (width 0.12))
  (fp_line (start -3.2 4.2) (end -3.2 -3.3) (layer F.Fab) (width 0.12))
  (fp_line (start -3.2 -3.3) (end -2.3 -4.2) (layer F.Fab) (width 0.12))
  (fp_line (start -2.3 -4.2) (end 3.2 -4.2) (layer F.Fab) (width 0.12))
  (fp_line (start -5.62 -4.45) (end 5.62 -4.45) (layer F.CrtYd) (width 0.05))
  (fp_line (start -5.62 -4.45) (end -5.62 4.45) (layer F.CrtYd) (width 0.05))
  (fp_line (start 5.62 4.45) (end 5.62 -4.45) (layer F.CrtYd) (width 0.05))
  (fp_line (start 5.62 4.45) (end -5.62 4.45) (layer F.CrtYd) (width 0.05))
  (fp_line (start -4.826 -1.143) (end -4.064 -1.143) (layer F.SilkS) (width 0.12))
  (fp_line (start -4.445 -1.524) (end -4.445 -0.762) (layer F.SilkS) (width 0.12))
  (fp_line (start -4.826 1.143) (end -4.064 1.143) (layer F.SilkS) (width 0.12))
  (fp_text user %R (at 0 -0.065) (layer F.Fab)
    (effects (font (size 1 1) (thickness 0.15)))
  )
  (fp_arc (start 4.635501 -1.523999) (end 4.381502 -1.143) (angle -67.38013505) (layer F.SilkS) (width 0.12))
  (fp_arc (start 4.1275 -0.762) (end 4.381499 -1.142999) (angle -67.38013505) (layer F.SilkS) (width 0.12))
  (fp_arc (start 4.635501 0.762001) (end 4.381502 1.143) (angle -67.38013505) (layer F.SilkS) (width 0.12))
  (fp_arc (start 4.1275 1.524) (end 4.381499 1.143001) (angle -67.38013505) (layer F.SilkS) (width 0.12))
  (pad 1 smd rect (at -4.37 -2.55) (size 2 1.5) (layers F.Cu F.Paste F.Mask))
  (pad 2 smd rect (at -4.37 2.55) (size 2 1.5) (layers F.Cu F.Paste F.Mask))
  (pad 3 smd rect (at 4.37 2.55) (size 2 1.5) (layers F.Cu F.Paste F.Mask))
  (pad 4 smd rect (at 4.37 -2.55) (size 2 1.5) (layers F.Cu F.Paste F.Mask))
  (model ${KISYS3DMOD}/Diode_SMD.3dshapes/Diode_Bridge_Diotec_SO-DIL-Slim.wrl
    (at (xyz 0 0 0))
    (scale (xyz 1 1 1))
    (rotate (xyz 0 0 0))
  )
)
