(module Diode_Bridge_Vishay_MBLS (layer F.Cu) (tedit 60793825)
  (descr "SMD diode bridge MBLS, see http://www.vishay.com/docs/89959/mbl104s.pdf http://www.vishay.com/docs/88854/padlayouts.pdf, Alternate KiCad Library")
  (tags DFS)
  (attr smd)
  (fp_text reference REF** (at 0 -3.7) (layer F.SilkS)
    (effects (font (size 1 1) (thickness 0.15)))
  )
  (fp_text value Diode_Bridge_Vishay_MBLS (at 0 3.7) (layer F.Fab)
    (effects (font (size 1 1) (thickness 0.15)))
  )
  (fp_line (start 3.7465 -2.794) (end -3.7465 -2.794) (layer F.SilkS) (width 0.12))
  (fp_line (start 3.7465 2.794) (end 3.7465 -2.794) (layer F.SilkS) (width 0.12))
  (fp_line (start -3.7465 2.794) (end 3.7465 2.794) (layer F.SilkS) (width 0.12))
  (fp_line (start -3.7465 -2.794) (end -3.7465 2.794) (layer F.SilkS) (width 0.12))
  (fp_line (start -3.4925 1.0795) (end -2.7305 1.0795) (layer F.SilkS) (width 0.12))
  (fp_line (start -3.1115 -1.3335) (end -3.1115 -0.5715) (layer F.SilkS) (width 0.12))
  (fp_line (start -3.4925 -0.9525) (end -2.7305 -0.9525) (layer F.SilkS) (width 0.12))
  (fp_line (start -2.4 2.6) (end 2.4 2.6) (layer F.Fab) (width 0.12))
  (fp_line (start 2.4 2.6) (end 2.4 -2.6) (layer F.Fab) (width 0.12))
  (fp_line (start 2.4 -2.6) (end -1.8 -2.6) (layer F.Fab) (width 0.12))
  (fp_line (start -1.8 -2.6) (end -2.4 -2) (layer F.Fab) (width 0.12))
  (fp_line (start -2.4 -2) (end -2.4 2.6) (layer F.Fab) (width 0.12))
  (fp_line (start -3.72 -2.85) (end 3.73 -2.85) (layer F.CrtYd) (width 0.05))
  (fp_line (start -3.72 -2.85) (end -3.72 2.85) (layer F.CrtYd) (width 0.05))
  (fp_line (start 3.73 2.85) (end 3.73 -2.85) (layer F.CrtYd) (width 0.05))
  (fp_line (start 3.73 2.85) (end -3.72 2.85) (layer F.CrtYd) (width 0.05))
  (fp_text user %R (at 0 -0.065) (layer F.Fab)
    (effects (font (size 1 1) (thickness 0.15)))
  )
  (fp_arc (start 3.238501 -1.333499) (end 2.984502 -0.9525) (angle -67.38013505) (layer F.SilkS) (width 0.12))
  (fp_arc (start 2.7305 -0.5715) (end 2.984499 -0.952499) (angle -67.38013505) (layer F.SilkS) (width 0.12))
  (fp_arc (start 3.238501 0.698501) (end 2.984502 1.0795) (angle -67.38013505) (layer F.SilkS) (width 0.12))
  (fp_arc (start 2.7305 1.4605) (end 2.984499 1.079501) (angle -67.38013505) (layer F.SilkS) (width 0.12))
  (pad 1 smd rect (at -2.975 -2) (size 1 0.7) (layers F.Cu F.Paste F.Mask))
  (pad 2 smd rect (at -2.975 2) (size 1 0.7) (layers F.Cu F.Paste F.Mask))
  (pad 3 smd rect (at 2.975 2) (size 1 0.7) (layers F.Cu F.Paste F.Mask))
  (pad 4 smd rect (at 2.975 -2) (size 1 0.7) (layers F.Cu F.Paste F.Mask))
  (model ${KISYS3DMOD}/Diode_SMD.3dshapes/Diode_Bridge_Vishay_MBLS.wrl
    (at (xyz 0 0 0))
    (scale (xyz 1 1 1))
    (rotate (xyz 0 0 0))
  )
)
