(module L_0402_1005Metric_Pad0.77x0.64mm (layer F.Cu) (tedit 608FA314)
  (descr "Inductor SMD 0402 (1005 Metric), square (rectangular) end terminal, IPC_7351 nominal with elongated pad for handsoldering. (Body size source: http://www.tortai-tech.com/upload/download/2011102023233369053.pdf), Alternate KiCad Library")
  (tags "inductor handsolder")
  (attr smd)
  (fp_text reference REF** (at 0 -1.27) (layer F.SilkS)
    (effects (font (size 1 1) (thickness 0.15)))
  )
  (fp_text value L_0402_1005Metric_Pad0.77x0.64mm (at 0 1.17) (layer F.Fab)
    (effects (font (size 1 1) (thickness 0.15)))
  )
  (fp_line (start 1.27 0.635) (end -1.27 0.635) (layer F.CrtYd) (width 0.05))
  (fp_line (start 1.27 -0.635) (end 1.27 0.635) (layer F.CrtYd) (width 0.05))
  (fp_line (start -1.27 -0.635) (end 1.27 -0.635) (layer F.CrtYd) (width 0.05))
  (fp_line (start -1.27 0.635) (end -1.27 -0.635) (layer F.CrtYd) (width 0.05))
  (fp_line (start 0.5 0.25) (end -0.5 0.25) (layer F.Fab) (width 0.1))
  (fp_line (start 0.5 -0.25) (end 0.5 0.25) (layer F.Fab) (width 0.1))
  (fp_line (start -0.5 -0.25) (end 0.5 -0.25) (layer F.Fab) (width 0.1))
  (fp_line (start -0.5 0.25) (end -0.5 -0.25) (layer F.Fab) (width 0.1))
  (fp_line (start -1.2065 -0.5715) (end 1.2065 -0.5715) (layer F.SilkS) (width 0.12))
  (fp_line (start 1.2065 -0.5715) (end 1.2065 0.5715) (layer F.SilkS) (width 0.12))
  (fp_line (start 1.2065 0.5715) (end -1.2065 0.5715) (layer F.SilkS) (width 0.12))
  (fp_line (start -1.2065 0.5715) (end -1.2065 -0.5715) (layer F.SilkS) (width 0.12))
  (fp_text user %R (at 0 0) (layer F.Fab)
    (effects (font (size 0.25 0.25) (thickness 0.04)))
  )
  (pad 2 smd roundrect (at 0.5725 0) (size 0.765 0.64) (layers F.Cu F.Paste F.Mask) (roundrect_rratio 0.25))
  (pad 1 smd roundrect (at -0.5725 0) (size 0.765 0.64) (layers F.Cu F.Paste F.Mask) (roundrect_rratio 0.25))
  (model ${KISYS3DMOD}/Inductor_SMD.3dshapes/L_0402_1005Metric.wrl
    (at (xyz 0 0 0))
    (scale (xyz 1 1 1))
    (rotate (xyz 0 0 0))
  )
)
