(module L_0805_2012Metric (layer F.Cu) (tedit 608FA32A)
  (descr "Inductor SMD 0805 (2012 Metric), square (rectangular) end terminal, IPC_7351 nominal, (Body size source: IPC-SM-782 page 80, https://www.pcb-3d.com/wordpress/wp-content/uploads/ipc-sm-782a_amendment_1_and_2.pdf), Alternate KiCad Library")
  (tags inductor)
  (attr smd)
  (fp_text reference REF** (at 0 -1.651) (layer F.SilkS)
    (effects (font (size 1 1) (thickness 0.15)))
  )
  (fp_text value L_0805_2012Metric (at 0 1.55) (layer F.Fab)
    (effects (font (size 1 1) (thickness 0.15)))
  )
  (fp_line (start 1.8415 0.9525) (end -1.8415 0.9525) (layer F.CrtYd) (width 0.05))
  (fp_line (start 1.8415 -0.9525) (end 1.8415 0.9525) (layer F.CrtYd) (width 0.05))
  (fp_line (start -1.8415 -0.9525) (end 1.8415 -0.9525) (layer F.CrtYd) (width 0.05))
  (fp_line (start -1.8415 0.9525) (end -1.8415 -0.9525) (layer F.CrtYd) (width 0.05))
  (fp_line (start 1 0.45) (end -1 0.45) (layer F.Fab) (width 0.1))
  (fp_line (start 1 -0.45) (end 1 0.45) (layer F.Fab) (width 0.1))
  (fp_line (start -1 -0.45) (end 1 -0.45) (layer F.Fab) (width 0.1))
  (fp_line (start -1 0.45) (end -1 -0.45) (layer F.Fab) (width 0.1))
  (fp_line (start -1.778 -0.889) (end 1.778 -0.889) (layer F.SilkS) (width 0.12))
  (fp_line (start 1.778 -0.889) (end 1.778 0.889) (layer F.SilkS) (width 0.12))
  (fp_line (start 1.778 0.889) (end -1.778 0.889) (layer F.SilkS) (width 0.12))
  (fp_line (start -1.778 0.889) (end -1.778 -0.889) (layer F.SilkS) (width 0.12))
  (fp_text user %R (at 0 0) (layer F.Fab)
    (effects (font (size 0.5 0.5) (thickness 0.08)))
  )
  (pad 2 smd roundrect (at 1.0625 0) (size 0.875 1.2) (layers F.Cu F.Paste F.Mask) (roundrect_rratio 0.25))
  (pad 1 smd roundrect (at -1.0625 0) (size 0.875 1.2) (layers F.Cu F.Paste F.Mask) (roundrect_rratio 0.25))
  (model ${KISYS3DMOD}/Inductor_SMD.3dshapes/L_0805_2012Metric.wrl
    (at (xyz 0 0 0))
    (scale (xyz 1 1 1))
    (rotate (xyz 0 0 0))
  )
)
