(module L_2010_5025Metric (layer F.Cu) (tedit 608FA3E1)
  (descr "Inductor SMD 2010 (5025 Metric), square (rectangular) end terminal, IPC_7351 nominal, (Body size source: http://www.tortai-tech.com/upload/download/2011102023233369053.pdf), Alternate KiCad Library")
  (tags inductor)
  (attr smd)
  (fp_text reference REF** (at 0 -2.3495) (layer F.SilkS)
    (effects (font (size 1 1) (thickness 0.15)))
  )
  (fp_text value L_2010_5025Metric (at 0 2.28) (layer F.Fab)
    (effects (font (size 1 1) (thickness 0.15)))
  )
  (fp_line (start 3.2385 1.651) (end -3.2385 1.651) (layer F.CrtYd) (width 0.05))
  (fp_line (start 3.2385 -1.651) (end 3.2385 1.651) (layer F.CrtYd) (width 0.05))
  (fp_line (start -3.2385 -1.651) (end 3.2385 -1.651) (layer F.CrtYd) (width 0.05))
  (fp_line (start -3.2385 1.651) (end -3.2385 -1.651) (layer F.CrtYd) (width 0.05))
  (fp_line (start 2.5 1.25) (end -2.5 1.25) (layer F.Fab) (width 0.1))
  (fp_line (start 2.5 -1.25) (end 2.5 1.25) (layer F.Fab) (width 0.1))
  (fp_line (start -2.5 -1.25) (end 2.5 -1.25) (layer F.Fab) (width 0.1))
  (fp_line (start -2.5 1.25) (end -2.5 -1.25) (layer F.Fab) (width 0.1))
  (fp_line (start -3.175 -1.5875) (end 3.175 -1.5875) (layer F.SilkS) (width 0.12))
  (fp_line (start 3.175 -1.5875) (end 3.175 1.5875) (layer F.SilkS) (width 0.12))
  (fp_line (start 3.175 1.5875) (end -3.175 1.5875) (layer F.SilkS) (width 0.12))
  (fp_line (start -3.175 1.5875) (end -3.175 -1.5875) (layer F.SilkS) (width 0.12))
  (fp_text user %R (at 0 0) (layer F.Fab)
    (effects (font (size 1 1) (thickness 0.15)))
  )
  (pad 2 smd roundrect (at 2.25 0) (size 1.35 2.65) (layers F.Cu F.Paste F.Mask) (roundrect_rratio 0.185185))
  (pad 1 smd roundrect (at -2.25 0) (size 1.35 2.65) (layers F.Cu F.Paste F.Mask) (roundrect_rratio 0.185185))
  (model ${KISYS3DMOD}/Inductor_SMD.3dshapes/L_2010_5025Metric.wrl
    (at (xyz 0 0 0))
    (scale (xyz 1 1 1))
    (rotate (xyz 0 0 0))
  )
)
