(module L_Bourns_SRN6045TA (layer F.Cu) (tedit 609028C5)
  (descr "http://www.bourns.com/docs/product-datasheets/srn6045ta.pdf, Alternate KiCad Library")
  (tags "Semi-shielded Power Inductor")
  (attr smd)
  (fp_text reference REF** (at 0 -4.6) (layer F.SilkS)
    (effects (font (size 1 1) (thickness 0.15)))
  )
  (fp_text value L_Bourns_SRN6045TA (at 0 4.2) (layer F.Fab)
    (effects (font (size 1 1) (thickness 0.15)))
  )
  (fp_line (start -3 -3) (end 3 -3) (layer F.Fab) (width 0.1))
  (fp_line (start -3 -3) (end -3 3) (layer F.Fab) (width 0.1))
  (fp_line (start -3 3) (end 3 3) (layer F.Fab) (width 0.1))
  (fp_line (start 3 3) (end 3 -3) (layer F.Fab) (width 0.1))
  (fp_line (start -3.4925 -3.1) (end 3.4925 -3.1) (layer F.SilkS) (width 0.12))
  (fp_line (start 3.4925 3.1) (end -3.4925 3.1) (layer F.SilkS) (width 0.12))
  (fp_line (start 3.5 3.25) (end 3.5 -3.25) (layer F.CrtYd) (width 0.05))
  (fp_line (start -3.5 -3.25) (end -3.5 3.25) (layer F.CrtYd) (width 0.05))
  (fp_line (start -3.5 3.25) (end 3.5 3.25) (layer F.CrtYd) (width 0.05))
  (fp_line (start 3.5 -3.25) (end -3.5 -3.25) (layer F.CrtYd) (width 0.05))
  (fp_text user %R (at 0 0 90) (layer F.Fab)
    (effects (font (size 1 1) (thickness 0.15)))
  )
  (fp_line (start -3.4925 -3.1) (end -3.4925 3.1) (layer F.SilkS) (width 0.12))
  (fp_line (start 3.4925 -3.1) (end 3.4925 3.1) (layer F.SilkS) (width 0.12))
  (pad 2 smd rect (at 2.075 0) (size 2.35 5.1) (layers F.Cu F.Paste F.Mask))
  (pad 1 smd rect (at -2.075 0) (size 2.35 5.1) (layers F.Cu F.Paste F.Mask))
  (model ${KISYS3DMOD}/Inductor_SMD.3dshapes/L_Bourns_SRN6045TA.wrl
    (at (xyz 0 0 0))
    (scale (xyz 1 1 1))
    (rotate (xyz 0 0 0))
  )
)
