(module L_Coilcraft_XAL60xx_6.36x6.56mm (layer F.Cu) (tedit 608FA4C9)
  (descr "Coilcraft XAL60xx series, https://www.coilcraft.com/pdfs/xal60xx.pdf, Alternate KiCad Library")
  (tags "L Coilcraft XAL60xx")
  (attr smd)
  (fp_text reference REF** (at 0 -4.3) (layer F.SilkS)
    (effects (font (size 1 1) (thickness 0.15)))
  )
  (fp_text value L_Coilcraft_XAL60xx_6.36x6.56mm (at 0 4.3) (layer F.Fab)
    (effects (font (size 1 1) (thickness 0.15)))
  )
  (fp_line (start -3.43 3.53) (end 3.43 3.53) (layer F.CrtYd) (width 0.05))
  (fp_line (start -3.43 -3.53) (end -3.43 3.53) (layer F.CrtYd) (width 0.05))
  (fp_line (start 3.43 -3.53) (end 3.43 3.53) (layer F.CrtYd) (width 0.05))
  (fp_line (start -3.43 -3.53) (end 3.43 -3.53) (layer F.CrtYd) (width 0.05))
  (fp_line (start -3.29 3.39) (end 3.302 3.39) (layer F.SilkS) (width 0.12))
  (fp_line (start -3.29 -3.39) (end 3.302 -3.39) (layer F.SilkS) (width 0.12))
  (fp_line (start -3.18 3.28) (end 3.18 3.28) (layer F.Fab) (width 0.1))
  (fp_line (start -3.18 -2.28) (end -3.18 3.28) (layer F.Fab) (width 0.1))
  (fp_line (start 3.18 -3.28) (end 3.18 3.28) (layer F.Fab) (width 0.1))
  (fp_line (start -2.18 -3.28) (end 3.18 -3.28) (layer F.Fab) (width 0.1))
  (fp_line (start -3.29 -3.39) (end -3.29 3.39) (layer F.SilkS) (width 0.12))
  (fp_line (start -3.18 -2.28) (end -2.18 -3.28) (layer F.Fab) (width 0.1))
  (fp_line (start 3.302 -3.39) (end 3.302 3.39) (layer F.SilkS) (width 0.12))
  (fp_text user %R (at 0 0) (layer F.Fab)
    (effects (font (size 1 1) (thickness 0.15)))
  )
  (pad 2 smd rect (at 2.02 0) (size 1.43 5.5) (layers F.Cu F.Paste F.Mask))
  (pad 1 smd rect (at -2.02 0) (size 1.43 5.5) (layers F.Cu F.Paste F.Mask))
  (model ${KISYS3DMOD}/Inductor_SMD.3dshapes/L_Coilcraft_XAL60xx_6.36x6.56mm.wrl
    (at (xyz 0 0 0))
    (scale (xyz 1 1 1))
    (rotate (xyz 0 0 0))
  )
)
