(module L_Fastron_PISN_BigPads (layer F.Cu) (tedit 608FA52F)
  (descr "Choke, Drossel, PISN, SMD, Fastron, Alternate KiCad Library")
  (tags "Choke Drossel PISN SMD Fastron ")
  (attr smd)
  (fp_text reference REF** (at 0 -6.25) (layer F.SilkS)
    (effects (font (size 1 1) (thickness 0.15)))
  )
  (fp_text value L_Fastron_PISN_BigPads (at 0 6.5) (layer F.Fab)
    (effects (font (size 1 1) (thickness 0.15)))
  )
  (fp_circle (center -0.02 -0.01) (end 0.24 -0.01) (layer F.Adhes) (width 0.38))
  (fp_circle (center -0.02 -0.01) (end -0.02 0.5) (layer F.Adhes) (width 0.38))
  (fp_circle (center -0.02 -0.01) (end 0.24 0.76) (layer F.Adhes) (width 0.38))
  (fp_circle (center -0.02 -0.01) (end 0.24 1.01) (layer F.Adhes) (width 0.38))
  (fp_circle (center 0 0) (end 0 -4.3) (layer F.Fab) (width 0.1))
  (fp_line (start -1.29 -5.09) (end -6.49 -2.29) (layer F.SilkS) (width 0.12))
  (fp_line (start -6.49 -2.29) (end -6.49 -2.04) (layer F.SilkS) (width 0.12))
  (fp_line (start 6.59 -2.29) (end 6.59 -2.04) (layer F.SilkS) (width 0.12))
  (fp_line (start 1.25 -5.09) (end 6.59 -2.29) (layer F.SilkS) (width 0.12))
  (fp_line (start -6.49 2.28) (end -6.49 2.03) (layer F.SilkS) (width 0.12))
  (fp_line (start -1.29 5.07) (end -6.49 2.28) (layer F.SilkS) (width 0.12))
  (fp_line (start 6.59 2.28) (end 6.59 2.03) (layer F.SilkS) (width 0.12))
  (fp_line (start 1.25 5.07) (end 6.59 2.28) (layer F.SilkS) (width 0.12))
  (fp_line (start -1.29 5.07) (end 1.25 5.07) (layer F.SilkS) (width 0.12))
  (fp_line (start -1.29 -5.09) (end 1.25 -5.09) (layer F.SilkS) (width 0.12))
  (fp_line (start -0.02 -0.26) (end -0.02 0.25) (layer F.Adhes) (width 0.38))
  (fp_line (start 6.5 -2.3) (end 6.5 -2) (layer F.Fab) (width 0.1))
  (fp_line (start 1.3 -5) (end 6.5 -2.3) (layer F.Fab) (width 0.1))
  (fp_line (start -1.3 -5) (end 1.3 -5) (layer F.Fab) (width 0.1))
  (fp_line (start -6.4 -2.3) (end -1.3 -5) (layer F.Fab) (width 0.1))
  (fp_line (start -6.4 -2) (end -6.4 -2.3) (layer F.Fab) (width 0.1))
  (fp_line (start 6.5 2.3) (end 6.5 -2.2) (layer F.Fab) (width 0.1))
  (fp_line (start 1.3 5) (end 6.5 2.3) (layer F.Fab) (width 0.1))
  (fp_line (start -1.3 5) (end 1.3 5) (layer F.Fab) (width 0.1))
  (fp_line (start -6.4 2.2) (end -1.3 5) (layer F.Fab) (width 0.1))
  (fp_line (start -6.4 -2) (end -6.4 2.2) (layer F.Fab) (width 0.1))
  (fp_line (start -1.25 5.5) (end -7 2.5) (layer F.CrtYd) (width 0.05))
  (fp_line (start 1.25 5.5) (end -1.25 5.5) (layer F.CrtYd) (width 0.05))
  (fp_line (start 7 2.5) (end 1.25 5.5) (layer F.CrtYd) (width 0.05))
  (fp_line (start 7 2.25) (end 7 2.5) (layer F.CrtYd) (width 0.05))
  (fp_line (start 1.25 -5.5) (end 7 -2.5) (layer F.CrtYd) (width 0.05))
  (fp_line (start -1.25 -5.5) (end 1.25 -5.5) (layer F.CrtYd) (width 0.05))
  (fp_line (start -7 -2.5) (end -1.25 -5.5) (layer F.CrtYd) (width 0.05))
  (fp_line (start -7 1.75) (end -7 2.5) (layer F.CrtYd) (width 0.05))
  (fp_line (start -8 1.75) (end -7 1.75) (layer F.CrtYd) (width 0.05))
  (fp_line (start -8 -1.75) (end -8 1.75) (layer F.CrtYd) (width 0.05))
  (fp_line (start -7 -1.75) (end -8 -1.75) (layer F.CrtYd) (width 0.05))
  (fp_line (start -7 -2.5) (end -7 -1.75) (layer F.CrtYd) (width 0.05))
  (fp_line (start 7 -1.75) (end 7 -2.5) (layer F.CrtYd) (width 0.05))
  (fp_line (start 8 -1.75) (end 7 -1.75) (layer F.CrtYd) (width 0.05))
  (fp_line (start 8 1.75) (end 8 -1.75) (layer F.CrtYd) (width 0.05))
  (fp_line (start 7 1.75) (end 8 1.75) (layer F.CrtYd) (width 0.05))
  (fp_line (start 7 2.25) (end 7 1.75) (layer F.CrtYd) (width 0.05))
  (fp_text user %R (at 0.05 0) (layer F.Fab)
    (effects (font (size 1 1) (thickness 0.15)))
  )
  (pad 1 smd rect (at 5.67 -0.01) (size 4 3) (layers F.Cu F.Paste F.Mask))
  (pad 2 smd rect (at -5.67 0.01) (size 4 3) (layers F.Cu F.Paste F.Mask))
  (model ${KISYS3DMOD}/Inductor_SMD.3dshapes/L_Fastron_PISN.wrl
    (at (xyz 0 0 0))
    (scale (xyz 1 1 1))
    (rotate (xyz 0 0 0))
  )
)
