(module L_Neosid_Air-Coil_SML_6turn_HAM0631A (layer F.Cu) (tedit 607950E0)
  (descr "Neosid, Air-Coil, SML, 6turn, HAM0631A, Alternate KiCad Library")
  (tags "Neosid Air-Coil SML 6turn HAM0631A")
  (attr smd)
  (fp_text reference REF** (at 0 -4.5) (layer F.SilkS)
    (effects (font (size 1 1) (thickness 0.15)))
  )
  (fp_text value L_Neosid_Air-Coil_SML_6turn_HAM0631A (at 0 4.5) (layer F.Fab)
    (effects (font (size 1 1) (thickness 0.15)))
  )
  (fp_line (start -1.778 1.0795) (end -1.778 1.3335) (layer F.SilkS) (width 0.12))
  (fp_line (start -1.778 1.0795) (end -1.269998 0.761998) (layer F.SilkS) (width 0.12))
  (fp_line (start 1.778 -1.0795) (end 1.778 -1.3335) (layer F.SilkS) (width 0.12))
  (fp_line (start 1.778 -1.0795) (end 1.27 -0.762) (layer F.SilkS) (width 0.12))
  (fp_line (start -1.8 0.7) (end 1.8 0.7) (layer F.Fab) (width 0.1))
  (fp_line (start 1.8 0.7) (end 1.8 -2.6) (layer F.Fab) (width 0.1))
  (fp_line (start -1.8 2.5) (end -1.8 -0.7) (layer F.Fab) (width 0.1))
  (fp_line (start -1.8 -0.7) (end 1.8 -0.7) (layer F.Fab) (width 0.1))
  (fp_line (start -2.35 3.45) (end -1.25 3.45) (layer F.CrtYd) (width 0.05))
  (fp_line (start -1.25 3.45) (end -1.25 1.2) (layer F.CrtYd) (width 0.05))
  (fp_line (start -1.25 1.2) (end 2.35 1.2) (layer F.CrtYd) (width 0.05))
  (fp_line (start 2.35 1.2) (end 2.35 -3.45) (layer F.CrtYd) (width 0.05))
  (fp_line (start 2.35 -3.45) (end 1.25 -3.45) (layer F.CrtYd) (width 0.05))
  (fp_line (start 1.25 -3.45) (end 1.25 -1.2) (layer F.CrtYd) (width 0.05))
  (fp_line (start 1.25 -1.2) (end -2.35 -1.2) (layer F.CrtYd) (width 0.05))
  (fp_line (start -2.35 -1.2) (end -2.35 3.45) (layer F.CrtYd) (width 0.05))
  (fp_text user %R (at 0 -0.05) (layer F.Fab)
    (effects (font (size 0.8 0.8) (thickness 0.12)))
  )
  (fp_arc (start -0.317499 0.190499) (end 0 0) (angle -180) (layer F.SilkS) (width 0.12))
  (fp_arc (start -0.952499 0.571499) (end -0.635 0.381) (angle -180) (layer F.SilkS) (width 0.12))
  (fp_arc (start 0.317501 -0.190501) (end 0.635 -0.381) (angle -180) (layer F.SilkS) (width 0.12))
  (fp_arc (start 0.952501 -0.571501) (end 1.27 -0.762) (angle -180) (layer F.SilkS) (width 0.12))
  (pad 2 smd rect (at 1.8 -2.45) (size 0.6 1.5) (layers F.Cu F.Paste F.Mask))
  (pad 1 smd rect (at -1.8 2.45) (size 0.6 1.5) (layers F.Cu F.Paste F.Mask))
  (model ${KISYS3DMOD}/Inductor_SMD.3dshapes/L_Neosid_Air-Coil_SML_6turn_HAM0631A.wrl
    (at (xyz 0 0 0))
    (scale (xyz 1 1 1))
    (rotate (xyz 0 0 0))
  )
)
