(module L_Neosid_SM-NE95H (layer F.Cu) (tedit 608FA593)
  (descr "Neosid, Inductor,SM-NE95H, Fixed inductor, SMD, https://neosid.de/import-data/product-pdf/neoFestind_SMNE95H.pdf, Alternate KiCad Library")
  (tags "Neosid Inductor SM-NE95H Fixed inductor SMD")
  (attr smd)
  (fp_text reference REF** (at 0 -5.9) (layer F.SilkS)
    (effects (font (size 1 1) (thickness 0.15)))
  )
  (fp_text value L_Neosid_SM-NE95H (at 0 6.1) (layer F.Fab)
    (effects (font (size 1 1) (thickness 0.15)))
  )
  (fp_circle (center 0 0) (end 0 -4.2) (layer F.Fab) (width 0.1))
  (fp_line (start 6.85 4.95) (end -6.85 4.95) (layer F.CrtYd) (width 0.05))
  (fp_line (start 6.85 4.95) (end 6.85 -4.95) (layer F.CrtYd) (width 0.05))
  (fp_line (start -6.85 -4.95) (end -6.85 4.95) (layer F.CrtYd) (width 0.05))
  (fp_line (start -6.85 -4.95) (end 6.85 -4.95) (layer F.CrtYd) (width 0.05))
  (fp_line (start -6.5 1.4) (end -6.5 -1.4) (layer F.Fab) (width 0.1))
  (fp_line (start -2.5 4.7) (end -6.5 1.4) (layer F.Fab) (width 0.1))
  (fp_line (start 2.5 4.7) (end -2.5 4.7) (layer F.Fab) (width 0.1))
  (fp_line (start 6.5 1.4) (end 2.5 4.7) (layer F.Fab) (width 0.1))
  (fp_line (start 6.5 -1.4) (end 6.5 1.4) (layer F.Fab) (width 0.1))
  (fp_line (start 2.5 -4.7) (end 6.5 -1.4) (layer F.Fab) (width 0.1))
  (fp_line (start -2.5 -4.7) (end 2.5 -4.7) (layer F.Fab) (width 0.1))
  (fp_line (start -6.5 -1.4) (end -2.5 -4.7) (layer F.Fab) (width 0.1))
  (fp_line (start 2.5 -5) (end 6.5 -1.7) (layer F.SilkS) (width 0.12))
  (fp_line (start -2.5 -5) (end 2.5 -5) (layer F.SilkS) (width 0.12))
  (fp_line (start -6.5 -1.7) (end -2.5 -5) (layer F.SilkS) (width 0.12))
  (fp_line (start -2.5 5) (end -6.5 1.7) (layer F.SilkS) (width 0.12))
  (fp_line (start 2.5 5) (end -2.5 5) (layer F.SilkS) (width 0.12))
  (fp_line (start 6.5 1.7) (end 2.5 5) (layer F.SilkS) (width 0.12))
  (fp_text user %R (at 0 0) (layer F.Fab)
    (effects (font (size 1 1) (thickness 0.15)))
  )
  (pad 2 smd rect (at 5.15 0) (size 2.9 2.8) (layers F.Cu F.Paste F.Mask))
  (pad 1 smd rect (at -5.15 0) (size 2.9 2.8) (layers F.Cu F.Paste F.Mask))
  (model ${KISYS3DMOD}/Inductor_SMD.3dshapes/L_Neosid_SM-NE95H.wrl
    (at (xyz 0 0 0))
    (scale (xyz 1 1 1))
    (rotate (xyz 0 0 0))
  )
)
