(module L_Neosid_Air-Coil_SML_2turn_HAM0231A (layer F.Cu) (tedit 60795057)
  (descr "Neosid, Air-Coil, SML, 2turn, HAM0231A, Alternate KiCad Library")
  (tags "Neosid Air-Coil SML 2turn HAM0231A")
  (attr smd)
  (fp_text reference REF** (at 0 -4.5) (layer F.SilkS)
    (effects (font (size 1 1) (thickness 0.15)))
  )
  (fp_text value L_Neosid_Air-Coil_SML_2turn_HAM0231A (at 0 4.5) (layer F.Fab)
    (effects (font (size 1 1) (thickness 0.15)))
  )
  (fp_line (start -0.889 1.143) (end -0.762 1.016) (layer F.SilkS) (width 0.12))
  (fp_line (start -0.889 1.143) (end -0.889 1.397) (layer F.SilkS) (width 0.12))
  (fp_line (start 0.889 -1.143) (end 0.889 -1.397) (layer F.SilkS) (width 0.12))
  (fp_line (start 0.762 -1.016) (end 0.889 -1.143) (layer F.SilkS) (width 0.12))
  (fp_line (start -1.45 -2) (end -1.45 3.45) (layer F.CrtYd) (width 0.05))
  (fp_line (start 0.35 -2) (end -1.45 -2) (layer F.CrtYd) (width 0.05))
  (fp_line (start 0.35 -3.45) (end 0.35 -2) (layer F.CrtYd) (width 0.05))
  (fp_line (start 1.45 -3.45) (end 0.35 -3.45) (layer F.CrtYd) (width 0.05))
  (fp_line (start 1.45 2) (end 1.45 -3.45) (layer F.CrtYd) (width 0.05))
  (fp_line (start -0.35 2) (end 1.45 2) (layer F.CrtYd) (width 0.05))
  (fp_line (start -0.35 3.45) (end -0.35 2) (layer F.CrtYd) (width 0.05))
  (fp_line (start -1.45 3.45) (end -0.35 3.45) (layer F.CrtYd) (width 0.05))
  (fp_line (start 0.9 1.5) (end 0.9 -2.5) (layer F.Fab) (width 0.1))
  (fp_line (start 0 -1.5) (end 0.9 1.5) (layer F.Fab) (width 0.1))
  (fp_line (start 0 1.5) (end 0 -1.5) (layer F.Fab) (width 0.1))
  (fp_line (start -0.9 -1.5) (end 0 1.5) (layer F.Fab) (width 0.1))
  (fp_line (start -0.9 2.5) (end -0.9 -1.5) (layer F.Fab) (width 0.1))
  (fp_text user %R (at 0 0) (layer F.Fab)
    (effects (font (size 0.5 0.5) (thickness 0.075)))
  )
  (fp_arc (start -0.190499 0.253999) (end 0 0) (angle -183.1798941) (layer F.SilkS) (width 0.12))
  (fp_arc (start -0.571499 0.761999) (end -0.381 0.508) (angle -179.9999278) (layer F.SilkS) (width 0.12))
  (fp_arc (start 0.190501 -0.254001) (end 0.381 -0.508) (angle -183.1798941) (layer F.SilkS) (width 0.12))
  (fp_arc (start 0.571501 -0.762001) (end 0.762 -1.016) (angle -183.1798941) (layer F.SilkS) (width 0.12))
  (pad 2 smd rect (at 0.9 -2.45) (size 0.6 1.5) (layers F.Cu F.Paste F.Mask))
  (pad 1 smd rect (at -0.9 2.45) (size 0.6 1.5) (layers F.Cu F.Paste F.Mask))
  (model ${KISYS3DMOD}/Inductor_SMD.3dshapes/L_Neosid_Air-Coil_SML_2turn_HAM0231A.wrl
    (at (xyz 0 0 0))
    (scale (xyz 1 1 1))
    (rotate (xyz 0 0 0))
  )
)
