(module L_Neosid_Air-Coil_SML_2turn_HDM0231A (layer F.Cu) (tedit 6079505F)
  (descr "Neosid, Air-Coil, SML, 2turn, HDM0231A, Alternate KiCad Library")
  (tags "Neosid Air-Coil SML 2turn HDM0231A")
  (attr smd)
  (fp_text reference REF** (at 0 -5.5) (layer F.SilkS)
    (effects (font (size 1 1) (thickness 0.15)))
  )
  (fp_text value L_Neosid_Air-Coil_SML_2turn_HDM0231A (at 0 5.5) (layer F.Fab)
    (effects (font (size 1 1) (thickness 0.15)))
  )
  (fp_line (start 1.4605 -1.778) (end 1.4605 -2.3495) (layer F.SilkS) (width 0.12))
  (fp_line (start 1.016 -1.27) (end 1.4605 -1.778) (layer F.SilkS) (width 0.12))
  (fp_line (start -1.4605 1.7145) (end -1.4605 2.286) (layer F.SilkS) (width 0.12))
  (fp_line (start -1.015998 1.269998) (end -1.4605 1.7145) (layer F.SilkS) (width 0.12))
  (fp_line (start -1.5 3.5) (end -1.5 -1.6) (layer F.Fab) (width 0.1))
  (fp_line (start -1.5 -1.6) (end 0 1.5) (layer F.Fab) (width 0.1))
  (fp_line (start 0 1.5) (end 0.1 -1.5) (layer F.Fab) (width 0.1))
  (fp_line (start 0.1 -1.5) (end 1.5 1.6) (layer F.Fab) (width 0.1))
  (fp_line (start 1.5 1.6) (end 1.5 -3.6) (layer F.Fab) (width 0.1))
  (fp_line (start -2 4.45) (end -0.9 4.45) (layer F.CrtYd) (width 0.05))
  (fp_line (start -0.9 4.45) (end -0.9 2.1) (layer F.CrtYd) (width 0.05))
  (fp_line (start -0.9 2.1) (end 2 2.1) (layer F.CrtYd) (width 0.05))
  (fp_line (start 2 2.1) (end 2 -4.45) (layer F.CrtYd) (width 0.05))
  (fp_line (start 2 -4.45) (end 0.9 -4.45) (layer F.CrtYd) (width 0.05))
  (fp_line (start 0.9 -4.45) (end 0.9 -2.1) (layer F.CrtYd) (width 0.05))
  (fp_line (start 0.9 -2.1) (end -2 -2.1) (layer F.CrtYd) (width 0.05))
  (fp_line (start -2 -2.1) (end -2 4.45) (layer F.CrtYd) (width 0.05))
  (fp_text user %R (at 0 -0.05) (layer F.Fab)
    (effects (font (size 0.7 0.7) (thickness 0.105)))
  )
  (fp_arc (start -0.253999 0.317499) (end 0 0) (angle -180) (layer F.SilkS) (width 0.12))
  (fp_arc (start -0.761999 0.952499) (end -0.508 0.635) (angle -180) (layer F.SilkS) (width 0.12))
  (fp_arc (start 0.254001 -0.317501) (end 0.508 -0.635) (angle -180) (layer F.SilkS) (width 0.12))
  (fp_arc (start 0.762001 -0.952501) (end 1.016 -1.27) (angle -180) (layer F.SilkS) (width 0.12))
  (pad 2 smd rect (at 1.45 -3.45) (size 0.6 1.5) (layers F.Cu F.Paste F.Mask))
  (pad 1 smd rect (at -1.45 3.45) (size 0.6 1.5) (layers F.Cu F.Paste F.Mask))
  (model ${KISYS3DMOD}/Inductor_SMD.3dshapes/L_Neosid_Air-Coil_SML_2turn_HDM0231A.wrl
    (at (xyz 0 0 0))
    (scale (xyz 1 1 1))
    (rotate (xyz 0 0 0))
  )
)
