(module L_Neosid_Ms50 (layer F.Cu) (tedit 608FA579)
  (descr "Neosid, Power Inductor, Ms50, SMD, Fixed inductor, https://neosid.de/import-data/product-pdf/neoFestind_Ms50.pdf, Alternate KiCad Library")
  (tags "Neosid Power Inductor Ms50 SMD Fixed inductor")
  (attr smd)
  (fp_text reference REF** (at 0 -3.1) (layer F.SilkS)
    (effects (font (size 1 1) (thickness 0.15)))
  )
  (fp_text value L_Neosid_Ms50 (at 0 3.2) (layer F.Fab)
    (effects (font (size 1 1) (thickness 0.15)))
  )
  (fp_line (start -3.3655 -2.159) (end -3.302 -2.159) (layer F.SilkS) (width 0.12))
  (fp_line (start -3.3655 2.159) (end -3.3655 -2.159) (layer F.SilkS) (width 0.12))
  (fp_line (start 3.3655 2.159) (end -3.3655 2.159) (layer F.SilkS) (width 0.12))
  (fp_line (start 3.3655 -2.159) (end 3.3655 2.159) (layer F.SilkS) (width 0.12))
  (fp_line (start 3.302 -2.159) (end 3.3655 -2.159) (layer F.SilkS) (width 0.12))
  (fp_line (start -3.302 -2.159) (end 3.302 -2.159) (layer F.SilkS) (width 0.12))
  (fp_line (start 1.4 1.2) (end 2.4 1.2) (layer F.Fab) (width 0.1))
  (fp_line (start 2.4 1.2) (end 2.4 -1.2) (layer F.Fab) (width 0.1))
  (fp_line (start 2.4 -1.2) (end 1.4 -1.2) (layer F.Fab) (width 0.1))
  (fp_line (start -2.4 -1.2) (end -2.4 1.2) (layer F.Fab) (width 0.1))
  (fp_line (start -2.4 1.2) (end -1.4 1.2) (layer F.Fab) (width 0.1))
  (fp_line (start -2.4 -1.2) (end -1.4 -1.2) (layer F.Fab) (width 0.1))
  (fp_line (start -1.4 -2) (end -1.4 2) (layer F.Fab) (width 0.1))
  (fp_line (start -1.4 2) (end 1.4 2) (layer F.Fab) (width 0.1))
  (fp_line (start 1.4 2) (end 1.4 -2) (layer F.Fab) (width 0.1))
  (fp_line (start 1.4 -2) (end -1.4 -2) (layer F.Fab) (width 0.1))
  (fp_line (start -3.429 -2.25) (end 3.429 -2.25) (layer F.CrtYd) (width 0.05))
  (fp_line (start -3.429 -2.25) (end -3.429 2.25) (layer F.CrtYd) (width 0.05))
  (fp_line (start 3.429 2.25) (end 3.429 -2.25) (layer F.CrtYd) (width 0.05))
  (fp_line (start 3.429 2.25) (end -3.429 2.25) (layer F.CrtYd) (width 0.05))
  (fp_text user %R (at 0 0 90) (layer F.Fab)
    (effects (font (size 0.8 0.8) (thickness 0.15)))
  )
  (pad 2 smd rect (at 2.4 0) (size 1.4 2.8) (layers F.Cu F.Paste F.Mask))
  (pad 1 smd rect (at -2.4 0) (size 1.4 2.8) (layers F.Cu F.Paste F.Mask))
  (model ${KISYS3DMOD}/Inductor_SMD.3dshapes/L_Neosid_Ms50.wrl
    (at (xyz 0 0 0))
    (scale (xyz 1 1 1))
    (rotate (xyz 0 0 0))
  )
)
