(module L_Pulse_PA4320 (layer F.Cu) (tedit 608FA5F6)
  (descr "Inductor SMD Pulse PA4320 http://productfinder.pulseeng.com/products/datasheets/P787.pdf, Alternate KiCad Library")
  (tags "Inductor SMD Pulse PA4320")
  (attr smd)
  (fp_text reference REF** (at -4 -7) (layer F.SilkS)
    (effects (font (size 1 1) (thickness 0.15)))
  )
  (fp_text value L_Pulse_PA4320 (at 0 7.5) (layer F.Fab)
    (effects (font (size 1 1) (thickness 0.15)))
  )
  (fp_line (start 6.25 3.05) (end 6.25 6.25) (layer F.CrtYd) (width 0.05))
  (fp_line (start 6.5 3.05) (end 6.25 3.05) (layer F.CrtYd) (width 0.05))
  (fp_line (start 6.5 -3.05) (end 6.5 3.05) (layer F.CrtYd) (width 0.05))
  (fp_line (start 6.25 -3.05) (end 6.5 -3.05) (layer F.CrtYd) (width 0.05))
  (fp_line (start 6.25 -6.25) (end 6.25 -3.05) (layer F.CrtYd) (width 0.05))
  (fp_line (start -6.25 -6.25) (end -6.25 -3.05) (layer F.CrtYd) (width 0.05))
  (fp_line (start -6.25 -3.05) (end -6.5 -3.05) (layer F.CrtYd) (width 0.05))
  (fp_line (start -6.5 3.04) (end -6.5 -3.05) (layer F.CrtYd) (width 0.05))
  (fp_line (start -6.25 3.04) (end -6.5 3.04) (layer F.CrtYd) (width 0.05))
  (fp_line (start -6.25 3.04) (end -6.25 6.25) (layer F.CrtYd) (width 0.05))
  (fp_line (start 6.25 6.25) (end -6.25 6.25) (layer F.CrtYd) (width 0.05))
  (fp_line (start -6.25 -6.25) (end 6.25 -6.25) (layer F.CrtYd) (width 0.05))
  (fp_line (start -6.12 6.12) (end 6.12 6.12) (layer F.SilkS) (width 0.12))
  (fp_line (start -6.12 3.5) (end -6.12 6.12) (layer F.SilkS) (width 0.12))
  (fp_line (start -6.12 -6.12) (end 6.12 -6.12) (layer F.SilkS) (width 0.12))
  (fp_line (start -6.12 -6.12) (end -6.12 -3.5) (layer F.SilkS) (width 0.12))
  (fp_line (start 6.12 -6.12) (end 6.12 -3.5) (layer F.SilkS) (width 0.12))
  (fp_line (start 6.12 3.5) (end 6.12 6.12) (layer F.SilkS) (width 0.12))
  (fp_line (start -6 6) (end -6 -6) (layer F.Fab) (width 0.1))
  (fp_line (start 6 6) (end -6 6) (layer F.Fab) (width 0.1))
  (fp_line (start 6 -6) (end 6 6) (layer F.Fab) (width 0.1))
  (fp_line (start -6 -6) (end 6 -6) (layer F.Fab) (width 0.1))
  (fp_text user %R (at 0 0) (layer F.Fab)
    (effects (font (size 1 1) (thickness 0.15)))
  )
  (pad 2 smd rect (at 4.75 0 90) (size 5.6 3) (layers F.Cu F.Paste F.Mask))
  (pad 1 smd rect (at -4.75 0 90) (size 5.6 3) (layers F.Cu F.Paste F.Mask))
  (model ${KISYS3DMOD}/Inductor_SMD.3dshapes/L_Pulse_PA4320.wrl
    (at (xyz 0 0 0))
    (scale (xyz 1 1 1))
    (rotate (xyz 0 0 0))
  )
)
