(module L_Taiyo-Yuden_MD-5050 (layer F.Cu) (tedit 608FA617)
  (descr "Inductor, Taiyo Yuden, MD series, Taiyo-Yuden_MD-5050, 5.0mmx5.0mm, Alternate KiCad Library")
  (tags "inductor taiyo-yuden md smd")
  (attr smd)
  (fp_text reference REF** (at 0 -3.5) (layer F.SilkS)
    (effects (font (size 1 1) (thickness 0.15)))
  )
  (fp_text value L_Taiyo-Yuden_MD-5050 (at 0 4) (layer F.Fab)
    (effects (font (size 1 1) (thickness 0.15)))
  )
  (fp_line (start 2.8575 -2.75) (end -2.8575 -2.75) (layer F.CrtYd) (width 0.05))
  (fp_line (start 2.8575 2.75) (end 2.8575 -2.75) (layer F.CrtYd) (width 0.05))
  (fp_line (start -2.8575 2.75) (end 2.8575 2.75) (layer F.CrtYd) (width 0.05))
  (fp_line (start -2.8575 -2.75) (end -2.8575 2.75) (layer F.CrtYd) (width 0.05))
  (fp_line (start 2.5 -2.5) (end -2.5 -2.5) (layer F.Fab) (width 0.1))
  (fp_line (start 2.5 2.5) (end 2.5 -2.5) (layer F.Fab) (width 0.1))
  (fp_line (start -2.5 2.5) (end 2.5 2.5) (layer F.Fab) (width 0.1))
  (fp_line (start -2.5 -2.5) (end -2.5 2.5) (layer F.Fab) (width 0.1))
  (fp_line (start -2.413 -2.6035) (end -2.7305 -2.6035) (layer F.SilkS) (width 0.12))
  (fp_line (start -2.7305 -2.6035) (end -2.794 -2.6035) (layer F.SilkS) (width 0.12))
  (fp_line (start -2.794 -2.6035) (end -2.794 2.6035) (layer F.SilkS) (width 0.12))
  (fp_line (start -2.794 2.6035) (end 2.794 2.6035) (layer F.SilkS) (width 0.12))
  (fp_line (start 2.794 2.6035) (end 2.794 -2.6035) (layer F.SilkS) (width 0.12))
  (fp_line (start 2.794 -2.6035) (end -2.413 -2.6035) (layer F.SilkS) (width 0.12))
  (fp_text user %R (at 0 0) (layer F.Fab)
    (effects (font (size 1 1) (thickness 0.15)))
  )
  (pad 2 smd rect (at 1.8 0) (size 1.5 4.2) (layers F.Cu F.Paste F.Mask))
  (pad 1 smd rect (at -1.8 0) (size 1.5 4.2) (layers F.Cu F.Paste F.Mask))
  (model ${KISYS3DMOD}/Inductor_SMD.3dshapes/L_Taiyo-Yuden_MD-5050.wrl
    (at (xyz 0 0 0))
    (scale (xyz 1 1 1))
    (rotate (xyz 0 0 0))
  )
)
