(module L_Taiyo-Yuden_NR-60xx (layer F.Cu) (tedit 608FA666)
  (descr "Inductor, Taiyo Yuden, NR series, Taiyo-Yuden_NR-60xx, 6.0mmx6.0mm, Alternate KiCad Library")
  (tags "inductor taiyo-yuden nr smd")
  (attr smd)
  (fp_text reference REF** (at 0 -4) (layer F.SilkS)
    (effects (font (size 1 1) (thickness 0.15)))
  )
  (fp_text value L_Taiyo-Yuden_NR-60xx (at 0 4.5) (layer F.Fab)
    (effects (font (size 1 1) (thickness 0.15)))
  )
  (fp_line (start 3.4925 -3.302) (end -3.4925 -3.302) (layer F.CrtYd) (width 0.05))
  (fp_line (start 3.4925 3.302) (end 3.4925 -3.302) (layer F.CrtYd) (width 0.05))
  (fp_line (start -3.4925 3.302) (end 3.4925 3.302) (layer F.CrtYd) (width 0.05))
  (fp_line (start -3.4925 -3.302) (end -3.4925 3.302) (layer F.CrtYd) (width 0.05))
  (fp_line (start -2 3) (end 0 3) (layer F.Fab) (width 0.1))
  (fp_line (start -3 2) (end -2 3) (layer F.Fab) (width 0.1))
  (fp_line (start -3 0) (end -3 2) (layer F.Fab) (width 0.1))
  (fp_line (start 2 3) (end 0 3) (layer F.Fab) (width 0.1))
  (fp_line (start 3 2) (end 2 3) (layer F.Fab) (width 0.1))
  (fp_line (start 3 0) (end 3 2) (layer F.Fab) (width 0.1))
  (fp_line (start 2 -3) (end 0 -3) (layer F.Fab) (width 0.1))
  (fp_line (start 3 -2) (end 2 -3) (layer F.Fab) (width 0.1))
  (fp_line (start 3 0) (end 3 -2) (layer F.Fab) (width 0.1))
  (fp_line (start -2 -3) (end 0 -3) (layer F.Fab) (width 0.1))
  (fp_line (start -3 -2) (end -2 -3) (layer F.Fab) (width 0.1))
  (fp_line (start -3 0) (end -3 -2) (layer F.Fab) (width 0.1))
  (fp_line (start -3.429 -3.2385) (end -3.429 3.2385) (layer F.SilkS) (width 0.12))
  (fp_line (start -3.429 3.2385) (end 3.429 3.2385) (layer F.SilkS) (width 0.12))
  (fp_line (start 3.429 3.2385) (end 3.429 -3.2385) (layer F.SilkS) (width 0.12))
  (fp_line (start 3.429 -3.2385) (end -3.429 -3.2385) (layer F.SilkS) (width 0.12))
  (fp_text user %R (at 0 0) (layer F.Fab)
    (effects (font (size 1 1) (thickness 0.15)))
  )
  (pad 2 smd rect (at 2.35 0) (size 1.6 5.9) (layers F.Cu F.Paste F.Mask))
  (pad 1 smd rect (at -2.35 0) (size 1.6 5.9) (layers F.Cu F.Paste F.Mask))
  (model ${KISYS3DMOD}/Inductor_SMD.3dshapes/L_Taiyo-Yuden_NR-60xx.wrl
    (at (xyz 0 0 0))
    (scale (xyz 1 1 1))
    (rotate (xyz 0 0 0))
  )
)
