(module L_TDK_SLF6045 (layer F.Cu) (tedit 608FA6FC)
  (descr "Inductor, TDK, SLF6045, 6.0mmx6.0mm (Script generated with StandardBox.py) (https://product.tdk.com/info/en/document/catalog/smd/inductor_commercial_power_slf6045_en.pdf), Alternate KiCad Library")
  (tags "Inductor TDK_SLF6045")
  (attr smd)
  (fp_text reference REF** (at -0.5 -4.2) (layer F.SilkS)
    (effects (font (size 1 1) (thickness 0.15)))
  )
  (fp_text value L_TDK_SLF6045 (at 0 4) (layer F.Fab)
    (effects (font (size 1 1) (thickness 0.15)))
  )
  (fp_line (start -3.25 1.36) (end -3.25 3.25) (layer F.CrtYd) (width 0.05))
  (fp_line (start -3.76 1.36) (end -3.25 1.36) (layer F.CrtYd) (width 0.05))
  (fp_line (start -3.76 -1.36) (end -3.76 1.36) (layer F.CrtYd) (width 0.05))
  (fp_line (start -3.25 -1.36) (end -3.76 -1.36) (layer F.CrtYd) (width 0.05))
  (fp_line (start -3.25 -3.25) (end -3.25 -1.36) (layer F.CrtYd) (width 0.05))
  (fp_line (start -3.25 3.25) (end 3.25 3.25) (layer F.CrtYd) (width 0.05))
  (fp_line (start 3.25 1.36) (end 3.25 3.25) (layer F.CrtYd) (width 0.05))
  (fp_line (start 3.76 1.36) (end 3.25 1.36) (layer F.CrtYd) (width 0.05))
  (fp_line (start 3.76 -1.36) (end 3.76 1.36) (layer F.CrtYd) (width 0.05))
  (fp_line (start 3.25 -1.36) (end 3.76 -1.36) (layer F.CrtYd) (width 0.05))
  (fp_line (start 3.25 -3.25) (end 3.25 -1.36) (layer F.CrtYd) (width 0.05))
  (fp_line (start -3.25 -3.25) (end 3.25 -3.25) (layer F.CrtYd) (width 0.05))
  (fp_line (start -3.12 1.35) (end -3.12 3.12) (layer F.SilkS) (width 0.12))
  (fp_line (start -3.12 -3.12) (end -3.12 -1.35) (layer F.SilkS) (width 0.12))
  (fp_line (start -3.12 3.12) (end 3.12 3.12) (layer F.SilkS) (width 0.12))
  (fp_line (start 3.12 1.35) (end 3.12 3.12) (layer F.SilkS) (width 0.12))
  (fp_line (start 3.12 -3.12) (end 3.12 -1.35) (layer F.SilkS) (width 0.12))
  (fp_line (start -3.12 -3.12) (end 3.12 -3.12) (layer F.SilkS) (width 0.12))
  (fp_line (start -3 -2.5) (end -2.5 -3) (layer F.Fab) (width 0.1))
  (fp_line (start -3 3) (end -3 -2.5) (layer F.Fab) (width 0.1))
  (fp_line (start 3 3) (end -3 3) (layer F.Fab) (width 0.1))
  (fp_line (start 3 -3) (end 3 3) (layer F.Fab) (width 0.1))
  (fp_line (start -2.5 -3) (end 3 -3) (layer F.Fab) (width 0.1))
  (fp_text user " " (at -49 0.05) (layer F.SilkS) hide
    (effects (font (size 3 3) (thickness 0.15)))
  )
  (fp_text user %R (at 0 0) (layer F.Fab)
    (effects (font (size 1 1) (thickness 0.15)))
  )
  (pad 2 smd roundrect (at 2.75 0) (size 1.5 2.2) (layers F.Cu F.Paste F.Mask) (roundrect_rratio 0.25))
  (pad 1 smd roundrect (at -2.75 0) (size 1.5 2.2) (layers F.Cu F.Paste F.Mask) (roundrect_rratio 0.25))
  (model ${KISYS3DMOD}/Inductor_SMD.3dshapes/L_TDK_SLF6045.wrl
    (at (xyz 0 0 0))
    (scale (xyz 1 1 1))
    (rotate (xyz 0 0 0))
  )
)
