(module L_TDK_VLP8040 (layer F.Cu) (tedit 608FA758)
  (descr "Inductor,TDK, TDK-VLP-8040, 8.6mmx8.6mm, Alternate KiCad Library")
  (tags "inductor TDK VLP smd VLP8040")
  (attr smd)
  (fp_text reference REF** (at 0 -6.35) (layer F.SilkS)
    (effects (font (size 1 1) (thickness 0.15)))
  )
  (fp_text value L_TDK_VLP8040 (at 0 5.842) (layer F.Fab)
    (effects (font (size 1 1) (thickness 0.15)))
  )
  (fp_circle (center 0 0) (end 3 3) (layer F.Fab) (width 0.1))
  (fp_line (start -4.35 -4.35) (end 4.35 -4.35) (layer F.SilkS) (width 0.12))
  (fp_line (start -4.35 4.35) (end 4.35 4.35) (layer F.SilkS) (width 0.12))
  (fp_line (start 4.55 -4.55) (end -4.55 -4.55) (layer F.CrtYd) (width 0.05))
  (fp_line (start 4.55 4.55) (end 4.55 -4.55) (layer F.CrtYd) (width 0.05))
  (fp_line (start -4.55 4.55) (end 4.55 4.55) (layer F.CrtYd) (width 0.05))
  (fp_line (start -4.55 -4.55) (end -4.55 4.55) (layer F.CrtYd) (width 0.05))
  (fp_line (start 3.5 -3.5) (end 2.4 -3.5) (layer F.Fab) (width 0.1))
  (fp_line (start 3.5 -3.5) (end 3.5 -2.4) (layer F.Fab) (width 0.1))
  (fp_line (start -3.5 3.5) (end -2.4 3.5) (layer F.Fab) (width 0.1))
  (fp_line (start -3.5 2.4) (end -3.5 3.5) (layer F.Fab) (width 0.1))
  (fp_line (start 3.5 2.4) (end 3.5 3.5) (layer F.Fab) (width 0.1))
  (fp_line (start 3.5 3.5) (end 2.4 3.5) (layer F.Fab) (width 0.1))
  (fp_line (start -3.5 -2.4) (end -3.5 -3.5) (layer F.Fab) (width 0.1))
  (fp_line (start -3.5 -3.5) (end -2.4 -3.5) (layer F.Fab) (width 0.1))
  (fp_line (start -4.35 -4.35) (end -4.35 4.35) (layer F.SilkS) (width 0.12))
  (fp_line (start 4.35 4.35) (end 4.35 -4.35) (layer F.SilkS) (width 0.12))
  (fp_text user %R (at 0 0) (layer F.Fab)
    (effects (font (size 1 1) (thickness 0.15)))
  )
  (pad 2 smd rect (at 2.35 0) (size 3.3 8.2) (layers F.Cu F.Paste F.Mask))
  (pad 1 smd rect (at -2.35 0) (size 3.3 8.2) (layers F.Cu F.Paste F.Mask))
  (model ${KISYS3DMOD}/Inductor_SMD.3dshapes/L_TDK_VLP8040.wrl
    (at (xyz 0 0 0))
    (scale (xyz 1 1 1))
    (rotate (xyz 0 0 0))
  )
)
