(module L_Vishay_IHSM-3825 (layer F.Cu) (tedit 609031B0)
  (descr "Inductor, Vishay, Vishay_IHSM-3825, http://www.vishay.com/docs/34018/ihsm3825.pdf, 11.2mmx6.3mm, Alternate KiCad Library")
  (tags "inductor vishay icsm smd")
  (attr smd)
  (fp_text reference REF** (at 0 -4.175) (layer F.SilkS)
    (effects (font (size 1 1) (thickness 0.15)))
  )
  (fp_text value L_Vishay_IHSM-3825 (at 0 4.675) (layer F.Fab)
    (effects (font (size 1 1) (thickness 0.15)))
  )
  (fp_line (start -7.45 -3.5) (end -7.45 3.5) (layer F.CrtYd) (width 0.05))
  (fp_line (start -7.45 3.5) (end 7.45 3.5) (layer F.CrtYd) (width 0.05))
  (fp_line (start 7.45 3.5) (end 7.45 -3.5) (layer F.CrtYd) (width 0.05))
  (fp_line (start 7.45 -3.5) (end -7.45 -3.5) (layer F.CrtYd) (width 0.05))
  (fp_line (start -5.59 -3.175) (end -5.59 3.175) (layer F.Fab) (width 0.1))
  (fp_line (start -5.59 3.175) (end 5.59 3.175) (layer F.Fab) (width 0.1))
  (fp_line (start 5.59 3.175) (end 5.59 -3.175) (layer F.Fab) (width 0.1))
  (fp_line (start 5.59 -3.175) (end -5.59 -3.175) (layer F.Fab) (width 0.1))
  (fp_line (start -7.4295 -3.275) (end 0 -3.275) (layer F.SilkS) (width 0.12))
  (fp_line (start 7.4295 -3.302) (end 0 -3.275) (layer F.SilkS) (width 0.12))
  (fp_line (start 7.4295 3.275) (end 0 3.275) (layer F.SilkS) (width 0.12))
  (fp_line (start -7.4295 3.275) (end 0 3.275) (layer F.SilkS) (width 0.12))
  (fp_text user %R (at 0 0) (layer F.Fab)
    (effects (font (size 1 1) (thickness 0.15)))
  )
  (fp_line (start -7.4295 -3.275) (end -7.4295 3.275) (layer F.SilkS) (width 0.12))
  (fp_line (start 7.4295 -3.302) (end 7.4295 3.275) (layer F.SilkS) (width 0.12))
  (pad 2 smd rect (at 4.84 0) (size 4.6 5.6) (layers F.Cu F.Paste F.Mask))
  (pad 1 smd rect (at -4.84 0) (size 4.6 5.6) (layers F.Cu F.Paste F.Mask))
  (model ${KISYS3DMOD}/Inductor_SMD.3dshapes/L_Vishay_IHSM-3825.wrl
    (at (xyz 0 0 0))
    (scale (xyz 1 1 1))
    (rotate (xyz 0 0 0))
  )
)
