(module L_Vishay_IHLP-6767 (layer F.Cu) (tedit 608FA778)
  (descr "Inductor, Vishay, IHLP series, 17.0mmx17.0mm, Alternate KiCad Library")
  (tags "inductor vishay ihlp smd")
  (attr smd)
  (fp_text reference REF** (at 0 -9.509) (layer F.SilkS)
    (effects (font (size 1 1) (thickness 0.15)))
  )
  (fp_text value L_Vishay_IHLP-6767 (at 0 10.009) (layer F.Fab)
    (effects (font (size 1 1) (thickness 0.15)))
  )
  (fp_line (start 10.3 -8.8) (end -10.3 -8.8) (layer F.CrtYd) (width 0.05))
  (fp_line (start 10.3 8.8) (end 10.3 -8.8) (layer F.CrtYd) (width 0.05))
  (fp_line (start -10.3 8.8) (end 10.3 8.8) (layer F.CrtYd) (width 0.05))
  (fp_line (start -10.3 -8.8) (end -10.3 8.8) (layer F.CrtYd) (width 0.05))
  (fp_line (start 8.609 8.609) (end 8.609 6.46) (layer F.SilkS) (width 0.15))
  (fp_line (start -8.609 8.609) (end 8.609 8.609) (layer F.SilkS) (width 0.15))
  (fp_line (start -8.609 6.46) (end -8.609 8.609) (layer F.SilkS) (width 0.15))
  (fp_line (start 8.609 -8.609) (end 8.609 -6.46) (layer F.SilkS) (width 0.15))
  (fp_line (start -8.609 -8.609) (end 8.609 -8.609) (layer F.SilkS) (width 0.15))
  (fp_line (start -8.609 -6.46) (end -8.609 -8.609) (layer F.SilkS) (width 0.15))
  (fp_line (start 8.509 -8.509) (end -8.509 -8.509) (layer F.Fab) (width 0.15))
  (fp_line (start 8.509 8.509) (end 8.509 -8.509) (layer F.Fab) (width 0.15))
  (fp_line (start -8.509 8.509) (end 8.509 8.509) (layer F.Fab) (width 0.15))
  (fp_line (start -8.509 -8.509) (end -8.509 8.509) (layer F.Fab) (width 0.15))
  (fp_text user %R (at 0 0) (layer F.Fab)
    (effects (font (size 1 1) (thickness 0.15)))
  )
  (pad 2 smd rect (at 8.1225 0) (size 3.825 12.32) (layers F.Cu F.Paste F.Mask))
  (pad 1 smd rect (at -8.1225 0) (size 3.825 12.32) (layers F.Cu F.Paste F.Mask))
  (model ${KISYS3DMOD}/Inductor_SMD.3dshapes/L_Vishay_IHLP-6767.wrl
    (at (xyz 0 0 0))
    (scale (xyz 1 1 1))
    (rotate (xyz 0 0 0))
  )
)
