(module L_Vishay_IHLP-1616 (layer F.Cu) (tedit 609030BB)
  (descr "Inductor, Vishay, IHLP series, 4.1mmx4.1mm, Alternate KiCad Library")
  (tags "inductor vishay ihlp smd")
  (attr smd)
  (fp_text reference REF** (at 0 -3.032) (layer F.SilkS)
    (effects (font (size 1 1) (thickness 0.15)))
  )
  (fp_text value L_Vishay_IHLP-1616 (at 0 3.532) (layer F.Fab)
    (effects (font (size 1 1) (thickness 0.15)))
  )
  (fp_line (start -2.032 -2.032) (end -2.032 2.032) (layer F.Fab) (width 0.1))
  (fp_line (start -2.032 2.032) (end 2.032 2.032) (layer F.Fab) (width 0.1))
  (fp_line (start 2.032 2.032) (end 2.032 -2.032) (layer F.Fab) (width 0.1))
  (fp_line (start 2.032 -2.032) (end -2.032 -2.032) (layer F.Fab) (width 0.1))
  (fp_line (start -3.1 -2.3) (end -3.1 2.3) (layer F.CrtYd) (width 0.05))
  (fp_line (start -3.1 2.3) (end 3.1 2.3) (layer F.CrtYd) (width 0.05))
  (fp_line (start 3.1 2.3) (end 3.1 -2.3) (layer F.CrtYd) (width 0.05))
  (fp_line (start 3.1 -2.3) (end -3.1 -2.3) (layer F.CrtYd) (width 0.05))
  (fp_text user %R (at 0 0) (layer F.Fab)
    (effects (font (size 1 1) (thickness 0.15)))
  )
  (fp_line (start -3.1115 2.132) (end 3.1115 2.132) (layer F.SilkS) (width 0.12))
  (fp_line (start -3.1115 -2.132) (end 3.1115 -2.132) (layer F.SilkS) (width 0.12))
  (fp_line (start -3.1115 -2.132) (end -3.1115 2.132) (layer F.SilkS) (width 0.12))
  (fp_line (start 3.1115 2.132) (end 3.1115 -2.132) (layer F.SilkS) (width 0.12))
  (pad 2 smd rect (at 1.89225 0) (size 1.8545 2.286) (layers F.Cu F.Paste F.Mask))
  (pad 1 smd rect (at -1.89225 0) (size 1.8545 2.286) (layers F.Cu F.Paste F.Mask))
  (model ${KISYS3DMOD}/Inductor_SMD.3dshapes/L_Vishay_IHLP-1616.wrl
    (at (xyz 0 0 0))
    (scale (xyz 1 1 1))
    (rotate (xyz 0 0 0))
  )
)
