(module L_Vishay_IHLP-5050 (layer F.Cu) (tedit 608FA775)
  (descr "Inductor, Vishay, IHLP series, 12.7mmx12.7mm, Alternate KiCad Library")
  (tags "inductor vishay ihlp smd")
  (attr smd)
  (fp_text reference REF** (at 0 -7.35) (layer F.SilkS)
    (effects (font (size 1 1) (thickness 0.15)))
  )
  (fp_text value L_Vishay_IHLP-5050 (at 0 7.85) (layer F.Fab)
    (effects (font (size 1 1) (thickness 0.15)))
  )
  (fp_line (start 7.6 -6.6) (end -7.6 -6.6) (layer F.CrtYd) (width 0.05))
  (fp_line (start 7.6 6.6) (end 7.6 -6.6) (layer F.CrtYd) (width 0.05))
  (fp_line (start -7.6 6.6) (end 7.6 6.6) (layer F.CrtYd) (width 0.05))
  (fp_line (start -7.6 -6.6) (end -7.6 6.6) (layer F.CrtYd) (width 0.05))
  (fp_line (start 6.45 6.45) (end 6.45 1.95) (layer F.SilkS) (width 0.12))
  (fp_line (start -6.45 6.45) (end 6.45 6.45) (layer F.SilkS) (width 0.12))
  (fp_line (start -6.45 1.95) (end -6.45 6.45) (layer F.SilkS) (width 0.12))
  (fp_line (start 6.45 -6.45) (end 6.45 -1.95) (layer F.SilkS) (width 0.12))
  (fp_line (start -6.45 -6.45) (end 6.45 -6.45) (layer F.SilkS) (width 0.12))
  (fp_line (start -6.45 -1.95) (end -6.45 -6.45) (layer F.SilkS) (width 0.12))
  (fp_line (start 6.35 -6.35) (end -6.35 -6.35) (layer F.Fab) (width 0.1))
  (fp_line (start 6.35 6.35) (end 6.35 -6.35) (layer F.Fab) (width 0.1))
  (fp_line (start -6.35 6.35) (end 6.35 6.35) (layer F.Fab) (width 0.1))
  (fp_line (start -6.35 -6.35) (end -6.35 6.35) (layer F.Fab) (width 0.1))
  (fp_text user %R (at 0 0) (layer F.Fab)
    (effects (font (size 1 1) (thickness 0.15)))
  )
  (pad 2 smd rect (at 5.715 0) (size 3.175 3.3) (layers F.Cu F.Paste F.Mask))
  (pad 1 smd rect (at -5.715 0) (size 3.175 3.3) (layers F.Cu F.Paste F.Mask))
  (model ${KISYS3DMOD}/Inductor_SMD.3dshapes/L_Vishay_IHLP-5050.wrl
    (at (xyz 0 0 0))
    (scale (xyz 1 1 1))
    (rotate (xyz 0 0 0))
  )
)
