(module L_Wuerth_WE-PD2-Typ-L (layer F.Cu) (tedit 608FA859)
  (descr "Power Inductor, Wuerth Elektronik, WE-PD2, SMD, Typ L, , https://katalog.we-online.com/pbs/datasheet/74477510.pdf, Alternate KiCad Library")
  (tags "Choke Power Inductor WE-PD2 TypL Wuerth")
  (attr smd)
  (fp_text reference REF** (at 0 -4.75) (layer F.SilkS)
    (effects (font (size 1 1) (thickness 0.15)))
  )
  (fp_text value L_Wuerth_WE-PD2-Typ-L (at 0 5) (layer F.Fab)
    (effects (font (size 1 1) (thickness 0.15)))
  )
  (fp_line (start 3.1 -3.5) (end -3.1 -3.5) (layer F.Fab) (width 0.1))
  (fp_line (start -3.1 3.5) (end 3.1 3.5) (layer F.Fab) (width 0.1))
  (fp_line (start -4.318 4.064) (end -4.318 -4.064) (layer F.CrtYd) (width 0.05))
  (fp_line (start 4.318 4.064) (end -4.318 4.064) (layer F.CrtYd) (width 0.05))
  (fp_line (start 4.318 -4.064) (end 4.318 4.064) (layer F.CrtYd) (width 0.05))
  (fp_line (start -4.318 -4.064) (end 4.318 -4.064) (layer F.CrtYd) (width 0.05))
  (fp_line (start -4.2545 -4.0005) (end 4.2545 -4.0005) (layer F.SilkS) (width 0.12))
  (fp_line (start 4.2545 -4.0005) (end 4.2545 4.0005) (layer F.SilkS) (width 0.12))
  (fp_line (start 4.2545 4.0005) (end -4.2545 4.0005) (layer F.SilkS) (width 0.12))
  (fp_line (start -4.2545 4.0005) (end -4.2545 -4.0005) (layer F.SilkS) (width 0.12))
  (fp_arc (start 3.9 0) (end -3.1 3.5) (angle 53) (layer F.Fab) (width 0.1))
  (fp_arc (start -3.9 0) (end 3.1 -3.5) (angle 53) (layer F.Fab) (width 0.1))
  (fp_text user %R (at 0 0) (layer F.Fab)
    (effects (font (size 1 1) (thickness 0.15)))
  )
  (pad 2 smd rect (at 2.5 0) (size 3 7.5) (layers F.Cu F.Paste F.Mask))
  (pad 1 smd rect (at -2.5 0) (size 3 7.5) (layers F.Cu F.Paste F.Mask))
  (model ${KISYS3DMOD}/Inductor_SMD.3dshapes/L_Wuerth_WE-PD2-Typ-L.wrl
    (at (xyz 0 0 0))
    (scale (xyz 1 1 1))
    (rotate (xyz 0 0 0))
  )
)
