(module L_Wuerth_WE-PDF (layer F.Cu) (tedit 608FA866)
  (descr "Shielded Power Inductor, Wuerth Elektronik, WE-PDF, SMD, https://katalog.we-online.de/pbs/datasheet/7447797022.pdf, Alternate KiCad Library")
  (tags "Choke Shielded Power Inductor WE-PDF Wuerth")
  (attr smd)
  (fp_text reference REF** (at 0 -6.2) (layer F.SilkS)
    (effects (font (size 1 1) (thickness 0.15)))
  )
  (fp_text value L_Wuerth_WE-PDF (at 0.1 6.4) (layer F.Fab)
    (effects (font (size 1 1) (thickness 0.15)))
  )
  (fp_circle (center 1.85 2.1) (end 2.1 2.2) (layer F.Fab) (width 0.1))
  (fp_circle (center 0 0) (end 0.15 0.15) (layer F.Adhes) (width 0.38))
  (fp_circle (center 0 0) (end 0.6 0.05) (layer F.Adhes) (width 0.38))
  (fp_circle (center 0 0) (end 0.95 0) (layer F.Adhes) (width 0.38))
  (fp_circle (center 0 0) (end 1.3 0.05) (layer F.Adhes) (width 0.38))
  (fp_line (start -5.1 -5.1) (end -5.1 -2.4) (layer F.Fab) (width 0.1))
  (fp_line (start 5.1 -5.1) (end -5.1 -5.1) (layer F.Fab) (width 0.1))
  (fp_line (start 5.1 5.1) (end 5.1 2.4) (layer F.Fab) (width 0.1))
  (fp_line (start 5.1 -5.1) (end 5.1 -2.4) (layer F.Fab) (width 0.1))
  (fp_line (start -5.1 3.8) (end -3.8 5.05) (layer F.Fab) (width 0.1))
  (fp_line (start 5.1 5.1) (end -3.8 5.1) (layer F.Fab) (width 0.1))
  (fp_line (start -5.1 2.4) (end -5.1 3.8) (layer F.Fab) (width 0.1))
  (fp_line (start -3.7 -2.3) (end -3.75 -2.2) (layer F.Fab) (width 0.1))
  (fp_line (start -3 -3.2) (end -3.7 -2.3) (layer F.Fab) (width 0.1))
  (fp_line (start -2.4 -3.65) (end -3 -3.2) (layer F.Fab) (width 0.1))
  (fp_line (start -1.5 -4.1) (end -2.4 -3.65) (layer F.Fab) (width 0.1))
  (fp_line (start -0.65 -4.35) (end -1.5 -4.1) (layer F.Fab) (width 0.1))
  (fp_line (start 0.2 -4.4) (end -0.65 -4.35) (layer F.Fab) (width 0.1))
  (fp_line (start 0.85 -4.3) (end 0.2 -4.4) (layer F.Fab) (width 0.1))
  (fp_line (start 1.7 -4) (end 0.85 -4.3) (layer F.Fab) (width 0.1))
  (fp_line (start 2.35 -3.65) (end 1.7 -4) (layer F.Fab) (width 0.1))
  (fp_line (start 3 -3.2) (end 2.35 -3.65) (layer F.Fab) (width 0.1))
  (fp_line (start 3.45 -2.65) (end 3 -3.2) (layer F.Fab) (width 0.1))
  (fp_line (start 3.8 -2.2) (end 3.45 -2.65) (layer F.Fab) (width 0.1))
  (fp_line (start 3.5 2.6) (end 3.75 2.2) (layer F.Fab) (width 0.1))
  (fp_line (start 2.9 3.25) (end 3.5 2.6) (layer F.Fab) (width 0.1))
  (fp_line (start 2.1 3.85) (end 2.9 3.25) (layer F.Fab) (width 0.1))
  (fp_line (start 1.2 4.2) (end 2.1 3.85) (layer F.Fab) (width 0.1))
  (fp_line (start 0.25 4.35) (end 1.2 4.2) (layer F.Fab) (width 0.1))
  (fp_line (start -0.3 4.35) (end 0.25 4.35) (layer F.Fab) (width 0.1))
  (fp_line (start -1.4 4.15) (end -0.3 4.35) (layer F.Fab) (width 0.1))
  (fp_line (start -2.4 3.65) (end -1.4 4.15) (layer F.Fab) (width 0.1))
  (fp_line (start -3.05 3.1) (end -2.4 3.65) (layer F.Fab) (width 0.1))
  (fp_line (start -3.6 2.45) (end -3.05 3.1) (layer F.Fab) (width 0.1))
  (fp_line (start -3.8 2.15) (end -3.6 2.45) (layer F.Fab) (width 0.1))
  (fp_line (start -5.6 -5.4) (end 5.6 -5.4) (layer F.CrtYd) (width 0.05))
  (fp_line (start -5.6 3.7) (end -5.6 -5.4) (layer F.CrtYd) (width 0.05))
  (fp_line (start -3.8 5.5) (end -5.6 3.7) (layer F.CrtYd) (width 0.05))
  (fp_line (start 5.6 5.5) (end -3.8 5.5) (layer F.CrtYd) (width 0.05))
  (fp_line (start 5.6 -5.4) (end 5.6 5.5) (layer F.CrtYd) (width 0.05))
  (fp_line (start 5.2 -5.2) (end 5.2 -2.4) (layer F.SilkS) (width 0.12))
  (fp_line (start -5.2 -5.2) (end 5.2 -5.2) (layer F.SilkS) (width 0.12))
  (fp_line (start -5.2 -2.4) (end -5.2 -5.2) (layer F.SilkS) (width 0.12))
  (fp_line (start -5.2 3.8) (end -5.2 2.4) (layer F.SilkS) (width 0.12))
  (fp_line (start -3.8 5.2) (end -5.2 3.8) (layer F.SilkS) (width 0.12))
  (fp_line (start 5.2 5.2) (end -3.8 5.2) (layer F.SilkS) (width 0.12))
  (fp_line (start 5.2 2.4) (end 5.2 5.2) (layer F.SilkS) (width 0.12))
  (fp_text user %R (at 0 0) (layer F.Fab)
    (effects (font (size 1 1) (thickness 0.15)))
  )
  (pad 2 smd rect (at 4.1 0) (size 2.4 3.4) (layers F.Cu F.Paste F.Mask))
  (pad 1 smd rect (at -4.1 0) (size 2.4 3.4) (layers F.Cu F.Paste F.Mask))
  (model ${KISYS3DMOD}/Inductor_SMD.3dshapes/L_Wuerth_WE-PDF.wrl
    (at (xyz 0 0 0))
    (scale (xyz 1 1 1))
    (rotate (xyz 0 0 0))
  )
)
