(module L_Wuerth_HCM-1240 (layer F.Cu) (tedit 608FA7D7)
  (descr "Inductor, Wuerth Elektronik, Wuerth_HCM-1240, 10.0mmx11.8mm, Alternate KiCad Library")
  (tags "inductor Wuerth hcm smd")
  (attr smd)
  (fp_text reference REF** (at 0 -6.9) (layer F.SilkS)
    (effects (font (size 1 1) (thickness 0.15)))
  )
  (fp_text value L_Wuerth_HCM-1240 (at 0 7.4) (layer F.Fab)
    (effects (font (size 1 1) (thickness 0.15)))
  )
  (fp_line (start -5.1 6) (end 0 6) (layer F.SilkS) (width 0.12))
  (fp_line (start -5.1 2.55) (end -5.1 6) (layer F.SilkS) (width 0.12))
  (fp_line (start 5.1 6) (end 0 6) (layer F.SilkS) (width 0.12))
  (fp_line (start 5.1 2.55) (end 5.1 6) (layer F.SilkS) (width 0.12))
  (fp_line (start 5.1 -6) (end 0 -6) (layer F.SilkS) (width 0.12))
  (fp_line (start 5.1 -2.55) (end 5.1 -6) (layer F.SilkS) (width 0.12))
  (fp_line (start -5.1 -6) (end 0 -6) (layer F.SilkS) (width 0.12))
  (fp_line (start -5.1 -2.55) (end -5.1 -6) (layer F.SilkS) (width 0.12))
  (fp_line (start 5 -5.9) (end -5 -5.9) (layer F.Fab) (width 0.1))
  (fp_line (start 5 5.9) (end 5 -5.9) (layer F.Fab) (width 0.1))
  (fp_line (start -5 5.9) (end 5 5.9) (layer F.Fab) (width 0.1))
  (fp_line (start -5 -5.9) (end -5 5.9) (layer F.Fab) (width 0.1))
  (fp_line (start 6.3 -6.25) (end -6.3 -6.25) (layer F.CrtYd) (width 0.05))
  (fp_line (start 6.3 6.25) (end 6.3 -6.25) (layer F.CrtYd) (width 0.05))
  (fp_line (start -6.3 6.25) (end 6.3 6.25) (layer F.CrtYd) (width 0.05))
  (fp_line (start -6.3 -6.25) (end -6.3 6.25) (layer F.CrtYd) (width 0.05))
  (fp_text user %R (at 0 0) (layer F.Fab)
    (effects (font (size 1 1) (thickness 0.15)))
  )
  (pad 2 smd rect (at 4.7 0) (size 2.6 4.5) (layers F.Cu F.Paste F.Mask))
  (pad 1 smd rect (at -4.7 0) (size 2.6 4.5) (layers F.Cu F.Paste F.Mask))
  (model ${KISYS3DMOD}/Inductor_SMD.3dshapes/L_Wuerth_HCM-1240.wrl
    (at (xyz 0 0 0))
    (scale (xyz 1 1 1))
    (rotate (xyz 0 0 0))
  )
)
