(module L_Wuerth_WE-TPC-3816 (layer F.Cu) (tedit 608FA875)
  (descr "L_Wuerth_WE-TPC-3816 StepUp generated footprint, http://katalog.we-online.de/pbs/datasheet/7440310047.pdf, Alternate KiCad Library")
  (tags "wurth wuerth smd inductor")
  (attr smd)
  (fp_text reference REF** (at 0 -3.175) (layer F.SilkS)
    (effects (font (size 1 1) (thickness 0.15)))
  )
  (fp_text value L_Wuerth_WE-TPC-3816 (at 0 3) (layer F.Fab)
    (effects (font (size 1 1) (thickness 0.15)))
  )
  (fp_line (start -2.4765 2.4765) (end -2.4765 -2.4765) (layer F.CrtYd) (width 0.05))
  (fp_line (start 2.4765 2.4765) (end -2.4765 2.4765) (layer F.CrtYd) (width 0.05))
  (fp_line (start 2.4765 -2.4765) (end 2.4765 2.4765) (layer F.CrtYd) (width 0.05))
  (fp_line (start -2.4765 -2.4765) (end 2.4765 -2.4765) (layer F.CrtYd) (width 0.05))
  (fp_line (start -1.9 1.9) (end -1.9 -1.9) (layer F.Fab) (width 0.1))
  (fp_line (start 1.9 1.9) (end -1.9 1.9) (layer F.Fab) (width 0.1))
  (fp_line (start 1.9 -1.9) (end 1.9 1.9) (layer F.Fab) (width 0.1))
  (fp_line (start -1.9 -1.9) (end 1.9 -1.9) (layer F.Fab) (width 0.1))
  (fp_line (start -2.413 -2.413) (end 2.413 -2.413) (layer F.SilkS) (width 0.12))
  (fp_line (start 2.413 -2.413) (end 2.413 2.413) (layer F.SilkS) (width 0.12))
  (fp_line (start 2.413 2.413) (end -2.413 2.413) (layer F.SilkS) (width 0.12))
  (fp_line (start -2.413 2.413) (end -2.413 -2.413) (layer F.SilkS) (width 0.12))
  (fp_text user %R (at 0 0) (layer F.Fab)
    (effects (font (size 1 1) (thickness 0.15)))
  )
  (pad 2 smd custom (at 0 1.75) (size 0.7 0.7) (layers F.Cu F.Paste F.Mask)
    (zone_connect 2)
    (options (clearance outline) (anchor circle))
    (primitives
      (gr_poly (pts
         (xy 2.15 0.4) (xy -2.15 0.4) (xy -2.15 -1.2) (xy -1.177922 -1.2) (xy -1.064578 -1.003895)
         (xy -0.918917 -0.830439) (xy -0.745359 -0.684899) (xy -0.549174 -0.571693) (xy -0.336318 -0.494257) (xy -0.113252 -0.454942)
         (xy 0.113252 -0.454942) (xy 0.336318 -0.494257) (xy 0.549174 -0.571693) (xy 0.745359 -0.684899) (xy 0.918917 -0.830439)
         (xy 1.064578 -1.003895) (xy 1.177922 -1.2) (xy 2.15 -1.2)) (width 0))
    ))
  (pad 1 smd custom (at 0 -1.75) (size 0.7 0.7) (layers F.Cu F.Paste F.Mask)
    (zone_connect 2)
    (options (clearance outline) (anchor circle))
    (primitives
      (gr_poly (pts
         (xy 1.064578 1.003895) (xy 0.918917 0.830439) (xy 0.745359 0.684899) (xy 0.549174 0.571693) (xy 0.336318 0.494257)
         (xy 0.113252 0.454942) (xy -0.113252 0.454942) (xy -0.336318 0.494257) (xy -0.549174 0.571693) (xy -0.745359 0.684899)
         (xy -0.918917 0.830439) (xy -1.064578 1.003895) (xy -1.177922 1.2) (xy -2.15 1.2) (xy -2.15 -0.4)
         (xy 2.15 -0.4) (xy 2.15 1.2) (xy 1.177922 1.2)) (width 0))
    ))
  (model ${KISYS3DMOD}/Inductor_SMD.3dshapes/L_Wuerth_WE-TPC-3816.wrl
    (at (xyz 0 0 0))
    (scale (xyz 1 1 1))
    (rotate (xyz 0 0 0))
  )
)
