(module L_Wuerth_WE-DD-Typ-L-Typ-XL-Typ-XXL (layer F.Cu) (tedit 608FA835)
  (descr "Shielded Coupled Inductor, Wuerth Elektronik, WE-DD, SMD, Typ L, Typ XL, Typ XXL, https://katalog.we-online.com/pbs/datasheet/744874001.pdf, Alternate KiCad Library")
  (tags "Choke Coupled Double Inductor SMD Wuerth WE-DD TypL TypXL TypXXL ")
  (attr smd)
  (fp_text reference REF** (at 0 -8.2) (layer F.SilkS)
    (effects (font (size 1 1) (thickness 0.15)))
  )
  (fp_text value L_Wuerth_WE-DD-Typ-L-Typ-XL-Typ-XXL (at 0 8.2) (layer F.Fab)
    (effects (font (size 1 1) (thickness 0.15)))
  )
  (fp_circle (center 2.75 -2.1) (end 3.05 -1.9) (layer F.Fab) (width 0.1))
  (fp_circle (center 0 0) (end 0.1 0) (layer F.Adhes) (width 0.3))
  (fp_circle (center 0 0) (end 0.3 0.1) (layer F.Adhes) (width 0.3))
  (fp_circle (center 0 0) (end 0.6 0) (layer F.Adhes) (width 0.3))
  (fp_circle (center 0 0) (end 0.8 -0.1) (layer F.Adhes) (width 0.3))
  (fp_circle (center 0 0) (end 1.1 -0.1) (layer F.Adhes) (width 0.3))
  (fp_circle (center 0 0) (end 1.4 -0.1) (layer F.Adhes) (width 0.3))
  (fp_circle (center 0 0) (end 2.1 4.5) (layer F.Fab) (width 0.1))
  (fp_line (start 6.25 -5.45) (end 6.25 5.45) (layer F.Fab) (width 0.1))
  (fp_line (start 6.25 -5.65) (end 6.25 -5.45) (layer F.Fab) (width 0.1))
  (fp_line (start 6.05 -6) (end 6.25 -5.65) (layer F.Fab) (width 0.1))
  (fp_line (start 5.8 -6.2) (end 6.05 -6) (layer F.Fab) (width 0.1))
  (fp_line (start 5.45 -6.25) (end 5.8 -6.2) (layer F.Fab) (width 0.1))
  (fp_line (start 3.6 -6.25) (end 5.45 -6.25) (layer F.Fab) (width 0.1))
  (fp_line (start 6.2 5.85) (end 6.25 5.45) (layer F.Fab) (width 0.1))
  (fp_line (start 6.05 6.05) (end 6.2 5.85) (layer F.Fab) (width 0.1))
  (fp_line (start 5.8 6.2) (end 6.05 6.05) (layer F.Fab) (width 0.1))
  (fp_line (start 5.45 6.25) (end 5.8 6.2) (layer F.Fab) (width 0.1))
  (fp_line (start 3.6 6.25) (end 5.45 6.25) (layer F.Fab) (width 0.1))
  (fp_line (start -3.6 6.25) (end -5.45 6.25) (layer F.Fab) (width 0.1))
  (fp_line (start -5.45 6.25) (end -5.8 6.2) (layer F.Fab) (width 0.1))
  (fp_line (start -5.8 6.2) (end -6.05 6.05) (layer F.Fab) (width 0.1))
  (fp_line (start -6.05 6.05) (end -6.2 5.85) (layer F.Fab) (width 0.1))
  (fp_line (start -6.2 5.85) (end -6.25 5.45) (layer F.Fab) (width 0.1))
  (fp_line (start -3.6 -6.25) (end -5.45 -6.25) (layer F.Fab) (width 0.1))
  (fp_line (start -5.45 -6.25) (end -5.8 -6.2) (layer F.Fab) (width 0.1))
  (fp_line (start -5.8 -6.2) (end -6.05 -6) (layer F.Fab) (width 0.1))
  (fp_line (start -6.05 -6) (end -6.25 -5.65) (layer F.Fab) (width 0.1))
  (fp_line (start -6.25 -5.65) (end -6.25 -5.45) (layer F.Fab) (width 0.1))
  (fp_line (start -6.25 -5.45) (end -6.25 5.45) (layer F.Fab) (width 0.1))
  (fp_line (start -6.5 7.25) (end -6.5 -7.25) (layer F.CrtYd) (width 0.05))
  (fp_line (start 6.5 7.25) (end -6.5 7.25) (layer F.CrtYd) (width 0.05))
  (fp_line (start 6.5 -7.25) (end 6.5 7.25) (layer F.CrtYd) (width 0.05))
  (fp_line (start -6.5 -7.25) (end 6.5 -7.25) (layer F.CrtYd) (width 0.05))
  (fp_line (start 6.4 6.4) (end 3.6 6.4) (layer F.SilkS) (width 0.12))
  (fp_line (start 6.4 -6.4) (end 6.4 6.4) (layer F.SilkS) (width 0.12))
  (fp_line (start 3.6 -6.4) (end 6.4 -6.4) (layer F.SilkS) (width 0.12))
  (fp_line (start -6.4 -6.4) (end -3.6 -6.4) (layer F.SilkS) (width 0.12))
  (fp_line (start -6.4 6.4) (end -6.4 -6.4) (layer F.SilkS) (width 0.12))
  (fp_line (start -3.6 6.4) (end -6.4 6.4) (layer F.SilkS) (width 0.12))
  (fp_text user %R (at 0 0) (layer F.Fab)
    (effects (font (size 1 1) (thickness 0.15)))
  )
  (pad 3 smd rect (at 1.75 5) (size 2.5 3.85) (layers F.Cu F.Paste F.Mask))
  (pad 4 smd rect (at -1.75 5) (size 2.5 3.85) (layers F.Cu F.Paste F.Mask))
  (pad 2 smd rect (at 1.75 -5) (size 2.5 3.85) (layers F.Cu F.Paste F.Mask))
  (pad 1 smd rect (at -1.75 -5) (size 2.5 3.85) (layers F.Cu F.Paste F.Mask))
  (model ${KISYS3DMOD}/Inductor_SMD.3dshapes/L_Wuerth_WE-DD-Typ-L-Typ-XL-Typ-XXL.wrl
    (at (xyz 0 0 0))
    (scale (xyz 1 1 1))
    (rotate (xyz 0 0 0))
  )
)
