(module L_Wuerth_WE-PD4-Typ-X (layer F.Cu) (tedit 608FA862)
  (descr "Power Inductor, Wuerth Elektronik, WE-PD4, SMT, Typ X, https://katalog.we-online.de/pbs/datasheet/74458001.pdf, Alternate KiCad Library")
  (tags "Choke Power Inductor WE-PD4 TypX Wuerth")
  (attr smd)
  (fp_text reference REF** (at 0.1 -8.7) (layer F.SilkS)
    (effects (font (size 1 1) (thickness 0.15)))
  )
  (fp_text value L_Wuerth_WE-PD4-Typ-X (at 0 8.9) (layer F.Fab)
    (effects (font (size 1 1) (thickness 0.15)))
  )
  (fp_circle (center 0 0) (end 0 -5.3) (layer F.Fab) (width 0.1))
  (fp_circle (center -3.7 2.55) (end -3.7 2.2) (layer F.Fab) (width 0.1))
  (fp_circle (center 0 0) (end 0.1 0) (layer F.Adhes) (width 0.3))
  (fp_circle (center 0 0) (end 0.3 0) (layer F.Adhes) (width 0.3))
  (fp_circle (center 0 0) (end 0.5 0) (layer F.Adhes) (width 0.3))
  (fp_circle (center 0 0) (end 0.7 0) (layer F.Adhes) (width 0.3))
  (fp_circle (center 0 0) (end 0.9 0) (layer F.Adhes) (width 0.3))
  (fp_line (start -9.3 -2.6) (end -3.95 -6.55) (layer F.Fab) (width 0.1))
  (fp_line (start 3.95 -6.55) (end 9.3 -2.6) (layer F.Fab) (width 0.1))
  (fp_line (start 9.3 2.6) (end 3.95 6.55) (layer F.Fab) (width 0.1))
  (fp_line (start -9.3 2.6) (end -3.95 6.55) (layer F.Fab) (width 0.1))
  (fp_line (start 3.2 -6.95) (end 3.95 -6.55) (layer F.Fab) (width 0.1))
  (fp_line (start 2.2 -7.3) (end 3.2 -6.95) (layer F.Fab) (width 0.1))
  (fp_line (start 0.75 -7.6) (end 2.2 -7.3) (layer F.Fab) (width 0.1))
  (fp_line (start -0.6 -7.6) (end 0.75 -7.6) (layer F.Fab) (width 0.1))
  (fp_line (start -1.9 -7.4) (end -0.6 -7.6) (layer F.Fab) (width 0.1))
  (fp_line (start -2.9 -7.05) (end -1.9 -7.4) (layer F.Fab) (width 0.1))
  (fp_line (start -3.95 -6.55) (end -2.9 -7.05) (layer F.Fab) (width 0.1))
  (fp_line (start -3.55 6.8) (end -3.95 6.55) (layer F.Fab) (width 0.1))
  (fp_line (start -2.5 7.3) (end -3.55 6.8) (layer F.Fab) (width 0.1))
  (fp_line (start -1.05 7.6) (end -2.5 7.3) (layer F.Fab) (width 0.1))
  (fp_line (start 0.7 7.65) (end -1.05 7.6) (layer F.Fab) (width 0.1))
  (fp_line (start 2.2 7.35) (end 0.7 7.65) (layer F.Fab) (width 0.1))
  (fp_line (start 3.25 6.9) (end 2.2 7.35) (layer F.Fab) (width 0.1))
  (fp_line (start 3.95 6.55) (end 3.25 6.9) (layer F.Fab) (width 0.1))
  (fp_line (start -9.3 -2.6) (end -9.3 -2) (layer F.Fab) (width 0.1))
  (fp_line (start -9.3 2) (end -9.3 2.6) (layer F.Fab) (width 0.1))
  (fp_line (start 9.3 -2) (end 9.3 -2.6) (layer F.Fab) (width 0.1))
  (fp_line (start 9.3 2) (end 9.3 2.6) (layer F.Fab) (width 0.1))
  (fp_line (start 9.6 2.7) (end 2.4 8.1) (layer F.CrtYd) (width 0.05))
  (fp_line (start 9.6 -2.7) (end 9.6 2.7) (layer F.CrtYd) (width 0.05))
  (fp_line (start 2.4 -7.9) (end 9.6 -2.7) (layer F.CrtYd) (width 0.05))
  (fp_line (start -2.5 -7.9) (end 2.4 -7.9) (layer F.CrtYd) (width 0.05))
  (fp_line (start -9.6 -2.7) (end -2.5 -7.9) (layer F.CrtYd) (width 0.05))
  (fp_line (start -9.6 2.7) (end -9.6 -2.7) (layer F.CrtYd) (width 0.05))
  (fp_line (start -2.4 8.1) (end -9.6 2.7) (layer F.CrtYd) (width 0.05))
  (fp_line (start 2.4 8.1) (end -2.4 8.1) (layer F.CrtYd) (width 0.05))
  (fp_line (start 9.4 2.6) (end 9.4 2) (layer F.SilkS) (width 0.12))
  (fp_line (start -9.4 2.6) (end -2.3 7.8) (layer F.SilkS) (width 0.12))
  (fp_line (start 2.4 7.8) (end 9.4 2.6) (layer F.SilkS) (width 0.12))
  (fp_line (start -2.3 7.8) (end 2.4 7.8) (layer F.SilkS) (width 0.12))
  (fp_line (start 9.4 -2) (end 9.4 -2.6) (layer F.SilkS) (width 0.12))
  (fp_line (start -9.4 2.6) (end -9.4 2) (layer F.SilkS) (width 0.12))
  (fp_line (start 2.4 -7.7) (end 9.4 -2.6) (layer F.SilkS) (width 0.12))
  (fp_line (start -2.5 -7.7) (end 2.4 -7.7) (layer F.SilkS) (width 0.12))
  (fp_line (start -9.4 -2.6) (end -2.5 -7.7) (layer F.SilkS) (width 0.12))
  (fp_line (start -9.4 -2) (end -9.4 -2.6) (layer F.SilkS) (width 0.12))
  (fp_line (start 9.3 -2) (end 9.3 2) (layer F.Fab) (width 0.1))
  (fp_line (start -9.3 2) (end -9.3 -2) (layer F.Fab) (width 0.1))
  (fp_text user %R (at 0 0.025) (layer F.Fab)
    (effects (font (size 1 1) (thickness 0.15)))
  )
  (pad 2 smd rect (at 7.7 0 90) (size 2.79 2.92) (layers F.Cu F.Paste F.Mask))
  (pad 1 smd rect (at -7.7 0 90) (size 2.79 2.92) (layers F.Cu F.Paste F.Mask))
  (model ${KISYS3DMOD}/Inductor_SMD.3dshapes/L_Wuerth_WE-PD4-Typ-X.wrl
    (at (xyz 0 0 0))
    (scale (xyz 1 1 1))
    (rotate (xyz 0 0 0))
  )
)
