(module L_Wuerth_WE-PD-Typ-M-Typ-S (layer F.Cu) (tedit 608FA853)
  (descr "Shielded Power Inductor, Wuerth Elektronik, WE-PD, SMT, Typ M, Typ S, https://katalog.we-online.com/pbs/datasheet/744778005.pdf, Alternate KiCad Library")
  (tags "Choke Shielded Power Inductor WE-PD TypM TypS Wuerth")
  (attr smd)
  (fp_text reference REF** (at 0 -4.8) (layer F.SilkS)
    (effects (font (size 1 1) (thickness 0.15)))
  )
  (fp_text value L_Wuerth_WE-PD-Typ-M-Typ-S (at 0 5) (layer F.Fab)
    (effects (font (size 1 1) (thickness 0.15)))
  )
  (fp_circle (center 0 0) (end 0.9 0.15) (layer F.Adhes) (width 0.38))
  (fp_circle (center 0 0) (end 0.55 0.05) (layer F.Adhes) (width 0.38))
  (fp_circle (center 0 0) (end 0.15 0.15) (layer F.Adhes) (width 0.38))
  (fp_circle (center -1.6 -1.65) (end -1.45 -1.5) (layer F.Fab) (width 0.1))
  (fp_line (start -2.75 1.6) (end -2.5 1.95) (layer F.Fab) (width 0.1))
  (fp_line (start -2.5 1.95) (end -2.05 2.35) (layer F.Fab) (width 0.1))
  (fp_line (start -2.05 2.35) (end -1.6 2.7) (layer F.Fab) (width 0.1))
  (fp_line (start -1.6 2.7) (end -0.95 3) (layer F.Fab) (width 0.1))
  (fp_line (start -0.95 3) (end -0.35 3.1) (layer F.Fab) (width 0.1))
  (fp_line (start -0.35 3.1) (end 0.15 3.15) (layer F.Fab) (width 0.1))
  (fp_line (start 0.15 3.15) (end 0.75 3.05) (layer F.Fab) (width 0.1))
  (fp_line (start 0.75 3.05) (end 1.4 2.8) (layer F.Fab) (width 0.1))
  (fp_line (start 1.4 2.8) (end 1.95 2.45) (layer F.Fab) (width 0.1))
  (fp_line (start 1.95 2.45) (end 2.4 2) (layer F.Fab) (width 0.1))
  (fp_line (start 2.4 2) (end 2.7 1.6) (layer F.Fab) (width 0.1))
  (fp_line (start 2.7 -1.6) (end 2.45 -1.95) (layer F.Fab) (width 0.1))
  (fp_line (start 2.45 -1.95) (end 2 -2.4) (layer F.Fab) (width 0.1))
  (fp_line (start 2 -2.4) (end 1.5 -2.75) (layer F.Fab) (width 0.1))
  (fp_line (start 1.5 -2.75) (end 1 -2.95) (layer F.Fab) (width 0.1))
  (fp_line (start 1 -2.95) (end 0.4 -3.1) (layer F.Fab) (width 0.1))
  (fp_line (start 0.4 -3.1) (end 0 -3.15) (layer F.Fab) (width 0.1))
  (fp_line (start 0 -3.15) (end -0.55 -3.1) (layer F.Fab) (width 0.1))
  (fp_line (start -0.55 -3.1) (end -1.15 -2.95) (layer F.Fab) (width 0.1))
  (fp_line (start -1.15 -2.95) (end -1.75 -2.65) (layer F.Fab) (width 0.1))
  (fp_line (start -1.75 -2.65) (end -2.2 -2.3) (layer F.Fab) (width 0.1))
  (fp_line (start -2.2 -2.3) (end -2.55 -1.85) (layer F.Fab) (width 0.1))
  (fp_line (start -2.55 -1.85) (end -2.75 -1.6) (layer F.Fab) (width 0.1))
  (fp_line (start -3.75 3.75) (end 3.75 3.75) (layer F.Fab) (width 0.1))
  (fp_line (start 3.75 3.75) (end 3.75 -3.75) (layer F.Fab) (width 0.1))
  (fp_line (start 3.75 -3.75) (end -3.75 -3.75) (layer F.Fab) (width 0.1))
  (fp_line (start -3.75 -3.75) (end -3.75 3.75) (layer F.Fab) (width 0.1))
  (fp_line (start -4.25 4) (end -4.25 -4) (layer F.CrtYd) (width 0.05))
  (fp_line (start 4.25 4) (end -4.25 4) (layer F.CrtYd) (width 0.05))
  (fp_line (start 4.25 -4) (end 4.25 4) (layer F.CrtYd) (width 0.05))
  (fp_line (start -4.25 -4) (end 4.25 -4) (layer F.CrtYd) (width 0.05))
  (fp_line (start -3.9 -1.4) (end -3.9 -3.8) (layer F.SilkS) (width 0.12))
  (fp_line (start 3.9 3.8) (end 3.9 1.4) (layer F.SilkS) (width 0.12))
  (fp_line (start -3.9 3.8) (end 3.9 3.8) (layer F.SilkS) (width 0.12))
  (fp_line (start -3.9 1.4) (end -3.9 3.8) (layer F.SilkS) (width 0.12))
  (fp_line (start 3.9 -3.8) (end -3.9 -3.8) (layer F.SilkS) (width 0.12))
  (fp_line (start 3.9 -1.4) (end 3.9 -3.8) (layer F.SilkS) (width 0.12))
  (fp_text user %R (at 0 0) (layer F.Fab)
    (effects (font (size 1 1) (thickness 0.15)))
  )
  (pad 1 smd rect (at -3.2 0) (size 1.6 2.2) (layers F.Cu F.Paste F.Mask))
  (pad 2 smd rect (at 3.2 0) (size 1.6 2.2) (layers F.Cu F.Paste F.Mask))
  (model ${KISYS3DMOD}/Inductor_SMD.3dshapes/L_Wuerth_WE-PD-Typ-M-Typ-S.wrl
    (at (xyz 0 0 0))
    (scale (xyz 1 1 1))
    (rotate (xyz 0 0 0))
  )
)
