(module L_Wuerth_HCM-7070 (layer F.Cu) (tedit 608FA7FB)
  (descr "Inductor, Wuerth Elektronik, Wuerth_HCM-7070, 7.4mmx7.2mm, Alternate KiCad Library")
  (tags "inductor Wuerth hcm smd")
  (attr smd)
  (fp_text reference REF** (at 0 -4.6) (layer F.SilkS)
    (effects (font (size 1 1) (thickness 0.15)))
  )
  (fp_text value L_Wuerth_HCM-7070 (at 0 5.1) (layer F.Fab)
    (effects (font (size 1 1) (thickness 0.15)))
  )
  (fp_line (start -3.8 3.7) (end 0 3.7) (layer F.SilkS) (width 0.12))
  (fp_line (start -3.8 1.4) (end -3.8 3.7) (layer F.SilkS) (width 0.12))
  (fp_line (start 3.8 3.7) (end 0 3.7) (layer F.SilkS) (width 0.12))
  (fp_line (start 3.8 1.4) (end 3.8 3.7) (layer F.SilkS) (width 0.12))
  (fp_line (start 3.8 -3.7) (end 0 -3.7) (layer F.SilkS) (width 0.12))
  (fp_line (start 3.8 -1.4) (end 3.8 -3.7) (layer F.SilkS) (width 0.12))
  (fp_line (start -3.8 -3.7) (end 0 -3.7) (layer F.SilkS) (width 0.12))
  (fp_line (start -3.8 -1.4) (end -3.8 -3.7) (layer F.SilkS) (width 0.12))
  (fp_line (start 3.7 -3.6) (end -3.7 -3.6) (layer F.Fab) (width 0.1))
  (fp_line (start 3.7 3.6) (end 3.7 -3.6) (layer F.Fab) (width 0.1))
  (fp_line (start -3.7 3.6) (end 3.7 3.6) (layer F.Fab) (width 0.1))
  (fp_line (start -3.7 -3.6) (end -3.7 3.6) (layer F.Fab) (width 0.1))
  (fp_line (start 4.1 -3.95) (end -4.1 -3.95) (layer F.CrtYd) (width 0.05))
  (fp_line (start 4.1 3.95) (end 4.1 -3.95) (layer F.CrtYd) (width 0.05))
  (fp_line (start -4.1 3.95) (end 4.1 3.95) (layer F.CrtYd) (width 0.05))
  (fp_line (start -4.1 -3.95) (end -4.1 3.95) (layer F.CrtYd) (width 0.05))
  (fp_text user %R (at 0 0) (layer F.Fab)
    (effects (font (size 1 1) (thickness 0.15)))
  )
  (pad 2 smd rect (at 2.525 0) (size 2.55 2.2) (layers F.Cu F.Paste F.Mask))
  (pad 1 smd rect (at -2.525 0) (size 2.55 2.2) (layers F.Cu F.Paste F.Mask))
  (model ${KISYS3DMOD}/Inductor_SMD.3dshapes/L_Wuerth_HCM-7070.wrl
    (at (xyz 0 0 0))
    (scale (xyz 1 1 1))
    (rotate (xyz 0 0 0))
  )
)
