(module L_Wuerth_HCM-1390 (layer F.Cu) (tedit 608FA7F5)
  (descr "Inductor, Wuerth Elektronik, Wuerth_HCM-1390, 12.5mmx13.0mm, Alternate KiCad Library")
  (tags "inductor Wuerth hcm smd")
  (attr smd)
  (fp_text reference REF** (at 0 -7.5) (layer F.SilkS)
    (effects (font (size 1 1) (thickness 0.15)))
  )
  (fp_text value L_Wuerth_HCM-1390 (at 0 8) (layer F.Fab)
    (effects (font (size 1 1) (thickness 0.15)))
  )
  (fp_line (start -6.35 6.6) (end 0 6.6) (layer F.SilkS) (width 0.12))
  (fp_line (start -6.35 2.8) (end -6.35 6.6) (layer F.SilkS) (width 0.12))
  (fp_line (start 6.35 6.6) (end 0 6.6) (layer F.SilkS) (width 0.12))
  (fp_line (start 6.35 2.8) (end 6.35 6.6) (layer F.SilkS) (width 0.12))
  (fp_line (start 6.35 -6.6) (end 0 -6.6) (layer F.SilkS) (width 0.12))
  (fp_line (start 6.35 -2.8) (end 6.35 -6.6) (layer F.SilkS) (width 0.12))
  (fp_line (start -6.35 -6.6) (end 0 -6.6) (layer F.SilkS) (width 0.12))
  (fp_line (start -6.35 -2.8) (end -6.35 -6.6) (layer F.SilkS) (width 0.12))
  (fp_line (start 6.25 -6.5) (end -6.25 -6.5) (layer F.Fab) (width 0.1))
  (fp_line (start 6.25 6.5) (end 6.25 -6.5) (layer F.Fab) (width 0.1))
  (fp_line (start -6.25 6.5) (end 6.25 6.5) (layer F.Fab) (width 0.1))
  (fp_line (start -6.25 -6.5) (end -6.25 6.5) (layer F.Fab) (width 0.1))
  (fp_line (start 7.8 -6.8) (end -7.8 -6.8) (layer F.CrtYd) (width 0.05))
  (fp_line (start 7.8 6.8) (end 7.8 -6.8) (layer F.CrtYd) (width 0.05))
  (fp_line (start -7.8 6.8) (end 7.8 6.8) (layer F.CrtYd) (width 0.05))
  (fp_line (start -7.8 -6.8) (end -7.8 6.8) (layer F.CrtYd) (width 0.05))
  (fp_text user %R (at 0 0) (layer F.Fab)
    (effects (font (size 1 1) (thickness 0.15)))
  )
  (pad 2 smd rect (at 6.25 0) (size 2.5 5) (layers F.Cu F.Paste F.Mask))
  (pad 1 smd rect (at -6.25 0) (size 2.5 5) (layers F.Cu F.Paste F.Mask))
  (model ${KISYS3DMOD}/Inductor_SMD.3dshapes/L_Wuerth_HCM-1390.wrl
    (at (xyz 0 0 0))
    (scale (xyz 1 1 1))
    (rotate (xyz 0 0 0))
  )
)
