(module C_0805_2012Metric (layer F.Cu) (tedit 608D1C04)
  (descr "Capacitor SMD 0805 (2012 Metric), square (rectangular) end terminal, IPC_7351 nominal, (Body size source: IPC-SM-782 page 76, https://www.pcb-3d.com/wordpress/wp-content/uploads/ipc-sm-782a_amendment_1_and_2.pdf, https://docs.google.com/spreadsheets/d/1BsfQQcO9C6DZCsRaXUlFlo91Tg2WpOkGARC1WS5S8t0/edit?usp=sharing), Alternate KiCad Library")
  (tags capacitor)
  (attr smd)
  (fp_text reference REF** (at 0 -1.68) (layer F.SilkS)
    (effects (font (size 1 1) (thickness 0.15)))
  )
  (fp_text value C_0805_2012Metric (at 0 1.68) (layer F.Fab)
    (effects (font (size 1 1) (thickness 0.15)))
  )
  (fp_line (start 1.7 0.98) (end -1.7 0.98) (layer F.CrtYd) (width 0.05))
  (fp_line (start 1.7 -0.98) (end 1.7 0.98) (layer F.CrtYd) (width 0.05))
  (fp_line (start -1.7 -0.98) (end 1.7 -0.98) (layer F.CrtYd) (width 0.05))
  (fp_line (start -1.7 0.98) (end -1.7 -0.98) (layer F.CrtYd) (width 0.05))
  (fp_line (start 1 0.625) (end -1 0.625) (layer F.Fab) (width 0.1))
  (fp_line (start 1 -0.625) (end 1 0.625) (layer F.Fab) (width 0.1))
  (fp_line (start -1 -0.625) (end 1 -0.625) (layer F.Fab) (width 0.1))
  (fp_line (start -1 0.625) (end -1 -0.625) (layer F.Fab) (width 0.1))
  (fp_line (start -1.7145 -0.9525) (end -1.7145 0.9525) (layer F.SilkS) (width 0.12))
  (fp_line (start -1.7145 0.9525) (end 1.7145 0.9525) (layer F.SilkS) (width 0.12))
  (fp_line (start 1.7145 0.9525) (end 1.7145 -0.9525) (layer F.SilkS) (width 0.12))
  (fp_line (start 1.7145 -0.9525) (end -1.7145 -0.9525) (layer F.SilkS) (width 0.12))
  (fp_text user %R (at 0 0) (layer F.Fab)
    (effects (font (size 0.5 0.5) (thickness 0.08)))
  )
  (pad 2 smd roundrect (at 0.95 0) (size 1 1.45) (layers F.Cu F.Paste F.Mask) (roundrect_rratio 0.25))
  (pad 1 smd roundrect (at -0.95 0) (size 1 1.45) (layers F.Cu F.Paste F.Mask) (roundrect_rratio 0.25))
  (model ${KISYS3DMOD}/Capacitor_SMD.3dshapes/C_0805_2012Metric.wrl
    (at (xyz 0 0 0))
    (scale (xyz 1 1 1))
    (rotate (xyz 0 0 0))
  )
)
