(module C_1206_3216Metric_Pad1.33x1.80mm (layer F.Cu) (tedit 608D249B)
  (descr "Capacitor SMD 1206 (3216 Metric), square (rectangular) end terminal, IPC_7351 nominal with elongated pad for handsoldering. (Body size source: IPC-SM-782 page 76, https://www.pcb-3d.com/wordpress/wp-content/uploads/ipc-sm-782a_amendment_1_and_2.pdf), Alternate KiCad Library")
  (tags "capacitor handsolder")
  (attr smd)
  (fp_text reference REF** (at 0 -1.85) (layer F.SilkS)
    (effects (font (size 1 1) (thickness 0.15)))
  )
  (fp_text value C_1206_3216Metric_Pad1.33x1.80mm (at 0 1.85) (layer F.Fab)
    (effects (font (size 1 1) (thickness 0.15)))
  )
  (fp_line (start 2.4765 -1.143) (end -2.4765 -1.143) (layer F.SilkS) (width 0.12))
  (fp_line (start 2.4765 1.143) (end 2.4765 -1.143) (layer F.SilkS) (width 0.12))
  (fp_line (start -2.4765 1.143) (end 2.4765 1.143) (layer F.SilkS) (width 0.12))
  (fp_line (start -2.4765 -1.143) (end -2.4765 1.143) (layer F.SilkS) (width 0.12))
  (fp_line (start -1.6 0.8) (end -1.6 -0.8) (layer F.Fab) (width 0.1))
  (fp_line (start -1.6 -0.8) (end 1.6 -0.8) (layer F.Fab) (width 0.1))
  (fp_line (start 1.6 -0.8) (end 1.6 0.8) (layer F.Fab) (width 0.1))
  (fp_line (start 1.6 0.8) (end -1.6 0.8) (layer F.Fab) (width 0.1))
  (fp_line (start -2.48 1.15) (end -2.48 -1.15) (layer F.CrtYd) (width 0.05))
  (fp_line (start -2.48 -1.15) (end 2.48 -1.15) (layer F.CrtYd) (width 0.05))
  (fp_line (start 2.48 -1.15) (end 2.48 1.15) (layer F.CrtYd) (width 0.05))
  (fp_line (start 2.48 1.15) (end -2.48 1.15) (layer F.CrtYd) (width 0.05))
  (fp_text user %R (at 0 0) (layer F.Fab)
    (effects (font (size 0.8 0.8) (thickness 0.12)))
  )
  (pad 2 smd roundrect (at 1.5625 0) (size 1.325 1.8) (layers F.Cu F.Paste F.Mask) (roundrect_rratio 0.188679))
  (pad 1 smd roundrect (at -1.5625 0) (size 1.325 1.8) (layers F.Cu F.Paste F.Mask) (roundrect_rratio 0.188679))
  (model ${KISYS3DMOD}/Capacitor_SMD.3dshapes/C_1206_3216Metric.wrl
    (at (xyz 0 0 0))
    (scale (xyz 1 1 1))
    (rotate (xyz 0 0 0))
  )
)
