(module C_1825_4564Metric_Pad1.57x6.80mm (layer F.Cu) (tedit 608D24FF)
  (descr "Capacitor SMD 1825 (4564 Metric), square (rectangular) end terminal, IPC_7351 nominal with elongated pad for handsoldering. (Body size from: IPC-SM-782 page 76, https://www.pcb-3d.com/wordpress/wp-content/uploads/ipc-sm-782a_amendment_1_and_2.pdf), Alternate KiCad Library")
  (tags "capacitor handsolder")
  (attr smd)
  (fp_text reference REF** (at 0 -4.35) (layer F.SilkS)
    (effects (font (size 1 1) (thickness 0.15)))
  )
  (fp_text value C_1825_4564Metric_Pad1.57x6.80mm (at 0 4.35) (layer F.Fab)
    (effects (font (size 1 1) (thickness 0.15)))
  )
  (fp_line (start 3.175 -3.6195) (end -3.175 -3.6195) (layer F.SilkS) (width 0.12))
  (fp_line (start 3.175 3.6195) (end 3.175 -3.6195) (layer F.SilkS) (width 0.12))
  (fp_line (start -3.175 3.6195) (end 3.175 3.6195) (layer F.SilkS) (width 0.12))
  (fp_line (start -3.175 -3.6195) (end -3.175 3.6195) (layer F.SilkS) (width 0.12))
  (fp_line (start -2.25 3.2) (end -2.25 -3.2) (layer F.Fab) (width 0.1))
  (fp_line (start -2.25 -3.2) (end 2.25 -3.2) (layer F.Fab) (width 0.1))
  (fp_line (start 2.25 -3.2) (end 2.25 3.2) (layer F.Fab) (width 0.1))
  (fp_line (start 2.25 3.2) (end -2.25 3.2) (layer F.Fab) (width 0.1))
  (fp_line (start -3.18 3.65) (end -3.18 -3.65) (layer F.CrtYd) (width 0.05))
  (fp_line (start -3.18 -3.65) (end 3.18 -3.65) (layer F.CrtYd) (width 0.05))
  (fp_line (start 3.18 -3.65) (end 3.18 3.65) (layer F.CrtYd) (width 0.05))
  (fp_line (start 3.18 3.65) (end -3.18 3.65) (layer F.CrtYd) (width 0.05))
  (fp_text user %R (at 0 0) (layer F.Fab)
    (effects (font (size 1 1) (thickness 0.15)))
  )
  (pad 2 smd roundrect (at 2.1375 0) (size 1.575 6.8) (layers F.Cu F.Paste F.Mask) (roundrect_rratio 0.15873))
  (pad 1 smd roundrect (at -2.1375 0) (size 1.575 6.8) (layers F.Cu F.Paste F.Mask) (roundrect_rratio 0.15873))
  (model ${KISYS3DMOD}/Capacitor_SMD.3dshapes/C_1825_4564Metric.wrl
    (at (xyz 0 0 0))
    (scale (xyz 1 1 1))
    (rotate (xyz 0 0 0))
  )
)
