(module C_1812_4532Metric_Pad1.30x3.40mm (layer F.Cu) (tedit 608D24CD)
  (descr "Capacitor SMD 1812 (4532 Metric), square (rectangular) end terminal, IPC_7351 nominal with elongated pad for handsoldering. (Body size source: https://www.nikhef.nl/pub/departments/mt/projects/detectorR_D/dtddice/ERJ2G.pdf), Alternate KiCad Library")
  (tags "capacitor handsolder")
  (attr smd)
  (fp_text reference REF** (at 0 -2.65) (layer F.SilkS)
    (effects (font (size 1 1) (thickness 0.15)))
  )
  (fp_text value C_1812_4532Metric_Pad1.30x3.40mm (at 0 2.65) (layer F.Fab)
    (effects (font (size 1 1) (thickness 0.15)))
  )
  (fp_line (start 3.1115 -1.9685) (end -3.1115 -1.9685) (layer F.SilkS) (width 0.12))
  (fp_line (start 3.1115 1.9685) (end 3.1115 -1.9685) (layer F.SilkS) (width 0.12))
  (fp_line (start -3.1115 1.9685) (end 3.1115 1.9685) (layer F.SilkS) (width 0.12))
  (fp_line (start -3.1115 1.905) (end -3.1115 1.9685) (layer F.SilkS) (width 0.12))
  (fp_line (start -3.1115 -1.9685) (end -3.1115 1.905) (layer F.SilkS) (width 0.12))
  (fp_line (start -2.25 1.6) (end -2.25 -1.6) (layer F.Fab) (width 0.1))
  (fp_line (start -2.25 -1.6) (end 2.25 -1.6) (layer F.Fab) (width 0.1))
  (fp_line (start 2.25 -1.6) (end 2.25 1.6) (layer F.Fab) (width 0.1))
  (fp_line (start 2.25 1.6) (end -2.25 1.6) (layer F.Fab) (width 0.1))
  (fp_line (start -3.12 1.95) (end -3.12 -1.95) (layer F.CrtYd) (width 0.05))
  (fp_line (start -3.12 -1.95) (end 3.12 -1.95) (layer F.CrtYd) (width 0.05))
  (fp_line (start 3.12 -1.95) (end 3.12 1.95) (layer F.CrtYd) (width 0.05))
  (fp_line (start 3.12 1.95) (end -3.12 1.95) (layer F.CrtYd) (width 0.05))
  (fp_text user %R (at 0 0) (layer F.Fab)
    (effects (font (size 1 1) (thickness 0.15)))
  )
  (pad 2 smd roundrect (at 2.225 0) (size 1.3 3.4) (layers F.Cu F.Paste F.Mask) (roundrect_rratio 0.192308))
  (pad 1 smd roundrect (at -2.225 0) (size 1.3 3.4) (layers F.Cu F.Paste F.Mask) (roundrect_rratio 0.192308))
  (model ${KISYS3DMOD}/Capacitor_SMD.3dshapes/C_1812_4532Metric.wrl
    (at (xyz 0 0 0))
    (scale (xyz 1 1 1))
    (rotate (xyz 0 0 0))
  )
)
