(module C_Elec_8x6.2 (layer F.Cu) (tedit 608D23E9)
  (descr "SMD capacitor, aluminum electrolytic nonpolar, 8.0x6.2mm, Alternate KiCad Library")
  (tags "capacitor electrolyic nonpolar")
  (attr smd)
  (fp_text reference REF** (at 0 -5.2) (layer F.SilkS)
    (effects (font (size 1 1) (thickness 0.15)))
  )
  (fp_text value C_Elec_8x6.2 (at 0 5.2) (layer F.Fab)
    (effects (font (size 1 1) (thickness 0.15)))
  )
  (fp_line (start -5.3 1.05) (end -4.4 1.05) (layer F.CrtYd) (width 0.05))
  (fp_line (start -5.3 -1.05) (end -5.3 1.05) (layer F.CrtYd) (width 0.05))
  (fp_line (start -4.4 -1.05) (end -5.3 -1.05) (layer F.CrtYd) (width 0.05))
  (fp_line (start -4.4 1.05) (end -4.4 3.25) (layer F.CrtYd) (width 0.05))
  (fp_line (start -4.4 -3.25) (end -4.4 -1.05) (layer F.CrtYd) (width 0.05))
  (fp_line (start -4.4 -3.25) (end -3.25 -4.4) (layer F.CrtYd) (width 0.05))
  (fp_line (start -4.4 3.25) (end -3.25 4.4) (layer F.CrtYd) (width 0.05))
  (fp_line (start -3.25 -4.4) (end 4.4 -4.4) (layer F.CrtYd) (width 0.05))
  (fp_line (start -3.25 4.4) (end 4.4 4.4) (layer F.CrtYd) (width 0.05))
  (fp_line (start 4.4 1.05) (end 4.4 4.4) (layer F.CrtYd) (width 0.05))
  (fp_line (start 5.3 1.05) (end 4.4 1.05) (layer F.CrtYd) (width 0.05))
  (fp_line (start 5.3 -1.05) (end 5.3 1.05) (layer F.CrtYd) (width 0.05))
  (fp_line (start 4.4 -1.05) (end 5.3 -1.05) (layer F.CrtYd) (width 0.05))
  (fp_line (start 4.4 -4.4) (end 4.4 -1.05) (layer F.CrtYd) (width 0.05))
  (fp_line (start -4.26 3.195563) (end -3.195563 4.26) (layer F.SilkS) (width 0.12))
  (fp_line (start -4.26 -3.195563) (end -3.195563 -4.26) (layer F.SilkS) (width 0.12))
  (fp_line (start -4.26 -3.195563) (end -4.26 -1.06) (layer F.SilkS) (width 0.12))
  (fp_line (start -4.26 3.195563) (end -4.26 1.06) (layer F.SilkS) (width 0.12))
  (fp_line (start -3.195563 4.26) (end 4.26 4.26) (layer F.SilkS) (width 0.12))
  (fp_line (start -3.195563 -4.26) (end 4.26 -4.26) (layer F.SilkS) (width 0.12))
  (fp_line (start 4.26 -4.26) (end 4.26 -1.06) (layer F.SilkS) (width 0.12))
  (fp_line (start 4.26 4.26) (end 4.26 1.06) (layer F.SilkS) (width 0.12))
  (fp_line (start -4.15 3.15) (end -3.15 4.15) (layer F.Fab) (width 0.1))
  (fp_line (start -4.15 -3.15) (end -3.15 -4.15) (layer F.Fab) (width 0.1))
  (fp_line (start -4.15 -3.15) (end -4.15 3.15) (layer F.Fab) (width 0.1))
  (fp_line (start -3.15 4.15) (end 4.15 4.15) (layer F.Fab) (width 0.1))
  (fp_line (start -3.15 -4.15) (end 4.15 -4.15) (layer F.Fab) (width 0.1))
  (fp_line (start 4.15 -4.15) (end 4.15 4.15) (layer F.Fab) (width 0.1))
  (fp_circle (center 0 0) (end 4 0) (layer F.Fab) (width 0.1))
  (fp_text user %R (at 0 0) (layer F.Fab)
    (effects (font (size 1 1) (thickness 0.15)))
  )
  (pad 2 smd roundrect (at 3.0875 0) (size 3.925 1.6) (layers F.Cu F.Paste F.Mask) (roundrect_rratio 0.15625))
  (pad 1 smd roundrect (at -3.0875 0) (size 3.925 1.6) (layers F.Cu F.Paste F.Mask) (roundrect_rratio 0.15625))
  (model ${KISYS3DMOD}/Capacitor_SMD.3dshapes/C_Elec_8x6.2.wrl
    (at (xyz 0 0 0))
    (scale (xyz 1 1 1))
    (rotate (xyz 0 0 0))
  )
)
