(module CP_Elec_18x22 (layer F.Cu) (tedit 608D1BF8)
  (descr "SMD capacitor, aluminum electrolytic, Vishay 1821, 18.0x22.0mm, http://www.vishay.com/docs/28395/150crz.pdf, Alternate KiCad Library")
  (tags "capacitor electrolytic")
  (attr smd)
  (fp_text reference REF** (at 0 -10.55) (layer F.SilkS)
    (effects (font (size 1 1) (thickness 0.15)))
  )
  (fp_text value CP_Elec_18x22 (at 0 10.55) (layer F.Fab)
    (effects (font (size 1 1) (thickness 0.15)))
  )
  (fp_line (start -11.4 5.05) (end -9.75 5.05) (layer F.CrtYd) (width 0.05))
  (fp_line (start -11.4 -5.05) (end -11.4 5.05) (layer F.CrtYd) (width 0.05))
  (fp_line (start -9.75 -5.05) (end -11.4 -5.05) (layer F.CrtYd) (width 0.05))
  (fp_line (start -9.75 5.05) (end -9.75 8.6) (layer F.CrtYd) (width 0.05))
  (fp_line (start -9.75 -8.6) (end -9.75 -5.05) (layer F.CrtYd) (width 0.05))
  (fp_line (start -9.75 -8.6) (end -8.6 -9.75) (layer F.CrtYd) (width 0.05))
  (fp_line (start -9.75 8.6) (end -8.6 9.75) (layer F.CrtYd) (width 0.05))
  (fp_line (start -8.6 -9.75) (end 9.75 -9.75) (layer F.CrtYd) (width 0.05))
  (fp_line (start -8.6 9.75) (end 9.75 9.75) (layer F.CrtYd) (width 0.05))
  (fp_line (start 9.75 5.05) (end 9.75 9.75) (layer F.CrtYd) (width 0.05))
  (fp_line (start 11.4 5.05) (end 9.75 5.05) (layer F.CrtYd) (width 0.05))
  (fp_line (start 11.4 -5.05) (end 11.4 5.05) (layer F.CrtYd) (width 0.05))
  (fp_line (start 9.75 -5.05) (end 11.4 -5.05) (layer F.CrtYd) (width 0.05))
  (fp_line (start 9.75 -9.75) (end 9.75 -5.05) (layer F.CrtYd) (width 0.05))
  (fp_line (start -10.975 -8.435) (end -10.975 -6.185) (layer F.SilkS) (width 0.12))
  (fp_line (start -12.1 -7.31) (end -9.85 -7.31) (layer F.SilkS) (width 0.12))
  (fp_line (start -9.61 8.545563) (end -8.545563 9.61) (layer F.SilkS) (width 0.12))
  (fp_line (start -9.61 -8.545563) (end -8.545563 -9.61) (layer F.SilkS) (width 0.12))
  (fp_line (start -9.61 -8.545563) (end -9.61 -5.06) (layer F.SilkS) (width 0.12))
  (fp_line (start -9.61 8.545563) (end -9.61 5.06) (layer F.SilkS) (width 0.12))
  (fp_line (start -8.545563 9.61) (end 9.61 9.61) (layer F.SilkS) (width 0.12))
  (fp_line (start -8.545563 -9.61) (end 9.61 -9.61) (layer F.SilkS) (width 0.12))
  (fp_line (start 9.61 -9.61) (end 9.61 -5.06) (layer F.SilkS) (width 0.12))
  (fp_line (start 9.61 9.61) (end 9.61 5.06) (layer F.SilkS) (width 0.12))
  (fp_line (start -7.599342 -3.4) (end -7.599342 -1.6) (layer F.Fab) (width 0.1))
  (fp_line (start -8.499342 -2.5) (end -6.699342 -2.5) (layer F.Fab) (width 0.1))
  (fp_line (start -9.5 8.5) (end -8.5 9.5) (layer F.Fab) (width 0.1))
  (fp_line (start -9.5 -8.5) (end -8.5 -9.5) (layer F.Fab) (width 0.1))
  (fp_line (start -9.5 -8.5) (end -9.5 8.5) (layer F.Fab) (width 0.1))
  (fp_line (start -8.5 9.5) (end 9.5 9.5) (layer F.Fab) (width 0.1))
  (fp_line (start -8.5 -9.5) (end 9.5 -9.5) (layer F.Fab) (width 0.1))
  (fp_line (start 9.5 -9.5) (end 9.5 9.5) (layer F.Fab) (width 0.1))
  (fp_circle (center 0 0) (end 9 0) (layer F.Fab) (width 0.1))
  (fp_text user %R (at 0 0) (layer F.Fab)
    (effects (font (size 1 1) (thickness 0.15)))
  )
  (pad 2 smd roundrect (at 6.75 0) (size 8.8 9.6) (layers F.Cu F.Paste F.Mask) (roundrect_rratio 0.028409))
  (pad 1 smd roundrect (at -6.75 0) (size 8.8 9.6) (layers F.Cu F.Paste F.Mask) (roundrect_rratio 0.028409))
  (model ${KISYS3DMOD}/Capacitor_SMD.3dshapes/CP_Elec_18x22.wrl
    (at (xyz 0 0 0))
    (scale (xyz 1 1 1))
    (rotate (xyz 0 0 0))
  )
)
