(module C_0402_1005Metric (layer F.Cu) (tedit 60781425)
  (descr "Capacitor SMD 0402 (1005 Metric), square (rectangular) end terminal, IPC_7351 nominal, (Body size source: IPC-SM-782 page 76, https://www.pcb-3d.com/wordpress/wp-content/uploads/ipc-sm-782a_amendment_1_and_2.pdf), Alternate KiCad Library")
  (tags capacitor)
  (attr smd)
  (fp_text reference REF** (at 0 -1.16) (layer F.SilkS)
    (effects (font (size 1 1) (thickness 0.15)))
  )
  (fp_text value C_0402_1005Metric (at 0 1.16) (layer F.Fab)
    (effects (font (size 1 1) (thickness 0.15)))
  )
  (fp_line (start 0.9652 -0.508) (end -0.9652 -0.508) (layer F.SilkS) (width 0.12))
  (fp_line (start 0.9652 0.508) (end 0.9652 -0.508) (layer F.SilkS) (width 0.12))
  (fp_line (start -0.9652 0.508) (end 0.9652 0.508) (layer F.SilkS) (width 0.12))
  (fp_line (start -0.9652 0.3048) (end -0.9652 0.508) (layer F.SilkS) (width 0.12))
  (fp_line (start -0.9652 -0.508) (end -0.9652 0.3048) (layer F.SilkS) (width 0.12))
  (fp_line (start -0.5 0.25) (end -0.5 -0.25) (layer F.Fab) (width 0.1))
  (fp_line (start -0.5 -0.25) (end 0.5 -0.25) (layer F.Fab) (width 0.1))
  (fp_line (start 0.5 -0.25) (end 0.5 0.25) (layer F.Fab) (width 0.1))
  (fp_line (start 0.5 0.25) (end -0.5 0.25) (layer F.Fab) (width 0.1))
  (fp_line (start -0.91 0.46) (end -0.91 -0.46) (layer F.CrtYd) (width 0.05))
  (fp_line (start -0.91 -0.46) (end 0.91 -0.46) (layer F.CrtYd) (width 0.05))
  (fp_line (start 0.91 -0.46) (end 0.91 0.46) (layer F.CrtYd) (width 0.05))
  (fp_line (start 0.91 0.46) (end -0.91 0.46) (layer F.CrtYd) (width 0.05))
  (fp_text user %R (at 0 0) (layer F.Fab)
    (effects (font (size 0.25 0.25) (thickness 0.04)))
  )
  (pad 2 smd roundrect (at 0.48 0) (size 0.56 0.62) (layers F.Cu F.Paste F.Mask) (roundrect_rratio 0.25))
  (pad 1 smd roundrect (at -0.48 0) (size 0.56 0.62) (layers F.Cu F.Paste F.Mask) (roundrect_rratio 0.25))
  (model ${KISYS3DMOD}/Capacitor_SMD.3dshapes/C_0402_1005Metric.wrl
    (at (xyz 0 0 0))
    (scale (xyz 1 1 1))
    (rotate (xyz 0 0 0))
  )
)
