(module C_1210_3225Metric_Pad1.42x2.65mm (layer F.Cu) (tedit 608D1AB8)
  (descr "Capacitor SMD 1210 (3225 Metric), square (rectangular) end terminal, IPC_7351 nominal with elongated pad for handsoldering. (Body size source: http://www.tortai-tech.com/upload/download/2011102023233369053.pdf), Alternate KiCad Library")
  (tags "capacitor handsolder")
  (attr smd)
  (fp_text reference REF** (at 0 -2.28) (layer F.SilkS)
    (effects (font (size 1 1) (thickness 0.15)))
  )
  (fp_text value C_1210_3225Metric_Pad1.42x2.65mm (at 0 2.28) (layer F.Fab)
    (effects (font (size 1 1) (thickness 0.15)))
  )
  (fp_line (start -0.254 0) (end -0.508 0) (layer F.SilkS) (width 0.12))
  (fp_line (start 0.254 0) (end 0.508 0) (layer F.SilkS) (width 0.12))
  (fp_line (start -0.254 0) (end -0.254 0.889) (layer F.SilkS) (width 0.12))
  (fp_line (start 0.254 -0.889) (end 0.254 0.889) (layer F.SilkS) (width 0.12))
  (fp_line (start -0.254 -0.889) (end -0.254 0) (layer F.SilkS) (width 0.12))
  (fp_line (start -1.6 1.25) (end -1.6 -1.25) (layer F.Fab) (width 0.1))
  (fp_line (start -1.6 -1.25) (end 1.6 -1.25) (layer F.Fab) (width 0.1))
  (fp_line (start 1.6 -1.25) (end 1.6 1.25) (layer F.Fab) (width 0.1))
  (fp_line (start 1.6 1.25) (end -1.6 1.25) (layer F.Fab) (width 0.1))
  (fp_line (start -2.45 1.58) (end -2.45 -1.58) (layer F.CrtYd) (width 0.05))
  (fp_line (start -2.45 -1.58) (end 2.45 -1.58) (layer F.CrtYd) (width 0.05))
  (fp_line (start 2.45 -1.58) (end 2.45 1.58) (layer F.CrtYd) (width 0.05))
  (fp_line (start 2.45 1.58) (end -2.45 1.58) (layer F.CrtYd) (width 0.05))
  (fp_line (start -2.4765 -1.5875) (end -2.4765 1.5875) (layer F.SilkS) (width 0.12))
  (fp_line (start -2.4765 1.5875) (end 2.4765 1.5875) (layer F.SilkS) (width 0.12))
  (fp_line (start 2.4765 1.5875) (end 2.4765 -1.5875) (layer F.SilkS) (width 0.12))
  (fp_line (start 2.4765 -1.5875) (end -2.4765 -1.5875) (layer F.SilkS) (width 0.12))
  (fp_text user %R (at 0 0) (layer F.Fab)
    (effects (font (size 0.8 0.8) (thickness 0.12)))
  )
  (pad 2 smd roundrect (at 1.4875 0) (size 1.425 2.65) (layers F.Cu F.Paste F.Mask) (roundrect_rratio 0.175439))
  (pad 1 smd roundrect (at -1.4875 0) (size 1.425 2.65) (layers F.Cu F.Paste F.Mask) (roundrect_rratio 0.175439))
  (model ${KISYS3DMOD}/Capacitor_SMD.3dshapes/C_1210_3225Metric.wrl
    (at (xyz 0 0 0))
    (scale (xyz 1 1 1))
    (rotate (xyz 0 0 0))
  )
)
