(module C_2816_7142Metric (layer F.Cu) (tedit 60781740)
  (descr "Capacitor SMD 2816 (7142 Metric), square (rectangular) end terminal, IPC_7351 nominal, (Body size from: https://www.vishay.com/docs/30100/wsl.pdf), Alternate KiCad Library")
  (tags capacitor)
  (attr smd)
  (fp_text reference REF** (at 0 -3.18) (layer F.SilkS)
    (effects (font (size 1 1) (thickness 0.15)))
  )
  (fp_text value C_2816_7142Metric (at 0 3.18) (layer F.Fab)
    (effects (font (size 1 1) (thickness 0.15)))
  )
  (fp_line (start 4.318 2.4765) (end 4.318 -2.4765) (layer F.SilkS) (width 0.12))
  (fp_line (start -4.318 2.4765) (end 4.318 2.4765) (layer F.SilkS) (width 0.12))
  (fp_line (start -4.318 -2.4765) (end -4.318 2.4765) (layer F.SilkS) (width 0.12))
  (fp_line (start -4.2545 -2.4765) (end -4.318 -2.4765) (layer F.SilkS) (width 0.12))
  (fp_line (start 4.318 -2.4765) (end -4.2545 -2.4765) (layer F.SilkS) (width 0.12))
  (fp_line (start -0.6985 0) (end -0.254 0) (layer F.SilkS) (width 0.12))
  (fp_line (start 0.254 0) (end 0.6985 0) (layer F.SilkS) (width 0.12))
  (fp_line (start 0.254 -0.635) (end 0.254 0) (layer F.SilkS) (width 0.12))
  (fp_line (start 0.254 0) (end 0.254 0.635) (layer F.SilkS) (width 0.12))
  (fp_line (start -0.254 0) (end -0.254 0.635) (layer F.SilkS) (width 0.12))
  (fp_line (start -0.254 -0.635) (end -0.254 0) (layer F.SilkS) (width 0.12))
  (fp_line (start -3.55 2.1) (end -3.55 -2.1) (layer F.Fab) (width 0.1))
  (fp_line (start -3.55 -2.1) (end 3.55 -2.1) (layer F.Fab) (width 0.1))
  (fp_line (start 3.55 -2.1) (end 3.55 2.1) (layer F.Fab) (width 0.1))
  (fp_line (start 3.55 2.1) (end -3.55 2.1) (layer F.Fab) (width 0.1))
  (fp_line (start -4.28 2.48) (end -4.28 -2.48) (layer F.CrtYd) (width 0.05))
  (fp_line (start -4.28 -2.48) (end 4.28 -2.48) (layer F.CrtYd) (width 0.05))
  (fp_line (start 4.28 -2.48) (end 4.28 2.48) (layer F.CrtYd) (width 0.05))
  (fp_line (start 4.28 2.48) (end -4.28 2.48) (layer F.CrtYd) (width 0.05))
  (fp_text user %R (at 0 0) (layer F.Fab)
    (effects (font (size 1 1) (thickness 0.15)))
  )
  (pad 2 smd roundrect (at 2.5125 0) (size 3.025 4.45) (layers F.Cu F.Paste F.Mask) (roundrect_rratio 0.082645))
  (pad 1 smd roundrect (at -2.5125 0) (size 3.025 4.45) (layers F.Cu F.Paste F.Mask) (roundrect_rratio 0.082645))
  (model ${KISYS3DMOD}/Capacitor_SMD.3dshapes/C_2816_7142Metric.wrl
    (at (xyz 0 0 0))
    (scale (xyz 1 1 1))
    (rotate (xyz 0 0 0))
  )
)
