(module C_3640_9110Metric_Pad2.10x10.45mm (layer F.Cu) (tedit 608D1B43)
  (descr "Capacitor SMD 3640 (9110 Metric), square (rectangular) end terminal, IPC_7351 nominal with elongated pad for handsoldering. (Body size from: http://datasheets.avx.com/AVX-HV_MLCC.pdf), Alternate KiCad Library")
  (tags "capacitor handsolder")
  (attr smd)
  (fp_text reference REF** (at 0 -6.18) (layer F.SilkS)
    (effects (font (size 1 1) (thickness 0.15)))
  )
  (fp_text value C_3640_9110Metric_Pad2.10x10.45mm (at 0 6.18) (layer F.Fab)
    (effects (font (size 1 1) (thickness 0.15)))
  )
  (fp_line (start 5.48 5.48) (end -5.48 5.48) (layer F.CrtYd) (width 0.05))
  (fp_line (start 5.48 -5.48) (end 5.48 5.48) (layer F.CrtYd) (width 0.05))
  (fp_line (start -5.48 -5.48) (end 5.48 -5.48) (layer F.CrtYd) (width 0.05))
  (fp_line (start -5.48 5.48) (end -5.48 -5.48) (layer F.CrtYd) (width 0.05))
  (fp_line (start 4.57 5.1) (end -4.57 5.1) (layer F.Fab) (width 0.1))
  (fp_line (start 4.57 -5.1) (end 4.57 5.1) (layer F.Fab) (width 0.1))
  (fp_line (start -4.57 -5.1) (end 4.57 -5.1) (layer F.Fab) (width 0.1))
  (fp_line (start -4.57 5.1) (end -4.57 -5.1) (layer F.Fab) (width 0.1))
  (fp_line (start -0.635 3.175) (end -0.635 0) (layer F.SilkS) (width 0.2))
  (fp_line (start -0.635 -3.175) (end -0.635 0) (layer F.SilkS) (width 0.2))
  (fp_line (start -0.635 0) (end -2.8575 0) (layer F.SilkS) (width 0.12))
  (fp_line (start 0.635 0) (end 2.8575 0) (layer F.SilkS) (width 0.12))
  (fp_line (start 0.635 3.175) (end 0.635 0) (layer F.SilkS) (width 0.2))
  (fp_line (start 0.635 -3.175) (end 0.635 0) (layer F.SilkS) (width 0.2))
  (fp_line (start -5.461 -5.461) (end -5.461 5.461) (layer F.SilkS) (width 0.12))
  (fp_line (start -5.461 5.461) (end 5.461 5.461) (layer F.SilkS) (width 0.12))
  (fp_line (start 5.461 5.461) (end 5.461 -5.461) (layer F.SilkS) (width 0.12))
  (fp_line (start 5.461 -5.461) (end -5.461 -5.461) (layer F.SilkS) (width 0.12))
  (fp_text user %R (at 0 0) (layer F.Fab)
    (effects (font (size 1 1) (thickness 0.15)))
  )
  (pad 2 smd roundrect (at 4.175 0) (size 2.1 10.45) (layers F.Cu F.Paste F.Mask) (roundrect_rratio 0.119048))
  (pad 1 smd roundrect (at -4.175 0) (size 2.1 10.45) (layers F.Cu F.Paste F.Mask) (roundrect_rratio 0.119048))
  (model ${KISYS3DMOD}/Capacitor_SMD.3dshapes/C_3640_9110Metric.wrl
    (at (xyz 0 0 0))
    (scale (xyz 1 1 1))
    (rotate (xyz 0 0 0))
  )
)
