(module C_Trimmer_Voltronics_JZ (layer F.Cu) (tedit 60781842)
  (descr "trimmer capacitor SMD horizontal, http://www.knowlescapacitors.com/File%20Library/Voltronics/English/GlobalNavigation/Products/Trimmer%20Capacitors/CerChipTrimCap.pdf, Alternate KiCad Library")
  (tags " Voltronics JR")
  (attr smd)
  (fp_text reference REF** (at 0 -2.85) (layer F.SilkS)
    (effects (font (size 1 1) (thickness 0.15)))
  )
  (fp_text value C_Trimmer_Voltronics_JZ (at 0 2.85) (layer F.Fab)
    (effects (font (size 1 1) (thickness 0.15)))
  )
  (fp_line (start 2.667 -1.778) (end 2.667 -1.8415) (layer F.SilkS) (width 0.12))
  (fp_line (start 2.667 1.8415) (end 2.667 -1.778) (layer F.SilkS) (width 0.12))
  (fp_line (start -2.667 1.8415) (end 2.667 1.8415) (layer F.SilkS) (width 0.12))
  (fp_line (start -2.667 -1.8415) (end -2.667 1.8415) (layer F.SilkS) (width 0.12))
  (fp_line (start 2.667 -1.8415) (end -2.667 -1.8415) (layer F.SilkS) (width 0.12))
  (fp_line (start 0 0) (end -0.762 0.762) (layer F.SilkS) (width 0.12))
  (fp_line (start 1.016 -1.016) (end 0.762 -1.016) (layer F.SilkS) (width 0.12))
  (fp_line (start 1.27 0) (end 0.3175 0) (layer F.SilkS) (width 0.12))
  (fp_line (start 0.3175 -1.3335) (end 0.3175 1.3335) (layer F.SilkS) (width 0.2))
  (fp_line (start 0.762 -0.762) (end 1.016 -1.016) (layer F.SilkS) (width 0.12))
  (fp_line (start 0 0) (end 0.762 -0.762) (layer F.SilkS) (width 0.12))
  (fp_line (start 1.016 -1.016) (end 1.016 -0.762) (layer F.SilkS) (width 0.12))
  (fp_line (start -0.762 0.762) (end -1.016 1.016) (layer F.SilkS) (width 0.12))
  (fp_line (start -0.3175 -1.3335) (end -0.3175 1.3335) (layer F.SilkS) (width 0.2))
  (fp_line (start -0.3175 0) (end -1.27 0) (layer F.SilkS) (width 0.12))
  (fp_circle (center 0 0) (end 1.6 0) (layer F.Fab) (width 0.1))
  (fp_line (start -1.95 -1.3) (end -1.65 -1.6) (layer F.Fab) (width 0.1))
  (fp_line (start -1.65 -1.6) (end 2.24 -1.6) (layer F.Fab) (width 0.1))
  (fp_line (start 2.24 -1.6) (end 2.25 -1.6) (layer F.Fab) (width 0.1))
  (fp_line (start 2.25 -1.6) (end 2.25 -1.59) (layer F.Fab) (width 0.1))
  (fp_line (start 2.25 -1.59) (end 2.25 1.59) (layer F.Fab) (width 0.1))
  (fp_line (start 2.25 1.59) (end 2.25 1.6) (layer F.Fab) (width 0.1))
  (fp_line (start 2.25 1.6) (end 2.24 1.6) (layer F.Fab) (width 0.1))
  (fp_line (start 2.24 1.6) (end -1.65 1.6) (layer F.Fab) (width 0.1))
  (fp_line (start -1.65 1.6) (end -1.95 1.3) (layer F.Fab) (width 0.1))
  (fp_line (start -1.95 1.3) (end -2.25 1) (layer F.Fab) (width 0.1))
  (fp_line (start -2.25 1) (end -2.25 -1) (layer F.Fab) (width 0.1))
  (fp_line (start -2.25 -1) (end -1.95 -1.3) (layer F.Fab) (width 0.1))
  (fp_line (start -2.65 -1.85) (end -2.65 1.85) (layer F.CrtYd) (width 0.05))
  (fp_line (start -2.65 1.85) (end 2.65 1.85) (layer F.CrtYd) (width 0.05))
  (fp_line (start 2.65 1.85) (end 2.65 -1.85) (layer F.CrtYd) (width 0.05))
  (fp_line (start 2.65 -1.85) (end -2.65 -1.85) (layer F.CrtYd) (width 0.05))
  (fp_text user %R (at 0 0) (layer F.Fab)
    (effects (font (size 0.5 0.5) (thickness 0.05)))
  )
  (pad 2 smd rect (at 1.95 0) (size 0.9 1.4) (layers F.Cu F.Paste F.Mask))
  (pad 1 smd rect (at -1.95 0) (size 0.9 1.4) (layers F.Cu F.Paste F.Mask))
  (model ${KISYS3DMOD}/Capacitor_SMD.3dshapes/C_Trimmer_Voltronics_JZ.wrl
    (at (xyz 0 0 0))
    (scale (xyz 1 1 1))
    (rotate (xyz 0 0 0))
  )
)
