(module C_Trimmer_Murata_TZB4-A (layer F.Cu) (tedit 60781805)
  (descr "trimmer capacitor SMD horizontal, http://www.murata.com/~/media/webrenewal/support/library/catalog/products/capacitor/trimmer/t13e.ashx?la=en-gb, Alternate KiCad Library")
  (tags " Murata TZB4 TZB4-A")
  (attr smd)
  (fp_text reference REF** (at 0 -3.25) (layer F.SilkS)
    (effects (font (size 1 1) (thickness 0.15)))
  )
  (fp_text value C_Trimmer_Murata_TZB4-A (at 0 3.25) (layer F.Fab)
    (effects (font (size 1 1) (thickness 0.15)))
  )
  (fp_line (start 0.762 -0.762) (end 0.762 -0.5715) (layer F.SilkS) (width 0.12))
  (fp_line (start 0.762 -0.762) (end 0.5715 -0.762) (layer F.SilkS) (width 0.12))
  (fp_line (start -0.635 0.635) (end 0.762 -0.762) (layer F.SilkS) (width 0.12))
  (fp_line (start 0.9525 0) (end 0.3175 0) (layer F.SilkS) (width 0.12))
  (fp_line (start -0.3175 0) (end -0.9525 0) (layer F.SilkS) (width 0.12))
  (fp_line (start 0.3175 -1.0795) (end 0.3175 1.0795) (layer F.SilkS) (width 0.2))
  (fp_line (start -0.3175 -1.0795) (end -0.3175 1.0795) (layer F.SilkS) (width 0.2))
  (fp_line (start 3.7465 -2.2225) (end -3.7465 -2.2225) (layer F.SilkS) (width 0.12))
  (fp_line (start 3.7465 2.2225) (end 3.7465 -2.2225) (layer F.SilkS) (width 0.12))
  (fp_line (start -3.7465 2.2225) (end 3.7465 2.2225) (layer F.SilkS) (width 0.12))
  (fp_line (start -3.7465 -2.2225) (end -3.7465 2.2225) (layer F.SilkS) (width 0.12))
  (fp_circle (center 0 0) (end 2 0) (layer F.Fab) (width 0.1))
  (fp_line (start -2.25 -2) (end -2.24 -2) (layer F.Fab) (width 0.1))
  (fp_line (start -2.24 -2) (end 2.24 -2) (layer F.Fab) (width 0.1))
  (fp_line (start 2.24 -2) (end 2.25 -2) (layer F.Fab) (width 0.1))
  (fp_line (start 2.25 -2) (end 2.25 -1.99) (layer F.Fab) (width 0.1))
  (fp_line (start 2.25 -1.99) (end 2.25 1.99) (layer F.Fab) (width 0.1))
  (fp_line (start 2.25 1.99) (end 2.25 2) (layer F.Fab) (width 0.1))
  (fp_line (start 2.25 2) (end 2.24 2) (layer F.Fab) (width 0.1))
  (fp_line (start 2.24 2) (end -2.24 2) (layer F.Fab) (width 0.1))
  (fp_line (start -2.24 2) (end -2.25 2) (layer F.Fab) (width 0.1))
  (fp_line (start -2.25 2) (end -2.25 1.99) (layer F.Fab) (width 0.1))
  (fp_line (start -2.25 1.99) (end -2.25 -1.99) (layer F.Fab) (width 0.1))
  (fp_line (start -2.25 -1.99) (end -2.25 -2) (layer F.Fab) (width 0.1))
  (fp_line (start 2.25 -0.6) (end 2.5 -0.6) (layer F.Fab) (width 0.1))
  (fp_line (start 2.5 -0.6) (end 2.5 0.6) (layer F.Fab) (width 0.1))
  (fp_line (start 2.5 0.6) (end 2.25 0.6) (layer F.Fab) (width 0.1))
  (fp_line (start -2.25 -0.6) (end -2.5 -0.6) (layer F.Fab) (width 0.1))
  (fp_line (start -2.5 -0.6) (end -2.5 0.6) (layer F.Fab) (width 0.1))
  (fp_line (start -2.5 0.6) (end -2.25 0.6) (layer F.Fab) (width 0.1))
  (fp_line (start -3.75 -2.25) (end -3.75 2.25) (layer F.CrtYd) (width 0.05))
  (fp_line (start -3.75 2.25) (end 3.75 2.25) (layer F.CrtYd) (width 0.05))
  (fp_line (start 3.75 2.25) (end 3.75 -2.25) (layer F.CrtYd) (width 0.05))
  (fp_line (start 3.75 -2.25) (end -3.75 -2.25) (layer F.CrtYd) (width 0.05))
  (fp_text user %R (at 0 0) (layer F.Fab)
    (effects (font (size 0.5 0.5) (thickness 0.05)))
  )
  (pad 2 smd rect (at 2.35 0) (size 2.3 1.6) (layers F.Cu F.Paste F.Mask))
  (pad 1 smd rect (at -2.35 0) (size 2.3 1.6) (layers F.Cu F.Paste F.Mask))
  (model ${KISYS3DMOD}/Capacitor_SMD.3dshapes/C_Trimmer_Murata_TZB4-A.wrl
    (at (xyz 0 0 0))
    (scale (xyz 1 1 1))
    (rotate (xyz 0 0 0))
  )
)
