(module CP_Elec_10x7.7 (layer F.Cu) (tedit 6078139B)
  (descr "SMD capacitor, aluminum electrolytic, Nichicon, 10.0x7.7mm, Alternate KiCad Library")
  (tags "capacitor electrolytic")
  (attr smd)
  (fp_text reference REF** (at 0 -6.2) (layer F.SilkS)
    (effects (font (size 1 1) (thickness 0.15)))
  )
  (fp_text value CP_Elec_10x7.7 (at 0 6.2) (layer F.Fab)
    (effects (font (size 1 1) (thickness 0.15)))
  )
  (fp_poly (pts (xy 0.8255 1.27) (xy 0.3175 1.27) (xy 0.3175 -1.27) (xy 0.8255 -1.27)) (layer F.SilkS) (width 0.1))
  (fp_line (start -1.8415 0) (end -0.8255 0) (layer F.SilkS) (width 0.12))
  (fp_line (start 0.8255 0) (end 1.8415 0) (layer F.SilkS) (width 0.12))
  (fp_line (start 0.3175 1.27) (end 0.8255 1.27) (layer F.SilkS) (width 0.12))
  (fp_line (start -0.3175 1.27) (end -0.8255 1.27) (layer F.SilkS) (width 0.12))
  (fp_line (start -0.3175 -1.27) (end -0.8255 -1.27) (layer F.SilkS) (width 0.12))
  (fp_line (start 0.8255 -1.27) (end 0.3175 -1.27) (layer F.SilkS) (width 0.12))
  (fp_line (start 0.8255 1.27) (end 0.8255 -1.27) (layer F.SilkS) (width 0.12))
  (fp_line (start -0.8255 1.27) (end -0.8255 -1.27) (layer F.SilkS) (width 0.12))
  (fp_line (start 0.3175 -1.27) (end 0.3175 -0.1905) (layer F.SilkS) (width 0.12))
  (fp_line (start 0.3175 -0.254) (end 0.3175 1.27) (layer F.SilkS) (width 0.12))
  (fp_line (start -0.3175 -1.27) (end -0.3175 1.27) (layer F.SilkS) (width 0.12))
  (fp_circle (center 0 0) (end 5 0) (layer F.Fab) (width 0.1))
  (fp_line (start 5.15 -5.15) (end 5.15 5.15) (layer F.Fab) (width 0.1))
  (fp_line (start -4.15 -5.15) (end 5.15 -5.15) (layer F.Fab) (width 0.1))
  (fp_line (start -4.15 5.15) (end 5.15 5.15) (layer F.Fab) (width 0.1))
  (fp_line (start -5.15 -4.15) (end -5.15 4.15) (layer F.Fab) (width 0.1))
  (fp_line (start -5.15 -4.15) (end -4.15 -5.15) (layer F.Fab) (width 0.1))
  (fp_line (start -5.15 4.15) (end -4.15 5.15) (layer F.Fab) (width 0.1))
  (fp_line (start -4.558325 -1.7) (end -3.558325 -1.7) (layer F.Fab) (width 0.1))
  (fp_line (start -4.058325 -2.2) (end -4.058325 -1.2) (layer F.Fab) (width 0.1))
  (fp_line (start 5.26 5.26) (end 5.26 1.21) (layer F.SilkS) (width 0.12))
  (fp_line (start 5.26 -5.26) (end 5.26 -1.21) (layer F.SilkS) (width 0.12))
  (fp_line (start -4.195563 -5.26) (end 5.26 -5.26) (layer F.SilkS) (width 0.12))
  (fp_line (start -4.195563 5.26) (end 5.26 5.26) (layer F.SilkS) (width 0.12))
  (fp_line (start -5.26 4.195563) (end -5.26 1.21) (layer F.SilkS) (width 0.12))
  (fp_line (start -5.26 -4.195563) (end -5.26 -1.21) (layer F.SilkS) (width 0.12))
  (fp_line (start -5.26 -4.195563) (end -4.195563 -5.26) (layer F.SilkS) (width 0.12))
  (fp_line (start -5.26 4.195563) (end -4.195563 5.26) (layer F.SilkS) (width 0.12))
  (fp_line (start -6.75 -2.46) (end -5.5 -2.46) (layer F.SilkS) (width 0.12))
  (fp_line (start -6.125 -3.085) (end -6.125 -1.835) (layer F.SilkS) (width 0.12))
  (fp_line (start 5.4 -5.4) (end 5.4 -1.2) (layer F.CrtYd) (width 0.05))
  (fp_line (start 5.4 -1.2) (end 6.8 -1.2) (layer F.CrtYd) (width 0.05))
  (fp_line (start 6.8 -1.2) (end 6.8 1.2) (layer F.CrtYd) (width 0.05))
  (fp_line (start 6.8 1.2) (end 5.4 1.2) (layer F.CrtYd) (width 0.05))
  (fp_line (start 5.4 1.2) (end 5.4 5.4) (layer F.CrtYd) (width 0.05))
  (fp_line (start -4.25 5.4) (end 5.4 5.4) (layer F.CrtYd) (width 0.05))
  (fp_line (start -4.25 -5.4) (end 5.4 -5.4) (layer F.CrtYd) (width 0.05))
  (fp_line (start -5.4 4.25) (end -4.25 5.4) (layer F.CrtYd) (width 0.05))
  (fp_line (start -5.4 -4.25) (end -4.25 -5.4) (layer F.CrtYd) (width 0.05))
  (fp_line (start -5.4 -4.25) (end -5.4 -1.2) (layer F.CrtYd) (width 0.05))
  (fp_line (start -5.4 1.2) (end -5.4 4.25) (layer F.CrtYd) (width 0.05))
  (fp_line (start -5.4 -1.2) (end -6.8 -1.2) (layer F.CrtYd) (width 0.05))
  (fp_line (start -6.8 -1.2) (end -6.8 1.2) (layer F.CrtYd) (width 0.05))
  (fp_line (start -6.8 1.2) (end -5.4 1.2) (layer F.CrtYd) (width 0.05))
  (fp_text user %R (at 0 0) (layer F.Fab)
    (effects (font (size 1 1) (thickness 0.15)))
  )
  (pad 2 smd roundrect (at 4.35 0) (size 4.4 1.9) (layers F.Cu F.Paste F.Mask) (roundrect_rratio 0.131579))
  (pad 1 smd roundrect (at -4.35 0) (size 4.4 1.9) (layers F.Cu F.Paste F.Mask) (roundrect_rratio 0.131579))
  (model ${KISYS3DMOD}/Capacitor_SMD.3dshapes/CP_Elec_10x7.7.wrl
    (at (xyz 0 0 0))
    (scale (xyz 1 1 1))
    (rotate (xyz 0 0 0))
  )
)
