(module CP_Elec_5x5.4 (layer F.Cu) (tedit 60780DC7)
  (descr "SMD capacitor, aluminum electrolytic, Nichicon, 5.0x5.4mm, Alternate KiCad Library")
  (tags "capacitor electrolytic")
  (attr smd)
  (fp_text reference REF** (at 0 -3.7) (layer F.SilkS)
    (effects (font (size 1 1) (thickness 0.15)))
  )
  (fp_text value CP_Elec_5x5.4 (at 0 3.7) (layer F.Fab)
    (effects (font (size 1 1) (thickness 0.15)))
  )
  (fp_line (start 0.127 -0.4445) (end 0.127 -0.1905) (layer F.SilkS) (width 0.12))
  (fp_line (start 0.381 0.4445) (end 0.381 -0.4445) (layer F.SilkS) (width 0.12))
  (fp_line (start 0.127 -0.1905) (end 0.127 0.4445) (layer F.SilkS) (width 0.12))
  (fp_line (start -0.381 0.4445) (end -0.381 -0.4445) (layer F.SilkS) (width 0.12))
  (fp_line (start -0.127 -0.4445) (end -0.127 0.4445) (layer F.SilkS) (width 0.12))
  (fp_poly (pts (xy 0.381 0.4445) (xy 0.127 0.4445) (xy 0.127 -0.4445) (xy 0.381 -0.4445)) (layer F.SilkS) (width 0.1))
  (fp_line (start 0.381 0) (end 0.4445 0) (layer F.SilkS) (width 0.12))
  (fp_line (start -0.381 0) (end -0.4445 0) (layer F.SilkS) (width 0.12))
  (fp_line (start -0.381 0.4445) (end -0.127 0.4445) (layer F.SilkS) (width 0.12))
  (fp_line (start -0.127 -0.4445) (end -0.381 -0.4445) (layer F.SilkS) (width 0.12))
  (fp_line (start 0.127 -0.4445) (end 0.381 -0.4445) (layer F.SilkS) (width 0.12))
  (fp_line (start 0.381 0.4445) (end 0.127 0.4445) (layer F.SilkS) (width 0.12))
  (fp_circle (center 0 0) (end 2.5 0) (layer F.Fab) (width 0.1))
  (fp_line (start 2.65 -2.65) (end 2.65 2.65) (layer F.Fab) (width 0.1))
  (fp_line (start -1.65 -2.65) (end 2.65 -2.65) (layer F.Fab) (width 0.1))
  (fp_line (start -1.65 2.65) (end 2.65 2.65) (layer F.Fab) (width 0.1))
  (fp_line (start -2.65 -1.65) (end -2.65 1.65) (layer F.Fab) (width 0.1))
  (fp_line (start -2.65 -1.65) (end -1.65 -2.65) (layer F.Fab) (width 0.1))
  (fp_line (start -2.65 1.65) (end -1.65 2.65) (layer F.Fab) (width 0.1))
  (fp_line (start -2.033956 -1.2) (end -1.533956 -1.2) (layer F.Fab) (width 0.1))
  (fp_line (start -1.783956 -1.45) (end -1.783956 -0.95) (layer F.Fab) (width 0.1))
  (fp_line (start 2.76 2.76) (end 2.76 1.06) (layer F.SilkS) (width 0.12))
  (fp_line (start 2.76 -2.76) (end 2.76 -1.06) (layer F.SilkS) (width 0.12))
  (fp_line (start -1.695563 -2.76) (end 2.76 -2.76) (layer F.SilkS) (width 0.12))
  (fp_line (start -1.695563 2.76) (end 2.76 2.76) (layer F.SilkS) (width 0.12))
  (fp_line (start -2.76 1.695563) (end -2.76 1.06) (layer F.SilkS) (width 0.12))
  (fp_line (start -2.76 -1.695563) (end -2.76 -1.06) (layer F.SilkS) (width 0.12))
  (fp_line (start -2.76 -1.695563) (end -1.695563 -2.76) (layer F.SilkS) (width 0.12))
  (fp_line (start -2.76 1.695563) (end -1.695563 2.76) (layer F.SilkS) (width 0.12))
  (fp_line (start -3.625 -1.685) (end -3 -1.685) (layer F.SilkS) (width 0.12))
  (fp_line (start -3.3125 -1.9975) (end -3.3125 -1.3725) (layer F.SilkS) (width 0.12))
  (fp_line (start 2.9 -2.9) (end 2.9 -1.05) (layer F.CrtYd) (width 0.05))
  (fp_line (start 2.9 -1.05) (end 3.95 -1.05) (layer F.CrtYd) (width 0.05))
  (fp_line (start 3.95 -1.05) (end 3.95 1.05) (layer F.CrtYd) (width 0.05))
  (fp_line (start 3.95 1.05) (end 2.9 1.05) (layer F.CrtYd) (width 0.05))
  (fp_line (start 2.9 1.05) (end 2.9 2.9) (layer F.CrtYd) (width 0.05))
  (fp_line (start -1.75 2.9) (end 2.9 2.9) (layer F.CrtYd) (width 0.05))
  (fp_line (start -1.75 -2.9) (end 2.9 -2.9) (layer F.CrtYd) (width 0.05))
  (fp_line (start -2.9 1.75) (end -1.75 2.9) (layer F.CrtYd) (width 0.05))
  (fp_line (start -2.9 -1.75) (end -1.75 -2.9) (layer F.CrtYd) (width 0.05))
  (fp_line (start -2.9 -1.75) (end -2.9 -1.05) (layer F.CrtYd) (width 0.05))
  (fp_line (start -2.9 1.05) (end -2.9 1.75) (layer F.CrtYd) (width 0.05))
  (fp_line (start -2.9 -1.05) (end -3.95 -1.05) (layer F.CrtYd) (width 0.05))
  (fp_line (start -3.95 -1.05) (end -3.95 1.05) (layer F.CrtYd) (width 0.05))
  (fp_line (start -3.95 1.05) (end -2.9 1.05) (layer F.CrtYd) (width 0.05))
  (fp_text user %R (at 0 0) (layer F.Fab)
    (effects (font (size 1 1) (thickness 0.15)))
  )
  (pad 2 smd roundrect (at 2.2 0) (size 3 1.6) (layers F.Cu F.Paste F.Mask) (roundrect_rratio 0.15625))
  (pad 1 smd roundrect (at -2.2 0) (size 3 1.6) (layers F.Cu F.Paste F.Mask) (roundrect_rratio 0.15625))
  (model ${KISYS3DMOD}/Capacitor_SMD.3dshapes/CP_Elec_5x5.4.wrl
    (at (xyz 0 0 0))
    (scale (xyz 1 1 1))
    (rotate (xyz 0 0 0))
  )
)
