(module CP_Elec_8x10.5 (layer F.Cu) (tedit 60780E46)
  (descr "SMD capacitor, aluminum electrolytic, Vishay 0810, 8.0x10.5mm, http://www.vishay.com/docs/28395/150crz.pdf, Alternate KiCad Library")
  (tags "capacitor electrolytic")
  (attr smd)
  (fp_text reference REF** (at 0 -5.3) (layer F.SilkS)
    (effects (font (size 1 1) (thickness 0.15)))
  )
  (fp_text value CP_Elec_8x10.5 (at 0 5.3) (layer F.Fab)
    (effects (font (size 1 1) (thickness 0.15)))
  )
  (fp_line (start 0.635 0.889) (end 0.635 -0.889) (layer F.SilkS) (width 0.12))
  (fp_line (start -0.635 0.889) (end -0.635 -0.889) (layer F.SilkS) (width 0.12))
  (fp_line (start 0.254 -0.889) (end 0.254 -0.1905) (layer F.SilkS) (width 0.12))
  (fp_line (start 0.254 -0.254) (end 0.254 0.889) (layer F.SilkS) (width 0.12))
  (fp_line (start -0.254 -0.889) (end -0.254 0.889) (layer F.SilkS) (width 0.12))
  (fp_line (start -0.254 0.889) (end -0.635 0.889) (layer F.SilkS) (width 0.12))
  (fp_line (start 0.635 0.889) (end 0.254 0.889) (layer F.SilkS) (width 0.12))
  (fp_line (start 0.254 -0.889) (end 0.635 -0.889) (layer F.SilkS) (width 0.12))
  (fp_line (start -0.635 -0.889) (end -0.254 -0.889) (layer F.SilkS) (width 0.12))
  (fp_line (start 0.635 0) (end 1.143 0) (layer F.SilkS) (width 0.12))
  (fp_poly (pts (xy 0.635 0.889) (xy 0.254 0.889) (xy 0.254 -0.889) (xy 0.635 -0.889)) (layer F.SilkS) (width 0.1))
  (fp_line (start -0.635 0) (end -1.143 0) (layer F.SilkS) (width 0.12))
  (fp_circle (center 0 0) (end 4 0) (layer F.Fab) (width 0.1))
  (fp_line (start 4.25 -4.25) (end 4.25 4.25) (layer F.Fab) (width 0.1))
  (fp_line (start -3.25 -4.25) (end 4.25 -4.25) (layer F.Fab) (width 0.1))
  (fp_line (start -3.25 4.25) (end 4.25 4.25) (layer F.Fab) (width 0.1))
  (fp_line (start -4.25 -3.25) (end -4.25 3.25) (layer F.Fab) (width 0.1))
  (fp_line (start -4.25 -3.25) (end -3.25 -4.25) (layer F.Fab) (width 0.1))
  (fp_line (start -4.25 3.25) (end -3.25 4.25) (layer F.Fab) (width 0.1))
  (fp_line (start -3.562278 -1.5) (end -2.762278 -1.5) (layer F.Fab) (width 0.1))
  (fp_line (start -3.162278 -1.9) (end -3.162278 -1.1) (layer F.Fab) (width 0.1))
  (fp_line (start 4.36 4.36) (end 4.36 1.51) (layer F.SilkS) (width 0.12))
  (fp_line (start 4.36 -4.36) (end 4.36 -1.51) (layer F.SilkS) (width 0.12))
  (fp_line (start -3.295563 -4.36) (end 4.36 -4.36) (layer F.SilkS) (width 0.12))
  (fp_line (start -3.295563 4.36) (end 4.36 4.36) (layer F.SilkS) (width 0.12))
  (fp_line (start -4.36 3.295563) (end -4.36 1.51) (layer F.SilkS) (width 0.12))
  (fp_line (start -4.36 -3.295563) (end -4.36 -1.51) (layer F.SilkS) (width 0.12))
  (fp_line (start -4.36 -3.295563) (end -3.295563 -4.36) (layer F.SilkS) (width 0.12))
  (fp_line (start -4.36 3.295563) (end -3.295563 4.36) (layer F.SilkS) (width 0.12))
  (fp_line (start -5.6 -2.51) (end -4.6 -2.51) (layer F.SilkS) (width 0.12))
  (fp_line (start -5.1 -3.01) (end -5.1 -2.01) (layer F.SilkS) (width 0.12))
  (fp_line (start 4.5 -4.5) (end 4.5 -1.5) (layer F.CrtYd) (width 0.05))
  (fp_line (start 4.5 -1.5) (end 6.15 -1.5) (layer F.CrtYd) (width 0.05))
  (fp_line (start 6.15 -1.5) (end 6.15 1.5) (layer F.CrtYd) (width 0.05))
  (fp_line (start 6.15 1.5) (end 4.5 1.5) (layer F.CrtYd) (width 0.05))
  (fp_line (start 4.5 1.5) (end 4.5 4.5) (layer F.CrtYd) (width 0.05))
  (fp_line (start -3.35 4.5) (end 4.5 4.5) (layer F.CrtYd) (width 0.05))
  (fp_line (start -3.35 -4.5) (end 4.5 -4.5) (layer F.CrtYd) (width 0.05))
  (fp_line (start -4.5 3.35) (end -3.35 4.5) (layer F.CrtYd) (width 0.05))
  (fp_line (start -4.5 -3.35) (end -3.35 -4.5) (layer F.CrtYd) (width 0.05))
  (fp_line (start -4.5 -3.35) (end -4.5 -1.5) (layer F.CrtYd) (width 0.05))
  (fp_line (start -4.5 1.5) (end -4.5 3.35) (layer F.CrtYd) (width 0.05))
  (fp_line (start -4.5 -1.5) (end -6.15 -1.5) (layer F.CrtYd) (width 0.05))
  (fp_line (start -6.15 -1.5) (end -6.15 1.5) (layer F.CrtYd) (width 0.05))
  (fp_line (start -6.15 1.5) (end -4.5 1.5) (layer F.CrtYd) (width 0.05))
  (fp_text user %R (at 0 0) (layer F.Fab)
    (effects (font (size 1 1) (thickness 0.15)))
  )
  (pad 2 smd roundrect (at 3.7 0) (size 4.4 2.5) (layers F.Cu F.Paste F.Mask) (roundrect_rratio 0.1))
  (pad 1 smd roundrect (at -3.7 0) (size 4.4 2.5) (layers F.Cu F.Paste F.Mask) (roundrect_rratio 0.1))
  (model ${KISYS3DMOD}/Capacitor_SMD.3dshapes/CP_Elec_8x10.5.wrl
    (at (xyz 0 0 0))
    (scale (xyz 1 1 1))
    (rotate (xyz 0 0 0))
  )
)
