(module PLCC-68_THT-Socket (layer F.Cu) (tedit 607FD35A)
  (descr "PLCC, 68 pins, through hole, Alternate KiCad Library")
  (tags "plcc leaded")
  (fp_text reference REF** (at 0 -3.825) (layer F.SilkS)
    (effects (font (size 1 1) (thickness 0.15)))
  )
  (fp_text value PLCC-68_THT-Socket (at 0 29.225) (layer F.Fab)
    (effects (font (size 1 1) (thickness 0.15)))
  )
  (fp_circle (center 0 -2.921) (end 0.0635 -2.921) (layer F.SilkS) (width 0.3))
  (fp_line (start -14.525 -2.825) (end -15.525 -1.825) (layer F.Fab) (width 0.1))
  (fp_line (start -15.525 -1.825) (end -15.525 28.225) (layer F.Fab) (width 0.1))
  (fp_line (start -15.525 28.225) (end 15.525 28.225) (layer F.Fab) (width 0.1))
  (fp_line (start 15.525 28.225) (end 15.525 -2.825) (layer F.Fab) (width 0.1))
  (fp_line (start 15.525 -2.825) (end -14.525 -2.825) (layer F.Fab) (width 0.1))
  (fp_line (start -16 -3.3) (end -16 28.7) (layer F.CrtYd) (width 0.05))
  (fp_line (start -16 28.7) (end 16 28.7) (layer F.CrtYd) (width 0.05))
  (fp_line (start 16 28.7) (end 16 -3.3) (layer F.CrtYd) (width 0.05))
  (fp_line (start 16 -3.3) (end -16 -3.3) (layer F.CrtYd) (width 0.05))
  (fp_line (start -12.985 -0.285) (end -12.985 25.685) (layer F.Fab) (width 0.1))
  (fp_line (start -12.985 25.685) (end 12.985 25.685) (layer F.Fab) (width 0.1))
  (fp_line (start 12.985 25.685) (end 12.985 -0.285) (layer F.Fab) (width 0.1))
  (fp_line (start 12.985 -0.285) (end -12.985 -0.285) (layer F.Fab) (width 0.1))
  (fp_line (start -0.5 -2.825) (end 0 -1.825) (layer F.Fab) (width 0.1))
  (fp_line (start 0 -1.825) (end 0.5 -2.825) (layer F.Fab) (width 0.1))
  (fp_line (start -0.508 -2.925) (end -14.625 -2.925) (layer F.SilkS) (width 0.12))
  (fp_line (start -14.625 -2.925) (end -15.625 -1.925) (layer F.SilkS) (width 0.12))
  (fp_line (start -15.625 -1.925) (end -15.625 28.325) (layer F.SilkS) (width 0.12))
  (fp_line (start -15.625 28.325) (end 15.625 28.325) (layer F.SilkS) (width 0.12))
  (fp_line (start 15.625 28.325) (end 15.625 -2.925) (layer F.SilkS) (width 0.12))
  (fp_line (start 15.625 -2.925) (end 0.508 -2.925) (layer F.SilkS) (width 0.12))
  (fp_text user %R (at 0 12.7) (layer F.Fab)
    (effects (font (size 1 1) (thickness 0.15)))
  )
  (pad 60 thru_hole circle (at 12.7 2.54) (size 1.4224 1.4224) (drill 0.8) (layers *.Cu *.Mask))
  (pad 58 thru_hole circle (at 12.7 5.08) (size 1.4224 1.4224) (drill 0.8) (layers *.Cu *.Mask))
  (pad 56 thru_hole circle (at 12.7 7.62) (size 1.4224 1.4224) (drill 0.8) (layers *.Cu *.Mask))
  (pad 54 thru_hole circle (at 12.7 10.16) (size 1.4224 1.4224) (drill 0.8) (layers *.Cu *.Mask))
  (pad 52 thru_hole circle (at 12.7 12.7) (size 1.4224 1.4224) (drill 0.8) (layers *.Cu *.Mask))
  (pad 50 thru_hole circle (at 12.7 15.24) (size 1.4224 1.4224) (drill 0.8) (layers *.Cu *.Mask))
  (pad 48 thru_hole circle (at 12.7 17.78) (size 1.4224 1.4224) (drill 0.8) (layers *.Cu *.Mask))
  (pad 46 thru_hole circle (at 12.7 20.32) (size 1.4224 1.4224) (drill 0.8) (layers *.Cu *.Mask))
  (pad 61 thru_hole circle (at 10.16 0) (size 1.4224 1.4224) (drill 0.8) (layers *.Cu *.Mask))
  (pad 59 thru_hole circle (at 10.16 5.08) (size 1.4224 1.4224) (drill 0.8) (layers *.Cu *.Mask))
  (pad 57 thru_hole circle (at 10.16 7.62) (size 1.4224 1.4224) (drill 0.8) (layers *.Cu *.Mask))
  (pad 55 thru_hole circle (at 10.16 10.16) (size 1.4224 1.4224) (drill 0.8) (layers *.Cu *.Mask))
  (pad 53 thru_hole circle (at 10.16 12.7) (size 1.4224 1.4224) (drill 0.8) (layers *.Cu *.Mask))
  (pad 51 thru_hole circle (at 10.16 15.24) (size 1.4224 1.4224) (drill 0.8) (layers *.Cu *.Mask))
  (pad 49 thru_hole circle (at 10.16 17.78) (size 1.4224 1.4224) (drill 0.8) (layers *.Cu *.Mask))
  (pad 47 thru_hole circle (at 10.16 20.32) (size 1.4224 1.4224) (drill 0.8) (layers *.Cu *.Mask))
  (pad 45 thru_hole circle (at 10.16 22.86) (size 1.4224 1.4224) (drill 0.8) (layers *.Cu *.Mask))
  (pad 43 thru_hole circle (at 10.16 25.4) (size 1.4224 1.4224) (drill 0.8) (layers *.Cu *.Mask))
  (pad 41 thru_hole circle (at 7.62 25.4) (size 1.4224 1.4224) (drill 0.8) (layers *.Cu *.Mask))
  (pad 39 thru_hole circle (at 5.08 25.4) (size 1.4224 1.4224) (drill 0.8) (layers *.Cu *.Mask))
  (pad 37 thru_hole circle (at 2.54 25.4) (size 1.4224 1.4224) (drill 0.8) (layers *.Cu *.Mask))
  (pad 35 thru_hole circle (at 0 25.4) (size 1.4224 1.4224) (drill 0.8) (layers *.Cu *.Mask))
  (pad 33 thru_hole circle (at -2.54 25.4) (size 1.4224 1.4224) (drill 0.8) (layers *.Cu *.Mask))
  (pad 31 thru_hole circle (at -5.08 25.4) (size 1.4224 1.4224) (drill 0.8) (layers *.Cu *.Mask))
  (pad 29 thru_hole circle (at -7.62 25.4) (size 1.4224 1.4224) (drill 0.8) (layers *.Cu *.Mask))
  (pad 27 thru_hole circle (at -10.16 25.4) (size 1.4224 1.4224) (drill 0.8) (layers *.Cu *.Mask))
  (pad 44 thru_hole circle (at 12.7 22.86) (size 1.4224 1.4224) (drill 0.8) (layers *.Cu *.Mask))
  (pad 42 thru_hole circle (at 7.62 22.86) (size 1.4224 1.4224) (drill 0.8) (layers *.Cu *.Mask))
  (pad 40 thru_hole circle (at 5.08 22.86) (size 1.4224 1.4224) (drill 0.8) (layers *.Cu *.Mask))
  (pad 38 thru_hole circle (at 2.54 22.86) (size 1.4224 1.4224) (drill 0.8) (layers *.Cu *.Mask))
  (pad 36 thru_hole circle (at 0 22.86) (size 1.4224 1.4224) (drill 0.8) (layers *.Cu *.Mask))
  (pad 34 thru_hole circle (at -2.54 22.86) (size 1.4224 1.4224) (drill 0.8) (layers *.Cu *.Mask))
  (pad 32 thru_hole circle (at -5.08 22.86) (size 1.4224 1.4224) (drill 0.8) (layers *.Cu *.Mask))
  (pad 30 thru_hole circle (at -7.62 22.86) (size 1.4224 1.4224) (drill 0.8) (layers *.Cu *.Mask))
  (pad 28 thru_hole circle (at -10.16 22.86) (size 1.4224 1.4224) (drill 0.8) (layers *.Cu *.Mask))
  (pad 26 thru_hole circle (at -12.7 22.86) (size 1.4224 1.4224) (drill 0.8) (layers *.Cu *.Mask))
  (pad 24 thru_hole circle (at -12.7 20.32) (size 1.4224 1.4224) (drill 0.8) (layers *.Cu *.Mask))
  (pad 22 thru_hole circle (at -12.7 17.78) (size 1.4224 1.4224) (drill 0.8) (layers *.Cu *.Mask))
  (pad 20 thru_hole circle (at -12.7 15.24) (size 1.4224 1.4224) (drill 0.8) (layers *.Cu *.Mask))
  (pad 18 thru_hole circle (at -12.7 12.7) (size 1.4224 1.4224) (drill 0.8) (layers *.Cu *.Mask))
  (pad 16 thru_hole circle (at -12.7 10.16) (size 1.4224 1.4224) (drill 0.8) (layers *.Cu *.Mask))
  (pad 14 thru_hole circle (at -12.7 7.62) (size 1.4224 1.4224) (drill 0.8) (layers *.Cu *.Mask))
  (pad 12 thru_hole circle (at -12.7 5.08) (size 1.4224 1.4224) (drill 0.8) (layers *.Cu *.Mask))
  (pad 10 thru_hole circle (at -12.7 2.54) (size 1.4224 1.4224) (drill 0.8) (layers *.Cu *.Mask))
  (pad 25 thru_hole circle (at -10.16 20.32) (size 1.4224 1.4224) (drill 0.8) (layers *.Cu *.Mask))
  (pad 23 thru_hole circle (at -10.16 17.78) (size 1.4224 1.4224) (drill 0.8) (layers *.Cu *.Mask))
  (pad 21 thru_hole circle (at -10.16 15.24) (size 1.4224 1.4224) (drill 0.8) (layers *.Cu *.Mask))
  (pad 19 thru_hole circle (at -10.16 12.7) (size 1.4224 1.4224) (drill 0.8) (layers *.Cu *.Mask))
  (pad 17 thru_hole circle (at -10.16 10.16) (size 1.4224 1.4224) (drill 0.8) (layers *.Cu *.Mask))
  (pad 15 thru_hole circle (at -10.16 7.62) (size 1.4224 1.4224) (drill 0.8) (layers *.Cu *.Mask))
  (pad 13 thru_hole circle (at -10.16 5.08) (size 1.4224 1.4224) (drill 0.8) (layers *.Cu *.Mask))
  (pad 11 thru_hole circle (at -10.16 2.54) (size 1.4224 1.4224) (drill 0.8) (layers *.Cu *.Mask))
  (pad 63 thru_hole circle (at 7.62 0) (size 1.4224 1.4224) (drill 0.8) (layers *.Cu *.Mask))
  (pad 65 thru_hole circle (at 5.08 0) (size 1.4224 1.4224) (drill 0.8) (layers *.Cu *.Mask))
  (pad 67 thru_hole circle (at 2.54 0) (size 1.4224 1.4224) (drill 0.8) (layers *.Cu *.Mask))
  (pad 9 thru_hole circle (at -10.16 0) (size 1.4224 1.4224) (drill 0.8) (layers *.Cu *.Mask))
  (pad 7 thru_hole circle (at -7.62 0) (size 1.4224 1.4224) (drill 0.8) (layers *.Cu *.Mask))
  (pad 5 thru_hole circle (at -5.08 0) (size 1.4224 1.4224) (drill 0.8) (layers *.Cu *.Mask))
  (pad 3 thru_hole circle (at -2.54 0) (size 1.4224 1.4224) (drill 0.8) (layers *.Cu *.Mask))
  (pad 1 thru_hole rect (at 0 0) (size 1.4224 1.4224) (drill 0.8) (layers *.Cu *.Mask))
  (pad 62 thru_hole circle (at 10.16 2.54) (size 1.4224 1.4224) (drill 0.8) (layers *.Cu *.Mask))
  (pad 64 thru_hole circle (at 7.62 2.54) (size 1.4224 1.4224) (drill 0.8) (layers *.Cu *.Mask))
  (pad 66 thru_hole circle (at 5.08 2.54) (size 1.4224 1.4224) (drill 0.8) (layers *.Cu *.Mask))
  (pad 68 thru_hole circle (at 2.54 2.54) (size 1.4224 1.4224) (drill 0.8) (layers *.Cu *.Mask))
  (pad 8 thru_hole circle (at -7.62 2.54) (size 1.4224 1.4224) (drill 0.8) (layers *.Cu *.Mask))
  (pad 6 thru_hole circle (at -5.08 2.54) (size 1.4224 1.4224) (drill 0.8) (layers *.Cu *.Mask))
  (pad 4 thru_hole circle (at -2.54 2.54) (size 1.4224 1.4224) (drill 0.8) (layers *.Cu *.Mask))
  (pad 2 thru_hole circle (at 0 2.54) (size 1.4224 1.4224) (drill 0.8) (layers *.Cu *.Mask))
  (model ${KISYS3DMOD}/Package_LCC.3dshapes/PLCC-68_THT-Socket.wrl
    (at (xyz 0 0 0))
    (scale (xyz 1 1 1))
    (rotate (xyz 0 0 0))
  )
)
