(module PLCC-52_THT-Socket (layer F.Cu) (tedit 607FD34A)
  (descr "PLCC, 52 pins, through hole, Alternate KiCad Library")
  (tags "plcc leaded")
  (fp_text reference REF** (at 0 -3.78) (layer F.SilkS)
    (effects (font (size 1 1) (thickness 0.15)))
  )
  (fp_text value PLCC-52_THT-Socket (at 0 24.1) (layer F.Fab)
    (effects (font (size 1 1) (thickness 0.15)))
  )
  (fp_circle (center 0 -2.921) (end 0.0635 -2.921) (layer F.SilkS) (width 0.3))
  (fp_line (start -11.94 -2.78) (end -12.94 -1.78) (layer F.Fab) (width 0.1))
  (fp_line (start -12.94 -1.78) (end -12.94 23.1) (layer F.Fab) (width 0.1))
  (fp_line (start -12.94 23.1) (end 12.94 23.1) (layer F.Fab) (width 0.1))
  (fp_line (start 12.94 23.1) (end 12.94 -2.78) (layer F.Fab) (width 0.1))
  (fp_line (start 12.94 -2.78) (end -11.94 -2.78) (layer F.Fab) (width 0.1))
  (fp_line (start -13.4 -3.24) (end -13.4 23.56) (layer F.CrtYd) (width 0.05))
  (fp_line (start -13.4 23.56) (end 13.4 23.56) (layer F.CrtYd) (width 0.05))
  (fp_line (start 13.4 23.56) (end 13.4 -3.24) (layer F.CrtYd) (width 0.05))
  (fp_line (start 13.4 -3.24) (end -13.4 -3.24) (layer F.CrtYd) (width 0.05))
  (fp_line (start -10.4 -0.24) (end -10.4 20.56) (layer F.Fab) (width 0.1))
  (fp_line (start -10.4 20.56) (end 10.4 20.56) (layer F.Fab) (width 0.1))
  (fp_line (start 10.4 20.56) (end 10.4 -0.24) (layer F.Fab) (width 0.1))
  (fp_line (start 10.4 -0.24) (end -10.4 -0.24) (layer F.Fab) (width 0.1))
  (fp_line (start -0.5 -2.78) (end 0 -1.78) (layer F.Fab) (width 0.1))
  (fp_line (start 0 -1.78) (end 0.5 -2.78) (layer F.Fab) (width 0.1))
  (fp_line (start -0.508 -2.88) (end -12.04 -2.88) (layer F.SilkS) (width 0.12))
  (fp_line (start -12.04 -2.88) (end -13.04 -1.88) (layer F.SilkS) (width 0.12))
  (fp_line (start -13.04 -1.88) (end -13.04 23.2) (layer F.SilkS) (width 0.12))
  (fp_line (start -13.04 23.2) (end 13.04 23.2) (layer F.SilkS) (width 0.12))
  (fp_line (start 13.04 23.2) (end 13.04 -2.88) (layer F.SilkS) (width 0.12))
  (fp_line (start 13.04 -2.88) (end 0.508 -2.88) (layer F.SilkS) (width 0.12))
  (fp_text user %R (at 0 10.16) (layer F.Fab)
    (effects (font (size 1 1) (thickness 0.15)))
  )
  (pad 46 thru_hole circle (at 10.16 2.54) (size 1.4224 1.4224) (drill 0.8) (layers *.Cu *.Mask))
  (pad 44 thru_hole circle (at 10.16 5.08) (size 1.4224 1.4224) (drill 0.8) (layers *.Cu *.Mask))
  (pad 42 thru_hole circle (at 10.16 7.62) (size 1.4224 1.4224) (drill 0.8) (layers *.Cu *.Mask))
  (pad 40 thru_hole circle (at 10.16 10.16) (size 1.4224 1.4224) (drill 0.8) (layers *.Cu *.Mask))
  (pad 38 thru_hole circle (at 10.16 12.7) (size 1.4224 1.4224) (drill 0.8) (layers *.Cu *.Mask))
  (pad 36 thru_hole circle (at 10.16 15.24) (size 1.4224 1.4224) (drill 0.8) (layers *.Cu *.Mask))
  (pad 47 thru_hole circle (at 7.62 0) (size 1.4224 1.4224) (drill 0.8) (layers *.Cu *.Mask))
  (pad 45 thru_hole circle (at 7.62 5.08) (size 1.4224 1.4224) (drill 0.8) (layers *.Cu *.Mask))
  (pad 43 thru_hole circle (at 7.62 7.62) (size 1.4224 1.4224) (drill 0.8) (layers *.Cu *.Mask))
  (pad 41 thru_hole circle (at 7.62 10.16) (size 1.4224 1.4224) (drill 0.8) (layers *.Cu *.Mask))
  (pad 39 thru_hole circle (at 7.62 12.7) (size 1.4224 1.4224) (drill 0.8) (layers *.Cu *.Mask))
  (pad 37 thru_hole circle (at 7.62 15.24) (size 1.4224 1.4224) (drill 0.8) (layers *.Cu *.Mask))
  (pad 35 thru_hole circle (at 7.62 17.78) (size 1.4224 1.4224) (drill 0.8) (layers *.Cu *.Mask))
  (pad 33 thru_hole circle (at 7.62 20.32) (size 1.4224 1.4224) (drill 0.8) (layers *.Cu *.Mask))
  (pad 31 thru_hole circle (at 5.08 20.32) (size 1.4224 1.4224) (drill 0.8) (layers *.Cu *.Mask))
  (pad 29 thru_hole circle (at 2.54 20.32) (size 1.4224 1.4224) (drill 0.8) (layers *.Cu *.Mask))
  (pad 27 thru_hole circle (at 0 20.32) (size 1.4224 1.4224) (drill 0.8) (layers *.Cu *.Mask))
  (pad 25 thru_hole circle (at -2.54 20.32) (size 1.4224 1.4224) (drill 0.8) (layers *.Cu *.Mask))
  (pad 23 thru_hole circle (at -5.08 20.32) (size 1.4224 1.4224) (drill 0.8) (layers *.Cu *.Mask))
  (pad 21 thru_hole circle (at -7.62 20.32) (size 1.4224 1.4224) (drill 0.8) (layers *.Cu *.Mask))
  (pad 34 thru_hole circle (at 10.16 17.78) (size 1.4224 1.4224) (drill 0.8) (layers *.Cu *.Mask))
  (pad 32 thru_hole circle (at 5.08 17.78) (size 1.4224 1.4224) (drill 0.8) (layers *.Cu *.Mask))
  (pad 30 thru_hole circle (at 2.54 17.78) (size 1.4224 1.4224) (drill 0.8) (layers *.Cu *.Mask))
  (pad 28 thru_hole circle (at 0 17.78) (size 1.4224 1.4224) (drill 0.8) (layers *.Cu *.Mask))
  (pad 26 thru_hole circle (at -2.54 17.78) (size 1.4224 1.4224) (drill 0.8) (layers *.Cu *.Mask))
  (pad 24 thru_hole circle (at -5.08 17.78) (size 1.4224 1.4224) (drill 0.8) (layers *.Cu *.Mask))
  (pad 22 thru_hole circle (at -7.62 17.78) (size 1.4224 1.4224) (drill 0.8) (layers *.Cu *.Mask))
  (pad 20 thru_hole circle (at -10.16 17.78) (size 1.4224 1.4224) (drill 0.8) (layers *.Cu *.Mask))
  (pad 18 thru_hole circle (at -10.16 15.24) (size 1.4224 1.4224) (drill 0.8) (layers *.Cu *.Mask))
  (pad 16 thru_hole circle (at -10.16 12.7) (size 1.4224 1.4224) (drill 0.8) (layers *.Cu *.Mask))
  (pad 14 thru_hole circle (at -10.16 10.16) (size 1.4224 1.4224) (drill 0.8) (layers *.Cu *.Mask))
  (pad 12 thru_hole circle (at -10.16 7.62) (size 1.4224 1.4224) (drill 0.8) (layers *.Cu *.Mask))
  (pad 10 thru_hole circle (at -10.16 5.08) (size 1.4224 1.4224) (drill 0.8) (layers *.Cu *.Mask))
  (pad 8 thru_hole circle (at -10.16 2.54) (size 1.4224 1.4224) (drill 0.8) (layers *.Cu *.Mask))
  (pad 19 thru_hole circle (at -7.62 15.24) (size 1.4224 1.4224) (drill 0.8) (layers *.Cu *.Mask))
  (pad 17 thru_hole circle (at -7.62 12.7) (size 1.4224 1.4224) (drill 0.8) (layers *.Cu *.Mask))
  (pad 15 thru_hole circle (at -7.62 10.16) (size 1.4224 1.4224) (drill 0.8) (layers *.Cu *.Mask))
  (pad 13 thru_hole circle (at -7.62 7.62) (size 1.4224 1.4224) (drill 0.8) (layers *.Cu *.Mask))
  (pad 11 thru_hole circle (at -7.62 5.08) (size 1.4224 1.4224) (drill 0.8) (layers *.Cu *.Mask))
  (pad 9 thru_hole circle (at -7.62 2.54) (size 1.4224 1.4224) (drill 0.8) (layers *.Cu *.Mask))
  (pad 49 thru_hole circle (at 5.08 0) (size 1.4224 1.4224) (drill 0.8) (layers *.Cu *.Mask))
  (pad 51 thru_hole circle (at 2.54 0) (size 1.4224 1.4224) (drill 0.8) (layers *.Cu *.Mask))
  (pad 7 thru_hole circle (at -7.62 0) (size 1.4224 1.4224) (drill 0.8) (layers *.Cu *.Mask))
  (pad 5 thru_hole circle (at -5.08 0) (size 1.4224 1.4224) (drill 0.8) (layers *.Cu *.Mask))
  (pad 3 thru_hole circle (at -2.54 0) (size 1.4224 1.4224) (drill 0.8) (layers *.Cu *.Mask))
  (pad 1 thru_hole rect (at 0 0) (size 1.4224 1.4224) (drill 0.8) (layers *.Cu *.Mask))
  (pad 48 thru_hole circle (at 7.62 2.54) (size 1.4224 1.4224) (drill 0.8) (layers *.Cu *.Mask))
  (pad 50 thru_hole circle (at 5.08 2.54) (size 1.4224 1.4224) (drill 0.8) (layers *.Cu *.Mask))
  (pad 52 thru_hole circle (at 2.54 2.54) (size 1.4224 1.4224) (drill 0.8) (layers *.Cu *.Mask))
  (pad 6 thru_hole circle (at -5.08 2.54) (size 1.4224 1.4224) (drill 0.8) (layers *.Cu *.Mask))
  (pad 4 thru_hole circle (at -2.54 2.54) (size 1.4224 1.4224) (drill 0.8) (layers *.Cu *.Mask))
  (pad 2 thru_hole circle (at 0 2.54) (size 1.4224 1.4224) (drill 0.8) (layers *.Cu *.Mask))
  (model ${KISYS3DMOD}/Package_LCC.3dshapes/PLCC-52_THT-Socket.wrl
    (at (xyz 0 0 0))
    (scale (xyz 1 1 1))
    (rotate (xyz 0 0 0))
  )
)
