(module PLCC-84_SMD-Socket (layer F.Cu) (tedit 607FD365)
  (descr "PLCC, 84 pins, surface mount, Alternate KiCad Library")
  (tags "plcc smt")
  (attr smd)
  (fp_text reference REF** (at 0 -19) (layer F.SilkS)
    (effects (font (size 1 1) (thickness 0.15)))
  )
  (fp_text value PLCC-84_SMD-Socket (at 0 19) (layer F.Fab)
    (effects (font (size 1 1) (thickness 0.15)))
  )
  (fp_line (start -15.494 -14.859) (end -15.494 15.494) (layer F.SilkS) (width 0.12))
  (fp_line (start 15.494 -7.62) (end 16.129 -7.62) (layer F.SilkS) (width 0.12))
  (fp_line (start -15.494 15.494) (end 15.494 15.494) (layer F.SilkS) (width 0.12))
  (fp_line (start 15.494 5.08) (end 16.129 5.08) (layer F.SilkS) (width 0.12))
  (fp_line (start -0.508 -16.51) (end -1.016 -16.51) (layer F.SilkS) (width 0.12))
  (fp_line (start -0.508 -15.494) (end -14.859 -15.494) (layer F.SilkS) (width 0.12))
  (fp_line (start -10.16 15.494) (end -10.16 15.875) (layer F.SilkS) (width 0.12))
  (fp_line (start -14.859 -15.494) (end -15.494 -14.859) (layer F.SilkS) (width 0.12))
  (fp_line (start -1.016 -16.51) (end -0.889 -16.383) (layer F.SilkS) (width 0.12))
  (fp_line (start -5.08 -15.494) (end -5.08 -15.875) (layer F.SilkS) (width 0.12))
  (fp_line (start -15.494 3.81) (end -15.875 3.81) (layer F.SilkS) (width 0.12))
  (fp_line (start 15.494 -15.494) (end 0.508 -15.494) (layer F.SilkS) (width 0.12))
  (fp_line (start -11.43 -15.494) (end -11.43 -16.129) (layer F.SilkS) (width 0.12))
  (fp_line (start -15.494 -8.89) (end -15.875 -8.89) (layer F.SilkS) (width 0.12))
  (fp_line (start -15.494 -2.54) (end -15.748 -2.54) (layer F.SilkS) (width 0.12))
  (fp_line (start 8.89 15.494) (end 8.89 16.129) (layer F.SilkS) (width 0.12))
  (fp_line (start -3.81 15.494) (end -3.81 16.129) (layer F.SilkS) (width 0.12))
  (fp_line (start 15.494 -1.27) (end 15.875 -1.27) (layer F.SilkS) (width 0.12))
  (fp_line (start 15.494 15.494) (end 15.494 -15.494) (layer F.SilkS) (width 0.12))
  (fp_line (start 2.54 15.494) (end 2.54 15.875) (layer F.SilkS) (width 0.12))
  (fp_line (start -1.016 -16.51) (end -0.889 -16.637) (layer F.SilkS) (width 0.12))
  (fp_line (start -15.748 -2.54) (end -16.129 -2.54) (layer F.SilkS) (width 0.12))
  (fp_line (start 15.494 11.43) (end 15.875 11.43) (layer F.SilkS) (width 0.12))
  (fp_circle (center 0 -15.621) (end 0.0635 -15.621) (layer F.SilkS) (width 0.3))
  (fp_line (start -15.494 10.16) (end -16.129 10.16) (layer F.SilkS) (width 0.12))
  (fp_line (start 12.7 -15.494) (end 12.7 -15.875) (layer F.SilkS) (width 0.12))
  (fp_line (start 6.35 -15.494) (end 6.35 -16.129) (layer F.SilkS) (width 0.12))
  (fp_line (start 18.15 -18.15) (end 0.508 -18.15) (layer F.SilkS) (width 0.12))
  (fp_line (start 18.15 18.15) (end 18.15 -18.15) (layer F.SilkS) (width 0.12))
  (fp_line (start -18.15 18.15) (end 18.15 18.15) (layer F.SilkS) (width 0.12))
  (fp_line (start -18.15 -17.15) (end -18.15 18.15) (layer F.SilkS) (width 0.12))
  (fp_line (start -17.15 -18.15) (end -18.15 -17.15) (layer F.SilkS) (width 0.12))
  (fp_line (start -0.508 -18.15) (end -17.15 -18.15) (layer F.SilkS) (width 0.12))
  (fp_line (start 0 -17) (end 0.5 -18) (layer F.Fab) (width 0.1))
  (fp_line (start -0.5 -18) (end 0 -17) (layer F.Fab) (width 0.1))
  (fp_line (start 16.73 -16.73) (end -16.73 -16.73) (layer F.Fab) (width 0.1))
  (fp_line (start 16.73 16.73) (end 16.73 -16.73) (layer F.Fab) (width 0.1))
  (fp_line (start -16.73 16.73) (end 16.73 16.73) (layer F.Fab) (width 0.1))
  (fp_line (start -16.73 -16.73) (end -16.73 16.73) (layer F.Fab) (width 0.1))
  (fp_line (start 15.175 -15.175) (end -14.175 -15.175) (layer F.Fab) (width 0.1))
  (fp_line (start 15.175 15.175) (end 15.175 -15.175) (layer F.Fab) (width 0.1))
  (fp_line (start -15.175 15.175) (end 15.175 15.175) (layer F.Fab) (width 0.1))
  (fp_line (start -15.175 -14.175) (end -15.175 15.175) (layer F.Fab) (width 0.1))
  (fp_line (start -14.175 -15.175) (end -15.175 -14.175) (layer F.Fab) (width 0.1))
  (fp_line (start 18.5 -18.5) (end -18.5 -18.5) (layer F.CrtYd) (width 0.05))
  (fp_line (start 18.5 18.5) (end 18.5 -18.5) (layer F.CrtYd) (width 0.05))
  (fp_line (start -18.5 18.5) (end 18.5 18.5) (layer F.CrtYd) (width 0.05))
  (fp_line (start -18.5 -18.5) (end -18.5 18.5) (layer F.CrtYd) (width 0.05))
  (fp_line (start 18 -18) (end -17 -18) (layer F.Fab) (width 0.1))
  (fp_line (start 18 18) (end 18 -18) (layer F.Fab) (width 0.1))
  (fp_line (start -18 18) (end 18 18) (layer F.Fab) (width 0.1))
  (fp_line (start -18 -17) (end -18 18) (layer F.Fab) (width 0.1))
  (fp_line (start -17 -18) (end -18 -17) (layer F.Fab) (width 0.1))
  (fp_circle (center 0 -18.161) (end 0.0635 -18.161) (layer F.SilkS) (width 0.3))
  (fp_text user %R (at 0 0) (layer F.Fab)
    (effects (font (size 1 1) (thickness 0.15)))
  )
  (fp_text user 74 (at 16.383 -16.129 unlocked) (layer F.SilkS)
    (effects (font (size 1 1) (thickness 0.15)))
  )
  (fp_text user 53 (at 16.383 16.256 unlocked) (layer F.SilkS)
    (effects (font (size 1 1) (thickness 0.15)))
  )
  (fp_text user 32 (at -16.383 16.256 unlocked) (layer F.SilkS)
    (effects (font (size 1 1) (thickness 0.15)))
  )
  (fp_text user 11 (at -16.383 -16.129 unlocked) (layer F.SilkS)
    (effects (font (size 1 1) (thickness 0.15)))
  )
  (fp_text user 1 (at 0 -16.51 unlocked) (layer F.SilkS)
    (effects (font (size 1 1) (thickness 0.15)))
  )
  (pad 74 smd rect (at 14.2125 -12.7) (size 1.925 0.7) (layers F.Cu F.Paste F.Mask))
  (pad 73 smd rect (at 14.2125 -11.43) (size 1.925 0.7) (layers F.Cu F.Paste F.Mask))
  (pad 72 smd rect (at 14.2125 -10.16) (size 1.925 0.7) (layers F.Cu F.Paste F.Mask))
  (pad 71 smd rect (at 14.2125 -8.89) (size 1.925 0.7) (layers F.Cu F.Paste F.Mask))
  (pad 70 smd rect (at 14.2125 -7.62) (size 1.925 0.7) (layers F.Cu F.Paste F.Mask))
  (pad 69 smd rect (at 14.2125 -6.35) (size 1.925 0.7) (layers F.Cu F.Paste F.Mask))
  (pad 68 smd rect (at 14.2125 -5.08) (size 1.925 0.7) (layers F.Cu F.Paste F.Mask))
  (pad 67 smd rect (at 14.2125 -3.81) (size 1.925 0.7) (layers F.Cu F.Paste F.Mask))
  (pad 66 smd rect (at 14.2125 -2.54) (size 1.925 0.7) (layers F.Cu F.Paste F.Mask))
  (pad 65 smd rect (at 14.2125 -1.27) (size 1.925 0.7) (layers F.Cu F.Paste F.Mask))
  (pad 64 smd rect (at 14.2125 0) (size 1.925 0.7) (layers F.Cu F.Paste F.Mask))
  (pad 63 smd rect (at 14.2125 1.27) (size 1.925 0.7) (layers F.Cu F.Paste F.Mask))
  (pad 62 smd rect (at 14.2125 2.54) (size 1.925 0.7) (layers F.Cu F.Paste F.Mask))
  (pad 61 smd rect (at 14.2125 3.81) (size 1.925 0.7) (layers F.Cu F.Paste F.Mask))
  (pad 60 smd rect (at 14.2125 5.08) (size 1.925 0.7) (layers F.Cu F.Paste F.Mask))
  (pad 59 smd rect (at 14.2125 6.35) (size 1.925 0.7) (layers F.Cu F.Paste F.Mask))
  (pad 58 smd rect (at 14.2125 7.62) (size 1.925 0.7) (layers F.Cu F.Paste F.Mask))
  (pad 57 smd rect (at 14.2125 8.89) (size 1.925 0.7) (layers F.Cu F.Paste F.Mask))
  (pad 56 smd rect (at 14.2125 10.16) (size 1.925 0.7) (layers F.Cu F.Paste F.Mask))
  (pad 55 smd rect (at 14.2125 11.43) (size 1.925 0.7) (layers F.Cu F.Paste F.Mask))
  (pad 54 smd rect (at 14.2125 12.7) (size 1.925 0.7) (layers F.Cu F.Paste F.Mask))
  (pad 53 smd rect (at 12.7 14.2125) (size 0.7 1.925) (layers F.Cu F.Paste F.Mask))
  (pad 52 smd rect (at 11.43 14.2125) (size 0.7 1.925) (layers F.Cu F.Paste F.Mask))
  (pad 51 smd rect (at 10.16 14.2125) (size 0.7 1.925) (layers F.Cu F.Paste F.Mask))
  (pad 50 smd rect (at 8.89 14.2125) (size 0.7 1.925) (layers F.Cu F.Paste F.Mask))
  (pad 49 smd rect (at 7.62 14.2125) (size 0.7 1.925) (layers F.Cu F.Paste F.Mask))
  (pad 48 smd rect (at 6.35 14.2125) (size 0.7 1.925) (layers F.Cu F.Paste F.Mask))
  (pad 47 smd rect (at 5.08 14.2125) (size 0.7 1.925) (layers F.Cu F.Paste F.Mask))
  (pad 46 smd rect (at 3.81 14.2125) (size 0.7 1.925) (layers F.Cu F.Paste F.Mask))
  (pad 45 smd rect (at 2.54 14.2125) (size 0.7 1.925) (layers F.Cu F.Paste F.Mask))
  (pad 44 smd rect (at 1.27 14.2125) (size 0.7 1.925) (layers F.Cu F.Paste F.Mask))
  (pad 43 smd rect (at 0 14.2125) (size 0.7 1.925) (layers F.Cu F.Paste F.Mask))
  (pad 42 smd rect (at -1.27 14.2125) (size 0.7 1.925) (layers F.Cu F.Paste F.Mask))
  (pad 41 smd rect (at -2.54 14.2125) (size 0.7 1.925) (layers F.Cu F.Paste F.Mask))
  (pad 40 smd rect (at -3.81 14.2125) (size 0.7 1.925) (layers F.Cu F.Paste F.Mask))
  (pad 39 smd rect (at -5.08 14.2125) (size 0.7 1.925) (layers F.Cu F.Paste F.Mask))
  (pad 38 smd rect (at -6.35 14.2125) (size 0.7 1.925) (layers F.Cu F.Paste F.Mask))
  (pad 37 smd rect (at -7.62 14.2125) (size 0.7 1.925) (layers F.Cu F.Paste F.Mask))
  (pad 36 smd rect (at -8.89 14.2125) (size 0.7 1.925) (layers F.Cu F.Paste F.Mask))
  (pad 35 smd rect (at -10.16 14.2125) (size 0.7 1.925) (layers F.Cu F.Paste F.Mask))
  (pad 34 smd rect (at -11.43 14.2125) (size 0.7 1.925) (layers F.Cu F.Paste F.Mask))
  (pad 33 smd rect (at -12.7 14.2125) (size 0.7 1.925) (layers F.Cu F.Paste F.Mask))
  (pad 32 smd rect (at -14.2125 12.7) (size 1.925 0.7) (layers F.Cu F.Paste F.Mask))
  (pad 31 smd rect (at -14.2125 11.43) (size 1.925 0.7) (layers F.Cu F.Paste F.Mask))
  (pad 30 smd rect (at -14.2125 10.16) (size 1.925 0.7) (layers F.Cu F.Paste F.Mask))
  (pad 29 smd rect (at -14.2125 8.89) (size 1.925 0.7) (layers F.Cu F.Paste F.Mask))
  (pad 28 smd rect (at -14.2125 7.62) (size 1.925 0.7) (layers F.Cu F.Paste F.Mask))
  (pad 27 smd rect (at -14.2125 6.35) (size 1.925 0.7) (layers F.Cu F.Paste F.Mask))
  (pad 26 smd rect (at -14.2125 5.08) (size 1.925 0.7) (layers F.Cu F.Paste F.Mask))
  (pad 25 smd rect (at -14.2125 3.81) (size 1.925 0.7) (layers F.Cu F.Paste F.Mask))
  (pad 24 smd rect (at -14.2125 2.54) (size 1.925 0.7) (layers F.Cu F.Paste F.Mask))
  (pad 23 smd rect (at -14.2125 1.27) (size 1.925 0.7) (layers F.Cu F.Paste F.Mask))
  (pad 22 smd rect (at -14.2125 0) (size 1.925 0.7) (layers F.Cu F.Paste F.Mask))
  (pad 21 smd rect (at -14.2125 -1.27) (size 1.925 0.7) (layers F.Cu F.Paste F.Mask))
  (pad 20 smd rect (at -14.2125 -2.54) (size 1.925 0.7) (layers F.Cu F.Paste F.Mask))
  (pad 19 smd rect (at -14.2125 -3.81) (size 1.925 0.7) (layers F.Cu F.Paste F.Mask))
  (pad 18 smd rect (at -14.2125 -5.08) (size 1.925 0.7) (layers F.Cu F.Paste F.Mask))
  (pad 17 smd rect (at -14.2125 -6.35) (size 1.925 0.7) (layers F.Cu F.Paste F.Mask))
  (pad 16 smd rect (at -14.2125 -7.62) (size 1.925 0.7) (layers F.Cu F.Paste F.Mask))
  (pad 15 smd rect (at -14.2125 -8.89) (size 1.925 0.7) (layers F.Cu F.Paste F.Mask))
  (pad 14 smd rect (at -14.2125 -10.16) (size 1.925 0.7) (layers F.Cu F.Paste F.Mask))
  (pad 13 smd rect (at -14.2125 -11.43) (size 1.925 0.7) (layers F.Cu F.Paste F.Mask))
  (pad 12 smd rect (at -14.2125 -12.7) (size 1.925 0.7) (layers F.Cu F.Paste F.Mask))
  (pad 75 smd rect (at 12.7 -14.2125) (size 0.7 1.925) (layers F.Cu F.Paste F.Mask))
  (pad 76 smd rect (at 11.43 -14.2125) (size 0.7 1.925) (layers F.Cu F.Paste F.Mask))
  (pad 77 smd rect (at 10.16 -14.2125) (size 0.7 1.925) (layers F.Cu F.Paste F.Mask))
  (pad 78 smd rect (at 8.89 -14.2125) (size 0.7 1.925) (layers F.Cu F.Paste F.Mask))
  (pad 79 smd rect (at 7.62 -14.2125) (size 0.7 1.925) (layers F.Cu F.Paste F.Mask))
  (pad 80 smd rect (at 6.35 -14.2125) (size 0.7 1.925) (layers F.Cu F.Paste F.Mask))
  (pad 81 smd rect (at 5.08 -14.2125) (size 0.7 1.925) (layers F.Cu F.Paste F.Mask))
  (pad 82 smd rect (at 3.81 -14.2125) (size 0.7 1.925) (layers F.Cu F.Paste F.Mask))
  (pad 83 smd rect (at 2.54 -14.2125) (size 0.7 1.925) (layers F.Cu F.Paste F.Mask))
  (pad 84 smd rect (at 1.27 -14.2125) (size 0.7 1.925) (layers F.Cu F.Paste F.Mask))
  (pad 11 smd rect (at -12.7 -14.2125) (size 0.7 1.925) (layers F.Cu F.Paste F.Mask))
  (pad 10 smd rect (at -11.43 -14.2125) (size 0.7 1.925) (layers F.Cu F.Paste F.Mask))
  (pad 9 smd rect (at -10.16 -14.2125) (size 0.7 1.925) (layers F.Cu F.Paste F.Mask))
  (pad 8 smd rect (at -8.89 -14.2125) (size 0.7 1.925) (layers F.Cu F.Paste F.Mask))
  (pad 7 smd rect (at -7.62 -14.2125) (size 0.7 1.925) (layers F.Cu F.Paste F.Mask))
  (pad 6 smd rect (at -6.35 -14.2125) (size 0.7 1.925) (layers F.Cu F.Paste F.Mask))
  (pad 5 smd rect (at -5.08 -14.2125) (size 0.7 1.925) (layers F.Cu F.Paste F.Mask))
  (pad 4 smd rect (at -3.81 -14.2125) (size 0.7 1.925) (layers F.Cu F.Paste F.Mask))
  (pad 3 smd rect (at -2.54 -14.2125) (size 0.7 1.925) (layers F.Cu F.Paste F.Mask))
  (pad 2 smd rect (at -1.27 -14.2125) (size 0.7 1.925) (layers F.Cu F.Paste F.Mask))
  (pad 1 smd rect (at 0 -14.2125) (size 0.7 1.925) (layers F.Cu F.Paste F.Mask))
  (model ${KISYS3DMOD}/Package_LCC.3dshapes/PLCC-84_SMD-Socket.wrl
    (at (xyz 0 0 0))
    (scale (xyz 1 1 1))
    (rotate (xyz 0 0 0))
  )
)
