(module PLCC-44 (layer F.Cu) (tedit 607FD331)
  (descr "PLCC, 44 pins, surface mount, Alternate KiCad Library")
  (tags "plcc smt")
  (attr smd)
  (fp_text reference REF** (at 0 -11.684) (layer F.SilkS)
    (effects (font (size 1 1) (thickness 0.15)))
  )
  (fp_text value PLCC-44 (at 0 9.825) (layer F.Fab)
    (effects (font (size 1 1) (thickness 0.15)))
  )
  (fp_line (start -1.016 -10.16) (end -0.889 -10.287) (layer F.SilkS) (width 0.12))
  (fp_line (start -0.508 -10.16) (end -1.016 -10.16) (layer F.SilkS) (width 0.12))
  (fp_line (start -1.016 -10.16) (end -0.889 -10.033) (layer F.SilkS) (width 0.12))
  (fp_line (start 0 -7.825) (end 0.5 -8.825) (layer F.Fab) (width 0.1))
  (fp_line (start -0.5 -8.825) (end 0 -7.825) (layer F.Fab) (width 0.1))
  (fp_line (start 9.3 -9.3) (end -9.3 -9.3) (layer F.CrtYd) (width 0.05))
  (fp_line (start 9.3 9.3) (end 9.3 -9.3) (layer F.CrtYd) (width 0.05))
  (fp_line (start -9.3 9.3) (end 9.3 9.3) (layer F.CrtYd) (width 0.05))
  (fp_line (start -9.3 -9.3) (end -9.3 9.3) (layer F.CrtYd) (width 0.05))
  (fp_line (start 8.825 -8.825) (end -7.825 -8.825) (layer F.Fab) (width 0.1))
  (fp_line (start 8.825 8.825) (end 8.825 -8.825) (layer F.Fab) (width 0.1))
  (fp_line (start -8.825 8.825) (end 8.825 8.825) (layer F.Fab) (width 0.1))
  (fp_line (start -8.825 -7.825) (end -8.825 8.825) (layer F.Fab) (width 0.1))
  (fp_line (start -7.825 -8.825) (end -8.825 -7.825) (layer F.Fab) (width 0.1))
  (fp_circle (center 0 -9.271) (end 0.0635 -9.271) (layer F.SilkS) (width 0.3))
  (fp_line (start -0.508 -9.144) (end -8.255 -9.144) (layer F.SilkS) (width 0.12))
  (fp_line (start -8.382 -9.144) (end -9.144 -8.382) (layer F.SilkS) (width 0.12))
  (fp_line (start -8.255 -9.144) (end -8.382 -9.144) (layer F.SilkS) (width 0.12))
  (fp_line (start -9.144 -8.382) (end -9.144 9.144) (layer F.SilkS) (width 0.12))
  (fp_line (start -9.144 9.144) (end 9.144 9.144) (layer F.SilkS) (width 0.12))
  (fp_line (start 9.144 9.144) (end 9.144 -9.144) (layer F.SilkS) (width 0.12))
  (fp_line (start 9.144 -9.144) (end 0.508 -9.144) (layer F.SilkS) (width 0.12))
  (fp_line (start -5.08 -9.144) (end -5.08 -9.525) (layer F.SilkS) (width 0.12))
  (fp_line (start -9.144 -2.54) (end -9.779 -2.54) (layer F.SilkS) (width 0.12))
  (fp_line (start -9.144 3.81) (end -9.525 3.81) (layer F.SilkS) (width 0.12))
  (fp_line (start -3.81 9.144) (end -3.81 9.779) (layer F.SilkS) (width 0.12))
  (fp_line (start 2.54 9.144) (end 2.54 9.525) (layer F.SilkS) (width 0.12))
  (fp_line (start 9.144 5.08) (end 9.779 5.08) (layer F.SilkS) (width 0.12))
  (fp_line (start 9.144 -1.27) (end 9.525 -1.27) (layer F.SilkS) (width 0.12))
  (fp_line (start 6.35 -9.144) (end 6.35 -9.779) (layer F.SilkS) (width 0.12))
  (fp_text user %R (at 0 0) (layer F.Fab)
    (effects (font (size 1 1) (thickness 0.15)))
  )
  (fp_text user 1 (at 0 -10.16 unlocked) (layer F.SilkS)
    (effects (font (size 1 1) (thickness 0.15)))
  )
  (fp_text user 6 (at -9.652 -9.779 unlocked) (layer F.SilkS)
    (effects (font (size 1 1) (thickness 0.15)))
  )
  (fp_text user 17 (at -10.16 9.906 unlocked) (layer F.SilkS)
    (effects (font (size 1 1) (thickness 0.15)))
  )
  (fp_text user 28 (at 10.16 9.906 unlocked) (layer F.SilkS)
    (effects (font (size 1 1) (thickness 0.15)))
  )
  (fp_text user 39 (at 10.16 -9.779 unlocked) (layer F.SilkS)
    (effects (font (size 1 1) (thickness 0.15)))
  )
  (pad 39 smd rect (at 7.8625 -6.35) (size 1.925 0.7) (layers F.Cu F.Paste F.Mask))
  (pad 38 smd rect (at 7.8625 -5.08) (size 1.925 0.7) (layers F.Cu F.Paste F.Mask))
  (pad 37 smd rect (at 7.8625 -3.81) (size 1.925 0.7) (layers F.Cu F.Paste F.Mask))
  (pad 36 smd rect (at 7.8625 -2.54) (size 1.925 0.7) (layers F.Cu F.Paste F.Mask))
  (pad 35 smd rect (at 7.8625 -1.27) (size 1.925 0.7) (layers F.Cu F.Paste F.Mask))
  (pad 34 smd rect (at 7.8625 0) (size 1.925 0.7) (layers F.Cu F.Paste F.Mask))
  (pad 33 smd rect (at 7.8625 1.27) (size 1.925 0.7) (layers F.Cu F.Paste F.Mask))
  (pad 32 smd rect (at 7.8625 2.54) (size 1.925 0.7) (layers F.Cu F.Paste F.Mask))
  (pad 31 smd rect (at 7.8625 3.81) (size 1.925 0.7) (layers F.Cu F.Paste F.Mask))
  (pad 30 smd rect (at 7.8625 5.08) (size 1.925 0.7) (layers F.Cu F.Paste F.Mask))
  (pad 29 smd rect (at 7.8625 6.35) (size 1.925 0.7) (layers F.Cu F.Paste F.Mask))
  (pad 28 smd rect (at 6.35 7.8625) (size 0.7 1.925) (layers F.Cu F.Paste F.Mask))
  (pad 27 smd rect (at 5.08 7.8625) (size 0.7 1.925) (layers F.Cu F.Paste F.Mask))
  (pad 26 smd rect (at 3.81 7.8625) (size 0.7 1.925) (layers F.Cu F.Paste F.Mask))
  (pad 25 smd rect (at 2.54 7.8625) (size 0.7 1.925) (layers F.Cu F.Paste F.Mask))
  (pad 24 smd rect (at 1.27 7.8625) (size 0.7 1.925) (layers F.Cu F.Paste F.Mask))
  (pad 23 smd rect (at 0 7.8625) (size 0.7 1.925) (layers F.Cu F.Paste F.Mask))
  (pad 22 smd rect (at -1.27 7.8625) (size 0.7 1.925) (layers F.Cu F.Paste F.Mask))
  (pad 21 smd rect (at -2.54 7.8625) (size 0.7 1.925) (layers F.Cu F.Paste F.Mask))
  (pad 20 smd rect (at -3.81 7.8625) (size 0.7 1.925) (layers F.Cu F.Paste F.Mask))
  (pad 19 smd rect (at -5.08 7.8625) (size 0.7 1.925) (layers F.Cu F.Paste F.Mask))
  (pad 18 smd rect (at -6.35 7.8625) (size 0.7 1.925) (layers F.Cu F.Paste F.Mask))
  (pad 17 smd rect (at -7.8625 6.35) (size 1.925 0.7) (layers F.Cu F.Paste F.Mask))
  (pad 16 smd rect (at -7.8625 5.08) (size 1.925 0.7) (layers F.Cu F.Paste F.Mask))
  (pad 15 smd rect (at -7.8625 3.81) (size 1.925 0.7) (layers F.Cu F.Paste F.Mask))
  (pad 14 smd rect (at -7.8625 2.54) (size 1.925 0.7) (layers F.Cu F.Paste F.Mask))
  (pad 13 smd rect (at -7.8625 1.27) (size 1.925 0.7) (layers F.Cu F.Paste F.Mask))
  (pad 12 smd rect (at -7.8625 0) (size 1.925 0.7) (layers F.Cu F.Paste F.Mask))
  (pad 11 smd rect (at -7.8625 -1.27) (size 1.925 0.7) (layers F.Cu F.Paste F.Mask))
  (pad 10 smd rect (at -7.8625 -2.54) (size 1.925 0.7) (layers F.Cu F.Paste F.Mask))
  (pad 9 smd rect (at -7.8625 -3.81) (size 1.925 0.7) (layers F.Cu F.Paste F.Mask))
  (pad 8 smd rect (at -7.8625 -5.08) (size 1.925 0.7) (layers F.Cu F.Paste F.Mask))
  (pad 7 smd rect (at -7.8625 -6.35) (size 1.925 0.7) (layers F.Cu F.Paste F.Mask))
  (pad 40 smd rect (at 6.35 -7.8625) (size 0.7 1.925) (layers F.Cu F.Paste F.Mask))
  (pad 41 smd rect (at 5.08 -7.8625) (size 0.7 1.925) (layers F.Cu F.Paste F.Mask))
  (pad 42 smd rect (at 3.81 -7.8625) (size 0.7 1.925) (layers F.Cu F.Paste F.Mask))
  (pad 43 smd rect (at 2.54 -7.8625) (size 0.7 1.925) (layers F.Cu F.Paste F.Mask))
  (pad 44 smd rect (at 1.27 -7.8625) (size 0.7 1.925) (layers F.Cu F.Paste F.Mask))
  (pad 6 smd rect (at -6.35 -7.8625) (size 0.7 1.925) (layers F.Cu F.Paste F.Mask))
  (pad 5 smd rect (at -5.08 -7.8625) (size 0.7 1.925) (layers F.Cu F.Paste F.Mask))
  (pad 4 smd rect (at -3.81 -7.8625) (size 0.7 1.925) (layers F.Cu F.Paste F.Mask))
  (pad 3 smd rect (at -2.54 -7.8625) (size 0.7 1.925) (layers F.Cu F.Paste F.Mask))
  (pad 2 smd rect (at -1.27 -7.8625) (size 0.7 1.925) (layers F.Cu F.Paste F.Mask))
  (pad 1 smd rect (at 0 -7.8625) (size 0.7 1.925) (layers F.Cu F.Paste F.Mask))
  (model ${KISYS3DMOD}/Package_LCC.3dshapes/PLCC-44.wrl
    (at (xyz 0 0 0))
    (scale (xyz 1 1 1))
    (rotate (xyz 0 0 0))
  )
)
