(module PLCC-20_SMD-Socket (layer F.Cu) (tedit 607FD2FF)
  (descr "PLCC, 20 pins, surface mount, Alternate KiCad Library")
  (tags "plcc smt")
  (attr smd)
  (fp_text reference REF** (at 0 -8.825) (layer F.SilkS)
    (effects (font (size 1 1) (thickness 0.15)))
  )
  (fp_text value PLCC-20_SMD-Socket (at 0 8.825) (layer F.Fab)
    (effects (font (size 1 1) (thickness 0.15)))
  )
  (fp_line (start 5.334 -5.334) (end 0.381 -5.334) (layer F.SilkS) (width 0.12))
  (fp_line (start -1.016 -6.35) (end -0.889 -6.223) (layer F.SilkS) (width 0.12))
  (fp_line (start -0.508 -6.35) (end -1.016 -6.35) (layer F.SilkS) (width 0.12))
  (fp_line (start -1.016 -6.35) (end -0.889 -6.477) (layer F.SilkS) (width 0.12))
  (fp_line (start 5.334 5.334) (end 5.334 -5.334) (layer F.SilkS) (width 0.12))
  (fp_line (start -5.334 -1.27) (end -5.461 -1.27) (layer F.SilkS) (width 0.12))
  (fp_line (start -5.461 -1.27) (end -5.715 -1.27) (layer F.SilkS) (width 0.12))
  (fp_line (start -4.572 -5.334) (end -5.334 -4.572) (layer F.SilkS) (width 0.12))
  (fp_line (start 5.334 1.27) (end 5.715 1.27) (layer F.SilkS) (width 0.12))
  (fp_circle (center 0 -5.461) (end 0.0635 -5.461) (layer F.SilkS) (width 0.3))
  (fp_line (start 1.27 -5.334) (end 1.27 -5.969) (layer F.SilkS) (width 0.12))
  (fp_line (start -1.27 5.334) (end -1.27 5.969) (layer F.SilkS) (width 0.12))
  (fp_line (start -5.334 -4.572) (end -5.334 5.334) (layer F.SilkS) (width 0.12))
  (fp_line (start -5.334 5.334) (end 5.334 5.334) (layer F.SilkS) (width 0.12))
  (fp_line (start -0.381 -5.334) (end -4.572 -5.334) (layer F.SilkS) (width 0.12))
  (fp_line (start 7.975 -7.975) (end 0.508 -7.975) (layer F.SilkS) (width 0.12))
  (fp_line (start 7.975 7.975) (end 7.975 -7.975) (layer F.SilkS) (width 0.12))
  (fp_line (start -7.975 7.975) (end 7.975 7.975) (layer F.SilkS) (width 0.12))
  (fp_line (start -7.975 -6.975) (end -7.975 7.975) (layer F.SilkS) (width 0.12))
  (fp_line (start -6.975 -7.975) (end -7.975 -6.975) (layer F.SilkS) (width 0.12))
  (fp_line (start -0.508 -7.975) (end -6.975 -7.975) (layer F.SilkS) (width 0.12))
  (fp_line (start 0 -6.825) (end 0.5 -7.825) (layer F.Fab) (width 0.1))
  (fp_line (start -0.5 -7.825) (end 0 -6.825) (layer F.Fab) (width 0.1))
  (fp_line (start 6.555 -6.555) (end -6.555 -6.555) (layer F.Fab) (width 0.1))
  (fp_line (start 6.555 6.555) (end 6.555 -6.555) (layer F.Fab) (width 0.1))
  (fp_line (start -6.555 6.555) (end 6.555 6.555) (layer F.Fab) (width 0.1))
  (fp_line (start -6.555 -6.555) (end -6.555 6.555) (layer F.Fab) (width 0.1))
  (fp_line (start 5.015 -5.015) (end -4.015 -5.015) (layer F.Fab) (width 0.1))
  (fp_line (start 5.015 5.015) (end 5.015 -5.015) (layer F.Fab) (width 0.1))
  (fp_line (start -5.015 5.015) (end 5.015 5.015) (layer F.Fab) (width 0.1))
  (fp_line (start -5.015 -4.015) (end -5.015 5.015) (layer F.Fab) (width 0.1))
  (fp_line (start -4.015 -5.015) (end -5.015 -4.015) (layer F.Fab) (width 0.1))
  (fp_line (start 8.3 -8.3) (end -8.3 -8.3) (layer F.CrtYd) (width 0.05))
  (fp_line (start 8.3 8.3) (end 8.3 -8.3) (layer F.CrtYd) (width 0.05))
  (fp_line (start -8.3 8.3) (end 8.3 8.3) (layer F.CrtYd) (width 0.05))
  (fp_line (start -8.3 -8.3) (end -8.3 8.3) (layer F.CrtYd) (width 0.05))
  (fp_line (start 7.825 -7.825) (end -6.825 -7.825) (layer F.Fab) (width 0.1))
  (fp_line (start 7.825 7.825) (end 7.825 -7.825) (layer F.Fab) (width 0.1))
  (fp_line (start -7.825 7.825) (end 7.825 7.825) (layer F.Fab) (width 0.1))
  (fp_line (start -7.825 -6.825) (end -7.825 7.825) (layer F.Fab) (width 0.1))
  (fp_line (start -6.825 -7.825) (end -7.825 -6.825) (layer F.Fab) (width 0.1))
  (fp_circle (center 0 -8.001) (end 0.0635 -8.001) (layer F.SilkS) (width 0.3))
  (fp_text user %R (at 0 0) (layer F.Fab)
    (effects (font (size 1 1) (thickness 0.15)))
  )
  (fp_text user 18 (at 6.223 -5.969 unlocked) (layer F.SilkS)
    (effects (font (size 1 1) (thickness 0.15)))
  )
  (fp_text user 3 (at -5.842 -5.969 unlocked) (layer F.SilkS)
    (effects (font (size 1 1) (thickness 0.15)))
  )
  (fp_text user 1 (at 0 -6.35 unlocked) (layer F.SilkS)
    (effects (font (size 1 1) (thickness 0.15)))
  )
  (fp_text user 8 (at -5.842 6.096 unlocked) (layer F.SilkS)
    (effects (font (size 1 1) (thickness 0.15)))
  )
  (fp_text user 13 (at 6.223 6.096 unlocked) (layer F.SilkS)
    (effects (font (size 1 1) (thickness 0.15)))
  )
  (pad 18 smd rect (at 4.0525 -2.54) (size 1.925 0.7) (layers F.Cu F.Paste F.Mask))
  (pad 17 smd rect (at 4.0525 -1.27) (size 1.925 0.7) (layers F.Cu F.Paste F.Mask))
  (pad 16 smd rect (at 4.0525 0) (size 1.925 0.7) (layers F.Cu F.Paste F.Mask))
  (pad 15 smd rect (at 4.0525 1.27) (size 1.925 0.7) (layers F.Cu F.Paste F.Mask))
  (pad 14 smd rect (at 4.0525 2.54) (size 1.925 0.7) (layers F.Cu F.Paste F.Mask))
  (pad 13 smd rect (at 2.54 4.0525) (size 0.7 1.925) (layers F.Cu F.Paste F.Mask))
  (pad 12 smd rect (at 1.27 4.0525) (size 0.7 1.925) (layers F.Cu F.Paste F.Mask))
  (pad 11 smd rect (at 0 4.0525) (size 0.7 1.925) (layers F.Cu F.Paste F.Mask))
  (pad 10 smd rect (at -1.27 4.0525) (size 0.7 1.925) (layers F.Cu F.Paste F.Mask))
  (pad 9 smd rect (at -2.54 4.0525) (size 0.7 1.925) (layers F.Cu F.Paste F.Mask))
  (pad 8 smd rect (at -4.0525 2.54) (size 1.925 0.7) (layers F.Cu F.Paste F.Mask))
  (pad 7 smd rect (at -4.0525 1.27) (size 1.925 0.7) (layers F.Cu F.Paste F.Mask))
  (pad 6 smd rect (at -4.0525 0) (size 1.925 0.7) (layers F.Cu F.Paste F.Mask))
  (pad 5 smd rect (at -4.0525 -1.27) (size 1.925 0.7) (layers F.Cu F.Paste F.Mask))
  (pad 4 smd rect (at -4.0525 -2.54) (size 1.925 0.7) (layers F.Cu F.Paste F.Mask))
  (pad 19 smd rect (at 2.54 -4.0525) (size 0.7 1.925) (layers F.Cu F.Paste F.Mask))
  (pad 20 smd rect (at 1.27 -4.0525) (size 0.7 1.925) (layers F.Cu F.Paste F.Mask))
  (pad 3 smd rect (at -2.54 -4.0525) (size 0.7 1.925) (layers F.Cu F.Paste F.Mask))
  (pad 2 smd rect (at -1.27 -4.0525) (size 0.7 1.925) (layers F.Cu F.Paste F.Mask))
  (pad 1 smd rect (at 0 -4.0525) (size 0.7 1.925) (layers F.Cu F.Paste F.Mask))
  (model ${KISYS3DMOD}/Package_LCC.3dshapes/PLCC-20_SMD-Socket.wrl
    (at (xyz 0 0 0))
    (scale (xyz 1 1 1))
    (rotate (xyz 0 0 0))
  )
)
