(module PLCC-68 (layer F.Cu) (tedit 607FD34F)
  (descr "PLCC, 68 pins, surface mount, Alternate KiCad Library")
  (tags "plcc smt")
  (attr smd)
  (fp_text reference REF** (at 0 -15.367) (layer F.SilkS)
    (effects (font (size 1 1) (thickness 0.15)))
  )
  (fp_text value PLCC-68 (at 0 13.635) (layer F.Fab)
    (effects (font (size 1 1) (thickness 0.15)))
  )
  (fp_line (start -1.016 -13.97) (end -0.889 -13.843) (layer F.SilkS) (width 0.12))
  (fp_line (start -1.016 -13.97) (end -0.889 -14.097) (layer F.SilkS) (width 0.12))
  (fp_line (start -0.508 -13.97) (end -1.016 -13.97) (layer F.SilkS) (width 0.12))
  (fp_line (start 0 -11.635) (end 0.5 -12.635) (layer F.Fab) (width 0.1))
  (fp_line (start -0.5 -12.635) (end 0 -11.635) (layer F.Fab) (width 0.1))
  (fp_line (start 13.1 -13.1) (end -13.1 -13.1) (layer F.CrtYd) (width 0.05))
  (fp_line (start 13.1 13.1) (end 13.1 -13.1) (layer F.CrtYd) (width 0.05))
  (fp_line (start -13.1 13.1) (end 13.1 13.1) (layer F.CrtYd) (width 0.05))
  (fp_line (start -13.1 -13.1) (end -13.1 13.1) (layer F.CrtYd) (width 0.05))
  (fp_line (start 12.635 -12.635) (end -11.635 -12.635) (layer F.Fab) (width 0.1))
  (fp_line (start 12.635 12.635) (end 12.635 -12.635) (layer F.Fab) (width 0.1))
  (fp_line (start -12.635 12.635) (end 12.635 12.635) (layer F.Fab) (width 0.1))
  (fp_line (start -12.635 -11.635) (end -12.635 12.635) (layer F.Fab) (width 0.1))
  (fp_line (start -11.635 -12.635) (end -12.635 -11.635) (layer F.Fab) (width 0.1))
  (fp_circle (center 0 -13.081) (end 0.0635 -13.081) (layer F.SilkS) (width 0.3))
  (fp_line (start -0.508 -12.954) (end -12.192 -12.954) (layer F.SilkS) (width 0.12))
  (fp_line (start -12.192 -12.954) (end -12.954 -12.192) (layer F.SilkS) (width 0.12))
  (fp_line (start -12.954 -12.192) (end -12.954 12.954) (layer F.SilkS) (width 0.12))
  (fp_line (start -12.954 12.954) (end 12.954 12.954) (layer F.SilkS) (width 0.12))
  (fp_line (start 12.954 12.954) (end 12.954 -12.954) (layer F.SilkS) (width 0.12))
  (fp_line (start 12.954 -12.954) (end 0.508 -12.954) (layer F.SilkS) (width 0.12))
  (fp_line (start -5.08 -12.954) (end -5.08 -13.335) (layer F.SilkS) (width 0.12))
  (fp_line (start -12.954 -10.16) (end -13.589 -10.16) (layer F.SilkS) (width 0.12))
  (fp_line (start -12.954 -3.81) (end -13.335 -3.81) (layer F.SilkS) (width 0.12))
  (fp_line (start -12.954 2.54) (end -13.589 2.54) (layer F.SilkS) (width 0.12))
  (fp_line (start -12.954 8.89) (end -13.335 8.89) (layer F.SilkS) (width 0.12))
  (fp_line (start -6.35 12.954) (end -6.35 13.589) (layer F.SilkS) (width 0.12))
  (fp_line (start 0 12.954) (end 0 13.335) (layer F.SilkS) (width 0.12))
  (fp_line (start 6.35 12.954) (end 6.35 13.589) (layer F.SilkS) (width 0.12))
  (fp_line (start 12.954 8.89) (end 13.335 8.89) (layer F.SilkS) (width 0.12))
  (fp_line (start 12.954 2.54) (end 13.589 2.54) (layer F.SilkS) (width 0.12))
  (fp_line (start 12.954 -3.81) (end 13.335 -3.81) (layer F.SilkS) (width 0.12))
  (fp_line (start 12.954 -10.16) (end 13.589 -10.16) (layer F.SilkS) (width 0.12))
  (fp_line (start 5.08 -12.954) (end 5.08 -13.335) (layer F.SilkS) (width 0.12))
  (fp_text user %R (at 0 0) (layer F.Fab)
    (effects (font (size 1 1) (thickness 0.15)))
  )
  (fp_text user 1 (at 0 -13.97 unlocked) (layer F.SilkS)
    (effects (font (size 1 1) (thickness 0.15)))
  )
  (fp_text user 9 (at -13.462 -13.589 unlocked) (layer F.SilkS)
    (effects (font (size 1 1) (thickness 0.15)))
  )
  (fp_text user 26 (at -13.843 13.716 unlocked) (layer F.SilkS)
    (effects (font (size 1 1) (thickness 0.15)))
  )
  (fp_text user 43 (at 13.843 13.716 unlocked) (layer F.SilkS)
    (effects (font (size 1 1) (thickness 0.15)))
  )
  (fp_text user 60 (at 13.843 -13.589 unlocked) (layer F.SilkS)
    (effects (font (size 1 1) (thickness 0.15)))
  )
  (pad 60 smd rect (at 11.6725 -10.16) (size 1.925 0.7) (layers F.Cu F.Paste F.Mask))
  (pad 59 smd rect (at 11.6725 -8.89) (size 1.925 0.7) (layers F.Cu F.Paste F.Mask))
  (pad 58 smd rect (at 11.6725 -7.62) (size 1.925 0.7) (layers F.Cu F.Paste F.Mask))
  (pad 57 smd rect (at 11.6725 -6.35) (size 1.925 0.7) (layers F.Cu F.Paste F.Mask))
  (pad 56 smd rect (at 11.6725 -5.08) (size 1.925 0.7) (layers F.Cu F.Paste F.Mask))
  (pad 55 smd rect (at 11.6725 -3.81) (size 1.925 0.7) (layers F.Cu F.Paste F.Mask))
  (pad 54 smd rect (at 11.6725 -2.54) (size 1.925 0.7) (layers F.Cu F.Paste F.Mask))
  (pad 53 smd rect (at 11.6725 -1.27) (size 1.925 0.7) (layers F.Cu F.Paste F.Mask))
  (pad 52 smd rect (at 11.6725 0) (size 1.925 0.7) (layers F.Cu F.Paste F.Mask))
  (pad 51 smd rect (at 11.6725 1.27) (size 1.925 0.7) (layers F.Cu F.Paste F.Mask))
  (pad 50 smd rect (at 11.6725 2.54) (size 1.925 0.7) (layers F.Cu F.Paste F.Mask))
  (pad 49 smd rect (at 11.6725 3.81) (size 1.925 0.7) (layers F.Cu F.Paste F.Mask))
  (pad 48 smd rect (at 11.6725 5.08) (size 1.925 0.7) (layers F.Cu F.Paste F.Mask))
  (pad 47 smd rect (at 11.6725 6.35) (size 1.925 0.7) (layers F.Cu F.Paste F.Mask))
  (pad 46 smd rect (at 11.6725 7.62) (size 1.925 0.7) (layers F.Cu F.Paste F.Mask))
  (pad 45 smd rect (at 11.6725 8.89) (size 1.925 0.7) (layers F.Cu F.Paste F.Mask))
  (pad 44 smd rect (at 11.6725 10.16) (size 1.925 0.7) (layers F.Cu F.Paste F.Mask))
  (pad 43 smd rect (at 10.16 11.6725) (size 0.7 1.925) (layers F.Cu F.Paste F.Mask))
  (pad 42 smd rect (at 8.89 11.6725) (size 0.7 1.925) (layers F.Cu F.Paste F.Mask))
  (pad 41 smd rect (at 7.62 11.6725) (size 0.7 1.925) (layers F.Cu F.Paste F.Mask))
  (pad 40 smd rect (at 6.35 11.6725) (size 0.7 1.925) (layers F.Cu F.Paste F.Mask))
  (pad 39 smd rect (at 5.08 11.6725) (size 0.7 1.925) (layers F.Cu F.Paste F.Mask))
  (pad 38 smd rect (at 3.81 11.6725) (size 0.7 1.925) (layers F.Cu F.Paste F.Mask))
  (pad 37 smd rect (at 2.54 11.6725) (size 0.7 1.925) (layers F.Cu F.Paste F.Mask))
  (pad 36 smd rect (at 1.27 11.6725) (size 0.7 1.925) (layers F.Cu F.Paste F.Mask))
  (pad 35 smd rect (at 0 11.6725) (size 0.7 1.925) (layers F.Cu F.Paste F.Mask))
  (pad 34 smd rect (at -1.27 11.6725) (size 0.7 1.925) (layers F.Cu F.Paste F.Mask))
  (pad 33 smd rect (at -2.54 11.6725) (size 0.7 1.925) (layers F.Cu F.Paste F.Mask))
  (pad 32 smd rect (at -3.81 11.6725) (size 0.7 1.925) (layers F.Cu F.Paste F.Mask))
  (pad 31 smd rect (at -5.08 11.6725) (size 0.7 1.925) (layers F.Cu F.Paste F.Mask))
  (pad 30 smd rect (at -6.35 11.6725) (size 0.7 1.925) (layers F.Cu F.Paste F.Mask))
  (pad 29 smd rect (at -7.62 11.6725) (size 0.7 1.925) (layers F.Cu F.Paste F.Mask))
  (pad 28 smd rect (at -8.89 11.6725) (size 0.7 1.925) (layers F.Cu F.Paste F.Mask))
  (pad 27 smd rect (at -10.16 11.6725) (size 0.7 1.925) (layers F.Cu F.Paste F.Mask))
  (pad 26 smd rect (at -11.6725 10.16) (size 1.925 0.7) (layers F.Cu F.Paste F.Mask))
  (pad 25 smd rect (at -11.6725 8.89) (size 1.925 0.7) (layers F.Cu F.Paste F.Mask))
  (pad 24 smd rect (at -11.6725 7.62) (size 1.925 0.7) (layers F.Cu F.Paste F.Mask))
  (pad 23 smd rect (at -11.6725 6.35) (size 1.925 0.7) (layers F.Cu F.Paste F.Mask))
  (pad 22 smd rect (at -11.6725 5.08) (size 1.925 0.7) (layers F.Cu F.Paste F.Mask))
  (pad 21 smd rect (at -11.6725 3.81) (size 1.925 0.7) (layers F.Cu F.Paste F.Mask))
  (pad 20 smd rect (at -11.6725 2.54) (size 1.925 0.7) (layers F.Cu F.Paste F.Mask))
  (pad 19 smd rect (at -11.6725 1.27) (size 1.925 0.7) (layers F.Cu F.Paste F.Mask))
  (pad 18 smd rect (at -11.6725 0) (size 1.925 0.7) (layers F.Cu F.Paste F.Mask))
  (pad 17 smd rect (at -11.6725 -1.27) (size 1.925 0.7) (layers F.Cu F.Paste F.Mask))
  (pad 16 smd rect (at -11.6725 -2.54) (size 1.925 0.7) (layers F.Cu F.Paste F.Mask))
  (pad 15 smd rect (at -11.6725 -3.81) (size 1.925 0.7) (layers F.Cu F.Paste F.Mask))
  (pad 14 smd rect (at -11.6725 -5.08) (size 1.925 0.7) (layers F.Cu F.Paste F.Mask))
  (pad 13 smd rect (at -11.6725 -6.35) (size 1.925 0.7) (layers F.Cu F.Paste F.Mask))
  (pad 12 smd rect (at -11.6725 -7.62) (size 1.925 0.7) (layers F.Cu F.Paste F.Mask))
  (pad 11 smd rect (at -11.6725 -8.89) (size 1.925 0.7) (layers F.Cu F.Paste F.Mask))
  (pad 10 smd rect (at -11.6725 -10.16) (size 1.925 0.7) (layers F.Cu F.Paste F.Mask))
  (pad 61 smd rect (at 10.16 -11.6725) (size 0.7 1.925) (layers F.Cu F.Paste F.Mask))
  (pad 62 smd rect (at 8.89 -11.6725) (size 0.7 1.925) (layers F.Cu F.Paste F.Mask))
  (pad 63 smd rect (at 7.62 -11.6725) (size 0.7 1.925) (layers F.Cu F.Paste F.Mask))
  (pad 64 smd rect (at 6.35 -11.6725) (size 0.7 1.925) (layers F.Cu F.Paste F.Mask))
  (pad 65 smd rect (at 5.08 -11.6725) (size 0.7 1.925) (layers F.Cu F.Paste F.Mask))
  (pad 66 smd rect (at 3.81 -11.6725) (size 0.7 1.925) (layers F.Cu F.Paste F.Mask))
  (pad 67 smd rect (at 2.54 -11.6725) (size 0.7 1.925) (layers F.Cu F.Paste F.Mask))
  (pad 68 smd rect (at 1.27 -11.6725) (size 0.7 1.925) (layers F.Cu F.Paste F.Mask))
  (pad 9 smd rect (at -10.16 -11.6725) (size 0.7 1.925) (layers F.Cu F.Paste F.Mask))
  (pad 8 smd rect (at -8.89 -11.6725) (size 0.7 1.925) (layers F.Cu F.Paste F.Mask))
  (pad 7 smd rect (at -7.62 -11.6725) (size 0.7 1.925) (layers F.Cu F.Paste F.Mask))
  (pad 6 smd rect (at -6.35 -11.6725) (size 0.7 1.925) (layers F.Cu F.Paste F.Mask))
  (pad 5 smd rect (at -5.08 -11.6725) (size 0.7 1.925) (layers F.Cu F.Paste F.Mask))
  (pad 4 smd rect (at -3.81 -11.6725) (size 0.7 1.925) (layers F.Cu F.Paste F.Mask))
  (pad 3 smd rect (at -2.54 -11.6725) (size 0.7 1.925) (layers F.Cu F.Paste F.Mask))
  (pad 2 smd rect (at -1.27 -11.6725) (size 0.7 1.925) (layers F.Cu F.Paste F.Mask))
  (pad 1 smd rect (at 0 -11.6725) (size 0.7 1.925) (layers F.Cu F.Paste F.Mask))
  (model ${KISYS3DMOD}/Package_LCC.3dshapes/PLCC-68.wrl
    (at (xyz 0 0 0))
    (scale (xyz 1 1 1))
    (rotate (xyz 0 0 0))
  )
)
