(module Choke_Schaffner_RN222-04-18.0x31.0mm (layer F.Cu) (tedit 60795568)
  (descr "Current-compensated Chokes, Schaffner, RN222-04, 18.0mmx31.0mm https://www.schaffner.com/products/download/product/datasheet/rn-series-common-mode-chokes-new/, Alternate KiCad Library")
  (tags "chokes schaffner tht")
  (fp_text reference REF** (at 0 -11.25) (layer F.SilkS)
    (effects (font (size 1 1) (thickness 0.15)))
  )
  (fp_text value Choke_Schaffner_RN222-04-18.0x31.0mm (at 7.5 23.25) (layer F.Fab)
    (effects (font (size 1 1) (thickness 0.15)))
  )
  (fp_circle (center 0 7.25) (end 0.1 7.25) (layer F.SilkS) (width 0.5))
  (fp_circle (center 0 5.25) (end 0.1 5.25) (layer F.SilkS) (width 0.5))
  (fp_line (start -1.5 -9.25) (end 16.5 -9.25) (layer F.Fab) (width 0.1))
  (fp_line (start 16.5 -9.25) (end 16.5 21.75) (layer F.Fab) (width 0.1))
  (fp_line (start 16.5 21.75) (end -1.5 21.75) (layer F.Fab) (width 0.1))
  (fp_line (start -1.5 21.75) (end -1.5 1) (layer F.Fab) (width 0.1))
  (fp_line (start -1.5 1) (end -0.5 0) (layer F.Fab) (width 0.1))
  (fp_line (start -0.5 0) (end -1.5 -1) (layer F.Fab) (width 0.1))
  (fp_line (start -1.5 -1) (end -1.5 -9.25) (layer F.Fab) (width 0.1))
  (fp_line (start -1.62 -9.37) (end 16.62 -9.37) (layer F.SilkS) (width 0.12))
  (fp_line (start 16.62 -9.37) (end 16.62 21.87) (layer F.SilkS) (width 0.12))
  (fp_line (start 16.62 21.87) (end -1.62 21.87) (layer F.SilkS) (width 0.12))
  (fp_line (start -1.62 21.87) (end -1.62 -9.37) (layer F.SilkS) (width 0.12))
  (fp_line (start -1.75 -9.5) (end -1.75 22) (layer F.CrtYd) (width 0.05))
  (fp_line (start -1.75 22) (end 16.75 22) (layer F.CrtYd) (width 0.05))
  (fp_line (start 16.75 22) (end 16.75 -9.5) (layer F.CrtYd) (width 0.05))
  (fp_line (start 16.75 -9.5) (end -1.75 -9.5) (layer F.CrtYd) (width 0.05))
  (fp_circle (center -2.25 0) (end -2.2 0) (layer F.SilkS) (width 0.4))
  (fp_line (start 0.5 3.75) (end 0 3.75) (layer F.SilkS) (width 0.12))
  (fp_line (start 0 3.75) (end 0 1.25) (layer F.SilkS) (width 0.12))
  (fp_line (start 14.5 3.75) (end 15 3.75) (layer F.SilkS) (width 0.12))
  (fp_line (start 15 3.75) (end 15 1.25) (layer F.SilkS) (width 0.12))
  (fp_line (start 14.5 6) (end 0.5 6) (layer F.SilkS) (width 0.12))
  (fp_line (start 0 8.75) (end 0 11.25) (layer F.SilkS) (width 0.12))
  (fp_line (start 0.5 6.5) (end 14.5 6.5) (layer F.SilkS) (width 0.12))
  (fp_line (start 14.5 8.75) (end 15 8.75) (layer F.SilkS) (width 0.12))
  (fp_line (start 0.5 8.75) (end 0 8.75) (layer F.SilkS) (width 0.12))
  (fp_line (start 15 8.75) (end 15 11.25) (layer F.SilkS) (width 0.12))
  (fp_text user %R (at 7.5 6.25) (layer F.Fab)
    (effects (font (size 1 1) (thickness 0.15)))
  )
  (fp_arc (start 2.25 3.75) (end 0.5 3.75) (angle -180) (layer F.SilkS) (width 0.12))
  (fp_arc (start 5.75 3.75) (end 4 3.75) (angle -180) (layer F.SilkS) (width 0.12))
  (fp_arc (start 9.25 3.75) (end 7.5 3.75) (angle -180) (layer F.SilkS) (width 0.12))
  (fp_arc (start 12.75 3.75) (end 11 3.75) (angle -180) (layer F.SilkS) (width 0.12))
  (fp_arc (start 2.25 8.75) (end 4 8.75) (angle -180) (layer F.SilkS) (width 0.12))
  (fp_arc (start 9.25 8.75) (end 11 8.75) (angle -180) (layer F.SilkS) (width 0.12))
  (fp_arc (start 5.75 8.75) (end 7.5 8.75) (angle -180) (layer F.SilkS) (width 0.12))
  (fp_arc (start 12.75 8.75) (end 14.5 8.75) (angle -180) (layer F.SilkS) (width 0.12))
  (pad 4 thru_hole circle (at 15 12.5) (size 2 2) (drill 0.9) (layers *.Cu *.Mask))
  (pad 3 thru_hole circle (at 0 12.5) (size 2 2) (drill 0.9) (layers *.Cu *.Mask))
  (pad 2 thru_hole circle (at 15 0) (size 2 2) (drill 0.9) (layers *.Cu *.Mask))
  (pad 1 thru_hole rect (at 0 0) (size 2 2) (drill 0.9) (layers *.Cu *.Mask))
  (model ${KISYS3DMOD}/Inductor_THT.3dshapes/Choke_Schaffner_RN222-04-18.0x31.0mm.wrl
    (at (xyz 0 0 0))
    (scale (xyz 1 1 1))
    (rotate (xyz 0 0 0))
  )
)
