(module Choke_Schaffner_RN143-04-33.1x32.5mm (layer F.Cu) (tedit 6079553D)
  (descr "Current-compensated Chokes, Schaffner, RN143-04, 33.1mmx32.5mm https://www.schaffner.com/products/download/product/datasheet/rn-series-common-mode-chokes-new/, Alternate KiCad Library")
  (tags "chokes schaffner tht")
  (fp_text reference REF** (at 1 -5) (layer F.SilkS)
    (effects (font (size 1 1) (thickness 0.15)))
  )
  (fp_text value Choke_Schaffner_RN143-04-33.1x32.5mm (at 15 27.75) (layer F.Fab)
    (effects (font (size 1 1) (thickness 0.15)))
  )
  (fp_line (start 0 14.5) (end 0 18.5) (layer F.SilkS) (width 0.12))
  (fp_line (start 27 14.5) (end 30 14.5) (layer F.SilkS) (width 0.12))
  (fp_line (start 30 14.5) (end 30 18.5) (layer F.SilkS) (width 0.12))
  (fp_line (start 27 10.5) (end 3 10.5) (layer F.SilkS) (width 0.12))
  (fp_line (start 3 5.5) (end 0 5.5) (layer F.SilkS) (width 0.12))
  (fp_circle (center 2.25 12) (end 2.35 12) (layer F.SilkS) (width 1))
  (fp_line (start 0 5.5) (end 0 1.5) (layer F.SilkS) (width 0.12))
  (fp_line (start 11.88 25.55) (end -1.67 21.1) (layer F.SilkS) (width 0.12))
  (fp_line (start 3 14.5) (end 0 14.5) (layer F.SilkS) (width 0.12))
  (fp_line (start 30 5.5) (end 30 1.5) (layer F.SilkS) (width 0.12))
  (fp_line (start 31.67 21.1) (end 18.12 25.55) (layer F.SilkS) (width 0.12))
  (fp_line (start 27 5.5) (end 30 5.5) (layer F.SilkS) (width 0.12))
  (fp_line (start 18.12 -5.55) (end 31.67 -1.1) (layer F.SilkS) (width 0.12))
  (fp_line (start 3 9.5) (end 27 9.5) (layer F.SilkS) (width 0.12))
  (fp_line (start -1.67 -1.1) (end 11.88 -5.55) (layer F.SilkS) (width 0.12))
  (fp_line (start -1.67 21.1) (end -1.67 -1.1) (layer F.SilkS) (width 0.12))
  (fp_line (start 31.67 -1.1) (end 31.67 21.1) (layer F.SilkS) (width 0.12))
  (fp_circle (center 0 -2.3) (end 0.05 -2.3) (layer F.SilkS) (width 0.4))
  (fp_circle (center 2.25 8) (end 2.35 8) (layer F.SilkS) (width 1))
  (fp_line (start -1.55 -1) (end 11.88 -5.41) (layer F.Fab) (width 0.1))
  (fp_line (start 18.12 -5.41) (end 31.55 -1) (layer F.Fab) (width 0.1))
  (fp_line (start 31.55 -1) (end 31.55 21) (layer F.Fab) (width 0.1))
  (fp_line (start 31.55 21) (end 18.12 25.41) (layer F.Fab) (width 0.1))
  (fp_line (start 11.88 25.41) (end -1.55 21) (layer F.Fab) (width 0.1))
  (fp_line (start -1.55 21) (end -1.55 0.5) (layer F.Fab) (width 0.1))
  (fp_line (start -1.55 0.5) (end -1.05 0) (layer F.Fab) (width 0.1))
  (fp_line (start -1.05 0) (end -1.55 -0.5) (layer F.Fab) (width 0.1))
  (fp_line (start -1.55 -0.5) (end -1.55 -1) (layer F.Fab) (width 0.1))
  (fp_line (start -1.8 -1.19) (end 11.88 -5.68) (layer F.CrtYd) (width 0.05))
  (fp_line (start 18.12 -5.68) (end 31.8 -1.19) (layer F.CrtYd) (width 0.05))
  (fp_line (start 31.8 -1.19) (end 31.8 21.19) (layer F.CrtYd) (width 0.05))
  (fp_line (start 31.8 21.19) (end 18.12 25.68) (layer F.CrtYd) (width 0.05))
  (fp_line (start 11.88 25.68) (end -1.8 21.19) (layer F.CrtYd) (width 0.05))
  (fp_line (start -1.8 21.19) (end -1.8 -1.19) (layer F.CrtYd) (width 0.05))
  (fp_text user %R (at 15 10) (layer F.Fab)
    (effects (font (size 1 1) (thickness 0.15)))
  )
  (fp_arc (start 15 20.25) (end 18.12 25.68) (angle 60) (layer F.CrtYd) (width 0.05))
  (fp_arc (start 15 -0.25) (end 11.88 -5.68) (angle 60) (layer F.CrtYd) (width 0.05))
  (fp_arc (start 15 -0.12) (end 11.88 -5.55) (angle 60) (layer F.SilkS) (width 0.12))
  (fp_arc (start 15 20) (end 18.12 25.41) (angle 60) (layer F.Fab) (width 0.1))
  (fp_arc (start 15 0) (end 11.88 -5.41) (angle 60) (layer F.Fab) (width 0.1))
  (fp_arc (start 24 5.5) (end 21 5.5) (angle -180) (layer F.SilkS) (width 0.12))
  (fp_arc (start 12 5.5) (end 9 5.5) (angle -180) (layer F.SilkS) (width 0.12))
  (fp_arc (start 12 14.5) (end 15 14.5) (angle -180) (layer F.SilkS) (width 0.12))
  (fp_arc (start 18 14.5) (end 21 14.5) (angle -180) (layer F.SilkS) (width 0.12))
  (fp_arc (start 15 20.12) (end 18.12 25.55) (angle 60) (layer F.SilkS) (width 0.12))
  (fp_arc (start 6 14.5) (end 9 14.5) (angle -180) (layer F.SilkS) (width 0.12))
  (fp_arc (start 24 14.5) (end 27 14.5) (angle -180) (layer F.SilkS) (width 0.12))
  (fp_arc (start 18 5.5) (end 15 5.5) (angle -180) (layer F.SilkS) (width 0.12))
  (fp_arc (start 6 5.5) (end 3 5.5) (angle -180) (layer F.SilkS) (width 0.12))
  (pad 4 thru_hole circle (at 30 20) (size 2 2) (drill 0.9) (layers *.Cu *.Mask))
  (pad 3 thru_hole circle (at 0 20) (size 2 2) (drill 0.9) (layers *.Cu *.Mask))
  (pad 2 thru_hole circle (at 30 0) (size 2 2) (drill 0.9) (layers *.Cu *.Mask))
  (pad 1 thru_hole rect (at 0 0) (size 2 2) (drill 0.9) (layers *.Cu *.Mask))
  (model ${KISYS3DMOD}/Inductor_THT.3dshapes/Choke_Schaffner_RN143-04-33.1x32.5mm.wrl
    (at (xyz 0 0 0))
    (scale (xyz 1 1 1))
    (rotate (xyz 0 0 0))
  )
)
