(module Choke_Schaffner_RN214-04-15.5x23.0mm (layer F.Cu) (tedit 60795558)
  (descr "Current-compensated Chokes, Schaffner, RN214-04, 15.5mmx23.0mm https://www.schaffner.com/products/download/product/datasheet/rn-series-common-mode-chokes-new/, Alternate KiCad Library")
  (tags "chokes schaffner tht")
  (fp_text reference REF** (at 0 -8.5) (layer F.SilkS)
    (effects (font (size 1 1) (thickness 0.15)))
  )
  (fp_text value Choke_Schaffner_RN214-04-15.5x23.0mm (at 6.25 18) (layer F.Fab)
    (effects (font (size 1 1) (thickness 0.15)))
  )
  (fp_circle (center -0.25 6) (end -0.15 6) (layer F.SilkS) (width 0.5))
  (fp_circle (center -0.25 4) (end -0.15 4) (layer F.SilkS) (width 0.5))
  (fp_line (start 14.25 -6.75) (end -1.75 -6.75) (layer F.CrtYd) (width 0.05))
  (fp_line (start 14.25 16.75) (end 14.25 -6.75) (layer F.CrtYd) (width 0.05))
  (fp_line (start -1.75 16.75) (end 14.25 16.75) (layer F.CrtYd) (width 0.05))
  (fp_line (start -1.75 -6.75) (end -1.75 16.75) (layer F.CrtYd) (width 0.05))
  (fp_line (start -1.62 16.62) (end -1.62 -6.62) (layer F.SilkS) (width 0.12))
  (fp_line (start 14.12 16.62) (end -1.62 16.62) (layer F.SilkS) (width 0.12))
  (fp_line (start 14.12 -6.62) (end 14.12 16.62) (layer F.SilkS) (width 0.12))
  (fp_line (start -1.62 -6.62) (end 14.12 -6.62) (layer F.SilkS) (width 0.12))
  (fp_line (start -1.5 -1) (end -1.5 -6.5) (layer F.Fab) (width 0.1))
  (fp_line (start -0.5 0) (end -1.5 -1) (layer F.Fab) (width 0.1))
  (fp_line (start -1.5 1) (end -0.5 0) (layer F.Fab) (width 0.1))
  (fp_line (start -1.5 16.5) (end -1.5 1) (layer F.Fab) (width 0.1))
  (fp_line (start 14 16.5) (end -1.5 16.5) (layer F.Fab) (width 0.1))
  (fp_line (start 14 -6.5) (end 14 16.5) (layer F.Fab) (width 0.1))
  (fp_line (start -1.5 -6.5) (end 14 -6.5) (layer F.Fab) (width 0.1))
  (fp_circle (center -2.25 0) (end -2.2 0) (layer F.SilkS) (width 0.4))
  (fp_line (start 0.25 2.75) (end 0 2.75) (layer F.SilkS) (width 0.12))
  (fp_line (start 0 2.75) (end 0 1.25) (layer F.SilkS) (width 0.12))
  (fp_line (start 12.25 2.75) (end 12.5 2.75) (layer F.SilkS) (width 0.12))
  (fp_line (start 12.5 2.75) (end 12.5 1.25) (layer F.SilkS) (width 0.12))
  (fp_line (start 12.25 4.75) (end 0.25 4.75) (layer F.SilkS) (width 0.12))
  (fp_line (start 12.25 7.25) (end 12.5 7.25) (layer F.SilkS) (width 0.12))
  (fp_line (start 0.25 7.25) (end 0 7.25) (layer F.SilkS) (width 0.12))
  (fp_line (start 0 7.25) (end 0 8.75) (layer F.SilkS) (width 0.12))
  (fp_line (start 12.5 7.25) (end 12.5 8.75) (layer F.SilkS) (width 0.12))
  (fp_line (start 0.25 5.25) (end 12.25 5.25) (layer F.SilkS) (width 0.12))
  (fp_text user %R (at 6.25 5) (layer F.Fab)
    (effects (font (size 1 1) (thickness 0.15)))
  )
  (fp_arc (start 1.75 2.75) (end 0.25 2.75) (angle -180) (layer F.SilkS) (width 0.12))
  (fp_arc (start 4.75 2.75) (end 3.25 2.75) (angle -180) (layer F.SilkS) (width 0.12))
  (fp_arc (start 7.75 2.75) (end 6.25 2.75) (angle -180) (layer F.SilkS) (width 0.12))
  (fp_arc (start 10.75 2.75) (end 9.25 2.75) (angle -180) (layer F.SilkS) (width 0.12))
  (fp_arc (start 4.75 7.25) (end 6.25 7.25) (angle -180) (layer F.SilkS) (width 0.12))
  (fp_arc (start 1.75 7.25) (end 3.25 7.25) (angle -180) (layer F.SilkS) (width 0.12))
  (fp_arc (start 10.75 7.25) (end 12.25 7.25) (angle -180) (layer F.SilkS) (width 0.12))
  (fp_arc (start 7.75 7.25) (end 9.25 7.25) (angle -180) (layer F.SilkS) (width 0.12))
  (pad 4 thru_hole circle (at 12.5 10) (size 2 2) (drill 0.9) (layers *.Cu *.Mask))
  (pad 3 thru_hole circle (at 0 10) (size 2 2) (drill 0.9) (layers *.Cu *.Mask))
  (pad 2 thru_hole circle (at 12.5 0) (size 2 2) (drill 0.9) (layers *.Cu *.Mask))
  (pad 1 thru_hole rect (at 0 0) (size 2 2) (drill 0.9) (layers *.Cu *.Mask))
  (model ${KISYS3DMOD}/Inductor_THT.3dshapes/Choke_Schaffner_RN214-04-15.5x23.0mm.wrl
    (at (xyz 0 0 0))
    (scale (xyz 1 1 1))
    (rotate (xyz 0 0 0))
  )
)
