(module Choke_Schaffner_RN202-04-8.8x18.2mm (layer F.Cu) (tedit 60795548)
  (descr "Current-compensated Chokes, Schaffner, RN202-04, 8.8mmx18.2mm https://www.schaffner.com/products/download/product/datasheet/rn-series-common-mode-chokes-new/, Alternate KiCad Library")
  (tags "chokes schaffner tht")
  (fp_text reference REF** (at 0 -3.5) (layer F.SilkS)
    (effects (font (size 1 1) (thickness 0.15)))
  )
  (fp_text value Choke_Schaffner_RN202-04-8.8x18.2mm (at 2.55 18.2) (layer F.Fab)
    (effects (font (size 1 1) (thickness 0.15)))
  )
  (fp_line (start -1.85 -1.5) (end 6.95 -1.5) (layer F.Fab) (width 0.1))
  (fp_line (start 6.95 -1.5) (end 6.95 16.7) (layer F.Fab) (width 0.1))
  (fp_line (start 6.95 16.7) (end -1.85 16.7) (layer F.Fab) (width 0.1))
  (fp_line (start -1.85 16.7) (end -1.85 1) (layer F.Fab) (width 0.1))
  (fp_line (start -1.85 1) (end -0.85 0) (layer F.Fab) (width 0.1))
  (fp_line (start -0.85 0) (end -1.85 -1) (layer F.Fab) (width 0.1))
  (fp_line (start -1.85 -1) (end -1.85 -1.5) (layer F.Fab) (width 0.1))
  (fp_line (start -1.97 -1.62) (end 7.07 -1.62) (layer F.SilkS) (width 0.12))
  (fp_line (start 7.07 -1.62) (end 7.07 16.82) (layer F.SilkS) (width 0.12))
  (fp_line (start 7.07 16.82) (end -1.97 16.82) (layer F.SilkS) (width 0.12))
  (fp_line (start -1.97 16.82) (end -1.97 -1.62) (layer F.SilkS) (width 0.12))
  (fp_line (start -2.1 -1.75) (end -2.1 16.95) (layer F.CrtYd) (width 0.05))
  (fp_line (start -2.1 16.95) (end 7.2 16.95) (layer F.CrtYd) (width 0.05))
  (fp_line (start 7.2 16.95) (end 7.2 -1.75) (layer F.CrtYd) (width 0.05))
  (fp_line (start 7.2 -1.75) (end -2.1 -1.75) (layer F.CrtYd) (width 0.05))
  (fp_circle (center -2.4 -2) (end -2.35 -2) (layer F.SilkS) (width 0.4))
  (fp_line (start 0.05 1.3) (end 0.05 6.2) (layer F.SilkS) (width 0.12))
  (fp_line (start 5.05 6.2) (end 5.05 1.3) (layer F.SilkS) (width 0.12))
  (fp_line (start 5.1 7.25) (end 0 7.25) (layer F.SilkS) (width 0.12))
  (fp_circle (center -0.4 6.7) (end -0.3 6.7) (layer F.SilkS) (width 0.3))
  (fp_line (start 0.05 8.8) (end 0.05 13.7) (layer F.SilkS) (width 0.12))
  (fp_circle (center -0.4 8.3) (end -0.5 8.3) (layer F.SilkS) (width 0.3))
  (fp_line (start 0 7.75) (end 5.1 7.75) (layer F.SilkS) (width 0.12))
  (fp_line (start 5.05 13.7) (end 5.05 8.8) (layer F.SilkS) (width 0.12))
  (fp_text user %R (at 2.55 7.6) (layer F.Fab)
    (effects (font (size 1 1) (thickness 0.15)))
  )
  (fp_arc (start 0.675 6.2) (end 0.05 6.2) (angle -180) (layer F.SilkS) (width 0.12))
  (fp_arc (start 1.925 6.2) (end 1.3 6.2) (angle -180) (layer F.SilkS) (width 0.12))
  (fp_arc (start 3.175 6.2) (end 2.55 6.2) (angle -180) (layer F.SilkS) (width 0.12))
  (fp_arc (start 4.425 6.2) (end 3.8 6.2) (angle -180) (layer F.SilkS) (width 0.12))
  (fp_arc (start 1.925 8.8) (end 2.55 8.8) (angle -180) (layer F.SilkS) (width 0.12))
  (fp_arc (start 3.175 8.8) (end 3.8 8.8) (angle -180) (layer F.SilkS) (width 0.12))
  (fp_arc (start 4.425 8.8) (end 5.05 8.8) (angle -180) (layer F.SilkS) (width 0.12))
  (fp_arc (start 0.675 8.8) (end 1.3 8.8) (angle -180) (layer F.SilkS) (width 0.12))
  (pad 4 thru_hole circle (at 5.1 15.2) (size 2 2) (drill 0.9) (layers *.Cu *.Mask))
  (pad 3 thru_hole circle (at 0 15.2) (size 2 2) (drill 0.9) (layers *.Cu *.Mask))
  (pad 2 thru_hole circle (at 5.1 0) (size 2 2) (drill 0.9) (layers *.Cu *.Mask))
  (pad 1 thru_hole rect (at 0 0) (size 2 2) (drill 0.9) (layers *.Cu *.Mask))
  (model ${KISYS3DMOD}/Inductor_THT.3dshapes/Choke_Schaffner_RN202-04-8.8x18.2mm.wrl
    (at (xyz 0 0 0))
    (scale (xyz 1 1 1))
    (rotate (xyz 0 0 0))
  )
)
