(module L_Axial_L12.8mm_D5.8mm_P25.40mm_Horizontal_Fastron_HBCC (layer F.Cu) (tedit 607955EF)
  (descr "Inductor, Axial series, Axial, Horizontal, pin pitch=25.4mm, , length*diameter=12.8*5.8mm^2, Fastron, HBCC, http://www.fastrongroup.com/image-show/18/HBCC.pdf?type=Complete-DataSheet&productType=series, Alternate KiCad Library")
  (tags "Inductor Axial series Axial Horizontal pin pitch 25.4mm  length 12.8mm diameter 5.8mm Fastron HBCC")
  (fp_text reference REF** (at 12.7 -4.02) (layer F.SilkS)
    (effects (font (size 1 1) (thickness 0.15)))
  )
  (fp_text value L_Axial_L12.8mm_D5.8mm_P25.40mm_Horizontal_Fastron_HBCC (at 12.7 4.02) (layer F.Fab)
    (effects (font (size 1 1) (thickness 0.15)))
  )
  (fp_line (start 19.05 0) (end 19.22 0) (layer F.SilkS) (width 0.12))
  (fp_line (start 6.35 0) (end 6.1595 0) (layer F.SilkS) (width 0.12))
  (fp_line (start 6.3 -2.9) (end 6.3 2.9) (layer F.Fab) (width 0.1))
  (fp_line (start 6.3 2.9) (end 19.1 2.9) (layer F.Fab) (width 0.1))
  (fp_line (start 19.1 2.9) (end 19.1 -2.9) (layer F.Fab) (width 0.1))
  (fp_line (start 19.1 -2.9) (end 6.3 -2.9) (layer F.Fab) (width 0.1))
  (fp_line (start 0 0) (end 6.3 0) (layer F.Fab) (width 0.1))
  (fp_line (start 25.4 0) (end 19.1 0) (layer F.Fab) (width 0.1))
  (fp_line (start 6.18 -3.02) (end 6.18 3.02) (layer F.SilkS) (width 0.12))
  (fp_line (start 6.18 3.02) (end 19.22 3.02) (layer F.SilkS) (width 0.12))
  (fp_line (start 19.22 3.02) (end 19.22 -3.02) (layer F.SilkS) (width 0.12))
  (fp_line (start 19.22 -3.02) (end 6.18 -3.02) (layer F.SilkS) (width 0.12))
  (fp_line (start 1.34 0) (end 6.18 0) (layer F.SilkS) (width 0.12))
  (fp_line (start 24.06 0) (end 19.22 0) (layer F.SilkS) (width 0.12))
  (fp_line (start -1.35 -3.15) (end -1.35 3.15) (layer F.CrtYd) (width 0.05))
  (fp_line (start -1.35 3.15) (end 26.75 3.15) (layer F.CrtYd) (width 0.05))
  (fp_line (start 26.75 3.15) (end 26.75 -3.15) (layer F.CrtYd) (width 0.05))
  (fp_line (start 26.75 -3.15) (end -1.35 -3.15) (layer F.CrtYd) (width 0.05))
  (fp_text user %R (at 12.7 0) (layer F.Fab)
    (effects (font (size 1 1) (thickness 0.15)))
  )
  (fp_arc (start 14.2875 0) (end 15.875 0) (angle -180) (layer F.SilkS) (width 0.12))
  (fp_arc (start 17.4625 0) (end 19.05 0) (angle -180) (layer F.SilkS) (width 0.12))
  (fp_arc (start 11.1125 0) (end 12.7 0) (angle -180) (layer F.SilkS) (width 0.12))
  (fp_arc (start 7.9375 0) (end 9.525 0) (angle -180) (layer F.SilkS) (width 0.12))
  (pad 2 thru_hole oval (at 25.4 0) (size 2.2 2.2) (drill 1.1) (layers *.Cu *.Mask))
  (pad 1 thru_hole circle (at 0 0) (size 2.2 2.2) (drill 1.1) (layers *.Cu *.Mask))
  (model ${KISYS3DMOD}/Inductor_THT.3dshapes/L_Axial_L12.8mm_D5.8mm_P25.40mm_Horizontal_Fastron_HBCC.wrl
    (at (xyz 0 0 0))
    (scale (xyz 1 1 1))
    (rotate (xyz 0 0 0))
  )
)
