(module L_Axial_L24.0mm_D7.1mm_P5.08mm_Vertical_Vishay_IM-10-28 (layer F.Cu) (tedit 60811E37)
  (descr "Inductor, Axial series, Axial, Vertical, pin pitch=5.08mm, , length*diameter=24*7.1mm^2, Vishay, IM-10-28, http://www.vishay.com/docs/34035/im10.pdf, Alternate KiCad Library")
  (tags "Inductor Axial series Axial Vertical pin pitch 5.08mm  length 24mm diameter 7.1mm Vishay IM-10-28")
  (fp_text reference REF** (at 2.54 -4.67) (layer F.SilkS)
    (effects (font (size 1 1) (thickness 0.15)))
  )
  (fp_text value L_Axial_L24.0mm_D7.1mm_P5.08mm_Vertical_Vishay_IM-10-28 (at 2.54 4.67) (layer F.Fab)
    (effects (font (size 1 1) (thickness 0.15)))
  )
  (fp_circle (center 0 0) (end 3.55 0) (layer F.Fab) (width 0.1))
  (fp_line (start 0 0) (end 5.08 0) (layer F.Fab) (width 0.1))
  (fp_line (start -3.8 -3.8) (end -3.8 3.8) (layer F.CrtYd) (width 0.05))
  (fp_line (start -3.8 3.8) (end 6.33 3.8) (layer F.CrtYd) (width 0.05))
  (fp_line (start 6.33 3.8) (end 6.33 -3.8) (layer F.CrtYd) (width 0.05))
  (fp_line (start 6.33 -3.8) (end -3.8 -3.8) (layer F.CrtYd) (width 0.05))
  (fp_text user %R (at 0 -1.5) (layer F.Fab)
    (effects (font (size 1 1) (thickness 0.15)))
  )
  (fp_arc (start 3.302 0.127) (end 3.556 0.127) (angle -180) (layer F.SilkS) (width 0.12))
  (fp_arc (start 1.778 0.127) (end 2.032 0.127) (angle -180) (layer F.SilkS) (width 0.12))
  (fp_arc (start 2.794 0.127) (end 3.048 0.127) (angle -180) (layer F.SilkS) (width 0.12))
  (fp_arc (start 2.286 0.127) (end 2.54 0.127) (angle -180) (layer F.SilkS) (width 0.12))
  (fp_arc (start 0 0) (end 3.619499 -0.380999) (angle -346.9897265) (layer F.SilkS) (width 0.12))
  (pad 2 thru_hole oval (at 5.08 0) (size 2 2) (drill 1) (layers *.Cu *.Mask))
  (pad 1 thru_hole circle (at 0 0) (size 2 2) (drill 1) (layers *.Cu *.Mask))
  (model ${KISYS3DMOD}/Inductor_THT.3dshapes/L_Axial_L24.0mm_D7.1mm_P5.08mm_Vertical_Vishay_IM-10-28.wrl
    (at (xyz 0 0 0))
    (scale (xyz 1 1 1))
    (rotate (xyz 0 0 0))
  )
)
