(module L_Axial_L13.0mm_D4.5mm_P15.24mm_Horizontal_Fastron_HCCC (layer F.Cu) (tedit 607955FF)
  (descr "Inductor, Axial series, Axial, Horizontal, pin pitch=15.24mm, , length*diameter=13*4.5mm^2, Fastron, HCCC, http://www.fastrongroup.com/image-show/19/HCCC.pdf?type=Complete-DataSheet&productType=series, Alternate KiCad Library")
  (tags "Inductor Axial series Axial Horizontal pin pitch 15.24mm  length 13mm diameter 4.5mm Fastron HCCC")
  (fp_text reference REF** (at 7.62 -3.37) (layer F.SilkS)
    (effects (font (size 1 1) (thickness 0.15)))
  )
  (fp_text value L_Axial_L13.0mm_D4.5mm_P15.24mm_Horizontal_Fastron_HCCC (at 7.62 3.37) (layer F.Fab)
    (effects (font (size 1 1) (thickness 0.15)))
  )
  (fp_line (start 1.12 -2.25) (end 1.12 2.25) (layer F.Fab) (width 0.1))
  (fp_line (start 1.12 2.25) (end 14.12 2.25) (layer F.Fab) (width 0.1))
  (fp_line (start 14.12 2.25) (end 14.12 -2.25) (layer F.Fab) (width 0.1))
  (fp_line (start 14.12 -2.25) (end 1.12 -2.25) (layer F.Fab) (width 0.1))
  (fp_line (start 0 0) (end 1.12 0) (layer F.Fab) (width 0.1))
  (fp_line (start 15.24 0) (end 14.12 0) (layer F.Fab) (width 0.1))
  (fp_line (start 1 -1.44) (end 1 -2.37) (layer F.SilkS) (width 0.12))
  (fp_line (start 1 -2.37) (end 14.24 -2.37) (layer F.SilkS) (width 0.12))
  (fp_line (start 14.24 -2.37) (end 14.24 -1.44) (layer F.SilkS) (width 0.12))
  (fp_line (start 1 1.44) (end 1 2.37) (layer F.SilkS) (width 0.12))
  (fp_line (start 1 2.37) (end 14.24 2.37) (layer F.SilkS) (width 0.12))
  (fp_line (start 14.24 2.37) (end 14.24 1.44) (layer F.SilkS) (width 0.12))
  (fp_line (start -1.45 -2.5) (end -1.45 2.5) (layer F.CrtYd) (width 0.05))
  (fp_line (start -1.45 2.5) (end 16.69 2.5) (layer F.CrtYd) (width 0.05))
  (fp_line (start 16.69 2.5) (end 16.69 -2.5) (layer F.CrtYd) (width 0.05))
  (fp_line (start 16.69 -2.5) (end -1.45 -2.5) (layer F.CrtYd) (width 0.05))
  (fp_text user %R (at 7.62 0) (layer F.Fab)
    (effects (font (size 1 1) (thickness 0.15)))
  )
  (fp_arc (start 9.2075 0) (end 10.795 0) (angle -180) (layer F.SilkS) (width 0.12))
  (fp_arc (start 12.3825 0) (end 10.795 0) (angle 163.7397953) (layer F.SilkS) (width 0.12))
  (fp_arc (start 6.0325 0) (end 7.62 0) (angle -180) (layer F.SilkS) (width 0.12))
  (fp_arc (start 2.8575 0) (end 4.445 0) (angle -165.9637653) (layer F.SilkS) (width 0.12))
  (pad 2 thru_hole oval (at 15.24 0) (size 2.4 2.4) (drill 1.2) (layers *.Cu *.Mask))
  (pad 1 thru_hole circle (at 0 0) (size 2.4 2.4) (drill 1.2) (layers *.Cu *.Mask))
  (model ${KISYS3DMOD}/Inductor_THT.3dshapes/L_Axial_L13.0mm_D4.5mm_P15.24mm_Horizontal_Fastron_HCCC.wrl
    (at (xyz 0 0 0))
    (scale (xyz 1 1 1))
    (rotate (xyz 0 0 0))
  )
)
