(module L_Axial_L26.7mm_D12.1mm_P7.62mm_Vertical_Vishay_IHA-103 (layer F.Cu) (tedit 60811F21)
  (descr "Inductor, Axial series, Axial, Vertical, pin pitch=7.62mm, , length*diameter=26.67*12.07mm^2, Vishay, IHA-103, http://www.vishay.com/docs/34014/iha.pdf, Alternate KiCad Library")
  (tags "Inductor Axial series Axial Vertical pin pitch 7.62mm  length 26.67mm diameter 12.07mm Vishay IHA-103")
  (fp_text reference REF** (at 3.81 -7.155) (layer F.SilkS)
    (effects (font (size 1 1) (thickness 0.15)))
  )
  (fp_text value L_Axial_L26.7mm_D12.1mm_P7.62mm_Vertical_Vishay_IHA-103 (at 3.81 7.155) (layer F.Fab)
    (effects (font (size 1 1) (thickness 0.15)))
  )
  (fp_circle (center 0 0) (end 6.035 0) (layer F.Fab) (width 0.1))
  (fp_line (start 0 0) (end 7.62 0) (layer F.Fab) (width 0.1))
  (fp_line (start -6.29 -6.29) (end -6.29 6.29) (layer F.CrtYd) (width 0.05))
  (fp_line (start -6.29 6.29) (end 9.07 6.29) (layer F.CrtYd) (width 0.05))
  (fp_line (start 9.07 6.29) (end 9.07 -6.29) (layer F.CrtYd) (width 0.05))
  (fp_line (start 9.07 -6.29) (end -6.29 -6.29) (layer F.CrtYd) (width 0.05))
  (fp_text user %R (at 0 -1.7) (layer F.Fab)
    (effects (font (size 1 1) (thickness 0.15)))
  )
  (fp_arc (start 0 0) (end 6.01179 -1.32) (angle -335.232328) (layer F.SilkS) (width 0.12))
  (fp_arc (start 5.5245 0.254) (end 6.096 0.254) (angle -180) (layer F.SilkS) (width 0.12))
  (fp_arc (start 4.3815 0.254) (end 4.953 0.254) (angle -180) (layer F.SilkS) (width 0.12))
  (fp_arc (start 2.0955 0.254) (end 2.667 0.254) (angle -180) (layer F.SilkS) (width 0.12))
  (fp_arc (start 3.2385 0.254) (end 3.81 0.254) (angle -180) (layer F.SilkS) (width 0.12))
  (pad 2 thru_hole oval (at 7.62 0) (size 2.4 2.4) (drill 1.2) (layers *.Cu *.Mask))
  (pad 1 thru_hole circle (at 0 0) (size 2.4 2.4) (drill 1.2) (layers *.Cu *.Mask))
  (model ${KISYS3DMOD}/Inductor_THT.3dshapes/L_Axial_L26.7mm_D12.1mm_P7.62mm_Vertical_Vishay_IHA-103.wrl
    (at (xyz 0 0 0))
    (scale (xyz 1 1 1))
    (rotate (xyz 0 0 0))
  )
)
