(module L_Axial_L5.3mm_D2.2mm_P7.62mm_Horizontal_Vishay_IM-1 (layer F.Cu) (tedit 60795583)
  (descr "Inductor, Axial series, Axial, Horizontal, pin pitch=7.62mm, , length*diameter=5.3*2.2mm^2, Vishay, IM-1, http://www.vishay.com/docs/34030/im.pdf, Alternate KiCad Library")
  (tags "Inductor Axial series Axial Horizontal pin pitch 7.62mm  length 5.3mm diameter 2.2mm Vishay IM-1")
  (fp_text reference REF** (at 3.81 -2.22) (layer F.SilkS)
    (effects (font (size 1 1) (thickness 0.15)))
  )
  (fp_text value L_Axial_L5.3mm_D2.2mm_P7.62mm_Horizontal_Vishay_IM-1 (at 3.81 2.22) (layer F.Fab)
    (effects (font (size 1 1) (thickness 0.15)))
  )
  (fp_line (start 8.67 -1.35) (end -1.05 -1.35) (layer F.CrtYd) (width 0.05))
  (fp_line (start 8.67 1.35) (end 8.67 -1.35) (layer F.CrtYd) (width 0.05))
  (fp_line (start -1.05 1.35) (end 8.67 1.35) (layer F.CrtYd) (width 0.05))
  (fp_line (start -1.05 -1.35) (end -1.05 1.35) (layer F.CrtYd) (width 0.05))
  (fp_line (start 6.58 -1.22) (end 1.04 -1.22) (layer F.SilkS) (width 0.12))
  (fp_line (start 6.58 1.22) (end 6.58 -1.22) (layer F.SilkS) (width 0.12))
  (fp_line (start 1.04 1.22) (end 6.58 1.22) (layer F.SilkS) (width 0.12))
  (fp_line (start 1.04 -1.22) (end 1.04 1.22) (layer F.SilkS) (width 0.12))
  (fp_line (start 7.62 0) (end 6.46 0) (layer F.Fab) (width 0.1))
  (fp_line (start 0 0) (end 1.16 0) (layer F.Fab) (width 0.1))
  (fp_line (start 6.46 -1.1) (end 1.16 -1.1) (layer F.Fab) (width 0.1))
  (fp_line (start 6.46 1.1) (end 6.46 -1.1) (layer F.Fab) (width 0.1))
  (fp_line (start 1.16 1.1) (end 6.46 1.1) (layer F.Fab) (width 0.1))
  (fp_line (start 1.16 -1.1) (end 1.16 1.1) (layer F.Fab) (width 0.1))
  (fp_line (start 6.35 0) (end 6.5405 0) (layer F.SilkS) (width 0.12))
  (fp_line (start 1.27 0) (end 1.0795 0) (layer F.SilkS) (width 0.12))
  (fp_text user %R (at 3.81 0) (layer F.Fab)
    (effects (font (size 1 1) (thickness 0.15)))
  )
  (fp_arc (start 1.905 0) (end 2.54 0) (angle -180) (layer F.SilkS) (width 0.12))
  (fp_arc (start 3.175 0) (end 3.81 0) (angle -180) (layer F.SilkS) (width 0.12))
  (fp_arc (start 4.445 0) (end 5.08 0) (angle -180) (layer F.SilkS) (width 0.12))
  (fp_arc (start 5.715 0) (end 6.35 0) (angle -180) (layer F.SilkS) (width 0.12))
  (pad 2 thru_hole oval (at 7.62 0) (size 1.6 1.6) (drill 0.8) (layers *.Cu *.Mask))
  (pad 1 thru_hole circle (at 0 0) (size 1.6 1.6) (drill 0.8) (layers *.Cu *.Mask))
  (model ${KISYS3DMOD}/Inductor_THT.3dshapes/L_Axial_L5.3mm_D2.2mm_P7.62mm_Horizontal_Vishay_IM-1.wrl
    (at (xyz 0 0 0))
    (scale (xyz 1 1 1))
    (rotate (xyz 0 0 0))
  )
)
