(module L_Axial_L16.0mm_D7.5mm_P7.62mm_Vertical_Fastron_XHBCC (layer F.Cu) (tedit 60811D5A)
  (descr "Inductor, Axial series, Axial, Vertical, pin pitch=7.62mm, , length*diameter=16*7.5mm^2, Fastron, XHBCC, http://www.fastrongroup.com/image-show/26/XHBCC.pdf?type=Complete-DataSheet&productType=series, Alternate KiCad Library")
  (tags "Inductor Axial series Axial Vertical pin pitch 7.62mm  length 16mm diameter 7.5mm Fastron XHBCC")
  (fp_text reference REF** (at 3.81 -4.87) (layer F.SilkS)
    (effects (font (size 1 1) (thickness 0.15)))
  )
  (fp_text value L_Axial_L16.0mm_D7.5mm_P7.62mm_Vertical_Fastron_XHBCC (at 3.81 4.87) (layer F.Fab)
    (effects (font (size 1 1) (thickness 0.15)))
  )
  (fp_circle (center 0 0) (end 3.75 0) (layer F.Fab) (width 0.1))
  (fp_line (start 0 0) (end 7.62 0) (layer F.Fab) (width 0.1))
  (fp_line (start -4 -4) (end -4 4) (layer F.CrtYd) (width 0.05))
  (fp_line (start -4 4) (end 8.97 4) (layer F.CrtYd) (width 0.05))
  (fp_line (start 8.97 4) (end 8.97 -4) (layer F.CrtYd) (width 0.05))
  (fp_line (start 8.97 -4) (end -4 -4) (layer F.CrtYd) (width 0.05))
  (fp_text user %R (at 0 -1.6) (layer F.Fab)
    (effects (font (size 1 1) (thickness 0.15)))
  )
  (fp_arc (start 2.0955 0.254) (end 2.667 0.254) (angle -180) (layer F.SilkS) (width 0.12))
  (fp_arc (start 5.5245 0.254) (end 6.096 0.254) (angle -180) (layer F.SilkS) (width 0.12))
  (fp_arc (start 0 0) (end 3.81 -0.5715) (angle -342.9980916) (layer F.SilkS) (width 0.12))
  (fp_arc (start 3.2385 0.254) (end 3.81 0.254) (angle -180) (layer F.SilkS) (width 0.12))
  (fp_arc (start 4.3815 0.254) (end 4.953 0.254) (angle -180) (layer F.SilkS) (width 0.12))
  (pad 2 thru_hole oval (at 7.62 0) (size 2.2 2.2) (drill 1.1) (layers *.Cu *.Mask))
  (pad 1 thru_hole circle (at 0 0) (size 2.2 2.2) (drill 1.1) (layers *.Cu *.Mask))
  (model ${KISYS3DMOD}/Inductor_THT.3dshapes/L_Axial_L16.0mm_D7.5mm_P7.62mm_Vertical_Fastron_XHBCC.wrl
    (at (xyz 0 0 0))
    (scale (xyz 1 1 1))
    (rotate (xyz 0 0 0))
  )
)
