(module L_Axial_L6.6mm_D2.7mm_P2.54mm_Vertical_Vishay_IM-2 (layer F.Cu) (tedit 60811870)
  (descr "Inductor, Axial series, Axial, Vertical, pin pitch=2.54mm, , length*diameter=6.6*2.7mm^2, Vishay, IM-2, http://www.vishay.com/docs/34030/im.pdf, Alternate KiCad Library")
  (tags "Inductor Axial series Axial Vertical pin pitch 2.54mm  length 6.6mm diameter 2.7mm Vishay IM-2")
  (fp_text reference REF** (at 1.27 -2.47) (layer F.SilkS)
    (effects (font (size 1 1) (thickness 0.15)))
  )
  (fp_text value L_Axial_L6.6mm_D2.7mm_P2.54mm_Vertical_Vishay_IM-2 (at 1.27 2.47) (layer F.Fab)
    (effects (font (size 1 1) (thickness 0.15)))
  )
  (fp_circle (center 0 0) (end 1.35 0) (layer F.Fab) (width 0.1))
  (fp_line (start 0 0) (end 2.54 0) (layer F.Fab) (width 0.1))
  (fp_line (start -1.6 -1.6) (end -1.6 1.6) (layer F.CrtYd) (width 0.05))
  (fp_line (start -1.6 1.6) (end 3.59 1.6) (layer F.CrtYd) (width 0.05))
  (fp_line (start 3.59 1.6) (end 3.59 -1.6) (layer F.CrtYd) (width 0.05))
  (fp_line (start 3.59 -1.6) (end -1.6 -1.6) (layer F.CrtYd) (width 0.05))
  (fp_text user %R (at 1.27 -2.47) (layer F.Fab)
    (effects (font (size 1 1) (thickness 0.15)))
  )
  (fp_arc (start 0 0) (end 1.146516 -0.92) (angle -282.510745) (layer F.SilkS) (width 0.12))
  (fp_arc (start 1.397 0) (end 1.27 0) (angle 180) (layer F.SilkS) (width 0.12))
  (fp_arc (start 1.143 0) (end 1.27 0) (angle -180) (layer F.SilkS) (width 0.12))
  (pad 2 thru_hole oval (at 2.54 0) (size 1.6 1.6) (drill 0.8) (layers *.Cu *.Mask))
  (pad 1 thru_hole circle (at 0 0) (size 1.6 1.6) (drill 0.8) (layers *.Cu *.Mask))
  (model ${KISYS3DMOD}/Inductor_THT.3dshapes/L_Axial_L6.6mm_D2.7mm_P2.54mm_Vertical_Vishay_IM-2.wrl
    (at (xyz 0 0 0))
    (scale (xyz 1 1 1))
    (rotate (xyz 0 0 0))
  )
)
