(module L_Axial_L14.5mm_D5.8mm_P5.08mm_Vertical_Fastron_HBCC (layer F.Cu) (tedit 60811C39)
  (descr "Inductor, Axial series, Axial, Vertical, pin pitch=5.08mm, , length*diameter=14.5*5.8mm^2, Fastron, HBCC, http://www.fastrongroup.com/image-show/18/HBCC.pdf?type=Complete-DataSheet&productType=series, Alternate KiCad Library")
  (tags "Inductor Axial series Axial Vertical pin pitch 5.08mm  length 14.5mm diameter 5.8mm Fastron HBCC")
  (fp_text reference REF** (at 2.54 -4.02) (layer F.SilkS)
    (effects (font (size 1 1) (thickness 0.15)))
  )
  (fp_text value L_Axial_L14.5mm_D5.8mm_P5.08mm_Vertical_Fastron_HBCC (at 2.54 4.02) (layer F.Fab)
    (effects (font (size 1 1) (thickness 0.15)))
  )
  (fp_line (start 6.43 -3.15) (end -3.15 -3.15) (layer F.CrtYd) (width 0.05))
  (fp_line (start 6.43 3.15) (end 6.43 -3.15) (layer F.CrtYd) (width 0.05))
  (fp_line (start -3.15 3.15) (end 6.43 3.15) (layer F.CrtYd) (width 0.05))
  (fp_line (start -3.15 -3.15) (end -3.15 3.15) (layer F.CrtYd) (width 0.05))
  (fp_line (start 0 0) (end 5.08 0) (layer F.Fab) (width 0.1))
  (fp_circle (center 0 0) (end 2.9 0) (layer F.Fab) (width 0.1))
  (fp_text user %R (at 0 -1.6) (layer F.Fab)
    (effects (font (size 1 1) (thickness 0.15)))
  )
  (fp_arc (start 2.286 0.127) (end 2.54 0.127) (angle -180) (layer F.SilkS) (width 0.12))
  (fp_arc (start 1.778 0.127) (end 2.032 0.127) (angle -180) (layer F.SilkS) (width 0.12))
  (fp_arc (start 2.794 0.127) (end 3.048 0.127) (angle -180) (layer F.SilkS) (width 0.12))
  (fp_arc (start 0 0) (end 2.9845 -0.381) (angle -345.4499901) (layer F.SilkS) (width 0.12))
  (fp_arc (start 3.302 0.127) (end 3.556 0.127) (angle -180) (layer F.SilkS) (width 0.12))
  (pad 2 thru_hole oval (at 5.08 0) (size 2.2 2.2) (drill 1.1) (layers *.Cu *.Mask))
  (pad 1 thru_hole circle (at 0 0) (size 2.2 2.2) (drill 1.1) (layers *.Cu *.Mask))
  (model ${KISYS3DMOD}/Inductor_THT.3dshapes/L_Axial_L14.5mm_D5.8mm_P5.08mm_Vertical_Fastron_HBCC.wrl
    (at (xyz 0 0 0))
    (scale (xyz 1 1 1))
    (rotate (xyz 0 0 0))
  )
)
