(module L_Axial_L12.0mm_D5.0mm_P7.62mm_Vertical_Fastron_MISC (layer F.Cu) (tedit 60811AF9)
  (descr "Inductor, Axial series, Axial, Vertical, pin pitch=7.62mm, , length*diameter=12*5mm^2, Fastron, MISC, http://cdn-reichelt.de/documents/datenblatt/B400/DS_MISC.pdf, Alternate KiCad Library")
  (tags "Inductor Axial series Axial Vertical pin pitch 7.62mm  length 12mm diameter 5mm Fastron MISC")
  (fp_text reference REF** (at 3.81 -3.62) (layer F.SilkS)
    (effects (font (size 1 1) (thickness 0.15)))
  )
  (fp_text value L_Axial_L12.0mm_D5.0mm_P7.62mm_Vertical_Fastron_MISC (at 3.81 3.62) (layer F.Fab)
    (effects (font (size 1 1) (thickness 0.15)))
  )
  (fp_circle (center 0 0) (end 2.5 0) (layer F.Fab) (width 0.1))
  (fp_line (start 0 0) (end 7.62 0) (layer F.Fab) (width 0.1))
  (fp_line (start -2.75 -2.75) (end -2.75 2.75) (layer F.CrtYd) (width 0.05))
  (fp_line (start -2.75 2.75) (end 9.07 2.75) (layer F.CrtYd) (width 0.05))
  (fp_line (start 9.07 2.75) (end 9.07 -2.75) (layer F.CrtYd) (width 0.05))
  (fp_line (start 9.07 -2.75) (end -2.75 -2.75) (layer F.CrtYd) (width 0.05))
  (fp_text user %R (at 3.81 -3.62) (layer F.Fab)
    (effects (font (size 1 1) (thickness 0.15)))
  )
  (fp_arc (start 2.0955 0.254) (end 2.667 0.254) (angle -180) (layer F.SilkS) (width 0.12))
  (fp_arc (start 0 0) (end 2.54 -0.5715) (angle -334.639233) (layer F.SilkS) (width 0.12))
  (fp_arc (start 3.2385 0.254) (end 3.81 0.254) (angle -180) (layer F.SilkS) (width 0.12))
  (fp_arc (start 4.3815 0.254) (end 4.953 0.254) (angle -180) (layer F.SilkS) (width 0.12))
  (fp_arc (start 5.5245 0.254) (end 6.096 0.254) (angle -180) (layer F.SilkS) (width 0.12))
  (pad 2 thru_hole oval (at 7.62 0) (size 2.4 2.4) (drill 1.2) (layers *.Cu *.Mask))
  (pad 1 thru_hole circle (at 0 0) (size 2.4 2.4) (drill 1.2) (layers *.Cu *.Mask))
  (model ${KISYS3DMOD}/Inductor_THT.3dshapes/L_Axial_L12.0mm_D5.0mm_P7.62mm_Vertical_Fastron_MISC.wrl
    (at (xyz 0 0 0))
    (scale (xyz 1 1 1))
    (rotate (xyz 0 0 0))
  )
)
