(module L_Axial_L20.3mm_D12.7mm_P25.40mm_Horizontal_Vishay_IHA-201 (layer F.Cu) (tedit 60795699)
  (descr "Inductor, Axial series, Axial, Horizontal, pin pitch=25.4mm, , length*diameter=20.32*12.7mm^2, Vishay, IHA-201, http://www.vishay.com/docs/34014/iha.pdf, Alternate KiCad Library")
  (tags "Inductor Axial series Axial Horizontal pin pitch 25.4mm  length 20.32mm diameter 12.7mm Vishay IHA-201")
  (fp_text reference REF** (at 12.7 -7.47) (layer F.SilkS)
    (effects (font (size 1 1) (thickness 0.15)))
  )
  (fp_text value L_Axial_L20.3mm_D12.7mm_P25.40mm_Horizontal_Vishay_IHA-201 (at 12.7 7.47) (layer F.Fab)
    (effects (font (size 1 1) (thickness 0.15)))
  )
  (fp_line (start 2.794 0) (end 2.42 0) (layer F.SilkS) (width 0.12))
  (fp_line (start 22.606 0) (end 22.98 0) (layer F.SilkS) (width 0.12))
  (fp_line (start 2.54 -6.35) (end 2.54 6.35) (layer F.Fab) (width 0.1))
  (fp_line (start 2.54 6.35) (end 22.86 6.35) (layer F.Fab) (width 0.1))
  (fp_line (start 22.86 6.35) (end 22.86 -6.35) (layer F.Fab) (width 0.1))
  (fp_line (start 22.86 -6.35) (end 2.54 -6.35) (layer F.Fab) (width 0.1))
  (fp_line (start 0 0) (end 2.54 0) (layer F.Fab) (width 0.1))
  (fp_line (start 25.4 0) (end 22.86 0) (layer F.Fab) (width 0.1))
  (fp_line (start 2.42 -6.47) (end 2.42 6.47) (layer F.SilkS) (width 0.12))
  (fp_line (start 2.42 6.47) (end 22.98 6.47) (layer F.SilkS) (width 0.12))
  (fp_line (start 22.98 6.47) (end 22.98 -6.47) (layer F.SilkS) (width 0.12))
  (fp_line (start 22.98 -6.47) (end 2.42 -6.47) (layer F.SilkS) (width 0.12))
  (fp_line (start 1.44 0) (end 2.42 0) (layer F.SilkS) (width 0.12))
  (fp_line (start 23.96 0) (end 22.98 0) (layer F.SilkS) (width 0.12))
  (fp_line (start -1.45 -6.6) (end -1.45 6.6) (layer F.CrtYd) (width 0.05))
  (fp_line (start -1.45 6.6) (end 26.85 6.6) (layer F.CrtYd) (width 0.05))
  (fp_line (start 26.85 6.6) (end 26.85 -6.6) (layer F.CrtYd) (width 0.05))
  (fp_line (start 26.85 -6.6) (end -1.45 -6.6) (layer F.CrtYd) (width 0.05))
  (fp_text user %R (at 12.7 0) (layer F.Fab)
    (effects (font (size 1 1) (thickness 0.15)))
  )
  (fp_arc (start 10.2235 0) (end 12.7 0) (angle -180) (layer F.SilkS) (width 0.12))
  (fp_arc (start 20.1295 0) (end 17.653 0) (angle 180) (layer F.SilkS) (width 0.12))
  (fp_arc (start 5.2705 0) (end 7.747 0) (angle -180) (layer F.SilkS) (width 0.12))
  (fp_arc (start 15.1765 0) (end 17.653 0) (angle -180) (layer F.SilkS) (width 0.12))
  (pad 2 thru_hole oval (at 25.4 0) (size 2.4 2.4) (drill 1.2) (layers *.Cu *.Mask))
  (pad 1 thru_hole circle (at 0 0) (size 2.4 2.4) (drill 1.2) (layers *.Cu *.Mask))
  (model ${KISYS3DMOD}/Inductor_THT.3dshapes/L_Axial_L20.3mm_D12.7mm_P25.40mm_Horizontal_Vishay_IHA-201.wrl
    (at (xyz 0 0 0))
    (scale (xyz 1 1 1))
    (rotate (xyz 0 0 0))
  )
)
