(module L_Axial_L7.0mm_D3.3mm_P2.54mm_Vertical_Fastron_MICC (layer F.Cu) (tedit 60811876)
  (descr "Inductor, Axial series, Axial, Vertical, pin pitch=2.54mm, , length*diameter=7*3.3mm^2, Fastron, MICC, http://www.fastrongroup.com/image-show/70/MICC.pdf?type=Complete-DataSheet&productType=series, Alternate KiCad Library")
  (tags "Inductor Axial series Axial Vertical pin pitch 2.54mm  length 7mm diameter 3.3mm Fastron MICC")
  (fp_text reference REF** (at 1.27 -2.77) (layer F.SilkS)
    (effects (font (size 1 1) (thickness 0.15)))
  )
  (fp_text value L_Axial_L7.0mm_D3.3mm_P2.54mm_Vertical_Fastron_MICC (at 1.27 2.77) (layer F.Fab)
    (effects (font (size 1 1) (thickness 0.15)))
  )
  (fp_circle (center 0 0) (end 1.65 0) (layer F.Fab) (width 0.1))
  (fp_line (start 0 0) (end 2.54 0) (layer F.Fab) (width 0.1))
  (fp_line (start -1.9 -1.9) (end -1.9 1.9) (layer F.CrtYd) (width 0.05))
  (fp_line (start -1.9 1.9) (end 3.59 1.9) (layer F.CrtYd) (width 0.05))
  (fp_line (start 3.59 1.9) (end 3.59 -1.9) (layer F.CrtYd) (width 0.05))
  (fp_line (start 3.59 -1.9) (end -1.9 -1.9) (layer F.CrtYd) (width 0.05))
  (fp_text user %R (at 1.27 -2.77) (layer F.Fab)
    (effects (font (size 1 1) (thickness 0.15)))
  )
  (fp_arc (start 0 0) (end 1.512118 -0.92) (angle -297.365812) (layer F.SilkS) (width 0.12))
  (fp_arc (start 1.397 0) (end 1.27 0) (angle 180) (layer F.SilkS) (width 0.12))
  (fp_arc (start 1.143 0) (end 1.27 0) (angle -180) (layer F.SilkS) (width 0.12))
  (pad 2 thru_hole oval (at 2.54 0) (size 1.6 1.6) (drill 0.8) (layers *.Cu *.Mask))
  (pad 1 thru_hole circle (at 0 0) (size 1.6 1.6) (drill 0.8) (layers *.Cu *.Mask))
  (model ${KISYS3DMOD}/Inductor_THT.3dshapes/L_Axial_L7.0mm_D3.3mm_P2.54mm_Vertical_Fastron_MICC.wrl
    (at (xyz 0 0 0))
    (scale (xyz 1 1 1))
    (rotate (xyz 0 0 0))
  )
)
