(module L_Axial_L11.0mm_D4.5mm_P7.62mm_Vertical_Fastron_MECC (layer F.Cu) (tedit 60811992)
  (descr "Inductor, Axial series, Axial, Vertical, pin pitch=7.62mm, , length*diameter=11*4.5mm^2, Fastron, MECC, http://www.fastrongroup.com/image-show/21/MECC.pdf?type=Complete-DataSheet&productType=series, Alternate KiCad Library")
  (tags "Inductor Axial series Axial Vertical pin pitch 7.62mm  length 11mm diameter 4.5mm Fastron MECC")
  (fp_text reference REF** (at 3.81 -3.37) (layer F.SilkS)
    (effects (font (size 1 1) (thickness 0.15)))
  )
  (fp_text value L_Axial_L11.0mm_D4.5mm_P7.62mm_Vertical_Fastron_MECC (at 3.81 3.37) (layer F.Fab)
    (effects (font (size 1 1) (thickness 0.15)))
  )
  (fp_circle (center 0 0) (end 2.25 0) (layer F.Fab) (width 0.1))
  (fp_line (start 0 0) (end 7.62 0) (layer F.Fab) (width 0.1))
  (fp_line (start -2.5 -2.5) (end -2.5 2.5) (layer F.CrtYd) (width 0.05))
  (fp_line (start -2.5 2.5) (end 8.88 2.5) (layer F.CrtYd) (width 0.05))
  (fp_line (start 8.88 2.5) (end 8.88 -2.5) (layer F.CrtYd) (width 0.05))
  (fp_line (start 8.88 -2.5) (end -2.5 -2.5) (layer F.CrtYd) (width 0.05))
  (fp_text user %R (at 3.81 -3.37) (layer F.Fab)
    (effects (font (size 1 1) (thickness 0.15)))
  )
  (fp_arc (start 1.905 0.3175) (end 2.54 0.3175) (angle -180) (layer F.SilkS) (width 0.12))
  (fp_arc (start 3.175 0.3175) (end 3.81 0.3175) (angle -180) (layer F.SilkS) (width 0.12))
  (fp_arc (start 4.445 0.3175) (end 5.08 0.3175) (angle -180) (layer F.SilkS) (width 0.12))
  (fp_arc (start 5.715 0.3175) (end 6.35 0.3175) (angle -180) (layer F.SilkS) (width 0.12))
  (fp_arc (start 0 0) (end 2.286 -0.508) (angle -334.9423846) (layer F.SilkS) (width 0.12))
  (pad 2 thru_hole oval (at 7.62 0) (size 2 2) (drill 1) (layers *.Cu *.Mask))
  (pad 1 thru_hole circle (at 0 0) (size 2 2) (drill 1) (layers *.Cu *.Mask))
  (model ${KISYS3DMOD}/Inductor_THT.3dshapes/L_Axial_L11.0mm_D4.5mm_P7.62mm_Vertical_Fastron_MECC.wrl
    (at (xyz 0 0 0))
    (scale (xyz 1 1 1))
    (rotate (xyz 0 0 0))
  )
)
