(module L_Axial_L30.0mm_D8.0mm_P5.08mm_Vertical_Fastron_77A (layer F.Cu) (tedit 60811F58)
  (descr "Inductor, Axial series, Axial, Vertical, pin pitch=5.08mm, , length*diameter=30*8mm^2, Fastron, 77A, http://cdn-reichelt.de/documents/datenblatt/B400/DS_77A.pdf, Alternate KiCad Library")
  (tags "Inductor Axial series Axial Vertical pin pitch 5.08mm  length 30mm diameter 8mm Fastron 77A")
  (fp_text reference REF** (at 2.54 -5.12) (layer F.SilkS)
    (effects (font (size 1 1) (thickness 0.15)))
  )
  (fp_text value L_Axial_L30.0mm_D8.0mm_P5.08mm_Vertical_Fastron_77A (at 2.54 5.12) (layer F.Fab)
    (effects (font (size 1 1) (thickness 0.15)))
  )
  (fp_circle (center 0 0) (end 4 0) (layer F.Fab) (width 0.1))
  (fp_line (start 0 0) (end 5.08 0) (layer F.Fab) (width 0.1))
  (fp_line (start -4.25 -4.25) (end -4.25 4.25) (layer F.CrtYd) (width 0.05))
  (fp_line (start -4.25 4.25) (end 6.73 4.25) (layer F.CrtYd) (width 0.05))
  (fp_line (start 6.73 4.25) (end 6.73 -4.25) (layer F.CrtYd) (width 0.05))
  (fp_line (start 6.73 -4.25) (end -4.25 -4.25) (layer F.CrtYd) (width 0.05))
  (fp_text user %R (at 0 -1.9) (layer F.Fab)
    (effects (font (size 1 1) (thickness 0.15)))
  )
  (fp_arc (start 0 0) (end 3.82936 -1.52) (angle -316.700463) (layer F.SilkS) (width 0.12))
  (fp_arc (start 2.159 0.127) (end 2.54 0.127) (angle -180) (layer F.SilkS) (width 0.12))
  (fp_arc (start 2.921 0.127) (end 3.302 0.127) (angle -180) (layer F.SilkS) (width 0.12))
  (pad 2 thru_hole oval (at 5.08 0) (size 2.8 2.8) (drill 1.4) (layers *.Cu *.Mask))
  (pad 1 thru_hole circle (at 0 0) (size 2.8 2.8) (drill 1.4) (layers *.Cu *.Mask))
  (model ${KISYS3DMOD}/Inductor_THT.3dshapes/L_Axial_L30.0mm_D8.0mm_P5.08mm_Vertical_Fastron_77A.wrl
    (at (xyz 0 0 0))
    (scale (xyz 1 1 1))
    (rotate (xyz 0 0 0))
  )
)
