(module L_Axial_L16.0mm_D7.5mm_P20.32mm_Horizontal_Fastron_XHBCC (layer F.Cu) (tedit 6079564B)
  (descr "Inductor, Axial series, Axial, Horizontal, pin pitch=20.32mm, , length*diameter=16*7.5mm^2, Fastron, XHBCC, http://www.fastrongroup.com/image-show/26/XHBCC.pdf?type=Complete-DataSheet&productType=series, Alternate KiCad Library")
  (tags "Inductor Axial series Axial Horizontal pin pitch 20.32mm  length 16mm diameter 7.5mm Fastron XHBCC")
  (fp_text reference REF** (at 10.16 -4.87) (layer F.SilkS)
    (effects (font (size 1 1) (thickness 0.15)))
  )
  (fp_text value L_Axial_L16.0mm_D7.5mm_P20.32mm_Horizontal_Fastron_XHBCC (at 10.16 4.87) (layer F.Fab)
    (effects (font (size 1 1) (thickness 0.15)))
  )
  (fp_line (start 2.286 0) (end 2.04 0) (layer F.SilkS) (width 0.12))
  (fp_line (start 18.034 0) (end 18.288 0) (layer F.SilkS) (width 0.12))
  (fp_line (start 2.16 -3.75) (end 2.16 3.75) (layer F.Fab) (width 0.1))
  (fp_line (start 2.16 3.75) (end 18.16 3.75) (layer F.Fab) (width 0.1))
  (fp_line (start 18.16 3.75) (end 18.16 -3.75) (layer F.Fab) (width 0.1))
  (fp_line (start 18.16 -3.75) (end 2.16 -3.75) (layer F.Fab) (width 0.1))
  (fp_line (start 0 0) (end 2.16 0) (layer F.Fab) (width 0.1))
  (fp_line (start 20.32 0) (end 18.16 0) (layer F.Fab) (width 0.1))
  (fp_line (start 2.04 -3.87) (end 2.04 3.87) (layer F.SilkS) (width 0.12))
  (fp_line (start 2.04 3.87) (end 18.28 3.87) (layer F.SilkS) (width 0.12))
  (fp_line (start 18.28 3.87) (end 18.28 -3.87) (layer F.SilkS) (width 0.12))
  (fp_line (start 18.28 -3.87) (end 2.04 -3.87) (layer F.SilkS) (width 0.12))
  (fp_line (start 1.34 0) (end 2.04 0) (layer F.SilkS) (width 0.12))
  (fp_line (start 18.98 0) (end 18.28 0) (layer F.SilkS) (width 0.12))
  (fp_line (start -1.35 -4) (end -1.35 4) (layer F.CrtYd) (width 0.05))
  (fp_line (start -1.35 4) (end 21.67 4) (layer F.CrtYd) (width 0.05))
  (fp_line (start 21.67 4) (end 21.67 -4) (layer F.CrtYd) (width 0.05))
  (fp_line (start 21.67 -4) (end -1.35 -4) (layer F.CrtYd) (width 0.05))
  (fp_text user %R (at 10.16 0) (layer F.Fab)
    (effects (font (size 1 1) (thickness 0.15)))
  )
  (fp_arc (start 16.0655 0) (end 14.097 0) (angle 180) (layer F.SilkS) (width 0.12))
  (fp_arc (start 12.1285 0) (end 14.097 0) (angle -180) (layer F.SilkS) (width 0.12))
  (fp_arc (start 8.1915 0) (end 10.16 0) (angle -180) (layer F.SilkS) (width 0.12))
  (fp_arc (start 4.2545 0) (end 6.223 0) (angle -180) (layer F.SilkS) (width 0.12))
  (pad 2 thru_hole oval (at 20.32 0) (size 2.2 2.2) (drill 1.1) (layers *.Cu *.Mask))
  (pad 1 thru_hole circle (at 0 0) (size 2.2 2.2) (drill 1.1) (layers *.Cu *.Mask))
  (model ${KISYS3DMOD}/Inductor_THT.3dshapes/L_Axial_L16.0mm_D7.5mm_P20.32mm_Horizontal_Fastron_XHBCC.wrl
    (at (xyz 0 0 0))
    (scale (xyz 1 1 1))
    (rotate (xyz 0 0 0))
  )
)
