(module L_Axial_L14.5mm_D5.8mm_P20.32mm_Horizontal_Fastron_HBCC (layer F.Cu) (tedit 60795622)
  (descr "Inductor, Axial series, Axial, Horizontal, pin pitch=20.32mm, , length*diameter=14.5*5.8mm^2, Fastron, HBCC, http://www.fastrongroup.com/image-show/18/HBCC.pdf?type=Complete-DataSheet&productType=series, Alternate KiCad Library")
  (tags "Inductor Axial series Axial Horizontal pin pitch 20.32mm  length 14.5mm diameter 5.8mm Fastron HBCC")
  (fp_text reference REF** (at 10.16 -4.02) (layer F.SilkS)
    (effects (font (size 1 1) (thickness 0.15)))
  )
  (fp_text value L_Axial_L14.5mm_D5.8mm_P20.32mm_Horizontal_Fastron_HBCC (at 10.16 4.02) (layer F.Fab)
    (effects (font (size 1 1) (thickness 0.15)))
  )
  (fp_line (start 2.91 -2.9) (end 2.91 2.9) (layer F.Fab) (width 0.1))
  (fp_line (start 2.91 2.9) (end 17.41 2.9) (layer F.Fab) (width 0.1))
  (fp_line (start 17.41 2.9) (end 17.41 -2.9) (layer F.Fab) (width 0.1))
  (fp_line (start 17.41 -2.9) (end 2.91 -2.9) (layer F.Fab) (width 0.1))
  (fp_line (start 0 0) (end 2.91 0) (layer F.Fab) (width 0.1))
  (fp_line (start 20.32 0) (end 17.41 0) (layer F.Fab) (width 0.1))
  (fp_line (start 2.79 -3.02) (end 2.79 3.02) (layer F.SilkS) (width 0.12))
  (fp_line (start 2.79 3.02) (end 17.53 3.02) (layer F.SilkS) (width 0.12))
  (fp_line (start 17.53 3.02) (end 17.53 -3.02) (layer F.SilkS) (width 0.12))
  (fp_line (start 17.53 -3.02) (end 2.79 -3.02) (layer F.SilkS) (width 0.12))
  (fp_line (start 1.34 0) (end 2.79 0) (layer F.SilkS) (width 0.12))
  (fp_line (start 18.98 0) (end 17.53 0) (layer F.SilkS) (width 0.12))
  (fp_line (start -1.35 -3.15) (end -1.35 3.15) (layer F.CrtYd) (width 0.05))
  (fp_line (start -1.35 3.15) (end 21.67 3.15) (layer F.CrtYd) (width 0.05))
  (fp_line (start 21.67 3.15) (end 21.67 -3.15) (layer F.CrtYd) (width 0.05))
  (fp_line (start 21.67 -3.15) (end -1.35 -3.15) (layer F.CrtYd) (width 0.05))
  (fp_text user %R (at 10.16 0) (layer F.Fab)
    (effects (font (size 1 1) (thickness 0.15)))
  )
  (fp_arc (start 4.6355 0) (end 6.477 0) (angle -180) (layer F.SilkS) (width 0.12))
  (fp_arc (start 8.3185 0) (end 10.16 0) (angle -180) (layer F.SilkS) (width 0.12))
  (fp_arc (start 12.0015 0) (end 13.843 0) (angle -180) (layer F.SilkS) (width 0.12))
  (fp_arc (start 15.6845 0) (end 13.843 0) (angle 180) (layer F.SilkS) (width 0.12))
  (pad 2 thru_hole oval (at 20.32 0) (size 2.2 2.2) (drill 1.1) (layers *.Cu *.Mask))
  (pad 1 thru_hole circle (at 0 0) (size 2.2 2.2) (drill 1.1) (layers *.Cu *.Mask))
  (model ${KISYS3DMOD}/Inductor_THT.3dshapes/L_Axial_L14.5mm_D5.8mm_P20.32mm_Horizontal_Fastron_HBCC.wrl
    (at (xyz 0 0 0))
    (scale (xyz 1 1 1))
    (rotate (xyz 0 0 0))
  )
)
