(module L_Axial_L9.5mm_D4.0mm_P5.08mm_Vertical_Fastron_SMCC (layer F.Cu) (tedit 608119D2)
  (descr "Inductor, Axial series, Axial, Vertical, pin pitch=5.08mm, , length*diameter=9.5*4mm^2, Fastron, SMCC, http://cdn-reichelt.de/documents/datenblatt/B400/DS_SMCC_NEU.pdf, http://cdn-reichelt.de/documents/datenblatt/B400/LEADEDINDUCTORS.pdf, Alternate KiCad Library")
  (tags "Inductor Axial series Axial Vertical pin pitch 5.08mm  length 9.5mm diameter 4mm Fastron SMCC")
  (fp_text reference REF** (at 2.54 -3.12) (layer F.SilkS)
    (effects (font (size 1 1) (thickness 0.15)))
  )
  (fp_text value L_Axial_L9.5mm_D4.0mm_P5.08mm_Vertical_Fastron_SMCC (at 2.54 3.12) (layer F.Fab)
    (effects (font (size 1 1) (thickness 0.15)))
  )
  (fp_line (start 6.33 -2.25) (end -2.25 -2.25) (layer F.CrtYd) (width 0.05))
  (fp_line (start 6.33 2.25) (end 6.33 -2.25) (layer F.CrtYd) (width 0.05))
  (fp_line (start -2.25 2.25) (end 6.33 2.25) (layer F.CrtYd) (width 0.05))
  (fp_line (start -2.25 -2.25) (end -2.25 2.25) (layer F.CrtYd) (width 0.05))
  (fp_line (start 0 0) (end 5.08 0) (layer F.Fab) (width 0.1))
  (fp_circle (center 0 0) (end 2 0) (layer F.Fab) (width 0.1))
  (fp_text user %R (at 2.54 -3.12) (layer F.Fab)
    (effects (font (size 1 1) (thickness 0.15)))
  )
  (fp_arc (start 1.5875 0.1905) (end 1.905 0.1905) (angle -180) (layer F.SilkS) (width 0.12))
  (fp_arc (start 2.2225 0.1905) (end 2.54 0.1905) (angle -180) (layer F.SilkS) (width 0.12))
  (fp_arc (start 2.8575 0.1905) (end 3.175 0.1905) (angle -180) (layer F.SilkS) (width 0.12))
  (fp_arc (start 3.4925 0.1905) (end 3.81 0.1905) (angle -180) (layer F.SilkS) (width 0.12))
  (fp_arc (start 0 0) (end 2.0955 -0.381) (angle -339.3903071) (layer F.SilkS) (width 0.12))
  (pad 2 thru_hole oval (at 5.08 0) (size 2 2) (drill 1) (layers *.Cu *.Mask))
  (pad 1 thru_hole circle (at 0 0) (size 2 2) (drill 1) (layers *.Cu *.Mask))
  (model ${KISYS3DMOD}/Inductor_THT.3dshapes/L_Axial_L9.5mm_D4.0mm_P5.08mm_Vertical_Fastron_SMCC.wrl
    (at (xyz 0 0 0))
    (scale (xyz 1 1 1))
    (rotate (xyz 0 0 0))
  )
)
