(module L_CommonMode_Wuerth_WE-CMB-M (layer F.Cu) (tedit 60795821)
  (descr "Wuerth, WE-CMB, Bauform M, Alternate KiCad Library")
  (tags "CommonModeChoke Gleichtaktdrossel ")
  (fp_text reference REF** (at 5.35 -8.75) (layer F.SilkS)
    (effects (font (size 1 1) (thickness 0.15)))
  )
  (fp_text value L_CommonMode_Wuerth_WE-CMB-M (at 5.35 16.5) (layer F.Fab)
    (effects (font (size 1 1) (thickness 0.15)))
  )
  (fp_circle (center 0.75 4.5) (end 0.85 4.5) (layer F.SilkS) (width 0.4))
  (fp_circle (center 0.75 3) (end 0.85 3) (layer F.SilkS) (width 0.4))
  (fp_line (start -1.4 -8) (end 12.1 -8) (layer F.CrtYd) (width 0.05))
  (fp_line (start 12.1 -8) (end 12.1 15.5) (layer F.CrtYd) (width 0.05))
  (fp_line (start 12.1 15.5) (end -1.4 15.5) (layer F.CrtYd) (width 0.05))
  (fp_line (start -1.4 15.5) (end -1.4 -8) (layer F.CrtYd) (width 0.05))
  (fp_line (start -1.25 -7.85) (end 11.95 -7.85) (layer F.SilkS) (width 0.12))
  (fp_line (start 11.95 -7.85) (end 11.95 15.35) (layer F.SilkS) (width 0.12))
  (fp_line (start 11.95 15.35) (end -1.25 15.35) (layer F.SilkS) (width 0.12))
  (fp_line (start -1.25 15.35) (end -1.25 -7.85) (layer F.SilkS) (width 0.12))
  (fp_line (start 7.85 10.25) (end 2.85 10.25) (layer F.Fab) (width 0.1))
  (fp_line (start 2.85 10.75) (end 7.85 10.75) (layer F.Fab) (width 0.1))
  (fp_line (start 7.85 9.75) (end 2.85 9.75) (layer F.Fab) (width 0.1))
  (fp_line (start 0.35 9.25) (end 0.35 10.25) (layer F.Fab) (width 0.1))
  (fp_line (start 0.35 10.25) (end 2.85 10.25) (layer F.Fab) (width 0.1))
  (fp_line (start 10.35 9.25) (end 10.35 10.25) (layer F.Fab) (width 0.1))
  (fp_line (start 10.35 10.25) (end 7.85 10.25) (layer F.Fab) (width 0.1))
  (fp_line (start 7.85 11.25) (end 2.85 11.25) (layer F.Fab) (width 0.1))
  (fp_line (start 2.85 11.25) (end 2.85 9.25) (layer F.Fab) (width 0.1))
  (fp_line (start 2.85 9.25) (end 7.85 9.25) (layer F.Fab) (width 0.1))
  (fp_line (start 7.85 9.25) (end 7.85 11.25) (layer F.Fab) (width 0.1))
  (fp_line (start 7.85 -2.75) (end 10.35 -2.75) (layer F.Fab) (width 0.1))
  (fp_line (start 2.85 -2.25) (end 7.85 -2.25) (layer F.Fab) (width 0.1))
  (fp_line (start 7.85 -3.25) (end 2.85 -3.25) (layer F.Fab) (width 0.1))
  (fp_line (start 2.85 -2.75) (end 7.85 -2.75) (layer F.Fab) (width 0.1))
  (fp_line (start 5.35 -3.75) (end 7.85 -3.75) (layer F.Fab) (width 0.1))
  (fp_line (start 7.85 -3.75) (end 7.85 -1.75) (layer F.Fab) (width 0.1))
  (fp_line (start 7.85 -1.75) (end 2.85 -1.75) (layer F.Fab) (width 0.1))
  (fp_line (start 2.85 -2.75) (end 0.35 -2.75) (layer F.Fab) (width 0.1))
  (fp_line (start 0.35 -2.75) (end 0.35 -1.75) (layer F.Fab) (width 0.1))
  (fp_line (start 10.35 -2.75) (end 10.35 -1.75) (layer F.Fab) (width 0.1))
  (fp_line (start 2.85 -1.75) (end 2.85 -3.75) (layer F.Fab) (width 0.1))
  (fp_line (start 2.85 -3.75) (end 5.35 -3.75) (layer F.Fab) (width 0.1))
  (fp_line (start -1.15 -1.25) (end -1.15 -7.75) (layer F.Fab) (width 0.1))
  (fp_line (start -1.15 -7.75) (end 11.85 -7.75) (layer F.Fab) (width 0.1))
  (fp_line (start -1.15 6.25) (end -1.15 1.25) (layer F.Fab) (width 0.1))
  (fp_line (start 11.85 8.75) (end 11.85 15.25) (layer F.Fab) (width 0.1))
  (fp_line (start 11.85 15.25) (end -1.15 15.25) (layer F.Fab) (width 0.1))
  (fp_line (start -1.15 15.25) (end -1.15 8.75) (layer F.Fab) (width 0.1))
  (fp_line (start 11.85 1.25) (end 11.85 6.25) (layer F.Fab) (width 0.1))
  (fp_line (start 11.85 -7.75) (end 11.85 -1.25) (layer F.Fab) (width 0.1))
  (fp_circle (center 1.35 11.75) (end 1.85 11.75) (layer F.Fab) (width 0.1))
  (fp_circle (center 1.35 -4.25) (end 1.85 -4.25) (layer F.Fab) (width 0.1))
  (fp_line (start 0 6) (end 0 5.25) (layer F.SilkS) (width 0.12))
  (fp_line (start 10.75 6) (end 10.75 5.25) (layer F.SilkS) (width 0.12))
  (fp_line (start 10.75 5.25) (end 9.375 5.25) (layer F.SilkS) (width 0.12))
  (fp_line (start 1.375 5.25) (end 0 5.25) (layer F.SilkS) (width 0.12))
  (fp_line (start 9.5 4) (end 1.25 4) (layer F.SilkS) (width 0.12))
  (fp_line (start 0 2.25) (end 1.375 2.25) (layer F.SilkS) (width 0.12))
  (fp_line (start 9.375 2.25) (end 10.75 2.25) (layer F.SilkS) (width 0.12))
  (fp_line (start 1.25 3.5) (end 9.5 3.5) (layer F.SilkS) (width 0.12))
  (fp_line (start 0 1.5) (end 0 2.25) (layer F.SilkS) (width 0.12))
  (fp_line (start 10.75 1.5) (end 10.75 2.25) (layer F.SilkS) (width 0.12))
  (fp_text user %R (at 5.35 3.75) (layer F.Fab)
    (effects (font (size 1 1) (thickness 0.15)))
  )
  (fp_text user 1 (at 2.85 0.25) (layer F.Fab)
    (effects (font (size 1 1) (thickness 0.15)))
  )
  (fp_text user 2 (at 7.85 0.25) (layer F.Fab)
    (effects (font (size 1 1) (thickness 0.15)))
  )
  (fp_text user 4 (at 2.85 7.75) (layer F.Fab)
    (effects (font (size 1 1) (thickness 0.15)))
  )
  (fp_text user 3 (at 7.85 7.75) (layer F.Fab)
    (effects (font (size 1 1) (thickness 0.15)))
  )
  (fp_arc (start 2.375 5.25) (end 3.375 5.25) (angle -180) (layer F.SilkS) (width 0.12))
  (fp_arc (start 4.375 5.25) (end 5.375 5.25) (angle -180) (layer F.SilkS) (width 0.12))
  (fp_arc (start 6.375 5.25) (end 7.375 5.25) (angle -180) (layer F.SilkS) (width 0.12))
  (fp_arc (start 8.375 5.25) (end 9.375 5.25) (angle -180) (layer F.SilkS) (width 0.12))
  (fp_arc (start 8.375 2.25) (end 7.375 2.25) (angle -180) (layer F.SilkS) (width 0.12))
  (fp_arc (start 2.375 2.25) (end 1.375 2.25) (angle -180) (layer F.SilkS) (width 0.12))
  (fp_arc (start 4.375 2.25) (end 3.375 2.25) (angle -180) (layer F.SilkS) (width 0.12))
  (fp_arc (start 6.375 2.25) (end 5.375 2.25) (angle -180) (layer F.SilkS) (width 0.12))
  (pad 1 thru_hole circle (at 0 0) (size 2.2 2.2) (drill 1.2) (layers *.Cu *.Mask))
  (pad 2 thru_hole circle (at 10.7 0) (size 2.2 2.2) (drill 1.2) (layers *.Cu *.Mask))
  (pad 3 thru_hole circle (at 10.7 7.5) (size 2.2 2.2) (drill 1.2) (layers *.Cu *.Mask))
  (pad 4 thru_hole circle (at 0 7.5) (size 2.2 2.2) (drill 1.2) (layers *.Cu *.Mask))
  (model ${KISYS3DMOD}/Inductor_THT.3dshapes/L_CommonMode_Wuerth_WE-CMB-M.wrl
    (at (xyz 0 0 0))
    (scale (xyz 1 1 1))
    (rotate (xyz 0 0 0))
  )
)
