(module L_CommonMode_Wuerth_WE-CMB-XL (layer F.Cu) (tedit 6079582C)
  (descr "Wuerth, WE-CMB, Bauform XL,, Alternate KiCad Library")
  (tags "CommonModeChoke Gleichtaktdrossel ")
  (fp_text reference REF** (at 7.5 -3.5) (layer F.SilkS)
    (effects (font (size 1 1) (thickness 0.15)))
  )
  (fp_text value L_CommonMode_Wuerth_WE-CMB-XL (at 7.5 28.75) (layer F.Fab)
    (effects (font (size 1 1) (thickness 0.15)))
  )
  (fp_circle (center 0 14) (end 0.1 14) (layer F.SilkS) (width 0.5))
  (fp_circle (center 0 11) (end 0.1 11) (layer F.SilkS) (width 0.5))
  (fp_line (start -3.6 -2.6) (end -3.6 27.6) (layer F.SilkS) (width 0.12))
  (fp_line (start -3.6 27.6) (end 18.6 27.6) (layer F.SilkS) (width 0.12))
  (fp_line (start 18.6 27.6) (end 18.6 -2.6) (layer F.SilkS) (width 0.12))
  (fp_line (start 18.6 -2.6) (end -3.6 -2.6) (layer F.SilkS) (width 0.12))
  (fp_line (start -3.75 -2.75) (end 18.75 -2.75) (layer F.CrtYd) (width 0.05))
  (fp_line (start 18.75 -2.75) (end 18.75 27.75) (layer F.CrtYd) (width 0.05))
  (fp_line (start 18.75 27.75) (end -3.75 27.75) (layer F.CrtYd) (width 0.05))
  (fp_line (start -3.75 27.75) (end -3.75 -2.75) (layer F.CrtYd) (width 0.05))
  (fp_line (start 0 20.5) (end 0 23) (layer F.Fab) (width 0.1))
  (fp_line (start 1.5 20.5) (end 0 20.5) (layer F.Fab) (width 0.1))
  (fp_line (start 15 20.5) (end 15 23) (layer F.Fab) (width 0.1))
  (fp_line (start 12.5 20.5) (end 15 20.5) (layer F.Fab) (width 0.1))
  (fp_line (start 1.5 4) (end 0 4) (layer F.Fab) (width 0.1))
  (fp_line (start 0 4) (end 0 2) (layer F.Fab) (width 0.1))
  (fp_line (start 13.5 4) (end 15 4) (layer F.Fab) (width 0.1))
  (fp_line (start 15 4) (end 15 2) (layer F.Fab) (width 0.1))
  (fp_line (start -3.5 -2.5) (end -3.5 1.5) (layer F.Fab) (width 0.1))
  (fp_line (start -3.5 1.5) (end -2.5 1.5) (layer F.Fab) (width 0.1))
  (fp_line (start -2.5 1.5) (end -2.5 3) (layer F.Fab) (width 0.1))
  (fp_line (start -2.5 3) (end -2.5 3.5) (layer F.Fab) (width 0.1))
  (fp_line (start -2.5 3.5) (end -3.5 3.5) (layer F.Fab) (width 0.1))
  (fp_line (start -3.5 3.5) (end -3.5 6.5) (layer F.Fab) (width 0.1))
  (fp_line (start -3.5 6.5) (end -2.5 6.5) (layer F.Fab) (width 0.1))
  (fp_line (start -2.5 6.5) (end -2.5 8.5) (layer F.Fab) (width 0.1))
  (fp_line (start -2.5 8.5) (end -3.5 8.5) (layer F.Fab) (width 0.1))
  (fp_line (start -3.5 8.5) (end -3.5 11.5) (layer F.Fab) (width 0.1))
  (fp_line (start -3.5 11.5) (end -2.5 11.5) (layer F.Fab) (width 0.1))
  (fp_line (start -2.5 11.5) (end -2.5 13.5) (layer F.Fab) (width 0.1))
  (fp_line (start -2.5 13.5) (end -3.5 13.5) (layer F.Fab) (width 0.1))
  (fp_line (start -3.5 13.5) (end -3.5 16.5) (layer F.Fab) (width 0.1))
  (fp_line (start -3.5 16.5) (end -2.5 16.5) (layer F.Fab) (width 0.1))
  (fp_line (start -2.5 16.5) (end -2.5 18.5) (layer F.Fab) (width 0.1))
  (fp_line (start -2.5 18.5) (end -3.5 18.5) (layer F.Fab) (width 0.1))
  (fp_line (start -3.5 18.5) (end -3.5 21.5) (layer F.Fab) (width 0.1))
  (fp_line (start -3.5 21.5) (end -2.5 21.5) (layer F.Fab) (width 0.1))
  (fp_line (start -2.5 21.5) (end -2.5 23.5) (layer F.Fab) (width 0.1))
  (fp_line (start -2.5 23.5) (end -3.5 23.5) (layer F.Fab) (width 0.1))
  (fp_line (start -3.5 23.5) (end -3.5 27.5) (layer F.Fab) (width 0.1))
  (fp_line (start 18.5 6.5) (end 18.5 3.5) (layer F.Fab) (width 0.1))
  (fp_line (start 18.5 3.5) (end 17.5 3.5) (layer F.Fab) (width 0.1))
  (fp_line (start 17.5 3.5) (end 17.5 1.5) (layer F.Fab) (width 0.1))
  (fp_line (start 17.5 1.5) (end 18.5 1.5) (layer F.Fab) (width 0.1))
  (fp_line (start 18.5 1.5) (end 18.5 -2.5) (layer F.Fab) (width 0.1))
  (fp_line (start 18.5 9) (end 18.5 8.5) (layer F.Fab) (width 0.1))
  (fp_line (start 18.5 8.5) (end 17.5 8.5) (layer F.Fab) (width 0.1))
  (fp_line (start 17.5 8.5) (end 17.5 6.5) (layer F.Fab) (width 0.1))
  (fp_line (start 17.5 6.5) (end 18.5 6.5) (layer F.Fab) (width 0.1))
  (fp_line (start 18.5 11.5) (end 18.5 9) (layer F.Fab) (width 0.1))
  (fp_line (start 17.5 12.5) (end 17.5 11.5) (layer F.Fab) (width 0.1))
  (fp_line (start 17.5 11.5) (end 18.5 11.5) (layer F.Fab) (width 0.1))
  (fp_line (start 17.5 12.5) (end 17.5 13.5) (layer F.Fab) (width 0.1))
  (fp_line (start 17.5 13.5) (end 18.5 13.5) (layer F.Fab) (width 0.1))
  (fp_line (start 18.5 13.5) (end 18.5 16.5) (layer F.Fab) (width 0.1))
  (fp_line (start 18.5 16.5) (end 17.5 16.5) (layer F.Fab) (width 0.1))
  (fp_line (start 17.5 16.5) (end 17.5 18.5) (layer F.Fab) (width 0.1))
  (fp_line (start 17.5 18.5) (end 18.5 18.5) (layer F.Fab) (width 0.1))
  (fp_line (start 18.5 18.5) (end 18.5 21.5) (layer F.Fab) (width 0.1))
  (fp_line (start 18.5 21.5) (end 17.5 21.5) (layer F.Fab) (width 0.1))
  (fp_line (start 17.5 21.5) (end 17.5 23.5) (layer F.Fab) (width 0.1))
  (fp_line (start 17.5 23.5) (end 18.5 23.5) (layer F.Fab) (width 0.1))
  (fp_line (start 18.5 23.5) (end 18.5 27.5) (layer F.Fab) (width 0.1))
  (fp_line (start 18.5 27.5) (end 10.5 27.5) (layer F.Fab) (width 0.1))
  (fp_line (start 10.5 27.5) (end 10.5 26.5) (layer F.Fab) (width 0.1))
  (fp_line (start 10.5 26.5) (end 4.5 26.5) (layer F.Fab) (width 0.1))
  (fp_line (start 4.5 26.5) (end 4.5 27.5) (layer F.Fab) (width 0.1))
  (fp_line (start 4.5 27.5) (end -3.5 27.5) (layer F.Fab) (width 0.1))
  (fp_line (start 18.5 -2.5) (end 10.5 -2.5) (layer F.Fab) (width 0.1))
  (fp_line (start 10.5 -2.5) (end 10.5 -1.5) (layer F.Fab) (width 0.1))
  (fp_line (start 10.5 -1.5) (end 4.5 -1.5) (layer F.Fab) (width 0.1))
  (fp_line (start 4.5 -1.5) (end 4.5 -2.5) (layer F.Fab) (width 0.1))
  (fp_line (start 4.5 -2.5) (end -3.5 -2.5) (layer F.Fab) (width 0.1))
  (fp_line (start 2.5 20.5) (end 1.5 20.5) (layer F.Fab) (width 0.1))
  (fp_line (start 2.5 4) (end 1.5 4) (layer F.Fab) (width 0.1))
  (fp_line (start 12.5 4) (end 13.5 4) (layer F.Fab) (width 0.1))
  (fp_line (start 10 20.5) (end 5 20.5) (layer F.Fab) (width 0.1))
  (fp_line (start 5 21) (end 10 21) (layer F.Fab) (width 0.1))
  (fp_line (start 10 20) (end 5 20) (layer F.Fab) (width 0.1))
  (fp_line (start 2.5 20.5) (end 5 20.5) (layer F.Fab) (width 0.1))
  (fp_line (start 12.5 20.5) (end 10 20.5) (layer F.Fab) (width 0.1))
  (fp_line (start 10 21.5) (end 5 21.5) (layer F.Fab) (width 0.1))
  (fp_line (start 5 21.5) (end 5 19.5) (layer F.Fab) (width 0.1))
  (fp_line (start 5 19.5) (end 10 19.5) (layer F.Fab) (width 0.1))
  (fp_line (start 10 19.5) (end 10 21.5) (layer F.Fab) (width 0.1))
  (fp_line (start 10 4) (end 12.5 4) (layer F.Fab) (width 0.1))
  (fp_line (start 5 4.5) (end 10 4.5) (layer F.Fab) (width 0.1))
  (fp_line (start 10 3.5) (end 5 3.5) (layer F.Fab) (width 0.1))
  (fp_line (start 5 4) (end 10 4) (layer F.Fab) (width 0.1))
  (fp_line (start 7.5 3) (end 10 3) (layer F.Fab) (width 0.1))
  (fp_line (start 10 3) (end 10 5) (layer F.Fab) (width 0.1))
  (fp_line (start 10 5) (end 5 5) (layer F.Fab) (width 0.1))
  (fp_line (start 5 4) (end 2.5 4) (layer F.Fab) (width 0.1))
  (fp_line (start 5 5) (end 5 3) (layer F.Fab) (width 0.1))
  (fp_line (start 5 3) (end 7.5 3) (layer F.Fab) (width 0.1))
  (fp_circle (center 3.5 22) (end 4 22) (layer F.Fab) (width 0.1))
  (fp_circle (center 3.5 2.5) (end 4 2.5) (layer F.Fab) (width 0.1))
  (fp_line (start 0.5 9.75) (end 0 9.75) (layer F.SilkS) (width 0.12))
  (fp_line (start 0 9.75) (end 0 1.5) (layer F.SilkS) (width 0.12))
  (fp_line (start 14.5 9.75) (end 15 9.75) (layer F.SilkS) (width 0.12))
  (fp_line (start 15 9.75) (end 15 1.5) (layer F.SilkS) (width 0.12))
  (fp_line (start 14.5 15.25) (end 15 15.25) (layer F.SilkS) (width 0.12))
  (fp_line (start 15 15.25) (end 15 23.5) (layer F.SilkS) (width 0.12))
  (fp_line (start 0.5 15.25) (end 0 15.25) (layer F.SilkS) (width 0.12))
  (fp_line (start 0 15.25) (end 0 23.5) (layer F.SilkS) (width 0.12))
  (fp_line (start 0.5 13) (end 14.5 13) (layer F.SilkS) (width 0.12))
  (fp_line (start 0.5 12) (end 14.5 12) (layer F.SilkS) (width 0.12))
  (fp_text user %R (at 7.5 12.5) (layer F.Fab)
    (effects (font (size 1 1) (thickness 0.15)))
  )
  (fp_text user 1 (at 2.5 0) (layer F.Fab)
    (effects (font (size 1 1) (thickness 0.15)))
  )
  (fp_text user 12 (at 12 0) (layer F.Fab)
    (effects (font (size 1 1) (thickness 0.15)))
  )
  (fp_text user 6 (at 2.5 25) (layer F.Fab)
    (effects (font (size 1 1) (thickness 0.15)))
  )
  (fp_text user 7 (at 12 25) (layer F.Fab)
    (effects (font (size 1 1) (thickness 0.15)))
  )
  (fp_arc (start 2.25 9.75) (end 0.5 9.75) (angle -180) (layer F.SilkS) (width 0.12))
  (fp_arc (start 5.75 9.75) (end 4 9.75) (angle -180) (layer F.SilkS) (width 0.12))
  (fp_arc (start 9.25 9.75) (end 7.5 9.75) (angle -180) (layer F.SilkS) (width 0.12))
  (fp_arc (start 12.75 9.75) (end 11 9.75) (angle -180) (layer F.SilkS) (width 0.12))
  (fp_arc (start 12.75 15.25) (end 14.5 15.25) (angle -180) (layer F.SilkS) (width 0.12))
  (fp_arc (start 2.25 15.25) (end 4 15.25) (angle -180) (layer F.SilkS) (width 0.12))
  (fp_arc (start 5.75 15.25) (end 7.5 15.25) (angle -180) (layer F.SilkS) (width 0.12))
  (fp_arc (start 9.25 15.25) (end 11 15.25) (angle -180) (layer F.SilkS) (width 0.12))
  (pad 1 thru_hole circle (at 0 0) (size 2.2 2.2) (drill 1.2) (layers *.Cu *.Mask))
  (pad 12 thru_hole circle (at 15 0) (size 2.2 2.2) (drill 1.2) (layers *.Cu *.Mask))
  (pad 7 thru_hole circle (at 15 25) (size 2.2 2.2) (drill 1.2) (layers *.Cu *.Mask))
  (pad 6 thru_hole circle (at 0 25) (size 2.2 2.2) (drill 1.2) (layers *.Cu *.Mask))
  (model ${KISYS3DMOD}/Inductor_THT.3dshapes/L_CommonMode_Wuerth_WE-CMB-XL.wrl
    (at (xyz 0 0 0))
    (scale (xyz 1 1 1))
    (rotate (xyz 0 0 0))
  )
)
