(module L_CommonMode_Toroid_Vertical_L38.1mm_W20.3mm_Px15.24mm_Py22.86mm_Bourns_8100 (layer F.Cu) (tedit 60795801)
  (descr "L_CommonMode_Toroid, Vertical series, Radial, pin pitch=15.24*22.86mm^2, , length*width=38.099999999999994*20.32mm^2, Bourns, 8100, http://datasheet.octopart.com/8120-RC-Bourns-datasheet-10228452.pdf, Alternate KiCad Library")
  (tags "L_CommonMode_Toroid Vertical series Radial pin pitch 15.24*22.86mm^2  length 38.099999999999994mm width 20.32mm Bourns 8100")
  (fp_text reference REF** (at 11.43 -3.79) (layer F.SilkS)
    (effects (font (size 1 1) (thickness 0.15)))
  )
  (fp_text value L_CommonMode_Toroid_Vertical_L38.1mm_W20.3mm_Px15.24mm_Py22.86mm_Bourns_8100 (at 11.43 19.03) (layer F.Fab)
    (effects (font (size 1 1) (thickness 0.15)))
  )
  (fp_line (start 11.684 15.24) (end 11.684 0) (layer F.SilkS) (width 0.12))
  (fp_line (start 11.176 0) (end 11.176 15.24) (layer F.SilkS) (width 0.12))
  (fp_line (start 2.032 15.24) (end 8.636 15.24) (layer F.SilkS) (width 0.12))
  (fp_line (start 20.828 0) (end 14.224 0) (layer F.SilkS) (width 0.12))
  (fp_line (start 20.828 15.24) (end 14.224 15.24) (layer F.SilkS) (width 0.12))
  (fp_circle (center 12.7 -0.508) (end 12.8 -0.508) (layer F.SilkS) (width 0.7))
  (fp_line (start 2.032 0) (end 8.636 0) (layer F.SilkS) (width 0.12))
  (fp_circle (center 10.16 -0.508) (end 10.26 -0.508) (layer F.SilkS) (width 0.7))
  (fp_line (start 30.73 -2.8) (end -7.87 -2.8) (layer F.CrtYd) (width 0.05))
  (fp_line (start 30.73 18.03) (end 30.73 -2.8) (layer F.CrtYd) (width 0.05))
  (fp_line (start -7.87 18.03) (end 30.73 18.03) (layer F.CrtYd) (width 0.05))
  (fp_line (start -7.87 -2.8) (end -7.87 18.03) (layer F.CrtYd) (width 0.05))
  (fp_line (start 30.6 -2.66) (end 30.6 17.9) (layer F.SilkS) (width 0.12))
  (fp_line (start -7.74 -2.66) (end -7.74 17.9) (layer F.SilkS) (width 0.12))
  (fp_line (start -7.74 17.9) (end 30.6 17.9) (layer F.SilkS) (width 0.12))
  (fp_line (start -7.74 -2.66) (end 30.6 -2.66) (layer F.SilkS) (width 0.12))
  (fp_line (start 26.67 0) (end 28.575 15.24) (layer F.Fab) (width 0.1))
  (fp_line (start 22.86 0) (end 24.765 15.24) (layer F.Fab) (width 0.1))
  (fp_line (start 19.05 0) (end 20.955 15.24) (layer F.Fab) (width 0.1))
  (fp_line (start 15.24 0) (end 17.145 15.24) (layer F.Fab) (width 0.1))
  (fp_line (start 11.43 0) (end 13.335 15.24) (layer F.Fab) (width 0.1))
  (fp_line (start 7.62 0) (end 9.525 15.24) (layer F.Fab) (width 0.1))
  (fp_line (start 3.81 0) (end 5.715 15.24) (layer F.Fab) (width 0.1))
  (fp_line (start 0 0) (end 1.905 15.24) (layer F.Fab) (width 0.1))
  (fp_line (start -3.81 0) (end -1.905 15.24) (layer F.Fab) (width 0.1))
  (fp_line (start -7.62 0) (end -5.715 15.24) (layer F.Fab) (width 0.1))
  (fp_line (start 30.48 0) (end -7.62 0) (layer F.Fab) (width 0.1))
  (fp_line (start 30.48 15.24) (end 30.48 0) (layer F.Fab) (width 0.1))
  (fp_line (start -7.62 15.24) (end 30.48 15.24) (layer F.Fab) (width 0.1))
  (fp_line (start -7.62 0) (end -7.62 15.24) (layer F.Fab) (width 0.1))
  (fp_line (start 30.48 -2.54) (end -7.62 -2.54) (layer F.Fab) (width 0.1))
  (fp_line (start 30.48 17.78) (end 30.48 -2.54) (layer F.Fab) (width 0.1))
  (fp_line (start -7.62 17.78) (end 30.48 17.78) (layer F.Fab) (width 0.1))
  (fp_line (start -7.62 -2.54) (end -7.62 17.78) (layer F.Fab) (width 0.1))
  (fp_text user %R (at 7.62 0) (layer F.Fab)
    (effects (font (size 1 1) (thickness 0.15)))
  )
  (fp_arc (start 14.224 5.715) (end 14.224 3.81) (angle -180) (layer F.SilkS) (width 0.12))
  (fp_arc (start 8.636 1.905) (end 8.636 3.81) (angle -180) (layer F.SilkS) (width 0.12))
  (fp_arc (start 14.224 1.905) (end 14.224 0) (angle -180) (layer F.SilkS) (width 0.12))
  (fp_arc (start 8.636 5.715) (end 8.636 7.62) (angle -180) (layer F.SilkS) (width 0.12))
  (fp_arc (start 14.224 9.525) (end 14.224 7.62) (angle -180) (layer F.SilkS) (width 0.12))
  (fp_arc (start 8.636 13.335) (end 8.636 15.24) (angle -180) (layer F.SilkS) (width 0.12))
  (fp_arc (start 14.224 13.335) (end 14.224 11.43) (angle -180) (layer F.SilkS) (width 0.12))
  (fp_arc (start 8.636 9.525) (end 8.636 11.43) (angle -180) (layer F.SilkS) (width 0.12))
  (pad 2 thru_hole circle (at 0 15.24) (size 3.6 3.6) (drill 1.8) (layers *.Cu *.Mask))
  (pad 3 thru_hole circle (at 22.86 15.24) (size 3.6 3.6) (drill 1.8) (layers *.Cu *.Mask))
  (pad 4 thru_hole circle (at 22.86 0) (size 3.6 3.6) (drill 1.8) (layers *.Cu *.Mask))
  (pad 1 thru_hole rect (at 0 0) (size 3.6 3.6) (drill 1.8) (layers *.Cu *.Mask))
  (model ${KISYS3DMOD}/Inductor_THT.3dshapes/L_CommonMode_Toroid_Vertical_L38.1mm_W20.3mm_Px15.24mm_Py22.86mm_Bourns_8100.wrl
    (at (xyz 0 0 0))
    (scale (xyz 1 1 1))
    (rotate (xyz 0 0 0))
  )
)
