(module L_CommonMode_Toroid_Vertical_L34.3mm_W20.3mm_Px15.24mm_Py22.86mm_Bourns_8100 (layer F.Cu) (tedit 607957F6)
  (descr "L_CommonMode_Toroid, Vertical series, Radial, pin pitch=15.24*22.86mm^2, , length*width=34.29*20.32mm^2, Bourns, 8100, http://datasheet.octopart.com/8120-RC-Bourns-datasheet-10228452.pdf, Alternate KiCad Library")
  (tags "L_CommonMode_Toroid Vertical series Radial pin pitch 15.24*22.86mm^2  length 34.29mm width 20.32mm Bourns 8100")
  (fp_text reference REF** (at 11.43 -3.79) (layer F.SilkS)
    (effects (font (size 1 1) (thickness 0.15)))
  )
  (fp_text value L_CommonMode_Toroid_Vertical_L34.3mm_W20.3mm_Px15.24mm_Py22.86mm_Bourns_8100 (at 11.43 19.03) (layer F.Fab)
    (effects (font (size 1 1) (thickness 0.15)))
  )
  (fp_circle (center 12.7 -0.508) (end 12.8 -0.508) (layer F.SilkS) (width 0.7))
  (fp_circle (center 10.16 -0.508) (end 10.26 -0.508) (layer F.SilkS) (width 0.7))
  (fp_line (start 20.828 15.24) (end 14.224 15.24) (layer F.SilkS) (width 0.12))
  (fp_line (start 20.828 0) (end 14.224 0) (layer F.SilkS) (width 0.12))
  (fp_line (start 2.032 15.24) (end 8.636 15.24) (layer F.SilkS) (width 0.12))
  (fp_line (start 2.032 0) (end 8.636 0) (layer F.SilkS) (width 0.12))
  (fp_line (start -5.715 -2.54) (end -5.715 17.78) (layer F.Fab) (width 0.1))
  (fp_line (start -5.715 17.78) (end 28.575 17.78) (layer F.Fab) (width 0.1))
  (fp_line (start 28.575 17.78) (end 28.575 -2.54) (layer F.Fab) (width 0.1))
  (fp_line (start 28.575 -2.54) (end -5.715 -2.54) (layer F.Fab) (width 0.1))
  (fp_line (start -5.715 0) (end -5.715 15.24) (layer F.Fab) (width 0.1))
  (fp_line (start -5.715 15.24) (end 28.575 15.24) (layer F.Fab) (width 0.1))
  (fp_line (start 28.575 15.24) (end 28.575 0) (layer F.Fab) (width 0.1))
  (fp_line (start 28.575 0) (end -5.715 0) (layer F.Fab) (width 0.1))
  (fp_line (start -5.715 0) (end -4.0005 15.24) (layer F.Fab) (width 0.1))
  (fp_line (start -2.286 0) (end -0.5715 15.24) (layer F.Fab) (width 0.1))
  (fp_line (start 1.143 0) (end 2.8575 15.24) (layer F.Fab) (width 0.1))
  (fp_line (start 4.572 0) (end 6.2865 15.24) (layer F.Fab) (width 0.1))
  (fp_line (start 8.001 0) (end 9.7155 15.24) (layer F.Fab) (width 0.1))
  (fp_line (start 11.43 0) (end 13.1445 15.24) (layer F.Fab) (width 0.1))
  (fp_line (start 14.859 0) (end 16.5735 15.24) (layer F.Fab) (width 0.1))
  (fp_line (start 18.288 0) (end 20.0025 15.24) (layer F.Fab) (width 0.1))
  (fp_line (start 21.717 0) (end 23.4315 15.24) (layer F.Fab) (width 0.1))
  (fp_line (start 25.146 0) (end 26.8605 15.24) (layer F.Fab) (width 0.1))
  (fp_line (start -5.835 -2.66) (end 28.695 -2.66) (layer F.SilkS) (width 0.12))
  (fp_line (start -5.835 17.9) (end 28.695 17.9) (layer F.SilkS) (width 0.12))
  (fp_line (start -5.835 -2.66) (end -5.835 17.9) (layer F.SilkS) (width 0.12))
  (fp_line (start 28.695 -2.66) (end 28.695 17.9) (layer F.SilkS) (width 0.12))
  (fp_line (start -5.97 -2.8) (end -5.97 18.03) (layer F.CrtYd) (width 0.05))
  (fp_line (start -5.97 18.03) (end 28.83 18.03) (layer F.CrtYd) (width 0.05))
  (fp_line (start 28.83 18.03) (end 28.83 -2.8) (layer F.CrtYd) (width 0.05))
  (fp_line (start 28.83 -2.8) (end -5.97 -2.8) (layer F.CrtYd) (width 0.05))
  (fp_line (start 11.176 0) (end 11.176 15.24) (layer F.SilkS) (width 0.12))
  (fp_line (start 11.684 15.24) (end 11.684 0) (layer F.SilkS) (width 0.12))
  (fp_text user %R (at 7.62 0) (layer F.Fab)
    (effects (font (size 1 1) (thickness 0.15)))
  )
  (fp_arc (start 8.636 13.335) (end 8.636 15.24) (angle -180) (layer F.SilkS) (width 0.12))
  (fp_arc (start 8.636 9.525) (end 8.636 11.43) (angle -180) (layer F.SilkS) (width 0.12))
  (fp_arc (start 8.636 5.715) (end 8.636 7.62) (angle -180) (layer F.SilkS) (width 0.12))
  (fp_arc (start 8.636 1.905) (end 8.636 3.81) (angle -180) (layer F.SilkS) (width 0.12))
  (fp_arc (start 14.224 5.715) (end 14.224 3.81) (angle -180) (layer F.SilkS) (width 0.12))
  (fp_arc (start 14.224 9.525) (end 14.224 7.62) (angle -180) (layer F.SilkS) (width 0.12))
  (fp_arc (start 14.224 1.905) (end 14.224 0) (angle -180) (layer F.SilkS) (width 0.12))
  (fp_arc (start 14.224 13.335) (end 14.224 11.43) (angle -180) (layer F.SilkS) (width 0.12))
  (pad 2 thru_hole circle (at 0 15.24) (size 3 3) (drill 1.5) (layers *.Cu *.Mask))
  (pad 3 thru_hole circle (at 22.86 15.24) (size 3 3) (drill 1.5) (layers *.Cu *.Mask))
  (pad 4 thru_hole circle (at 22.86 0) (size 3 3) (drill 1.5) (layers *.Cu *.Mask))
  (pad 1 thru_hole rect (at 0 0) (size 3 3) (drill 1.5) (layers *.Cu *.Mask))
  (model ${KISYS3DMOD}/Inductor_THT.3dshapes/L_CommonMode_Toroid_Vertical_L34.3mm_W20.3mm_Px15.24mm_Py22.86mm_Bourns_8100.wrl
    (at (xyz 0 0 0))
    (scale (xyz 1 1 1))
    (rotate (xyz 0 0 0))
  )
)
