(module L_Radial_D29.8mm_P29.00mm_muRATA_1400series (layer F.Cu) (tedit 6079594B)
  (descr "Inductor, Radial series, Radial, pin pitch=29.00mm, , diameter=29.8mm, muRATA, 1400series, http://www.murata-ps.com/data/magnetics/kmp_1400.pdf, Alternate KiCad Library")
  (tags "Inductor Radial series Radial pin pitch 29.00mm  diameter 29.8mm muRATA 1400series")
  (fp_text reference REF** (at 14.5 -16.15) (layer F.SilkS)
    (effects (font (size 1 1) (thickness 0.15)))
  )
  (fp_text value L_Radial_D29.8mm_P29.00mm_muRATA_1400series (at 14.5 16.15) (layer F.Fab)
    (effects (font (size 1 1) (thickness 0.15)))
  )
  (fp_circle (center 14.5 0) (end 29.4 0) (layer F.Fab) (width 0.1))
  (fp_circle (center 14.5 0) (end 17.05 0) (layer F.Fab) (width 0.1))
  (fp_line (start -2.25 -15.15) (end -2.25 15.15) (layer F.CrtYd) (width 0.05))
  (fp_line (start -2.25 15.15) (end 31.25 15.15) (layer F.CrtYd) (width 0.05))
  (fp_line (start 31.25 15.15) (end 31.25 -15.15) (layer F.CrtYd) (width 0.05))
  (fp_line (start 31.25 -15.15) (end -2.25 -15.15) (layer F.CrtYd) (width 0.05))
  (fp_text user %R (at 14.5 0) (layer F.Fab)
    (effects (font (size 1 1) (thickness 0.15)))
  )
  (fp_arc (start 14.5 0) (end -0.349 2.26) (angle -162.692129) (layer F.SilkS) (width 0.12))
  (fp_arc (start 14.5 0) (end -0.349 -2.26) (angle 162.692129) (layer F.SilkS) (width 0.12))
  (fp_arc (start 17.548 0) (end 20.596 0) (angle -180) (layer F.SilkS) (width 0.12))
  (fp_arc (start 23.644 0) (end 26.692 0) (angle -180) (layer F.SilkS) (width 0.12))
  (fp_arc (start 11.452 0) (end 14.5 0) (angle -180) (layer F.SilkS) (width 0.12))
  (fp_arc (start 5.356 0) (end 8.404 0) (angle -180) (layer F.SilkS) (width 0.12))
  (pad 2 thru_hole circle (at 29 0) (size 4 4) (drill 2) (layers *.Cu *.Mask))
  (pad 1 thru_hole circle (at 0 0) (size 4 4) (drill 2) (layers *.Cu *.Mask))
  (model ${KISYS3DMOD}/Inductor_THT.3dshapes/L_Radial_D29.8mm_P29.00mm_muRATA_1400series.wrl
    (at (xyz 0 0 0))
    (scale (xyz 1 1 1))
    (rotate (xyz 0 0 0))
  )
)
