(module L_Radial_D12.0mm_P6.00mm_MuRATA_1900R (layer F.Cu) (tedit 60795896)
  (descr "Inductor, Radial series, Radial, pin pitch=6.00mm, , diameter=12.0mm, MuRATA, 1900R, http://www.murata-ps.com/data/magnetics/kmp_1900r.pdf, Alternate KiCad Library")
  (tags "Inductor Radial series Radial pin pitch 6.00mm  diameter 12.0mm MuRATA 1900R")
  (fp_text reference REF** (at 3 -7.25) (layer F.SilkS)
    (effects (font (size 1 1) (thickness 0.15)))
  )
  (fp_text value L_Radial_D12.0mm_P6.00mm_MuRATA_1900R (at 3 7.25) (layer F.Fab)
    (effects (font (size 1 1) (thickness 0.15)))
  )
  (fp_circle (center 3 0) (end 9 0) (layer F.Fab) (width 0.1))
  (fp_circle (center 3 0) (end 9.12 0) (layer F.SilkS) (width 0.12))
  (fp_circle (center 3 0) (end 9.25 0) (layer F.CrtYd) (width 0.05))
  (fp_text user %R (at 3 0) (layer F.Fab)
    (effects (font (size 1 1) (thickness 0.15)))
  )
  (fp_arc (start 3.508 0) (end 4.016 0) (angle -180) (layer F.SilkS) (width 0.12))
  (fp_arc (start 2.492 0) (end 3 0) (angle -180) (layer F.SilkS) (width 0.12))
  (pad 2 thru_hole circle (at 6 0) (size 3.2 3.2) (drill 1.6) (layers *.Cu *.Mask))
  (pad 1 thru_hole circle (at 0 0) (size 3.2 3.2) (drill 1.6) (layers *.Cu *.Mask))
  (model ${KISYS3DMOD}/Inductor_THT.3dshapes/L_Radial_D12.0mm_P6.00mm_MuRATA_1900R.wrl
    (at (xyz 0 0 0))
    (scale (xyz 1 1 1))
    (rotate (xyz 0 0 0))
  )
)
