(module L_Radial_D27.9mm_P20.07mm_Vishay_IHB-3 (layer F.Cu) (tedit 60795927)
  (descr "Inductor, Radial series, Radial, pin pitch=20.07mm, , diameter=27.9mm, Vishay, IHB-3, http://www.vishay.com/docs/34015/ihb.pdf, Alternate KiCad Library")
  (tags "Inductor Radial series Radial pin pitch 20.07mm  diameter 27.9mm Vishay IHB-3")
  (fp_text reference REF** (at 10.035 -15.2) (layer F.SilkS)
    (effects (font (size 1 1) (thickness 0.15)))
  )
  (fp_text value L_Radial_D27.9mm_P20.07mm_Vishay_IHB-3 (at 10.035 15.2) (layer F.Fab)
    (effects (font (size 1 1) (thickness 0.15)))
  )
  (fp_line (start 2.923 0) (end 2.54 0) (layer F.SilkS) (width 0.12))
  (fp_line (start 17.147 0) (end 17.526 0) (layer F.SilkS) (width 0.12))
  (fp_circle (center 10.035 0) (end 23.985 0) (layer F.Fab) (width 0.1))
  (fp_circle (center 10.035 0) (end 11.495 0) (layer F.Fab) (width 0.1))
  (fp_circle (center 10.035 0) (end 24.105 0) (layer F.SilkS) (width 0.12))
  (fp_line (start -4.17 -14.2) (end -4.17 14.2) (layer F.CrtYd) (width 0.05))
  (fp_line (start -4.17 14.2) (end 24.24 14.2) (layer F.CrtYd) (width 0.05))
  (fp_line (start 24.24 14.2) (end 24.24 -14.2) (layer F.CrtYd) (width 0.05))
  (fp_line (start 24.24 -14.2) (end -4.17 -14.2) (layer F.CrtYd) (width 0.05))
  (fp_text user %R (at 10.035 0) (layer F.Fab)
    (effects (font (size 1 1) (thickness 0.15)))
  )
  (fp_arc (start 15.369 0) (end 17.147 0) (angle -180) (layer F.SilkS) (width 0.12))
  (fp_arc (start 4.701 0) (end 6.479 0) (angle -180) (layer F.SilkS) (width 0.12))
  (fp_arc (start 8.257 0) (end 10.035 0) (angle -180) (layer F.SilkS) (width 0.12))
  (fp_arc (start 11.813 0) (end 13.59 0) (angle -180) (layer F.SilkS) (width 0.12))
  (pad 2 thru_hole circle (at 20.07 0) (size 4.2 4.2) (drill 2.1) (layers *.Cu *.Mask))
  (pad 1 thru_hole circle (at 0 0) (size 4.2 4.2) (drill 2.1) (layers *.Cu *.Mask))
  (model ${KISYS3DMOD}/Inductor_THT.3dshapes/L_Radial_D27.9mm_P20.07mm_Vishay_IHB-3.wrl
    (at (xyz 0 0 0))
    (scale (xyz 1 1 1))
    (rotate (xyz 0 0 0))
  )
)
