(module L_Radial_D7.5mm_P3.50mm_Fastron_07P (layer F.Cu) (tedit 6079584E)
  (descr "Inductor, Radial series, Radial, pin pitch=3.50mm, , diameter=7.5mm, Fastron, 07P, http://www.fastrongroup.com/image-show/39/07P.pdf?type=Complete-DataSheet&productType=series, Alternate KiCad Library")
  (tags "Inductor Radial series Radial pin pitch 3.50mm  diameter 7.5mm Fastron 07P")
  (fp_text reference REF** (at 1.75 -5) (layer F.SilkS)
    (effects (font (size 1 1) (thickness 0.15)))
  )
  (fp_text value L_Radial_D7.5mm_P3.50mm_Fastron_07P (at 1.75 5) (layer F.Fab)
    (effects (font (size 1 1) (thickness 0.15)))
  )
  (fp_circle (center 1.75 0) (end 5.75 0) (layer F.CrtYd) (width 0.05))
  (fp_circle (center 1.75 0) (end 5.62 0) (layer F.SilkS) (width 0.12))
  (fp_circle (center 1.75 0) (end 5.5 0) (layer F.Fab) (width 0.1))
  (fp_text user %R (at 1.75 0) (layer F.Fab)
    (effects (font (size 1 1) (thickness 0.15)))
  )
  (pad 2 thru_hole circle (at 3.5 0) (size 2.6 2.6) (drill 1.3) (layers *.Cu *.Mask))
  (pad 1 thru_hole circle (at 0 0) (size 2.6 2.6) (drill 1.3) (layers *.Cu *.Mask))
  (model ${KISYS3DMOD}/Inductor_THT.3dshapes/L_Radial_D7.5mm_P3.50mm_Fastron_07P.wrl
    (at (xyz 0 0 0))
    (scale (xyz 1 1 1))
    (rotate (xyz 0 0 0))
  )
)
