(module L_Radial_D24.4mm_P23.90mm_muRATA_1400series (layer F.Cu) (tedit 60795914)
  (descr "Inductor, Radial series, Radial, pin pitch=23.90mm, , diameter=24.4mm, muRATA, 1400series, http://www.murata-ps.com/data/magnetics/kmp_1400.pdf, Alternate KiCad Library")
  (tags "Inductor Radial series Radial pin pitch 23.90mm  diameter 24.4mm muRATA 1400series")
  (fp_text reference REF** (at 11.95 -13.45) (layer F.SilkS)
    (effects (font (size 1 1) (thickness 0.15)))
  )
  (fp_text value L_Radial_D24.4mm_P23.90mm_muRATA_1400series (at 11.95 13.45) (layer F.Fab)
    (effects (font (size 1 1) (thickness 0.15)))
  )
  (fp_line (start 2.794 0) (end 2.794 0) (layer F.SilkS) (width 0.12))
  (fp_circle (center 11.95 0) (end 24.15 0) (layer F.Fab) (width 0.1))
  (fp_circle (center 11.95 0) (end 14.7 0) (layer F.Fab) (width 0.1))
  (fp_line (start -2.85 -12.45) (end -2.85 12.45) (layer F.CrtYd) (width 0.05))
  (fp_line (start -2.85 12.45) (end 26.75 12.45) (layer F.CrtYd) (width 0.05))
  (fp_line (start 26.75 12.45) (end 26.75 -12.45) (layer F.CrtYd) (width 0.05))
  (fp_line (start 26.75 -12.45) (end -2.85 -12.45) (layer F.CrtYd) (width 0.05))
  (fp_text user %R (at 11.95 0) (layer F.Fab)
    (effects (font (size 1 1) (thickness 0.15)))
  )
  (fp_arc (start 11.95 0) (end -0.033439 2.86) (angle -153.153473) (layer F.SilkS) (width 0.12))
  (fp_arc (start 11.95 0) (end -0.033439 -2.86) (angle 153.153473) (layer F.SilkS) (width 0.12))
  (fp_arc (start 9.652 0) (end 11.938 0) (angle -180) (layer F.SilkS) (width 0.12))
  (fp_arc (start 5.08 0) (end 7.366 0) (angle -180) (layer F.SilkS) (width 0.12))
  (fp_arc (start 14.224 0) (end 16.51 0) (angle -180) (layer F.SilkS) (width 0.12))
  (fp_arc (start 18.796 0) (end 21.082 0) (angle -180) (layer F.SilkS) (width 0.12))
  (pad 2 thru_hole circle (at 23.9 0) (size 5.2 5.2) (drill 2.6) (layers *.Cu *.Mask))
  (pad 1 thru_hole circle (at 0 0) (size 5.2 5.2) (drill 2.6) (layers *.Cu *.Mask))
  (model ${KISYS3DMOD}/Inductor_THT.3dshapes/L_Radial_D24.4mm_P23.90mm_muRATA_1400series.wrl
    (at (xyz 0 0 0))
    (scale (xyz 1 1 1))
    (rotate (xyz 0 0 0))
  )
)
