(module L_Radial_D8.7mm_P5.00mm_Fastron_07HCP (layer F.Cu) (tedit 6079585F)
  (descr "Inductor, Radial series, Radial, pin pitch=5.00mm, , diameter=8.7mm, Fastron, 07HCP, http://cdn-reichelt.de/documents/datenblatt/B400/DS_07HCP.pdf, Alternate KiCad Library")
  (tags "Inductor Radial series Radial pin pitch 5.00mm  diameter 8.7mm Fastron 07HCP")
  (fp_text reference REF** (at 2.5 -5.6) (layer F.SilkS)
    (effects (font (size 1 1) (thickness 0.15)))
  )
  (fp_text value L_Radial_D8.7mm_P5.00mm_Fastron_07HCP (at 2.5 5.6) (layer F.Fab)
    (effects (font (size 1 1) (thickness 0.15)))
  )
  (fp_circle (center 2.5 0) (end 6.85 0) (layer F.Fab) (width 0.1))
  (fp_circle (center 2.5 0) (end 6.97 0) (layer F.SilkS) (width 0.12))
  (fp_circle (center 2.5 0) (end 7.1 0) (layer F.CrtYd) (width 0.05))
  (fp_text user %R (at 2.5 0) (layer F.Fab)
    (effects (font (size 1 1) (thickness 0.15)))
  )
  (fp_arc (start 3.008 0) (end 3.516 0) (angle -180) (layer F.SilkS) (width 0.12))
  (fp_arc (start 1.992 0) (end 2.5 0) (angle -180) (layer F.SilkS) (width 0.12))
  (pad 2 thru_hole circle (at 5 0) (size 2.6 2.6) (drill 1.3) (layers *.Cu *.Mask))
  (pad 1 thru_hole circle (at 0 0) (size 2.6 2.6) (drill 1.3) (layers *.Cu *.Mask))
  (model ${KISYS3DMOD}/Inductor_THT.3dshapes/L_Radial_D8.7mm_P5.00mm_Fastron_07HCP.wrl
    (at (xyz 0 0 0))
    (scale (xyz 1 1 1))
    (rotate (xyz 0 0 0))
  )
)
