(module L_Radial_D40.6mm_P26.16mm_Vishay_IHB-5 (layer F.Cu) (tedit 60795954)
  (descr "Inductor, Radial series, Radial, pin pitch=26.16mm, , diameter=40.64mm, Vishay, IHB-5, http://www.vishay.com/docs/34015/ihb.pdf, Alternate KiCad Library")
  (tags "Inductor Radial series Radial pin pitch 26.16mm  diameter 40.64mm Vishay IHB-5")
  (fp_text reference REF** (at 13.08 -21.57) (layer F.SilkS)
    (effects (font (size 1 1) (thickness 0.15)))
  )
  (fp_text value L_Radial_D40.6mm_P26.16mm_Vishay_IHB-5 (at 13.08 21.57) (layer F.Fab)
    (effects (font (size 1 1) (thickness 0.15)))
  )
  (fp_line (start 1.904 0) (end 1.778 0) (layer F.SilkS) (width 0.12))
  (fp_line (start 24.256 0) (end 24.384 0) (layer F.SilkS) (width 0.12))
  (fp_line (start 33.65 -20.57) (end -7.49 -20.57) (layer F.CrtYd) (width 0.05))
  (fp_line (start 33.65 20.57) (end 33.65 -20.57) (layer F.CrtYd) (width 0.05))
  (fp_line (start -7.49 20.57) (end 33.65 20.57) (layer F.CrtYd) (width 0.05))
  (fp_line (start -7.49 -20.57) (end -7.49 20.57) (layer F.CrtYd) (width 0.05))
  (fp_circle (center 13.08 0) (end 33.52 0) (layer F.SilkS) (width 0.12))
  (fp_circle (center 13.08 0) (end 15.305 0) (layer F.Fab) (width 0.1))
  (fp_circle (center 13.08 0) (end 33.4 0) (layer F.Fab) (width 0.1))
  (fp_text user %R (at 13.08 0) (layer F.Fab)
    (effects (font (size 1 1) (thickness 0.15)))
  )
  (fp_arc (start 10.286 0) (end 13.08 0) (angle -180) (layer F.SilkS) (width 0.12))
  (fp_arc (start 21.462 0) (end 24.256 0) (angle -180) (layer F.SilkS) (width 0.12))
  (fp_arc (start 4.698 0) (end 7.492 0) (angle -180) (layer F.SilkS) (width 0.12))
  (fp_arc (start 15.874 0) (end 18.668 0) (angle -180) (layer F.SilkS) (width 0.12))
  (pad 2 thru_hole circle (at 26.16 0) (size 2.6 2.6) (drill 1.3) (layers *.Cu *.Mask))
  (pad 1 thru_hole circle (at 0 0) (size 2.6 2.6) (drill 1.3) (layers *.Cu *.Mask))
  (model ${KISYS3DMOD}/Inductor_THT.3dshapes/L_Radial_D40.6mm_P26.16mm_Vishay_IHB-5.wrl
    (at (xyz 0 0 0))
    (scale (xyz 1 1 1))
    (rotate (xyz 0 0 0))
  )
)
