(module L_Radial_L8.0mm_W8.0mm_P5.00mm_Neosid_NE-CPB-07E (layer F.Cu) (tedit 6079598C)
  (descr "Inductor, Radial series, Radial, pin pitch=5.00mm, , length*width=8*8mm^2, Neosid, NE-CPB-07E, http://www.neosid.de/produktblaetter/neosid_Festinduktivitaet_NE_CPB07E.pdf, Alternate KiCad Library")
  (tags "Inductor Radial series Radial pin pitch 5.00mm  length 8mm width 8mm Neosid NE-CPB-07E")
  (fp_text reference REF** (at 2.5 -5.25) (layer F.SilkS)
    (effects (font (size 1 1) (thickness 0.15)))
  )
  (fp_text value L_Radial_L8.0mm_W8.0mm_P5.00mm_Neosid_NE-CPB-07E (at 2.5 5.25) (layer F.Fab)
    (effects (font (size 1 1) (thickness 0.15)))
  )
  (fp_line (start 1.4605 0) (end 1.3335 0) (layer F.SilkS) (width 0.12))
  (fp_line (start 3.4925 0) (end 3.6195 0) (layer F.SilkS) (width 0.12))
  (fp_line (start -1.5 -4) (end -1.5 4) (layer F.Fab) (width 0.1))
  (fp_line (start -1.5 4) (end 6.5 4) (layer F.Fab) (width 0.1))
  (fp_line (start 6.5 4) (end 6.5 -4) (layer F.Fab) (width 0.1))
  (fp_line (start 6.5 -4) (end -1.5 -4) (layer F.Fab) (width 0.1))
  (fp_line (start -1.62 -4.12) (end 6.62 -4.12) (layer F.SilkS) (width 0.12))
  (fp_line (start -1.62 4.12) (end 6.62 4.12) (layer F.SilkS) (width 0.12))
  (fp_line (start -1.62 -4.12) (end -1.62 4.12) (layer F.SilkS) (width 0.12))
  (fp_line (start 6.62 -4.12) (end 6.62 4.12) (layer F.SilkS) (width 0.12))
  (fp_line (start -1.75 -4.25) (end -1.75 4.25) (layer F.CrtYd) (width 0.05))
  (fp_line (start -1.75 4.25) (end 6.75 4.25) (layer F.CrtYd) (width 0.05))
  (fp_line (start 6.75 4.25) (end 6.75 -4.25) (layer F.CrtYd) (width 0.05))
  (fp_line (start 6.75 -4.25) (end -1.75 -4.25) (layer F.CrtYd) (width 0.05))
  (fp_text user %R (at 2.5 0) (layer F.Fab)
    (effects (font (size 1 1) (thickness 0.15)))
  )
  (fp_arc (start 2.9845 0) (end 3.4925 0) (angle -180) (layer F.SilkS) (width 0.12))
  (fp_arc (start 1.9685 0) (end 2.4765 0) (angle -180) (layer F.SilkS) (width 0.12))
  (pad 2 thru_hole circle (at 5 0) (size 2.4 2.4) (drill 1.2) (layers *.Cu *.Mask))
  (pad 1 thru_hole circle (at 0 0) (size 2.4 2.4) (drill 1.2) (layers *.Cu *.Mask))
  (model ${KISYS3DMOD}/Inductor_THT.3dshapes/L_Radial_L8.0mm_W8.0mm_P5.00mm_Neosid_NE-CPB-07E.wrl
    (at (xyz 0 0 0))
    (scale (xyz 1 1 1))
    (rotate (xyz 0 0 0))
  )
)
