(module L_Toroid_Horizontal_D69.1mm_P63.20mm_Vishay_TJ9 (layer F.Cu) (tedit 60795A76)
  (descr "L_Toroid, Horizontal series, Radial, pin pitch=63.20mm, , diameter=69.1mm, Vishay, TJ9, http://www.vishay.com/docs/34079/tj.pdf, Alternate KiCad Library")
  (tags "L_Toroid Horizontal series Radial pin pitch 63.20mm  diameter 69.1mm Vishay TJ9")
  (fp_text reference REF** (at 31.6 -35.8) (layer F.SilkS)
    (effects (font (size 1 1) (thickness 0.15)))
  )
  (fp_text value L_Toroid_Horizontal_D69.1mm_P63.20mm_Vishay_TJ9 (at 31.6 35.8) (layer F.Fab)
    (effects (font (size 1 1) (thickness 0.15)))
  )
  (fp_line (start 59.69 0.762) (end 42.828525 3.008581) (layer F.SilkS) (width 0.1))
  (fp_line (start 14.613518 29.425648) (end 23.380738 8.220405) (layer F.SilkS) (width 0.1))
  (fp_line (start 61.021713 -16.993298) (end 42.827967 -3.010662) (layer F.SilkS) (width 0.1))
  (fp_circle (center 31.6 0) (end 43.116667 0) (layer F.SilkS) (width 0.1))
  (fp_line (start 31.601574 33.9766) (end 28.591939 11.228664) (layer F.SilkS) (width 0.1))
  (fp_line (start 3.429 -0.762) (end 20.371197 -3.007541) (layer F.SilkS) (width 0.1))
  (fp_line (start 14.608065 -29.4225) (end 28.589858 -11.228106) (layer F.SilkS) (width 0.1))
  (fp_line (start 31.595278 -33.9766) (end 34.607021 -11.228943) (layer F.SilkS) (width 0.1))
  (fp_line (start 48.583756 -29.427222) (end 39.818501 -8.221166) (layer F.SilkS) (width 0.1))
  (fp_line (start 2.176713 16.990572) (end 20.371754 3.009622) (layer F.SilkS) (width 0.1))
  (fp_line (start 2.173565 -16.985119) (end 23.379215 -8.218881) (layer F.SilkS) (width 0.1))
  (fp_line (start 61.024861 16.987846) (end 39.820024 8.219643) (layer F.SilkS) (width 0.1))
  (fp_line (start 48.589209 29.424074) (end 34.609101 11.228385) (layer F.SilkS) (width 0.1))
  (fp_circle (center 31.6 0) (end 66.15 0) (layer F.Fab) (width 0.1))
  (fp_circle (center 31.6 0) (end 43.116667 0) (layer F.Fab) (width 0.1))
  (fp_circle (center 31.6 0) (end 66.27 0) (layer F.SilkS) (width 0.12))
  (fp_line (start 65.5766 0) (end 42.828525 3.008581) (layer F.Fab) (width 0.1))
  (fp_line (start 61.024861 16.987846) (end 39.820024 8.219643) (layer F.Fab) (width 0.1))
  (fp_line (start 48.589209 29.424074) (end 34.609101 11.228385) (layer F.Fab) (width 0.1))
  (fp_line (start 31.601574 33.9766) (end 28.591939 11.228664) (layer F.Fab) (width 0.1))
  (fp_line (start 14.613518 29.425648) (end 23.380738 8.220405) (layer F.Fab) (width 0.1))
  (fp_line (start 2.176713 16.990572) (end 20.371754 3.009622) (layer F.Fab) (width 0.1))
  (fp_line (start -2.3766 0.003148) (end 20.371197 -3.007541) (layer F.Fab) (width 0.1))
  (fp_line (start 2.173565 -16.985119) (end 23.379215 -8.218881) (layer F.Fab) (width 0.1))
  (fp_line (start 14.608065 -29.4225) (end 28.589858 -11.228106) (layer F.Fab) (width 0.1))
  (fp_line (start 31.595278 -33.9766) (end 34.607021 -11.228943) (layer F.Fab) (width 0.1))
  (fp_line (start 48.583756 -29.427222) (end 39.818501 -8.221166) (layer F.Fab) (width 0.1))
  (fp_line (start 61.021713 -16.993298) (end 42.827967 -3.010662) (layer F.Fab) (width 0.1))
  (fp_line (start 65.576599 -0.006296) (end 42.829082 3.0065) (layer F.Fab) (width 0.1))
  (fp_line (start -3.2 -34.8) (end -3.2 34.8) (layer F.CrtYd) (width 0.05))
  (fp_line (start -3.2 34.8) (end 66.4 34.8) (layer F.CrtYd) (width 0.05))
  (fp_line (start 66.4 34.8) (end 66.4 -34.8) (layer F.CrtYd) (width 0.05))
  (fp_line (start 66.4 -34.8) (end -3.2 -34.8) (layer F.CrtYd) (width 0.05))
  (fp_text user %R (at 31.6 0) (layer F.Fab)
    (effects (font (size 1 1) (thickness 0.15)))
  )
  (pad 2 thru_hole circle (at 63.2 0) (size 4 4) (drill 2) (layers *.Cu *.Mask))
  (pad 1 thru_hole circle (at 0 0) (size 4 4) (drill 2) (layers *.Cu *.Mask))
  (model ${KISYS3DMOD}/Inductor_THT.3dshapes/L_Toroid_Horizontal_D69.1mm_P63.20mm_Vishay_TJ9.wrl
    (at (xyz 0 0 0))
    (scale (xyz 1 1 1))
    (rotate (xyz 0 0 0))
  )
)
