(module L_Toroid_Horizontal_D41.9mm_P37.60mm_Vishay_TJ7 (layer F.Cu) (tedit 60795A6B)
  (descr "L_Toroid, Horizontal series, Radial, pin pitch=37.60mm, , diameter=41.9mm, Vishay, TJ7, http://www.vishay.com/docs/34079/tj.pdf, Alternate KiCad Library")
  (tags "L_Toroid Horizontal series Radial pin pitch 37.60mm  diameter 41.9mm Vishay TJ7")
  (fp_text reference REF** (at 18.8 -22.2) (layer F.SilkS)
    (effects (font (size 1 1) (thickness 0.15)))
  )
  (fp_text value L_Toroid_Horizontal_D41.9mm_P37.60mm_Vishay_TJ7 (at 18.8 22.2) (layer F.Fab)
    (effects (font (size 1 1) (thickness 0.15)))
  )
  (fp_line (start 35.56 0.508) (end 25.56241 1.810583) (layer F.SilkS) (width 0.1))
  (fp_line (start 8.473491 -17.880937) (end 16.987224 -6.761822) (layer F.SilkS) (width 0.1))
  (fp_line (start 18.800957 20.6486) (end 16.988477 6.762158) (layer F.SilkS) (width 0.1))
  (fp_line (start 8.476805 17.88285) (end 13.850172 4.950516) (layer F.SilkS) (width 0.1))
  (fp_line (start 0.918585 10.325681) (end 12.038094 1.812463) (layer F.SilkS) (width 0.1))
  (fp_line (start 2.159 -0.508) (end 12.037758 -1.81121) (layer F.SilkS) (width 0.1))
  (fp_line (start 36.680458 -10.327337) (end 25.561738 -1.813089) (layer F.SilkS) (width 0.1))
  (fp_line (start 29.121538 -17.883806) (end 23.749369 -4.950974) (layer F.SilkS) (width 0.1))
  (fp_line (start 36.682372 10.324024) (end 23.750286 4.950057) (layer F.SilkS) (width 0.1))
  (fp_line (start 29.124852 17.881893) (end 20.61215 6.76199) (layer F.SilkS) (width 0.1))
  (fp_line (start 18.79713 -20.6486) (end 20.610897 -6.762326) (layer F.SilkS) (width 0.1))
  (fp_line (start 0.916672 -10.322367) (end 13.849255 -4.949598) (layer F.SilkS) (width 0.1))
  (fp_circle (center 18.8 0) (end 25.783333 0) (layer F.SilkS) (width 0.1))
  (fp_circle (center 18.8 0) (end 39.75 0) (layer F.Fab) (width 0.1))
  (fp_circle (center 18.8 0) (end 25.783333 0) (layer F.Fab) (width 0.1))
  (fp_circle (center 18.8 0) (end 39.87 0) (layer F.SilkS) (width 0.12))
  (fp_line (start 39.4486 0) (end 25.562074 1.811836) (layer F.Fab) (width 0.1))
  (fp_line (start 36.682372 10.324024) (end 23.750286 4.950057) (layer F.Fab) (width 0.1))
  (fp_line (start 29.124852 17.881893) (end 20.61215 6.76199) (layer F.Fab) (width 0.1))
  (fp_line (start 18.800957 20.6486) (end 16.988477 6.762158) (layer F.Fab) (width 0.1))
  (fp_line (start 8.476805 17.88285) (end 13.850172 4.950516) (layer F.Fab) (width 0.1))
  (fp_line (start 0.918585 10.325681) (end 12.038094 1.812463) (layer F.Fab) (width 0.1))
  (fp_line (start -1.8486 0.001913) (end 12.037758 -1.81121) (layer F.Fab) (width 0.1))
  (fp_line (start 0.916672 -10.322367) (end 13.849255 -4.949598) (layer F.Fab) (width 0.1))
  (fp_line (start 8.473491 -17.880937) (end 16.987224 -6.761822) (layer F.Fab) (width 0.1))
  (fp_line (start 18.79713 -20.6486) (end 20.610897 -6.762326) (layer F.Fab) (width 0.1))
  (fp_line (start 29.121538 -17.883806) (end 23.749369 -4.950974) (layer F.Fab) (width 0.1))
  (fp_line (start 36.680458 -10.327337) (end 25.561738 -1.813089) (layer F.Fab) (width 0.1))
  (fp_line (start 39.4486 -0.003826) (end 25.56241 1.810583) (layer F.Fab) (width 0.1))
  (fp_line (start -2.4 -21.2) (end -2.4 21.2) (layer F.CrtYd) (width 0.05))
  (fp_line (start -2.4 21.2) (end 40 21.2) (layer F.CrtYd) (width 0.05))
  (fp_line (start 40 21.2) (end 40 -21.2) (layer F.CrtYd) (width 0.05))
  (fp_line (start 40 -21.2) (end -2.4 -21.2) (layer F.CrtYd) (width 0.05))
  (fp_text user %R (at 18.8 0) (layer F.Fab)
    (effects (font (size 1 1) (thickness 0.15)))
  )
  (pad 2 thru_hole circle (at 37.6 0) (size 3 3) (drill 1.5) (layers *.Cu *.Mask))
  (pad 1 thru_hole circle (at 0 0) (size 3 3) (drill 1.5) (layers *.Cu *.Mask))
  (model ${KISYS3DMOD}/Inductor_THT.3dshapes/L_Toroid_Horizontal_D41.9mm_P37.60mm_Vishay_TJ7.wrl
    (at (xyz 0 0 0))
    (scale (xyz 1 1 1))
    (rotate (xyz 0 0 0))
  )
)
