(module L_Toroid_Vertical_L41.9mm_W19.1mm_P15.80mm_Vishay_TJ7 (layer F.Cu) (tedit 60795B1B)
  (descr "L_Toroid, Vertical series, Radial, pin pitch=15.80mm, , length*width=41.9*19.1mm^2, Vishay, TJ7, http://www.vishay.com/docs/34079/tj.pdf, Alternate KiCad Library")
  (tags "L_Toroid Vertical series Radial pin pitch 15.80mm  length 41.9mm width 19.1mm Vishay TJ7")
  (fp_text reference REF** (at 0 -2.9) (layer F.SilkS)
    (effects (font (size 1 1) (thickness 0.15)))
  )
  (fp_text value L_Toroid_Vertical_L41.9mm_W19.1mm_P15.80mm_Vishay_TJ7 (at 0 18.7) (layer F.Fab)
    (effects (font (size 1 1) (thickness 0.15)))
  )
  (fp_line (start 0 13.843) (end 0 13.97) (layer F.SilkS) (width 0.12))
  (fp_line (start 0 1.905) (end 0 1.778) (layer F.SilkS) (width 0.12))
  (fp_line (start 21.2 -1.91) (end -21.2 -1.91) (layer F.CrtYd) (width 0.05))
  (fp_line (start 21.2 17.71) (end 21.2 -1.91) (layer F.CrtYd) (width 0.05))
  (fp_line (start -21.2 17.71) (end 21.2 17.71) (layer F.CrtYd) (width 0.05))
  (fp_line (start -21.2 -1.91) (end -21.2 17.71) (layer F.CrtYd) (width 0.05))
  (fp_line (start 21.07 -1.77) (end 21.07 17.57) (layer F.SilkS) (width 0.12))
  (fp_line (start -21.07 -1.77) (end -21.07 17.57) (layer F.SilkS) (width 0.12))
  (fp_line (start -21.07 17.57) (end 21.07 17.57) (layer F.SilkS) (width 0.12))
  (fp_line (start -21.07 -1.77) (end 21.07 -1.77) (layer F.SilkS) (width 0.12))
  (fp_line (start 16.76 -1.65) (end 18.855 17.45) (layer F.Fab) (width 0.1))
  (fp_line (start 12.57 -1.65) (end 14.665 17.45) (layer F.Fab) (width 0.1))
  (fp_line (start 8.38 -1.65) (end 10.475 17.45) (layer F.Fab) (width 0.1))
  (fp_line (start 4.19 -1.65) (end 6.285 17.45) (layer F.Fab) (width 0.1))
  (fp_line (start 0 -1.65) (end 2.095 17.45) (layer F.Fab) (width 0.1))
  (fp_line (start -4.19 -1.65) (end -2.095 17.45) (layer F.Fab) (width 0.1))
  (fp_line (start -8.38 -1.65) (end -6.285 17.45) (layer F.Fab) (width 0.1))
  (fp_line (start -12.57 -1.65) (end -10.475 17.45) (layer F.Fab) (width 0.1))
  (fp_line (start -16.76 -1.65) (end -14.665 17.45) (layer F.Fab) (width 0.1))
  (fp_line (start -20.95 -1.65) (end -18.855 17.45) (layer F.Fab) (width 0.1))
  (fp_line (start 20.95 -1.65) (end -20.95 -1.65) (layer F.Fab) (width 0.1))
  (fp_line (start 20.95 17.45) (end 20.95 -1.65) (layer F.Fab) (width 0.1))
  (fp_line (start -20.95 17.45) (end 20.95 17.45) (layer F.Fab) (width 0.1))
  (fp_line (start -20.95 -1.65) (end -20.95 17.45) (layer F.Fab) (width 0.1))
  (fp_text user %R (at 7.9 0) (layer F.Fab)
    (effects (font (size 1 1) (thickness 0.15)))
  )
  (fp_arc (start 0 6.477) (end 0 4.953) (angle -180) (layer F.SilkS) (width 0.12))
  (fp_arc (start 0 9.525) (end 0 8.001) (angle -180) (layer F.SilkS) (width 0.12))
  (fp_arc (start 0 3.429) (end 0 1.905) (angle -180) (layer F.SilkS) (width 0.12))
  (fp_arc (start 0 12.446) (end 0 11.049) (angle -180) (layer F.SilkS) (width 0.12))
  (pad 2 thru_hole circle (at 0 15.8) (size 3 3) (drill 1.5) (layers *.Cu *.Mask))
  (pad 1 thru_hole circle (at 0 0) (size 3 3) (drill 1.5) (layers *.Cu *.Mask))
  (model ${KISYS3DMOD}/Inductor_THT.3dshapes/L_Toroid_Vertical_L41.9mm_W19.1mm_P15.80mm_Vishay_TJ7.wrl
    (at (xyz 0 0 0))
    (scale (xyz 1 1 1))
    (rotate (xyz 0 0 0))
  )
)
