(module L_Toroid_Horizontal_D21.8mm_P19.10mm_Bourns_2100 (layer F.Cu) (tedit 60795A17)
  (descr "L_Toroid, Horizontal series, Radial, pin pitch=19.10mm, , diameter=21.8mm, Bourns, 2100, http://www.bourns.com/docs/Product-Datasheets/2100_series.pdf?sfvrsn=3, Alternate KiCad Library")
  (tags "L_Toroid Horizontal series Radial pin pitch 19.10mm  diameter 21.8mm Bourns 2100")
  (fp_text reference REF** (at 9.55 -12.15) (layer F.SilkS)
    (effects (font (size 1 1) (thickness 0.15)))
  )
  (fp_text value L_Toroid_Horizontal_D21.8mm_P19.10mm_Bourns_2100 (at 9.55 12.15) (layer F.Fab)
    (effects (font (size 1 1) (thickness 0.15)))
  )
  (fp_line (start 18.902811 5.399656) (end 12.084047 2.533929) (layer F.SilkS) (width 0.1))
  (fp_circle (center 9.55 0) (end 13.183333 0) (layer F.SilkS) (width 0.1))
  (fp_line (start 16.891 0.4445) (end 13.011499 0.927477) (layer F.SilkS) (width 0.1))
  (fp_line (start 14.950089 9.352561) (end 10.477638 3.461456) (layer F.SilkS) (width 0.1))
  (fp_line (start 9.5505 10.7996) (end 8.622683 3.461542) (layer F.SilkS) (width 0.1))
  (fp_line (start 4.150778 9.353061) (end 7.016188 2.534164) (layer F.SilkS) (width 0.1))
  (fp_line (start 2.159 -0.4445) (end 6.088415 -0.927156) (layer F.SilkS) (width 0.1))
  (fp_line (start 0.196688 -5.398789) (end 7.015719 -2.533694) (layer F.SilkS) (width 0.1))
  (fp_line (start 4.149045 -9.352061) (end 8.622042 -3.46137) (layer F.SilkS) (width 0.1))
  (fp_line (start 9.548499 -10.7996) (end 10.476996 -3.461628) (layer F.SilkS) (width 0.1))
  (fp_line (start 14.948356 -9.353562) (end 12.083577 -2.534399) (layer F.SilkS) (width 0.1))
  (fp_line (start 0.197689 5.400522) (end 6.088587 0.927798) (layer F.SilkS) (width 0.1))
  (fp_line (start 18.901811 -5.401389) (end 13.011327 -0.928119) (layer F.SilkS) (width 0.1))
  (fp_circle (center 9.55 0) (end 20.45 0) (layer F.Fab) (width 0.1))
  (fp_circle (center 9.55 0) (end 13.183333 0) (layer F.Fab) (width 0.1))
  (fp_line (start 20.3496 0) (end 13.011499 0.927477) (layer F.Fab) (width 0.1))
  (fp_line (start 18.902811 5.399656) (end 12.084047 2.533929) (layer F.Fab) (width 0.1))
  (fp_line (start 14.950089 9.352561) (end 10.477638 3.461456) (layer F.Fab) (width 0.1))
  (fp_line (start 9.5505 10.7996) (end 8.622683 3.461542) (layer F.Fab) (width 0.1))
  (fp_line (start 4.150778 9.353061) (end 7.016188 2.534164) (layer F.Fab) (width 0.1))
  (fp_line (start 0.197689 5.400522) (end 6.088587 0.927798) (layer F.Fab) (width 0.1))
  (fp_line (start -1.2496 0.001001) (end 6.088415 -0.927156) (layer F.Fab) (width 0.1))
  (fp_line (start 0.196688 -5.398789) (end 7.015719 -2.533694) (layer F.Fab) (width 0.1))
  (fp_line (start 4.149045 -9.352061) (end 8.622042 -3.46137) (layer F.Fab) (width 0.1))
  (fp_line (start 9.548499 -10.7996) (end 10.476996 -3.461628) (layer F.Fab) (width 0.1))
  (fp_line (start 14.948356 -9.353562) (end 12.083577 -2.534399) (layer F.Fab) (width 0.1))
  (fp_line (start 18.901811 -5.401389) (end 13.011327 -0.928119) (layer F.Fab) (width 0.1))
  (fp_line (start 20.3496 -0.002001) (end 13.011671 0.926836) (layer F.Fab) (width 0.1))
  (fp_line (start -2.06 -11.15) (end -2.06 11.15) (layer F.CrtYd) (width 0.05))
  (fp_line (start -2.06 11.15) (end 21.15 11.15) (layer F.CrtYd) (width 0.05))
  (fp_line (start 21.15 11.15) (end 21.15 -11.15) (layer F.CrtYd) (width 0.05))
  (fp_line (start 21.15 -11.15) (end -2.06 -11.15) (layer F.CrtYd) (width 0.05))
  (fp_text user %R (at 9.55 0) (layer F.Fab)
    (effects (font (size 1 1) (thickness 0.15)))
  )
  (fp_arc (start 9.55 0) (end -1.275747 2.06) (angle -158.452315) (layer F.SilkS) (width 0.12))
  (fp_arc (start 9.55 0) (end -1.275747 -2.06) (angle 158.452315) (layer F.SilkS) (width 0.12))
  (pad 2 thru_hole circle (at 19.1 0) (size 3.6 3.6) (drill 1.8) (layers *.Cu *.Mask))
  (pad 1 thru_hole circle (at 0 0) (size 3.6 3.6) (drill 1.8) (layers *.Cu *.Mask))
  (model ${KISYS3DMOD}/Inductor_THT.3dshapes/L_Toroid_Horizontal_D21.8mm_P19.10mm_Bourns_2100.wrl
    (at (xyz 0 0 0))
    (scale (xyz 1 1 1))
    (rotate (xyz 0 0 0))
  )
)
