(module L_Toroid_Vertical_L17.8mm_W8.1mm_P7.62mm_Bourns_5700 (layer F.Cu) (tedit 60795AB6)
  (descr "L_Toroid, Vertical series, Radial, pin pitch=7.62mm, , length*width=17.8*8.1mm^2, Bourns, 5700, http://www.bourns.com/docs/Product-Datasheets/5700_series.pdf, Alternate KiCad Library")
  (tags "L_Toroid Vertical series Radial pin pitch 7.62mm  length 17.8mm width 8.1mm Bourns 5700")
  (fp_text reference REF** (at 0 -2.15) (layer F.SilkS)
    (effects (font (size 1 1) (thickness 0.15)))
  )
  (fp_text value L_Toroid_Vertical_L17.8mm_W8.1mm_P7.62mm_Bourns_5700 (at 0 9.77) (layer F.Fab)
    (effects (font (size 1 1) (thickness 0.15)))
  )
  (fp_line (start 0 1.27) (end 0 1.143) (layer F.SilkS) (width 0.12))
  (fp_line (start 0 6.35) (end 0 6.477) (layer F.SilkS) (width 0.12))
  (fp_line (start -8.9 -0.24) (end -8.9 7.86) (layer F.Fab) (width 0.1))
  (fp_line (start -8.9 7.86) (end 8.9 7.86) (layer F.Fab) (width 0.1))
  (fp_line (start 8.9 7.86) (end 8.9 -0.24) (layer F.Fab) (width 0.1))
  (fp_line (start 8.9 -0.24) (end -8.9 -0.24) (layer F.Fab) (width 0.1))
  (fp_line (start -8.9 -0.24) (end -8.01 7.86) (layer F.Fab) (width 0.1))
  (fp_line (start -7.12 -0.24) (end -6.23 7.86) (layer F.Fab) (width 0.1))
  (fp_line (start -5.34 -0.24) (end -4.45 7.86) (layer F.Fab) (width 0.1))
  (fp_line (start -3.56 -0.24) (end -2.67 7.86) (layer F.Fab) (width 0.1))
  (fp_line (start -1.78 -0.24) (end -0.89 7.86) (layer F.Fab) (width 0.1))
  (fp_line (start 0 -0.24) (end 0.89 7.86) (layer F.Fab) (width 0.1))
  (fp_line (start 1.78 -0.24) (end 2.67 7.86) (layer F.Fab) (width 0.1))
  (fp_line (start 3.56 -0.24) (end 4.45 7.86) (layer F.Fab) (width 0.1))
  (fp_line (start 5.34 -0.24) (end 6.23 7.86) (layer F.Fab) (width 0.1))
  (fp_line (start 7.12 -0.24) (end 8.01 7.86) (layer F.Fab) (width 0.1))
  (fp_line (start -9.02 -0.36) (end -1.119 -0.36) (layer F.SilkS) (width 0.12))
  (fp_line (start 1.119 -0.36) (end 9.02 -0.36) (layer F.SilkS) (width 0.12))
  (fp_line (start -9.02 7.98) (end -1.119 7.98) (layer F.SilkS) (width 0.12))
  (fp_line (start 1.119 7.98) (end 9.02 7.98) (layer F.SilkS) (width 0.12))
  (fp_line (start -9.02 -0.36) (end -9.02 7.98) (layer F.SilkS) (width 0.12))
  (fp_line (start 9.02 -0.36) (end 9.02 7.98) (layer F.SilkS) (width 0.12))
  (fp_line (start -9.15 -1.15) (end -9.15 8.77) (layer F.CrtYd) (width 0.05))
  (fp_line (start -9.15 8.77) (end 9.15 8.77) (layer F.CrtYd) (width 0.05))
  (fp_line (start 9.15 8.77) (end 9.15 -1.15) (layer F.CrtYd) (width 0.05))
  (fp_line (start 9.15 -1.15) (end -9.15 -1.15) (layer F.CrtYd) (width 0.05))
  (fp_text user %R (at 3.81 0) (layer F.Fab)
    (effects (font (size 1 1) (thickness 0.15)))
  )
  (fp_arc (start 0 3.175) (end 0 2.54) (angle -180) (layer F.SilkS) (width 0.12))
  (fp_arc (start 0 4.445) (end 0 3.81) (angle -180) (layer F.SilkS) (width 0.12))
  (fp_arc (start 0 1.905) (end 0 1.27) (angle -180) (layer F.SilkS) (width 0.12))
  (fp_arc (start 0 5.715) (end 0 5.08) (angle -180) (layer F.SilkS) (width 0.12))
  (pad 2 thru_hole circle (at 0 7.62) (size 1.8 1.8) (drill 0.9) (layers *.Cu *.Mask))
  (pad 1 thru_hole circle (at 0 0) (size 1.8 1.8) (drill 0.9) (layers *.Cu *.Mask))
  (model ${KISYS3DMOD}/Inductor_THT.3dshapes/L_Toroid_Vertical_L17.8mm_W8.1mm_P7.62mm_Bourns_5700.wrl
    (at (xyz 0 0 0))
    (scale (xyz 1 1 1))
    (rotate (xyz 0 0 0))
  )
)
