(module L_Toroid_Horizontal_D21.8mm_P19.60mm_Bourns_2100 (layer F.Cu) (tedit 60795A1C)
  (descr "L_Toroid, Horizontal series, Radial, pin pitch=19.60mm, , diameter=21.8mm, Bourns, 2100, http://www.bourns.com/docs/Product-Datasheets/2100_series.pdf?sfvrsn=3, Alternate KiCad Library")
  (tags "L_Toroid Horizontal series Radial pin pitch 19.60mm  diameter 21.8mm Bourns 2100")
  (fp_text reference REF** (at 9.8 -12.15) (layer F.SilkS)
    (effects (font (size 1 1) (thickness 0.15)))
  )
  (fp_text value L_Toroid_Horizontal_D21.8mm_P19.60mm_Bourns_2100 (at 9.8 12.15) (layer F.Fab)
    (effects (font (size 1 1) (thickness 0.15)))
  )
  (fp_line (start 2.159 -0.381) (end 6.338415 -0.927156) (layer F.SilkS) (width 0.1))
  (fp_line (start 0.446688 -5.398789) (end 7.265719 -2.533694) (layer F.SilkS) (width 0.1))
  (fp_line (start 17.4625 0.381) (end 13.261671 0.926836) (layer F.SilkS) (width 0.1))
  (fp_line (start 19.151811 -5.401389) (end 13.261327 -0.928119) (layer F.SilkS) (width 0.1))
  (fp_line (start 4.400778 9.353061) (end 7.266188 2.534164) (layer F.SilkS) (width 0.1))
  (fp_line (start 0.447689 5.400522) (end 6.338587 0.927798) (layer F.SilkS) (width 0.1))
  (fp_line (start 9.798499 -10.7996) (end 10.726996 -3.461628) (layer F.SilkS) (width 0.1))
  (fp_line (start 9.8005 10.7996) (end 8.872683 3.461542) (layer F.SilkS) (width 0.1))
  (fp_line (start 15.200089 9.352561) (end 10.727638 3.461456) (layer F.SilkS) (width 0.1))
  (fp_line (start 4.399045 -9.352061) (end 8.872042 -3.46137) (layer F.SilkS) (width 0.1))
  (fp_circle (center 9.8 0) (end 13.433333 0) (layer F.SilkS) (width 0.1))
  (fp_line (start 19.152811 5.399656) (end 12.334047 2.533929) (layer F.SilkS) (width 0.1))
  (fp_line (start 15.198356 -9.353562) (end 12.333577 -2.534399) (layer F.SilkS) (width 0.1))
  (fp_circle (center 9.8 0) (end 20.7 0) (layer F.Fab) (width 0.1))
  (fp_circle (center 9.8 0) (end 13.433333 0) (layer F.Fab) (width 0.1))
  (fp_line (start 20.5996 0) (end 13.261499 0.927477) (layer F.Fab) (width 0.1))
  (fp_line (start 19.152811 5.399656) (end 12.334047 2.533929) (layer F.Fab) (width 0.1))
  (fp_line (start 15.200089 9.352561) (end 10.727638 3.461456) (layer F.Fab) (width 0.1))
  (fp_line (start 9.8005 10.7996) (end 8.872683 3.461542) (layer F.Fab) (width 0.1))
  (fp_line (start 4.400778 9.353061) (end 7.266188 2.534164) (layer F.Fab) (width 0.1))
  (fp_line (start 0.447689 5.400522) (end 6.338587 0.927798) (layer F.Fab) (width 0.1))
  (fp_line (start -0.9996 0.001001) (end 6.338415 -0.927156) (layer F.Fab) (width 0.1))
  (fp_line (start 0.446688 -5.398789) (end 7.265719 -2.533694) (layer F.Fab) (width 0.1))
  (fp_line (start 4.399045 -9.352061) (end 8.872042 -3.46137) (layer F.Fab) (width 0.1))
  (fp_line (start 9.798499 -10.7996) (end 10.726996 -3.461628) (layer F.Fab) (width 0.1))
  (fp_line (start 15.198356 -9.353562) (end 12.333577 -2.534399) (layer F.Fab) (width 0.1))
  (fp_line (start 19.151811 -5.401389) (end 13.261327 -0.928119) (layer F.Fab) (width 0.1))
  (fp_line (start 20.5996 -0.002001) (end 13.261671 0.926836) (layer F.Fab) (width 0.1))
  (fp_line (start -2.06 -11.15) (end -2.06 11.15) (layer F.CrtYd) (width 0.05))
  (fp_line (start -2.06 11.15) (end 21.65 11.15) (layer F.CrtYd) (width 0.05))
  (fp_line (start 21.65 11.15) (end 21.65 -11.15) (layer F.CrtYd) (width 0.05))
  (fp_line (start 21.65 -11.15) (end -2.06 -11.15) (layer F.CrtYd) (width 0.05))
  (fp_text user %R (at 9.8 0) (layer F.Fab)
    (effects (font (size 1 1) (thickness 0.15)))
  )
  (fp_arc (start 9.8 0) (end -1.025747 2.06) (angle -158.452315) (layer F.SilkS) (width 0.12))
  (fp_arc (start 9.8 0) (end -1.025747 -2.06) (angle 158.452315) (layer F.SilkS) (width 0.12))
  (pad 2 thru_hole circle (at 19.6 0) (size 3.6 3.6) (drill 1.8) (layers *.Cu *.Mask))
  (pad 1 thru_hole circle (at 0 0) (size 3.6 3.6) (drill 1.8) (layers *.Cu *.Mask))
  (model ${KISYS3DMOD}/Inductor_THT.3dshapes/L_Toroid_Horizontal_D21.8mm_P19.60mm_Bourns_2100.wrl
    (at (xyz 0 0 0))
    (scale (xyz 1 1 1))
    (rotate (xyz 0 0 0))
  )
)
