(module CP_EIA-7132-28_AVX-C_Pad2.72x3.50mm (layer F.Cu) (tedit 608D2837)
  (descr "Tantalum Capacitor SMD AVX-C (7132-28 Metric), IPC_7351 nominal, (Body size from: http://datasheets.avx.com/F72-F75.pdf), Alternate KiCad Library")
  (tags "capacitor tantalum")
  (attr smd)
  (fp_text reference REF** (at 0 -2.7) (layer F.SilkS)
    (effects (font (size 1 1) (thickness 0.15)))
  )
  (fp_text value CP_EIA-7132-28_AVX-C_Pad2.72x3.50mm (at 0 2.7) (layer F.Fab)
    (effects (font (size 1 1) (thickness 0.15)))
  )
  (fp_poly (pts (xy -2.2225 2.2225) (xy -3.1115 2.2225) (xy -3.1115 1.9685) (xy -2.2225 1.9685)) (layer F.SilkS) (width 0.1))
  (fp_poly (pts (xy -2.2225 -1.9685) (xy -3.1115 -1.9685) (xy -3.1115 -2.2225) (xy -2.2225 -2.2225)) (layer F.SilkS) (width 0.1))
  (fp_line (start 4.5085 1.9685) (end -4.5085 1.9685) (layer F.SilkS) (width 0.12))
  (fp_line (start 4.5085 -1.9685) (end 4.5085 1.9685) (layer F.SilkS) (width 0.12))
  (fp_line (start -4.5085 -1.9685) (end 4.5085 -1.9685) (layer F.SilkS) (width 0.12))
  (fp_line (start -4.5085 1.9685) (end -4.5085 -1.9685) (layer F.SilkS) (width 0.12))
  (fp_line (start 4.47 2) (end -4.47 2) (layer F.CrtYd) (width 0.05))
  (fp_line (start 4.47 -2) (end 4.47 2) (layer F.CrtYd) (width 0.05))
  (fp_line (start -4.47 -2) (end 4.47 -2) (layer F.CrtYd) (width 0.05))
  (fp_line (start -4.47 2) (end -4.47 -2) (layer F.CrtYd) (width 0.05))
  (fp_line (start 3.55 1.6) (end 3.55 -1.6) (layer F.Fab) (width 0.1))
  (fp_line (start -3.55 1.6) (end 3.55 1.6) (layer F.Fab) (width 0.1))
  (fp_line (start -3.55 -0.8) (end -3.55 1.6) (layer F.Fab) (width 0.1))
  (fp_line (start -2.75 -1.6) (end -3.55 -0.8) (layer F.Fab) (width 0.1))
  (fp_line (start 3.55 -1.6) (end -2.75 -1.6) (layer F.Fab) (width 0.1))
  (fp_line (start -5.5245 1.524) (end -4.7625 1.524) (layer F.SilkS) (width 0.12))
  (fp_line (start -5.1435 1.143) (end -5.1435 1.905) (layer F.SilkS) (width 0.12))
  (fp_text user %R (at 0 0) (layer F.Fab)
    (effects (font (size 1 1) (thickness 0.15)))
  )
  (pad 2 smd roundrect (at 2.8625 0) (size 2.725 3.5) (layers F.Cu F.Paste F.Mask) (roundrect_rratio 0.09174300000000001))
  (pad 1 smd roundrect (at -2.8625 0) (size 2.725 3.5) (layers F.Cu F.Paste F.Mask) (roundrect_rratio 0.09174300000000001))
  (model ${KISYS3DMOD}/Capacitor_Tantalum_SMD.3dshapes/CP_EIA-7132-28_AVX-C.wrl
    (at (xyz 0 0 0))
    (scale (xyz 1 1 1))
    (rotate (xyz 0 0 0))
  )
)
