(module CP_EIA-3528-15_AVX-H_Pad1.50x2.35mm (layer F.Cu) (tedit 608D2792)
  (descr "Tantalum Capacitor SMD AVX-H (3528-15 Metric), IPC_7351 nominal, (Body size from: http://www.kemet.com/Lists/ProductCatalog/Attachments/253/KEM_TC101_STD.pdf), Alternate KiCad Library")
  (tags "capacitor tantalum")
  (attr smd)
  (fp_text reference REF** (at 0 -2.794) (layer F.SilkS)
    (effects (font (size 1 1) (thickness 0.15)))
  )
  (fp_text value CP_EIA-3528-15_AVX-H_Pad1.50x2.35mm (at 0 2.35) (layer F.Fab)
    (effects (font (size 1 1) (thickness 0.15)))
  )
  (fp_poly (pts (xy -0.9525 1.8415) (xy -1.7145 1.8415) (xy -1.7145 1.5875) (xy -0.9525 1.5875)) (layer F.SilkS) (width 0.1))
  (fp_poly (pts (xy -0.9525 -1.5875) (xy -1.7145 -1.5875) (xy -1.7145 -1.8415) (xy -0.9525 -1.8415)) (layer F.SilkS) (width 0.1))
  (fp_line (start 2.6035 -1.5875) (end -2.6035 -1.5875) (layer F.SilkS) (width 0.12))
  (fp_line (start 2.6035 1.5875) (end 2.6035 -1.5875) (layer F.SilkS) (width 0.12))
  (fp_line (start -2.6035 1.5875) (end 2.6035 1.5875) (layer F.SilkS) (width 0.12))
  (fp_line (start -2.6035 -1.5875) (end -2.6035 1.5875) (layer F.SilkS) (width 0.12))
  (fp_line (start 2.62 1.65) (end -2.62 1.65) (layer F.CrtYd) (width 0.05))
  (fp_line (start 2.62 -1.65) (end 2.62 1.65) (layer F.CrtYd) (width 0.05))
  (fp_line (start -2.62 -1.65) (end 2.62 -1.65) (layer F.CrtYd) (width 0.05))
  (fp_line (start -2.62 1.65) (end -2.62 -1.65) (layer F.CrtYd) (width 0.05))
  (fp_line (start 1.75 1.4) (end 1.75 -1.4) (layer F.Fab) (width 0.1))
  (fp_line (start -1.75 1.4) (end 1.75 1.4) (layer F.Fab) (width 0.1))
  (fp_line (start -1.75 -0.7) (end -1.75 1.4) (layer F.Fab) (width 0.1))
  (fp_line (start -1.05 -1.4) (end -1.75 -0.7) (layer F.Fab) (width 0.1))
  (fp_line (start 1.75 -1.4) (end -1.05 -1.4) (layer F.Fab) (width 0.1))
  (fp_line (start -3.683 1.016) (end -2.921 1.016) (layer F.SilkS) (width 0.12))
  (fp_line (start -3.302 0.635) (end -3.302 1.397) (layer F.SilkS) (width 0.12))
  (fp_text user %R (at 0 0) (layer F.Fab)
    (effects (font (size 0.88 0.88) (thickness 0.13)))
  )
  (pad 2 smd roundrect (at 1.625 0) (size 1.5 2.35) (layers F.Cu F.Paste F.Mask) (roundrect_rratio 0.166667))
  (pad 1 smd roundrect (at -1.625 0) (size 1.5 2.35) (layers F.Cu F.Paste F.Mask) (roundrect_rratio 0.166667))
  (model ${KISYS3DMOD}/Capacitor_Tantalum_SMD.3dshapes/CP_EIA-3528-15_AVX-H.wrl
    (at (xyz 0 0 0))
    (scale (xyz 1 1 1))
    (rotate (xyz 0 0 0))
  )
)
