(module CP_EIA-7361-38_AVX-V_Pad2.18x3.30mm (layer F.Cu) (tedit 608D2941)
  (descr "Tantalum Capacitor SMD AVX-V (7361-38 Metric), IPC_7351 nominal, (Body size from: http://datasheets.avx.com/NOS.pdf), Alternate KiCad Library")
  (tags "capacitor tantalum")
  (attr smd)
  (fp_text reference REF** (at 0 -4) (layer F.SilkS)
    (effects (font (size 1 1) (thickness 0.15)))
  )
  (fp_text value CP_EIA-7361-38_AVX-V_Pad2.18x3.30mm (at 0 4) (layer F.Fab)
    (effects (font (size 1 1) (thickness 0.15)))
  )
  (fp_poly (pts (xy -2.2225 3.556) (xy -3.302 3.556) (xy -3.302 3.2385) (xy -2.2225 3.2385)) (layer F.SilkS) (width 0.1))
  (fp_poly (pts (xy -2.2225 -3.2385) (xy -3.302 -3.2385) (xy -3.302 -3.556) (xy -2.2225 -3.556)) (layer F.SilkS) (width 0.1))
  (fp_line (start 4.5085 -3.2385) (end -4.5085 -3.2385) (layer F.SilkS) (width 0.12))
  (fp_line (start 4.5085 3.2385) (end 4.5085 -3.2385) (layer F.SilkS) (width 0.12))
  (fp_line (start -4.5085 3.2385) (end 4.5085 3.2385) (layer F.SilkS) (width 0.12))
  (fp_line (start -4.5085 -3.2385) (end -4.5085 3.2385) (layer F.SilkS) (width 0.12))
  (fp_line (start 4.52 3.3) (end -4.52 3.3) (layer F.CrtYd) (width 0.05))
  (fp_line (start 4.52 -3.3) (end 4.52 3.3) (layer F.CrtYd) (width 0.05))
  (fp_line (start -4.52 -3.3) (end 4.52 -3.3) (layer F.CrtYd) (width 0.05))
  (fp_line (start -4.52 3.3) (end -4.52 -3.3) (layer F.CrtYd) (width 0.05))
  (fp_line (start 3.65 3.05) (end 3.65 -3.05) (layer F.Fab) (width 0.1))
  (fp_line (start -3.65 3.05) (end 3.65 3.05) (layer F.Fab) (width 0.1))
  (fp_line (start -3.65 -2.05) (end -3.65 3.05) (layer F.Fab) (width 0.1))
  (fp_line (start -2.65 -3.05) (end -3.65 -2.05) (layer F.Fab) (width 0.1))
  (fp_line (start 3.65 -3.05) (end -2.65 -3.05) (layer F.Fab) (width 0.1))
  (fp_line (start -5.588 2.667) (end -4.826 2.667) (layer F.SilkS) (width 0.12))
  (fp_line (start -5.207 2.286) (end -5.207 3.048) (layer F.SilkS) (width 0.12))
  (fp_text user %R (at 0 0) (layer F.Fab)
    (effects (font (size 1 1) (thickness 0.15)))
  )
  (pad 2 smd roundrect (at 3.1875 0) (size 2.175 3.3) (layers F.Cu F.Paste F.Mask) (roundrect_rratio 0.114943))
  (pad 1 smd roundrect (at -3.1875 0) (size 2.175 3.3) (layers F.Cu F.Paste F.Mask) (roundrect_rratio 0.114943))
  (model ${KISYS3DMOD}/Capacitor_Tantalum_SMD.3dshapes/CP_EIA-7361-38_AVX-V.wrl
    (at (xyz 0 0 0))
    (scale (xyz 1 1 1))
    (rotate (xyz 0 0 0))
  )
)
