(module CP_EIA-7343-15_Kemet-W (layer F.Cu) (tedit 608D2895)
  (descr "Tantalum Capacitor SMD Kemet-W (7343-15 Metric), IPC_7351 nominal, (Body size from: http://www.kemet.com/Lists/ProductCatalog/Attachments/253/KEM_TC101_STD.pdf), Alternate KiCad Library")
  (tags "capacitor tantalum")
  (attr smd)
  (fp_text reference REF** (at 0 -3.2385) (layer F.SilkS)
    (effects (font (size 1 1) (thickness 0.15)))
  )
  (fp_text value CP_EIA-7343-15_Kemet-W (at 0 3.1) (layer F.Fab)
    (effects (font (size 1 1) (thickness 0.15)))
  )
  (fp_poly (pts (xy -2.159 2.6035) (xy -3.2385 2.6035) (xy -3.2385 2.286) (xy -2.159 2.286)) (layer F.SilkS) (width 0.1))
  (fp_poly (pts (xy -2.159 -2.286) (xy -3.2385 -2.286) (xy -3.2385 -2.6035) (xy -2.159 -2.6035)) (layer F.SilkS) (width 0.1))
  (fp_line (start -5.08 1.397) (end -5.08 2.159) (layer F.SilkS) (width 0.12))
  (fp_line (start -5.461 1.778) (end -4.699 1.778) (layer F.SilkS) (width 0.12))
  (fp_line (start 3.65 -2.15) (end -2.65 -2.15) (layer F.Fab) (width 0.1))
  (fp_line (start -2.65 -2.15) (end -3.65 -1.15) (layer F.Fab) (width 0.1))
  (fp_line (start -3.65 -1.15) (end -3.65 2.15) (layer F.Fab) (width 0.1))
  (fp_line (start -3.65 2.15) (end 3.65 2.15) (layer F.Fab) (width 0.1))
  (fp_line (start 3.65 2.15) (end 3.65 -2.15) (layer F.Fab) (width 0.1))
  (fp_line (start -4.4 2.4) (end -4.4 -2.4) (layer F.CrtYd) (width 0.05))
  (fp_line (start -4.4 -2.4) (end 4.4 -2.4) (layer F.CrtYd) (width 0.05))
  (fp_line (start 4.4 -2.4) (end 4.4 2.4) (layer F.CrtYd) (width 0.05))
  (fp_line (start 4.4 2.4) (end -4.4 2.4) (layer F.CrtYd) (width 0.05))
  (fp_line (start -4.3815 -2.286) (end -4.3815 2.286) (layer F.SilkS) (width 0.12))
  (fp_line (start -4.3815 2.286) (end 4.3815 2.286) (layer F.SilkS) (width 0.12))
  (fp_line (start 4.3815 2.286) (end 4.3815 -2.286) (layer F.SilkS) (width 0.12))
  (fp_line (start 4.3815 -2.286) (end -4.3815 -2.286) (layer F.SilkS) (width 0.12))
  (fp_text user %R (at 0 0) (layer F.Fab)
    (effects (font (size 1 1) (thickness 0.15)))
  )
  (pad 2 smd roundrect (at 3.1125 0) (size 2.075 2.55) (layers F.Cu F.Paste F.Mask) (roundrect_rratio 0.120482))
  (pad 1 smd roundrect (at -3.1125 0) (size 2.075 2.55) (layers F.Cu F.Paste F.Mask) (roundrect_rratio 0.120482))
  (model ${KISYS3DMOD}/Capacitor_Tantalum_SMD.3dshapes/CP_EIA-7343-15_Kemet-W.wrl
    (at (xyz 0 0 0))
    (scale (xyz 1 1 1))
    (rotate (xyz 0 0 0))
  )
)
