(module CP_EIA-3216-18_Kemet-A (layer F.Cu) (tedit 608D2766)
  (descr "Tantalum Capacitor SMD Kemet-A (3216-18 Metric), IPC_7351 nominal, (Body size from: http://www.kemet.com/Lists/ProductCatalog/Attachments/253/KEM_TC101_STD.pdf), Alternate KiCad Library")
  (tags "capacitor tantalum")
  (attr smd)
  (fp_text reference REF** (at 0 -2.159) (layer F.SilkS)
    (effects (font (size 1 1) (thickness 0.15)))
  )
  (fp_text value CP_EIA-3216-18_Kemet-A (at 0 1.75) (layer F.Fab)
    (effects (font (size 1 1) (thickness 0.15)))
  )
  (fp_poly (pts (xy -0.5715 1.2065) (xy -1.2065 1.2065) (xy -1.2065 0.9525) (xy -0.5715 0.9525)) (layer F.SilkS) (width 0.1))
  (fp_poly (pts (xy -0.5715 -0.9525) (xy -1.2065 -0.9525) (xy -1.2065 -1.2065) (xy -0.5715 -1.2065)) (layer F.SilkS) (width 0.1))
  (fp_line (start 2.286 -0.9525) (end -2.286 -0.9525) (layer F.SilkS) (width 0.12))
  (fp_line (start 2.286 0.9525) (end 2.286 -0.9525) (layer F.SilkS) (width 0.12))
  (fp_line (start -2.286 0.9525) (end 2.286 0.9525) (layer F.SilkS) (width 0.12))
  (fp_line (start -2.286 -0.9525) (end -2.286 0.9525) (layer F.SilkS) (width 0.12))
  (fp_line (start 2.3 1.05) (end -2.3 1.05) (layer F.CrtYd) (width 0.05))
  (fp_line (start 2.3 -1.05) (end 2.3 1.05) (layer F.CrtYd) (width 0.05))
  (fp_line (start -2.3 -1.05) (end 2.3 -1.05) (layer F.CrtYd) (width 0.05))
  (fp_line (start -2.3 1.05) (end -2.3 -1.05) (layer F.CrtYd) (width 0.05))
  (fp_line (start 1.6 0.8) (end 1.6 -0.8) (layer F.Fab) (width 0.1))
  (fp_line (start -1.6 0.8) (end 1.6 0.8) (layer F.Fab) (width 0.1))
  (fp_line (start -1.6 -0.4) (end -1.6 0.8) (layer F.Fab) (width 0.1))
  (fp_line (start -1.2 -0.8) (end -1.6 -0.4) (layer F.Fab) (width 0.1))
  (fp_line (start 1.6 -0.8) (end -1.2 -0.8) (layer F.Fab) (width 0.1))
  (fp_line (start -3.302 0.508) (end -2.54 0.508) (layer F.SilkS) (width 0.12))
  (fp_line (start -2.921 0.127) (end -2.921 0.889) (layer F.SilkS) (width 0.12))
  (fp_text user %R (at 0 0) (layer F.Fab)
    (effects (font (size 0.8 0.8) (thickness 0.12)))
  )
  (pad 2 smd roundrect (at 1.35 0) (size 1.4 1.35) (layers F.Cu F.Paste F.Mask) (roundrect_rratio 0.185185))
  (pad 1 smd roundrect (at -1.35 0) (size 1.4 1.35) (layers F.Cu F.Paste F.Mask) (roundrect_rratio 0.185185))
  (model ${KISYS3DMOD}/Capacitor_Tantalum_SMD.3dshapes/CP_EIA-3216-18_Kemet-A.wrl
    (at (xyz 0 0 0))
    (scale (xyz 1 1 1))
    (rotate (xyz 0 0 0))
  )
)
