(module D_5KP_P12.70mm_Horizontal (layer F.Cu) (tedit 60793E78)
  (descr "Diode, 5KP series, Axial, Horizontal, pin pitch=12.7mm, , length*diameter=7.62*9.53mm^2, , http://www.diodes.com/_files/packages/8686949.gif, Alternate KiCad Library")
  (tags "Diode 5KP series Axial Horizontal pin pitch 12.7mm  length 7.62mm diameter 9.53mm")
  (fp_text reference REF** (at 6.35 -5.885) (layer F.SilkS)
    (effects (font (size 1 1) (thickness 0.15)))
  )
  (fp_text value D_5KP_P12.70mm_Horizontal (at 6.35 5.885) (layer F.Fab)
    (effects (font (size 1 1) (thickness 0.15)))
  )
  (fp_line (start 3.81 -3.302) (end 3.81 3.302) (layer F.SilkS) (width 0.3))
  (fp_poly (pts (xy 8.763 3.302) (xy 3.81 0) (xy 8.763 -3.302)) (layer F.SilkS) (width 0.1))
  (fp_line (start 2.54 -4.765) (end 2.54 4.765) (layer F.Fab) (width 0.1))
  (fp_line (start 2.54 4.765) (end 10.16 4.765) (layer F.Fab) (width 0.1))
  (fp_line (start 10.16 4.765) (end 10.16 -4.765) (layer F.Fab) (width 0.1))
  (fp_line (start 10.16 -4.765) (end 2.54 -4.765) (layer F.Fab) (width 0.1))
  (fp_line (start 0 0) (end 2.54 0) (layer F.Fab) (width 0.1))
  (fp_line (start 12.7 0) (end 10.16 0) (layer F.Fab) (width 0.1))
  (fp_line (start 3.683 -4.765) (end 3.683 4.765) (layer F.Fab) (width 0.1))
  (fp_line (start 3.783 -4.765) (end 3.783 4.765) (layer F.Fab) (width 0.1))
  (fp_line (start 3.583 -4.765) (end 3.583 4.765) (layer F.Fab) (width 0.1))
  (fp_line (start 2.42 -4.885) (end 2.42 4.885) (layer F.SilkS) (width 0.12))
  (fp_line (start 2.42 4.885) (end 10.28 4.885) (layer F.SilkS) (width 0.12))
  (fp_line (start 10.28 4.885) (end 10.28 -4.885) (layer F.SilkS) (width 0.12))
  (fp_line (start 10.28 -4.885) (end 2.42 -4.885) (layer F.SilkS) (width 0.12))
  (fp_line (start 1.64 0) (end 2.42 0) (layer F.SilkS) (width 0.12))
  (fp_line (start 11.06 0) (end 10.28 0) (layer F.SilkS) (width 0.12))
  (fp_line (start -1.65 -5.02) (end -1.65 5.02) (layer F.CrtYd) (width 0.05))
  (fp_line (start -1.65 5.02) (end 14.35 5.02) (layer F.CrtYd) (width 0.05))
  (fp_line (start 14.35 5.02) (end 14.35 -5.02) (layer F.CrtYd) (width 0.05))
  (fp_line (start 14.35 -5.02) (end -1.65 -5.02) (layer F.CrtYd) (width 0.05))
  (fp_line (start 10.28 0) (end 8.8 0) (layer F.SilkS) (width 0.12))
  (fp_line (start 2.42 0) (end 3.81 0) (layer F.SilkS) (width 0.12))
  (fp_text user K (at 0 -2.4) (layer F.SilkS)
    (effects (font (size 1 1) (thickness 0.15)))
  )
  (fp_text user K (at 0 -2.4) (layer F.Fab)
    (effects (font (size 1 1) (thickness 0.15)))
  )
  (fp_text user %R (at 6.9215 0) (layer F.Fab)
    (effects (font (size 1 1) (thickness 0.15)))
  )
  (pad 2 thru_hole oval (at 12.7 0) (size 2.8 2.8) (drill 1.4) (layers *.Cu *.Mask))
  (pad 1 thru_hole rect (at 0 0) (size 2.8 2.8) (drill 1.4) (layers *.Cu *.Mask))
  (model ${KISYS3DMOD}/Diode_THT.3dshapes/D_5KP_P12.70mm_Horizontal.wrl
    (at (xyz 0 0 0))
    (scale (xyz 1 1 1))
    (rotate (xyz 0 0 0))
  )
)
