(module D_5KP_P10.16mm_Horizontal (layer F.Cu) (tedit 60793E6C)
  (descr "Diode, 5KP series, Axial, Horizontal, pin pitch=10.16mm, , length*diameter=7.62*9.53mm^2, , http://www.diodes.com/_files/packages/8686949.gif, Alternate KiCad Library")
  (tags "Diode 5KP series Axial Horizontal pin pitch 10.16mm  length 7.62mm diameter 9.53mm")
  (fp_text reference REF** (at 5.08 -5.885) (layer F.SilkS)
    (effects (font (size 1 1) (thickness 0.15)))
  )
  (fp_text value D_5KP_P10.16mm_Horizontal (at 5.08 5.885) (layer F.Fab)
    (effects (font (size 1 1) (thickness 0.15)))
  )
  (fp_line (start 2.667 -3.302) (end 2.667 3.302) (layer F.SilkS) (width 0.3))
  (fp_line (start 1.8 0) (end 2.794 0) (layer F.SilkS) (width 0.12))
  (fp_line (start 8.4 0) (end 7.6 0) (layer F.SilkS) (width 0.12))
  (fp_line (start 1.27 -4.765) (end 1.27 4.765) (layer F.Fab) (width 0.1))
  (fp_line (start 1.27 4.765) (end 8.89 4.765) (layer F.Fab) (width 0.1))
  (fp_line (start 8.89 4.765) (end 8.89 -4.765) (layer F.Fab) (width 0.1))
  (fp_line (start 8.89 -4.765) (end 1.27 -4.765) (layer F.Fab) (width 0.1))
  (fp_line (start 0 0) (end 1.27 0) (layer F.Fab) (width 0.1))
  (fp_line (start 10.16 0) (end 8.89 0) (layer F.Fab) (width 0.1))
  (fp_line (start 2.413 -4.765) (end 2.413 4.765) (layer F.Fab) (width 0.1))
  (fp_line (start 2.513 -4.765) (end 2.513 4.765) (layer F.Fab) (width 0.1))
  (fp_line (start 2.313 -4.765) (end 2.313 4.765) (layer F.Fab) (width 0.1))
  (fp_line (start 1.15 -1.64) (end 1.15 -4.885) (layer F.SilkS) (width 0.12))
  (fp_line (start 1.15 -4.885) (end 9.01 -4.885) (layer F.SilkS) (width 0.12))
  (fp_line (start 9.01 -4.885) (end 9.01 -1.64) (layer F.SilkS) (width 0.12))
  (fp_line (start 1.15 1.64) (end 1.15 4.885) (layer F.SilkS) (width 0.12))
  (fp_line (start 1.15 4.885) (end 9.01 4.885) (layer F.SilkS) (width 0.12))
  (fp_line (start 9.01 4.885) (end 9.01 1.64) (layer F.SilkS) (width 0.12))
  (fp_line (start -1.65 -5.02) (end -1.65 5.02) (layer F.CrtYd) (width 0.05))
  (fp_line (start -1.65 5.02) (end 11.81 5.02) (layer F.CrtYd) (width 0.05))
  (fp_line (start 11.81 5.02) (end 11.81 -5.02) (layer F.CrtYd) (width 0.05))
  (fp_line (start 11.81 -5.02) (end -1.65 -5.02) (layer F.CrtYd) (width 0.05))
  (fp_poly (pts (xy 7.62 3.302) (xy 2.667 0) (xy 7.62 -3.302)) (layer F.SilkS) (width 0.1))
  (fp_text user K (at 0 -2.4) (layer F.SilkS)
    (effects (font (size 1 1) (thickness 0.15)))
  )
  (fp_text user K (at 0 -2.4) (layer F.Fab)
    (effects (font (size 1 1) (thickness 0.15)))
  )
  (fp_text user %R (at 5.6515 0) (layer F.Fab)
    (effects (font (size 1 1) (thickness 0.15)))
  )
  (pad 2 thru_hole oval (at 10.16 0) (size 2.8 2.8) (drill 1.4) (layers *.Cu *.Mask))
  (pad 1 thru_hole rect (at 0 0) (size 2.8 2.8) (drill 1.4) (layers *.Cu *.Mask))
  (model ${KISYS3DMOD}/Diode_THT.3dshapes/D_5KP_P10.16mm_Horizontal.wrl
    (at (xyz 0 0 0))
    (scale (xyz 1 1 1))
    (rotate (xyz 0 0 0))
  )
)
