(module D_5KP_P7.62mm_Vertical_TVS (layer F.Cu) (tedit 60793E61)
  (descr "Diode, 5KP series, Axial, Vertical, pin pitch=7.62mm, , length*diameter=7.62*9.53mm^2, , http://www.diodes.com/_files/packages/8686949.gif, Alternate KiCad Library")
  (tags "Diode 5KP series Axial Vertical pin pitch 7.62mm  length 7.62mm diameter 9.53mm")
  (fp_text reference REF** (at 3.81 -5.885) (layer F.SilkS)
    (effects (font (size 1 1) (thickness 0.15)))
  )
  (fp_text value D_5KP_P7.62mm_Vertical_TVS (at 3.81 5.885) (layer F.Fab)
    (effects (font (size 1 1) (thickness 0.15)))
  )
  (fp_circle (center 0 0) (end 4.765 0) (layer F.Fab) (width 0.1))
  (fp_line (start 0 0) (end 7.62 0) (layer F.Fab) (width 0.1))
  (fp_line (start -5.02 -5.02) (end -5.02 5.02) (layer F.CrtYd) (width 0.05))
  (fp_line (start -5.02 5.02) (end 9.27 5.02) (layer F.CrtYd) (width 0.05))
  (fp_line (start 9.27 5.02) (end 9.27 -5.02) (layer F.CrtYd) (width 0.05))
  (fp_line (start 9.27 -5.02) (end -5.02 -5.02) (layer F.CrtYd) (width 0.05))
  (fp_poly (pts (xy 5.715 1.27) (xy 3.81 0) (xy 5.715 -1.27)) (layer F.SilkS) (width 0.1))
  (fp_poly (pts (xy 1.905 -1.27) (xy 3.81 0) (xy 1.905 1.27)) (layer F.SilkS) (width 0.1))
  (fp_line (start 1.651 0) (end 5.969 0) (layer F.SilkS) (width 0.12))
  (fp_line (start 3.4925 -1.27) (end 3.81 -1.27) (layer F.SilkS) (width 0.12))
  (fp_line (start 3.81 -1.27) (end 3.81 1.27) (layer F.SilkS) (width 0.12))
  (fp_line (start 3.81 1.27) (end 4.1275 1.27) (layer F.SilkS) (width 0.12))
  (fp_text user A (at 7.62 2.4) (layer F.Fab)
    (effects (font (size 1 1) (thickness 0.15)))
  )
  (fp_text user %R (at 0 -1.9) (layer F.Fab)
    (effects (font (size 1 1) (thickness 0.15)))
  )
  (fp_arc (start 0 0) (end 4.572 -1.650999) (angle -318.8942912) (layer F.SilkS) (width 0.12))
  (pad 2 thru_hole oval (at 7.62 0) (size 2.8 2.8) (drill 1.4) (layers *.Cu *.Mask))
  (pad 1 thru_hole rect (at 0 0) (size 2.8 2.8) (drill 1.4) (layers *.Cu *.Mask))
  (model ${KISYS3DMOD}/Diode_THT.3dshapes/D_5KP_P7.62mm_Vertical_AnodeUp.wrl
    (at (xyz 0 0 0))
    (scale (xyz 1 1 1))
    (rotate (xyz 0 0 0))
  )
)
