(module D_5KPW_P12.70mm_Horizontal_TVS (layer F.Cu) (tedit 60793DB7)
  (descr "Diode, 5KPW series, Axial, Horizontal, pin pitch=12.7mm, , length*diameter=9*8mm^2, , http://www.diodes.com/_files/packages/8686949.gif, Alternate KiCad Library")
  (tags "Diode 5KPW series Axial Horizontal pin pitch 12.7mm  length 9mm diameter 8mm")
  (fp_text reference REF** (at 6.35 -5.12) (layer F.SilkS)
    (effects (font (size 1 1) (thickness 0.15)))
  )
  (fp_text value D_5KPW_P12.70mm_Horizontal_TVS (at 6.35 5.12) (layer F.Fab)
    (effects (font (size 1 1) (thickness 0.15)))
  )
  (fp_line (start 6.985 2.54) (end 6.35 2.54) (layer F.SilkS) (width 0.3))
  (fp_line (start 6.35 -2.54) (end 5.715 -2.54) (layer F.SilkS) (width 0.3))
  (fp_line (start 6.35 2.54) (end 6.35 -2.54) (layer F.SilkS) (width 0.3))
  (fp_poly (pts (xy 6.35 0) (xy 9.779 -2.54) (xy 9.779 2.54)) (layer F.SilkS) (width 0.1))
  (fp_poly (pts (xy 6.35 0) (xy 2.921 2.54) (xy 2.921 -2.54)) (layer F.SilkS) (width 0.1))
  (fp_line (start 2.921 0) (end 2.032 0) (layer F.SilkS) (width 0.12))
  (fp_line (start 10.668 0) (end 9.779 0) (layer F.SilkS) (width 0.12))
  (fp_line (start 1.85 -4) (end 1.85 4) (layer F.Fab) (width 0.1))
  (fp_line (start 1.85 4) (end 10.85 4) (layer F.Fab) (width 0.1))
  (fp_line (start 10.85 4) (end 10.85 -4) (layer F.Fab) (width 0.1))
  (fp_line (start 10.85 -4) (end 1.85 -4) (layer F.Fab) (width 0.1))
  (fp_line (start 0 0) (end 1.85 0) (layer F.Fab) (width 0.1))
  (fp_line (start 12.7 0) (end 10.85 0) (layer F.Fab) (width 0.1))
  (fp_line (start 1.73 -1.84) (end 1.73 -4.12) (layer F.SilkS) (width 0.12))
  (fp_line (start 1.73 -4.12) (end 10.97 -4.12) (layer F.SilkS) (width 0.12))
  (fp_line (start 10.97 -4.12) (end 10.97 -1.84) (layer F.SilkS) (width 0.12))
  (fp_line (start 1.73 1.84) (end 1.73 4.12) (layer F.SilkS) (width 0.12))
  (fp_line (start 1.73 4.12) (end 10.97 4.12) (layer F.SilkS) (width 0.12))
  (fp_line (start 10.97 4.12) (end 10.97 1.84) (layer F.SilkS) (width 0.12))
  (fp_line (start -1.85 -4.25) (end -1.85 4.25) (layer F.CrtYd) (width 0.05))
  (fp_line (start -1.85 4.25) (end 14.55 4.25) (layer F.CrtYd) (width 0.05))
  (fp_line (start 14.55 4.25) (end 14.55 -4.25) (layer F.CrtYd) (width 0.05))
  (fp_line (start 14.55 -4.25) (end -1.85 -4.25) (layer F.CrtYd) (width 0.05))
  (fp_text user %R (at 7.025 0) (layer F.Fab)
    (effects (font (size 1 1) (thickness 0.15)))
  )
  (pad 2 thru_hole oval (at 12.7 0) (size 3.2 3.2) (drill 1.6) (layers *.Cu *.Mask))
  (pad 1 thru_hole rect (at 0 0) (size 3.2 3.2) (drill 1.6) (layers *.Cu *.Mask))
  (model ${KISYS3DMOD}/Diode_THT.3dshapes/D_5KPW_P12.70mm_Horizontal.wrl
    (at (xyz 0 0 0))
    (scale (xyz 1 1 1))
    (rotate (xyz 0 0 0))
  )
)
