(module D_A-405_P2.54mm_Vertical_KathodeUp (layer F.Cu) (tedit 60793F34)
  (descr "Diode, A-405 series, Axial, Vertical, pin pitch=2.54mm, , length*diameter=5.2*2.7mm^2, , http://www.diodes.com/_files/packages/A-405.pdf, Alternate KiCad Library")
  (tags "Diode A-405 series Axial Vertical pin pitch 2.54mm  length 5.2mm diameter 2.7mm")
  (fp_text reference REF** (at 1.27 -2.47) (layer F.SilkS)
    (effects (font (size 1 1) (thickness 0.15)))
  )
  (fp_text value D_A-405_P2.54mm_Vertical_KathodeUp (at 1.27 3.359) (layer F.Fab)
    (effects (font (size 1 1) (thickness 0.15)))
  )
  (fp_line (start 1.0795 -0.381) (end 1.0795 0.381) (layer F.SilkS) (width 0.12))
  (fp_poly (pts (xy 1.4605 0.381) (xy 1.0795 0) (xy 1.4605 -0.381)) (layer F.SilkS) (width 0.1))
  (fp_circle (center 2.54 0) (end 3.89 0) (layer F.Fab) (width 0.1))
  (fp_line (start 0 0) (end 2.54 0) (layer F.Fab) (width 0.1))
  (fp_line (start -1.15 -1.6) (end -1.15 1.6) (layer F.CrtYd) (width 0.05))
  (fp_line (start -1.15 1.6) (end 4.15 1.6) (layer F.CrtYd) (width 0.05))
  (fp_line (start 4.15 1.6) (end 4.15 -1.6) (layer F.CrtYd) (width 0.05))
  (fp_line (start 4.15 -1.6) (end -1.15 -1.6) (layer F.CrtYd) (width 0.05))
  (fp_text user K (at -1.9 0) (layer F.SilkS)
    (effects (font (size 1 1) (thickness 0.15)))
  )
  (fp_text user K (at -1.9 0) (layer F.Fab)
    (effects (font (size 1 1) (thickness 0.15)))
  )
  (fp_text user %R (at 1.27 -2.47) (layer F.Fab)
    (effects (font (size 1 1) (thickness 0.15)))
  )
  (fp_arc (start 2.54 0) (end 1.426761 -0.9) (angle 278.451986) (layer F.SilkS) (width 0.12))
  (pad 2 thru_hole oval (at 2.54 0) (size 1.8 1.8) (drill 0.9) (layers *.Cu *.Mask))
  (pad 1 thru_hole rect (at 0 0) (size 1.8 1.8) (drill 0.9) (layers *.Cu *.Mask))
  (model ${KISYS3DMOD}/Diode_THT.3dshapes/D_A-405_P2.54mm_Vertical_KathodeUp.wrl
    (at (xyz 0 0 0))
    (scale (xyz 1 1 1))
    (rotate (xyz 0 0 0))
  )
)
