(module D_DO-201AD_P12.70mm_Horizontal_TVS (layer F.Cu) (tedit 607944D0)
  (descr "Diode, DO-201AD series, Axial, Horizontal, pin pitch=12.7mm, , length*diameter=9.5*5.2mm^2, , http://www.diodes.com/_files/packages/DO-201AD.pdf, Alternate KiCad Library")
  (tags "Diode DO-201AD series Axial Horizontal pin pitch 12.7mm  length 9.5mm diameter 5.2mm")
  (fp_text reference REF** (at 6.35 -3.72) (layer F.SilkS)
    (effects (font (size 1 1) (thickness 0.15)))
  )
  (fp_text value D_DO-201AD_P12.70mm_Horizontal_TVS (at 6.35 3.72) (layer F.Fab)
    (effects (font (size 1 1) (thickness 0.15)))
  )
  (fp_line (start 6.985 2.286) (end 6.35 2.286) (layer F.SilkS) (width 0.3))
  (fp_line (start 6.35 -2.286) (end 5.715 -2.286) (layer F.SilkS) (width 0.3))
  (fp_line (start 1.6 -2.6) (end 1.6 2.6) (layer F.Fab) (width 0.1))
  (fp_line (start 1.6 2.6) (end 11.1 2.6) (layer F.Fab) (width 0.1))
  (fp_line (start 11.1 2.6) (end 11.1 -2.6) (layer F.Fab) (width 0.1))
  (fp_line (start 11.1 -2.6) (end 1.6 -2.6) (layer F.Fab) (width 0.1))
  (fp_line (start 0 0) (end 1.6 0) (layer F.Fab) (width 0.1))
  (fp_line (start 12.7 0) (end 11.1 0) (layer F.Fab) (width 0.1))
  (fp_line (start 1.48 -1.84) (end 1.48 -2.72) (layer F.SilkS) (width 0.12))
  (fp_line (start 1.48 -2.72) (end 11.22 -2.72) (layer F.SilkS) (width 0.12))
  (fp_line (start 11.22 -2.72) (end 11.22 -1.84) (layer F.SilkS) (width 0.12))
  (fp_line (start 1.48 1.84) (end 1.48 2.72) (layer F.SilkS) (width 0.12))
  (fp_line (start 1.48 2.72) (end 11.22 2.72) (layer F.SilkS) (width 0.12))
  (fp_line (start 11.22 2.72) (end 11.22 1.84) (layer F.SilkS) (width 0.12))
  (fp_line (start -1.85 -2.85) (end -1.85 2.85) (layer F.CrtYd) (width 0.05))
  (fp_line (start -1.85 2.85) (end 14.55 2.85) (layer F.CrtYd) (width 0.05))
  (fp_line (start 14.55 2.85) (end 14.55 -2.85) (layer F.CrtYd) (width 0.05))
  (fp_line (start 14.55 -2.85) (end -1.85 -2.85) (layer F.CrtYd) (width 0.05))
  (fp_line (start 2.032 0) (end 2.921 0) (layer F.SilkS) (width 0.12))
  (fp_line (start 9.779 0) (end 10.668 0) (layer F.SilkS) (width 0.12))
  (fp_poly (pts (xy 6.35 0) (xy 2.921 2.286) (xy 2.921 -2.286)) (layer F.SilkS) (width 0.1))
  (fp_poly (pts (xy 6.35 0) (xy 9.779 -2.286) (xy 9.779 2.286)) (layer F.SilkS) (width 0.1))
  (fp_line (start 6.35 2.286) (end 6.35 -2.286) (layer F.SilkS) (width 0.3))
  (fp_text user %R (at 7.0625 0) (layer F.Fab)
    (effects (font (size 1 1) (thickness 0.15)))
  )
  (pad 2 thru_hole oval (at 12.7 0) (size 3.2 3.2) (drill 1.6) (layers *.Cu *.Mask))
  (pad 1 thru_hole rect (at 0 0) (size 3.2 3.2) (drill 1.6) (layers *.Cu *.Mask))
  (model ${KISYS3DMOD}/Diode_THT.3dshapes/D_DO-201AD_P12.70mm_Horizontal.wrl
    (at (xyz 0 0 0))
    (scale (xyz 1 1 1))
    (rotate (xyz 0 0 0))
  )
)
