(module D_DO-201AE_P5.08mm_Vertical_KathodeUp_Zener (layer F.Cu) (tedit 6079455D)
  (descr "Diode, DO-201AE series, Axial, Vertical, pin pitch=5.08mm, , length*diameter=9*5.3mm^2, , http://www.farnell.com/datasheets/529758.pdf, Alternate KiCad Library")
  (tags "Diode DO-201AE series Axial Vertical pin pitch 5.08mm  length 9mm diameter 5.3mm")
  (fp_text reference REF** (at 2.54 -3.77) (layer F.SilkS)
    (effects (font (size 1 1) (thickness 0.15)))
  )
  (fp_text value D_DO-201AE_P5.08mm_Vertical_KathodeUp_Zener (at 2.54 3.77) (layer F.Fab)
    (effects (font (size 1 1) (thickness 0.15)))
  )
  (fp_line (start 1.778 -1.016) (end 2.032 -1.016) (layer F.SilkS) (width 0.12))
  (fp_line (start 7.99 -2.9) (end -1.55 -2.9) (layer F.CrtYd) (width 0.05))
  (fp_line (start 7.99 2.9) (end 7.99 -2.9) (layer F.CrtYd) (width 0.05))
  (fp_line (start -1.55 2.9) (end 7.99 2.9) (layer F.CrtYd) (width 0.05))
  (fp_line (start -1.55 -2.9) (end -1.55 2.9) (layer F.CrtYd) (width 0.05))
  (fp_line (start 0 0) (end 5.08 0) (layer F.Fab) (width 0.1))
  (fp_circle (center 5.08 0) (end 7.73 0) (layer F.Fab) (width 0.1))
  (fp_line (start 1.778 1.016) (end 1.778 -1.016) (layer F.SilkS) (width 0.12))
  (fp_line (start 1.524 0) (end 3.556 0) (layer F.SilkS) (width 0.12))
  (fp_poly (pts (xy 3.302 1.016) (xy 1.778 0) (xy 3.302 -1.016)) (layer F.SilkS) (width 0.1))
  (fp_text user K (at 0 2.3) (layer F.SilkS)
    (effects (font (size 1 1) (thickness 0.15)))
  )
  (fp_text user K (at 0 2.3) (layer F.Fab)
    (effects (font (size 1 1) (thickness 0.15)))
  )
  (fp_text user %R (at 2.54 -3.77) (layer F.Fab)
    (effects (font (size 1 1) (thickness 0.15)))
  )
  (fp_arc (start 5.079999 0.000001) (end 2.54 1.27) (angle -306.8698976) (layer F.SilkS) (width 0.12))
  (pad 2 thru_hole oval (at 5.08 0) (size 2.6 2.6) (drill 1.3) (layers *.Cu *.Mask))
  (pad 1 thru_hole rect (at 0 0) (size 2.6 2.6) (drill 1.3) (layers *.Cu *.Mask))
  (model ${KISYS3DMOD}/Diode_THT.3dshapes/D_DO-201AE_P5.08mm_Vertical_KathodeUp.wrl
    (at (xyz 0 0 0))
    (scale (xyz 1 1 1))
    (rotate (xyz 0 0 0))
  )
)
