(module D_DO-34_SOD68_P5.08mm_Vertical_KathodeUp_Zener (layer F.Cu) (tedit 60794245)
  (descr "Diode, DO-34_SOD68 series, Axial, Vertical, pin pitch=5.08mm, , length*diameter=3.04*1.6mm^2, , https://www.nxp.com/docs/en/data-sheet/KTY83_SER.pdf, Alternate KiCad Library")
  (tags "Diode DO-34_SOD68 series Axial Vertical pin pitch 5.08mm  length 3.04mm diameter 1.6mm")
  (fp_text reference REF** (at 2.54 -2.25566) (layer F.SilkS)
    (effects (font (size 1 1) (thickness 0.15)))
  )
  (fp_text value D_DO-34_SOD68_P5.08mm_Vertical_KathodeUp_Zener (at 2.54 2.25566) (layer F.Fab)
    (effects (font (size 1 1) (thickness 0.15)))
  )
  (fp_line (start 1.651 -0.889) (end 1.905 -0.889) (layer F.SilkS) (width 0.12))
  (fp_line (start 6.13 -1.05) (end -1 -1.05) (layer F.CrtYd) (width 0.05))
  (fp_line (start 6.13 1.05) (end 6.13 -1.05) (layer F.CrtYd) (width 0.05))
  (fp_line (start -1 1.05) (end 6.13 1.05) (layer F.CrtYd) (width 0.05))
  (fp_line (start -1 -1.05) (end -1 1.05) (layer F.CrtYd) (width 0.05))
  (fp_line (start 0 0) (end 5.08 0) (layer F.Fab) (width 0.1))
  (fp_circle (center 5.08 0) (end 5.88 0) (layer F.Fab) (width 0.1))
  (fp_poly (pts (xy 3.429 0.889) (xy 1.651 0) (xy 3.429 -0.889)) (layer F.SilkS) (width 0.1))
  (fp_line (start 1.651 0.889) (end 1.651 -0.889) (layer F.SilkS) (width 0.12))
  (fp_line (start 4.064 0) (end 1.016 0) (layer F.SilkS) (width 0.12))
  (fp_text user K (at 0 1.524) (layer F.SilkS)
    (effects (font (size 1 1) (thickness 0.15)))
  )
  (fp_text user K (at 1.45 0.75) (layer F.Fab)
    (effects (font (size 1 1) (thickness 0.15)))
  )
  (fp_text user %R (at 2.54 -2.25566) (layer F.Fab)
    (effects (font (size 1 1) (thickness 0.15)))
  )
  (fp_arc (start 5.079999 0.000001) (end 3.937 0.635) (angle -301.8907918) (layer F.SilkS) (width 0.12))
  (pad 2 thru_hole oval (at 5.08 0) (size 1.5 1.5) (drill 0.75) (layers *.Cu *.Mask))
  (pad 1 thru_hole rect (at 0 0) (size 1.5 1.5) (drill 0.75) (layers *.Cu *.Mask))
  (model ${KISYS3DMOD}/Diode_THT.3dshapes/D_DO-34_SOD68_P5.08mm_Vertical_KathodeUp.wrl
    (at (xyz 0 0 0))
    (scale (xyz 1 1 1))
    (rotate (xyz 0 0 0))
  )
)
