(module D_DO-201AE_P12.70mm_Horizontal_TVS (layer F.Cu) (tedit 6079456E)
  (descr "Diode, DO-201AE series, Axial, Horizontal, pin pitch=12.7mm, , length*diameter=9*5.3mm^2, , http://www.farnell.com/datasheets/529758.pdf, Alternate KiCad Library")
  (tags "Diode DO-201AE series Axial Horizontal pin pitch 12.7mm  length 9mm diameter 5.3mm")
  (fp_text reference REF** (at 6.35 -3.77) (layer F.SilkS)
    (effects (font (size 1 1) (thickness 0.15)))
  )
  (fp_text value D_DO-201AE_P12.70mm_Horizontal_TVS (at 6.35 3.77) (layer F.Fab)
    (effects (font (size 1 1) (thickness 0.15)))
  )
  (fp_line (start 6.35 2.286) (end 6.35 -2.286) (layer F.SilkS) (width 0.3))
  (fp_poly (pts (xy 6.35 0) (xy 9.779 -2.286) (xy 9.779 2.286)) (layer F.SilkS) (width 0.1))
  (fp_poly (pts (xy 6.35 0) (xy 2.921 2.286) (xy 2.921 -2.286)) (layer F.SilkS) (width 0.1))
  (fp_line (start 9.779 0) (end 10.97 0) (layer F.SilkS) (width 0.12))
  (fp_line (start 1.73 0) (end 2.921 0) (layer F.SilkS) (width 0.12))
  (fp_line (start 14.25 -2.9) (end -1.55 -2.9) (layer F.CrtYd) (width 0.05))
  (fp_line (start 14.25 2.9) (end 14.25 -2.9) (layer F.CrtYd) (width 0.05))
  (fp_line (start -1.55 2.9) (end 14.25 2.9) (layer F.CrtYd) (width 0.05))
  (fp_line (start -1.55 -2.9) (end -1.55 2.9) (layer F.CrtYd) (width 0.05))
  (fp_line (start 11.16 0) (end 10.97 0) (layer F.SilkS) (width 0.12))
  (fp_line (start 1.54 0) (end 1.73 0) (layer F.SilkS) (width 0.12))
  (fp_line (start 10.97 -2.77) (end 1.73 -2.77) (layer F.SilkS) (width 0.12))
  (fp_line (start 10.97 2.77) (end 10.97 -2.77) (layer F.SilkS) (width 0.12))
  (fp_line (start 1.73 2.77) (end 10.97 2.77) (layer F.SilkS) (width 0.12))
  (fp_line (start 1.73 -2.77) (end 1.73 2.77) (layer F.SilkS) (width 0.12))
  (fp_line (start 12.7 0) (end 10.85 0) (layer F.Fab) (width 0.1))
  (fp_line (start 0 0) (end 1.85 0) (layer F.Fab) (width 0.1))
  (fp_line (start 10.85 -2.65) (end 1.85 -2.65) (layer F.Fab) (width 0.1))
  (fp_line (start 10.85 2.65) (end 10.85 -2.65) (layer F.Fab) (width 0.1))
  (fp_line (start 1.85 2.65) (end 10.85 2.65) (layer F.Fab) (width 0.1))
  (fp_line (start 1.85 -2.65) (end 1.85 2.65) (layer F.Fab) (width 0.1))
  (fp_line (start 6.35 -2.286) (end 5.715 -2.286) (layer F.SilkS) (width 0.3))
  (fp_line (start 6.985 2.286) (end 6.35 2.286) (layer F.SilkS) (width 0.3))
  (fp_text user %R (at 7.025 0) (layer F.Fab)
    (effects (font (size 1 1) (thickness 0.15)))
  )
  (pad 2 thru_hole oval (at 12.7 0) (size 2.6 2.6) (drill 1.3) (layers *.Cu *.Mask))
  (pad 1 thru_hole rect (at 0 0) (size 2.6 2.6) (drill 1.3) (layers *.Cu *.Mask))
  (model ${KISYS3DMOD}/Diode_THT.3dshapes/D_DO-201AE_P12.70mm_Horizontal.wrl
    (at (xyz 0 0 0))
    (scale (xyz 1 1 1))
    (rotate (xyz 0 0 0))
  )
)
