(module D_DO-41_SOD81_P12.70mm_Horizontal_Zener (layer F.Cu) (tedit 60794420)
  (descr "Diode, DO-41_SOD81 series, Axial, Horizontal, pin pitch=12.7mm, , length*diameter=5.2*2.7mm^2, , http://www.diodes.com/_files/packages/DO-41%20(Plastic).pdf, Alternate KiCad Library")
  (tags "Diode DO-41_SOD81 series Axial Horizontal pin pitch 12.7mm  length 5.2mm diameter 2.7mm")
  (fp_text reference REF** (at 6.35 -2.47) (layer F.SilkS)
    (effects (font (size 1 1) (thickness 0.15)))
  )
  (fp_text value D_DO-41_SOD81_P12.70mm_Horizontal_Zener (at 6.35 2.47) (layer F.Fab)
    (effects (font (size 1 1) (thickness 0.15)))
  )
  (fp_line (start 5.334 -1.143) (end 5.715 -1.143) (layer F.SilkS) (width 0.2))
  (fp_line (start 14.05 -1.6) (end -1.35 -1.6) (layer F.CrtYd) (width 0.05))
  (fp_line (start 14.05 1.6) (end 14.05 -1.6) (layer F.CrtYd) (width 0.05))
  (fp_line (start -1.35 1.6) (end 14.05 1.6) (layer F.CrtYd) (width 0.05))
  (fp_line (start -1.35 -1.6) (end -1.35 1.6) (layer F.CrtYd) (width 0.05))
  (fp_line (start 11.36 0) (end 9.07 0) (layer F.SilkS) (width 0.12))
  (fp_line (start 1.34 0) (end 3.63 0) (layer F.SilkS) (width 0.12))
  (fp_line (start 9.07 -1.47) (end 3.63 -1.47) (layer F.SilkS) (width 0.12))
  (fp_line (start 9.07 1.47) (end 9.07 -1.47) (layer F.SilkS) (width 0.12))
  (fp_line (start 3.63 1.47) (end 9.07 1.47) (layer F.SilkS) (width 0.12))
  (fp_line (start 3.63 -1.47) (end 3.63 1.47) (layer F.SilkS) (width 0.12))
  (fp_line (start 4.43 -1.35) (end 4.43 1.35) (layer F.Fab) (width 0.1))
  (fp_line (start 4.63 -1.35) (end 4.63 1.35) (layer F.Fab) (width 0.1))
  (fp_line (start 4.53 -1.35) (end 4.53 1.35) (layer F.Fab) (width 0.1))
  (fp_line (start 12.7 0) (end 8.95 0) (layer F.Fab) (width 0.1))
  (fp_line (start 0 0) (end 3.75 0) (layer F.Fab) (width 0.1))
  (fp_line (start 8.95 -1.35) (end 3.75 -1.35) (layer F.Fab) (width 0.1))
  (fp_line (start 8.95 1.35) (end 8.95 -1.35) (layer F.Fab) (width 0.1))
  (fp_line (start 3.75 1.35) (end 8.95 1.35) (layer F.Fab) (width 0.1))
  (fp_line (start 3.75 -1.35) (end 3.75 1.35) (layer F.Fab) (width 0.1))
  (fp_line (start 5.334 0) (end 3.63 0) (layer F.SilkS) (width 0.12))
  (fp_line (start 7.493 0) (end 9.07 0) (layer F.SilkS) (width 0.12))
  (fp_poly (pts (xy 7.493 1.143) (xy 5.334 0) (xy 7.493 -1.143)) (layer F.SilkS) (width 0.1))
  (fp_line (start 5.334 -1.143) (end 5.334 1.143) (layer F.SilkS) (width 0.2))
  (fp_text user K (at 0 -2.1) (layer F.SilkS)
    (effects (font (size 1 1) (thickness 0.15)))
  )
  (fp_text user K (at 0 -2.1) (layer F.Fab)
    (effects (font (size 1 1) (thickness 0.15)))
  )
  (fp_text user %R (at 6.74 0) (layer F.Fab)
    (effects (font (size 1 1) (thickness 0.15)))
  )
  (pad 2 thru_hole oval (at 12.7 0) (size 2.2 2.2) (drill 1.1) (layers *.Cu *.Mask))
  (pad 1 thru_hole rect (at 0 0) (size 2.2 2.2) (drill 1.1) (layers *.Cu *.Mask))
  (model ${KISYS3DMOD}/Diode_THT.3dshapes/D_DO-41_SOD81_P12.70mm_Horizontal.wrl
    (at (xyz 0 0 0))
    (scale (xyz 1 1 1))
    (rotate (xyz 0 0 0))
  )
)
