(module D_DO-201_P15.24mm_Horizontal_TVS (layer F.Cu) (tedit 60794660)
  (descr "Diode, DO-201 series, Axial, Horizontal, pin pitch=15.24mm, , length*diameter=9.53*5.21mm^2, , http://www.diodes.com/_files/packages/DO-201.pdf, Alternate KiCad Library")
  (tags "Diode DO-201 series Axial Horizontal pin pitch 15.24mm  length 9.53mm diameter 5.21mm")
  (fp_text reference REF** (at 7.62 -3.725) (layer F.SilkS)
    (effects (font (size 1 1) (thickness 0.15)))
  )
  (fp_text value D_DO-201_P15.24mm_Horizontal_TVS (at 7.62 3.725) (layer F.Fab)
    (effects (font (size 1 1) (thickness 0.15)))
  )
  (fp_line (start 7.62 2.286) (end 7.62 -2.286) (layer F.SilkS) (width 0.3))
  (fp_poly (pts (xy 7.62 0) (xy 11.049 -2.286) (xy 11.049 2.286)) (layer F.SilkS) (width 0.1))
  (fp_poly (pts (xy 7.62 0) (xy 4.191 2.286) (xy 4.191 -2.286)) (layer F.SilkS) (width 0.1))
  (fp_line (start 11.049 0) (end 12.505 0) (layer F.SilkS) (width 0.12))
  (fp_line (start 2.735 0) (end 4.191 0) (layer F.SilkS) (width 0.12))
  (fp_line (start 16.79 -2.86) (end -1.55 -2.86) (layer F.CrtYd) (width 0.05))
  (fp_line (start 16.79 2.86) (end 16.79 -2.86) (layer F.CrtYd) (width 0.05))
  (fp_line (start -1.55 2.86) (end 16.79 2.86) (layer F.CrtYd) (width 0.05))
  (fp_line (start -1.55 -2.86) (end -1.55 2.86) (layer F.CrtYd) (width 0.05))
  (fp_line (start 13.7 0) (end 12.505 0) (layer F.SilkS) (width 0.12))
  (fp_line (start 1.54 0) (end 2.735 0) (layer F.SilkS) (width 0.12))
  (fp_line (start 12.505 -2.725) (end 2.735 -2.725) (layer F.SilkS) (width 0.12))
  (fp_line (start 12.505 2.725) (end 12.505 -2.725) (layer F.SilkS) (width 0.12))
  (fp_line (start 2.735 2.725) (end 12.505 2.725) (layer F.SilkS) (width 0.12))
  (fp_line (start 2.735 -2.725) (end 2.735 2.725) (layer F.SilkS) (width 0.12))
  (fp_line (start 15.24 0) (end 12.385 0) (layer F.Fab) (width 0.1))
  (fp_line (start 0 0) (end 2.855 0) (layer F.Fab) (width 0.1))
  (fp_line (start 12.385 -2.605) (end 2.855 -2.605) (layer F.Fab) (width 0.1))
  (fp_line (start 12.385 2.605) (end 12.385 -2.605) (layer F.Fab) (width 0.1))
  (fp_line (start 2.855 2.605) (end 12.385 2.605) (layer F.Fab) (width 0.1))
  (fp_line (start 2.855 -2.605) (end 2.855 2.605) (layer F.Fab) (width 0.1))
  (fp_line (start 7.62 -2.286) (end 7.112 -2.286) (layer F.SilkS) (width 0.3))
  (fp_line (start 8.128 2.286) (end 7.62 2.286) (layer F.SilkS) (width 0.3))
  (fp_text user %R (at 8.33475 0) (layer F.Fab)
    (effects (font (size 1 1) (thickness 0.15)))
  )
  (pad 2 thru_hole oval (at 15.24 0) (size 2.6 2.6) (drill 1.3) (layers *.Cu *.Mask))
  (pad 1 thru_hole rect (at 0 0) (size 2.6 2.6) (drill 1.3) (layers *.Cu *.Mask))
  (model ${KISYS3DMOD}/Diode_THT.3dshapes/D_DO-201_P15.24mm_Horizontal.wrl
    (at (xyz 0 0 0))
    (scale (xyz 1 1 1))
    (rotate (xyz 0 0 0))
  )
)
