(module D_DO-34_SOD68_P7.62mm_Horizontal_Zener (layer F.Cu) (tedit 60794271)
  (descr "Diode, DO-34_SOD68 series, Axial, Horizontal, pin pitch=7.62mm, , length*diameter=3.04*1.6mm^2, , https://www.nxp.com/docs/en/data-sheet/KTY83_SER.pdf, Alternate KiCad Library")
  (tags "Diode DO-34_SOD68 series Axial Horizontal pin pitch 7.62mm  length 3.04mm diameter 1.6mm")
  (fp_text reference REF** (at 3.81 -1.92) (layer F.SilkS)
    (effects (font (size 1 1) (thickness 0.15)))
  )
  (fp_text value D_DO-34_SOD68_P7.62mm_Horizontal_Zener (at 3.81 1.92) (layer F.Fab)
    (effects (font (size 1 1) (thickness 0.15)))
  )
  (fp_line (start 3.175 -0.762) (end 3.429 -0.762) (layer F.SilkS) (width 0.12))
  (fp_line (start 8.63 -1.05) (end -1 -1.05) (layer F.CrtYd) (width 0.05))
  (fp_line (start 8.63 1.05) (end 8.63 -1.05) (layer F.CrtYd) (width 0.05))
  (fp_line (start -1 1.05) (end 8.63 1.05) (layer F.CrtYd) (width 0.05))
  (fp_line (start -1 -1.05) (end -1 1.05) (layer F.CrtYd) (width 0.05))
  (fp_line (start 6.63 0) (end 5.45 0) (layer F.SilkS) (width 0.12))
  (fp_line (start 0.99 0) (end 2.17 0) (layer F.SilkS) (width 0.12))
  (fp_line (start 5.45 -0.92) (end 2.17 -0.92) (layer F.SilkS) (width 0.12))
  (fp_line (start 5.45 0.92) (end 5.45 -0.92) (layer F.SilkS) (width 0.12))
  (fp_line (start 2.17 0.92) (end 5.45 0.92) (layer F.SilkS) (width 0.12))
  (fp_line (start 2.17 -0.92) (end 2.17 0.92) (layer F.SilkS) (width 0.12))
  (fp_line (start 2.646 -0.8) (end 2.646 0.8) (layer F.Fab) (width 0.1))
  (fp_line (start 2.846 -0.8) (end 2.846 0.8) (layer F.Fab) (width 0.1))
  (fp_line (start 2.746 -0.8) (end 2.746 0.8) (layer F.Fab) (width 0.1))
  (fp_line (start 7.62 0) (end 5.33 0) (layer F.Fab) (width 0.1))
  (fp_line (start 0 0) (end 2.29 0) (layer F.Fab) (width 0.1))
  (fp_line (start 5.33 -0.8) (end 2.29 -0.8) (layer F.Fab) (width 0.1))
  (fp_line (start 5.33 0.8) (end 5.33 -0.8) (layer F.Fab) (width 0.1))
  (fp_line (start 2.29 0.8) (end 5.33 0.8) (layer F.Fab) (width 0.1))
  (fp_line (start 2.29 -0.8) (end 2.29 0.8) (layer F.Fab) (width 0.1))
  (fp_line (start 3.2 0) (end 2.17 0) (layer F.SilkS) (width 0.12))
  (fp_line (start 4.445 0) (end 5.45 0) (layer F.SilkS) (width 0.12))
  (fp_poly (pts (xy 4.445 0.762) (xy 3.175 0) (xy 4.445 -0.762)) (layer F.SilkS) (width 0.1))
  (fp_line (start 3.175 -0.762) (end 3.175 0.762) (layer F.SilkS) (width 0.12))
  (fp_text user K (at 0 -1.75) (layer F.SilkS)
    (effects (font (size 1 1) (thickness 0.15)))
  )
  (fp_text user K (at 0 -1.75) (layer F.Fab)
    (effects (font (size 1 1) (thickness 0.15)))
  )
  (fp_text user %R (at 4.038 0) (layer F.Fab)
    (effects (font (size 0.608 0.608) (thickness 0.0912)))
  )
  (pad 2 thru_hole oval (at 7.62 0) (size 1.5 1.5) (drill 0.75) (layers *.Cu *.Mask))
  (pad 1 thru_hole rect (at 0 0) (size 1.5 1.5) (drill 0.75) (layers *.Cu *.Mask))
  (model ${KISYS3DMOD}/Diode_THT.3dshapes/D_DO-34_SOD68_P7.62mm_Horizontal.wrl
    (at (xyz 0 0 0))
    (scale (xyz 1 1 1))
    (rotate (xyz 0 0 0))
  )
)
