(module D_DO-201_P3.81mm_Vertical_TVS (layer F.Cu) (tedit 607945FF)
  (descr "Diode, DO-201 series, Axial, Vertical, pin pitch=3.81mm, , length*diameter=9.53*5.21mm^2, , http://www.diodes.com/_files/packages/DO-201.pdf, Alternate KiCad Library")
  (tags "Diode DO-201 series Axial Vertical pin pitch 3.81mm  length 9.53mm diameter 5.21mm")
  (fp_text reference REF** (at 1.905 -3.725) (layer F.SilkS)
    (effects (font (size 1 1) (thickness 0.15)))
  )
  (fp_text value D_DO-201_P3.81mm_Vertical_TVS (at 1.905 5.0585) (layer F.Fab)
    (effects (font (size 1 1) (thickness 0.15)))
  )
  (fp_circle (center 0 0) (end 2.605 0) (layer F.Fab) (width 0.1))
  (fp_line (start 0 0) (end 3.81 0) (layer F.Fab) (width 0.1))
  (fp_line (start -2.86 -2.86) (end -2.86 2.86) (layer F.CrtYd) (width 0.05))
  (fp_line (start -2.86 2.86) (end 5.36 2.86) (layer F.CrtYd) (width 0.05))
  (fp_line (start 5.36 2.86) (end 5.36 -2.86) (layer F.CrtYd) (width 0.05))
  (fp_line (start 5.36 -2.86) (end -2.86 -2.86) (layer F.CrtYd) (width 0.05))
  (fp_poly (pts (xy 2.286 0.508) (xy 1.905 0) (xy 2.286 -0.508)) (layer F.SilkS) (width 0.1))
  (fp_poly (pts (xy 1.524 -0.508) (xy 1.905 0) (xy 1.524 0.508)) (layer F.SilkS) (width 0.1))
  (fp_line (start 1.778 -0.508) (end 1.905 -0.508) (layer F.SilkS) (width 0.12))
  (fp_line (start 1.905 -0.508) (end 1.905 0.508) (layer F.SilkS) (width 0.12))
  (fp_line (start 1.905 0.508) (end 2.032 0.508) (layer F.SilkS) (width 0.12))
  (fp_text user A (at 3.81 2.3) (layer F.Fab)
    (effects (font (size 1 1) (thickness 0.15)))
  )
  (fp_text user %R (at 1.905 -3.725) (layer F.Fab)
    (effects (font (size 1 1) (thickness 0.15)))
  )
  (fp_arc (start 0 0) (end 2.361361 -1.3) (angle -300.11959) (layer F.SilkS) (width 0.12))
  (pad 2 thru_hole oval (at 3.81 0) (size 2.6 2.6) (drill 1.3) (layers *.Cu *.Mask))
  (pad 1 thru_hole rect (at 0 0) (size 2.6 2.6) (drill 1.3) (layers *.Cu *.Mask))
  (model ${KISYS3DMOD}/Diode_THT.3dshapes/D_DO-201_P3.81mm_Vertical_AnodeUp.wrl
    (at (xyz 0 0 0))
    (scale (xyz 1 1 1))
    (rotate (xyz 0 0 0))
  )
)
