(module D_DO-201AD_P15.24mm_Horizontal (layer F.Cu) (tedit 607944DB)
  (descr "Diode, DO-201AD series, Axial, Horizontal, pin pitch=15.24mm, , length*diameter=9.5*5.2mm^2, , http://www.diodes.com/_files/packages/DO-201AD.pdf, Alternate KiCad Library")
  (tags "Diode DO-201AD series Axial Horizontal pin pitch 15.24mm  length 9.5mm diameter 5.2mm")
  (fp_text reference REF** (at 7.62 -3.72) (layer F.SilkS)
    (effects (font (size 1 1) (thickness 0.15)))
  )
  (fp_text value D_DO-201AD_P15.24mm_Horizontal (at 7.62 3.72) (layer F.Fab)
    (effects (font (size 1 1) (thickness 0.15)))
  )
  (fp_line (start 5.842 -2.413) (end 5.842 2.413) (layer F.SilkS) (width 0.3))
  (fp_poly (pts (xy 9.525 2.413) (xy 5.842 0) (xy 9.525 -2.413)) (layer F.SilkS) (width 0.1))
  (fp_line (start 9.525 0) (end 12.49 0) (layer F.SilkS) (width 0.12))
  (fp_line (start 5.715 0) (end 2.75 0) (layer F.SilkS) (width 0.12))
  (fp_line (start 2.87 -2.6) (end 2.87 2.6) (layer F.Fab) (width 0.1))
  (fp_line (start 2.87 2.6) (end 12.37 2.6) (layer F.Fab) (width 0.1))
  (fp_line (start 12.37 2.6) (end 12.37 -2.6) (layer F.Fab) (width 0.1))
  (fp_line (start 12.37 -2.6) (end 2.87 -2.6) (layer F.Fab) (width 0.1))
  (fp_line (start 0 0) (end 2.87 0) (layer F.Fab) (width 0.1))
  (fp_line (start 15.24 0) (end 12.37 0) (layer F.Fab) (width 0.1))
  (fp_line (start 4.295 -2.6) (end 4.295 2.6) (layer F.Fab) (width 0.1))
  (fp_line (start 4.395 -2.6) (end 4.395 2.6) (layer F.Fab) (width 0.1))
  (fp_line (start 4.195 -2.6) (end 4.195 2.6) (layer F.Fab) (width 0.1))
  (fp_line (start 2.75 -2.72) (end 2.75 2.72) (layer F.SilkS) (width 0.12))
  (fp_line (start 2.75 2.72) (end 12.49 2.72) (layer F.SilkS) (width 0.12))
  (fp_line (start 12.49 2.72) (end 12.49 -2.72) (layer F.SilkS) (width 0.12))
  (fp_line (start 12.49 -2.72) (end 2.75 -2.72) (layer F.SilkS) (width 0.12))
  (fp_line (start 1.84 0) (end 2.75 0) (layer F.SilkS) (width 0.12))
  (fp_line (start 13.4 0) (end 12.49 0) (layer F.SilkS) (width 0.12))
  (fp_line (start -1.85 -2.85) (end -1.85 2.85) (layer F.CrtYd) (width 0.05))
  (fp_line (start -1.85 2.85) (end 17.09 2.85) (layer F.CrtYd) (width 0.05))
  (fp_line (start 17.09 2.85) (end 17.09 -2.85) (layer F.CrtYd) (width 0.05))
  (fp_line (start 17.09 -2.85) (end -1.85 -2.85) (layer F.CrtYd) (width 0.05))
  (fp_text user K (at 0 -2.6) (layer F.SilkS)
    (effects (font (size 1 1) (thickness 0.15)))
  )
  (fp_text user K (at 0 -2.6) (layer F.Fab)
    (effects (font (size 1 1) (thickness 0.15)))
  )
  (fp_text user %R (at 8.3325 0) (layer F.Fab)
    (effects (font (size 1 1) (thickness 0.15)))
  )
  (pad 2 thru_hole oval (at 15.24 0) (size 3.2 3.2) (drill 1.6) (layers *.Cu *.Mask))
  (pad 1 thru_hole rect (at 0 0) (size 3.2 3.2) (drill 1.6) (layers *.Cu *.Mask))
  (model ${KISYS3DMOD}/Diode_THT.3dshapes/D_DO-201AD_P15.24mm_Horizontal.wrl
    (at (xyz 0 0 0))
    (scale (xyz 1 1 1))
    (rotate (xyz 0 0 0))
  )
)
