(module D_DO-35_SOD27_P12.70mm_Horizontal (layer F.Cu) (tedit 60794325)
  (descr "Diode, DO-35_SOD27 series, Axial, Horizontal, pin pitch=12.7mm, , length*diameter=4*2mm^2, , http://www.diodes.com/_files/packages/DO-35.pdf, Alternate KiCad Library")
  (tags "Diode DO-35_SOD27 series Axial Horizontal pin pitch 12.7mm  length 4mm diameter 2mm")
  (fp_text reference REF** (at 6.35 -2.12) (layer F.SilkS)
    (effects (font (size 1 1) (thickness 0.15)))
  )
  (fp_text value D_DO-35_SOD27_P12.70mm_Horizontal (at 6.35 2.12) (layer F.Fab)
    (effects (font (size 1 1) (thickness 0.15)))
  )
  (fp_line (start 5.588 -0.889) (end 5.588 0.889) (layer F.SilkS) (width 0.12))
  (fp_line (start 4.23 0) (end 5.969 0) (layer F.SilkS) (width 0.12))
  (fp_line (start 13.75 -1.25) (end -1.05 -1.25) (layer F.CrtYd) (width 0.05))
  (fp_line (start 13.75 1.25) (end 13.75 -1.25) (layer F.CrtYd) (width 0.05))
  (fp_line (start -1.05 1.25) (end 13.75 1.25) (layer F.CrtYd) (width 0.05))
  (fp_line (start -1.05 -1.25) (end -1.05 1.25) (layer F.CrtYd) (width 0.05))
  (fp_line (start 11.66 0) (end 8.47 0) (layer F.SilkS) (width 0.12))
  (fp_line (start 1.04 0) (end 4.23 0) (layer F.SilkS) (width 0.12))
  (fp_line (start 8.47 -1.12) (end 4.23 -1.12) (layer F.SilkS) (width 0.12))
  (fp_line (start 8.47 1.12) (end 8.47 -1.12) (layer F.SilkS) (width 0.12))
  (fp_line (start 4.23 1.12) (end 8.47 1.12) (layer F.SilkS) (width 0.12))
  (fp_line (start 4.23 -1.12) (end 4.23 1.12) (layer F.SilkS) (width 0.12))
  (fp_line (start 4.85 -1) (end 4.85 1) (layer F.Fab) (width 0.1))
  (fp_line (start 5.05 -1) (end 5.05 1) (layer F.Fab) (width 0.1))
  (fp_line (start 4.95 -1) (end 4.95 1) (layer F.Fab) (width 0.1))
  (fp_line (start 12.7 0) (end 8.35 0) (layer F.Fab) (width 0.1))
  (fp_line (start 0 0) (end 4.35 0) (layer F.Fab) (width 0.1))
  (fp_line (start 8.35 -1) (end 4.35 -1) (layer F.Fab) (width 0.1))
  (fp_line (start 8.35 1) (end 8.35 -1) (layer F.Fab) (width 0.1))
  (fp_line (start 4.35 1) (end 8.35 1) (layer F.Fab) (width 0.1))
  (fp_line (start 4.35 -1) (end 4.35 1) (layer F.Fab) (width 0.1))
  (fp_line (start 8.47 0) (end 7.112 0) (layer F.SilkS) (width 0.12))
  (fp_poly (pts (xy 7.112 0.889) (xy 5.588 0) (xy 7.112 -0.889)) (layer F.SilkS) (width 0.1))
  (fp_text user K (at 0 -1.8) (layer F.SilkS)
    (effects (font (size 1 1) (thickness 0.15)))
  )
  (fp_text user K (at 0 -1.8) (layer F.Fab)
    (effects (font (size 1 1) (thickness 0.15)))
  )
  (fp_text user %R (at 6.65 0) (layer F.Fab)
    (effects (font (size 0.8 0.8) (thickness 0.12)))
  )
  (pad 2 thru_hole oval (at 12.7 0) (size 1.6 1.6) (drill 0.8) (layers *.Cu *.Mask))
  (pad 1 thru_hole rect (at 0 0) (size 1.6 1.6) (drill 0.8) (layers *.Cu *.Mask))
  (model ${KISYS3DMOD}/Diode_THT.3dshapes/D_DO-35_SOD27_P12.70mm_Horizontal.wrl
    (at (xyz 0 0 0))
    (scale (xyz 1 1 1))
    (rotate (xyz 0 0 0))
  )
)
