(module D_DO-201AE_P15.24mm_Horizontal (layer F.Cu) (tedit 60794577)
  (descr "Diode, DO-201AE series, Axial, Horizontal, pin pitch=15.24mm, , length*diameter=9*5.3mm^2, , http://www.farnell.com/datasheets/529758.pdf, Alternate KiCad Library")
  (tags "Diode DO-201AE series Axial Horizontal pin pitch 15.24mm  length 9mm diameter 5.3mm")
  (fp_text reference REF** (at 7.62 -3.77) (layer F.SilkS)
    (effects (font (size 1 1) (thickness 0.15)))
  )
  (fp_text value D_DO-201AE_P15.24mm_Horizontal (at 7.62 3.77) (layer F.Fab)
    (effects (font (size 1 1) (thickness 0.15)))
  )
  (fp_line (start 5.842 -2.413) (end 5.842 2.413) (layer F.SilkS) (width 0.3))
  (fp_poly (pts (xy 9.525 2.413) (xy 5.842 0) (xy 9.525 -2.413)) (layer F.SilkS) (width 0.1))
  (fp_line (start 5.969 0) (end 3 0) (layer F.SilkS) (width 0.12))
  (fp_line (start 9.525 0) (end 12.24 0) (layer F.SilkS) (width 0.12))
  (fp_line (start 3.12 -2.65) (end 3.12 2.65) (layer F.Fab) (width 0.1))
  (fp_line (start 3.12 2.65) (end 12.12 2.65) (layer F.Fab) (width 0.1))
  (fp_line (start 12.12 2.65) (end 12.12 -2.65) (layer F.Fab) (width 0.1))
  (fp_line (start 12.12 -2.65) (end 3.12 -2.65) (layer F.Fab) (width 0.1))
  (fp_line (start 0 0) (end 3.12 0) (layer F.Fab) (width 0.1))
  (fp_line (start 15.24 0) (end 12.12 0) (layer F.Fab) (width 0.1))
  (fp_line (start 4.47 -2.65) (end 4.47 2.65) (layer F.Fab) (width 0.1))
  (fp_line (start 4.57 -2.65) (end 4.57 2.65) (layer F.Fab) (width 0.1))
  (fp_line (start 4.37 -2.65) (end 4.37 2.65) (layer F.Fab) (width 0.1))
  (fp_line (start 3 -2.77) (end 3 2.77) (layer F.SilkS) (width 0.12))
  (fp_line (start 3 2.77) (end 12.24 2.77) (layer F.SilkS) (width 0.12))
  (fp_line (start 12.24 2.77) (end 12.24 -2.77) (layer F.SilkS) (width 0.12))
  (fp_line (start 12.24 -2.77) (end 3 -2.77) (layer F.SilkS) (width 0.12))
  (fp_line (start 1.54 0) (end 3 0) (layer F.SilkS) (width 0.12))
  (fp_line (start 13.7 0) (end 12.24 0) (layer F.SilkS) (width 0.12))
  (fp_line (start -1.55 -2.9) (end -1.55 2.9) (layer F.CrtYd) (width 0.05))
  (fp_line (start -1.55 2.9) (end 16.79 2.9) (layer F.CrtYd) (width 0.05))
  (fp_line (start 16.79 2.9) (end 16.79 -2.9) (layer F.CrtYd) (width 0.05))
  (fp_line (start 16.79 -2.9) (end -1.55 -2.9) (layer F.CrtYd) (width 0.05))
  (fp_text user K (at 0 -2.3) (layer F.SilkS)
    (effects (font (size 1 1) (thickness 0.15)))
  )
  (fp_text user K (at 0 -2.3) (layer F.Fab)
    (effects (font (size 1 1) (thickness 0.15)))
  )
  (fp_text user %R (at 8.295 0) (layer F.Fab)
    (effects (font (size 1 1) (thickness 0.15)))
  )
  (pad 2 thru_hole oval (at 15.24 0) (size 2.6 2.6) (drill 1.3) (layers *.Cu *.Mask))
  (pad 1 thru_hole rect (at 0 0) (size 2.6 2.6) (drill 1.3) (layers *.Cu *.Mask))
  (model ${KISYS3DMOD}/Diode_THT.3dshapes/D_DO-201AE_P15.24mm_Horizontal.wrl
    (at (xyz 0 0 0))
    (scale (xyz 1 1 1))
    (rotate (xyz 0 0 0))
  )
)
