(module D_DO-41_SOD81_P5.08mm_Vertical_AnodeUp (layer F.Cu) (tedit 607943D1)
  (descr "Diode, DO-41_SOD81 series, Axial, Vertical, pin pitch=5.08mm, , length*diameter=5.2*2.7mm^2, , http://www.diodes.com/_files/packages/DO-41%20(Plastic).pdf, Alternate KiCad Library")
  (tags "Diode DO-41_SOD81 series Axial Vertical pin pitch 5.08mm  length 5.2mm diameter 2.7mm")
  (fp_text reference REF** (at 2.54 -2.750635) (layer F.SilkS)
    (effects (font (size 1 1) (thickness 0.15)))
  )
  (fp_text value D_DO-41_SOD81_P5.08mm_Vertical_AnodeUp (at 2.54 2.750635) (layer F.Fab)
    (effects (font (size 1 1) (thickness 0.15)))
  )
  (fp_line (start 3.683 0) (end 1.397 0) (layer F.SilkS) (width 0.12))
  (fp_line (start 1.905 -0.889) (end 1.905 0.889) (layer F.SilkS) (width 0.12))
  (fp_poly (pts (xy 3.302 0.889) (xy 1.905 0) (xy 3.302 -0.889)) (layer F.SilkS) (width 0.1))
  (fp_circle (center 0 0) (end 1.35 0) (layer F.Fab) (width 0.1))
  (fp_line (start 0 0) (end 5.08 0) (layer F.Fab) (width 0.1))
  (fp_line (start -1.6 -1.6) (end -1.6 1.6) (layer F.CrtYd) (width 0.05))
  (fp_line (start -1.6 1.6) (end 6.43 1.6) (layer F.CrtYd) (width 0.05))
  (fp_line (start 6.43 1.6) (end 6.43 -1.6) (layer F.CrtYd) (width 0.05))
  (fp_line (start 6.43 -1.6) (end -1.6 -1.6) (layer F.CrtYd) (width 0.05))
  (fp_text user A (at 5.08 2.032) (layer F.SilkS)
    (effects (font (size 1 1) (thickness 0.15)))
  )
  (fp_text user A (at 3.28 1.1) (layer F.Fab)
    (effects (font (size 1 1) (thickness 0.15)))
  )
  (fp_text user %R (at 2.54 -2.750635) (layer F.Fab)
    (effects (font (size 1 1) (thickness 0.15)))
  )
  (fp_arc (start 0 0) (end 1.523999 -0.888999) (angle -299.4871257) (layer F.SilkS) (width 0.12))
  (pad 2 thru_hole oval (at 5.08 0) (size 2.2 2.2) (drill 1.1) (layers *.Cu *.Mask))
  (pad 1 thru_hole rect (at 0 0) (size 2.2 2.2) (drill 1.1) (layers *.Cu *.Mask))
  (model ${KISYS3DMOD}/Diode_THT.3dshapes/D_DO-41_SOD81_P5.08mm_Vertical_AnodeUp.wrl
    (at (xyz 0 0 0))
    (scale (xyz 1 1 1))
    (rotate (xyz 0 0 0))
  )
)
