(module D_DO-27_P15.24mm_Horizontal_Zener (layer F.Cu) (tedit 607941E6)
  (descr "Diode, DO-27 series, Axial, Horizontal, pin pitch=15.24mm, , length*diameter=9.52*5.33mm^2, , http://www.slottechforum.com/slotinfo/Techstuff/CD2%20Diodes%20and%20Transistors/Cases/Diode%20DO-27.jpg, Alternate KiCad Library")
  (tags "Diode DO-27 series Axial Horizontal pin pitch 15.24mm  length 9.52mm diameter 5.33mm")
  (fp_text reference REF** (at 7.62 -3.785) (layer F.SilkS)
    (effects (font (size 1 1) (thickness 0.15)))
  )
  (fp_text value D_DO-27_P15.24mm_Horizontal_Zener (at 7.62 3.785) (layer F.Fab)
    (effects (font (size 1 1) (thickness 0.15)))
  )
  (fp_line (start 5.842 -2.286) (end 6.477 -2.286) (layer F.SilkS) (width 0.3))
  (fp_line (start 16.69 -2.92) (end -1.45 -2.92) (layer F.CrtYd) (width 0.05))
  (fp_line (start 16.69 2.92) (end 16.69 -2.92) (layer F.CrtYd) (width 0.05))
  (fp_line (start -1.45 2.92) (end 16.69 2.92) (layer F.CrtYd) (width 0.05))
  (fp_line (start -1.45 -2.92) (end -1.45 2.92) (layer F.CrtYd) (width 0.05))
  (fp_line (start 13.8 0) (end 12.5 0) (layer F.SilkS) (width 0.12))
  (fp_line (start 1.44 0) (end 2.74 0) (layer F.SilkS) (width 0.12))
  (fp_line (start 12.5 -2.785) (end 2.74 -2.785) (layer F.SilkS) (width 0.12))
  (fp_line (start 12.5 2.785) (end 12.5 -2.785) (layer F.SilkS) (width 0.12))
  (fp_line (start 2.74 2.785) (end 12.5 2.785) (layer F.SilkS) (width 0.12))
  (fp_line (start 2.74 -2.785) (end 2.74 2.785) (layer F.SilkS) (width 0.12))
  (fp_line (start 4.188 -2.665) (end 4.188 2.665) (layer F.Fab) (width 0.1))
  (fp_line (start 4.388 -2.665) (end 4.388 2.665) (layer F.Fab) (width 0.1))
  (fp_line (start 4.288 -2.665) (end 4.288 2.665) (layer F.Fab) (width 0.1))
  (fp_line (start 15.24 0) (end 12.38 0) (layer F.Fab) (width 0.1))
  (fp_line (start 0 0) (end 2.86 0) (layer F.Fab) (width 0.1))
  (fp_line (start 12.38 -2.665) (end 2.86 -2.665) (layer F.Fab) (width 0.1))
  (fp_line (start 12.38 2.665) (end 12.38 -2.665) (layer F.Fab) (width 0.1))
  (fp_line (start 2.86 2.665) (end 12.38 2.665) (layer F.Fab) (width 0.1))
  (fp_line (start 2.86 -2.665) (end 2.86 2.665) (layer F.Fab) (width 0.1))
  (fp_line (start 9.271 0) (end 12.5 0) (layer F.SilkS) (width 0.12))
  (fp_poly (pts (xy 9.398 2.286) (xy 5.842 0) (xy 9.398 -2.286)) (layer F.SilkS) (width 0.1))
  (fp_line (start 5.842 0) (end 2.74 0) (layer F.SilkS) (width 0.12))
  (fp_line (start 5.842 -2.286) (end 5.842 2.286) (layer F.SilkS) (width 0.3))
  (fp_text user K (at 0 -2.2) (layer F.SilkS)
    (effects (font (size 1 1) (thickness 0.15)))
  )
  (fp_text user K (at 0 -2.2) (layer F.Fab)
    (effects (font (size 1 1) (thickness 0.15)))
  )
  (fp_text user %R (at 8.334 0) (layer F.Fab)
    (effects (font (size 1 1) (thickness 0.15)))
  )
  (pad 2 thru_hole oval (at 15.24 0) (size 2.4 2.4) (drill 1.2) (layers *.Cu *.Mask))
  (pad 1 thru_hole rect (at 0 0) (size 2.4 2.4) (drill 1.2) (layers *.Cu *.Mask))
  (model ${KISYS3DMOD}/Diode_THT.3dshapes/D_DO-27_P15.24mm_Horizontal.wrl
    (at (xyz 0 0 0))
    (scale (xyz 1 1 1))
    (rotate (xyz 0 0 0))
  )
)
