(module D_DO-35_SOD27_P2.54mm_Vertical_KathodeUp (layer F.Cu) (tedit 607942C5)
  (descr "Diode, DO-35_SOD27 series, Axial, Vertical, pin pitch=2.54mm, , length*diameter=4*2mm^2, , http://www.diodes.com/_files/packages/DO-35.pdf, Alternate KiCad Library")
  (tags "Diode DO-35_SOD27 series Axial Vertical pin pitch 2.54mm  length 4mm diameter 2mm")
  (fp_text reference REF** (at 1.27 -2.326371) (layer F.SilkS)
    (effects (font (size 1 1) (thickness 0.15)))
  )
  (fp_text value D_DO-35_SOD27_P2.54mm_Vertical_KathodeUp (at 1.27 3.215371) (layer F.Fab)
    (effects (font (size 1 1) (thickness 0.15)))
  )
  (fp_poly (pts (xy 1.524 0.508) (xy 1.016 0) (xy 1.524 -0.508)) (layer F.SilkS) (width 0.1))
  (fp_line (start 1.016 -0.508) (end 1.016 0.508) (layer F.SilkS) (width 0.12))
  (fp_circle (center 2.54 0) (end 3.54 0) (layer F.Fab) (width 0.1))
  (fp_line (start 0 0) (end 2.54 0) (layer F.Fab) (width 0.1))
  (fp_line (start -1.05 -1.25) (end -1.05 1.25) (layer F.CrtYd) (width 0.05))
  (fp_line (start -1.05 1.25) (end 3.79 1.25) (layer F.CrtYd) (width 0.05))
  (fp_line (start 3.79 1.25) (end 3.79 -1.25) (layer F.CrtYd) (width 0.05))
  (fp_line (start 3.79 -1.25) (end -1.05 -1.25) (layer F.CrtYd) (width 0.05))
  (fp_text user K (at -1.8 0) (layer F.SilkS)
    (effects (font (size 1 1) (thickness 0.15)))
  )
  (fp_text user K (at -1.8 0) (layer F.Fab)
    (effects (font (size 1 1) (thickness 0.15)))
  )
  (fp_text user %R (at 1.27 -2.326371) (layer F.Fab)
    (effects (font (size 1 1) (thickness 0.15)))
  )
  (fp_arc (start 2.539999 0.000001) (end 1.397 0.762) (angle -292.6198649) (layer F.SilkS) (width 0.12))
  (pad 2 thru_hole oval (at 2.54 0) (size 1.6 1.6) (drill 0.8) (layers *.Cu *.Mask))
  (pad 1 thru_hole rect (at 0 0) (size 1.6 1.6) (drill 0.8) (layers *.Cu *.Mask))
  (model ${KISYS3DMOD}/Diode_THT.3dshapes/D_DO-35_SOD27_P2.54mm_Vertical_KathodeUp.wrl
    (at (xyz 0 0 0))
    (scale (xyz 1 1 1))
    (rotate (xyz 0 0 0))
  )
)
