(module D_DO-15_P15.24mm_Horizontal (layer F.Cu) (tedit 60794169)
  (descr "Diode, DO-15 series, Axial, Horizontal, pin pitch=15.24mm, , length*diameter=7.6*3.6mm^2, , http://www.diodes.com/_files/packages/DO-15.pdf, Alternate KiCad Library")
  (tags "Diode DO-15 series Axial Horizontal pin pitch 15.24mm  length 7.6mm diameter 3.6mm")
  (fp_text reference REF** (at 7.62 -2.92) (layer F.SilkS)
    (effects (font (size 1 1) (thickness 0.15)))
  )
  (fp_text value D_DO-15_P15.24mm_Horizontal (at 7.62 2.92) (layer F.Fab)
    (effects (font (size 1 1) (thickness 0.15)))
  )
  (fp_line (start 6.35 -1.524) (end 6.35 1.524) (layer F.SilkS) (width 0.2))
  (fp_poly (pts (xy 8.89 1.524) (xy 6.35 0) (xy 8.89 -1.524)) (layer F.SilkS) (width 0.1))
  (fp_line (start 6.35 0) (end 3.683 0) (layer F.SilkS) (width 0.12))
  (fp_line (start 3.82 -1.8) (end 3.82 1.8) (layer F.Fab) (width 0.1))
  (fp_line (start 3.82 1.8) (end 11.42 1.8) (layer F.Fab) (width 0.1))
  (fp_line (start 11.42 1.8) (end 11.42 -1.8) (layer F.Fab) (width 0.1))
  (fp_line (start 11.42 -1.8) (end 3.82 -1.8) (layer F.Fab) (width 0.1))
  (fp_line (start 0 0) (end 3.82 0) (layer F.Fab) (width 0.1))
  (fp_line (start 15.24 0) (end 11.42 0) (layer F.Fab) (width 0.1))
  (fp_line (start 4.96 -1.8) (end 4.96 1.8) (layer F.Fab) (width 0.1))
  (fp_line (start 5.06 -1.8) (end 5.06 1.8) (layer F.Fab) (width 0.1))
  (fp_line (start 4.86 -1.8) (end 4.86 1.8) (layer F.Fab) (width 0.1))
  (fp_line (start 3.7 -1.92) (end 3.7 1.92) (layer F.SilkS) (width 0.12))
  (fp_line (start 3.7 1.92) (end 11.54 1.92) (layer F.SilkS) (width 0.12))
  (fp_line (start 11.54 1.92) (end 11.54 -1.92) (layer F.SilkS) (width 0.12))
  (fp_line (start 11.54 -1.92) (end 3.7 -1.92) (layer F.SilkS) (width 0.12))
  (fp_line (start 1.44 0) (end 3.7 0) (layer F.SilkS) (width 0.12))
  (fp_line (start 13.8 0) (end 11.54 0) (layer F.SilkS) (width 0.12))
  (fp_line (start -1.45 -2.05) (end -1.45 2.05) (layer F.CrtYd) (width 0.05))
  (fp_line (start -1.45 2.05) (end 16.69 2.05) (layer F.CrtYd) (width 0.05))
  (fp_line (start 16.69 2.05) (end 16.69 -2.05) (layer F.CrtYd) (width 0.05))
  (fp_line (start 16.69 -2.05) (end -1.45 -2.05) (layer F.CrtYd) (width 0.05))
  (fp_line (start 11.54 0) (end 8.89 0) (layer F.SilkS) (width 0.12))
  (fp_text user K (at 0 -2.2) (layer F.SilkS)
    (effects (font (size 1 1) (thickness 0.15)))
  )
  (fp_text user K (at 0 -2.2) (layer F.Fab)
    (effects (font (size 1 1) (thickness 0.15)))
  )
  (fp_text user %R (at 8.19 0) (layer F.Fab)
    (effects (font (size 1 1) (thickness 0.15)))
  )
  (pad 2 thru_hole oval (at 15.24 0) (size 2.4 2.4) (drill 1.2) (layers *.Cu *.Mask))
  (pad 1 thru_hole rect (at 0 0) (size 2.4 2.4) (drill 1.2) (layers *.Cu *.Mask))
  (model ${KISYS3DMOD}/Diode_THT.3dshapes/D_DO-15_P15.24mm_Horizontal.wrl
    (at (xyz 0 0 0))
    (scale (xyz 1 1 1))
    (rotate (xyz 0 0 0))
  )
)
