(module D_DO-41_SOD81_P20.32mm_Horizontal_TVS (layer F.Cu) (tedit 60794439)
  (descr "Diode, DO-41_SOD81 series, Axial, Horizontal, pin pitch=20.32mm, , length*diameter=5.2*2.7mm^2, , http://www.diodes.com/_files/packages/DO-41%20(Plastic).pdf, Alternate KiCad Library")
  (tags "Diode DO-41_SOD81 series Axial Horizontal pin pitch 20.32mm  length 5.2mm diameter 2.7mm")
  (fp_text reference REF** (at 10.16 -2.47) (layer F.SilkS)
    (effects (font (size 1 1) (thickness 0.15)))
  )
  (fp_text value D_DO-41_SOD81_P20.32mm_Horizontal_TVS (at 10.16 2.47) (layer F.Fab)
    (effects (font (size 1 1) (thickness 0.15)))
  )
  (fp_line (start 10.541 1.143) (end 10.16 1.143) (layer F.SilkS) (width 0.2))
  (fp_line (start 10.16 -1.143) (end 9.779 -1.143) (layer F.SilkS) (width 0.2))
  (fp_line (start 7.56 -1.35) (end 7.56 1.35) (layer F.Fab) (width 0.1))
  (fp_line (start 7.56 1.35) (end 12.76 1.35) (layer F.Fab) (width 0.1))
  (fp_line (start 12.76 1.35) (end 12.76 -1.35) (layer F.Fab) (width 0.1))
  (fp_line (start 12.76 -1.35) (end 7.56 -1.35) (layer F.Fab) (width 0.1))
  (fp_line (start 0 0) (end 7.56 0) (layer F.Fab) (width 0.1))
  (fp_line (start 20.32 0) (end 12.76 0) (layer F.Fab) (width 0.1))
  (fp_line (start 7.44 -1.47) (end 7.44 1.47) (layer F.SilkS) (width 0.12))
  (fp_line (start 7.44 1.47) (end 12.88 1.47) (layer F.SilkS) (width 0.12))
  (fp_line (start 12.88 1.47) (end 12.88 -1.47) (layer F.SilkS) (width 0.12))
  (fp_line (start 12.88 -1.47) (end 7.44 -1.47) (layer F.SilkS) (width 0.12))
  (fp_line (start 1.397 0) (end 7.44 0) (layer F.SilkS) (width 0.12))
  (fp_line (start 18.923 0) (end 12.88 0) (layer F.SilkS) (width 0.12))
  (fp_line (start -1.35 -1.6) (end -1.35 1.6) (layer F.CrtYd) (width 0.05))
  (fp_line (start -1.35 1.6) (end 21.67 1.6) (layer F.CrtYd) (width 0.05))
  (fp_line (start 21.67 1.6) (end 21.67 -1.6) (layer F.CrtYd) (width 0.05))
  (fp_line (start 21.67 -1.6) (end -1.35 -1.6) (layer F.CrtYd) (width 0.05))
  (fp_poly (pts (xy 10.16 0) (xy 8.255 1.143) (xy 8.255 -1.143)) (layer F.SilkS) (width 0.1))
  (fp_poly (pts (xy 10.16 0) (xy 12.065 -1.143) (xy 12.065 1.143)) (layer F.SilkS) (width 0.1))
  (fp_line (start 10.16 1.143) (end 10.16 -1.143) (layer F.SilkS) (width 0.2))
  (fp_line (start 7.44 0) (end 8.255 0) (layer F.SilkS) (width 0.12))
  (fp_line (start 12.065 0) (end 12.88 0) (layer F.SilkS) (width 0.12))
  (fp_text user %R (at 10.55 0) (layer F.Fab)
    (effects (font (size 1 1) (thickness 0.15)))
  )
  (pad 2 thru_hole oval (at 20.32 0) (size 2.2 2.2) (drill 1.1) (layers *.Cu *.Mask))
  (pad 1 thru_hole rect (at 0 0) (size 2.2 2.2) (drill 1.1) (layers *.Cu *.Mask))
  (model ${KISYS3DMOD}/Diode_THT.3dshapes/D_DO-41_SOD81_P12.70mm_Horizontal.wrl
    (at (xyz 0 0 0))
    (scale (xyz 1 1 1))
    (rotate (xyz 0 0 0))
  )
)
