(module D_DO-201AD_P5.08mm_Vertical_TVS (layer F.Cu) (tedit 607944C5)
  (descr "Diode, DO-201AD series, Axial, Vertical, pin pitch=5.08mm, , length*diameter=9.5*5.2mm^2, , http://www.diodes.com/_files/packages/DO-201AD.pdf, Alternate KiCad Library")
  (tags "Diode DO-201AD series Axial Vertical pin pitch 5.08mm  length 9.5mm diameter 5.2mm")
  (fp_text reference REF** (at 2.54 -3.72) (layer F.SilkS)
    (effects (font (size 1 1) (thickness 0.15)))
  )
  (fp_text value D_DO-201AD_P5.08mm_Vertical_TVS (at 2.54 5.498) (layer F.Fab)
    (effects (font (size 1 1) (thickness 0.15)))
  )
  (fp_poly (pts (xy 1.8415 -0.762) (xy 2.54 0) (xy 1.8415 0.762)) (layer F.SilkS) (width 0.1))
  (fp_line (start 2.54 -0.762) (end 2.286 -0.762) (layer F.SilkS) (width 0.12))
  (fp_line (start 2.54 -0.762) (end 2.54 0.762) (layer F.SilkS) (width 0.12))
  (fp_poly (pts (xy 3.2385 0.762) (xy 2.54 0) (xy 3.2385 -0.762)) (layer F.SilkS) (width 0.1))
  (fp_line (start 2.54 0.762) (end 2.794 0.762) (layer F.SilkS) (width 0.12))
  (fp_circle (center 0 0) (end 2.6 0) (layer F.Fab) (width 0.1))
  (fp_line (start 0 0) (end 5.08 0) (layer F.Fab) (width 0.1))
  (fp_line (start -2.85 -2.85) (end -2.85 2.85) (layer F.CrtYd) (width 0.05))
  (fp_line (start -2.85 2.85) (end 6.93 2.85) (layer F.CrtYd) (width 0.05))
  (fp_line (start 6.93 2.85) (end 6.93 -2.85) (layer F.CrtYd) (width 0.05))
  (fp_line (start 6.93 -2.85) (end -2.85 -2.85) (layer F.CrtYd) (width 0.05))
  (fp_text user A (at 5.08 2.6) (layer F.Fab)
    (effects (font (size 1 1) (thickness 0.15)))
  )
  (fp_text user %R (at 2.54 -3.72) (layer F.Fab)
    (effects (font (size 1 1) (thickness 0.15)))
  )
  (fp_arc (start 0 0) (end 2.412999 -1.269999) (angle -304.4829188) (layer F.SilkS) (width 0.12))
  (pad 2 thru_hole oval (at 5.08 0) (size 3.2 3.2) (drill 1.6) (layers *.Cu *.Mask))
  (pad 1 thru_hole rect (at 0 0) (size 3.2 3.2) (drill 1.6) (layers *.Cu *.Mask))
  (model ${KISYS3DMOD}/Diode_THT.3dshapes/D_DO-201AD_P5.08mm_Vertical_AnodeUp.wrl
    (at (xyz 0 0 0))
    (scale (xyz 1 1 1))
    (rotate (xyz 0 0 0))
  )
)
