(module D_DO-41_SOD81_P25.40mm_Horizontal_TVS (layer F.Cu) (tedit 60794447)
  (descr "Diode, DO-41_SOD81 series, Axial, Horizontal, pin pitch=25.40mm, , length*diameter=5.2*2.7mm^2, , http://www.diodes.com/_files/packages/DO-41%20(Plastic).pdf, Alternate KiCad Library")
  (tags "Diode DO-41_SOD81 series Axial Horizontal pin pitch 25.40mm  length 5.2mm diameter 2.7mm")
  (fp_text reference REF** (at 12.7 -2.47) (layer F.SilkS)
    (effects (font (size 1 1) (thickness 0.15)))
  )
  (fp_text value D_DO-41_SOD81_P25.40mm_Horizontal_TVS (at 12.7 2.47) (layer F.Fab)
    (effects (font (size 1 1) (thickness 0.15)))
  )
  (fp_line (start 14.605 0) (end 15.42 0) (layer F.SilkS) (width 0.12))
  (fp_line (start 9.98 0) (end 10.795 0) (layer F.SilkS) (width 0.12))
  (fp_line (start 12.7 1.143) (end 12.7 -1.143) (layer F.SilkS) (width 0.2))
  (fp_poly (pts (xy 12.7 0) (xy 14.605 -1.143) (xy 14.605 1.143)) (layer F.SilkS) (width 0.1))
  (fp_poly (pts (xy 12.7 0) (xy 10.795 1.143) (xy 10.795 -1.143)) (layer F.SilkS) (width 0.1))
  (fp_line (start 26.75 -1.6) (end -1.35 -1.6) (layer F.CrtYd) (width 0.05))
  (fp_line (start 26.75 1.6) (end 26.75 -1.6) (layer F.CrtYd) (width 0.05))
  (fp_line (start -1.35 1.6) (end 26.75 1.6) (layer F.CrtYd) (width 0.05))
  (fp_line (start -1.35 -1.6) (end -1.35 1.6) (layer F.CrtYd) (width 0.05))
  (fp_line (start 24.003 0) (end 15.42 0) (layer F.SilkS) (width 0.12))
  (fp_line (start 1.397 0) (end 9.98 0) (layer F.SilkS) (width 0.12))
  (fp_line (start 15.42 -1.47) (end 9.98 -1.47) (layer F.SilkS) (width 0.12))
  (fp_line (start 15.42 1.47) (end 15.42 -1.47) (layer F.SilkS) (width 0.12))
  (fp_line (start 9.98 1.47) (end 15.42 1.47) (layer F.SilkS) (width 0.12))
  (fp_line (start 9.98 -1.47) (end 9.98 1.47) (layer F.SilkS) (width 0.12))
  (fp_line (start 25.4 0) (end 15.3 0) (layer F.Fab) (width 0.1))
  (fp_line (start 0 0) (end 10.1 0) (layer F.Fab) (width 0.1))
  (fp_line (start 15.3 -1.35) (end 10.1 -1.35) (layer F.Fab) (width 0.1))
  (fp_line (start 15.3 1.35) (end 15.3 -1.35) (layer F.Fab) (width 0.1))
  (fp_line (start 10.1 1.35) (end 15.3 1.35) (layer F.Fab) (width 0.1))
  (fp_line (start 10.1 -1.35) (end 10.1 1.35) (layer F.Fab) (width 0.1))
  (fp_line (start 12.7 -1.143) (end 12.319 -1.143) (layer F.SilkS) (width 0.2))
  (fp_line (start 13.081 1.143) (end 12.7 1.143) (layer F.SilkS) (width 0.2))
  (fp_text user %R (at 13.09 0) (layer F.Fab)
    (effects (font (size 1 1) (thickness 0.15)))
  )
  (pad 2 thru_hole oval (at 25.4 0) (size 2.2 2.2) (drill 1.1) (layers *.Cu *.Mask))
  (pad 1 thru_hole rect (at 0 0) (size 2.2 2.2) (drill 1.1) (layers *.Cu *.Mask))
  (model ${KISYS3DMOD}/Diode_THT.3dshapes/D_DO-41_SOD81_P12.70mm_Horizontal.wrl
    (at (xyz 0 0 0))
    (scale (xyz 1 1 1))
    (rotate (xyz 0 0 0))
  )
)
