(module D_DO-35_SOD27_P5.08mm_Vertical_AnodeUp_Zener (layer F.Cu) (tedit 607942FF)
  (descr "Diode, DO-35_SOD27 series, Axial, Vertical, pin pitch=5.08mm, , length*diameter=4*2mm^2, , http://www.diodes.com/_files/packages/DO-35.pdf, Alternate KiCad Library")
  (tags "Diode DO-35_SOD27 series Axial Vertical pin pitch 5.08mm  length 4mm diameter 2mm")
  (fp_text reference REF** (at 2.54 -2.326371) (layer F.SilkS)
    (effects (font (size 1 1) (thickness 0.15)))
  )
  (fp_text value D_DO-35_SOD27_P5.08mm_Vertical_AnodeUp_Zener (at 2.54 2.326371) (layer F.Fab)
    (effects (font (size 1 1) (thickness 0.15)))
  )
  (fp_line (start 1.651 -0.889) (end 1.905 -0.889) (layer F.SilkS) (width 0.12))
  (fp_line (start 6.13 -1.25) (end -1.25 -1.25) (layer F.CrtYd) (width 0.05))
  (fp_line (start 6.13 1.25) (end 6.13 -1.25) (layer F.CrtYd) (width 0.05))
  (fp_line (start -1.25 1.25) (end 6.13 1.25) (layer F.CrtYd) (width 0.05))
  (fp_line (start -1.25 -1.25) (end -1.25 1.25) (layer F.CrtYd) (width 0.05))
  (fp_line (start 0 0) (end 5.08 0) (layer F.Fab) (width 0.1))
  (fp_circle (center 0 0) (end 1 0) (layer F.Fab) (width 0.1))
  (fp_line (start 4.064 0) (end 1.016 0) (layer F.SilkS) (width 0.12))
  (fp_line (start 1.651 -0.889) (end 1.651 0.889) (layer F.SilkS) (width 0.12))
  (fp_poly (pts (xy 3.429 0.889) (xy 1.651 0) (xy 3.429 -0.889)) (layer F.SilkS) (width 0.1))
  (fp_text user A (at 5.08 1.651) (layer F.SilkS)
    (effects (font (size 1 1) (thickness 0.15)))
  )
  (fp_text user A (at 3.58 0.8) (layer F.Fab)
    (effects (font (size 1 1) (thickness 0.15)))
  )
  (fp_text user %R (at 2.54 -2.326371) (layer F.Fab)
    (effects (font (size 1 1) (thickness 0.15)))
  )
  (fp_arc (start 0 0) (end 1.142999 -0.761999) (angle -292.6198649) (layer F.SilkS) (width 0.12))
  (pad 2 thru_hole oval (at 5.08 0) (size 1.6 1.6) (drill 0.8) (layers *.Cu *.Mask))
  (pad 1 thru_hole rect (at 0 0) (size 1.6 1.6) (drill 0.8) (layers *.Cu *.Mask))
  (model ${KISYS3DMOD}/Diode_THT.3dshapes/D_DO-35_SOD27_P5.08mm_Vertical_AnodeUp.wrl
    (at (xyz 0 0 0))
    (scale (xyz 1 1 1))
    (rotate (xyz 0 0 0))
  )
)
