(module D_DO-15_P3.81mm_Vertical_TVS (layer F.Cu) (tedit 60793FFE)
  (descr "Diode, DO-15 series, Axial, Vertical, pin pitch=3.81mm, , length*diameter=7.6*3.6mm^2, , http://www.diodes.com/_files/packages/DO-15.pdf, Alternate KiCad Library")
  (tags "Diode DO-15 series Axial Vertical pin pitch 3.81mm  length 7.6mm diameter 3.6mm")
  (fp_text reference REF** (at 1.905 -2.92) (layer F.SilkS)
    (effects (font (size 1 1) (thickness 0.15)))
  )
  (fp_text value D_DO-15_P3.81mm_Vertical_TVS (at 1.905 4.2535) (layer F.Fab)
    (effects (font (size 1 1) (thickness 0.15)))
  )
  (fp_circle (center 0 0) (end 1.8 0) (layer F.Fab) (width 0.1))
  (fp_line (start 0 0) (end 3.81 0) (layer F.Fab) (width 0.1))
  (fp_line (start -2.05 -2.05) (end -2.05 2.05) (layer F.CrtYd) (width 0.05))
  (fp_line (start -2.05 2.05) (end 5.26 2.05) (layer F.CrtYd) (width 0.05))
  (fp_line (start 5.26 2.05) (end 5.26 -2.05) (layer F.CrtYd) (width 0.05))
  (fp_line (start 5.26 -2.05) (end -2.05 -2.05) (layer F.CrtYd) (width 0.05))
  (fp_poly (pts (xy 2.413 0.508) (xy 1.905 0) (xy 2.413 -0.508)) (layer F.SilkS) (width 0.1))
  (fp_poly (pts (xy 1.397 -0.508) (xy 1.905 0) (xy 1.397 0.508)) (layer F.SilkS) (width 0.1))
  (fp_line (start 1.905 -0.508) (end 1.905 0.508) (layer F.SilkS) (width 0.12))
  (fp_line (start 1.7145 -0.508) (end 1.905 -0.508) (layer F.SilkS) (width 0.12))
  (fp_line (start 1.905 0.508) (end 2.0955 0.508) (layer F.SilkS) (width 0.12))
  (fp_text user A (at 1.91 1.2) (layer F.Fab)
    (effects (font (size 1 1) (thickness 0.15)))
  )
  (fp_text user %R (at 1.905 -2.92) (layer F.Fab)
    (effects (font (size 1 1) (thickness 0.15)))
  )
  (fp_arc (start 0 0) (end 1.777999 -0.761999) (angle -315.8230552) (layer F.SilkS) (width 0.12))
  (pad 2 thru_hole oval (at 3.81 0) (size 2.4 2.4) (drill 1.2) (layers *.Cu *.Mask))
  (pad 1 thru_hole rect (at 0 0) (size 2.4 2.4) (drill 1.2) (layers *.Cu *.Mask))
  (model ${KISYS3DMOD}/Diode_THT.3dshapes/D_DO-15_P3.81mm_Vertical_AnodeUp.wrl
    (at (xyz 0 0 0))
    (scale (xyz 1 1 1))
    (rotate (xyz 0 0 0))
  )
)
