(module D_DO-35_SOD27_P3.81mm_Vertical_KathodeUp_Zener (layer F.Cu) (tedit 607942DF)
  (descr "Diode, DO-35_SOD27 series, Axial, Vertical, pin pitch=3.81mm, , length*diameter=4*2mm^2, , http://www.diodes.com/_files/packages/DO-35.pdf, Alternate KiCad Library")
  (tags "Diode DO-35_SOD27 series Axial Vertical pin pitch 3.81mm  length 4mm diameter 2mm")
  (fp_text reference REF** (at 1.905 -2.326371) (layer F.SilkS)
    (effects (font (size 1 1) (thickness 0.15)))
  )
  (fp_text value D_DO-35_SOD27_P3.81mm_Vertical_KathodeUp_Zener (at 1.905 2.326371) (layer F.Fab)
    (effects (font (size 1 1) (thickness 0.15)))
  )
  (fp_line (start 1.397 -0.635) (end 1.651 -0.635) (layer F.SilkS) (width 0.12))
  (fp_line (start 5.07 -1.25) (end -1.05 -1.25) (layer F.CrtYd) (width 0.05))
  (fp_line (start 5.07 1.25) (end 5.07 -1.25) (layer F.CrtYd) (width 0.05))
  (fp_line (start -1.05 1.25) (end 5.07 1.25) (layer F.CrtYd) (width 0.05))
  (fp_line (start -1.05 -1.25) (end -1.05 1.25) (layer F.CrtYd) (width 0.05))
  (fp_line (start 0 0) (end 3.81 0) (layer F.Fab) (width 0.1))
  (fp_circle (center 3.81 0) (end 4.81 0) (layer F.Fab) (width 0.1))
  (fp_line (start 2.794 0) (end 1.016 0) (layer F.SilkS) (width 0.12))
  (fp_line (start 1.397 -0.635) (end 1.397 0.635) (layer F.SilkS) (width 0.12))
  (fp_poly (pts (xy 2.413 0.635) (xy 1.397 0) (xy 2.413 -0.635)) (layer F.SilkS) (width 0.1))
  (fp_text user K (at 0 1.651) (layer F.SilkS)
    (effects (font (size 1 1) (thickness 0.15)))
  )
  (fp_text user K (at 1.5 0.8) (layer F.Fab)
    (effects (font (size 1 1) (thickness 0.15)))
  )
  (fp_text user %R (at 1.905 -2.326371) (layer F.Fab)
    (effects (font (size 1 1) (thickness 0.15)))
  )
  (fp_arc (start 3.809999 0.000001) (end 2.667 0.762) (angle -292.6198649) (layer F.SilkS) (width 0.12))
  (pad 2 thru_hole oval (at 3.81 0) (size 1.6 1.6) (drill 0.8) (layers *.Cu *.Mask))
  (pad 1 thru_hole rect (at 0 0) (size 1.6 1.6) (drill 0.8) (layers *.Cu *.Mask))
  (model ${KISYS3DMOD}/Diode_THT.3dshapes/D_DO-35_SOD27_P3.81mm_Vertical_KathodeUp.wrl
    (at (xyz 0 0 0))
    (scale (xyz 1 1 1))
    (rotate (xyz 0 0 0))
  )
)
