(module D_P600_R-6_P12.70mm_Horizontal_TVS (layer F.Cu) (tedit 607949AD)
  (descr "Diode, P600_R-6 series, Axial, Horizontal, pin pitch=12.7mm, , length*diameter=9.1*9.1mm^2, , http://www.vishay.com/docs/88692/p600a.pdf, http://www.diodes.com/_files/packages/R-6.pdf, Alternate KiCad Library")
  (tags "Diode P600_R-6 series Axial Horizontal pin pitch 12.7mm  length 9.1mm diameter 9.1mm")
  (fp_text reference REF** (at 6.35 -5.67) (layer F.SilkS)
    (effects (font (size 1 1) (thickness 0.15)))
  )
  (fp_text value D_P600_R-6_P12.70mm_Horizontal_TVS (at 6.35 5.67) (layer F.Fab)
    (effects (font (size 1 1) (thickness 0.15)))
  )
  (fp_line (start 6.985 2.54) (end 6.35 2.54) (layer F.SilkS) (width 0.3))
  (fp_line (start 6.35 -2.54) (end 5.715 -2.54) (layer F.SilkS) (width 0.3))
  (fp_line (start 1.8 -4.55) (end 1.8 4.55) (layer F.Fab) (width 0.1))
  (fp_line (start 1.8 4.55) (end 10.9 4.55) (layer F.Fab) (width 0.1))
  (fp_line (start 10.9 4.55) (end 10.9 -4.55) (layer F.Fab) (width 0.1))
  (fp_line (start 10.9 -4.55) (end 1.8 -4.55) (layer F.Fab) (width 0.1))
  (fp_line (start 0 0) (end 1.8 0) (layer F.Fab) (width 0.1))
  (fp_line (start 12.7 0) (end 10.9 0) (layer F.Fab) (width 0.1))
  (fp_line (start 1.68 -1.84) (end 1.68 -4.67) (layer F.SilkS) (width 0.12))
  (fp_line (start 1.68 -4.67) (end 11.02 -4.67) (layer F.SilkS) (width 0.12))
  (fp_line (start 11.02 -4.67) (end 11.02 -1.84) (layer F.SilkS) (width 0.12))
  (fp_line (start 1.68 1.84) (end 1.68 4.67) (layer F.SilkS) (width 0.12))
  (fp_line (start 1.68 4.67) (end 11.02 4.67) (layer F.SilkS) (width 0.12))
  (fp_line (start 11.02 4.67) (end 11.02 1.84) (layer F.SilkS) (width 0.12))
  (fp_line (start -1.85 -4.8) (end -1.85 4.8) (layer F.CrtYd) (width 0.05))
  (fp_line (start -1.85 4.8) (end 14.55 4.8) (layer F.CrtYd) (width 0.05))
  (fp_line (start 14.55 4.8) (end 14.55 -4.8) (layer F.CrtYd) (width 0.05))
  (fp_line (start 14.55 -4.8) (end -1.85 -4.8) (layer F.CrtYd) (width 0.05))
  (fp_line (start 2.032 0) (end 2.54 0) (layer F.SilkS) (width 0.12))
  (fp_line (start 10.668 0) (end 10.16 0) (layer F.SilkS) (width 0.12))
  (fp_poly (pts (xy 6.35 0) (xy 2.54 2.54) (xy 2.54 -2.54)) (layer F.SilkS) (width 0.1))
  (fp_poly (pts (xy 6.35 0) (xy 10.16 -2.54) (xy 10.16 2.54)) (layer F.SilkS) (width 0.1))
  (fp_line (start 6.35 2.54) (end 6.35 -2.54) (layer F.SilkS) (width 0.3))
  (fp_text user %R (at 7.0325 0) (layer F.Fab)
    (effects (font (size 1 1) (thickness 0.15)))
  )
  (pad 2 thru_hole oval (at 12.7 0) (size 3.2 3.2) (drill 1.6) (layers *.Cu *.Mask))
  (pad 1 thru_hole rect (at 0 0) (size 3.2 3.2) (drill 1.6) (layers *.Cu *.Mask))
  (model ${KISYS3DMOD}/Diode_THT.3dshapes/D_P600_R-6_P12.70mm_Horizontal.wrl
    (at (xyz 0 0 0))
    (scale (xyz 1 1 1))
    (rotate (xyz 0 0 0))
  )
)
