(module D_P600_R-6_P20.00mm_Horizontal_Zener (layer F.Cu) (tedit 607949D3)
  (descr "Diode, P600_R-6 series, Axial, Horizontal, pin pitch=20mm, , length*diameter=9.1*9.1mm^2, , http://www.vishay.com/docs/88692/p600a.pdf, http://www.diodes.com/_files/packages/R-6.pdf, Alternate KiCad Library")
  (tags "Diode P600_R-6 series Axial Horizontal pin pitch 20mm  length 9.1mm diameter 9.1mm")
  (fp_text reference REF** (at 10 -5.67) (layer F.SilkS)
    (effects (font (size 1 1) (thickness 0.15)))
  )
  (fp_text value D_P600_R-6_P20.00mm_Horizontal_Zener (at 10 5.67) (layer F.Fab)
    (effects (font (size 1 1) (thickness 0.15)))
  )
  (fp_line (start 6.985 -4.064) (end 7.747 -4.064) (layer F.SilkS) (width 0.3))
  (fp_poly (pts (xy 13.208 4.064) (xy 6.985 0) (xy 13.208 -4.064)) (layer F.SilkS) (width 0.1))
  (fp_line (start 13.081 0) (end 14.67 0) (layer F.SilkS) (width 0.12))
  (fp_line (start 6.858 0) (end 5.33 0) (layer F.SilkS) (width 0.12))
  (fp_line (start 5.45 -4.55) (end 5.45 4.55) (layer F.Fab) (width 0.1))
  (fp_line (start 5.45 4.55) (end 14.55 4.55) (layer F.Fab) (width 0.1))
  (fp_line (start 14.55 4.55) (end 14.55 -4.55) (layer F.Fab) (width 0.1))
  (fp_line (start 14.55 -4.55) (end 5.45 -4.55) (layer F.Fab) (width 0.1))
  (fp_line (start 0 0) (end 5.45 0) (layer F.Fab) (width 0.1))
  (fp_line (start 20 0) (end 14.55 0) (layer F.Fab) (width 0.1))
  (fp_line (start 6.815 -4.55) (end 6.815 4.55) (layer F.Fab) (width 0.1))
  (fp_line (start 6.915 -4.55) (end 6.915 4.55) (layer F.Fab) (width 0.1))
  (fp_line (start 6.715 -4.55) (end 6.715 4.55) (layer F.Fab) (width 0.1))
  (fp_line (start 5.33 -4.67) (end 5.33 4.67) (layer F.SilkS) (width 0.12))
  (fp_line (start 5.33 4.67) (end 14.67 4.67) (layer F.SilkS) (width 0.12))
  (fp_line (start 14.67 4.67) (end 14.67 -4.67) (layer F.SilkS) (width 0.12))
  (fp_line (start 14.67 -4.67) (end 5.33 -4.67) (layer F.SilkS) (width 0.12))
  (fp_line (start 1.84 0) (end 5.33 0) (layer F.SilkS) (width 0.12))
  (fp_line (start 18.16 0) (end 14.67 0) (layer F.SilkS) (width 0.12))
  (fp_line (start -1.85 -4.8) (end -1.85 4.8) (layer F.CrtYd) (width 0.05))
  (fp_line (start -1.85 4.8) (end 21.85 4.8) (layer F.CrtYd) (width 0.05))
  (fp_line (start 21.85 4.8) (end 21.85 -4.8) (layer F.CrtYd) (width 0.05))
  (fp_line (start 21.85 -4.8) (end -1.85 -4.8) (layer F.CrtYd) (width 0.05))
  (fp_line (start 6.985 -4.064) (end 6.985 4.064) (layer F.SilkS) (width 0.3))
  (fp_text user K (at 0 -2.6) (layer F.SilkS)
    (effects (font (size 1 1) (thickness 0.15)))
  )
  (fp_text user K (at 0 -2.6) (layer F.Fab)
    (effects (font (size 1 1) (thickness 0.15)))
  )
  (fp_text user %R (at 10.6825 0) (layer F.Fab)
    (effects (font (size 1 1) (thickness 0.15)))
  )
  (pad 2 thru_hole oval (at 20 0) (size 3.2 3.2) (drill 1.6) (layers *.Cu *.Mask))
  (pad 1 thru_hole rect (at 0 0) (size 3.2 3.2) (drill 1.6) (layers *.Cu *.Mask))
  (model ${KISYS3DMOD}/Diode_THT.3dshapes/D_P600_R-6_P20.00mm_Horizontal.wrl
    (at (xyz 0 0 0))
    (scale (xyz 1 1 1))
    (rotate (xyz 0 0 0))
  )
)
