(module D_T-1_P2.54mm_Vertical_AnodeUp (layer F.Cu) (tedit 60794BEC)
  (descr "Diode, T-1 series, Axial, Vertical, pin pitch=2.54mm, , length*diameter=3.2*2.6mm^2, , http://www.diodes.com/_files/packages/T-1.pdf, Alternate KiCad Library")
  (tags "Diode T-1 series Axial Vertical pin pitch 2.54mm  length 3.2mm diameter 2.6mm")
  (fp_text reference REF** (at 1.27 -2.609214) (layer F.SilkS)
    (effects (font (size 1 1) (thickness 0.15)))
  )
  (fp_text value D_T-1_P2.54mm_Vertical_AnodeUp (at 1.27 3.498214) (layer F.Fab)
    (effects (font (size 1 1) (thickness 0.15)))
  )
  (fp_line (start 3.79 -1.55) (end -1.55 -1.55) (layer F.CrtYd) (width 0.05))
  (fp_line (start 3.79 1.55) (end 3.79 -1.55) (layer F.CrtYd) (width 0.05))
  (fp_line (start -1.55 1.55) (end 3.79 1.55) (layer F.CrtYd) (width 0.05))
  (fp_line (start -1.55 -1.55) (end -1.55 1.55) (layer F.CrtYd) (width 0.05))
  (fp_line (start 0 0) (end 2.54 0) (layer F.Fab) (width 0.1))
  (fp_circle (center 0 0) (end 1.3 0) (layer F.Fab) (width 0.1))
  (fp_text user A (at 4.54 0) (layer F.SilkS)
    (effects (font (size 1 1) (thickness 0.15)))
  )
  (fp_text user A (at 4.54 0) (layer F.Fab)
    (effects (font (size 1 1) (thickness 0.15)))
  )
  (fp_text user %R (at 1.27 -2.609214) (layer F.Fab)
    (effects (font (size 1 1) (thickness 0.15)))
  )
  (fp_arc (start 0 0) (end 1.210772 -1) (angle -277.594921) (layer F.SilkS) (width 0.12))
  (pad 2 thru_hole oval (at 2.54 0) (size 2 2) (drill 1) (layers *.Cu *.Mask))
  (pad 1 thru_hole rect (at 0 0) (size 2 2) (drill 1) (layers *.Cu *.Mask))
  (model ${KISYS3DMOD}/Diode_THT.3dshapes/D_T-1_P2.54mm_Vertical_AnodeUp.wrl
    (at (xyz 0 0 0))
    (scale (xyz 1 1 1))
    (rotate (xyz 0 0 0))
  )
)
