(module Diode_Bridge_32.0x5.6x17.0mm_P10.0mm_P7.5mm (layer F.Cu) (tedit 5F5DCCAB)
  (descr "Diotec 32x5.6x17mm rectifier package, 7.5mm/10mm pitch, see https://diotec.com/tl_files/diotec/files/pdf/datasheets/b40c3700.pdf")
  (tags "Diotec rectifier diode bridge")
  (fp_text reference REF** (at 12.6 -3.8 180) (layer F.SilkS)
    (effects (font (size 1 1) (thickness 0.15)))
  )
  (fp_text value Diode_Bridge_32.0x5.6x17.0mm_P10.0mm_P7.5mm (at 12.6 4 180) (layer F.Fab)
    (effects (font (size 1 1) (thickness 0.15)))
  )
  (fp_line (start -3.5 2.8) (end 28.5 2.8) (layer F.Fab) (width 0.12))
  (fp_line (start 28.5 2.8) (end 28.5 -2.8) (layer F.Fab) (width 0.12))
  (fp_line (start 28.5 -2.8) (end -2.5 -2.8) (layer F.Fab) (width 0.12))
  (fp_line (start -2.5 -2.8) (end -3.5 -1.7) (layer F.Fab) (width 0.12))
  (fp_line (start -3.5 -1.7) (end -3.5 2.8) (layer F.Fab) (width 0.12))
  (fp_line (start 0.45 -2.8) (end 0.45 2.8) (layer F.Fab) (width 0.12))
  (fp_line (start 28.6 -2.9) (end 28.6 2.9) (layer F.SilkS) (width 0.12))
  (fp_line (start 28.6 2.9) (end -3.6 2.9) (layer F.SilkS) (width 0.12))
  (fp_line (start -3.6 2.9) (end -3.6 -2.9) (layer F.SilkS) (width 0.12))
  (fp_line (start -3.6 -2.9) (end 28.6 -2.9) (layer F.SilkS) (width 0.12))
  (fp_line (start 0.45 -2.9) (end 0.45 -1.5) (layer F.SilkS) (width 0.12))
  (fp_line (start -3.75 -3.05) (end 28.75 -3.05) (layer F.CrtYd) (width 0.05))
  (fp_line (start 28.75 -3.05) (end 28.75 3.05) (layer F.CrtYd) (width 0.05))
  (fp_line (start 28.75 3.05) (end -3.75 3.05) (layer F.CrtYd) (width 0.05))
  (fp_line (start -3.75 3.05) (end -3.75 -3.05) (layer F.CrtYd) (width 0.05))
  (fp_text user %R (at 12.6 0 180) (layer F.Fab)
    (effects (font (size 1 1) (thickness 0.15)))
  )
  (fp_line (start -3.556 -1.651) (end -2.54 -2.794) (layer F.SilkS) (width 0.12))
  (fp_text user + (at 0 1.778) (layer F.SilkS)
    (effects (font (size 1 1) (thickness 0.15)))
  )
  (fp_text user AC (at 7.493 1.905) (layer F.SilkS)
    (effects (font (size 1 1) (thickness 0.15)))
  )
  (fp_text user AC (at 14.986 1.905) (layer F.SilkS)
    (effects (font (size 1 1) (thickness 0.15)))
  )
  (fp_text user - (at 25.019 1.778) (layer F.SilkS)
    (effects (font (size 1 1) (thickness 0.15)))
  )
  (pad 1 thru_hole rect (at 0 0) (size 2 2) (drill 1) (layers *.Cu *.Mask))
  (pad 2 thru_hole circle (at 7.5 0) (size 2 2) (drill 1) (layers *.Cu *.Mask))
  (pad 3 thru_hole circle (at 15 0) (size 2 2) (drill 1) (layers *.Cu *.Mask))
  (pad 4 thru_hole circle (at 25 0) (size 2 2) (drill 1) (layers *.Cu *.Mask))
  (model ${KISYS3DMOD}/Diode_THT.3dshapes/Diode_Bridge_32.0x5.6x17.0mm_P10.0mm_P7.5mm.wrl
    (at (xyz 0 0 0))
    (scale (xyz 1 1 1))
    (rotate (xyz 0 0 0))
  )
)
