(module Diode_Bridge_Vishay_GBL (layer F.Cu) (tedit 601FB406)
  (descr "Vishay GBL rectifier package, 5.08mm pitch, see http://www.vishay.com/docs/88609/gbl005.pdf")
  (tags "Vishay GBL rectifier diode bridge")
  (fp_text reference REF** (at 7.65 -3.45) (layer F.SilkS)
    (effects (font (size 1 1) (thickness 0.15)))
  )
  (fp_text value Diode_Bridge_Vishay_GBL (at 7.1 2.5) (layer F.Fab)
    (effects (font (size 1 1) (thickness 0.15)))
  )
  (fp_line (start -2.95 -1.55) (end -1.95 -2.65) (layer F.SilkS) (width 0.12))
  (fp_line (start -0.3 -2.65) (end -0.3 -1.95) (layer F.SilkS) (width 0.12))
  (fp_line (start -2.95 -2.65) (end -2.95 1.15) (layer F.SilkS) (width 0.12))
  (fp_line (start 18.2 -2.65) (end -2.95 -2.65) (layer F.SilkS) (width 0.12))
  (fp_line (start 18.2 1.15) (end 18.2 -2.65) (layer F.SilkS) (width 0.12))
  (fp_line (start 16.8 1.15) (end 18.2 1.15) (layer F.SilkS) (width 0.12))
  (fp_line (start 11.7 1.15) (end 13.7 1.15) (layer F.SilkS) (width 0.12))
  (fp_line (start 6.7 1.15) (end 8.6 1.15) (layer F.SilkS) (width 0.12))
  (fp_line (start 2 1.15) (end 3.5 1.15) (layer F.SilkS) (width 0.12))
  (fp_line (start -2.95 1.15) (end -2 1.15) (layer F.SilkS) (width 0.12))
  (fp_line (start -0.3 -2.55) (end -0.3 1.05) (layer F.Fab) (width 0.1))
  (fp_line (start -2.85 -1.55) (end -2.85 1.05) (layer F.Fab) (width 0.1))
  (fp_line (start -1.95 -2.55) (end -2.85 -1.55) (layer F.Fab) (width 0.1))
  (fp_line (start 18.1 -2.55) (end -1.95 -2.55) (layer F.Fab) (width 0.1))
  (fp_line (start 18.1 1.05) (end 18.1 -2.55) (layer F.Fab) (width 0.12))
  (fp_line (start -2.85 1.05) (end 18.1 1.05) (layer F.Fab) (width 0.1))
  (fp_line (start -3.1 1.85) (end 18.35 1.85) (layer F.CrtYd) (width 0.05))
  (fp_line (start -3.1 1.85) (end -3.1 -2.8) (layer F.CrtYd) (width 0.05))
  (fp_line (start 18.35 -2.8) (end 18.35 1.85) (layer F.CrtYd) (width 0.05))
  (fp_line (start 18.35 -2.8) (end -3.1 -2.8) (layer F.CrtYd) (width 0.05))
  (fp_text user %R (at 7.65 -1.65) (layer F.Fab)
    (effects (font (size 1 1) (thickness 0.15)))
  )
  (fp_text user + (at 0 2.286) (layer F.SilkS)
    (effects (font (size 1 1) (thickness 0.15)))
  )
  (fp_text user - (at 15.24 2.286) (layer F.SilkS)
    (effects (font (size 1 1) (thickness 0.15)))
  )
  (fp_arc (start 4.698998 2.667) (end 4.952997 2.286001) (angle -67.38013505) (layer F.SilkS) (width 0.12))
  (fp_arc (start 5.206999 1.905001) (end 4.953 2.286) (angle -67.38013505) (layer F.SilkS) (width 0.12))
  (fp_arc (start 9.905998 2.794) (end 10.159997 2.413001) (angle -67.38013505) (layer F.SilkS) (width 0.12))
  (fp_arc (start 10.413999 2.032001) (end 10.16 2.413) (angle -67.38013505) (layer F.SilkS) (width 0.12))
  (pad 1 thru_hole rect (at 0 0 180) (size 3.2 3.2) (drill 1.6) (layers *.Cu *.Mask))
  (pad 2 thru_hole circle (at 5.08 0 180) (size 3.2 3.2) (drill 1.6) (layers *.Cu *.Mask))
  (pad 3 thru_hole circle (at 10.16 0 180) (size 3.2 3.2) (drill 1.6) (layers *.Cu *.Mask))
  (pad 4 thru_hole circle (at 15.24 0 180) (size 3.2 3.2) (drill 1.6) (layers *.Cu *.Mask))
  (model ${KISYS3DMOD}/Diode_THT.3dshapes/Diode_Bridge_Vishay_GBL.wrl
    (at (xyz 0 0 0))
    (scale (xyz 1 1 1))
    (rotate (xyz 0 0 0))
  )
)
