(module Diode_Bridge_DIP-4_W5.08mm_P2.54mm (layer F.Cu) (tedit 5F5DCD09)
  (descr "4-lead dip package for diode bridges, row spacing 5.08mm, pin-spacing 2.54mm, see http://www.vishay.com/docs/88898/b2m.pdf")
  (tags "DIL DIP PDIP 5.08mm 2.54")
  (fp_text reference REF** (at 2.5 -2.2) (layer F.SilkS)
    (effects (font (size 1 1) (thickness 0.15)))
  )
  (fp_text value Diode_Bridge_DIP-4_W5.08mm_P2.54mm (at 2.3 4.6) (layer F.Fab)
    (effects (font (size 1 1) (thickness 0.15)))
  )
  (fp_line (start 6.03 3.85) (end -0.95 3.85) (layer F.CrtYd) (width 0.05))
  (fp_line (start 6.03 3.85) (end 6.03 -1.35) (layer F.CrtYd) (width 0.05))
  (fp_line (start -0.95 -1.35) (end -0.95 3.85) (layer F.CrtYd) (width 0.05))
  (fp_line (start -0.95 -1.35) (end 6.03 -1.35) (layer F.CrtYd) (width 0.05))
  (fp_line (start 1.8 -1.3) (end 1.1 -1.3) (layer F.SilkS) (width 0.12))
  (fp_line (start 1.1 -1.3) (end 1.1 3.8) (layer F.SilkS) (width 0.12))
  (fp_line (start 1.1 3.8) (end 4 3.8) (layer F.SilkS) (width 0.12))
  (fp_line (start 4 3.8) (end 4 -1.3) (layer F.SilkS) (width 0.12))
  (fp_line (start 4 -1.3) (end 3.2 -1.3) (layer F.SilkS) (width 0.12))
  (fp_line (start 1.4 -1.1) (end 4.6 -1.1) (layer F.Fab) (width 0.12))
  (fp_line (start 4.6 -1.1) (end 4.6 3.6) (layer F.Fab) (width 0.12))
  (fp_line (start 4.6 3.6) (end 0.5 3.6) (layer F.Fab) (width 0.12))
  (fp_line (start 0.5 3.6) (end 0.5 -0.2) (layer F.Fab) (width 0.12))
  (fp_line (start 0.5 -0.2) (end 1.4 -1.1) (layer F.Fab) (width 0.12))
  (fp_arc (start 2.5 -1.3) (end 1.8 -1.3) (angle -180) (layer F.SilkS) (width 0.12))
  (fp_text user %R (at 2.6 1.5) (layer F.Fab)
    (effects (font (size 0.9 0.9) (thickness 0.15)))
  )
  (fp_line (start 1.397 0) (end 2.159 0) (layer F.SilkS) (width 0.12))
  (fp_line (start 1.778 -0.381) (end 1.778 0.381) (layer F.SilkS) (width 0.12))
  (fp_line (start 1.397 2.54) (end 2.159 2.54) (layer F.SilkS) (width 0.12))
  (pad 1 thru_hole rect (at 0 0) (size 1.4 1.4) (drill 0.7) (layers *.Cu *.Mask))
  (pad 3 thru_hole circle (at 5.08 2.54) (size 1.4 1.4) (drill 0.7) (layers *.Cu *.Mask))
  (pad 2 thru_hole circle (at 0 2.54) (size 1.4 1.4) (drill 0.7) (layers *.Cu *.Mask))
  (pad 4 thru_hole circle (at 5.08 0) (size 1.4 1.4) (drill 0.7) (layers *.Cu *.Mask))
  (model ${KISYS3DMOD}/Diode_THT.3dshapes/Diode_Bridge_DIP-4_W5.08mm_P2.54mm.wrl
    (at (xyz 0 0 0))
    (scale (xyz 1 1 1))
    (rotate (xyz 0 0 0))
  )
)
