(module Diode_Bridge_28.6x28.6x7.3mm_P18.0mm_P11.6mm (layer F.Cu) (tedit 5F5DCC5E)
  (descr "Single phase bridge rectifier case 28.6x28.6mm, pitch 18.0mm & 11.6mm, see https://diotec.com/tl_files/diotec/files/pdf/datasheets/kbpc1500fw.pdf")
  (tags "Diode Bridge KBPCxxxxWP")
  (fp_text reference REF** (at 9 18.3 180) (layer F.SilkS)
    (effects (font (size 1 1) (thickness 0.15)))
  )
  (fp_text value Diode_Bridge_28.6x28.6x7.3mm_P18.0mm_P11.6mm (at 9 -12.8 180) (layer F.Fab)
    (effects (font (size 1 1) (thickness 0.15)))
  )
  (fp_line (start -5.8 -9) (end -5.8 17.4) (layer F.CrtYd) (width 0.05))
  (fp_line (start -2.6 -12.2) (end -5.8 -9) (layer F.CrtYd) (width 0.05))
  (fp_line (start 23.8 -12.2) (end -2.6 -12.2) (layer F.CrtYd) (width 0.05))
  (fp_line (start 23.8 17.4) (end 23.8 -12.2) (layer F.CrtYd) (width 0.05))
  (fp_line (start -5.8 17.4) (end 23.8 17.4) (layer F.CrtYd) (width 0.05))
  (fp_line (start -5.4 -8.8) (end -5.4 17) (layer F.SilkS) (width 0.12))
  (fp_line (start -2.4 -11.8) (end -5.4 -8.8) (layer F.SilkS) (width 0.12))
  (fp_line (start 23.4 -11.8) (end -2.4 -11.8) (layer F.SilkS) (width 0.12))
  (fp_line (start 23.4 17) (end 23.4 -11.8) (layer F.SilkS) (width 0.12))
  (fp_line (start -5.4 17) (end 23.4 17) (layer F.SilkS) (width 0.12))
  (fp_line (start -5.3 -8.7) (end -5.3 16.9) (layer F.Fab) (width 0.12))
  (fp_line (start -2.3 -11.7) (end -5.3 -8.7) (layer F.Fab) (width 0.12))
  (fp_line (start 23.3 -11.7) (end -2.3 -11.7) (layer F.Fab) (width 0.12))
  (fp_line (start 23.3 16.9) (end 23.3 -11.7) (layer F.Fab) (width 0.12))
  (fp_line (start -5.3 16.9) (end 23.3 16.9) (layer F.Fab) (width 0.12))
  (fp_text user %R (at 9.5 2.9 180) (layer F.Fab)
    (effects (font (size 1 1) (thickness 0.15)))
  )
  (fp_text user + (at 0 -2.413) (layer F.SilkS)
    (effects (font (size 1 1) (thickness 0.15)))
  )
  (fp_text user AC (at 0 9.398) (layer F.SilkS)
    (effects (font (size 1 1) (thickness 0.15)))
  )
  (fp_text user AC (at 18.034 -8.509) (layer F.SilkS)
    (effects (font (size 1 1) (thickness 0.15)))
  )
  (fp_text user - (at 17.907 9.398) (layer F.SilkS)
    (effects (font (size 1 1) (thickness 0.15)))
  )
  (pad 2 thru_hole circle (at 0 11.6 180) (size 2.8 2.8) (drill 1.4) (layers *.Cu *.Mask))
  (pad 1 thru_hole rect (at 0 0 180) (size 2.8 2.8) (drill 1.4) (layers *.Cu *.Mask))
  (pad 4 thru_hole circle (at 18 -6.4 180) (size 2.8 2.8) (drill 1.4) (layers *.Cu *.Mask))
  (pad 3 thru_hole circle (at 18 11.6 180) (size 2.8 2.8) (drill 1.4) (layers *.Cu *.Mask))
  (model ${KISYS3DMOD}/Diode_THT.3dshapes/Diode_Bridge_28.6x28.6x7.3mm_P18.0mm_P11.6mm.wrl
    (at (xyz 0 0 0))
    (scale (xyz 1 1 1))
    (rotate (xyz 0 0 0))
  )
)
