(module Diode_Bridge_15.1x15.1x6.3mm_P10.9mm (layer F.Cu) (tedit 5F5DD01C)
  (descr "Single phase bridge rectifier case 15.1x15.1mm, pitch 10.9mm, see https://diotec.com/tl_files/diotec/files/pdf/datasheets/pb1000.pdf")
  (tags "Diode Bridge PB10xxS")
  (fp_text reference REF** (at 5.2 14.3 180) (layer F.SilkS)
    (effects (font (size 1 1) (thickness 0.15)))
  )
  (fp_text value Diode_Bridge_15.1x15.1x6.3mm_P10.9mm (at 5.2 -3.2 180) (layer F.Fab)
    (effects (font (size 1 1) (thickness 0.15)))
  )
  (fp_circle (center 8.255 8.255) (end 8.4455 8.0645) (layer F.SilkS) (width 0.12))
  (fp_circle (center 8.255 8.255) (end 8.382 8.128) (layer F.SilkS) (width 0.12))
  (fp_circle (center 8.255 8.255) (end 8.3185 8.1915) (layer F.SilkS) (width 0.12))
  (fp_circle (center 8.255 2.667) (end 8.4455 2.4765) (layer F.SilkS) (width 0.12))
  (fp_circle (center 8.255 2.667) (end 8.382 2.54) (layer F.SilkS) (width 0.12))
  (fp_circle (center 8.255 2.667) (end 8.3185 2.6035) (layer F.SilkS) (width 0.12))
  (fp_circle (center 2.667 2.667) (end 2.8575 2.4765) (layer F.SilkS) (width 0.12))
  (fp_circle (center 2.667 2.667) (end 2.794 2.54) (layer F.SilkS) (width 0.12))
  (fp_circle (center 2.667 2.667) (end 2.7305 2.6035) (layer F.SilkS) (width 0.12))
  (fp_circle (center 2.667 8.255) (end 2.8575 8.0645) (layer F.SilkS) (width 0.12))
  (fp_circle (center 2.667 8.255) (end 2.794 8.128) (layer F.SilkS) (width 0.12))
  (fp_circle (center 2.667 8.255) (end 2.7305 8.1915) (layer F.SilkS) (width 0.12))
  (fp_line (start 8.255 8.255) (end 6.604 8.255) (layer F.SilkS) (width 0.12))
  (fp_line (start 4.318 8.255) (end 4.318 9.398) (layer F.SilkS) (width 0.2))
  (fp_line (start 4.318 8.255) (end 2.667 8.255) (layer F.SilkS) (width 0.12))
  (fp_line (start 4.318 7.112) (end 4.318 8.255) (layer F.SilkS) (width 0.2))
  (fp_line (start 8.255 8.255) (end 8.255 6.604) (layer F.SilkS) (width 0.12))
  (fp_line (start 8.255 4.318) (end 7.112 4.318) (layer F.SilkS) (width 0.2))
  (fp_line (start 8.255 4.318) (end 8.255 2.667) (layer F.SilkS) (width 0.12))
  (fp_line (start 9.398 4.318) (end 8.255 4.318) (layer F.SilkS) (width 0.2))
  (fp_line (start 8.255 2.667) (end 6.604 2.667) (layer F.SilkS) (width 0.12))
  (fp_line (start 4.318 2.667) (end 4.318 3.81) (layer F.SilkS) (width 0.2))
  (fp_line (start 4.318 2.667) (end 2.667 2.667) (layer F.SilkS) (width 0.12))
  (fp_line (start 4.318 1.524) (end 4.318 2.667) (layer F.SilkS) (width 0.2))
  (fp_line (start 2.667 4.318) (end 1.524 4.318) (layer F.SilkS) (width 0.2))
  (fp_line (start 3.81 4.318) (end 2.667 4.318) (layer F.SilkS) (width 0.2))
  (fp_line (start 2.667 4.318) (end 2.667 2.667) (layer F.SilkS) (width 0.12))
  (fp_line (start 2.667 8.255) (end 2.667 6.604) (layer F.SilkS) (width 0.12))
  (fp_line (start 1.397 9.525) (end 2.667 8.255) (layer F.SilkS) (width 0.12))
  (fp_line (start 9.525 9.525) (end 8.255 8.255) (layer F.SilkS) (width 0.12))
  (fp_line (start 9.525 1.397) (end 8.255 2.667) (layer F.SilkS) (width 0.12))
  (fp_line (start 1.397 1.397) (end 2.667 2.667) (layer F.SilkS) (width 0.12))
  (fp_line (start -2.25 13.15) (end -2.25 -0.45) (layer F.SilkS) (width 0.12))
  (fp_line (start 13.15 13.15) (end -2.25 13.15) (layer F.SilkS) (width 0.12))
  (fp_line (start 13.15 -2.25) (end 13.15 13.15) (layer F.SilkS) (width 0.12))
  (fp_line (start -0.45 -2.25) (end 13.15 -2.25) (layer F.SilkS) (width 0.12))
  (fp_line (start -1.2 -1.5) (end -0.45 -2.25) (layer F.SilkS) (width 0.12))
  (fp_line (start -2.25 -0.45) (end -1.5 -1.2) (layer F.SilkS) (width 0.12))
  (fp_line (start -0.5 -2.35) (end 13.3 -2.35) (layer F.CrtYd) (width 0.05))
  (fp_line (start -2.35 -0.5) (end -0.5 -2.35) (layer F.CrtYd) (width 0.05))
  (fp_line (start -2.35 13.3) (end -2.35 -0.5) (layer F.CrtYd) (width 0.05))
  (fp_line (start 13.3 13.3) (end -2.35 13.3) (layer F.CrtYd) (width 0.05))
  (fp_line (start 13.3 -2.35) (end 13.3 13.3) (layer F.CrtYd) (width 0.05))
  (fp_line (start -2.1 13) (end -2.1 -0.45) (layer F.Fab) (width 0.12))
  (fp_line (start 13 13) (end -2.1 13) (layer F.Fab) (width 0.12))
  (fp_line (start 13 -2.1) (end 13 13) (layer F.Fab) (width 0.12))
  (fp_line (start -0.45 -2.1) (end 13 -2.1) (layer F.Fab) (width 0.12))
  (fp_line (start -2.1 -0.45) (end -0.45 -2.1) (layer F.Fab) (width 0.12))
  (fp_text user %R (at 5.2 5.415 180) (layer F.Fab)
    (effects (font (size 1 1) (thickness 0.15)))
  )
  (fp_text user + (at 2.032 0) (layer F.SilkS)
    (effects (font (size 1 1) (thickness 0.15)))
  )
  (fp_text user AC (at 8.255 0) (layer F.SilkS)
    (effects (font (size 1 1) (thickness 0.15)))
  )
  (fp_text user AC (at 2.667 10.922) (layer F.SilkS)
    (effects (font (size 1 1) (thickness 0.15)))
  )
  (fp_text user - (at 8.636 10.922) (layer F.SilkS)
    (effects (font (size 1 1) (thickness 0.15)))
  )
  (fp_poly (pts (xy 3.81 6.604) (xy 1.524 6.604) (xy 2.667 4.445)) (layer F.SilkS) (width 0.1))
  (fp_poly (pts (xy 6.604 1.524) (xy 6.604 3.81) (xy 4.445 2.667)) (layer F.SilkS) (width 0.1))
  (fp_poly (pts (xy 9.398 6.604) (xy 7.112 6.604) (xy 8.255 4.445)) (layer F.SilkS) (width 0.1))
  (fp_poly (pts (xy 6.604 7.112) (xy 6.604 9.398) (xy 4.445 8.255)) (layer F.SilkS) (width 0.1))
  (pad 2 thru_hole circle (at 0.1 10.9 180) (size 2.4 2.4) (drill 1.2) (layers *.Cu *.Mask))
  (pad 1 thru_hole rect (at 0 0 180) (size 2.4 2.4) (drill 1.2) (layers *.Cu *.Mask))
  (pad 4 thru_hole circle (at 10.9 0 180) (size 2.4 2.4) (drill 1.2) (layers *.Cu *.Mask))
  (pad 3 thru_hole circle (at 10.9 10.9 180) (size 2.4 2.4) (drill 1.2) (layers *.Cu *.Mask))
  (model ${KISYS3DMOD}/Diode_THT.3dshapes/Diode_Bridge_15.1x15.1x6.3mm_P10.9mm.wrl
    (at (xyz 0 0 0))
    (scale (xyz 1 1 1))
    (rotate (xyz 0 0 0))
  )
)
