(module Diode_Bridge_KBP (layer F.Cu) (tedit 601FBAB3)
  (descr "KBP rectifier package, 3.81mm pitch, see https://www.diodes.com/design/support/packaging/diodes-packaging/diodes-package-outlines-and-pad-layouts/")
  (tags "KBP rectifier diode bridge")
  (fp_text reference REF** (at 5.745 -3.45) (layer F.SilkS)
    (effects (font (size 1 1) (thickness 0.15)))
  )
  (fp_text value Diode_Bridge_KBP (at 5.75 2.25) (layer F.Fab)
    (effects (font (size 1 1) (thickness 0.15)))
  )
  (fp_text user %R (at 5.745 -1.65) (layer F.Fab)
    (effects (font (size 1 1) (thickness 0.15)))
  )
  (fp_text user + (at 0 1.736) (layer F.SilkS)
    (effects (font (size 1 1) (thickness 0.15)))
  )
  (fp_text user - (at 11.43 1.736) (layer F.SilkS)
    (effects (font (size 1 1) (thickness 0.15)))
  )
  (fp_arc (start 3.428998 2.117) (end 3.682997 1.736001) (angle -67.38013505) (layer F.SilkS) (width 0.12))
  (fp_arc (start 3.936999 1.355001) (end 3.683 1.736) (angle -67.38013505) (layer F.SilkS) (width 0.12))
  (fp_arc (start 7.365998 2.244) (end 7.619997 1.863001) (angle -67.38013505) (layer F.SilkS) (width 0.12))
  (fp_arc (start 7.873999 1.482001) (end 7.62 1.863) (angle -67.38013505) (layer F.SilkS) (width 0.12))
  (fp_line (start -1.55 0.9) (end -1.55 -2.6) (layer F.Fab) (width 0.12))
  (fp_line (start -1.55 -2.6) (end 12.95 -2.6) (layer F.Fab) (width 0.12))
  (fp_line (start 12.95 -2.6) (end 12.95 0.9) (layer F.Fab) (width 0.12))
  (fp_line (start 12.95 0.9) (end -1.55 0.9) (layer F.Fab) (width 0.12))
  (fp_line (start 0.55 -2.6) (end 0.55 0.9) (layer F.Fab) (width 0.12))
  (fp_line (start -1.55 -2.6) (end 12.95 -2.6) (layer F.SilkS) (width 0.12))
  (fp_line (start 12.95 -2.6) (end 12.95 0.9) (layer F.SilkS) (width 0.12))
  (fp_line (start 12.95 0.9) (end 12.75 0.9) (layer F.SilkS) (width 0.12))
  (fp_line (start 10.1 0.9) (end 8.9 0.9) (layer F.SilkS) (width 0.12))
  (fp_line (start 6.3 0.9) (end 5.15 0.9) (layer F.SilkS) (width 0.12))
  (fp_line (start 2.5 0.9) (end 1.5 0.9) (layer F.SilkS) (width 0.12))
  (fp_line (start -1.45 0.9) (end -1.55 0.9) (layer F.SilkS) (width 0.12))
  (fp_line (start -1.55 0.9) (end -1.55 -2.6) (layer F.SilkS) (width 0.12))
  (fp_line (start 0.55 -2.6) (end 0.55 -1.45) (layer F.SilkS) (width 0.12))
  (fp_line (start 13.05 -2.7) (end -1.65 -2.7) (layer F.CrtYd) (width 0.05))
  (fp_line (start -1.65 -2.7) (end -1.65 1.25) (layer F.CrtYd) (width 0.05))
  (fp_line (start -1.65 1.25) (end 13.05 1.25) (layer F.CrtYd) (width 0.05))
  (fp_line (start 13.05 1.25) (end 13.05 -2.7) (layer F.CrtYd) (width 0.05))
  (pad 1 thru_hole rect (at 0 0 180) (size 2.4 2.4) (drill 1.2) (layers *.Cu *.Mask))
  (pad 2 thru_hole circle (at 3.81 0 180) (size 2.4 2.4) (drill 1.2) (layers *.Cu *.Mask))
  (pad 3 thru_hole circle (at 7.62 0 180) (size 2.4 2.4) (drill 1.2) (layers *.Cu *.Mask))
  (pad 4 thru_hole circle (at 11.43 0 180) (size 2.4 2.4) (drill 1.2) (layers *.Cu *.Mask))
)
