(module Diode_Bridge_GBJL (layer F.Cu) (tedit 601FBB17)
  (descr "GBJL rectifier package, 10/7.5mm pitch, see https://www.diodes.com/design/support/packaging/diodes-packaging/diodes-package-outlines-and-pad-layouts/")
  (tags "GBJL rectifier diode bridge")
  (fp_text reference REF** (at 12.6 -3.5) (layer F.SilkS)
    (effects (font (size 1 1) (thickness 0.15)))
  )
  (fp_text value Diode_Bridge_GBJL (at 12.6 2.8) (layer F.Fab)
    (effects (font (size 1 1) (thickness 0.15)))
  )
  (fp_line (start 27.1 0.9) (end 26.7 0.9) (layer F.SilkS) (width 0.12))
  (fp_line (start 19.2 0.9) (end 23.3 0.9) (layer F.SilkS) (width 0.12))
  (fp_line (start 11.7 0.9) (end 15.8 0.9) (layer F.SilkS) (width 0.12))
  (fp_line (start 1.9 0.9) (end 8.3 0.9) (layer F.SilkS) (width 0.12))
  (fp_line (start -1.9 1.9) (end -1.9 -2.7) (layer F.SilkS) (width 0.12))
  (fp_line (start 27.1 1.9) (end -1.9 1.9) (layer F.SilkS) (width 0.12))
  (fp_line (start 27.1 -2.7) (end 27.1 1.9) (layer F.SilkS) (width 0.12))
  (fp_line (start -1.9 -2.7) (end 27.1 -2.7) (layer F.SilkS) (width 0.12))
  (fp_line (start -1.9 0.9) (end 27.1 0.9) (layer F.Fab) (width 0.12))
  (fp_line (start 27.1 -2.7) (end -1.9 -2.7) (layer F.Fab) (width 0.12))
  (fp_line (start 27.1 1.9) (end 27.1 -2.7) (layer F.Fab) (width 0.12))
  (fp_line (start -1.9 1.9) (end 27.1 1.9) (layer F.Fab) (width 0.12))
  (fp_line (start -1.9 -2.7) (end -1.9 1.9) (layer F.Fab) (width 0.12))
  (fp_text user %R (at 13.7 0) (layer F.Fab)
    (effects (font (size 1 1) (thickness 0.15)))
  )
  (fp_text user + (at 0 2.586) (layer F.SilkS)
    (effects (font (size 1 1) (thickness 0.15)))
  )
  (fp_arc (start 9.698998 2.967) (end 9.952997 2.586001) (angle -67.38013505) (layer F.SilkS) (width 0.12))
  (fp_arc (start 10.206999 2.205001) (end 9.953 2.586) (angle -67.38013505) (layer F.SilkS) (width 0.12))
  (fp_arc (start 17.706999 2.205001) (end 17.453 2.586) (angle -67.38013505) (layer F.SilkS) (width 0.12))
  (fp_arc (start 17.198998 2.967) (end 17.452997 2.586001) (angle -67.38013505) (layer F.SilkS) (width 0.12))
  (fp_text user - (at 25 2.586) (layer F.SilkS)
    (effects (font (size 1 1) (thickness 0.15)))
  )
  (fp_line (start -2 -2.8) (end 27.2 -2.8) (layer F.CrtYd) (width 0.05))
  (fp_line (start 27.2 -2.8) (end 27.2 2) (layer F.CrtYd) (width 0.05))
  (fp_line (start 27.2 2) (end -2 2) (layer F.CrtYd) (width 0.05))
  (fp_line (start -2 2) (end -2 -2.8) (layer F.CrtYd) (width 0.05))
  (pad 1 thru_hole rect (at 0 0 180) (size 3.2 3.2) (drill 1.6) (layers *.Cu *.Mask))
  (pad 2 thru_hole circle (at 10 0 180) (size 3.2 3.2) (drill 1.6) (layers *.Cu *.Mask))
  (pad 3 thru_hole circle (at 17.5 0 180) (size 3.2 3.2) (drill 1.6) (layers *.Cu *.Mask))
  (pad 4 thru_hole circle (at 25 0 180) (size 3.2 3.2) (drill 1.6) (layers *.Cu *.Mask))
)
