(module Diode_Bridge_Vishay_KBL (layer F.Cu) (tedit 60127D83)
  (descr "Vishay KBL rectifier package, 5.08mm pitch, see http://www.vishay.com/docs/88655/kbl005.pdf")
  (tags "Vishay KBL rectifier diode bridge")
  (fp_text reference REF** (at 7.8 -4.95) (layer F.SilkS)
    (effects (font (size 1 1) (thickness 0.15)))
  )
  (fp_text value Diode_Bridge_Vishay_KBL (at 7.75 3.55) (layer F.Fab)
    (effects (font (size 1 1) (thickness 0.15)))
  )
  (fp_line (start -2.159 -3.175) (end -1.27 -4.191) (layer F.SilkS) (width 0.12))
  (fp_line (start 0.65 2.05) (end 0.65 2.45) (layer F.SilkS) (width 0.12))
  (fp_line (start 0.65 -1.9) (end 0.65 -4.25) (layer F.SilkS) (width 0.12))
  (fp_line (start 0.65 -4.15) (end 0.65 2.35) (layer F.Fab) (width 0.12))
  (fp_line (start -2.2 -4.25) (end -2.2 2.45) (layer F.SilkS) (width 0.12))
  (fp_line (start 17.5 -4.25) (end -2.2 -4.25) (layer F.SilkS) (width 0.12))
  (fp_line (start 17.5 2.45) (end 17.5 -4.25) (layer F.SilkS) (width 0.12))
  (fp_line (start -2.2 2.45) (end 17.5 2.45) (layer F.SilkS) (width 0.12))
  (fp_line (start -2.1 -3.15) (end -2.1 2.35) (layer F.Fab) (width 0.1))
  (fp_line (start -1.2 -4.15) (end -2.1 -3.15) (layer F.Fab) (width 0.1))
  (fp_line (start 17.4 -4.15) (end -1.2 -4.15) (layer F.Fab) (width 0.1))
  (fp_line (start 17.4 2.35) (end 17.4 -4.15) (layer F.Fab) (width 0.12))
  (fp_line (start -2.1 2.35) (end 17.4 2.35) (layer F.Fab) (width 0.1))
  (fp_line (start -2.35 -4.4) (end 17.65 -4.4) (layer F.CrtYd) (width 0.05))
  (fp_line (start -2.35 -4.4) (end -2.35 2.6) (layer F.CrtYd) (width 0.05))
  (fp_line (start 17.65 2.6) (end 17.65 -4.4) (layer F.CrtYd) (width 0.05))
  (fp_line (start 17.65 2.6) (end -2.35 2.6) (layer F.CrtYd) (width 0.05))
  (fp_text user %R (at 7.75 -2.75) (layer F.Fab)
    (effects (font (size 1 1) (thickness 0.15)))
  )
  (fp_text user + (at 0 3.302) (layer F.SilkS)
    (effects (font (size 1 1) (thickness 0.15)))
  )
  (fp_text user - (at 15.24 3.302) (layer F.SilkS)
    (effects (font (size 1 1) (thickness 0.15)))
  )
  (fp_arc (start 4.825998 3.683) (end 5.079997 3.302001) (angle -67.38013505) (layer F.SilkS) (width 0.12))
  (fp_arc (start 5.333999 2.921001) (end 5.08 3.302) (angle -67.38013505) (layer F.SilkS) (width 0.12))
  (fp_arc (start 9.905998 3.683) (end 10.159997 3.302001) (angle -67.38013505) (layer F.SilkS) (width 0.12))
  (fp_arc (start 10.413999 2.921001) (end 10.16 3.302) (angle -67.38013505) (layer F.SilkS) (width 0.12))
  (pad 1 thru_hole rect (at 0 0) (size 2.8 2.8) (drill 1.4) (layers *.Cu *.Mask))
  (pad 2 thru_hole circle (at 5.08 0) (size 2.8 2.8) (drill 1.4) (layers *.Cu *.Mask))
  (pad 3 thru_hole circle (at 10.16 0) (size 2.8 2.8) (drill 1.4) (layers *.Cu *.Mask))
  (pad 4 thru_hole circle (at 15.24 0) (size 2.8 2.8) (drill 1.4) (layers *.Cu *.Mask))
  (model ${KISYS3DMOD}/Diode_THT.3dshapes/Diode_Bridge_Vishay_KBL.wrl
    (at (xyz 0 0 0))
    (scale (xyz 1 1 1))
    (rotate (xyz 0 0 0))
  )
)
