(module Diode_Bridge_Round_D8.9mm (layer F.Cu) (tedit 60127D0F)
  (descr "4-lead round diode bridge package, diameter 8.9mm, pin pitch 5.08mm, see http://cdn-reichelt.de/documents/datenblatt/A400/W005M-W10M_SEP.PDF")
  (tags "diode bridge 8.9mm 8.85mm WOB pitch 5.08mm")
  (fp_text reference REF** (at 2.54 -2.794) (layer F.SilkS)
    (effects (font (size 1 1) (thickness 0.15)))
  )
  (fp_text value Diode_Bridge_Round_D8.9mm (at 2.794 8.128) (layer F.Fab)
    (effects (font (size 1 1) (thickness 0.15)))
  )
  (fp_line (start -1 1.2) (end -1 4.4) (layer F.SilkS) (width 0.12))
  (fp_line (start -0.9 -0.2) (end -0.9 5.3) (layer F.Fab) (width 0.12))
  (fp_line (start -1.25 -2.11) (end 7.19 -2.11) (layer F.CrtYd) (width 0.05))
  (fp_line (start -1.25 -2.11) (end -1.25 7.19) (layer F.CrtYd) (width 0.05))
  (fp_line (start 7.19 7.19) (end 7.19 -2.11) (layer F.CrtYd) (width 0.05))
  (fp_line (start 7.19 7.19) (end -1.25 7.19) (layer F.CrtYd) (width 0.05))
  (fp_arc (start 2.54 2.54) (end -0.9 -0.2) (angle 283) (layer F.Fab) (width 0.12))
  (fp_arc (start 2.54 2.54) (end 0 -1.143) (angle 70) (layer F.SilkS) (width 0.12))
  (fp_arc (start 2.54 2.54) (end 6.35 0.254) (angle 62) (layer F.SilkS) (width 0.12))
  (fp_arc (start 2.54 2.54) (end 5.08 6.223) (angle 70) (layer F.SilkS) (width 0.12))
  (fp_text user %R (at 3.81 2.54) (layer F.Fab)
    (effects (font (size 1 1) (thickness 0.15)))
  )
  (fp_text user + (at -0.635 -1.905) (layer F.SilkS)
    (effects (font (size 1 1) (thickness 0.15)))
  )
  (fp_text user - (at 6.35 6.477) (layer F.SilkS)
    (effects (font (size 1 1) (thickness 0.15)))
  )
  (pad 1 thru_hole rect (at 0 0) (size 2 2) (drill 1) (layers *.Cu *.Mask))
  (pad 3 thru_hole oval (at 5.08 5.08) (size 2 2) (drill 1) (layers *.Cu *.Mask))
  (pad 2 thru_hole oval (at 0 5.08) (size 2 2) (drill 1) (layers *.Cu *.Mask))
  (pad 4 thru_hole oval (at 5.08 0) (size 2 2) (drill 1) (layers *.Cu *.Mask))
  (model ${KISYS3DMOD}/Diode_THT.3dshapes/Diode_Bridge_Round_D8.9mm.wrl
    (at (xyz 0 0 0))
    (scale (xyz 1 1 1))
    (rotate (xyz 0 0 0))
  )
)
