(module Diodes_SO-8EP (layer F.Cu) (tedit 607FD8BF)
  (descr "8-Lead Plastic SO, Exposed Die Pad (see https://www.diodes.com/assets/Package-Files/SO-8EP.pdf), Alternate KiCad Library")
  (tags "SO exposed pad")
  (attr smd)
  (fp_text reference REF** (at 0 -3.3) (layer F.SilkS)
    (effects (font (size 1 1) (thickness 0.15)))
  )
  (fp_text value Diodes_SO-8EP (at 0 3.4) (layer F.Fab)
    (effects (font (size 1 1) (thickness 0.15)))
  )
  (fp_line (start -3.556 2.667) (end -3.556 -2.2225) (layer F.SilkS) (width 0.12))
  (fp_line (start 3.556 2.667) (end -3.556 2.667) (layer F.SilkS) (width 0.12))
  (fp_line (start 3.556 -2.667) (end 3.556 2.667) (layer F.SilkS) (width 0.12))
  (fp_line (start 3.4925 -2.667) (end 3.556 -2.667) (layer F.SilkS) (width 0.12))
  (fp_line (start -3.1115 -2.667) (end 3.4925 -2.667) (layer F.SilkS) (width 0.12))
  (fp_line (start -3.5 2.55) (end 3.5 2.55) (layer F.CrtYd) (width 0.05))
  (fp_line (start -3.5 -2.55) (end 3.5 -2.55) (layer F.CrtYd) (width 0.05))
  (fp_line (start 3.5 -2.55) (end 3.5 2.55) (layer F.CrtYd) (width 0.05))
  (fp_line (start -3.5 -2.55) (end -3.5 2.55) (layer F.CrtYd) (width 0.05))
  (fp_line (start -1.95 -1.45) (end -0.95 -2.45) (layer F.Fab) (width 0.15))
  (fp_line (start -1.95 2.45) (end -1.95 -1.45) (layer F.Fab) (width 0.15))
  (fp_line (start 1.95 2.45) (end -1.95 2.45) (layer F.Fab) (width 0.15))
  (fp_line (start 1.95 -2.45) (end 1.95 2.45) (layer F.Fab) (width 0.15))
  (fp_line (start -0.95 -2.45) (end 1.95 -2.45) (layer F.Fab) (width 0.15))
  (fp_circle (center -3.4925 -2.6035) (end -3.429 -2.6035) (layer F.SilkS) (width 0.3))
  (fp_text user %R (at 0 0) (layer F.Fab)
    (effects (font (size 1 1) (thickness 0.15)))
  )
  (pad 9 smd rect (at 0 0) (size 2.613 3.502) (layers F.Cu F.Paste F.Mask)
    (solder_paste_margin_ratio -0.2))
  (pad 8 smd rect (at 2.4975 -1.905) (size 1.505 0.802) (layers F.Cu F.Paste F.Mask))
  (pad 7 smd rect (at 2.4975 -0.635) (size 1.505 0.802) (layers F.Cu F.Paste F.Mask))
  (pad 6 smd rect (at 2.4975 0.635) (size 1.505 0.802) (layers F.Cu F.Paste F.Mask))
  (pad 5 smd rect (at 2.4975 1.905) (size 1.505 0.802) (layers F.Cu F.Paste F.Mask))
  (pad 4 smd rect (at -2.4975 1.905) (size 1.505 0.802) (layers F.Cu F.Paste F.Mask))
  (pad 3 smd rect (at -2.4975 0.635) (size 1.505 0.802) (layers F.Cu F.Paste F.Mask))
  (pad 2 smd rect (at -2.4975 -0.635) (size 1.505 0.802) (layers F.Cu F.Paste F.Mask))
  (pad 1 smd rect (at -2.4975 -1.905) (size 1.505 0.802) (layers F.Cu F.Paste F.Mask))
  (model ${KISYS3DMOD}/Package_SO.3dshapes/Diodes_SO-8EP.wrl
    (at (xyz 0 0 0))
    (scale (xyz 1 1 1))
    (rotate (xyz 0 0 0))
  )
)
