(module ETSSOP-20-1EP_4.4x6.5mm_P0.65mm_EP3x4.2mm (layer F.Cu) (tedit 607FD8C5)
  (descr "20-Lead Plastic Thin Shrink Small Outline (ST)-4.4 mm Body with Exposed Pad [eTSSOP] (see Microchip Packaging Specification 00000049BS.pdf), Alternate KiCad Library")
  (tags "SSOP 0.65")
  (attr smd)
  (fp_text reference REF** (at 0 -4.3) (layer F.SilkS)
    (effects (font (size 1 1) (thickness 0.15)))
  )
  (fp_text value ETSSOP-20-1EP_4.4x6.5mm_P0.65mm_EP3x4.2mm (at 0 4.4) (layer F.Fab)
    (effects (font (size 1 1) (thickness 0.15)))
  )
  (fp_line (start 3.937 -2.925) (end 4.318 -2.925) (layer F.SilkS) (width 0.12))
  (fp_line (start 3.937 0.325) (end 4.191 0.325) (layer F.SilkS) (width 0.12))
  (fp_line (start -3.937 2.925) (end -4.318 2.925) (layer F.SilkS) (width 0.12))
  (fp_line (start -3.937 -0.325) (end -4.191 -0.325) (layer F.SilkS) (width 0.12))
  (fp_circle (center -3.8735 -3.4925) (end -3.81 -3.4925) (layer F.SilkS) (width 0.3))
  (fp_line (start -1.2 -3.25) (end 2.2 -3.25) (layer F.Fab) (width 0.15))
  (fp_line (start 2.2 -3.25) (end 2.2 3.25) (layer F.Fab) (width 0.15))
  (fp_line (start 2.2 3.25) (end -2.2 3.25) (layer F.Fab) (width 0.15))
  (fp_line (start -2.2 3.25) (end -2.2 -2.25) (layer F.Fab) (width 0.15))
  (fp_line (start -2.2 -2.25) (end -1.2 -3.25) (layer F.Fab) (width 0.15))
  (fp_line (start -3.95 -3.55) (end -3.95 3.55) (layer F.CrtYd) (width 0.05))
  (fp_line (start 3.95 -3.55) (end 3.95 3.55) (layer F.CrtYd) (width 0.05))
  (fp_line (start -3.95 -3.55) (end 3.95 -3.55) (layer F.CrtYd) (width 0.05))
  (fp_line (start -3.95 3.55) (end 3.95 3.55) (layer F.CrtYd) (width 0.05))
  (fp_line (start -3.4925 -3.556) (end 3.937 -3.556) (layer F.SilkS) (width 0.12))
  (fp_line (start 3.937 -3.556) (end 3.937 3.556) (layer F.SilkS) (width 0.12))
  (fp_line (start 3.937 3.556) (end -3.937 3.556) (layer F.SilkS) (width 0.12))
  (fp_line (start -3.937 3.556) (end -3.937 -3.1115) (layer F.SilkS) (width 0.12))
  (fp_text user %R (at 0 0) (layer F.Fab)
    (effects (font (size 0.8 0.8) (thickness 0.15)))
  )
  (pad "" smd rect (at 0.75 1.4) (size 1.2 1.14) (layers F.Paste))
  (pad "" smd rect (at -0.75 1.4) (size 1.2 1.14) (layers F.Paste))
  (pad "" smd rect (at 0.75 0) (size 1.2 1.14) (layers F.Paste))
  (pad "" smd rect (at -0.75 0) (size 1.2 1.14) (layers F.Paste))
  (pad "" smd rect (at -0.75 -1.4) (size 1.2 1.14) (layers F.Paste))
  (pad "" smd rect (at 0.75 -1.4) (size 1.2 1.14) (layers F.Paste))
  (pad 21 smd rect (at 0 0) (size 3 4.2) (layers F.Cu F.Paste F.Mask))
  (pad 20 smd rect (at 2.95 -2.925) (size 1.45 0.45) (layers F.Cu F.Paste F.Mask))
  (pad 19 smd rect (at 2.95 -2.275) (size 1.45 0.45) (layers F.Cu F.Paste F.Mask))
  (pad 18 smd rect (at 2.95 -1.625) (size 1.45 0.45) (layers F.Cu F.Paste F.Mask))
  (pad 17 smd rect (at 2.95 -0.975) (size 1.45 0.45) (layers F.Cu F.Paste F.Mask))
  (pad 16 smd rect (at 2.95 -0.325) (size 1.45 0.45) (layers F.Cu F.Paste F.Mask))
  (pad 15 smd rect (at 2.95 0.325) (size 1.45 0.45) (layers F.Cu F.Paste F.Mask))
  (pad 14 smd rect (at 2.95 0.975) (size 1.45 0.45) (layers F.Cu F.Paste F.Mask))
  (pad 13 smd rect (at 2.95 1.625) (size 1.45 0.45) (layers F.Cu F.Paste F.Mask))
  (pad 12 smd rect (at 2.95 2.275) (size 1.45 0.45) (layers F.Cu F.Paste F.Mask))
  (pad 11 smd rect (at 2.95 2.925) (size 1.45 0.45) (layers F.Cu F.Paste F.Mask))
  (pad 10 smd rect (at -2.95 2.925) (size 1.45 0.45) (layers F.Cu F.Paste F.Mask))
  (pad 9 smd rect (at -2.95 2.275) (size 1.45 0.45) (layers F.Cu F.Paste F.Mask))
  (pad 8 smd rect (at -2.95 1.625) (size 1.45 0.45) (layers F.Cu F.Paste F.Mask))
  (pad 7 smd rect (at -2.95 0.975) (size 1.45 0.45) (layers F.Cu F.Paste F.Mask))
  (pad 6 smd rect (at -2.95 0.325) (size 1.45 0.45) (layers F.Cu F.Paste F.Mask))
  (pad 5 smd rect (at -2.95 -0.325) (size 1.45 0.45) (layers F.Cu F.Paste F.Mask))
  (pad 4 smd rect (at -2.95 -0.975) (size 1.45 0.45) (layers F.Cu F.Paste F.Mask))
  (pad 3 smd rect (at -2.95 -1.625) (size 1.45 0.45) (layers F.Cu F.Paste F.Mask))
  (pad 2 smd rect (at -2.95 -2.275) (size 1.45 0.45) (layers F.Cu F.Paste F.Mask))
  (pad 1 smd rect (at -2.95 -2.925) (size 1.45 0.45) (layers F.Cu F.Paste F.Mask))
  (model ${KISYS3DMOD}/Package_SO.3dshapes/ETSSOP-20-1EP_4.4x6.5mm_P0.65mm_EP3x4.2mm.wrl
    (at (xyz 0 0 0))
    (scale (xyz 1 1 1))
    (rotate (xyz 0 0 0))
  )
)
