(module HSOP-36-1EP_11.0x15.9mm_P0.65mm_SlugDown_ThermalVias (layer F.Cu) (tedit 607FD8FF)
  (descr "HSOP 11.0x15.9mm Pitch 0.65mm Slug Down Thermal Vias (PowerSO-36) [JEDEC MO-166] (http://www.st.com/resource/en/datasheet/vn808cm-32-e.pdf, http://www.st.com/resource/en/application_note/cd00003801.pdf), Alternate KiCad Library")
  (tags "HSOP 11.0 x 15.9mm Pitch 0.65mm")
  (attr smd)
  (fp_text reference REF** (at 0 -9) (layer F.SilkS)
    (effects (font (size 1 1) (thickness 0.15)))
  )
  (fp_text value HSOP-36-1EP_11.0x15.9mm_P0.65mm_SlugDown_ThermalVias (at 0 9) (layer F.Fab)
    (effects (font (size 1 1) (thickness 0.15)))
  )
  (fp_line (start 8.001 -4.875) (end 8.255 -4.875) (layer F.SilkS) (width 0.12))
  (fp_line (start 8.001 -1.625) (end 8.382 -1.625) (layer F.SilkS) (width 0.12))
  (fp_line (start 8.001 1.625) (end 8.255 1.625) (layer F.SilkS) (width 0.12))
  (fp_line (start 8.001 4.875) (end 8.382 4.875) (layer F.SilkS) (width 0.12))
  (fp_line (start -8.001 3.575) (end -8.255 3.575) (layer F.SilkS) (width 0.12))
  (fp_line (start -8.001 0.325) (end -8.382 0.325) (layer F.SilkS) (width 0.12))
  (fp_line (start -8.001 -2.925) (end -8.255 -2.925) (layer F.SilkS) (width 0.12))
  (fp_line (start 8.001 -8.3185) (end -7.239 -8.3185) (layer F.SilkS) (width 0.12))
  (fp_line (start 8.001 8.3185) (end 8.001 -8.3185) (layer F.SilkS) (width 0.12))
  (fp_line (start -8.001 8.3185) (end 8.001 8.3185) (layer F.SilkS) (width 0.12))
  (fp_line (start -8.001 -7.5565) (end -8.001 8.3185) (layer F.SilkS) (width 0.12))
  (fp_line (start -8.001 -7.5565) (end -7.239 -8.3185) (layer F.SilkS) (width 0.12))
  (fp_line (start 7.95 8.3) (end -7.95 8.3) (layer F.CrtYd) (width 0.05))
  (fp_line (start 7.95 8.3) (end 7.95 -8.3) (layer F.CrtYd) (width 0.05))
  (fp_line (start -7.95 -8.3) (end -7.95 8.3) (layer F.CrtYd) (width 0.05))
  (fp_line (start -7.95 -8.3) (end 7.95 -8.3) (layer F.CrtYd) (width 0.05))
  (fp_line (start -5.5 -6.95) (end -5.5 7.95) (layer F.Fab) (width 0.1))
  (fp_line (start -4.5 -7.95) (end -5.5 -6.95) (layer F.Fab) (width 0.1))
  (fp_line (start 5.5 -7.95) (end -4.5 -7.95) (layer F.Fab) (width 0.1))
  (fp_line (start 5.5 7.95) (end 5.5 -7.95) (layer F.Fab) (width 0.1))
  (fp_line (start -5.5 7.95) (end 5.5 7.95) (layer F.Fab) (width 0.1))
  (fp_circle (center -7.0485 -7.366) (end -6.985 -7.366) (layer F.SilkS) (width 0.4))
  (fp_text user %R (at 0 0) (layer F.Fab)
    (effects (font (size 1 1) (thickness 0.15)))
  )
  (pad 37 smd rect (at 0 0) (size 6.78 11.86) (layers B.Cu B.Mask))
  (pad 37 thru_hole circle (at -1.27 -5.08) (size 1 1) (drill 0.7) (layers *.Cu))
  (pad 37 thru_hole circle (at 0 -5.08) (size 1 1) (drill 0.7) (layers *.Cu))
  (pad 37 thru_hole circle (at 1.27 -5.08) (size 1 1) (drill 0.7) (layers *.Cu))
  (pad 37 thru_hole circle (at -2.54 -2.54) (size 1 1) (drill 0.7) (layers *.Cu))
  (pad 37 thru_hole circle (at -1.27 -2.54) (size 1 1) (drill 0.7) (layers *.Cu))
  (pad 37 thru_hole circle (at 0 -2.54) (size 1 1) (drill 0.7) (layers *.Cu))
  (pad 37 thru_hole circle (at 1.27 -2.54) (size 1 1) (drill 0.7) (layers *.Cu))
  (pad 37 thru_hole circle (at 2.54 -2.54) (size 1 1) (drill 0.7) (layers *.Cu))
  (pad 37 thru_hole circle (at -2.54 0) (size 1 1) (drill 0.7) (layers *.Cu))
  (pad 37 thru_hole circle (at -1.27 0) (size 1 1) (drill 0.7) (layers *.Cu))
  (pad 37 thru_hole circle (at 0 0) (size 1 1) (drill 0.7) (layers *.Cu))
  (pad 37 thru_hole circle (at 1.27 0) (size 1 1) (drill 0.7) (layers *.Cu))
  (pad 37 thru_hole circle (at 2.54 0) (size 1 1) (drill 0.7) (layers *.Cu))
  (pad 37 thru_hole circle (at -2.54 2.54) (size 1 1) (drill 0.7) (layers *.Cu))
  (pad 37 thru_hole circle (at -1.27 2.54) (size 1 1) (drill 0.7) (layers *.Cu))
  (pad 37 thru_hole circle (at 0 2.54) (size 1 1) (drill 0.7) (layers *.Cu))
  (pad 37 thru_hole circle (at 1.27 2.54) (size 1 1) (drill 0.7) (layers *.Cu))
  (pad 37 thru_hole circle (at 2.54 2.54) (size 1 1) (drill 0.7) (layers *.Cu))
  (pad 37 thru_hole circle (at -1.27 5.08) (size 1 1) (drill 0.7) (layers *.Cu))
  (pad 37 thru_hole circle (at 0 5.08) (size 1 1) (drill 0.7) (layers *.Cu))
  (pad 37 thru_hole circle (at 1.27 5.08) (size 1 1) (drill 0.7) (layers *.Cu))
  (pad 37 smd rect (at 0 6.8425) (size 3.4 2.415) (layers F.Cu F.Paste F.Mask))
  (pad 37 smd rect (at 0 -6.8425) (size 3.4 2.415) (layers F.Cu F.Paste F.Mask))
  (pad 37 smd rect (at 0 0) (size 6.4 11.27) (layers F.Cu F.Paste F.Mask))
  (pad 36 smd rect (at 6.85 -5.525) (size 1.7 0.38) (layers F.Cu F.Paste F.Mask))
  (pad 35 smd rect (at 6.85 -4.875) (size 1.7 0.38) (layers F.Cu F.Paste F.Mask))
  (pad 34 smd rect (at 6.85 -4.225) (size 1.7 0.38) (layers F.Cu F.Paste F.Mask))
  (pad 33 smd rect (at 6.85 -3.575) (size 1.7 0.38) (layers F.Cu F.Paste F.Mask))
  (pad 32 smd rect (at 6.85 -2.925) (size 1.7 0.38) (layers F.Cu F.Paste F.Mask))
  (pad 31 smd rect (at 6.85 -2.275) (size 1.7 0.38) (layers F.Cu F.Paste F.Mask))
  (pad 30 smd rect (at 6.85 -1.625) (size 1.7 0.38) (layers F.Cu F.Paste F.Mask))
  (pad 29 smd rect (at 6.85 -0.975) (size 1.7 0.38) (layers F.Cu F.Paste F.Mask))
  (pad 28 smd rect (at 6.85 -0.325) (size 1.7 0.38) (layers F.Cu F.Paste F.Mask))
  (pad 27 smd rect (at 6.85 0.325) (size 1.7 0.38) (layers F.Cu F.Paste F.Mask))
  (pad 26 smd rect (at 6.85 0.975) (size 1.7 0.38) (layers F.Cu F.Paste F.Mask))
  (pad 25 smd rect (at 6.85 1.625) (size 1.7 0.38) (layers F.Cu F.Paste F.Mask))
  (pad 24 smd rect (at 6.85 2.275) (size 1.7 0.38) (layers F.Cu F.Paste F.Mask))
  (pad 23 smd rect (at 6.85 2.925) (size 1.7 0.38) (layers F.Cu F.Paste F.Mask))
  (pad 22 smd rect (at 6.85 3.575) (size 1.7 0.38) (layers F.Cu F.Paste F.Mask))
  (pad 21 smd rect (at 6.85 4.225) (size 1.7 0.38) (layers F.Cu F.Paste F.Mask))
  (pad 20 smd rect (at 6.85 4.875) (size 1.7 0.38) (layers F.Cu F.Paste F.Mask))
  (pad 18 smd rect (at -6.85 5.525) (size 1.7 0.38) (layers F.Cu F.Paste F.Mask))
  (pad 17 smd rect (at -6.85 4.875) (size 1.7 0.38) (layers F.Cu F.Paste F.Mask))
  (pad 16 smd rect (at -6.85 4.225) (size 1.7 0.38) (layers F.Cu F.Paste F.Mask))
  (pad 15 smd rect (at -6.85 3.575) (size 1.7 0.38) (layers F.Cu F.Paste F.Mask))
  (pad 14 smd rect (at -6.85 2.925) (size 1.7 0.38) (layers F.Cu F.Paste F.Mask))
  (pad 13 smd rect (at -6.85 2.275) (size 1.7 0.38) (layers F.Cu F.Paste F.Mask))
  (pad 12 smd rect (at -6.85 1.625) (size 1.7 0.38) (layers F.Cu F.Paste F.Mask))
  (pad 11 smd rect (at -6.85 0.975) (size 1.7 0.38) (layers F.Cu F.Paste F.Mask))
  (pad 10 smd rect (at -6.85 0.325) (size 1.7 0.38) (layers F.Cu F.Paste F.Mask))
  (pad 9 smd rect (at -6.85 -0.325) (size 1.7 0.38) (layers F.Cu F.Paste F.Mask))
  (pad 8 smd rect (at -6.85 -0.975) (size 1.7 0.38) (layers F.Cu F.Paste F.Mask))
  (pad 7 smd rect (at -6.85 -1.625) (size 1.7 0.38) (layers F.Cu F.Paste F.Mask))
  (pad 6 smd rect (at -6.85 -2.275) (size 1.7 0.38) (layers F.Cu F.Paste F.Mask))
  (pad 5 smd rect (at -6.85 -2.925) (size 1.7 0.38) (layers F.Cu F.Paste F.Mask))
  (pad 4 smd rect (at -6.85 -3.575) (size 1.7 0.38) (layers F.Cu F.Paste F.Mask))
  (pad 3 smd rect (at -6.85 -4.225) (size 1.7 0.38) (layers F.Cu F.Paste F.Mask))
  (pad 2 smd rect (at -6.85 -4.875) (size 1.7 0.38) (layers F.Cu F.Paste F.Mask))
  (pad 19 smd rect (at 6.85 5.525) (size 1.7 0.38) (layers F.Cu F.Paste F.Mask))
  (pad 1 smd rect (at -6.85 -5.525) (size 1.7 0.38) (layers F.Cu F.Paste F.Mask))
  (model ${KISYS3DMOD}/Package_SO.3dshapes/HSOP-36-1EP_11.0x15.9mm_P0.65mm_SlugDown.wrl
    (at (xyz 0 0 0))
    (scale (xyz 1 1 1))
    (rotate (xyz 0 0 0))
  )
)
