(module HTSSOP-16-1EP_4.4x5mm_P0.65mm_EP3x3mm (layer F.Cu) (tedit 607FD94D)
  (descr "HTSSOP, 16 Pin (https://www.st.com/resource/en/datasheet/stp08cp05.pdf#page=20), Alternate KiCad Library")
  (tags "HTSSOP SO")
  (attr smd)
  (fp_text reference REF** (at 0 -3.45) (layer F.SilkS)
    (effects (font (size 1 1) (thickness 0.15)))
  )
  (fp_text value HTSSOP-16-1EP_4.4x5mm_P0.65mm_EP3x3mm (at 0 3.45) (layer F.Fab)
    (effects (font (size 1 1) (thickness 0.15)))
  )
  (fp_line (start -3.937 2.794) (end -3.937 -2.3495) (layer F.SilkS) (width 0.12))
  (fp_line (start 3.937 -2.794) (end 3.937 2.794) (layer F.SilkS) (width 0.12))
  (fp_circle (center -3.8735 -2.7305) (end -3.81 -2.7305) (layer F.SilkS) (width 0.3))
  (fp_line (start -3.4925 -2.794) (end 3.937 -2.794) (layer F.SilkS) (width 0.12))
  (fp_line (start 3.937 2.794) (end -3.937 2.794) (layer F.SilkS) (width 0.12))
  (fp_line (start 3.9 -2.75) (end -3.9 -2.75) (layer F.CrtYd) (width 0.05))
  (fp_line (start 3.9 2.75) (end 3.9 -2.75) (layer F.CrtYd) (width 0.05))
  (fp_line (start -3.9 2.75) (end 3.9 2.75) (layer F.CrtYd) (width 0.05))
  (fp_line (start -3.9 -2.75) (end -3.9 2.75) (layer F.CrtYd) (width 0.05))
  (fp_line (start -2.2 -1.5) (end -1.2 -2.5) (layer F.Fab) (width 0.1))
  (fp_line (start -2.2 2.5) (end -2.2 -1.5) (layer F.Fab) (width 0.1))
  (fp_line (start 2.2 2.5) (end -2.2 2.5) (layer F.Fab) (width 0.1))
  (fp_line (start 2.2 -2.5) (end 2.2 2.5) (layer F.Fab) (width 0.1))
  (fp_line (start -1.2 -2.5) (end 2.2 -2.5) (layer F.Fab) (width 0.1))
  (fp_text user %R (at 0 0) (layer F.Fab)
    (effects (font (size 1 1) (thickness 0.15)))
  )
  (pad "" smd roundrect (at 0.75 0.75) (size 1.21 1.21) (layers F.Paste) (roundrect_rratio 0.206612))
  (pad "" smd roundrect (at 0.75 -0.75) (size 1.21 1.21) (layers F.Paste) (roundrect_rratio 0.206612))
  (pad "" smd roundrect (at -0.75 0.75) (size 1.21 1.21) (layers F.Paste) (roundrect_rratio 0.206612))
  (pad "" smd roundrect (at -0.75 -0.75) (size 1.21 1.21) (layers F.Paste) (roundrect_rratio 0.206612))
  (pad 17 smd rect (at 0 0) (size 3 3) (layers F.Cu F.Mask))
  (pad 16 smd roundrect (at 2.875 -2.275) (size 1.55 0.4) (layers F.Cu F.Paste F.Mask) (roundrect_rratio 0.25))
  (pad 15 smd roundrect (at 2.875 -1.625) (size 1.55 0.4) (layers F.Cu F.Paste F.Mask) (roundrect_rratio 0.25))
  (pad 14 smd roundrect (at 2.875 -0.975) (size 1.55 0.4) (layers F.Cu F.Paste F.Mask) (roundrect_rratio 0.25))
  (pad 13 smd roundrect (at 2.875 -0.325) (size 1.55 0.4) (layers F.Cu F.Paste F.Mask) (roundrect_rratio 0.25))
  (pad 12 smd roundrect (at 2.875 0.325) (size 1.55 0.4) (layers F.Cu F.Paste F.Mask) (roundrect_rratio 0.25))
  (pad 11 smd roundrect (at 2.875 0.975) (size 1.55 0.4) (layers F.Cu F.Paste F.Mask) (roundrect_rratio 0.25))
  (pad 10 smd roundrect (at 2.875 1.625) (size 1.55 0.4) (layers F.Cu F.Paste F.Mask) (roundrect_rratio 0.25))
  (pad 9 smd roundrect (at 2.875 2.275) (size 1.55 0.4) (layers F.Cu F.Paste F.Mask) (roundrect_rratio 0.25))
  (pad 8 smd roundrect (at -2.875 2.275) (size 1.55 0.4) (layers F.Cu F.Paste F.Mask) (roundrect_rratio 0.25))
  (pad 7 smd roundrect (at -2.875 1.625) (size 1.55 0.4) (layers F.Cu F.Paste F.Mask) (roundrect_rratio 0.25))
  (pad 6 smd roundrect (at -2.875 0.975) (size 1.55 0.4) (layers F.Cu F.Paste F.Mask) (roundrect_rratio 0.25))
  (pad 5 smd roundrect (at -2.875 0.325) (size 1.55 0.4) (layers F.Cu F.Paste F.Mask) (roundrect_rratio 0.25))
  (pad 4 smd roundrect (at -2.875 -0.325) (size 1.55 0.4) (layers F.Cu F.Paste F.Mask) (roundrect_rratio 0.25))
  (pad 3 smd roundrect (at -2.875 -0.975) (size 1.55 0.4) (layers F.Cu F.Paste F.Mask) (roundrect_rratio 0.25))
  (pad 2 smd roundrect (at -2.875 -1.625) (size 1.55 0.4) (layers F.Cu F.Paste F.Mask) (roundrect_rratio 0.25))
  (pad 1 smd roundrect (at -2.875 -2.275) (size 1.55 0.4) (layers F.Cu F.Paste F.Mask) (roundrect_rratio 0.25))
  (model ${KISYS3DMOD}/Package_SO.3dshapes/HTSSOP-16-1EP_4.4x5mm_P0.65mm_EP3x3mm.wrl
    (at (xyz 0 0 0))
    (scale (xyz 1 1 1))
    (rotate (xyz 0 0 0))
  )
)
