(module HTSSOP-14-1EP_4.4x5mm_P0.65mm_EP3.4x5mm_Mask3x3.1mm_ThermalVias (layer F.Cu) (tedit 607FD929)
  (descr "HTSSOP, 14 Pin (http://www.ti.com/lit/ds/symlink/lm5161.pdf#page=34), Alternate KiCad Library")
  (tags "HTSSOP SO")
  (attr smd)
  (fp_text reference REF** (at 0 -3.556) (layer F.SilkS)
    (effects (font (size 1 1) (thickness 0.15)))
  )
  (fp_text value HTSSOP-14-1EP_4.4x5mm_P0.65mm_EP3.4x5mm_Mask3x3.1mm_ThermalVias (at 0 3.45) (layer F.Fab)
    (effects (font (size 1 1) (thickness 0.15)))
  )
  (fp_line (start -3.937 -2.286) (end -3.937 2.794) (layer F.SilkS) (width 0.12))
  (fp_line (start -3.937 2.794) (end 3.937 2.794) (layer F.SilkS) (width 0.12))
  (fp_circle (center -3.7465 -2.6035) (end -3.683 -2.6035) (layer F.SilkS) (width 0.3))
  (fp_line (start 3.937 2.794) (end 3.937 -2.794) (layer F.SilkS) (width 0.12))
  (fp_line (start 3.937 -2.794) (end -3.429 -2.794) (layer F.SilkS) (width 0.12))
  (fp_line (start -1.2 -2.5) (end 2.2 -2.5) (layer F.Fab) (width 0.1))
  (fp_line (start 2.2 -2.5) (end 2.2 2.5) (layer F.Fab) (width 0.1))
  (fp_line (start 2.2 2.5) (end -2.2 2.5) (layer F.Fab) (width 0.1))
  (fp_line (start -2.2 2.5) (end -2.2 -1.5) (layer F.Fab) (width 0.1))
  (fp_line (start -2.2 -1.5) (end -1.2 -2.5) (layer F.Fab) (width 0.1))
  (fp_line (start -3.9 -2.75) (end -3.9 2.75) (layer F.CrtYd) (width 0.05))
  (fp_line (start -3.9 2.75) (end 3.9 2.75) (layer F.CrtYd) (width 0.05))
  (fp_line (start 3.9 2.75) (end 3.9 -2.75) (layer F.CrtYd) (width 0.05))
  (fp_line (start 3.9 -2.75) (end -3.9 -2.75) (layer F.CrtYd) (width 0.05))
  (fp_text user %R (at 0 0) (layer F.Fab)
    (effects (font (size 1 1) (thickness 0.15)))
  )
  (pad "" smd roundrect (at 0.75 0.775) (size 1.21 1.25) (layers F.Paste) (roundrect_rratio 0.206612))
  (pad "" smd roundrect (at 0.75 -0.775) (size 1.21 1.25) (layers F.Paste) (roundrect_rratio 0.206612))
  (pad "" smd roundrect (at -0.75 0.775) (size 1.21 1.25) (layers F.Paste) (roundrect_rratio 0.206612))
  (pad "" smd roundrect (at -0.75 -0.775) (size 1.21 1.25) (layers F.Paste) (roundrect_rratio 0.206612))
  (pad 15 smd rect (at 0 0) (size 3.2 5.8) (layers B.Cu B.Mask))
  (pad 15 thru_hole circle (at 1.3 1.3) (size 0.6 0.6) (drill 0.3) (layers *.Cu))
  (pad 15 thru_hole circle (at 0 1.3) (size 0.6 0.6) (drill 0.3) (layers *.Cu))
  (pad 15 thru_hole circle (at -1.3 1.3) (size 0.6 0.6) (drill 0.3) (layers *.Cu))
  (pad 15 thru_hole circle (at 1.3 0) (size 0.6 0.6) (drill 0.3) (layers *.Cu))
  (pad 15 thru_hole circle (at 0 0) (size 0.6 0.6) (drill 0.3) (layers *.Cu))
  (pad 15 thru_hole circle (at -1.3 0) (size 0.6 0.6) (drill 0.3) (layers *.Cu))
  (pad 15 thru_hole circle (at 1.3 -1.3) (size 0.6 0.6) (drill 0.3) (layers *.Cu))
  (pad 15 thru_hole circle (at 0 -1.3) (size 0.6 0.6) (drill 0.3) (layers *.Cu))
  (pad 15 thru_hole circle (at -1.3 -1.3) (size 0.6 0.6) (drill 0.3) (layers *.Cu))
  (pad 15 smd rect (at 0 0) (size 3.4 5) (layers F.Cu))
  (pad "" smd rect (at 0 0) (size 3 3.1) (layers F.Mask))
  (pad 14 smd roundrect (at 2.8625 -1.95) (size 1.575 0.4) (layers F.Cu F.Paste F.Mask) (roundrect_rratio 0.25))
  (pad 13 smd roundrect (at 2.8625 -1.3) (size 1.575 0.4) (layers F.Cu F.Paste F.Mask) (roundrect_rratio 0.25))
  (pad 12 smd roundrect (at 2.8625 -0.65) (size 1.575 0.4) (layers F.Cu F.Paste F.Mask) (roundrect_rratio 0.25))
  (pad 11 smd roundrect (at 2.8625 0) (size 1.575 0.4) (layers F.Cu F.Paste F.Mask) (roundrect_rratio 0.25))
  (pad 10 smd roundrect (at 2.8625 0.65) (size 1.575 0.4) (layers F.Cu F.Paste F.Mask) (roundrect_rratio 0.25))
  (pad 9 smd roundrect (at 2.8625 1.3) (size 1.575 0.4) (layers F.Cu F.Paste F.Mask) (roundrect_rratio 0.25))
  (pad 8 smd roundrect (at 2.8625 1.95) (size 1.575 0.4) (layers F.Cu F.Paste F.Mask) (roundrect_rratio 0.25))
  (pad 7 smd roundrect (at -2.8625 1.95) (size 1.575 0.4) (layers F.Cu F.Paste F.Mask) (roundrect_rratio 0.25))
  (pad 6 smd roundrect (at -2.8625 1.3) (size 1.575 0.4) (layers F.Cu F.Paste F.Mask) (roundrect_rratio 0.25))
  (pad 5 smd roundrect (at -2.8625 0.65) (size 1.575 0.4) (layers F.Cu F.Paste F.Mask) (roundrect_rratio 0.25))
  (pad 4 smd roundrect (at -2.8625 0) (size 1.575 0.4) (layers F.Cu F.Paste F.Mask) (roundrect_rratio 0.25))
  (pad 3 smd roundrect (at -2.8625 -0.65) (size 1.575 0.4) (layers F.Cu F.Paste F.Mask) (roundrect_rratio 0.25))
  (pad 2 smd roundrect (at -2.8625 -1.3) (size 1.575 0.4) (layers F.Cu F.Paste F.Mask) (roundrect_rratio 0.25))
  (pad 1 smd roundrect (at -2.8625 -1.95) (size 1.575 0.4) (layers F.Cu F.Paste F.Mask) (roundrect_rratio 0.25))
  (model ${KISYS3DMOD}/Package_SO.3dshapes/HTSSOP-14-1EP_4.4x5mm_P0.65mm_EP3.4x5mm_Mask3x3.1mm.wrl
    (at (xyz 0 0 0))
    (scale (xyz 1 1 1))
    (rotate (xyz 0 0 0))
  )
)
