(module Infineon_PG-DSO-20-30_ThermalVias (layer F.Cu) (tedit 607FDA59)
  (descr "Infineon SO package 20pin, exposed pad 4.5x7mm (https://www.infineon.com/cms/en/product/packages/PG-DSO/PG-DSO-20-71/), Alternate KiCad Library")
  (tags DSO-20)
  (attr smd)
  (fp_text reference REF** (at 0 -7.5) (layer F.SilkS)
    (effects (font (size 1 1) (thickness 0.15)))
  )
  (fp_text value Infineon_PG-DSO-20-30_ThermalVias (at 0 8) (layer F.Fab)
    (effects (font (size 1 1) (thickness 0.15)))
  )
  (fp_line (start 5.969 0.635) (end 6.223 0.635) (layer F.SilkS) (width 0.12))
  (fp_line (start 5.969 -5.715) (end 6.35 -5.715) (layer F.SilkS) (width 0.12))
  (fp_line (start -5.969 6.6675) (end 5.969 6.6675) (layer F.SilkS) (width 0.12))
  (fp_circle (center -5.7785 -6.477) (end -5.715 -6.477) (layer F.SilkS) (width 0.3))
  (fp_line (start 5.969 6.6675) (end 5.969 -6.6675) (layer F.SilkS) (width 0.12))
  (fp_line (start -5.969 5.715) (end -6.35 5.715) (layer F.SilkS) (width 0.12))
  (fp_line (start -5.969 -6.1595) (end -5.969 6.6675) (layer F.SilkS) (width 0.12))
  (fp_line (start 5.969 -6.6675) (end -5.461 -6.6675) (layer F.SilkS) (width 0.12))
  (fp_line (start -5.969 -0.635) (end -6.223 -0.635) (layer F.SilkS) (width 0.12))
  (fp_line (start -2.8 -6.4) (end -3.8 -5.4) (layer F.Fab) (width 0.1))
  (fp_line (start -5.98 -6.65) (end 5.98 -6.65) (layer F.CrtYd) (width 0.05))
  (fp_line (start 5.98 6.65) (end 5.98 -6.65) (layer F.CrtYd) (width 0.05))
  (fp_line (start -5.98 6.65) (end -5.98 -6.65) (layer F.CrtYd) (width 0.05))
  (fp_line (start -5.98 6.65) (end 5.98 6.65) (layer F.CrtYd) (width 0.05))
  (fp_line (start 3.8 6.4) (end -3.8 6.4) (layer F.Fab) (width 0.1))
  (fp_line (start 3.8 -6.4) (end 3.8 6.4) (layer F.Fab) (width 0.1))
  (fp_line (start -3.8 6.4) (end -3.8 -5.4) (layer F.Fab) (width 0.1))
  (fp_line (start -2.8 -6.4) (end 3.8 -6.4) (layer F.Fab) (width 0.1))
  (fp_text user %R (at 0 0) (layer F.Fab)
    (effects (font (size 1 1) (thickness 0.15)))
  )
  (pad 21 smd rect (at 0 0) (size 4.8 7) (layers B.Cu B.Mask))
  (pad "" smd rect (at -1 2.325) (size 1.7 1.25) (layers F.Paste))
  (pad "" smd rect (at 1 2.325) (size 1.7 1.25) (layers F.Paste))
  (pad "" smd rect (at -1 0.775) (size 1.7 1.25) (layers F.Paste))
  (pad "" smd rect (at 1 0.775) (size 1.7 1.25) (layers F.Paste))
  (pad "" smd rect (at -1 -0.775) (size 1.7 1.25) (layers F.Paste))
  (pad "" smd rect (at 1 -0.775) (size 1.7 1.25) (layers F.Paste))
  (pad "" smd rect (at 1 -2.325) (size 1.7 1.25) (layers F.Paste))
  (pad 21 thru_hole circle (at 2 -3.1) (size 0.8 0.8) (drill 0.3) (layers *.Cu))
  (pad 21 thru_hole circle (at 0 -3.1) (size 0.8 0.8) (drill 0.3) (layers *.Cu))
  (pad 21 thru_hole circle (at -2 -3.1) (size 0.8 0.8) (drill 0.3) (layers *.Cu))
  (pad 21 thru_hole circle (at 2 -1.55) (size 0.8 0.8) (drill 0.3) (layers *.Cu))
  (pad 21 thru_hole circle (at 0 -1.55) (size 0.8 0.8) (drill 0.3) (layers *.Cu))
  (pad 21 thru_hole circle (at -2 -1.55) (size 0.8 0.8) (drill 0.3) (layers *.Cu))
  (pad 21 thru_hole circle (at 2 0) (size 0.8 0.8) (drill 0.3) (layers *.Cu))
  (pad 21 thru_hole circle (at 0 0) (size 0.8 0.8) (drill 0.3) (layers *.Cu))
  (pad 21 thru_hole circle (at -2 0) (size 0.8 0.8) (drill 0.3) (layers *.Cu))
  (pad 21 thru_hole circle (at 2 1.55) (size 0.8 0.8) (drill 0.3) (layers *.Cu))
  (pad 21 thru_hole circle (at 0 1.55) (size 0.8 0.8) (drill 0.3) (layers *.Cu))
  (pad 21 thru_hole circle (at -2 1.55) (size 0.8 0.8) (drill 0.3) (layers *.Cu))
  (pad 21 thru_hole circle (at 2 3.1) (size 0.8 0.8) (drill 0.3) (layers *.Cu))
  (pad 21 thru_hole circle (at 0 3.1) (size 0.8 0.8) (drill 0.3) (layers *.Cu))
  (pad 21 thru_hole circle (at -2 3.1) (size 0.8 0.8) (drill 0.3) (layers *.Cu))
  (pad "" smd rect (at -1 -2.325) (size 1.7 1.25) (layers F.Paste))
  (pad 21 smd rect (at 0 0) (size 4.8 7) (layers F.Cu F.Mask))
  (pad 20 smd rect (at 4.75 -5.715 90) (size 0.55 1.95) (layers F.Cu F.Paste F.Mask))
  (pad 19 smd rect (at 4.75 -4.445 90) (size 0.55 1.95) (layers F.Cu F.Paste F.Mask))
  (pad 18 smd rect (at 4.75 -3.175 90) (size 0.55 1.95) (layers F.Cu F.Paste F.Mask))
  (pad 17 smd rect (at 4.75 -1.905 90) (size 0.55 1.95) (layers F.Cu F.Paste F.Mask))
  (pad 16 smd rect (at 4.75 -0.635 90) (size 0.55 1.95) (layers F.Cu F.Paste F.Mask))
  (pad 15 smd rect (at 4.75 0.635 90) (size 0.55 1.95) (layers F.Cu F.Paste F.Mask))
  (pad 14 smd rect (at 4.75 1.905 90) (size 0.55 1.95) (layers F.Cu F.Paste F.Mask))
  (pad 13 smd rect (at 4.75 3.175 90) (size 0.55 1.95) (layers F.Cu F.Paste F.Mask))
  (pad 12 smd rect (at 4.75 4.445 90) (size 0.55 1.95) (layers F.Cu F.Paste F.Mask))
  (pad 11 smd rect (at 4.75 5.715 90) (size 0.55 1.95) (layers F.Cu F.Paste F.Mask))
  (pad 10 smd rect (at -4.75 5.715 90) (size 0.55 1.95) (layers F.Cu F.Paste F.Mask))
  (pad 9 smd rect (at -4.75 4.445 90) (size 0.55 1.95) (layers F.Cu F.Paste F.Mask))
  (pad 8 smd rect (at -4.75 3.175 90) (size 0.55 1.95) (layers F.Cu F.Paste F.Mask))
  (pad 7 smd rect (at -4.75 1.905 90) (size 0.55 1.95) (layers F.Cu F.Paste F.Mask))
  (pad 6 smd rect (at -4.75 0.635 90) (size 0.55 1.95) (layers F.Cu F.Paste F.Mask))
  (pad 5 smd rect (at -4.75 -0.635 90) (size 0.55 1.95) (layers F.Cu F.Paste F.Mask))
  (pad 4 smd rect (at -4.75 -1.905 90) (size 0.55 1.95) (layers F.Cu F.Paste F.Mask))
  (pad 3 smd rect (at -4.75 -3.175 90) (size 0.55 1.95) (layers F.Cu F.Paste F.Mask))
  (pad 2 smd rect (at -4.75 -4.445 90) (size 0.55 1.95) (layers F.Cu F.Paste F.Mask))
  (pad 1 smd rect (at -4.75 -5.715 90) (size 0.55 1.95) (layers F.Cu F.Paste F.Mask))
  (model ${KISYS3DMOD}/Package_SO.3dshapes/Infineon_PG-DSO-20-30.wrl
    (at (xyz 0 0 0))
    (scale (xyz 1 1 1))
    (rotate (xyz 0 0 0))
  )
)
