(module Infineon_PG-DSO-12-9 (layer F.Cu) (tedit 607FDA21)
  (descr "Infineon PG-DSO 12 pin, exposed pad: 4.5x8.1mm, with thermal vias (https://www.infineon.com/cms/en/product/packages/PG-DSO/PG-DSO-12-9/), Alternate KiCad Library")
  (tags PG-DSO)
  (attr smd)
  (fp_text reference REF** (at 0 -5.4) (layer F.SilkS)
    (effects (font (size 1 1) (thickness 0.15)))
  )
  (fp_text value Infineon_PG-DSO-12-9 (at 0 6) (layer F.Fab)
    (effects (font (size 1 1) (thickness 0.15)))
  )
  (fp_line (start 6.096 -4.318) (end -5.5245 -4.318) (layer F.SilkS) (width 0.12))
  (fp_line (start 6.096 4.318) (end 6.096 -4.318) (layer F.SilkS) (width 0.12))
  (fp_line (start -6.096 4.318) (end 6.096 4.318) (layer F.SilkS) (width 0.12))
  (fp_line (start -6.096 -3.7465) (end -6.096 4.318) (layer F.SilkS) (width 0.12))
  (fp_line (start -2.75 -3.2) (end -3.75 -2.2) (layer F.Fab) (width 0.1))
  (fp_line (start -0.9 3.2) (end -3.75 3.2) (layer F.Fab) (width 0.1))
  (fp_line (start 0.9 -3.2) (end 3.75 -3.2) (layer F.Fab) (width 0.1))
  (fp_line (start -3.75 3.2) (end -3.75 -2.2) (layer F.Fab) (width 0.1))
  (fp_line (start -2.75 -3.2) (end -0.9 -3.2) (layer F.Fab) (width 0.1))
  (fp_line (start 3.75 -3.2) (end 3.75 3.2) (layer F.Fab) (width 0.1))
  (fp_line (start 3.75 3.2) (end 0.9 3.2) (layer F.Fab) (width 0.1))
  (fp_line (start -0.9 -3.9) (end 0.9 -3.9) (layer F.Fab) (width 0.1))
  (fp_line (start 0.9 -3.9) (end 0.9 -3.2) (layer F.Fab) (width 0.1))
  (fp_line (start 0.9 3.2) (end 0.9 3.9) (layer F.Fab) (width 0.1))
  (fp_line (start 0.9 3.9) (end -0.9 3.9) (layer F.Fab) (width 0.1))
  (fp_line (start -0.9 3.9) (end -0.9 3.2) (layer F.Fab) (width 0.1))
  (fp_line (start -0.9 -3.2) (end -0.9 -3.9) (layer F.Fab) (width 0.1))
  (fp_line (start -6.05 -4.3) (end 6.05 -4.3) (layer F.CrtYd) (width 0.05))
  (fp_line (start 6.05 -4.3) (end 6.05 4.3) (layer F.CrtYd) (width 0.05))
  (fp_line (start 6.05 4.3) (end -6.05 4.3) (layer F.CrtYd) (width 0.05))
  (fp_line (start -6.05 4.3) (end -6.05 -4.3) (layer F.CrtYd) (width 0.05))
  (fp_circle (center -5.842 -4.064) (end -5.7785 -4.064) (layer F.SilkS) (width 0.3))
  (fp_text user %R (at 0 0) (layer F.Fab)
    (effects (font (size 1 1) (thickness 0.15)))
  )
  (pad "" smd rect (at -1.125 2.92) (size 1.95 1.16) (layers F.Paste))
  (pad "" smd rect (at 1.125 2.92) (size 1.95 1.16) (layers F.Paste))
  (pad "" smd rect (at -1.125 1.46) (size 1.95 1.16) (layers F.Paste))
  (pad "" smd rect (at 1.125 1.46) (size 1.95 1.16) (layers F.Paste))
  (pad "" smd rect (at -1.125 0) (size 1.95 1.16) (layers F.Paste))
  (pad "" smd rect (at 1.125 0) (size 1.95 1.16) (layers F.Paste))
  (pad "" smd rect (at -1.125 -1.46) (size 1.95 1.16) (layers F.Paste))
  (pad "" smd rect (at 1.125 -1.46) (size 1.95 1.16) (layers F.Paste))
  (pad "" smd rect (at 1.125 -2.92) (size 1.95 1.16) (layers F.Paste))
  (pad "" smd rect (at -1.125 -2.92) (size 1.95 1.16) (layers F.Paste))
  (pad 12 smd rect (at 4.8 -2.5) (size 2 0.65) (layers F.Cu F.Paste F.Mask))
  (pad 11 smd rect (at 4.8 -1.5) (size 2 0.65) (layers F.Cu F.Paste F.Mask))
  (pad 10 smd rect (at 4.8 -0.5) (size 2 0.65) (layers F.Cu F.Paste F.Mask))
  (pad 9 smd rect (at 4.8 0.5) (size 2 0.65) (layers F.Cu F.Paste F.Mask))
  (pad 8 smd rect (at 4.8 1.5) (size 2 0.65) (layers F.Cu F.Paste F.Mask))
  (pad 7 smd rect (at 4.8 2.5) (size 2 0.65) (layers F.Cu F.Paste F.Mask))
  (pad 6 smd rect (at -4.8 2.5) (size 2 0.65) (layers F.Cu F.Paste F.Mask))
  (pad 5 smd rect (at -4.8 1.5) (size 2 0.65) (layers F.Cu F.Paste F.Mask))
  (pad 4 smd rect (at -4.8 0.5) (size 2 0.65) (layers F.Cu F.Paste F.Mask))
  (pad 3 smd rect (at -4.8 -0.5) (size 2 0.65) (layers F.Cu F.Paste F.Mask))
  (pad 2 smd rect (at -4.8 -1.5) (size 2 0.65) (layers F.Cu F.Paste F.Mask))
  (pad 13 smd rect (at 0 0) (size 4.5 8.1) (layers F.Cu F.Mask))
  (pad 1 smd rect (at -4.8 -2.5) (size 2 0.65) (layers F.Cu F.Paste F.Mask))
  (model ${KISYS3DMOD}/Package_SO.3dshapes/Infineon_PG-DSO-12-9.wrl
    (at (xyz 0 0 0))
    (scale (xyz 1 1 1))
    (rotate (xyz 0 0 0))
  )
)
