(module Infineon_PG-DSO-8-43 (layer F.Cu) (tedit 607FDA1C)
  (descr "Infineon_PG-DSO-8-43, Alternate KiCad Library")
  (tags "DSO DSO-8 SOIC SOIC-8")
  (attr smd)
  (fp_text reference REF** (at 0 -3.5) (layer F.SilkS)
    (effects (font (size 1 1) (thickness 0.15)))
  )
  (fp_text value Infineon_PG-DSO-8-43 (at 0 3.5) (layer F.Fab)
    (effects (font (size 1 1) (thickness 0.15)))
  )
  (fp_line (start 3.7465 2.7305) (end -3.7465 2.7305) (layer F.SilkS) (width 0.12))
  (fp_circle (center -3.6195 -2.6035) (end -3.556 -2.6035) (layer F.SilkS) (width 0.3))
  (fp_line (start -3.7465 2.7305) (end -3.7465 -2.2225) (layer F.SilkS) (width 0.12))
  (fp_line (start 3.7465 -2.7305) (end 3.7465 2.7305) (layer F.SilkS) (width 0.12))
  (fp_line (start -3.2385 -2.7305) (end 3.7465 -2.7305) (layer F.SilkS) (width 0.12))
  (fp_line (start -3.75 2.75) (end 3.75 2.75) (layer F.CrtYd) (width 0.05))
  (fp_line (start -3.75 -2.75) (end 3.75 -2.75) (layer F.CrtYd) (width 0.05))
  (fp_line (start 3.75 -2.75) (end 3.75 2.75) (layer F.CrtYd) (width 0.05))
  (fp_line (start -3.75 -2.75) (end -3.75 2.75) (layer F.CrtYd) (width 0.05))
  (fp_line (start -1.95 -1.45) (end -0.95 -2.45) (layer F.Fab) (width 0.15))
  (fp_line (start -1.95 2.45) (end -1.95 -1.45) (layer F.Fab) (width 0.15))
  (fp_line (start 1.95 2.45) (end -1.95 2.45) (layer F.Fab) (width 0.15))
  (fp_line (start 1.95 -2.45) (end 1.95 2.45) (layer F.Fab) (width 0.15))
  (fp_line (start -0.95 -2.45) (end 1.95 -2.45) (layer F.Fab) (width 0.15))
  (fp_text user %R (at 0 0) (layer F.Fab)
    (effects (font (size 0.9 0.9) (thickness 0.135)))
  )
  (pad 9 smd rect (at -0.6625 -0.75) (size 1.325 1.5) (layers F.Cu F.Paste F.Mask)
    (solder_paste_margin_ratio -0.2))
  (pad 9 smd rect (at -0.6625 0.75) (size 1.325 1.5) (layers F.Cu F.Paste F.Mask)
    (solder_paste_margin_ratio -0.2))
  (pad 9 smd rect (at 0.6625 -0.75) (size 1.325 1.5) (layers F.Cu F.Paste F.Mask)
    (solder_paste_margin_ratio -0.2))
  (pad 9 smd rect (at 0.6625 0.75) (size 1.325 1.5) (layers F.Cu F.Paste F.Mask)
    (solder_paste_margin_ratio -0.2))
  (pad 8 smd rect (at 2.845 -1.905) (size 1.31 0.65) (layers F.Cu F.Paste F.Mask))
  (pad 7 smd rect (at 2.845 -0.635) (size 1.31 0.65) (layers F.Cu F.Paste F.Mask))
  (pad 6 smd rect (at 2.845 0.635) (size 1.31 0.65) (layers F.Cu F.Paste F.Mask))
  (pad 5 smd rect (at 2.845 1.905) (size 1.31 0.65) (layers F.Cu F.Paste F.Mask))
  (pad 4 smd rect (at -2.845 1.905) (size 1.31 0.6) (layers F.Cu F.Paste F.Mask))
  (pad 3 smd rect (at -2.845 0.635) (size 1.31 0.65) (layers F.Cu F.Paste F.Mask))
  (pad 2 smd rect (at -2.845 -0.635) (size 1.31 0.65) (layers F.Cu F.Paste F.Mask))
  (pad 1 smd rect (at -2.845 -1.905) (size 1.31 0.65) (layers F.Cu F.Paste F.Mask))
  (model ${KISYS3DMOD}/Package_SO.3dshapes/Infineon_PG-DSO-8-43.wrl
    (at (xyz 0 0 0))
    (scale (xyz 1 1 1))
    (rotate (xyz 0 0 0))
  )
)
