(module MSOP-12-16-1EP_3x4mm_P0.5mm_EP1.65x2.85mm (layer F.Cu) (tedit 607FDB3D)
  (descr "10-Lead Plastic Micro Small Outline Package (MS) [MSOP] (see Microchip Packaging Specification 00000049BS.pdf), Alternate KiCad Library")
  (tags "SSOP 0.5")
  (attr smd)
  (fp_text reference REF** (at 0 -3.048) (layer F.SilkS)
    (effects (font (size 1 1) (thickness 0.15)))
  )
  (fp_text value MSOP-12-16-1EP_3x4mm_P0.5mm_EP1.65x2.85mm (at 0 3.5) (layer F.Fab)
    (effects (font (size 1 1) (thickness 0.15)))
  )
  (fp_line (start 3.1115 -2.286) (end 3.175 -2.286) (layer F.SilkS) (width 0.12))
  (fp_line (start 3.175 2.286) (end -3.175 2.286) (layer F.SilkS) (width 0.12))
  (fp_line (start 3.175 -2.286) (end 3.175 2.286) (layer F.SilkS) (width 0.12))
  (fp_line (start -3.175 2.286) (end -3.175 -1.8415) (layer F.SilkS) (width 0.12))
  (fp_line (start -2.7305 -2.286) (end 3.1115 -2.286) (layer F.SilkS) (width 0.12))
  (fp_circle (center -3.1115 -2.2225) (end -3.048 -2.2225) (layer F.SilkS) (width 0.3))
  (fp_line (start -3.15 2.6) (end 3.15 2.6) (layer F.CrtYd) (width 0.05))
  (fp_line (start -3.15 -2.6) (end 3.15 -2.6) (layer F.CrtYd) (width 0.05))
  (fp_line (start 3.15 -2.6) (end 3.15 2.6) (layer F.CrtYd) (width 0.05))
  (fp_line (start -3.15 -2.6) (end -3.15 2.6) (layer F.CrtYd) (width 0.05))
  (fp_line (start -1.5 -1) (end -0.5 -2) (layer F.Fab) (width 0.15))
  (fp_line (start -1.5 2) (end -1.5 -1) (layer F.Fab) (width 0.15))
  (fp_line (start 1.5 2) (end -1.5 2) (layer F.Fab) (width 0.15))
  (fp_line (start 1.5 -2) (end 1.5 2) (layer F.Fab) (width 0.15))
  (fp_line (start -0.5 -2) (end 1.5 -2) (layer F.Fab) (width 0.15))
  (fp_text user %R (at 0 0) (layer F.Fab)
    (effects (font (size 0.6 0.6) (thickness 0.09)))
  )
  (pad "" smd rect (at 0.4125 0.95) (size 0.66 0.75) (layers F.Paste))
  (pad "" smd rect (at -0.4125 0.95) (size 0.66 0.75) (layers F.Paste))
  (pad "" smd rect (at 0.4125 0) (size 0.66 0.75) (layers F.Paste))
  (pad "" smd rect (at -0.4125 0) (size 0.66 0.75) (layers F.Paste))
  (pad "" smd rect (at -0.4125 -0.95) (size 0.66 0.75) (layers F.Paste))
  (pad "" smd rect (at 0.4125 -0.95) (size 0.66 0.75) (layers F.Paste))
  (pad 17 smd rect (at 0 0) (size 1.65 2.85) (layers F.Cu F.Mask))
  (pad 9 smd rect (at 2.2 1.75) (size 1.4 0.3) (layers F.Cu F.Paste F.Mask))
  (pad 10 smd rect (at 2.2 1.25) (size 1.4 0.3) (layers F.Cu F.Paste F.Mask))
  (pad 11 smd rect (at 2.2 0.75) (size 1.4 0.3) (layers F.Cu F.Paste F.Mask))
  (pad 8 smd rect (at -2.2 1.75) (size 1.4 0.3) (layers F.Cu F.Paste F.Mask))
  (pad 7 smd rect (at -2.2 1.25) (size 1.4 0.3) (layers F.Cu F.Paste F.Mask))
  (pad 6 smd rect (at -2.2 0.75) (size 1.4 0.3) (layers F.Cu F.Paste F.Mask))
  (pad 16 smd rect (at 2.2 -1.75) (size 1.4 0.3) (layers F.Cu F.Paste F.Mask))
  (pad 14 smd rect (at 2.2 -0.75) (size 1.4 0.3) (layers F.Cu F.Paste F.Mask))
  (pad 12 smd rect (at 2.2 0.25) (size 1.4 0.3) (layers F.Cu F.Paste F.Mask))
  (pad 5 smd rect (at -2.2 0.25) (size 1.4 0.3) (layers F.Cu F.Paste F.Mask))
  (pad 3 smd rect (at -2.2 -0.75) (size 1.4 0.3) (layers F.Cu F.Paste F.Mask))
  (pad 1 smd rect (at -2.2 -1.75) (size 1.4 0.3) (layers F.Cu F.Paste F.Mask))
  (model ${KISYS3DMOD}/Package_SO.3dshapes/MSOP-12-16-1EP_3x4mm_P0.5mm_EP1.65x2.85mm.wrl
    (at (xyz 0 0 0))
    (scale (xyz 1 1 1))
    (rotate (xyz 0 0 0))
  )
)
