(module MSOP-8-1EP_3x3mm_P0.65mm_EP1.95x2.15mm (layer F.Cu) (tedit 607FDAE3)
  (descr "MSOP, 8 Pin (http://www.st.com/resource/en/datasheet/pm8834.pdf), Alternate KiCad Library")
  (tags "MSOP SO")
  (attr smd)
  (fp_text reference REF** (at 0 -2.45) (layer F.SilkS)
    (effects (font (size 1 1) (thickness 0.15)))
  )
  (fp_text value MSOP-8-1EP_3x3mm_P0.65mm_EP1.95x2.15mm (at 0 2.45) (layer F.Fab)
    (effects (font (size 1 1) (thickness 0.15)))
  )
  (fp_line (start -3.175 1.778) (end -3.175 -1.27) (layer F.SilkS) (width 0.12))
  (fp_line (start 3.1115 1.778) (end -3.175 1.778) (layer F.SilkS) (width 0.12))
  (fp_line (start 3.1115 -1.778) (end 3.1115 1.778) (layer F.SilkS) (width 0.12))
  (fp_line (start -2.667 -1.778) (end 3.1115 -1.778) (layer F.SilkS) (width 0.12))
  (fp_circle (center -2.9845 -1.5875) (end -2.921 -1.5875) (layer F.SilkS) (width 0.3))
  (fp_line (start 3.12 -1.75) (end -3.12 -1.75) (layer F.CrtYd) (width 0.05))
  (fp_line (start 3.12 1.75) (end 3.12 -1.75) (layer F.CrtYd) (width 0.05))
  (fp_line (start -3.12 1.75) (end 3.12 1.75) (layer F.CrtYd) (width 0.05))
  (fp_line (start -3.12 -1.75) (end -3.12 1.75) (layer F.CrtYd) (width 0.05))
  (fp_line (start -1.5 -0.75) (end -0.75 -1.5) (layer F.Fab) (width 0.1))
  (fp_line (start -1.5 1.5) (end -1.5 -0.75) (layer F.Fab) (width 0.1))
  (fp_line (start 1.5 1.5) (end -1.5 1.5) (layer F.Fab) (width 0.1))
  (fp_line (start 1.5 -1.5) (end 1.5 1.5) (layer F.Fab) (width 0.1))
  (fp_line (start -0.75 -1.5) (end 1.5 -1.5) (layer F.Fab) (width 0.1))
  (fp_text user %R (at 0 0) (layer F.Fab)
    (effects (font (size 0.75 0.75) (thickness 0.11)))
  )
  (pad "" smd roundrect (at 0.49 0.54) (size 0.79 0.87) (layers F.Paste) (roundrect_rratio 0.25))
  (pad "" smd roundrect (at 0.49 -0.54) (size 0.79 0.87) (layers F.Paste) (roundrect_rratio 0.25))
  (pad "" smd roundrect (at -0.49 0.54) (size 0.79 0.87) (layers F.Paste) (roundrect_rratio 0.25))
  (pad "" smd roundrect (at -0.49 -0.54) (size 0.79 0.87) (layers F.Paste) (roundrect_rratio 0.25))
  (pad 9 smd rect (at 0 0) (size 1.95 2.15) (layers F.Cu F.Mask))
  (pad 8 smd roundrect (at 2.15 -0.975) (size 1.45 0.4) (layers F.Cu F.Paste F.Mask) (roundrect_rratio 0.25))
  (pad 7 smd roundrect (at 2.15 -0.325) (size 1.45 0.4) (layers F.Cu F.Paste F.Mask) (roundrect_rratio 0.25))
  (pad 6 smd roundrect (at 2.15 0.325) (size 1.45 0.4) (layers F.Cu F.Paste F.Mask) (roundrect_rratio 0.25))
  (pad 5 smd roundrect (at 2.15 0.975) (size 1.45 0.4) (layers F.Cu F.Paste F.Mask) (roundrect_rratio 0.25))
  (pad 4 smd roundrect (at -2.15 0.975) (size 1.45 0.4) (layers F.Cu F.Paste F.Mask) (roundrect_rratio 0.25))
  (pad 3 smd roundrect (at -2.15 0.325) (size 1.45 0.4) (layers F.Cu F.Paste F.Mask) (roundrect_rratio 0.25))
  (pad 2 smd roundrect (at -2.15 -0.325) (size 1.45 0.4) (layers F.Cu F.Paste F.Mask) (roundrect_rratio 0.25))
  (pad 1 smd roundrect (at -2.15 -0.975) (size 1.45 0.4) (layers F.Cu F.Paste F.Mask) (roundrect_rratio 0.25))
  (model ${KISYS3DMOD}/Package_SO.3dshapes/MSOP-8-1EP_3x3mm_P0.65mm_EP1.95x2.15mm.wrl
    (at (xyz 0 0 0))
    (scale (xyz 1 1 1))
    (rotate (xyz 0 0 0))
  )
)
