(module MSOP-12-1EP_3x4mm_P0.65mm_EP1.65x2.85mm_ThermalVias (layer F.Cu) (tedit 607FDB37)
  (descr "MSOP, 12 Pin (https://www.analog.com/media/en/technical-documentation/data-sheets/3652fe.pdf#page=24), Alternate KiCad Library")
  (tags "MSOP SO")
  (attr smd)
  (fp_text reference REF** (at 0 -2.95) (layer F.SilkS)
    (effects (font (size 1 1) (thickness 0.15)))
  )
  (fp_text value MSOP-12-1EP_3x4mm_P0.65mm_EP1.65x2.85mm_ThermalVias (at 0 2.95) (layer F.Fab)
    (effects (font (size 1 1) (thickness 0.15)))
  )
  (fp_line (start 3.1115 -2.286) (end 3.175 -2.286) (layer F.SilkS) (width 0.12))
  (fp_line (start 3.175 2.286) (end -3.175 2.286) (layer F.SilkS) (width 0.12))
  (fp_line (start 3.175 -2.286) (end 3.175 2.286) (layer F.SilkS) (width 0.12))
  (fp_line (start -3.175 2.286) (end -3.175 -1.778) (layer F.SilkS) (width 0.12))
  (fp_line (start -2.667 -2.286) (end 3.1115 -2.286) (layer F.SilkS) (width 0.12))
  (fp_circle (center -3.048 -2.159) (end -2.9845 -2.159) (layer F.SilkS) (width 0.3))
  (fp_line (start 3.12 -2.25) (end -3.12 -2.25) (layer F.CrtYd) (width 0.05))
  (fp_line (start 3.12 2.25) (end 3.12 -2.25) (layer F.CrtYd) (width 0.05))
  (fp_line (start -3.12 2.25) (end 3.12 2.25) (layer F.CrtYd) (width 0.05))
  (fp_line (start -3.12 -2.25) (end -3.12 2.25) (layer F.CrtYd) (width 0.05))
  (fp_line (start -1.5 -1.25) (end -0.75 -2) (layer F.Fab) (width 0.1))
  (fp_line (start -1.5 2) (end -1.5 -1.25) (layer F.Fab) (width 0.1))
  (fp_line (start 1.5 2) (end -1.5 2) (layer F.Fab) (width 0.1))
  (fp_line (start 1.5 -2) (end 1.5 2) (layer F.Fab) (width 0.1))
  (fp_line (start -0.75 -2) (end 1.5 -2) (layer F.Fab) (width 0.1))
  (fp_text user %R (at 0 0) (layer F.Fab)
    (effects (font (size 0.75 0.75) (thickness 0.11)))
  )
  (pad "" smd roundrect (at 0.41 0.71) (size 0.69 1.19) (layers F.Paste) (roundrect_rratio 0.25))
  (pad "" smd roundrect (at 0.41 -0.71) (size 0.69 1.19) (layers F.Paste) (roundrect_rratio 0.25))
  (pad "" smd roundrect (at -0.41 0.71) (size 0.69 1.19) (layers F.Paste) (roundrect_rratio 0.25))
  (pad "" smd roundrect (at -0.41 -0.71) (size 0.69 1.19) (layers F.Paste) (roundrect_rratio 0.25))
  (pad 13 smd rect (at 0 0) (size 1.5 2.5) (layers B.Cu B.Mask))
  (pad 13 thru_hole circle (at 0.5 1) (size 0.5 0.5) (drill 0.2) (layers *.Cu))
  (pad 13 thru_hole circle (at -0.5 1) (size 0.5 0.5) (drill 0.2) (layers *.Cu))
  (pad 13 thru_hole circle (at 0.5 0) (size 0.5 0.5) (drill 0.2) (layers *.Cu))
  (pad 13 thru_hole circle (at -0.5 0) (size 0.5 0.5) (drill 0.2) (layers *.Cu))
  (pad 13 thru_hole circle (at 0.5 -1) (size 0.5 0.5) (drill 0.2) (layers *.Cu))
  (pad 13 thru_hole circle (at -0.5 -1) (size 0.5 0.5) (drill 0.2) (layers *.Cu))
  (pad 13 smd rect (at 0 0) (size 1.65 2.85) (layers F.Cu F.Mask))
  (pad 12 smd roundrect (at 2.15 -1.625) (size 1.45 0.4) (layers F.Cu F.Paste F.Mask) (roundrect_rratio 0.25))
  (pad 11 smd roundrect (at 2.15 -0.975) (size 1.45 0.4) (layers F.Cu F.Paste F.Mask) (roundrect_rratio 0.25))
  (pad 10 smd roundrect (at 2.15 -0.325) (size 1.45 0.4) (layers F.Cu F.Paste F.Mask) (roundrect_rratio 0.25))
  (pad 9 smd roundrect (at 2.15 0.325) (size 1.45 0.4) (layers F.Cu F.Paste F.Mask) (roundrect_rratio 0.25))
  (pad 8 smd roundrect (at 2.15 0.975) (size 1.45 0.4) (layers F.Cu F.Paste F.Mask) (roundrect_rratio 0.25))
  (pad 7 smd roundrect (at 2.15 1.625) (size 1.45 0.4) (layers F.Cu F.Paste F.Mask) (roundrect_rratio 0.25))
  (pad 6 smd roundrect (at -2.15 1.625) (size 1.45 0.4) (layers F.Cu F.Paste F.Mask) (roundrect_rratio 0.25))
  (pad 5 smd roundrect (at -2.15 0.975) (size 1.45 0.4) (layers F.Cu F.Paste F.Mask) (roundrect_rratio 0.25))
  (pad 4 smd roundrect (at -2.15 0.325) (size 1.45 0.4) (layers F.Cu F.Paste F.Mask) (roundrect_rratio 0.25))
  (pad 3 smd roundrect (at -2.15 -0.325) (size 1.45 0.4) (layers F.Cu F.Paste F.Mask) (roundrect_rratio 0.25))
  (pad 2 smd roundrect (at -2.15 -0.975) (size 1.45 0.4) (layers F.Cu F.Paste F.Mask) (roundrect_rratio 0.25))
  (pad 1 smd roundrect (at -2.15 -1.625) (size 1.45 0.4) (layers F.Cu F.Paste F.Mask) (roundrect_rratio 0.25))
  (model ${KISYS3DMOD}/Package_SO.3dshapes/MSOP-12-1EP_3x4mm_P0.65mm_EP1.65x2.85mm.wrl
    (at (xyz 0 0 0))
    (scale (xyz 1 1 1))
    (rotate (xyz 0 0 0))
  )
)
