(module ONSemi_SO-8FL_488AA (layer F.Cu) (tedit 607FDB8B)
  (descr "ON Semi DFN5 5x6mm 1.27P SO-8FL CASE 488A https://www.onsemi.com/pub/Collateral/488AA.PDF, Alternate KiCad Library")
  (tags "ON Semi DFN5 5x6mm 1.27P SO-8FL CASE 488A ")
  (attr smd)
  (fp_text reference REF** (at 0 -4) (layer F.SilkS)
    (effects (font (size 1 1) (thickness 0.15)))
  )
  (fp_text value ONSemi_SO-8FL_488AA (at 0 4) (layer F.Fab)
    (effects (font (size 1 1) (thickness 0.15)))
  )
  (fp_line (start 3.556 -3.048) (end -0.6985 -3.048) (layer F.SilkS) (width 0.12))
  (fp_line (start 3.4925 3.048) (end 3.556 -3.048) (layer F.SilkS) (width 0.12))
  (fp_line (start -3.4925 3.048) (end 3.4925 3.048) (layer F.SilkS) (width 0.12))
  (fp_line (start -3.4925 -1.8415) (end -3.4925 3.048) (layer F.SilkS) (width 0.12))
  (fp_line (start -3.4925 -1.8415) (end -3.4925 -2.4765) (layer F.SilkS) (width 0.12))
  (fp_line (start -0.6985 -3.048) (end -2.921 -3.048) (layer F.SilkS) (width 0.12))
  (fp_line (start 0.3 -2.7) (end 3.25 -2.7) (layer F.CrtYd) (width 0.05))
  (fp_line (start 0.3 -2.7) (end 0.3 -2.78) (layer F.CrtYd) (width 0.05))
  (fp_line (start -0.86 -3.03) (end 0.05 -3.03) (layer F.CrtYd) (width 0.05))
  (fp_line (start -1.11 -2.78) (end -1.11 -2.7) (layer F.CrtYd) (width 0.05))
  (fp_line (start -3.25 -2.7) (end -1.11 -2.7) (layer F.CrtYd) (width 0.05))
  (fp_line (start 3.5 -1.53) (end 3.5 -2.45) (layer F.CrtYd) (width 0.05))
  (fp_line (start 3.25 1.28) (end 3.25 -1.28) (layer F.CrtYd) (width 0.05))
  (fp_line (start 3.5 2.45) (end 3.5 1.53) (layer F.CrtYd) (width 0.05))
  (fp_line (start 0.3 2.7) (end 3.25 2.7) (layer F.CrtYd) (width 0.05))
  (fp_line (start 0.3 2.78) (end 0.3 2.7) (layer F.CrtYd) (width 0.05))
  (fp_line (start -1.11 2.7) (end -1.11 2.78) (layer F.CrtYd) (width 0.05))
  (fp_line (start -0.86 3.03) (end 0.05 3.03) (layer F.CrtYd) (width 0.05))
  (fp_line (start -3.25 2.7) (end -1.11 2.7) (layer F.CrtYd) (width 0.05))
  (fp_line (start -3.5 2.45) (end -3.5 -2.45) (layer F.CrtYd) (width 0.05))
  (fp_line (start -1.72725 -2.45) (end -2.90225 -1.275) (layer F.Fab) (width 0.1))
  (fp_line (start -2.90225 -1.275) (end -2.90225 2.45) (layer F.Fab) (width 0.1))
  (fp_line (start 2.99775 -2.45) (end 2.99775 2.45) (layer F.Fab) (width 0.1))
  (fp_line (start 2.99775 2.45) (end -2.90225 2.45) (layer F.Fab) (width 0.1))
  (fp_line (start 2.99775 -2.45) (end -1.72725 -2.45) (layer F.Fab) (width 0.1))
  (fp_circle (center -3.302 -2.8575) (end -3.2385 -2.8575) (layer F.SilkS) (width 0.3))
  (fp_text user %R (at 0.04775 0) (layer F.Fab)
    (effects (font (size 1 1) (thickness 0.15)))
  )
  (fp_arc (start 0.05 2.78) (end 0.05 3.03) (angle -90) (layer F.CrtYd) (width 0.05))
  (fp_arc (start -3.25 2.45) (end -3.5 2.45) (angle -90) (layer F.CrtYd) (width 0.05))
  (fp_arc (start -3.25 -2.45) (end -3.25 -2.7) (angle -90) (layer F.CrtYd) (width 0.05))
  (fp_arc (start -0.86 -2.78) (end -0.86 -3.03) (angle -90) (layer F.CrtYd) (width 0.05))
  (fp_arc (start 0.05 -2.78) (end 0.3 -2.78) (angle -90) (layer F.CrtYd) (width 0.05))
  (fp_arc (start 3.25 -2.45) (end 3.5 -2.45) (angle -90) (layer F.CrtYd) (width 0.05))
  (fp_arc (start 3.25 -1.53) (end 3.25 -1.28) (angle -90) (layer F.CrtYd) (width 0.05))
  (fp_arc (start 3.25 1.53) (end 3.5 1.53) (angle -90) (layer F.CrtYd) (width 0.05))
  (fp_arc (start 3.25 2.45) (end 3.25 2.7) (angle -90) (layer F.CrtYd) (width 0.05))
  (fp_arc (start -0.86 2.78) (end -1.11 2.78) (angle -90) (layer F.CrtYd) (width 0.05))
  (pad 5 smd custom (at 0.745 0) (size 4.055 4.56) (layers F.Cu F.Paste F.Mask)
    (zone_connect 0)
    (options (clearance outline) (anchor rect))
    (primitives
      (gr_poly (pts
         (xy -1.6025 2.775) (xy -0.6975 2.775) (xy -0.6975 2.28) (xy 2.5025 2.28) (xy 2.5025 1.53)
         (xy 1.905 1.53) (xy 1.905 -1.53) (xy 2.5025 -1.53) (xy 2.5025 -2.28) (xy -0.6975 -2.28)
         (xy -0.6975 -2.775) (xy -1.6025 -2.775)) (width 0))
    ))
  (pad 4 smd roundrect (at -2.74725 1.905) (size 1 0.75) (layers F.Cu F.Paste F.Mask) (roundrect_rratio 0.25))
  (pad 3 smd roundrect (at -2.74725 0.635) (size 1 0.75) (layers F.Cu F.Paste F.Mask) (roundrect_rratio 0.25))
  (pad 2 smd roundrect (at -2.74725 -0.635) (size 1 0.75) (layers F.Cu F.Paste F.Mask) (roundrect_rratio 0.25))
  (pad 1 smd roundrect (at -2.74725 -1.905) (size 1 0.75) (layers F.Cu F.Paste F.Mask) (roundrect_rratio 0.25))
  (model ${KISYS3DMOD}/Package_SO.3dshapes/ONSemi_SO-8FL_488AA.wrl
    (at (xyz 0 0 0))
    (scale (xyz 1 1 1))
    (rotate (xyz 0 0 0))
  )
)
