(module QSOP-20_3.9x8.7mm_P0.635mm (layer F.Cu) (tedit 607FDBC9)
  (descr "20-Lead Plastic Shrink Small Outline Narrow Body (http://www.analog.com/media/en/technical-documentation/data-sheets/ADuM7640_7641_7642_7643.pdf), Alternate KiCad Library")
  (tags "QSOP 0.635")
  (attr smd)
  (fp_text reference REF** (at 0 -5.25) (layer F.SilkS)
    (effects (font (size 1 1) (thickness 0.15)))
  )
  (fp_text value QSOP-20_3.9x8.7mm_P0.635mm (at 0 5.3) (layer F.Fab)
    (effects (font (size 1 1) (thickness 0.15)))
  )
  (fp_line (start 3.683 -2.8575) (end 4.064 -2.8575) (layer F.SilkS) (width 0.12))
  (fp_line (start 3.683 0.3175) (end 3.937 0.3175) (layer F.SilkS) (width 0.12))
  (fp_line (start -3.683 2.8575) (end -4.064 2.8575) (layer F.SilkS) (width 0.12))
  (fp_line (start -3.683 -0.3175) (end -3.937 -0.3175) (layer F.SilkS) (width 0.12))
  (fp_line (start 3.683 -4.572) (end -3.175 -4.572) (layer F.SilkS) (width 0.12))
  (fp_line (start 3.683 4.572) (end 3.683 -4.572) (layer F.SilkS) (width 0.12))
  (fp_line (start -3.683 4.572) (end 3.683 4.572) (layer F.SilkS) (width 0.12))
  (fp_line (start -3.683 -4.064) (end -3.683 4.572) (layer F.SilkS) (width 0.12))
  (fp_line (start -3.683 -4.064) (end -3.175 -4.572) (layer F.SilkS) (width 0.12))
  (fp_line (start -3.71 4.6) (end 3.7 4.6) (layer F.CrtYd) (width 0.05))
  (fp_line (start -3.71 -4.6) (end 3.7 -4.6) (layer F.CrtYd) (width 0.05))
  (fp_line (start 3.7 -4.6) (end 3.7 4.6) (layer F.CrtYd) (width 0.05))
  (fp_line (start -3.71 -4.6) (end -3.71 4.6) (layer F.CrtYd) (width 0.05))
  (fp_line (start -1.95 -3.35) (end -0.95 -4.35) (layer F.Fab) (width 0.1))
  (fp_line (start -1.95 4.35) (end -1.95 -3.35) (layer F.Fab) (width 0.1))
  (fp_line (start 1.95 4.35) (end -1.95 4.35) (layer F.Fab) (width 0.1))
  (fp_line (start 1.95 -4.35) (end 1.95 4.35) (layer F.Fab) (width 0.1))
  (fp_line (start -0.95 -4.35) (end 1.95 -4.35) (layer F.Fab) (width 0.1))
  (fp_circle (center -3.1115 -4.0005) (end -3.048 -4.0005) (layer F.SilkS) (width 0.3))
  (fp_text user %R (at 0 0) (layer F.Fab)
    (effects (font (size 0.8 0.8) (thickness 0.08)))
  )
  (pad 20 smd rect (at 2.6543 -2.8575) (size 1.6 0.41) (layers F.Cu F.Paste F.Mask))
  (pad 19 smd rect (at 2.6543 -2.2225) (size 1.6 0.41) (layers F.Cu F.Paste F.Mask))
  (pad 18 smd rect (at 2.6543 -1.5875) (size 1.6 0.41) (layers F.Cu F.Paste F.Mask))
  (pad 13 smd rect (at 2.6543 1.5875) (size 1.6 0.41) (layers F.Cu F.Paste F.Mask))
  (pad 12 smd rect (at 2.6543 2.2225) (size 1.6 0.41) (layers F.Cu F.Paste F.Mask))
  (pad 11 smd rect (at 2.6543 2.8575) (size 1.6 0.41) (layers F.Cu F.Paste F.Mask))
  (pad 10 smd rect (at -2.6543 2.8575) (size 1.6 0.41) (layers F.Cu F.Paste F.Mask))
  (pad 9 smd rect (at -2.6543 2.2225) (size 1.6 0.41) (layers F.Cu F.Paste F.Mask))
  (pad 8 smd rect (at -2.6543 1.5875) (size 1.6 0.41) (layers F.Cu F.Paste F.Mask))
  (pad 3 smd rect (at -2.6543 -1.5875) (size 1.6 0.41) (layers F.Cu F.Paste F.Mask))
  (pad 2 smd rect (at -2.6543 -2.2225) (size 1.6 0.41) (layers F.Cu F.Paste F.Mask))
  (pad 1 smd rect (at -2.6543 -2.8575) (size 1.6 0.41) (layers F.Cu F.Paste F.Mask))
  (pad 4 smd rect (at -2.6543 -0.9525) (size 1.6 0.41) (layers F.Cu F.Paste F.Mask))
  (pad 5 smd rect (at -2.6543 -0.3175) (size 1.6 0.41) (layers F.Cu F.Paste F.Mask))
  (pad 16 smd rect (at 2.6543 -0.3175) (size 1.6 0.41) (layers F.Cu F.Paste F.Mask))
  (pad 17 smd rect (at 2.6543 -0.9525) (size 1.6 0.41) (layers F.Cu F.Paste F.Mask))
  (pad 6 smd rect (at -2.6543 0.3175) (size 1.6 0.41) (layers F.Cu F.Paste F.Mask))
  (pad 7 smd rect (at -2.6543 0.9525) (size 1.6 0.41) (layers F.Cu F.Paste F.Mask))
  (pad 15 smd rect (at 2.6543 0.3175) (size 1.6 0.41) (layers F.Cu F.Paste F.Mask))
  (pad 14 smd rect (at 2.6543 0.9525) (size 1.6 0.41) (layers F.Cu F.Paste F.Mask))
  (model ${KISYS3DMOD}/Package_SO.3dshapes/QSOP-20_3.9x8.7mm_P0.635mm.wrl
    (at (xyz 0 0 0))
    (scale (xyz 1 1 1))
    (rotate (xyz 0 0 0))
  )
)
