(module SC-74-6_1.5x2.9mm_P0.95mm (layer F.Cu) (tedit 607FDC1A)
  (descr "SC-74, 6 Pin (https://www.nxp.com/docs/en/package-information/SOT457.pdf), Alternate KiCad Library")
  (tags "SC-74 SO")
  (attr smd)
  (fp_text reference REF** (at 0 -2.6) (layer F.SilkS)
    (effects (font (size 1 1) (thickness 0.15)))
  )
  (fp_text value SC-74-6_1.5x2.9mm_P0.95mm (at 0 2.4) (layer F.Fab)
    (effects (font (size 1 1) (thickness 0.15)))
  )
  (fp_line (start 2.0955 -1.7145) (end -1.651 -1.7145) (layer F.SilkS) (width 0.12))
  (fp_line (start 2.0955 1.7145) (end 2.0955 -1.7145) (layer F.SilkS) (width 0.12))
  (fp_line (start -2.0955 1.7145) (end 2.0955 1.7145) (layer F.SilkS) (width 0.12))
  (fp_line (start -2.0955 -1.27) (end -2.0955 1.7145) (layer F.SilkS) (width 0.12))
  (fp_line (start 2.1 -1.7) (end -2.1 -1.7) (layer F.CrtYd) (width 0.05))
  (fp_line (start 2.1 1.7) (end 2.1 -1.7) (layer F.CrtYd) (width 0.05))
  (fp_line (start -2.1 1.7) (end 2.1 1.7) (layer F.CrtYd) (width 0.05))
  (fp_line (start -2.1 -1.7) (end -2.1 1.7) (layer F.CrtYd) (width 0.05))
  (fp_line (start -0.75 -1.075) (end -0.375 -1.45) (layer F.Fab) (width 0.1))
  (fp_line (start -0.75 1.45) (end -0.75 -1.075) (layer F.Fab) (width 0.1))
  (fp_line (start 0.75 1.45) (end -0.75 1.45) (layer F.Fab) (width 0.1))
  (fp_line (start 0.75 -1.45) (end 0.75 1.45) (layer F.Fab) (width 0.1))
  (fp_line (start -0.375 -1.45) (end 0.75 -1.45) (layer F.Fab) (width 0.1))
  (fp_circle (center -1.9685 -1.5875) (end -1.905 -1.5875) (layer F.SilkS) (width 0.2))
  (fp_text user %R (at 0 0) (layer F.Fab)
    (effects (font (size 0.38 0.38) (thickness 0.06)))
  )
  (pad 6 smd roundrect (at 1.1375 -0.95) (size 1.425 0.5) (layers F.Cu F.Paste F.Mask) (roundrect_rratio 0.25))
  (pad 5 smd roundrect (at 1.1375 0) (size 1.425 0.5) (layers F.Cu F.Paste F.Mask) (roundrect_rratio 0.25))
  (pad 4 smd roundrect (at 1.1375 0.95) (size 1.425 0.5) (layers F.Cu F.Paste F.Mask) (roundrect_rratio 0.25))
  (pad 3 smd roundrect (at -1.1375 0.95) (size 1.425 0.5) (layers F.Cu F.Paste F.Mask) (roundrect_rratio 0.25))
  (pad 2 smd roundrect (at -1.1375 0) (size 1.425 0.5) (layers F.Cu F.Paste F.Mask) (roundrect_rratio 0.25))
  (pad 1 smd roundrect (at -1.1375 -0.95) (size 1.425 0.5) (layers F.Cu F.Paste F.Mask) (roundrect_rratio 0.25))
  (model ${KISYS3DMOD}/Package_SO.3dshapes/SC-74-6_1.5x2.9mm_P0.95mm.wrl
    (at (xyz 0 0 0))
    (scale (xyz 1 1 1))
    (rotate (xyz 0 0 0))
  )
)
