(module SO-20_5.3x12.6mm_P1.27mm (layer F.Cu) (tedit 607FDC9F)
  (descr "SO, 20 Pin (https://www.ti.com/lit/ml/msop002a/msop002a.pdf), Alternate KiCad Library")
  (tags "SO SO")
  (attr smd)
  (fp_text reference REF** (at 0 -7.25) (layer F.SilkS)
    (effects (font (size 1 1) (thickness 0.15)))
  )
  (fp_text value SO-20_5.3x12.6mm_P1.27mm (at 0 7.25) (layer F.Fab)
    (effects (font (size 1 1) (thickness 0.15)))
  )
  (fp_line (start 4.699 -5.715) (end 5.08 -5.715) (layer F.SilkS) (width 0.12))
  (fp_line (start 4.699 0.635) (end 4.953 0.635) (layer F.SilkS) (width 0.12))
  (fp_line (start -4.699 5.715) (end -5.08 5.715) (layer F.SilkS) (width 0.12))
  (fp_line (start -4.699 -0.635) (end -4.953 -0.635) (layer F.SilkS) (width 0.12))
  (fp_circle (center -4.5085 -6.35) (end -4.445 -6.35) (layer F.SilkS) (width 0.3))
  (fp_line (start -1.65 -6.3) (end 2.65 -6.3) (layer F.Fab) (width 0.1))
  (fp_line (start 2.65 -6.3) (end 2.65 6.3) (layer F.Fab) (width 0.1))
  (fp_line (start 2.65 6.3) (end -2.65 6.3) (layer F.Fab) (width 0.1))
  (fp_line (start -2.65 6.3) (end -2.65 -5.3) (layer F.Fab) (width 0.1))
  (fp_line (start -2.65 -5.3) (end -1.65 -6.3) (layer F.Fab) (width 0.1))
  (fp_line (start -4.7 -6.55) (end -4.7 6.55) (layer F.CrtYd) (width 0.05))
  (fp_line (start -4.7 6.55) (end 4.7 6.55) (layer F.CrtYd) (width 0.05))
  (fp_line (start 4.7 6.55) (end 4.7 -6.55) (layer F.CrtYd) (width 0.05))
  (fp_line (start 4.7 -6.55) (end -4.7 -6.55) (layer F.CrtYd) (width 0.05))
  (fp_line (start -4.699 -6.0325) (end -4.699 6.5405) (layer F.SilkS) (width 0.12))
  (fp_line (start -4.699 6.5405) (end 4.699 6.5405) (layer F.SilkS) (width 0.12))
  (fp_line (start 4.699 6.5405) (end 4.699 -6.5405) (layer F.SilkS) (width 0.12))
  (fp_line (start 4.699 -6.5405) (end -4.191 -6.5405) (layer F.SilkS) (width 0.12))
  (fp_text user %R (at 0 0) (layer F.Fab)
    (effects (font (size 1 1) (thickness 0.15)))
  )
  (pad 20 smd roundrect (at 3.4625 -5.715) (size 1.975 0.6) (layers F.Cu F.Paste F.Mask) (roundrect_rratio 0.25))
  (pad 19 smd roundrect (at 3.4625 -4.445) (size 1.975 0.6) (layers F.Cu F.Paste F.Mask) (roundrect_rratio 0.25))
  (pad 18 smd roundrect (at 3.4625 -3.175) (size 1.975 0.6) (layers F.Cu F.Paste F.Mask) (roundrect_rratio 0.25))
  (pad 17 smd roundrect (at 3.4625 -1.905) (size 1.975 0.6) (layers F.Cu F.Paste F.Mask) (roundrect_rratio 0.25))
  (pad 16 smd roundrect (at 3.4625 -0.635) (size 1.975 0.6) (layers F.Cu F.Paste F.Mask) (roundrect_rratio 0.25))
  (pad 15 smd roundrect (at 3.4625 0.635) (size 1.975 0.6) (layers F.Cu F.Paste F.Mask) (roundrect_rratio 0.25))
  (pad 14 smd roundrect (at 3.4625 1.905) (size 1.975 0.6) (layers F.Cu F.Paste F.Mask) (roundrect_rratio 0.25))
  (pad 13 smd roundrect (at 3.4625 3.175) (size 1.975 0.6) (layers F.Cu F.Paste F.Mask) (roundrect_rratio 0.25))
  (pad 12 smd roundrect (at 3.4625 4.445) (size 1.975 0.6) (layers F.Cu F.Paste F.Mask) (roundrect_rratio 0.25))
  (pad 11 smd roundrect (at 3.4625 5.715) (size 1.975 0.6) (layers F.Cu F.Paste F.Mask) (roundrect_rratio 0.25))
  (pad 10 smd roundrect (at -3.4625 5.715) (size 1.975 0.6) (layers F.Cu F.Paste F.Mask) (roundrect_rratio 0.25))
  (pad 9 smd roundrect (at -3.4625 4.445) (size 1.975 0.6) (layers F.Cu F.Paste F.Mask) (roundrect_rratio 0.25))
  (pad 8 smd roundrect (at -3.4625 3.175) (size 1.975 0.6) (layers F.Cu F.Paste F.Mask) (roundrect_rratio 0.25))
  (pad 7 smd roundrect (at -3.4625 1.905) (size 1.975 0.6) (layers F.Cu F.Paste F.Mask) (roundrect_rratio 0.25))
  (pad 6 smd roundrect (at -3.4625 0.635) (size 1.975 0.6) (layers F.Cu F.Paste F.Mask) (roundrect_rratio 0.25))
  (pad 5 smd roundrect (at -3.4625 -0.635) (size 1.975 0.6) (layers F.Cu F.Paste F.Mask) (roundrect_rratio 0.25))
  (pad 4 smd roundrect (at -3.4625 -1.905) (size 1.975 0.6) (layers F.Cu F.Paste F.Mask) (roundrect_rratio 0.25))
  (pad 3 smd roundrect (at -3.4625 -3.175) (size 1.975 0.6) (layers F.Cu F.Paste F.Mask) (roundrect_rratio 0.25))
  (pad 2 smd roundrect (at -3.4625 -4.445) (size 1.975 0.6) (layers F.Cu F.Paste F.Mask) (roundrect_rratio 0.25))
  (pad 1 smd roundrect (at -3.4625 -5.715) (size 1.975 0.6) (layers F.Cu F.Paste F.Mask) (roundrect_rratio 0.25))
  (model ${KISYS3DMOD}/Package_SO.3dshapes/SO-20_5.3x12.6mm_P1.27mm.wrl
    (at (xyz 0 0 0))
    (scale (xyz 1 1 1))
    (rotate (xyz 0 0 0))
  )
)
