(module SO-4_4.4x3.6mm_P2.54mm (layer F.Cu) (tedit 607FDC27)
  (descr "4-Lead Plastic Small Outline (SO), see https://www.elpro.org/de/index.php?controller=attachment&id_attachment=339, Alternate KiCad Library")
  (tags "SO SOIC 2.54")
  (attr smd)
  (fp_text reference REF** (at 0 -2.7) (layer F.SilkS)
    (effects (font (size 1 1) (thickness 0.15)))
  )
  (fp_text value SO-4_4.4x3.6mm_P2.54mm (at 0 2.8) (layer F.Fab)
    (effects (font (size 1 1) (thickness 0.15)))
  )
  (fp_line (start -4.445 2.032) (end -4.445 -1.5875) (layer F.SilkS) (width 0.12))
  (fp_line (start 4.445 2.032) (end -4.445 2.032) (layer F.SilkS) (width 0.12))
  (fp_line (start 4.445 -2.032) (end 4.445 2.032) (layer F.SilkS) (width 0.12))
  (fp_line (start 4.3815 -2.032) (end 4.445 -2.032) (layer F.SilkS) (width 0.12))
  (fp_line (start -4.0005 -2.032) (end 4.3815 -2.032) (layer F.SilkS) (width 0.12))
  (fp_line (start 4.4 2.05) (end -4.4 2.05) (layer F.CrtYd) (width 0.05))
  (fp_line (start 4.4 2.05) (end 4.4 -2.05) (layer F.CrtYd) (width 0.05))
  (fp_line (start -4.4 -2.05) (end -4.4 2.05) (layer F.CrtYd) (width 0.05))
  (fp_line (start -4.4 -2.05) (end 4.4 -2.05) (layer F.CrtYd) (width 0.05))
  (fp_line (start -1.4 -1.8) (end 2.2 -1.8) (layer F.Fab) (width 0.12))
  (fp_line (start -2.2 -1) (end -1.4 -1.8) (layer F.Fab) (width 0.12))
  (fp_line (start -2.2 1.8) (end -2.2 -1) (layer F.Fab) (width 0.12))
  (fp_line (start 2.2 1.8) (end -2.2 1.8) (layer F.Fab) (width 0.12))
  (fp_line (start 2.2 -1.8) (end 2.2 1.8) (layer F.Fab) (width 0.12))
  (fp_circle (center -4.318 -1.905) (end -4.2545 -1.905) (layer F.SilkS) (width 0.2))
  (fp_text user %R (at 0 -0.065) (layer F.Fab)
    (effects (font (size 1 1) (thickness 0.15)))
  )
  (pad 4 smd rect (at 3.15 -1.27) (size 2 0.64) (layers F.Cu F.Paste F.Mask))
  (pad 3 smd rect (at 3.15 1.27) (size 2 0.64) (layers F.Cu F.Paste F.Mask))
  (pad 2 smd rect (at -3.15 1.27) (size 2 0.64) (layers F.Cu F.Paste F.Mask))
  (pad 1 smd rect (at -3.15 -1.27) (size 2 0.64) (layers F.Cu F.Paste F.Mask))
  (model ${KISYS3DMOD}/Package_SO.3dshapes/SO-4_4.4x3.6mm_P2.54mm.wrl
    (at (xyz 0 0 0))
    (scale (xyz 1 1 1))
    (rotate (xyz 0 0 0))
  )
)
