(module SO-5_4.4x3.6mm_P1.27mm (layer F.Cu) (tedit 607FDC4C)
  (descr "5-Lead Plastic Small Outline (SO), see https://docs.broadcom.com/cs/Satellite?blobcol=urldata&blobheader=application%2Fpdf&blobheadername1=Content-Disposition&blobheadername2=Content-Type&blobheadername3=MDT-Type&blobheadervalue1=attachment%3Bfilename%3DIPD-Selection-Guide_AV00-0254EN_030617.pdf&blobheadervalue2=application%2Fx-download&blobheadervalue3=abinary%253B%2Bcharset%253DUTF-8&blobkey=id&blobnocache=true&blobtable=MungoBlobs&blobwhere=1430884105675&ssbinary=true, Alternate KiCad Library")
  (tags "SO SOIC 1.27")
  (attr smd)
  (fp_text reference REF** (at 0 -2.8575) (layer F.SilkS)
    (effects (font (size 1 1) (thickness 0.15)))
  )
  (fp_text value SO-5_4.4x3.6mm_P1.27mm (at 0.05 3.385) (layer F.Fab)
    (effects (font (size 1 1) (thickness 0.15)))
  )
  (fp_line (start 4.445 -2.032) (end 4.445 2.032) (layer F.SilkS) (width 0.12))
  (fp_line (start 4.445 2.032) (end -4.445 2.032) (layer F.SilkS) (width 0.12))
  (fp_line (start 4.3815 -2.032) (end 4.445 -2.032) (layer F.SilkS) (width 0.12))
  (fp_line (start -4.445 2.032) (end -4.445 -1.5875) (layer F.SilkS) (width 0.12))
  (fp_line (start -4.0005 -2.032) (end 4.3815 -2.032) (layer F.SilkS) (width 0.12))
  (fp_circle (center -4.318 -1.905) (end -4.2545 -1.905) (layer F.SilkS) (width 0.2))
  (fp_line (start 4.4 2.05) (end -4.4 2.05) (layer F.CrtYd) (width 0.05))
  (fp_line (start 4.4 2.05) (end 4.4 -2.05) (layer F.CrtYd) (width 0.05))
  (fp_line (start -4.4 -2.05) (end -4.4 2.05) (layer F.CrtYd) (width 0.05))
  (fp_line (start -4.4 -2.05) (end 4.4 -2.05) (layer F.CrtYd) (width 0.05))
  (fp_line (start -1.4 -1.8) (end 2.2 -1.8) (layer F.Fab) (width 0.12))
  (fp_line (start -2.2 -1) (end -1.4 -1.8) (layer F.Fab) (width 0.12))
  (fp_line (start -2.2 1.8) (end -2.2 -1) (layer F.Fab) (width 0.12))
  (fp_line (start 2.2 1.8) (end -2.2 1.8) (layer F.Fab) (width 0.12))
  (fp_line (start 2.2 -1.8) (end 2.2 1.8) (layer F.Fab) (width 0.12))
  (fp_text user %R (at 0 -0.065) (layer F.Fab)
    (effects (font (size 1 1) (thickness 0.15)))
  )
  (pad 6 smd rect (at 3.15 -1.27) (size 2 0.64) (layers F.Cu F.Paste F.Mask))
  (pad 5 smd rect (at 3.15 0) (size 2 0.64) (layers F.Cu F.Paste F.Mask))
  (pad 4 smd rect (at 3.15 1.27) (size 2 0.64) (layers F.Cu F.Paste F.Mask))
  (pad 3 smd rect (at -3.15 1.27) (size 2 0.64) (layers F.Cu F.Paste F.Mask))
  (pad 1 smd rect (at -3.15 -1.27) (size 2 0.64) (layers F.Cu F.Paste F.Mask))
  (model ${KISYS3DMOD}/Package_SO.3dshapes/SO-5_4.4x3.6mm_P1.27mm.wrl
    (at (xyz 0 0 0))
    (scale (xyz 1 1 1))
    (rotate (xyz 0 0 0))
  )
)
