(module SOIC-4_4.55x3.7mm_P2.54mm (layer F.Cu) (tedit 607FDCD4)
  (descr "SOIC, 6 Pin (https://toshiba.semicon-storage.com/info/docget.jsp?did=11791&prodName=TLP185), Alternate KiCad Library")
  (tags "SOIC SO")
  (attr smd)
  (fp_text reference REF** (at 0 -2.8) (layer F.SilkS)
    (effects (font (size 1 1) (thickness 0.15)))
  )
  (fp_text value SOIC-4_4.55x3.7mm_P2.54mm (at 0 2.8) (layer F.Fab)
    (effects (font (size 1 1) (thickness 0.15)))
  )
  (fp_line (start 4.318 -2.0955) (end -3.7465 -2.0955) (layer F.SilkS) (width 0.12))
  (fp_line (start 4.318 2.0955) (end 4.318 -2.0955) (layer F.SilkS) (width 0.12))
  (fp_line (start -4.318 2.0955) (end 4.318 2.0955) (layer F.SilkS) (width 0.12))
  (fp_line (start -4.318 -1.524) (end -4.318 2.0955) (layer F.SilkS) (width 0.12))
  (fp_line (start 4.3 -2.1) (end -4.3 -2.1) (layer F.CrtYd) (width 0.05))
  (fp_line (start 4.3 2.1) (end 4.3 -2.1) (layer F.CrtYd) (width 0.05))
  (fp_line (start -4.3 2.1) (end 4.3 2.1) (layer F.CrtYd) (width 0.05))
  (fp_line (start -4.3 -2.1) (end -4.3 2.1) (layer F.CrtYd) (width 0.05))
  (fp_line (start -2.275 -0.925) (end -1.35 -1.85) (layer F.Fab) (width 0.1))
  (fp_line (start -2.275 1.85) (end -2.275 -0.925) (layer F.Fab) (width 0.1))
  (fp_line (start 2.275 1.85) (end -2.275 1.85) (layer F.Fab) (width 0.1))
  (fp_line (start 2.275 -1.85) (end 2.275 1.85) (layer F.Fab) (width 0.1))
  (fp_line (start -1.35 -1.85) (end 2.275 -1.85) (layer F.Fab) (width 0.1))
  (fp_circle (center -4.1275 -1.905) (end -4.064 -1.905) (layer F.SilkS) (width 0.3))
  (fp_text user %R (at 0 0) (layer F.Fab)
    (effects (font (size 1 1) (thickness 0.15)))
  )
  (pad 6 smd roundrect (at 3.25 -1.27) (size 1.6 0.55) (layers F.Cu F.Paste F.Mask) (roundrect_rratio 0.25))
  (pad 4 smd roundrect (at 3.25 1.27) (size 1.6 0.55) (layers F.Cu F.Paste F.Mask) (roundrect_rratio 0.25))
  (pad 3 smd roundrect (at -3.25 1.27) (size 1.6 0.55) (layers F.Cu F.Paste F.Mask) (roundrect_rratio 0.25))
  (pad 1 smd roundrect (at -3.25 -1.27) (size 1.6 0.55) (layers F.Cu F.Paste F.Mask) (roundrect_rratio 0.25))
  (model ${KISYS3DMOD}/Package_SO.3dshapes/SOIC-4_4.55x3.7mm_P2.54mm.wrl
    (at (xyz 0 0 0))
    (scale (xyz 1 1 1))
    (rotate (xyz 0 0 0))
  )
)
