(module SOIC-16W-12_7.5x10.3mm_P1.27mm (layer F.Cu) (tedit 607FDD5A)
  (descr "SOIC-16 With 12 Pin Placed - Wide, 7.50 mm Body [SOIC] (https://docs.broadcom.com/docs/AV02-0169EN), Alternate KiCad Library")
  (tags "SOIC 1.27 16 12 Wide")
  (attr smd)
  (fp_text reference REF** (at 0 -6.25) (layer F.SilkS)
    (effects (font (size 1 1) (thickness 0.15)))
  )
  (fp_text value SOIC-16W-12_7.5x10.3mm_P1.27mm (at 0 6.25) (layer F.Fab)
    (effects (font (size 1 1) (thickness 0.15)))
  )
  (fp_line (start 5.6515 -5.461) (end -5.08 -5.461) (layer F.SilkS) (width 0.12))
  (fp_line (start 5.6515 5.461) (end 5.6515 -5.461) (layer F.SilkS) (width 0.12))
  (fp_line (start -5.6515 5.461) (end 5.6515 5.461) (layer F.SilkS) (width 0.12))
  (fp_line (start -5.6515 -4.8895) (end -5.6515 5.461) (layer F.SilkS) (width 0.12))
  (fp_line (start -5.65 5.5) (end 5.65 5.5) (layer F.CrtYd) (width 0.05))
  (fp_line (start -5.65 -5.5) (end 5.65 -5.5) (layer F.CrtYd) (width 0.05))
  (fp_line (start 5.65 -5.5) (end 5.65 5.5) (layer F.CrtYd) (width 0.05))
  (fp_line (start -5.65 -5.5) (end -5.65 5.5) (layer F.CrtYd) (width 0.05))
  (fp_line (start -3.75 -4.15) (end -2.75 -5.15) (layer F.Fab) (width 0.15))
  (fp_line (start -3.75 5.15) (end -3.75 -4.15) (layer F.Fab) (width 0.15))
  (fp_line (start 3.75 5.15) (end -3.75 5.15) (layer F.Fab) (width 0.15))
  (fp_line (start 3.75 -5.15) (end 3.75 5.15) (layer F.Fab) (width 0.15))
  (fp_line (start -2.75 -5.15) (end 3.75 -5.15) (layer F.Fab) (width 0.15))
  (fp_circle (center -5.3975 -5.207) (end -5.334 -5.207) (layer F.SilkS) (width 0.3))
  (fp_text user %R (at 0 0) (layer F.Fab)
    (effects (font (size 1 1) (thickness 0.15)))
  )
  (pad 16 smd rect (at 4.65 -4.445) (size 1.5 0.6) (layers F.Cu F.Paste F.Mask))
  (pad 15 smd rect (at 4.65 -3.175) (size 1.5 0.6) (layers F.Cu F.Paste F.Mask))
  (pad 14 smd rect (at 4.65 -1.905) (size 1.5 0.6) (layers F.Cu F.Paste F.Mask))
  (pad 11 smd rect (at 4.65 1.905) (size 1.5 0.6) (layers F.Cu F.Paste F.Mask))
  (pad 10 smd rect (at 4.65 3.175) (size 1.5 0.6) (layers F.Cu F.Paste F.Mask))
  (pad 9 smd rect (at 4.65 4.445) (size 1.5 0.6) (layers F.Cu F.Paste F.Mask))
  (pad 8 smd rect (at -4.65 4.445) (size 1.5 0.6) (layers F.Cu F.Paste F.Mask))
  (pad 7 smd rect (at -4.65 3.175) (size 1.5 0.6) (layers F.Cu F.Paste F.Mask))
  (pad 6 smd rect (at -4.65 1.905) (size 1.5 0.6) (layers F.Cu F.Paste F.Mask))
  (pad 3 smd rect (at -4.65 -1.905) (size 1.5 0.6) (layers F.Cu F.Paste F.Mask))
  (pad 2 smd rect (at -4.65 -3.175) (size 1.5 0.6) (layers F.Cu F.Paste F.Mask))
  (pad 1 smd rect (at -4.65 -4.445) (size 1.5 0.6) (layers F.Cu F.Paste F.Mask))
  (model ${KISYS3DMOD}/Package_SO.3dshapes/SOIC-16W-12_7.5x10.3mm_P1.27mm.wrl
    (at (xyz 0 0 0))
    (scale (xyz 1 1 1))
    (rotate (xyz 0 0 0))
  )
)
