(module SOIC-8-1EP_3.9x4.9mm_P1.27mm_EP2.514x3.2mm_ThermalVias (layer F.Cu) (tedit 607FDD21)
  (descr "SOIC, 8 Pin (https://www.renesas.com/eu/en/www/doc/datasheet/hip2100.pdf#page=13), Alternate KiCad Library")
  (tags "SOIC SO")
  (attr smd)
  (fp_text reference REF** (at 0 -3.4) (layer F.SilkS)
    (effects (font (size 1 1) (thickness 0.15)))
  )
  (fp_text value SOIC-8-1EP_3.9x4.9mm_P1.27mm_EP2.514x3.2mm_ThermalVias (at 0 3.4) (layer F.Fab)
    (effects (font (size 1 1) (thickness 0.15)))
  )
  (fp_line (start 3.7465 -2.7305) (end -3.2385 -2.7305) (layer F.SilkS) (width 0.12))
  (fp_line (start -3.7465 2.7305) (end 3.7465 2.7305) (layer F.SilkS) (width 0.12))
  (fp_line (start 3.7465 2.7305) (end 3.7465 -2.7305) (layer F.SilkS) (width 0.12))
  (fp_line (start -3.7465 -2.2225) (end -3.7465 2.7305) (layer F.SilkS) (width 0.12))
  (fp_circle (center -3.556 -2.54) (end -3.4925 -2.54) (layer F.SilkS) (width 0.2))
  (fp_line (start 3.7 -2.7) (end -3.7 -2.7) (layer F.CrtYd) (width 0.05))
  (fp_line (start 3.7 2.7) (end 3.7 -2.7) (layer F.CrtYd) (width 0.05))
  (fp_line (start -3.7 2.7) (end 3.7 2.7) (layer F.CrtYd) (width 0.05))
  (fp_line (start -3.7 -2.7) (end -3.7 2.7) (layer F.CrtYd) (width 0.05))
  (fp_line (start -1.95 -1.475) (end -0.975 -2.45) (layer F.Fab) (width 0.1))
  (fp_line (start -1.95 2.45) (end -1.95 -1.475) (layer F.Fab) (width 0.1))
  (fp_line (start 1.95 2.45) (end -1.95 2.45) (layer F.Fab) (width 0.1))
  (fp_line (start 1.95 -2.45) (end 1.95 2.45) (layer F.Fab) (width 0.1))
  (fp_line (start -0.975 -2.45) (end 1.95 -2.45) (layer F.Fab) (width 0.1))
  (fp_text user %R (at 0 0) (layer F.Fab)
    (effects (font (size 0.98 0.98) (thickness 0.15)))
  )
  (pad "" smd roundrect (at 0.63 0.8) (size 1.05 1.34) (layers F.Paste) (roundrect_rratio 0.238095))
  (pad "" smd roundrect (at 0.63 -0.8) (size 1.05 1.34) (layers F.Paste) (roundrect_rratio 0.238095))
  (pad "" smd roundrect (at -0.63 0.8) (size 1.05 1.34) (layers F.Paste) (roundrect_rratio 0.238095))
  (pad "" smd roundrect (at -0.63 -0.8) (size 1.05 1.34) (layers F.Paste) (roundrect_rratio 0.238095))
  (pad 9 smd rect (at 0 0) (size 1.9 2.5) (layers B.Cu B.Mask))
  (pad 9 thru_hole circle (at 0.7 1) (size 0.5 0.5) (drill 0.2) (layers *.Cu))
  (pad 9 thru_hole circle (at -0.7 1) (size 0.5 0.5) (drill 0.2) (layers *.Cu))
  (pad 9 thru_hole circle (at 0.7 0) (size 0.5 0.5) (drill 0.2) (layers *.Cu))
  (pad 9 thru_hole circle (at -0.7 0) (size 0.5 0.5) (drill 0.2) (layers *.Cu))
  (pad 9 thru_hole circle (at 0.7 -1) (size 0.5 0.5) (drill 0.2) (layers *.Cu))
  (pad 9 thru_hole circle (at -0.7 -1) (size 0.5 0.5) (drill 0.2) (layers *.Cu))
  (pad 9 smd rect (at 0 0) (size 2.514 3.2) (layers F.Cu F.Mask))
  (pad 8 smd roundrect (at 2.6375 -1.905) (size 1.625 0.6) (layers F.Cu F.Paste F.Mask) (roundrect_rratio 0.25))
  (pad 7 smd roundrect (at 2.6375 -0.635) (size 1.625 0.6) (layers F.Cu F.Paste F.Mask) (roundrect_rratio 0.25))
  (pad 6 smd roundrect (at 2.6375 0.635) (size 1.625 0.6) (layers F.Cu F.Paste F.Mask) (roundrect_rratio 0.25))
  (pad 5 smd roundrect (at 2.6375 1.905) (size 1.625 0.6) (layers F.Cu F.Paste F.Mask) (roundrect_rratio 0.25))
  (pad 4 smd roundrect (at -2.6375 1.905) (size 1.625 0.6) (layers F.Cu F.Paste F.Mask) (roundrect_rratio 0.25))
  (pad 3 smd roundrect (at -2.6375 0.635) (size 1.625 0.6) (layers F.Cu F.Paste F.Mask) (roundrect_rratio 0.25))
  (pad 2 smd roundrect (at -2.6375 -0.635) (size 1.625 0.6) (layers F.Cu F.Paste F.Mask) (roundrect_rratio 0.25))
  (pad 1 smd roundrect (at -2.6375 -1.905) (size 1.625 0.6) (layers F.Cu F.Paste F.Mask) (roundrect_rratio 0.25))
  (model ${KISYS3DMOD}/Package_SO.3dshapes/SOIC-8-1EP_3.9x4.9mm_P1.27mm_EP2.514x3.2mm.wrl
    (at (xyz 0 0 0))
    (scale (xyz 1 1 1))
    (rotate (xyz 0 0 0))
  )
)
