(module SOIC-4_4.55x2.6mm_P1.27mm (layer F.Cu) (tedit 607FDCB6)
  (descr "SOIC, 4 Pin (https://toshiba.semicon-storage.com/info/docget.jsp?did=12884&prodName=TLP291), Alternate KiCad Library")
  (tags "SOIC SO")
  (attr smd)
  (fp_text reference REF** (at 0 -2.25) (layer F.SilkS)
    (effects (font (size 1 1) (thickness 0.15)))
  )
  (fp_text value SOIC-4_4.55x2.6mm_P1.27mm (at 0 2.25) (layer F.Fab)
    (effects (font (size 1 1) (thickness 0.15)))
  )
  (fp_line (start 4.318 -1.524) (end -3.81 -1.524) (layer F.SilkS) (width 0.12))
  (fp_line (start 4.318 1.524) (end 4.318 -1.524) (layer F.SilkS) (width 0.12))
  (fp_line (start -4.318 1.524) (end 4.318 1.524) (layer F.SilkS) (width 0.12))
  (fp_line (start -4.318 -1.016) (end -4.318 1.524) (layer F.SilkS) (width 0.12))
  (fp_line (start 4.3 -1.55) (end -4.3 -1.55) (layer F.CrtYd) (width 0.05))
  (fp_line (start 4.3 1.55) (end 4.3 -1.55) (layer F.CrtYd) (width 0.05))
  (fp_line (start -4.3 1.55) (end 4.3 1.55) (layer F.CrtYd) (width 0.05))
  (fp_line (start -4.3 -1.55) (end -4.3 1.55) (layer F.CrtYd) (width 0.05))
  (fp_line (start -2.275 -0.65) (end -1.625 -1.3) (layer F.Fab) (width 0.1))
  (fp_line (start -2.275 1.3) (end -2.275 -0.65) (layer F.Fab) (width 0.1))
  (fp_line (start 2.275 1.3) (end -2.275 1.3) (layer F.Fab) (width 0.1))
  (fp_line (start 2.275 -1.3) (end 2.275 1.3) (layer F.Fab) (width 0.1))
  (fp_line (start -1.625 -1.3) (end 2.275 -1.3) (layer F.Fab) (width 0.1))
  (fp_circle (center -4.1275 -1.3335) (end -4.064 -1.3335) (layer F.SilkS) (width 0.3))
  (fp_text user %R (at 0 0) (layer F.Fab)
    (effects (font (size 1 1) (thickness 0.15)))
  )
  (pad 4 smd roundrect (at 3.25 -0.635) (size 1.6 0.55) (layers F.Cu F.Paste F.Mask) (roundrect_rratio 0.25))
  (pad 3 smd roundrect (at 3.25 0.635) (size 1.6 0.55) (layers F.Cu F.Paste F.Mask) (roundrect_rratio 0.25))
  (pad 2 smd roundrect (at -3.25 0.635) (size 1.6 0.55) (layers F.Cu F.Paste F.Mask) (roundrect_rratio 0.25))
  (pad 1 smd roundrect (at -3.25 -0.635) (size 1.6 0.55) (layers F.Cu F.Paste F.Mask) (roundrect_rratio 0.25))
  (model ${KISYS3DMOD}/Package_SO.3dshapes/SOIC-4_4.55x2.6mm_P1.27mm.wrl
    (at (xyz 0 0 0))
    (scale (xyz 1 1 1))
    (rotate (xyz 0 0 0))
  )
)
