(module SOIC-8-N7_3.9x4.9mm_P1.27mm (layer F.Cu) (tedit 607FDD2A)
  (descr "8-Lead Plastic Small Outline (SN) - Narrow, 3.90 mm Body [SOIC], pin 7 removed (Microchip Packaging Specification 00000049BS.pdf, http://www.onsemi.com/pub/Collateral/NCP1207B.PDF), Alternate KiCad Library")
  (tags "SOIC 1.27")
  (attr smd)
  (fp_text reference REF** (at 0 -3.5) (layer F.SilkS)
    (effects (font (size 1 1) (thickness 0.15)))
  )
  (fp_text value SOIC-8-N7_3.9x4.9mm_P1.27mm (at 0 3.5) (layer F.Fab)
    (effects (font (size 1 1) (thickness 0.15)))
  )
  (fp_line (start 3.7465 -2.7305) (end -3.2385 -2.7305) (layer F.SilkS) (width 0.12))
  (fp_line (start -3.7465 2.7305) (end 3.7465 2.7305) (layer F.SilkS) (width 0.12))
  (fp_line (start 3.7465 2.7305) (end 3.7465 -2.7305) (layer F.SilkS) (width 0.12))
  (fp_line (start -3.7465 -2.2225) (end -3.7465 2.7305) (layer F.SilkS) (width 0.12))
  (fp_circle (center -3.556 -2.54) (end -3.4925 -2.54) (layer F.SilkS) (width 0.2))
  (fp_line (start -3.73 2.7) (end 3.73 2.7) (layer F.CrtYd) (width 0.05))
  (fp_line (start -3.73 -2.7) (end 3.73 -2.7) (layer F.CrtYd) (width 0.05))
  (fp_line (start 3.73 -2.7) (end 3.73 2.7) (layer F.CrtYd) (width 0.05))
  (fp_line (start -3.73 -2.7) (end -3.73 2.7) (layer F.CrtYd) (width 0.05))
  (fp_line (start -1.95 -1.45) (end -0.95 -2.45) (layer F.Fab) (width 0.1))
  (fp_line (start -1.95 2.45) (end -1.95 -1.45) (layer F.Fab) (width 0.1))
  (fp_line (start 1.95 2.45) (end -1.95 2.45) (layer F.Fab) (width 0.1))
  (fp_line (start 1.95 -2.45) (end 1.95 2.45) (layer F.Fab) (width 0.1))
  (fp_line (start -0.95 -2.45) (end 1.95 -2.45) (layer F.Fab) (width 0.1))
  (fp_text user %R (at 0 0) (layer F.Fab)
    (effects (font (size 1 1) (thickness 0.15)))
  )
  (pad 8 smd rect (at 2.7 -1.905) (size 1.55 0.6) (layers F.Cu F.Paste F.Mask))
  (pad 6 smd rect (at 2.7 0.635) (size 1.55 0.6) (layers F.Cu F.Paste F.Mask))
  (pad 5 smd rect (at 2.7 1.905) (size 1.55 0.6) (layers F.Cu F.Paste F.Mask))
  (pad 4 smd rect (at -2.7 1.905) (size 1.55 0.6) (layers F.Cu F.Paste F.Mask))
  (pad 3 smd rect (at -2.7 0.635) (size 1.55 0.6) (layers F.Cu F.Paste F.Mask))
  (pad 2 smd rect (at -2.7 -0.635) (size 1.55 0.6) (layers F.Cu F.Paste F.Mask))
  (pad 1 smd rect (at -2.7 -1.905) (size 1.55 0.6) (layers F.Cu F.Paste F.Mask))
  (model ${KISYS3DMOD}/Package_SO.3dshapes/SOIC-8-N7_3.9x4.9mm_P1.27mm.wrl
    (at (xyz 0 0 0))
    (scale (xyz 1 1 1))
    (rotate (xyz 0 0 0))
  )
)
