(module SOIC-8_5.23x5.23mm_P1.27mm (layer F.Cu) (tedit 607FDD39)
  (descr "SOIC, 8 Pin (http://www.winbond.com/resource-files/w25q32jv%20revg%2003272018%20plus.pdf#page=68), Alternate KiCad Library")
  (tags "SOIC SO")
  (attr smd)
  (fp_text reference REF** (at 0 -3.56) (layer F.SilkS)
    (effects (font (size 1 1) (thickness 0.15)))
  )
  (fp_text value SOIC-8_5.23x5.23mm_P1.27mm (at 0 3.56) (layer F.Fab)
    (effects (font (size 1 1) (thickness 0.15)))
  )
  (fp_line (start 4.699 -2.8575) (end -4.1275 -2.8575) (layer F.SilkS) (width 0.12))
  (fp_line (start 4.699 2.8575) (end 4.699 -2.8575) (layer F.SilkS) (width 0.12))
  (fp_line (start -4.699 2.8575) (end 4.699 2.8575) (layer F.SilkS) (width 0.12))
  (fp_line (start -4.699 -2.286) (end -4.699 2.8575) (layer F.SilkS) (width 0.12))
  (fp_circle (center -4.445 -2.6035) (end -4.3815 -2.6035) (layer F.SilkS) (width 0.3))
  (fp_line (start 4.65 -2.86) (end -4.65 -2.86) (layer F.CrtYd) (width 0.05))
  (fp_line (start 4.65 2.86) (end 4.65 -2.86) (layer F.CrtYd) (width 0.05))
  (fp_line (start -4.65 2.86) (end 4.65 2.86) (layer F.CrtYd) (width 0.05))
  (fp_line (start -4.65 -2.86) (end -4.65 2.86) (layer F.CrtYd) (width 0.05))
  (fp_line (start -2.615 -1.615) (end -1.615 -2.615) (layer F.Fab) (width 0.1))
  (fp_line (start -2.615 2.615) (end -2.615 -1.615) (layer F.Fab) (width 0.1))
  (fp_line (start 2.615 2.615) (end -2.615 2.615) (layer F.Fab) (width 0.1))
  (fp_line (start 2.615 -2.615) (end 2.615 2.615) (layer F.Fab) (width 0.1))
  (fp_line (start -1.615 -2.615) (end 2.615 -2.615) (layer F.Fab) (width 0.1))
  (fp_text user %R (at 0 0) (layer F.Fab)
    (effects (font (size 1 1) (thickness 0.15)))
  )
  (pad 8 smd roundrect (at 3.6 -1.905) (size 1.6 0.6) (layers F.Cu F.Paste F.Mask) (roundrect_rratio 0.25))
  (pad 7 smd roundrect (at 3.6 -0.635) (size 1.6 0.6) (layers F.Cu F.Paste F.Mask) (roundrect_rratio 0.25))
  (pad 6 smd roundrect (at 3.6 0.635) (size 1.6 0.6) (layers F.Cu F.Paste F.Mask) (roundrect_rratio 0.25))
  (pad 5 smd roundrect (at 3.6 1.905) (size 1.6 0.6) (layers F.Cu F.Paste F.Mask) (roundrect_rratio 0.25))
  (pad 4 smd roundrect (at -3.6 1.905) (size 1.6 0.6) (layers F.Cu F.Paste F.Mask) (roundrect_rratio 0.25))
  (pad 3 smd roundrect (at -3.6 0.635) (size 1.6 0.6) (layers F.Cu F.Paste F.Mask) (roundrect_rratio 0.25))
  (pad 2 smd roundrect (at -3.6 -0.635) (size 1.6 0.6) (layers F.Cu F.Paste F.Mask) (roundrect_rratio 0.25))
  (pad 1 smd roundrect (at -3.6 -1.905) (size 1.6 0.6) (layers F.Cu F.Paste F.Mask) (roundrect_rratio 0.25))
  (model ${KISYS3DMOD}/Package_SO.3dshapes/SOIC-8_5.23x5.23mm_P1.27mm.wrl
    (at (xyz 0 0 0))
    (scale (xyz 1 1 1))
    (rotate (xyz 0 0 0))
  )
)
