(module SOIC-28W_7.5x17.9mm_P1.27mm (layer F.Cu) (tedit 607FDD95)
  (descr "SOIC, 28 Pin (JEDEC MS-013AE, https://www.analog.com/media/en/package-pcb-resources/package/35833120341221rw_28.pdf), Alternate KiCad Library")
  (tags "SOIC SO")
  (attr smd)
  (fp_text reference REF** (at 0 -9.9) (layer F.SilkS)
    (effects (font (size 1 1) (thickness 0.15)))
  )
  (fp_text value SOIC-28W_7.5x17.9mm_P1.27mm (at 0 9.9) (layer F.Fab)
    (effects (font (size 1 1) (thickness 0.15)))
  )
  (fp_line (start 5.969 -4.445) (end 6.223 -4.445) (layer F.SilkS) (width 0.12))
  (fp_line (start 5.969 1.905) (end 6.35 1.905) (layer F.SilkS) (width 0.12))
  (fp_line (start 5.969 8.255) (end 6.223 8.255) (layer F.SilkS) (width 0.12))
  (fp_line (start -5.969 3.175) (end -6.35 3.175) (layer F.SilkS) (width 0.12))
  (fp_line (start -5.969 -3.175) (end -6.223 -3.175) (layer F.SilkS) (width 0.12))
  (fp_circle (center -5.715 -8.9535) (end -5.6515 -8.9535) (layer F.SilkS) (width 0.3))
  (fp_line (start -2.75 -8.95) (end 3.75 -8.95) (layer F.Fab) (width 0.1))
  (fp_line (start 3.75 -8.95) (end 3.75 8.95) (layer F.Fab) (width 0.1))
  (fp_line (start 3.75 8.95) (end -3.75 8.95) (layer F.Fab) (width 0.1))
  (fp_line (start -3.75 8.95) (end -3.75 -7.95) (layer F.Fab) (width 0.1))
  (fp_line (start -3.75 -7.95) (end -2.75 -8.95) (layer F.Fab) (width 0.1))
  (fp_line (start -5.93 -9.2) (end -5.93 9.2) (layer F.CrtYd) (width 0.05))
  (fp_line (start -5.93 9.2) (end 5.93 9.2) (layer F.CrtYd) (width 0.05))
  (fp_line (start 5.93 9.2) (end 5.93 -9.2) (layer F.CrtYd) (width 0.05))
  (fp_line (start 5.93 -9.2) (end -5.93 -9.2) (layer F.CrtYd) (width 0.05))
  (fp_line (start -5.969 -8.636) (end -5.969 9.2075) (layer F.SilkS) (width 0.12))
  (fp_line (start -5.969 9.2075) (end 5.969 9.2075) (layer F.SilkS) (width 0.12))
  (fp_line (start 5.969 9.2075) (end 5.969 -9.2075) (layer F.SilkS) (width 0.12))
  (fp_line (start 5.969 -9.2075) (end -5.3975 -9.2075) (layer F.SilkS) (width 0.12))
  (fp_text user %R (at 0 0) (layer F.Fab)
    (effects (font (size 1 1) (thickness 0.15)))
  )
  (pad 28 smd roundrect (at 4.65 -8.255) (size 2.05 0.6) (layers F.Cu F.Paste F.Mask) (roundrect_rratio 0.25))
  (pad 27 smd roundrect (at 4.65 -6.985) (size 2.05 0.6) (layers F.Cu F.Paste F.Mask) (roundrect_rratio 0.25))
  (pad 26 smd roundrect (at 4.65 -5.715) (size 2.05 0.6) (layers F.Cu F.Paste F.Mask) (roundrect_rratio 0.25))
  (pad 25 smd roundrect (at 4.65 -4.445) (size 2.05 0.6) (layers F.Cu F.Paste F.Mask) (roundrect_rratio 0.25))
  (pad 24 smd roundrect (at 4.65 -3.175) (size 2.05 0.6) (layers F.Cu F.Paste F.Mask) (roundrect_rratio 0.25))
  (pad 23 smd roundrect (at 4.65 -1.905) (size 2.05 0.6) (layers F.Cu F.Paste F.Mask) (roundrect_rratio 0.25))
  (pad 22 smd roundrect (at 4.65 -0.635) (size 2.05 0.6) (layers F.Cu F.Paste F.Mask) (roundrect_rratio 0.25))
  (pad 21 smd roundrect (at 4.65 0.635) (size 2.05 0.6) (layers F.Cu F.Paste F.Mask) (roundrect_rratio 0.25))
  (pad 20 smd roundrect (at 4.65 1.905) (size 2.05 0.6) (layers F.Cu F.Paste F.Mask) (roundrect_rratio 0.25))
  (pad 19 smd roundrect (at 4.65 3.175) (size 2.05 0.6) (layers F.Cu F.Paste F.Mask) (roundrect_rratio 0.25))
  (pad 18 smd roundrect (at 4.65 4.445) (size 2.05 0.6) (layers F.Cu F.Paste F.Mask) (roundrect_rratio 0.25))
  (pad 17 smd roundrect (at 4.65 5.715) (size 2.05 0.6) (layers F.Cu F.Paste F.Mask) (roundrect_rratio 0.25))
  (pad 16 smd roundrect (at 4.65 6.985) (size 2.05 0.6) (layers F.Cu F.Paste F.Mask) (roundrect_rratio 0.25))
  (pad 15 smd roundrect (at 4.65 8.255) (size 2.05 0.6) (layers F.Cu F.Paste F.Mask) (roundrect_rratio 0.25))
  (pad 14 smd roundrect (at -4.65 8.255) (size 2.05 0.6) (layers F.Cu F.Paste F.Mask) (roundrect_rratio 0.25))
  (pad 13 smd roundrect (at -4.65 6.985) (size 2.05 0.6) (layers F.Cu F.Paste F.Mask) (roundrect_rratio 0.25))
  (pad 12 smd roundrect (at -4.65 5.715) (size 2.05 0.6) (layers F.Cu F.Paste F.Mask) (roundrect_rratio 0.25))
  (pad 11 smd roundrect (at -4.65 4.445) (size 2.05 0.6) (layers F.Cu F.Paste F.Mask) (roundrect_rratio 0.25))
  (pad 10 smd roundrect (at -4.65 3.175) (size 2.05 0.6) (layers F.Cu F.Paste F.Mask) (roundrect_rratio 0.25))
  (pad 9 smd roundrect (at -4.65 1.905) (size 2.05 0.6) (layers F.Cu F.Paste F.Mask) (roundrect_rratio 0.25))
  (pad 8 smd roundrect (at -4.65 0.635) (size 2.05 0.6) (layers F.Cu F.Paste F.Mask) (roundrect_rratio 0.25))
  (pad 7 smd roundrect (at -4.65 -0.635) (size 2.05 0.6) (layers F.Cu F.Paste F.Mask) (roundrect_rratio 0.25))
  (pad 6 smd roundrect (at -4.65 -1.905) (size 2.05 0.6) (layers F.Cu F.Paste F.Mask) (roundrect_rratio 0.25))
  (pad 5 smd roundrect (at -4.65 -3.175) (size 2.05 0.6) (layers F.Cu F.Paste F.Mask) (roundrect_rratio 0.25))
  (pad 4 smd roundrect (at -4.65 -4.445) (size 2.05 0.6) (layers F.Cu F.Paste F.Mask) (roundrect_rratio 0.25))
  (pad 3 smd roundrect (at -4.65 -5.715) (size 2.05 0.6) (layers F.Cu F.Paste F.Mask) (roundrect_rratio 0.25))
  (pad 2 smd roundrect (at -4.65 -6.985) (size 2.05 0.6) (layers F.Cu F.Paste F.Mask) (roundrect_rratio 0.25))
  (pad 1 smd roundrect (at -4.65 -8.255) (size 2.05 0.6) (layers F.Cu F.Paste F.Mask) (roundrect_rratio 0.25))
  (model ${KISYS3DMOD}/Package_SO.3dshapes/SOIC-28W_7.5x17.9mm_P1.27mm.wrl
    (at (xyz 0 0 0))
    (scale (xyz 1 1 1))
    (rotate (xyz 0 0 0))
  )
)
