(module SOIC-16_4.55x10.3mm_P1.27mm (layer F.Cu) (tedit 607FDD7A)
  (descr "SOIC, 16 Pin (https://toshiba.semicon-storage.com/info/docget.jsp?did=12858&prodName=TLP291-4), Alternate KiCad Library")
  (tags "SOIC SO")
  (attr smd)
  (fp_text reference REF** (at 0 -6.1) (layer F.SilkS)
    (effects (font (size 1 1) (thickness 0.15)))
  )
  (fp_text value SOIC-16_4.55x10.3mm_P1.27mm (at 0 6.1) (layer F.Fab)
    (effects (font (size 1 1) (thickness 0.15)))
  )
  (fp_line (start 4.318 -5.3975) (end -3.7465 -5.3975) (layer F.SilkS) (width 0.12))
  (fp_line (start 4.318 5.3975) (end 4.318 -5.3975) (layer F.SilkS) (width 0.12))
  (fp_line (start -4.318 5.3975) (end 4.318 5.3975) (layer F.SilkS) (width 0.12))
  (fp_line (start -4.318 -4.826) (end -4.318 5.3975) (layer F.SilkS) (width 0.12))
  (fp_circle (center -4.064 -5.1435) (end -4.0005 -5.1435) (layer F.SilkS) (width 0.3))
  (fp_line (start -1.275 -5.15) (end 2.275 -5.15) (layer F.Fab) (width 0.1))
  (fp_line (start 2.275 -5.15) (end 2.275 5.15) (layer F.Fab) (width 0.1))
  (fp_line (start 2.275 5.15) (end -2.275 5.15) (layer F.Fab) (width 0.1))
  (fp_line (start -2.275 5.15) (end -2.275 -4.15) (layer F.Fab) (width 0.1))
  (fp_line (start -2.275 -4.15) (end -1.275 -5.15) (layer F.Fab) (width 0.1))
  (fp_line (start -4.3 -5.4) (end -4.3 5.4) (layer F.CrtYd) (width 0.05))
  (fp_line (start -4.3 5.4) (end 4.3 5.4) (layer F.CrtYd) (width 0.05))
  (fp_line (start 4.3 5.4) (end 4.3 -5.4) (layer F.CrtYd) (width 0.05))
  (fp_line (start 4.3 -5.4) (end -4.3 -5.4) (layer F.CrtYd) (width 0.05))
  (fp_text user %R (at 0 0) (layer F.Fab)
    (effects (font (size 1 1) (thickness 0.15)))
  )
  (pad 16 smd roundrect (at 3.25 -4.445) (size 1.6 0.55) (layers F.Cu F.Paste F.Mask) (roundrect_rratio 0.25))
  (pad 15 smd roundrect (at 3.25 -3.175) (size 1.6 0.55) (layers F.Cu F.Paste F.Mask) (roundrect_rratio 0.25))
  (pad 14 smd roundrect (at 3.25 -1.905) (size 1.6 0.55) (layers F.Cu F.Paste F.Mask) (roundrect_rratio 0.25))
  (pad 13 smd roundrect (at 3.25 -0.635) (size 1.6 0.55) (layers F.Cu F.Paste F.Mask) (roundrect_rratio 0.25))
  (pad 12 smd roundrect (at 3.25 0.635) (size 1.6 0.55) (layers F.Cu F.Paste F.Mask) (roundrect_rratio 0.25))
  (pad 11 smd roundrect (at 3.25 1.905) (size 1.6 0.55) (layers F.Cu F.Paste F.Mask) (roundrect_rratio 0.25))
  (pad 10 smd roundrect (at 3.25 3.175) (size 1.6 0.55) (layers F.Cu F.Paste F.Mask) (roundrect_rratio 0.25))
  (pad 9 smd roundrect (at 3.25 4.445) (size 1.6 0.55) (layers F.Cu F.Paste F.Mask) (roundrect_rratio 0.25))
  (pad 8 smd roundrect (at -3.25 4.445) (size 1.6 0.55) (layers F.Cu F.Paste F.Mask) (roundrect_rratio 0.25))
  (pad 7 smd roundrect (at -3.25 3.175) (size 1.6 0.55) (layers F.Cu F.Paste F.Mask) (roundrect_rratio 0.25))
  (pad 6 smd roundrect (at -3.25 1.905) (size 1.6 0.55) (layers F.Cu F.Paste F.Mask) (roundrect_rratio 0.25))
  (pad 5 smd roundrect (at -3.25 0.635) (size 1.6 0.55) (layers F.Cu F.Paste F.Mask) (roundrect_rratio 0.25))
  (pad 4 smd roundrect (at -3.25 -0.635) (size 1.6 0.55) (layers F.Cu F.Paste F.Mask) (roundrect_rratio 0.25))
  (pad 3 smd roundrect (at -3.25 -1.905) (size 1.6 0.55) (layers F.Cu F.Paste F.Mask) (roundrect_rratio 0.25))
  (pad 2 smd roundrect (at -3.25 -3.175) (size 1.6 0.55) (layers F.Cu F.Paste F.Mask) (roundrect_rratio 0.25))
  (pad 1 smd roundrect (at -3.25 -4.445) (size 1.6 0.55) (layers F.Cu F.Paste F.Mask) (roundrect_rratio 0.25))
  (model ${KISYS3DMOD}/Package_SO.3dshapes/SOIC-16_4.55x10.3mm_P1.27mm.wrl
    (at (xyz 0 0 0))
    (scale (xyz 1 1 1))
    (rotate (xyz 0 0 0))
  )
)
