(module SOIJ-8_5.3x5.3mm_P1.27mm (layer F.Cu) (tedit 607FDDA2)
  (descr "8-Lead Plastic Small Outline (SM) - Medium, 5.28 mm Body [SOIC] (see Microchip Packaging Specification 00000049BS.pdf), Alternate KiCad Library")
  (tags "SOIC 1.27")
  (attr smd)
  (fp_text reference REF** (at 0 -3.68) (layer F.SilkS)
    (effects (font (size 1 1) (thickness 0.15)))
  )
  (fp_text value SOIJ-8_5.3x5.3mm_P1.27mm (at 0 3.68) (layer F.Fab)
    (effects (font (size 1 1) (thickness 0.15)))
  )
  (fp_line (start 4.7625 -2.921) (end -4.2545 -2.921) (layer F.SilkS) (width 0.12))
  (fp_line (start 4.7625 2.921) (end 4.7625 -2.921) (layer F.SilkS) (width 0.12))
  (fp_line (start -4.7625 2.921) (end 4.7625 2.921) (layer F.SilkS) (width 0.12))
  (fp_line (start -4.7625 -2.413) (end -4.7625 2.921) (layer F.SilkS) (width 0.12))
  (fp_circle (center -4.572 -2.7305) (end -4.5085 -2.7305) (layer F.SilkS) (width 0.3))
  (fp_line (start -1.65 -2.65) (end 2.65 -2.65) (layer F.Fab) (width 0.15))
  (fp_line (start 2.65 -2.65) (end 2.65 2.65) (layer F.Fab) (width 0.15))
  (fp_line (start 2.65 2.65) (end -2.65 2.65) (layer F.Fab) (width 0.15))
  (fp_line (start -2.65 2.65) (end -2.65 -1.65) (layer F.Fab) (width 0.15))
  (fp_line (start -2.65 -1.65) (end -1.65 -2.65) (layer F.Fab) (width 0.15))
  (fp_line (start -4.75 -2.95) (end -4.75 2.95) (layer F.CrtYd) (width 0.05))
  (fp_line (start 4.75 -2.95) (end 4.75 2.95) (layer F.CrtYd) (width 0.05))
  (fp_line (start -4.75 -2.95) (end 4.75 -2.95) (layer F.CrtYd) (width 0.05))
  (fp_line (start -4.75 2.95) (end 4.75 2.95) (layer F.CrtYd) (width 0.05))
  (fp_text user %R (at 0 0) (layer F.Fab)
    (effects (font (size 1 1) (thickness 0.15)))
  )
  (pad 8 smd rect (at 3.65 -1.905) (size 1.7 0.65) (layers F.Cu F.Paste F.Mask))
  (pad 7 smd rect (at 3.65 -0.635) (size 1.7 0.65) (layers F.Cu F.Paste F.Mask))
  (pad 6 smd rect (at 3.65 0.635) (size 1.7 0.65) (layers F.Cu F.Paste F.Mask))
  (pad 5 smd rect (at 3.65 1.905) (size 1.7 0.65) (layers F.Cu F.Paste F.Mask))
  (pad 4 smd rect (at -3.65 1.905) (size 1.7 0.65) (layers F.Cu F.Paste F.Mask))
  (pad 3 smd rect (at -3.65 0.635) (size 1.7 0.65) (layers F.Cu F.Paste F.Mask))
  (pad 2 smd rect (at -3.65 -0.635) (size 1.7 0.65) (layers F.Cu F.Paste F.Mask))
  (pad 1 smd rect (at -3.65 -1.905) (size 1.7 0.65) (layers F.Cu F.Paste F.Mask))
  (model ${KISYS3DMOD}/Package_SO.3dshapes/SOIJ-8_5.3x5.3mm_P1.27mm.wrl
    (at (xyz 0 0 0))
    (scale (xyz 1 1 1))
    (rotate (xyz 0 0 0))
  )
)
