(module SOP-8_3.76x4.96mm_P1.27mm (layer F.Cu) (tedit 607FDDD6)
  (descr "SOP, 8 Pin (https://ww2.minicircuits.com/case_style/XX211.pdf), Alternate KiCad Library")
  (tags "SOP SO")
  (attr smd)
  (fp_text reference REF** (at 0 -3.43) (layer F.SilkS)
    (effects (font (size 1 1) (thickness 0.15)))
  )
  (fp_text value SOP-8_3.76x4.96mm_P1.27mm (at 0 3.43) (layer F.Fab)
    (effects (font (size 1 1) (thickness 0.15)))
  )
  (fp_line (start 3.81 -2.7305) (end -3.302 -2.7305) (layer F.SilkS) (width 0.12))
  (fp_line (start 3.81 2.7305) (end 3.81 -2.7305) (layer F.SilkS) (width 0.12))
  (fp_line (start -3.81 2.7305) (end 3.81 2.7305) (layer F.SilkS) (width 0.12))
  (fp_line (start -3.81 -2.2225) (end -3.81 2.7305) (layer F.SilkS) (width 0.12))
  (fp_line (start 3.78 -2.73) (end -3.78 -2.73) (layer F.CrtYd) (width 0.05))
  (fp_line (start 3.78 2.73) (end 3.78 -2.73) (layer F.CrtYd) (width 0.05))
  (fp_line (start -3.78 2.73) (end 3.78 2.73) (layer F.CrtYd) (width 0.05))
  (fp_line (start -3.78 -2.73) (end -3.78 2.73) (layer F.CrtYd) (width 0.05))
  (fp_line (start -1.88 -1.54) (end -0.94 -2.48) (layer F.Fab) (width 0.1))
  (fp_line (start -1.88 2.48) (end -1.88 -1.54) (layer F.Fab) (width 0.1))
  (fp_line (start 1.88 2.48) (end -1.88 2.48) (layer F.Fab) (width 0.1))
  (fp_line (start 1.88 -2.48) (end 1.88 2.48) (layer F.Fab) (width 0.1))
  (fp_line (start -0.94 -2.48) (end 1.88 -2.48) (layer F.Fab) (width 0.1))
  (fp_circle (center -3.6195 -2.54) (end -3.556 -2.54) (layer F.SilkS) (width 0.2))
  (fp_text user %R (at 0 0) (layer F.Fab)
    (effects (font (size 0.94 0.94) (thickness 0.14)))
  )
  (pad 8 smd roundrect (at 2.5375 -1.905) (size 1.975 0.65) (layers F.Cu F.Paste F.Mask) (roundrect_rratio 0.25))
  (pad 7 smd roundrect (at 2.5375 -0.635) (size 1.975 0.65) (layers F.Cu F.Paste F.Mask) (roundrect_rratio 0.25))
  (pad 6 smd roundrect (at 2.5375 0.635) (size 1.975 0.65) (layers F.Cu F.Paste F.Mask) (roundrect_rratio 0.25))
  (pad 5 smd roundrect (at 2.5375 1.905) (size 1.975 0.65) (layers F.Cu F.Paste F.Mask) (roundrect_rratio 0.25))
  (pad 4 smd roundrect (at -2.5375 1.905) (size 1.975 0.65) (layers F.Cu F.Paste F.Mask) (roundrect_rratio 0.25))
  (pad 3 smd roundrect (at -2.5375 0.635) (size 1.975 0.65) (layers F.Cu F.Paste F.Mask) (roundrect_rratio 0.25))
  (pad 2 smd roundrect (at -2.5375 -0.635) (size 1.975 0.65) (layers F.Cu F.Paste F.Mask) (roundrect_rratio 0.25))
  (pad 1 smd roundrect (at -2.5375 -1.905) (size 1.975 0.65) (layers F.Cu F.Paste F.Mask) (roundrect_rratio 0.25))
  (model ${KISYS3DMOD}/Package_SO.3dshapes/SOP-8_3.76x4.96mm_P1.27mm.wrl
    (at (xyz 0 0 0))
    (scale (xyz 1 1 1))
    (rotate (xyz 0 0 0))
  )
)
