(module SOP-8-1EP_4.57x4.57mm_P1.27mm_EP4.57x4.45mm (layer F.Cu) (tedit 607FDDBF)
  (descr "SOP, 8 Pin (https://ww2.minicircuits.com/case_style/XX112.pdf), Alternate KiCad Library")
  (tags "SOP SO")
  (attr smd)
  (fp_text reference REF** (at 0 -3.24) (layer F.SilkS)
    (effects (font (size 1 1) (thickness 0.15)))
  )
  (fp_text value SOP-8-1EP_4.57x4.57mm_P1.27mm_EP4.57x4.45mm (at 0 3.24) (layer F.Fab)
    (effects (font (size 1 1) (thickness 0.15)))
  )
  (fp_line (start 5.7785 -2.54) (end -5.461 -2.54) (layer F.SilkS) (width 0.12))
  (fp_line (start 5.842 2.54) (end 5.842 -2.54) (layer F.SilkS) (width 0.12))
  (fp_line (start -5.842 2.54) (end 5.842 2.54) (layer F.SilkS) (width 0.12))
  (fp_line (start -5.842 -2.159) (end -5.842 2.4765) (layer F.SilkS) (width 0.12))
  (fp_line (start 5.82 -2.54) (end -5.82 -2.54) (layer F.CrtYd) (width 0.05))
  (fp_line (start 5.82 2.54) (end 5.82 -2.54) (layer F.CrtYd) (width 0.05))
  (fp_line (start -5.82 2.54) (end 5.82 2.54) (layer F.CrtYd) (width 0.05))
  (fp_line (start -5.82 -2.54) (end -5.82 2.54) (layer F.CrtYd) (width 0.05))
  (fp_line (start -2.285 -1.285) (end -1.285 -2.285) (layer F.Fab) (width 0.1))
  (fp_line (start -2.285 2.285) (end -2.285 -1.285) (layer F.Fab) (width 0.1))
  (fp_line (start 2.285 2.285) (end -2.285 2.285) (layer F.Fab) (width 0.1))
  (fp_line (start 2.285 -2.285) (end 2.285 2.285) (layer F.Fab) (width 0.1))
  (fp_line (start -1.285 -2.285) (end 2.285 -2.285) (layer F.Fab) (width 0.1))
  (fp_circle (center -5.7785 -2.4765) (end -5.715 -2.4765) (layer F.SilkS) (width 0.2))
  (fp_text user %R (at 0 0) (layer F.Fab)
    (effects (font (size 1 1) (thickness 0.15)))
  )
  (pad "" smd roundrect (at 1.14 1.11) (size 1.84 1.79) (layers F.Paste) (roundrect_rratio 0.139665))
  (pad "" smd roundrect (at 1.14 -1.11) (size 1.84 1.79) (layers F.Paste) (roundrect_rratio 0.139665))
  (pad "" smd roundrect (at -1.14 1.11) (size 1.84 1.79) (layers F.Paste) (roundrect_rratio 0.139665))
  (pad "" smd roundrect (at -1.14 -1.11) (size 1.84 1.79) (layers F.Paste) (roundrect_rratio 0.139665))
  (pad 9 smd rect (at 0 0) (size 4.57 4.45) (layers F.Cu F.Mask))
  (pad 8 smd roundrect (at 4.15 -1.905) (size 2.85 0.7) (layers F.Cu F.Paste F.Mask) (roundrect_rratio 0.25))
  (pad 7 smd roundrect (at 4.15 -0.635) (size 2.85 0.7) (layers F.Cu F.Paste F.Mask) (roundrect_rratio 0.25))
  (pad 6 smd roundrect (at 4.15 0.635) (size 2.85 0.7) (layers F.Cu F.Paste F.Mask) (roundrect_rratio 0.25))
  (pad 5 smd roundrect (at 4.15 1.905) (size 2.85 0.7) (layers F.Cu F.Paste F.Mask) (roundrect_rratio 0.25))
  (pad 4 smd roundrect (at -4.15 1.905) (size 2.85 0.7) (layers F.Cu F.Paste F.Mask) (roundrect_rratio 0.25))
  (pad 3 smd roundrect (at -4.15 0.635) (size 2.85 0.7) (layers F.Cu F.Paste F.Mask) (roundrect_rratio 0.25))
  (pad 2 smd roundrect (at -4.15 -0.635) (size 2.85 0.7) (layers F.Cu F.Paste F.Mask) (roundrect_rratio 0.25))
  (pad 1 smd roundrect (at -4.15 -1.905) (size 2.85 0.7) (layers F.Cu F.Paste F.Mask) (roundrect_rratio 0.25))
  (model ${KISYS3DMOD}/Package_SO.3dshapes/SOP-8-1EP_4.57x4.57mm_P1.27mm_EP4.57x4.45mm.wrl
    (at (xyz 0 0 0))
    (scale (xyz 1 1 1))
    (rotate (xyz 0 0 0))
  )
)
