(module SSO-8_9.6x6.3mm_P1.27mm_Clearance10.5mm (layer F.Cu) (tedit 607FDE69)
  (descr "8-Lead Plastic Stretched Small Outline (SSO/Stretched SO), see https://docs.broadcom.com/cs/Satellite?blobcol=urldata&blobheader=application%2Fpdf&blobheadername1=Content-Disposition&blobheadername2=Content-Type&blobheadername3=MDT-Type&blobheadervalue1=attachment%3Bfilename%3DIPD-Selection-Guide_AV00-0254EN_030617.pdf&blobheadervalue2=application%2Fx-download&blobheadervalue3=abinary%253B%2Bcharset%253DUTF-8&blobkey=id&blobnocache=true&blobtable=MungoBlobs&blobwhere=1430884105675&ssbinary=true, Alternate KiCad Library")
  (tags "SSO Stretched SO SOIC Pitch 1.27")
  (attr smd)
  (fp_text reference REF** (at 0 -4.2) (layer F.SilkS)
    (effects (font (size 1 1) (thickness 0.15)))
  )
  (fp_text value SSO-8_9.6x6.3mm_P1.27mm_Clearance10.5mm (at 0 4.4) (layer F.Fab)
    (effects (font (size 1 1) (thickness 0.15)))
  )
  (fp_line (start 7.493 -3.302) (end -6.985 -3.302) (layer F.SilkS) (width 0.12))
  (fp_line (start 7.493 3.302) (end 7.493 -3.302) (layer F.SilkS) (width 0.12))
  (fp_line (start -7.493 3.302) (end 7.493 3.302) (layer F.SilkS) (width 0.12))
  (fp_line (start -7.493 -2.794) (end -7.493 3.302) (layer F.SilkS) (width 0.12))
  (fp_line (start -7.493 -2.794) (end -6.985 -3.302) (layer F.SilkS) (width 0.12))
  (fp_line (start 7.45 3.35) (end -7.45 3.35) (layer F.CrtYd) (width 0.05))
  (fp_line (start 7.45 3.35) (end 7.45 -3.35) (layer F.CrtYd) (width 0.05))
  (fp_line (start -7.45 -3.35) (end -7.45 3.35) (layer F.CrtYd) (width 0.05))
  (fp_line (start -7.45 -3.35) (end 7.45 -3.35) (layer F.CrtYd) (width 0.05))
  (fp_line (start -4.8 3.1) (end 4.8 3.1) (layer F.Fab) (width 0.12))
  (fp_line (start -4.8 -2.1) (end -4.8 3.1) (layer F.Fab) (width 0.12))
  (fp_line (start -3.8 -3.1) (end -4.8 -2.1) (layer F.Fab) (width 0.12))
  (fp_line (start 4.8 -3.1) (end -3.8 -3.1) (layer F.Fab) (width 0.12))
  (fp_line (start 4.8 3.1) (end 4.8 -3.1) (layer F.Fab) (width 0.12))
  (fp_circle (center -6.9215 -2.7305) (end -6.858 -2.7305) (layer F.SilkS) (width 0.3))
  (fp_text user %R (at 0 0) (layer F.Fab)
    (effects (font (size 1 1) (thickness 0.15)))
  )
  (pad 8 smd rect (at 6.25 -1.905) (size 1.905 0.64) (layers F.Cu F.Paste F.Mask))
  (pad 7 smd rect (at 6.25 -0.635) (size 1.905 0.64) (layers F.Cu F.Paste F.Mask))
  (pad 6 smd rect (at 6.25 0.635) (size 1.905 0.64) (layers F.Cu F.Paste F.Mask))
  (pad 5 smd rect (at 6.25 1.905) (size 1.905 0.64) (layers F.Cu F.Paste F.Mask))
  (pad 4 smd rect (at -6.25 1.905) (size 1.905 0.64) (layers F.Cu F.Paste F.Mask))
  (pad 3 smd rect (at -6.25 0.635) (size 1.905 0.64) (layers F.Cu F.Paste F.Mask))
  (pad 2 smd rect (at -6.25 -0.635) (size 1.905 0.64) (layers F.Cu F.Paste F.Mask))
  (pad 1 smd rect (at -6.25 -1.905) (size 1.905 0.64) (layers F.Cu F.Paste F.Mask))
  (model ${KISYS3DMOD}/Package_SO.3dshapes/SSO-8_9.6x6.3mm_P1.27mm_Clearance10.5mm.wrl
    (at (xyz 0 0 0))
    (scale (xyz 1 1 1))
    (rotate (xyz 0 0 0))
  )
)
