(module SSOP-28_3.9x9.9mm_P0.635mm (layer F.Cu) (tedit 607FDED0)
  (descr "SSOP28: plastic shrink small outline package; 28 leads; body width 3.9 mm; lead pitch 0.635; (see http://cds.linear.com/docs/en/datasheet/38901fb.pdf), Alternate KiCad Library")
  (tags "SSOP 0.635")
  (attr smd)
  (fp_text reference REF** (at 0 -5.9) (layer F.SilkS)
    (effects (font (size 1 1) (thickness 0.15)))
  )
  (fp_text value SSOP-28_3.9x9.9mm_P0.635mm (at -0.1 6.2) (layer F.Fab)
    (effects (font (size 1 1) (thickness 0.15)))
  )
  (fp_line (start 3.4925 -2.2225) (end 3.7465 -2.2225) (layer F.SilkS) (width 0.12))
  (fp_line (start 3.4925 0.9525) (end 3.8735 0.9525) (layer F.SilkS) (width 0.12))
  (fp_line (start 3.4925 4.1275) (end 3.7465 4.1275) (layer F.SilkS) (width 0.12))
  (fp_line (start -3.4925 1.5875) (end -3.8735 1.5875) (layer F.SilkS) (width 0.12))
  (fp_line (start -3.4925 -1.5875) (end -3.7465 -1.5875) (layer F.SilkS) (width 0.12))
  (fp_line (start 3.4925 -5.207) (end -2.9845 -5.207) (layer F.SilkS) (width 0.12))
  (fp_line (start 3.4925 5.207) (end 3.4925 -5.207) (layer F.SilkS) (width 0.12))
  (fp_line (start -3.4925 5.207) (end 3.4925 5.207) (layer F.SilkS) (width 0.12))
  (fp_line (start -3.4925 -4.699) (end -3.4925 5.207) (layer F.SilkS) (width 0.12))
  (fp_line (start -3.4925 -4.699) (end -2.9845 -5.207) (layer F.SilkS) (width 0.12))
  (fp_line (start -3.45 5.2) (end 3.45 5.2) (layer F.CrtYd) (width 0.05))
  (fp_line (start -3.45 -5.2) (end 3.45 -5.2) (layer F.CrtYd) (width 0.05))
  (fp_line (start 3.45 -5.2) (end 3.45 5.2) (layer F.CrtYd) (width 0.05))
  (fp_line (start -3.45 -5.2) (end -3.45 5.2) (layer F.CrtYd) (width 0.05))
  (fp_line (start -1.95 -4) (end -0.95 -4.95) (layer F.Fab) (width 0.15))
  (fp_line (start -1.95 4.95) (end -1.95 -4) (layer F.Fab) (width 0.15))
  (fp_line (start 1.95 4.95) (end -1.95 4.95) (layer F.Fab) (width 0.15))
  (fp_line (start 1.95 -4.95) (end 1.95 4.95) (layer F.Fab) (width 0.15))
  (fp_line (start -0.95 -4.95) (end 1.95 -4.95) (layer F.Fab) (width 0.15))
  (fp_circle (center -2.9845 -4.699) (end -2.921 -4.699) (layer F.SilkS) (width 0.3))
  (fp_text user %R (at 0 0) (layer F.Fab)
    (effects (font (size 0.8 0.8) (thickness 0.15)))
  )
  (pad 28 smd rect (at 2.6 -4.1275) (size 1.2 0.4) (layers F.Cu F.Paste F.Mask))
  (pad 27 smd rect (at 2.6 -3.4925) (size 1.2 0.4) (layers F.Cu F.Paste F.Mask))
  (pad 26 smd rect (at 2.6 -2.8575) (size 1.2 0.4) (layers F.Cu F.Paste F.Mask))
  (pad 25 smd rect (at 2.6 -2.2225) (size 1.2 0.4) (layers F.Cu F.Paste F.Mask))
  (pad 24 smd rect (at 2.6 -1.5875) (size 1.2 0.4) (layers F.Cu F.Paste F.Mask))
  (pad 23 smd rect (at 2.6 -0.9525) (size 1.2 0.4) (layers F.Cu F.Paste F.Mask))
  (pad 22 smd rect (at 2.6 -0.3175) (size 1.2 0.4) (layers F.Cu F.Paste F.Mask))
  (pad 21 smd rect (at 2.6 0.3175) (size 1.2 0.4) (layers F.Cu F.Paste F.Mask))
  (pad 20 smd rect (at 2.6 0.9525) (size 1.2 0.4) (layers F.Cu F.Paste F.Mask))
  (pad 19 smd rect (at 2.6 1.5875) (size 1.2 0.4) (layers F.Cu F.Paste F.Mask))
  (pad 18 smd rect (at 2.6 2.2225) (size 1.2 0.4) (layers F.Cu F.Paste F.Mask))
  (pad 17 smd rect (at 2.6 2.8575) (size 1.2 0.4) (layers F.Cu F.Paste F.Mask))
  (pad 16 smd rect (at 2.6 3.4925) (size 1.2 0.4) (layers F.Cu F.Paste F.Mask))
  (pad 15 smd rect (at 2.6 4.1275) (size 1.2 0.4) (layers F.Cu F.Paste F.Mask))
  (pad 14 smd rect (at -2.6 4.1275) (size 1.2 0.4) (layers F.Cu F.Paste F.Mask))
  (pad 13 smd rect (at -2.6 3.4925) (size 1.2 0.4) (layers F.Cu F.Paste F.Mask))
  (pad 12 smd rect (at -2.6 2.8575) (size 1.2 0.4) (layers F.Cu F.Paste F.Mask))
  (pad 11 smd rect (at -2.6 2.2225) (size 1.2 0.4) (layers F.Cu F.Paste F.Mask))
  (pad 10 smd rect (at -2.6 1.5875) (size 1.2 0.4) (layers F.Cu F.Paste F.Mask))
  (pad 9 smd rect (at -2.6 0.9525) (size 1.2 0.4) (layers F.Cu F.Paste F.Mask))
  (pad 8 smd rect (at -2.6 0.3175) (size 1.2 0.4) (layers F.Cu F.Paste F.Mask))
  (pad 7 smd rect (at -2.6 -0.3175) (size 1.2 0.4) (layers F.Cu F.Paste F.Mask))
  (pad 6 smd rect (at -2.6 -0.9525) (size 1.2 0.4) (layers F.Cu F.Paste F.Mask))
  (pad 5 smd rect (at -2.6 -1.5875) (size 1.2 0.4) (layers F.Cu F.Paste F.Mask))
  (pad 4 smd rect (at -2.6 -2.2225) (size 1.2 0.4) (layers F.Cu F.Paste F.Mask))
  (pad 3 smd rect (at -2.6 -2.8575) (size 1.2 0.4) (layers F.Cu F.Paste F.Mask))
  (pad 2 smd rect (at -2.6 -3.4925) (size 1.2 0.4) (layers F.Cu F.Paste F.Mask))
  (pad 1 smd rect (at -2.6 -4.1275) (size 1.2 0.4) (layers F.Cu F.Paste F.Mask))
  (model ${KISYS3DMOD}/Package_SO.3dshapes/SSOP-28_3.9x9.9mm_P0.635mm.wrl
    (at (xyz 0 0 0))
    (scale (xyz 1 1 1))
    (rotate (xyz 0 0 0))
  )
)
