(module SSOP-28_5.3x10.2mm_P0.65mm (layer F.Cu) (tedit 607FDED5)
  (descr "28-Lead Plastic Shrink Small Outline (SS)-5.30 mm Body [SSOP] (see Microchip Packaging Specification 00000049BS.pdf), Alternate KiCad Library")
  (tags "SSOP 0.65")
  (attr smd)
  (fp_text reference REF** (at 0 -6.25) (layer F.SilkS)
    (effects (font (size 1 1) (thickness 0.15)))
  )
  (fp_text value SSOP-28_5.3x10.2mm_P0.65mm (at 0 6.25) (layer F.Fab)
    (effects (font (size 1 1) (thickness 0.15)))
  )
  (fp_line (start 4.7625 -2.275) (end 5.0165 -2.275) (layer F.SilkS) (width 0.12))
  (fp_line (start 4.7625 0.975) (end 5.1435 0.975) (layer F.SilkS) (width 0.12))
  (fp_line (start 4.7625 4.225) (end 5.0165 4.225) (layer F.SilkS) (width 0.12))
  (fp_line (start -4.7625 1.625) (end -5.1435 1.625) (layer F.SilkS) (width 0.12))
  (fp_line (start -4.7625 -1.625) (end -5.0165 -1.625) (layer F.SilkS) (width 0.12))
  (fp_line (start -4.191 -5.461) (end -4.2545 -5.461) (layer F.SilkS) (width 0.12))
  (fp_line (start 4.7625 -5.461) (end -4.191 -5.461) (layer F.SilkS) (width 0.12))
  (fp_line (start 4.7625 5.461) (end 4.7625 -5.461) (layer F.SilkS) (width 0.12))
  (fp_line (start -4.7625 5.461) (end 4.7625 5.461) (layer F.SilkS) (width 0.12))
  (fp_line (start -4.7625 -4.953) (end -4.7625 5.461) (layer F.SilkS) (width 0.12))
  (fp_line (start -4.7625 -4.953) (end -4.2545 -5.461) (layer F.SilkS) (width 0.12))
  (fp_line (start -4.75 5.5) (end 4.75 5.5) (layer F.CrtYd) (width 0.05))
  (fp_line (start -4.75 -5.5) (end 4.75 -5.5) (layer F.CrtYd) (width 0.05))
  (fp_line (start 4.75 -5.5) (end 4.75 5.5) (layer F.CrtYd) (width 0.05))
  (fp_line (start -4.75 -5.5) (end -4.75 5.5) (layer F.CrtYd) (width 0.05))
  (fp_line (start -2.65 -4.1) (end -1.65 -5.1) (layer F.Fab) (width 0.15))
  (fp_line (start -2.65 5.1) (end -2.65 -4.1) (layer F.Fab) (width 0.15))
  (fp_line (start 2.65 5.1) (end -2.65 5.1) (layer F.Fab) (width 0.15))
  (fp_line (start 2.65 -5.1) (end 2.65 5.1) (layer F.Fab) (width 0.15))
  (fp_line (start -1.65 -5.1) (end 2.65 -5.1) (layer F.Fab) (width 0.15))
  (fp_circle (center -4.191 -4.8895) (end -4.1275 -4.8895) (layer F.SilkS) (width 0.3))
  (fp_text user %R (at 0 0) (layer F.Fab)
    (effects (font (size 0.8 0.8) (thickness 0.15)))
  )
  (pad 28 smd rect (at 3.6 -4.225) (size 1.75 0.45) (layers F.Cu F.Paste F.Mask))
  (pad 27 smd rect (at 3.6 -3.575) (size 1.75 0.45) (layers F.Cu F.Paste F.Mask))
  (pad 26 smd rect (at 3.6 -2.925) (size 1.75 0.45) (layers F.Cu F.Paste F.Mask))
  (pad 25 smd rect (at 3.6 -2.275) (size 1.75 0.45) (layers F.Cu F.Paste F.Mask))
  (pad 24 smd rect (at 3.6 -1.625) (size 1.75 0.45) (layers F.Cu F.Paste F.Mask))
  (pad 23 smd rect (at 3.6 -0.975) (size 1.75 0.45) (layers F.Cu F.Paste F.Mask))
  (pad 22 smd rect (at 3.6 -0.325) (size 1.75 0.45) (layers F.Cu F.Paste F.Mask))
  (pad 21 smd rect (at 3.6 0.325) (size 1.75 0.45) (layers F.Cu F.Paste F.Mask))
  (pad 20 smd rect (at 3.6 0.975) (size 1.75 0.45) (layers F.Cu F.Paste F.Mask))
  (pad 19 smd rect (at 3.6 1.625) (size 1.75 0.45) (layers F.Cu F.Paste F.Mask))
  (pad 18 smd rect (at 3.6 2.275) (size 1.75 0.45) (layers F.Cu F.Paste F.Mask))
  (pad 17 smd rect (at 3.6 2.925) (size 1.75 0.45) (layers F.Cu F.Paste F.Mask))
  (pad 16 smd rect (at 3.6 3.575) (size 1.75 0.45) (layers F.Cu F.Paste F.Mask))
  (pad 15 smd rect (at 3.6 4.225) (size 1.75 0.45) (layers F.Cu F.Paste F.Mask))
  (pad 14 smd rect (at -3.6 4.225) (size 1.75 0.45) (layers F.Cu F.Paste F.Mask))
  (pad 13 smd rect (at -3.6 3.575) (size 1.75 0.45) (layers F.Cu F.Paste F.Mask))
  (pad 12 smd rect (at -3.6 2.925) (size 1.75 0.45) (layers F.Cu F.Paste F.Mask))
  (pad 11 smd rect (at -3.6 2.275) (size 1.75 0.45) (layers F.Cu F.Paste F.Mask))
  (pad 10 smd rect (at -3.6 1.625) (size 1.75 0.45) (layers F.Cu F.Paste F.Mask))
  (pad 9 smd rect (at -3.6 0.975) (size 1.75 0.45) (layers F.Cu F.Paste F.Mask))
  (pad 8 smd rect (at -3.6 0.325) (size 1.75 0.45) (layers F.Cu F.Paste F.Mask))
  (pad 7 smd rect (at -3.6 -0.325) (size 1.75 0.45) (layers F.Cu F.Paste F.Mask))
  (pad 6 smd rect (at -3.6 -0.975) (size 1.75 0.45) (layers F.Cu F.Paste F.Mask))
  (pad 5 smd rect (at -3.6 -1.625) (size 1.75 0.45) (layers F.Cu F.Paste F.Mask))
  (pad 4 smd rect (at -3.6 -2.275) (size 1.75 0.45) (layers F.Cu F.Paste F.Mask))
  (pad 3 smd rect (at -3.6 -2.925) (size 1.75 0.45) (layers F.Cu F.Paste F.Mask))
  (pad 2 smd rect (at -3.6 -3.575) (size 1.75 0.45) (layers F.Cu F.Paste F.Mask))
  (pad 1 smd rect (at -3.6 -4.225) (size 1.75 0.45) (layers F.Cu F.Paste F.Mask))
  (model ${KISYS3DMOD}/Package_SO.3dshapes/SSOP-28_5.3x10.2mm_P0.65mm.wrl
    (at (xyz 0 0 0))
    (scale (xyz 1 1 1))
    (rotate (xyz 0 0 0))
  )
)
