(module SSOP-14_5.3x6.2mm_P0.65mm (layer F.Cu) (tedit 607FDE9A)
  (descr "SSOP14: plastic shrink small outline package; 14 leads; body width 5.3 mm; (see NXP SSOP-TSSOP-VSO-REFLOW.pdf and sot337-1_po.pdf), Alternate KiCad Library")
  (tags "SSOP 0.65")
  (attr smd)
  (fp_text reference REF** (at 0 -4.2) (layer F.SilkS)
    (effects (font (size 1 1) (thickness 0.15)))
  )
  (fp_text value SSOP-14_5.3x6.2mm_P0.65mm (at 0 4.2) (layer F.Fab)
    (effects (font (size 1 1) (thickness 0.15)))
  )
  (fp_line (start 4.318 -3.429) (end -3.81 -3.429) (layer F.SilkS) (width 0.12))
  (fp_line (start 4.318 3.429) (end 4.318 -3.429) (layer F.SilkS) (width 0.12))
  (fp_line (start -4.318 3.429) (end 4.318 3.429) (layer F.SilkS) (width 0.12))
  (fp_line (start -4.318 -2.921) (end -4.318 3.429) (layer F.SilkS) (width 0.12))
  (fp_line (start -4.318 -2.921) (end -3.81 -3.429) (layer F.SilkS) (width 0.12))
  (fp_line (start -4.3 3.45) (end 4.3 3.45) (layer F.CrtYd) (width 0.05))
  (fp_line (start -4.3 -3.45) (end 4.3 -3.45) (layer F.CrtYd) (width 0.05))
  (fp_line (start 4.3 -3.45) (end 4.3 3.45) (layer F.CrtYd) (width 0.05))
  (fp_line (start -4.3 -3.45) (end -4.3 3.45) (layer F.CrtYd) (width 0.05))
  (fp_line (start -2.65 -2.1) (end -1.65 -3.1) (layer F.Fab) (width 0.15))
  (fp_line (start -2.65 3.1) (end -2.65 -2.1) (layer F.Fab) (width 0.15))
  (fp_line (start 2.65 3.1) (end -2.65 3.1) (layer F.Fab) (width 0.15))
  (fp_line (start 2.65 -3.1) (end 2.65 3.1) (layer F.Fab) (width 0.15))
  (fp_line (start -1.65 -3.1) (end 2.65 -3.1) (layer F.Fab) (width 0.15))
  (fp_circle (center -3.7465 -2.8575) (end -3.683 -2.8575) (layer F.SilkS) (width 0.3))
  (fp_text user %R (at 0 0) (layer F.Fab)
    (effects (font (size 0.8 0.8) (thickness 0.15)))
  )
  (pad 14 smd rect (at 3.45 -1.95) (size 1.2 0.4) (layers F.Cu F.Paste F.Mask))
  (pad 13 smd rect (at 3.45 -1.3) (size 1.2 0.4) (layers F.Cu F.Paste F.Mask))
  (pad 12 smd rect (at 3.45 -0.65) (size 1.2 0.4) (layers F.Cu F.Paste F.Mask))
  (pad 11 smd rect (at 3.45 0) (size 1.2 0.4) (layers F.Cu F.Paste F.Mask))
  (pad 10 smd rect (at 3.45 0.65) (size 1.2 0.4) (layers F.Cu F.Paste F.Mask))
  (pad 9 smd rect (at 3.45 1.3) (size 1.2 0.4) (layers F.Cu F.Paste F.Mask))
  (pad 8 smd rect (at 3.45 1.95) (size 1.2 0.4) (layers F.Cu F.Paste F.Mask))
  (pad 7 smd rect (at -3.45 1.95) (size 1.2 0.4) (layers F.Cu F.Paste F.Mask))
  (pad 6 smd rect (at -3.45 1.3) (size 1.2 0.4) (layers F.Cu F.Paste F.Mask))
  (pad 5 smd rect (at -3.45 0.65) (size 1.2 0.4) (layers F.Cu F.Paste F.Mask))
  (pad 4 smd rect (at -3.45 0) (size 1.2 0.4) (layers F.Cu F.Paste F.Mask))
  (pad 3 smd rect (at -3.45 -0.65) (size 1.2 0.4) (layers F.Cu F.Paste F.Mask))
  (pad 2 smd rect (at -3.45 -1.3) (size 1.2 0.4) (layers F.Cu F.Paste F.Mask))
  (pad 1 smd rect (at -3.45 -1.95) (size 1.2 0.4) (layers F.Cu F.Paste F.Mask))
  (model ${KISYS3DMOD}/Package_SO.3dshapes/SSOP-14_5.3x6.2mm_P0.65mm.wrl
    (at (xyz 0 0 0))
    (scale (xyz 1 1 1))
    (rotate (xyz 0 0 0))
  )
)
