(module SSOP-8_5.25x5.24mm_P1.27mm (layer F.Cu) (tedit 607FDE8F)
  (descr "SSOP, 8 Pin (http://www.fujitsu.com/ca/en/Images/MB85RS2MT-DS501-00023-1v0-E.pdf), Alternate KiCad Library")
  (tags "SSOP SO")
  (attr smd)
  (fp_text reference REF** (at 0 -3.57) (layer F.SilkS)
    (effects (font (size 1 1) (thickness 0.15)))
  )
  (fp_text value SSOP-8_5.25x5.24mm_P1.27mm (at 0 3.57) (layer F.Fab)
    (effects (font (size 1 1) (thickness 0.15)))
  )
  (fp_line (start 4.7625 -2.8575) (end -4.191 -2.8575) (layer F.SilkS) (width 0.12))
  (fp_line (start 4.7625 2.8575) (end 4.7625 -2.8575) (layer F.SilkS) (width 0.12))
  (fp_line (start -4.7625 2.8575) (end 4.7625 2.8575) (layer F.SilkS) (width 0.12))
  (fp_line (start -4.7625 -2.286) (end -4.7625 2.8575) (layer F.SilkS) (width 0.12))
  (fp_line (start 4.73 -2.87) (end -4.73 -2.87) (layer F.CrtYd) (width 0.05))
  (fp_line (start 4.73 2.87) (end 4.73 -2.87) (layer F.CrtYd) (width 0.05))
  (fp_line (start -4.73 2.87) (end 4.73 2.87) (layer F.CrtYd) (width 0.05))
  (fp_line (start -4.73 -2.87) (end -4.73 2.87) (layer F.CrtYd) (width 0.05))
  (fp_line (start -2.625 -1.62) (end -1.625 -2.62) (layer F.Fab) (width 0.1))
  (fp_line (start -2.625 2.62) (end -2.625 -1.62) (layer F.Fab) (width 0.1))
  (fp_line (start 2.625 2.62) (end -2.625 2.62) (layer F.Fab) (width 0.1))
  (fp_line (start 2.625 -2.62) (end 2.625 2.62) (layer F.Fab) (width 0.1))
  (fp_line (start -1.625 -2.62) (end 2.625 -2.62) (layer F.Fab) (width 0.1))
  (fp_circle (center -4.5085 -2.6035) (end -4.445 -2.6035) (layer F.SilkS) (width 0.3))
  (fp_text user %R (at 0 0) (layer F.Fab)
    (effects (font (size 1 1) (thickness 0.15)))
  )
  (pad 8 smd roundrect (at 3.6125 -1.905) (size 1.725 0.6) (layers F.Cu F.Paste F.Mask) (roundrect_rratio 0.25))
  (pad 7 smd roundrect (at 3.6125 -0.635) (size 1.725 0.6) (layers F.Cu F.Paste F.Mask) (roundrect_rratio 0.25))
  (pad 6 smd roundrect (at 3.6125 0.635) (size 1.725 0.6) (layers F.Cu F.Paste F.Mask) (roundrect_rratio 0.25))
  (pad 5 smd roundrect (at 3.6125 1.905) (size 1.725 0.6) (layers F.Cu F.Paste F.Mask) (roundrect_rratio 0.25))
  (pad 4 smd roundrect (at -3.6125 1.905) (size 1.725 0.6) (layers F.Cu F.Paste F.Mask) (roundrect_rratio 0.25))
  (pad 3 smd roundrect (at -3.6125 0.635) (size 1.725 0.6) (layers F.Cu F.Paste F.Mask) (roundrect_rratio 0.25))
  (pad 2 smd roundrect (at -3.6125 -0.635) (size 1.725 0.6) (layers F.Cu F.Paste F.Mask) (roundrect_rratio 0.25))
  (pad 1 smd roundrect (at -3.6125 -1.905) (size 1.725 0.6) (layers F.Cu F.Paste F.Mask) (roundrect_rratio 0.25))
  (model ${KISYS3DMOD}/Package_SO.3dshapes/SSOP-8_5.25x5.24mm_P1.27mm.wrl
    (at (xyz 0 0 0))
    (scale (xyz 1 1 1))
    (rotate (xyz 0 0 0))
  )
)
