(module SSOP-20_5.3x7.2mm_P0.65mm (layer F.Cu) (tedit 607FDEC1)
  (descr "SSOP, 20 Pin (http://ww1.microchip.com/downloads/en/DeviceDoc/40001800C.pdf), Alternate KiCad Library")
  (tags "SSOP SO")
  (attr smd)
  (fp_text reference REF** (at 0 -4.55) (layer F.SilkS)
    (effects (font (size 1 1) (thickness 0.15)))
  )
  (fp_text value SSOP-20_5.3x7.2mm_P0.65mm (at 0 4.55) (layer F.Fab)
    (effects (font (size 1 1) (thickness 0.15)))
  )
  (fp_line (start 4.699 -2.921) (end 5.08 -2.921) (layer F.SilkS) (width 0.12))
  (fp_line (start 4.699 0.3175) (end 4.953 0.3175) (layer F.SilkS) (width 0.12))
  (fp_line (start -4.699 2.921) (end -5.08 2.921) (layer F.SilkS) (width 0.12))
  (fp_line (start -4.699 -0.3175) (end -4.953 -0.3175) (layer F.SilkS) (width 0.12))
  (fp_circle (center -4.5085 -3.6195) (end -4.445 -3.6195) (layer F.SilkS) (width 0.3))
  (fp_line (start -1.65 -3.6) (end 2.65 -3.6) (layer F.Fab) (width 0.1))
  (fp_line (start 2.65 -3.6) (end 2.65 3.6) (layer F.Fab) (width 0.1))
  (fp_line (start 2.65 3.6) (end -2.65 3.6) (layer F.Fab) (width 0.1))
  (fp_line (start -2.65 3.6) (end -2.65 -2.6) (layer F.Fab) (width 0.1))
  (fp_line (start -2.65 -2.6) (end -1.65 -3.6) (layer F.Fab) (width 0.1))
  (fp_line (start -4.7 -3.85) (end -4.7 3.85) (layer F.CrtYd) (width 0.05))
  (fp_line (start -4.7 3.85) (end 4.7 3.85) (layer F.CrtYd) (width 0.05))
  (fp_line (start 4.7 3.85) (end 4.7 -3.85) (layer F.CrtYd) (width 0.05))
  (fp_line (start 4.7 -3.85) (end -4.7 -3.85) (layer F.CrtYd) (width 0.05))
  (fp_line (start -4.699 -3.2385) (end -4.699 3.81) (layer F.SilkS) (width 0.12))
  (fp_line (start -4.699 3.81) (end 4.699 3.81) (layer F.SilkS) (width 0.12))
  (fp_line (start 4.699 3.81) (end 4.699 -3.81) (layer F.SilkS) (width 0.12))
  (fp_line (start 4.699 -3.81) (end -4.1275 -3.81) (layer F.SilkS) (width 0.12))
  (fp_text user %R (at 0 0) (layer F.Fab)
    (effects (font (size 1 1) (thickness 0.15)))
  )
  (pad 20 smd roundrect (at 3.5 -2.925) (size 1.9 0.5) (layers F.Cu F.Paste F.Mask) (roundrect_rratio 0.25))
  (pad 19 smd roundrect (at 3.5 -2.275) (size 1.9 0.5) (layers F.Cu F.Paste F.Mask) (roundrect_rratio 0.25))
  (pad 18 smd roundrect (at 3.5 -1.625) (size 1.9 0.5) (layers F.Cu F.Paste F.Mask) (roundrect_rratio 0.25))
  (pad 17 smd roundrect (at 3.5 -0.975) (size 1.9 0.5) (layers F.Cu F.Paste F.Mask) (roundrect_rratio 0.25))
  (pad 16 smd roundrect (at 3.5 -0.325) (size 1.9 0.5) (layers F.Cu F.Paste F.Mask) (roundrect_rratio 0.25))
  (pad 15 smd roundrect (at 3.5 0.325) (size 1.9 0.5) (layers F.Cu F.Paste F.Mask) (roundrect_rratio 0.25))
  (pad 14 smd roundrect (at 3.5 0.975) (size 1.9 0.5) (layers F.Cu F.Paste F.Mask) (roundrect_rratio 0.25))
  (pad 13 smd roundrect (at 3.5 1.625) (size 1.9 0.5) (layers F.Cu F.Paste F.Mask) (roundrect_rratio 0.25))
  (pad 12 smd roundrect (at 3.5 2.275) (size 1.9 0.5) (layers F.Cu F.Paste F.Mask) (roundrect_rratio 0.25))
  (pad 11 smd roundrect (at 3.5 2.925) (size 1.9 0.5) (layers F.Cu F.Paste F.Mask) (roundrect_rratio 0.25))
  (pad 10 smd roundrect (at -3.5 2.925) (size 1.9 0.5) (layers F.Cu F.Paste F.Mask) (roundrect_rratio 0.25))
  (pad 9 smd roundrect (at -3.5 2.275) (size 1.9 0.5) (layers F.Cu F.Paste F.Mask) (roundrect_rratio 0.25))
  (pad 8 smd roundrect (at -3.5 1.625) (size 1.9 0.5) (layers F.Cu F.Paste F.Mask) (roundrect_rratio 0.25))
  (pad 7 smd roundrect (at -3.5 0.975) (size 1.9 0.5) (layers F.Cu F.Paste F.Mask) (roundrect_rratio 0.25))
  (pad 6 smd roundrect (at -3.5 0.325) (size 1.9 0.5) (layers F.Cu F.Paste F.Mask) (roundrect_rratio 0.25))
  (pad 5 smd roundrect (at -3.5 -0.325) (size 1.9 0.5) (layers F.Cu F.Paste F.Mask) (roundrect_rratio 0.25))
  (pad 4 smd roundrect (at -3.5 -0.975) (size 1.9 0.5) (layers F.Cu F.Paste F.Mask) (roundrect_rratio 0.25))
  (pad 3 smd roundrect (at -3.5 -1.625) (size 1.9 0.5) (layers F.Cu F.Paste F.Mask) (roundrect_rratio 0.25))
  (pad 2 smd roundrect (at -3.5 -2.275) (size 1.9 0.5) (layers F.Cu F.Paste F.Mask) (roundrect_rratio 0.25))
  (pad 1 smd roundrect (at -3.5 -2.925) (size 1.9 0.5) (layers F.Cu F.Paste F.Mask) (roundrect_rratio 0.25))
  (model ${KISYS3DMOD}/Package_SO.3dshapes/SSOP-20_5.3x7.2mm_P0.65mm.wrl
    (at (xyz 0 0 0))
    (scale (xyz 1 1 1))
    (rotate (xyz 0 0 0))
  )
)
