(module TSSOP-36_4.4x9.7mm_P0.5mm (layer F.Cu) (tedit 607FE121)
  (descr "TSSOP, 36 Pin (JEDEC MO-153 Var BD https://www.jedec.org/document_search?search_api_views_fulltext=MO-153), Alternate KiCad Library")
  (tags "TSSOP SO")
  (attr smd)
  (fp_text reference REF** (at 0 -5.8) (layer F.SilkS)
    (effects (font (size 1 1) (thickness 0.15)))
  )
  (fp_text value TSSOP-36_4.4x9.7mm_P0.5mm (at 0 5.8) (layer F.Fab)
    (effects (font (size 1 1) (thickness 0.15)))
  )
  (fp_line (start 4.1275 -3.75) (end 3.8735 -3.75) (layer F.SilkS) (width 0.12))
  (fp_line (start 4.2545 -1.25) (end 3.8735 -1.25) (layer F.SilkS) (width 0.12))
  (fp_line (start 4.1275 1.25) (end 3.8735 1.25) (layer F.SilkS) (width 0.12))
  (fp_line (start 4.2545 3.75) (end 3.8735 3.75) (layer F.SilkS) (width 0.12))
  (fp_line (start -4.1275 2.75) (end -3.8735 2.75) (layer F.SilkS) (width 0.12))
  (fp_line (start -3.8735 0.25) (end -4.2545 0.25) (layer F.SilkS) (width 0.12))
  (fp_line (start -3.8735 -2.25) (end -4.1275 -2.25) (layer F.SilkS) (width 0.12))
  (fp_line (start 3.8735 -5.08) (end -3.302 -5.08) (layer F.SilkS) (width 0.12))
  (fp_line (start 3.8735 5.08) (end 3.8735 -5.08) (layer F.SilkS) (width 0.12))
  (fp_line (start -3.8735 5.08) (end 3.8735 5.08) (layer F.SilkS) (width 0.12))
  (fp_line (start -3.8735 -4.5085) (end -3.8735 5.08) (layer F.SilkS) (width 0.12))
  (fp_line (start 3.85 -5.1) (end -3.85 -5.1) (layer F.CrtYd) (width 0.05))
  (fp_line (start 3.85 5.1) (end 3.85 -5.1) (layer F.CrtYd) (width 0.05))
  (fp_line (start -3.85 5.1) (end 3.85 5.1) (layer F.CrtYd) (width 0.05))
  (fp_line (start -3.85 -5.1) (end -3.85 5.1) (layer F.CrtYd) (width 0.05))
  (fp_line (start -2.2 -3.85) (end -1.2 -4.85) (layer F.Fab) (width 0.1))
  (fp_line (start -2.2 4.85) (end -2.2 -3.85) (layer F.Fab) (width 0.1))
  (fp_line (start 2.2 4.85) (end -2.2 4.85) (layer F.Fab) (width 0.1))
  (fp_line (start 2.2 -4.85) (end 2.2 4.85) (layer F.Fab) (width 0.1))
  (fp_line (start -1.2 -4.85) (end 2.2 -4.85) (layer F.Fab) (width 0.1))
  (fp_circle (center -3.683 -4.8895) (end -3.6195 -4.8895) (layer F.SilkS) (width 0.3))
  (fp_text user %R (at 0 0) (layer F.Fab)
    (effects (font (size 1 1) (thickness 0.15)))
  )
  (pad 36 smd roundrect (at 2.8625 -4.25) (size 1.475 0.3) (layers F.Cu F.Paste F.Mask) (roundrect_rratio 0.25))
  (pad 35 smd roundrect (at 2.8625 -3.75) (size 1.475 0.3) (layers F.Cu F.Paste F.Mask) (roundrect_rratio 0.25))
  (pad 34 smd roundrect (at 2.8625 -3.25) (size 1.475 0.3) (layers F.Cu F.Paste F.Mask) (roundrect_rratio 0.25))
  (pad 33 smd roundrect (at 2.8625 -2.75) (size 1.475 0.3) (layers F.Cu F.Paste F.Mask) (roundrect_rratio 0.25))
  (pad 32 smd roundrect (at 2.8625 -2.25) (size 1.475 0.3) (layers F.Cu F.Paste F.Mask) (roundrect_rratio 0.25))
  (pad 31 smd roundrect (at 2.8625 -1.75) (size 1.475 0.3) (layers F.Cu F.Paste F.Mask) (roundrect_rratio 0.25))
  (pad 30 smd roundrect (at 2.8625 -1.25) (size 1.475 0.3) (layers F.Cu F.Paste F.Mask) (roundrect_rratio 0.25))
  (pad 29 smd roundrect (at 2.8625 -0.75) (size 1.475 0.3) (layers F.Cu F.Paste F.Mask) (roundrect_rratio 0.25))
  (pad 28 smd roundrect (at 2.8625 -0.25) (size 1.475 0.3) (layers F.Cu F.Paste F.Mask) (roundrect_rratio 0.25))
  (pad 27 smd roundrect (at 2.8625 0.25) (size 1.475 0.3) (layers F.Cu F.Paste F.Mask) (roundrect_rratio 0.25))
  (pad 26 smd roundrect (at 2.8625 0.75) (size 1.475 0.3) (layers F.Cu F.Paste F.Mask) (roundrect_rratio 0.25))
  (pad 25 smd roundrect (at 2.8625 1.25) (size 1.475 0.3) (layers F.Cu F.Paste F.Mask) (roundrect_rratio 0.25))
  (pad 24 smd roundrect (at 2.8625 1.75) (size 1.475 0.3) (layers F.Cu F.Paste F.Mask) (roundrect_rratio 0.25))
  (pad 23 smd roundrect (at 2.8625 2.25) (size 1.475 0.3) (layers F.Cu F.Paste F.Mask) (roundrect_rratio 0.25))
  (pad 22 smd roundrect (at 2.8625 2.75) (size 1.475 0.3) (layers F.Cu F.Paste F.Mask) (roundrect_rratio 0.25))
  (pad 21 smd roundrect (at 2.8625 3.25) (size 1.475 0.3) (layers F.Cu F.Paste F.Mask) (roundrect_rratio 0.25))
  (pad 20 smd roundrect (at 2.8625 3.75) (size 1.475 0.3) (layers F.Cu F.Paste F.Mask) (roundrect_rratio 0.25))
  (pad 19 smd roundrect (at 2.8625 4.25) (size 1.475 0.3) (layers F.Cu F.Paste F.Mask) (roundrect_rratio 0.25))
  (pad 18 smd roundrect (at -2.8625 4.25) (size 1.475 0.3) (layers F.Cu F.Paste F.Mask) (roundrect_rratio 0.25))
  (pad 17 smd roundrect (at -2.8625 3.75) (size 1.475 0.3) (layers F.Cu F.Paste F.Mask) (roundrect_rratio 0.25))
  (pad 16 smd roundrect (at -2.8625 3.25) (size 1.475 0.3) (layers F.Cu F.Paste F.Mask) (roundrect_rratio 0.25))
  (pad 15 smd roundrect (at -2.8625 2.75) (size 1.475 0.3) (layers F.Cu F.Paste F.Mask) (roundrect_rratio 0.25))
  (pad 14 smd roundrect (at -2.8625 2.25) (size 1.475 0.3) (layers F.Cu F.Paste F.Mask) (roundrect_rratio 0.25))
  (pad 13 smd roundrect (at -2.8625 1.75) (size 1.475 0.3) (layers F.Cu F.Paste F.Mask) (roundrect_rratio 0.25))
  (pad 12 smd roundrect (at -2.8625 1.25) (size 1.475 0.3) (layers F.Cu F.Paste F.Mask) (roundrect_rratio 0.25))
  (pad 11 smd roundrect (at -2.8625 0.75) (size 1.475 0.3) (layers F.Cu F.Paste F.Mask) (roundrect_rratio 0.25))
  (pad 10 smd roundrect (at -2.8625 0.25) (size 1.475 0.3) (layers F.Cu F.Paste F.Mask) (roundrect_rratio 0.25))
  (pad 9 smd roundrect (at -2.8625 -0.25) (size 1.475 0.3) (layers F.Cu F.Paste F.Mask) (roundrect_rratio 0.25))
  (pad 8 smd roundrect (at -2.8625 -0.75) (size 1.475 0.3) (layers F.Cu F.Paste F.Mask) (roundrect_rratio 0.25))
  (pad 7 smd roundrect (at -2.8625 -1.25) (size 1.475 0.3) (layers F.Cu F.Paste F.Mask) (roundrect_rratio 0.25))
  (pad 6 smd roundrect (at -2.8625 -1.75) (size 1.475 0.3) (layers F.Cu F.Paste F.Mask) (roundrect_rratio 0.25))
  (pad 5 smd roundrect (at -2.8625 -2.25) (size 1.475 0.3) (layers F.Cu F.Paste F.Mask) (roundrect_rratio 0.25))
  (pad 4 smd roundrect (at -2.8625 -2.75) (size 1.475 0.3) (layers F.Cu F.Paste F.Mask) (roundrect_rratio 0.25))
  (pad 3 smd roundrect (at -2.8625 -3.25) (size 1.475 0.3) (layers F.Cu F.Paste F.Mask) (roundrect_rratio 0.25))
  (pad 2 smd roundrect (at -2.8625 -3.75) (size 1.475 0.3) (layers F.Cu F.Paste F.Mask) (roundrect_rratio 0.25))
  (pad 1 smd roundrect (at -2.8625 -4.25) (size 1.475 0.3) (layers F.Cu F.Paste F.Mask) (roundrect_rratio 0.25))
  (model ${KISYS3DMOD}/Package_SO.3dshapes/TSSOP-36_4.4x9.7mm_P0.5mm.wrl
    (at (xyz 0 0 0))
    (scale (xyz 1 1 1))
    (rotate (xyz 0 0 0))
  )
)
