(module TSSOP-32_4.4x6.5mm_P0.4mm (layer F.Cu) (tedit 607FE104)
  (descr "TSSOP, 32 Pin (JEDEC MO-153 Var CB https://www.jedec.org/document_search?search_api_views_fulltext=MO-153), Alternate KiCad Library")
  (tags "TSSOP SO")
  (attr smd)
  (fp_text reference REF** (at 0 -4.2) (layer F.SilkS)
    (effects (font (size 1 1) (thickness 0.15)))
  )
  (fp_text value TSSOP-32_4.4x6.5mm_P0.4mm (at 0 4.2) (layer F.Fab)
    (effects (font (size 1 1) (thickness 0.15)))
  )
  (fp_line (start 3.8735 -2.2) (end 4.2545 -2.2) (layer F.SilkS) (width 0.12))
  (fp_line (start 3.8735 -0.2) (end 4.1275 -0.2) (layer F.SilkS) (width 0.12))
  (fp_line (start 3.8735 1.8) (end 4.2545 1.8) (layer F.SilkS) (width 0.12))
  (fp_line (start -4.1275 2.6) (end -3.8735 2.6) (layer F.SilkS) (width 0.12))
  (fp_line (start -4.2545 0.6) (end -3.8735 0.6) (layer F.SilkS) (width 0.12))
  (fp_line (start -4.1275 -1.4) (end -3.8735 -1.4) (layer F.SilkS) (width 0.12))
  (fp_line (start 3.8735 -3.4925) (end -3.429 -3.4925) (layer F.SilkS) (width 0.12))
  (fp_line (start 3.8735 3.4925) (end 3.8735 -3.4925) (layer F.SilkS) (width 0.12))
  (fp_line (start -3.8735 3.4925) (end 3.8735 3.4925) (layer F.SilkS) (width 0.12))
  (fp_line (start -3.8735 -3.048) (end -3.8735 3.4925) (layer F.SilkS) (width 0.12))
  (fp_line (start 3.85 -3.5) (end -3.85 -3.5) (layer F.CrtYd) (width 0.05))
  (fp_line (start 3.85 3.5) (end 3.85 -3.5) (layer F.CrtYd) (width 0.05))
  (fp_line (start -3.85 3.5) (end 3.85 3.5) (layer F.CrtYd) (width 0.05))
  (fp_line (start -3.85 -3.5) (end -3.85 3.5) (layer F.CrtYd) (width 0.05))
  (fp_line (start -2.2 -2.25) (end -1.2 -3.25) (layer F.Fab) (width 0.1))
  (fp_line (start -2.2 3.25) (end -2.2 -2.25) (layer F.Fab) (width 0.1))
  (fp_line (start 2.2 3.25) (end -2.2 3.25) (layer F.Fab) (width 0.1))
  (fp_line (start 2.2 -3.25) (end 2.2 3.25) (layer F.Fab) (width 0.1))
  (fp_line (start -1.2 -3.25) (end 2.2 -3.25) (layer F.Fab) (width 0.1))
  (fp_circle (center -3.7465 -3.3655) (end -3.683 -3.3655) (layer F.SilkS) (width 0.2))
  (fp_text user %R (at 0 0) (layer F.Fab)
    (effects (font (size 1 1) (thickness 0.15)))
  )
  (pad 32 smd roundrect (at 2.8625 -3) (size 1.475 0.25) (layers F.Cu F.Paste F.Mask) (roundrect_rratio 0.25))
  (pad 31 smd roundrect (at 2.8625 -2.6) (size 1.475 0.25) (layers F.Cu F.Paste F.Mask) (roundrect_rratio 0.25))
  (pad 30 smd roundrect (at 2.8625 -2.2) (size 1.475 0.25) (layers F.Cu F.Paste F.Mask) (roundrect_rratio 0.25))
  (pad 29 smd roundrect (at 2.8625 -1.8) (size 1.475 0.25) (layers F.Cu F.Paste F.Mask) (roundrect_rratio 0.25))
  (pad 28 smd roundrect (at 2.8625 -1.4) (size 1.475 0.25) (layers F.Cu F.Paste F.Mask) (roundrect_rratio 0.25))
  (pad 27 smd roundrect (at 2.8625 -1) (size 1.475 0.25) (layers F.Cu F.Paste F.Mask) (roundrect_rratio 0.25))
  (pad 26 smd roundrect (at 2.8625 -0.6) (size 1.475 0.25) (layers F.Cu F.Paste F.Mask) (roundrect_rratio 0.25))
  (pad 25 smd roundrect (at 2.8625 -0.2) (size 1.475 0.25) (layers F.Cu F.Paste F.Mask) (roundrect_rratio 0.25))
  (pad 24 smd roundrect (at 2.8625 0.2) (size 1.475 0.25) (layers F.Cu F.Paste F.Mask) (roundrect_rratio 0.25))
  (pad 23 smd roundrect (at 2.8625 0.6) (size 1.475 0.25) (layers F.Cu F.Paste F.Mask) (roundrect_rratio 0.25))
  (pad 22 smd roundrect (at 2.8625 1) (size 1.475 0.25) (layers F.Cu F.Paste F.Mask) (roundrect_rratio 0.25))
  (pad 21 smd roundrect (at 2.8625 1.4) (size 1.475 0.25) (layers F.Cu F.Paste F.Mask) (roundrect_rratio 0.25))
  (pad 20 smd roundrect (at 2.8625 1.8) (size 1.475 0.25) (layers F.Cu F.Paste F.Mask) (roundrect_rratio 0.25))
  (pad 19 smd roundrect (at 2.8625 2.2) (size 1.475 0.25) (layers F.Cu F.Paste F.Mask) (roundrect_rratio 0.25))
  (pad 18 smd roundrect (at 2.8625 2.6) (size 1.475 0.25) (layers F.Cu F.Paste F.Mask) (roundrect_rratio 0.25))
  (pad 17 smd roundrect (at 2.8625 3) (size 1.475 0.25) (layers F.Cu F.Paste F.Mask) (roundrect_rratio 0.25))
  (pad 16 smd roundrect (at -2.8625 3) (size 1.475 0.25) (layers F.Cu F.Paste F.Mask) (roundrect_rratio 0.25))
  (pad 15 smd roundrect (at -2.8625 2.6) (size 1.475 0.25) (layers F.Cu F.Paste F.Mask) (roundrect_rratio 0.25))
  (pad 14 smd roundrect (at -2.8625 2.2) (size 1.475 0.25) (layers F.Cu F.Paste F.Mask) (roundrect_rratio 0.25))
  (pad 13 smd roundrect (at -2.8625 1.8) (size 1.475 0.25) (layers F.Cu F.Paste F.Mask) (roundrect_rratio 0.25))
  (pad 12 smd roundrect (at -2.8625 1.4) (size 1.475 0.25) (layers F.Cu F.Paste F.Mask) (roundrect_rratio 0.25))
  (pad 11 smd roundrect (at -2.8625 1) (size 1.475 0.25) (layers F.Cu F.Paste F.Mask) (roundrect_rratio 0.25))
  (pad 10 smd roundrect (at -2.8625 0.6) (size 1.475 0.25) (layers F.Cu F.Paste F.Mask) (roundrect_rratio 0.25))
  (pad 9 smd roundrect (at -2.8625 0.2) (size 1.475 0.25) (layers F.Cu F.Paste F.Mask) (roundrect_rratio 0.25))
  (pad 8 smd roundrect (at -2.8625 -0.2) (size 1.475 0.25) (layers F.Cu F.Paste F.Mask) (roundrect_rratio 0.25))
  (pad 7 smd roundrect (at -2.8625 -0.6) (size 1.475 0.25) (layers F.Cu F.Paste F.Mask) (roundrect_rratio 0.25))
  (pad 6 smd roundrect (at -2.8625 -1) (size 1.475 0.25) (layers F.Cu F.Paste F.Mask) (roundrect_rratio 0.25))
  (pad 5 smd roundrect (at -2.8625 -1.4) (size 1.475 0.25) (layers F.Cu F.Paste F.Mask) (roundrect_rratio 0.25))
  (pad 4 smd roundrect (at -2.8625 -1.8) (size 1.475 0.25) (layers F.Cu F.Paste F.Mask) (roundrect_rratio 0.25))
  (pad 3 smd roundrect (at -2.8625 -2.2) (size 1.475 0.25) (layers F.Cu F.Paste F.Mask) (roundrect_rratio 0.25))
  (pad 2 smd roundrect (at -2.8625 -2.6) (size 1.475 0.25) (layers F.Cu F.Paste F.Mask) (roundrect_rratio 0.25))
  (pad 1 smd roundrect (at -2.8625 -3) (size 1.475 0.25) (layers F.Cu F.Paste F.Mask) (roundrect_rratio 0.25))
  (model ${KISYS3DMOD}/Package_SO.3dshapes/TSSOP-32_4.4x6.5mm_P0.4mm.wrl
    (at (xyz 0 0 0))
    (scale (xyz 1 1 1))
    (rotate (xyz 0 0 0))
  )
)
