(module TSSOP-56_6.1x12.5mm_P0.4mm (layer F.Cu) (tedit 607FF898)
  (descr "TSSOP, 56 Pin (JEDEC MO-153 Var FD https://www.jedec.org/document_search?search_api_views_fulltext=MO-153), Alternate KiCad Library")
  (tags "TSSOP SO")
  (attr smd)
  (fp_text reference REF** (at 0 -7.2) (layer F.SilkS)
    (effects (font (size 1 1) (thickness 0.15)))
  )
  (fp_text value TSSOP-56_6.1x12.5mm_P0.4mm (at 0 7.2) (layer F.Fab)
    (effects (font (size 1 1) (thickness 0.15)))
  )
  (fp_line (start 4.699 -5) (end 4.953 -5) (layer F.SilkS) (width 0.12))
  (fp_line (start 4.699 -3) (end 5.08 -3) (layer F.SilkS) (width 0.12))
  (fp_line (start 4.699 -1) (end 4.953 -1) (layer F.SilkS) (width 0.12))
  (fp_line (start 4.699 1) (end 5.08 1) (layer F.SilkS) (width 0.12))
  (fp_line (start 4.699 3) (end 4.953 3) (layer F.SilkS) (width 0.12))
  (fp_line (start 4.699 5) (end 5.08 5) (layer F.SilkS) (width 0.12))
  (fp_line (start -4.699 4.2) (end -4.953 4.2) (layer F.SilkS) (width 0.12))
  (fp_line (start -4.699 2.2) (end -5.08 2.2) (layer F.SilkS) (width 0.12))
  (fp_line (start -4.699 0.2) (end -4.953 0.2) (layer F.SilkS) (width 0.12))
  (fp_line (start -4.699 -1.8) (end -5.08 -1.8) (layer F.SilkS) (width 0.12))
  (fp_line (start -4.699 -3.8) (end -4.953 -3.8) (layer F.SilkS) (width 0.12))
  (fp_line (start 4.699 -6.477) (end -4.191 -6.477) (layer F.SilkS) (width 0.12))
  (fp_line (start 4.699 6.477) (end 4.699 -6.477) (layer F.SilkS) (width 0.12))
  (fp_line (start -4.699 6.477) (end 4.699 6.477) (layer F.SilkS) (width 0.12))
  (fp_line (start -4.699 -5.969) (end -4.699 6.477) (layer F.SilkS) (width 0.12))
  (fp_line (start -4.699 -5.969) (end -4.191 -6.477) (layer F.SilkS) (width 0.12))
  (fp_line (start 4.7 -6.5) (end -4.7 -6.5) (layer F.CrtYd) (width 0.05))
  (fp_line (start 4.7 6.5) (end 4.7 -6.5) (layer F.CrtYd) (width 0.05))
  (fp_line (start -4.7 6.5) (end 4.7 6.5) (layer F.CrtYd) (width 0.05))
  (fp_line (start -4.7 -6.5) (end -4.7 6.5) (layer F.CrtYd) (width 0.05))
  (fp_line (start -3.05 -5.25) (end -2.05 -6.25) (layer F.Fab) (width 0.1))
  (fp_line (start -3.05 6.25) (end -3.05 -5.25) (layer F.Fab) (width 0.1))
  (fp_line (start 3.05 6.25) (end -3.05 6.25) (layer F.Fab) (width 0.1))
  (fp_line (start 3.05 -6.25) (end 3.05 6.25) (layer F.Fab) (width 0.1))
  (fp_line (start -2.05 -6.25) (end 3.05 -6.25) (layer F.Fab) (width 0.1))
  (fp_circle (center -4.1275 -5.9055) (end -4.064 -5.9055) (layer F.SilkS) (width 0.3))
  (fp_text user %R (at 0 0) (layer F.Fab)
    (effects (font (size 1 1) (thickness 0.15)))
  )
  (pad 56 smd roundrect (at 3.7125 -5.4) (size 1.475 0.25) (layers F.Cu F.Paste F.Mask) (roundrect_rratio 0.25))
  (pad 55 smd roundrect (at 3.7125 -5) (size 1.475 0.25) (layers F.Cu F.Paste F.Mask) (roundrect_rratio 0.25))
  (pad 54 smd roundrect (at 3.7125 -4.6) (size 1.475 0.25) (layers F.Cu F.Paste F.Mask) (roundrect_rratio 0.25))
  (pad 53 smd roundrect (at 3.7125 -4.2) (size 1.475 0.25) (layers F.Cu F.Paste F.Mask) (roundrect_rratio 0.25))
  (pad 52 smd roundrect (at 3.7125 -3.8) (size 1.475 0.25) (layers F.Cu F.Paste F.Mask) (roundrect_rratio 0.25))
  (pad 51 smd roundrect (at 3.7125 -3.4) (size 1.475 0.25) (layers F.Cu F.Paste F.Mask) (roundrect_rratio 0.25))
  (pad 50 smd roundrect (at 3.7125 -3) (size 1.475 0.25) (layers F.Cu F.Paste F.Mask) (roundrect_rratio 0.25))
  (pad 49 smd roundrect (at 3.7125 -2.6) (size 1.475 0.25) (layers F.Cu F.Paste F.Mask) (roundrect_rratio 0.25))
  (pad 48 smd roundrect (at 3.7125 -2.2) (size 1.475 0.25) (layers F.Cu F.Paste F.Mask) (roundrect_rratio 0.25))
  (pad 47 smd roundrect (at 3.7125 -1.8) (size 1.475 0.25) (layers F.Cu F.Paste F.Mask) (roundrect_rratio 0.25))
  (pad 46 smd roundrect (at 3.7125 -1.4) (size 1.475 0.25) (layers F.Cu F.Paste F.Mask) (roundrect_rratio 0.25))
  (pad 45 smd roundrect (at 3.7125 -1) (size 1.475 0.25) (layers F.Cu F.Paste F.Mask) (roundrect_rratio 0.25))
  (pad 44 smd roundrect (at 3.7125 -0.6) (size 1.475 0.25) (layers F.Cu F.Paste F.Mask) (roundrect_rratio 0.25))
  (pad 43 smd roundrect (at 3.7125 -0.2) (size 1.475 0.25) (layers F.Cu F.Paste F.Mask) (roundrect_rratio 0.25))
  (pad 42 smd roundrect (at 3.7125 0.2) (size 1.475 0.25) (layers F.Cu F.Paste F.Mask) (roundrect_rratio 0.25))
  (pad 41 smd roundrect (at 3.7125 0.6) (size 1.475 0.25) (layers F.Cu F.Paste F.Mask) (roundrect_rratio 0.25))
  (pad 40 smd roundrect (at 3.7125 1) (size 1.475 0.25) (layers F.Cu F.Paste F.Mask) (roundrect_rratio 0.25))
  (pad 39 smd roundrect (at 3.7125 1.4) (size 1.475 0.25) (layers F.Cu F.Paste F.Mask) (roundrect_rratio 0.25))
  (pad 38 smd roundrect (at 3.7125 1.8) (size 1.475 0.25) (layers F.Cu F.Paste F.Mask) (roundrect_rratio 0.25))
  (pad 37 smd roundrect (at 3.7125 2.2) (size 1.475 0.25) (layers F.Cu F.Paste F.Mask) (roundrect_rratio 0.25))
  (pad 36 smd roundrect (at 3.7125 2.6) (size 1.475 0.25) (layers F.Cu F.Paste F.Mask) (roundrect_rratio 0.25))
  (pad 35 smd roundrect (at 3.7125 3) (size 1.475 0.25) (layers F.Cu F.Paste F.Mask) (roundrect_rratio 0.25))
  (pad 34 smd roundrect (at 3.7125 3.4) (size 1.475 0.25) (layers F.Cu F.Paste F.Mask) (roundrect_rratio 0.25))
  (pad 33 smd roundrect (at 3.7125 3.8) (size 1.475 0.25) (layers F.Cu F.Paste F.Mask) (roundrect_rratio 0.25))
  (pad 32 smd roundrect (at 3.7125 4.2) (size 1.475 0.25) (layers F.Cu F.Paste F.Mask) (roundrect_rratio 0.25))
  (pad 31 smd roundrect (at 3.7125 4.6) (size 1.475 0.25) (layers F.Cu F.Paste F.Mask) (roundrect_rratio 0.25))
  (pad 30 smd roundrect (at 3.7125 5) (size 1.475 0.25) (layers F.Cu F.Paste F.Mask) (roundrect_rratio 0.25))
  (pad 29 smd roundrect (at 3.7125 5.4) (size 1.475 0.25) (layers F.Cu F.Paste F.Mask) (roundrect_rratio 0.25))
  (pad 28 smd roundrect (at -3.7125 5.4) (size 1.475 0.25) (layers F.Cu F.Paste F.Mask) (roundrect_rratio 0.25))
  (pad 27 smd roundrect (at -3.7125 5) (size 1.475 0.25) (layers F.Cu F.Paste F.Mask) (roundrect_rratio 0.25))
  (pad 26 smd roundrect (at -3.7125 4.6) (size 1.475 0.25) (layers F.Cu F.Paste F.Mask) (roundrect_rratio 0.25))
  (pad 25 smd roundrect (at -3.7125 4.2) (size 1.475 0.25) (layers F.Cu F.Paste F.Mask) (roundrect_rratio 0.25))
  (pad 24 smd roundrect (at -3.7125 3.8) (size 1.475 0.25) (layers F.Cu F.Paste F.Mask) (roundrect_rratio 0.25))
  (pad 23 smd roundrect (at -3.7125 3.4) (size 1.475 0.25) (layers F.Cu F.Paste F.Mask) (roundrect_rratio 0.25))
  (pad 22 smd roundrect (at -3.7125 3) (size 1.475 0.25) (layers F.Cu F.Paste F.Mask) (roundrect_rratio 0.25))
  (pad 21 smd roundrect (at -3.7125 2.6) (size 1.475 0.25) (layers F.Cu F.Paste F.Mask) (roundrect_rratio 0.25))
  (pad 20 smd roundrect (at -3.7125 2.2) (size 1.475 0.25) (layers F.Cu F.Paste F.Mask) (roundrect_rratio 0.25))
  (pad 19 smd roundrect (at -3.7125 1.8) (size 1.475 0.25) (layers F.Cu F.Paste F.Mask) (roundrect_rratio 0.25))
  (pad 18 smd roundrect (at -3.7125 1.4) (size 1.475 0.25) (layers F.Cu F.Paste F.Mask) (roundrect_rratio 0.25))
  (pad 17 smd roundrect (at -3.7125 1) (size 1.475 0.25) (layers F.Cu F.Paste F.Mask) (roundrect_rratio 0.25))
  (pad 16 smd roundrect (at -3.7125 0.6) (size 1.475 0.25) (layers F.Cu F.Paste F.Mask) (roundrect_rratio 0.25))
  (pad 15 smd roundrect (at -3.7125 0.2) (size 1.475 0.25) (layers F.Cu F.Paste F.Mask) (roundrect_rratio 0.25))
  (pad 14 smd roundrect (at -3.7125 -0.2) (size 1.475 0.25) (layers F.Cu F.Paste F.Mask) (roundrect_rratio 0.25))
  (pad 13 smd roundrect (at -3.7125 -0.6) (size 1.475 0.25) (layers F.Cu F.Paste F.Mask) (roundrect_rratio 0.25))
  (pad 12 smd roundrect (at -3.7125 -1) (size 1.475 0.25) (layers F.Cu F.Paste F.Mask) (roundrect_rratio 0.25))
  (pad 11 smd roundrect (at -3.7125 -1.4) (size 1.475 0.25) (layers F.Cu F.Paste F.Mask) (roundrect_rratio 0.25))
  (pad 10 smd roundrect (at -3.7125 -1.8) (size 1.475 0.25) (layers F.Cu F.Paste F.Mask) (roundrect_rratio 0.25))
  (pad 9 smd roundrect (at -3.7125 -2.2) (size 1.475 0.25) (layers F.Cu F.Paste F.Mask) (roundrect_rratio 0.25))
  (pad 8 smd roundrect (at -3.7125 -2.6) (size 1.475 0.25) (layers F.Cu F.Paste F.Mask) (roundrect_rratio 0.25))
  (pad 7 smd roundrect (at -3.7125 -3) (size 1.475 0.25) (layers F.Cu F.Paste F.Mask) (roundrect_rratio 0.25))
  (pad 6 smd roundrect (at -3.7125 -3.4) (size 1.475 0.25) (layers F.Cu F.Paste F.Mask) (roundrect_rratio 0.25))
  (pad 5 smd roundrect (at -3.7125 -3.8) (size 1.475 0.25) (layers F.Cu F.Paste F.Mask) (roundrect_rratio 0.25))
  (pad 4 smd roundrect (at -3.7125 -4.2) (size 1.475 0.25) (layers F.Cu F.Paste F.Mask) (roundrect_rratio 0.25))
  (pad 3 smd roundrect (at -3.7125 -4.6) (size 1.475 0.25) (layers F.Cu F.Paste F.Mask) (roundrect_rratio 0.25))
  (pad 2 smd roundrect (at -3.7125 -5) (size 1.475 0.25) (layers F.Cu F.Paste F.Mask) (roundrect_rratio 0.25))
  (pad 1 smd roundrect (at -3.7125 -5.4) (size 1.475 0.25) (layers F.Cu F.Paste F.Mask) (roundrect_rratio 0.25))
  (model ${KISYS3DMOD}/Package_SO.3dshapes/TSSOP-56_6.1x12.5mm_P0.4mm.wrl
    (at (xyz 0 0 0))
    (scale (xyz 1 1 1))
    (rotate (xyz 0 0 0))
  )
)
