(module TSSOP-8_4.4x3mm_P0.65mm (layer F.Cu) (tedit 607FE079)
  (descr "TSSOP, 8 Pin (JEDEC MO-153 Var AA https://www.jedec.org/document_search?search_api_views_fulltext=MO-153), Alternate KiCad Library")
  (tags "TSSOP SO")
  (attr smd)
  (fp_text reference REF** (at 0 -2.45) (layer F.SilkS)
    (effects (font (size 1 1) (thickness 0.15)))
  )
  (fp_text value TSSOP-8_4.4x3mm_P0.65mm (at 0 2.45) (layer F.Fab)
    (effects (font (size 1 1) (thickness 0.15)))
  )
  (fp_line (start 3.8735 -1.778) (end -3.302 -1.778) (layer F.SilkS) (width 0.12))
  (fp_line (start 3.8735 1.778) (end 3.8735 -1.778) (layer F.SilkS) (width 0.12))
  (fp_line (start -3.8735 1.778) (end 3.8735 1.778) (layer F.SilkS) (width 0.12))
  (fp_line (start -3.8735 -1.2065) (end -3.8735 1.778) (layer F.SilkS) (width 0.12))
  (fp_line (start 3.85 -1.75) (end -3.85 -1.75) (layer F.CrtYd) (width 0.05))
  (fp_line (start 3.85 1.75) (end 3.85 -1.75) (layer F.CrtYd) (width 0.05))
  (fp_line (start -3.85 1.75) (end 3.85 1.75) (layer F.CrtYd) (width 0.05))
  (fp_line (start -3.85 -1.75) (end -3.85 1.75) (layer F.CrtYd) (width 0.05))
  (fp_line (start -2.2 -0.75) (end -1.45 -1.5) (layer F.Fab) (width 0.1))
  (fp_line (start -2.2 1.5) (end -2.2 -0.75) (layer F.Fab) (width 0.1))
  (fp_line (start 2.2 1.5) (end -2.2 1.5) (layer F.Fab) (width 0.1))
  (fp_line (start 2.2 -1.5) (end 2.2 1.5) (layer F.Fab) (width 0.1))
  (fp_line (start -1.45 -1.5) (end 2.2 -1.5) (layer F.Fab) (width 0.1))
  (fp_circle (center -3.683 -1.5875) (end -3.6195 -1.5875) (layer F.SilkS) (width 0.3))
  (fp_text user %R (at 0 0) (layer F.Fab)
    (effects (font (size 1 1) (thickness 0.15)))
  )
  (pad 8 smd roundrect (at 2.8625 -0.975) (size 1.475 0.4) (layers F.Cu F.Paste F.Mask) (roundrect_rratio 0.25))
  (pad 7 smd roundrect (at 2.8625 -0.325) (size 1.475 0.4) (layers F.Cu F.Paste F.Mask) (roundrect_rratio 0.25))
  (pad 6 smd roundrect (at 2.8625 0.325) (size 1.475 0.4) (layers F.Cu F.Paste F.Mask) (roundrect_rratio 0.25))
  (pad 5 smd roundrect (at 2.8625 0.975) (size 1.475 0.4) (layers F.Cu F.Paste F.Mask) (roundrect_rratio 0.25))
  (pad 4 smd roundrect (at -2.8625 0.975) (size 1.475 0.4) (layers F.Cu F.Paste F.Mask) (roundrect_rratio 0.25))
  (pad 3 smd roundrect (at -2.8625 0.325) (size 1.475 0.4) (layers F.Cu F.Paste F.Mask) (roundrect_rratio 0.25))
  (pad 2 smd roundrect (at -2.8625 -0.325) (size 1.475 0.4) (layers F.Cu F.Paste F.Mask) (roundrect_rratio 0.25))
  (pad 1 smd roundrect (at -2.8625 -0.975) (size 1.475 0.4) (layers F.Cu F.Paste F.Mask) (roundrect_rratio 0.25))
  (model ${KISYS3DMOD}/Package_SO.3dshapes/TSSOP-8_4.4x3mm_P0.65mm.wrl
    (at (xyz 0 0 0))
    (scale (xyz 1 1 1))
    (rotate (xyz 0 0 0))
  )
)
