(module TSSOP-40_6.1x14mm_P0.65mm (layer F.Cu) (tedit 607FF836)
  (descr "TSSOP, 40 Pin (JEDEC MO-153 Var DE https://www.jedec.org/document_search?search_api_views_fulltext=MO-153), Alternate KiCad Library")
  (tags "TSSOP SO")
  (attr smd)
  (fp_text reference REF** (at 0 -7.95) (layer F.SilkS)
    (effects (font (size 1 1) (thickness 0.15)))
  )
  (fp_text value TSSOP-40_6.1x14mm_P0.65mm (at 0 7.95) (layer F.Fab)
    (effects (font (size 1 1) (thickness 0.15)))
  )
  (fp_line (start 4.699 -6.175) (end 5.08 -6.175) (layer F.SilkS) (width 0.12))
  (fp_line (start 4.699 -2.925) (end 4.953 -2.925) (layer F.SilkS) (width 0.12))
  (fp_line (start 4.699 0.325) (end 5.08 0.325) (layer F.SilkS) (width 0.12))
  (fp_line (start 4.699 3.575) (end 4.953 3.575) (layer F.SilkS) (width 0.12))
  (fp_line (start -4.699 6.175) (end -5.08 6.175) (layer F.SilkS) (width 0.12))
  (fp_line (start -4.699 2.925) (end -4.953 2.925) (layer F.SilkS) (width 0.12))
  (fp_line (start -4.699 -0.325) (end -5.08 -0.325) (layer F.SilkS) (width 0.12))
  (fp_line (start -4.699 -3.575) (end -4.953 -3.575) (layer F.SilkS) (width 0.12))
  (fp_line (start 4.699 -7.239) (end -4.191 -7.239) (layer F.SilkS) (width 0.12))
  (fp_line (start 4.699 7.239) (end 4.699 -7.239) (layer F.SilkS) (width 0.12))
  (fp_line (start -4.699 7.239) (end 4.699 7.239) (layer F.SilkS) (width 0.12))
  (fp_line (start -4.699 -6.731) (end -4.699 7.239) (layer F.SilkS) (width 0.12))
  (fp_line (start -4.699 -6.731) (end -4.191 -7.239) (layer F.SilkS) (width 0.12))
  (fp_line (start 4.7 -7.25) (end -4.7 -7.25) (layer F.CrtYd) (width 0.05))
  (fp_line (start 4.7 7.25) (end 4.7 -7.25) (layer F.CrtYd) (width 0.05))
  (fp_line (start -4.7 7.25) (end 4.7 7.25) (layer F.CrtYd) (width 0.05))
  (fp_line (start -4.7 -7.25) (end -4.7 7.25) (layer F.CrtYd) (width 0.05))
  (fp_line (start -3.05 -6) (end -2.05 -7) (layer F.Fab) (width 0.1))
  (fp_line (start -3.05 7) (end -3.05 -6) (layer F.Fab) (width 0.1))
  (fp_line (start 3.05 7) (end -3.05 7) (layer F.Fab) (width 0.1))
  (fp_line (start 3.05 -7) (end 3.05 7) (layer F.Fab) (width 0.1))
  (fp_line (start -2.05 -7) (end 3.05 -7) (layer F.Fab) (width 0.1))
  (fp_circle (center -4.191 -6.731) (end -4.1275 -6.731) (layer F.SilkS) (width 0.2))
  (fp_text user %R (at 0 0) (layer F.Fab)
    (effects (font (size 1 1) (thickness 0.15)))
  )
  (pad 40 smd roundrect (at 3.7125 -6.175) (size 1.475 0.4) (layers F.Cu F.Paste F.Mask) (roundrect_rratio 0.25))
  (pad 39 smd roundrect (at 3.7125 -5.525) (size 1.475 0.4) (layers F.Cu F.Paste F.Mask) (roundrect_rratio 0.25))
  (pad 38 smd roundrect (at 3.7125 -4.875) (size 1.475 0.4) (layers F.Cu F.Paste F.Mask) (roundrect_rratio 0.25))
  (pad 37 smd roundrect (at 3.7125 -4.225) (size 1.475 0.4) (layers F.Cu F.Paste F.Mask) (roundrect_rratio 0.25))
  (pad 36 smd roundrect (at 3.7125 -3.575) (size 1.475 0.4) (layers F.Cu F.Paste F.Mask) (roundrect_rratio 0.25))
  (pad 35 smd roundrect (at 3.7125 -2.925) (size 1.475 0.4) (layers F.Cu F.Paste F.Mask) (roundrect_rratio 0.25))
  (pad 34 smd roundrect (at 3.7125 -2.275) (size 1.475 0.4) (layers F.Cu F.Paste F.Mask) (roundrect_rratio 0.25))
  (pad 33 smd roundrect (at 3.7125 -1.625) (size 1.475 0.4) (layers F.Cu F.Paste F.Mask) (roundrect_rratio 0.25))
  (pad 32 smd roundrect (at 3.7125 -0.975) (size 1.475 0.4) (layers F.Cu F.Paste F.Mask) (roundrect_rratio 0.25))
  (pad 31 smd roundrect (at 3.7125 -0.325) (size 1.475 0.4) (layers F.Cu F.Paste F.Mask) (roundrect_rratio 0.25))
  (pad 30 smd roundrect (at 3.7125 0.325) (size 1.475 0.4) (layers F.Cu F.Paste F.Mask) (roundrect_rratio 0.25))
  (pad 29 smd roundrect (at 3.7125 0.975) (size 1.475 0.4) (layers F.Cu F.Paste F.Mask) (roundrect_rratio 0.25))
  (pad 28 smd roundrect (at 3.7125 1.625) (size 1.475 0.4) (layers F.Cu F.Paste F.Mask) (roundrect_rratio 0.25))
  (pad 27 smd roundrect (at 3.7125 2.275) (size 1.475 0.4) (layers F.Cu F.Paste F.Mask) (roundrect_rratio 0.25))
  (pad 26 smd roundrect (at 3.7125 2.925) (size 1.475 0.4) (layers F.Cu F.Paste F.Mask) (roundrect_rratio 0.25))
  (pad 25 smd roundrect (at 3.7125 3.575) (size 1.475 0.4) (layers F.Cu F.Paste F.Mask) (roundrect_rratio 0.25))
  (pad 24 smd roundrect (at 3.7125 4.225) (size 1.475 0.4) (layers F.Cu F.Paste F.Mask) (roundrect_rratio 0.25))
  (pad 23 smd roundrect (at 3.7125 4.875) (size 1.475 0.4) (layers F.Cu F.Paste F.Mask) (roundrect_rratio 0.25))
  (pad 22 smd roundrect (at 3.7125 5.525) (size 1.475 0.4) (layers F.Cu F.Paste F.Mask) (roundrect_rratio 0.25))
  (pad 21 smd roundrect (at 3.7125 6.175) (size 1.475 0.4) (layers F.Cu F.Paste F.Mask) (roundrect_rratio 0.25))
  (pad 20 smd roundrect (at -3.7125 6.175) (size 1.475 0.4) (layers F.Cu F.Paste F.Mask) (roundrect_rratio 0.25))
  (pad 19 smd roundrect (at -3.7125 5.525) (size 1.475 0.4) (layers F.Cu F.Paste F.Mask) (roundrect_rratio 0.25))
  (pad 18 smd roundrect (at -3.7125 4.875) (size 1.475 0.4) (layers F.Cu F.Paste F.Mask) (roundrect_rratio 0.25))
  (pad 17 smd roundrect (at -3.7125 4.225) (size 1.475 0.4) (layers F.Cu F.Paste F.Mask) (roundrect_rratio 0.25))
  (pad 16 smd roundrect (at -3.7125 3.575) (size 1.475 0.4) (layers F.Cu F.Paste F.Mask) (roundrect_rratio 0.25))
  (pad 15 smd roundrect (at -3.7125 2.925) (size 1.475 0.4) (layers F.Cu F.Paste F.Mask) (roundrect_rratio 0.25))
  (pad 14 smd roundrect (at -3.7125 2.275) (size 1.475 0.4) (layers F.Cu F.Paste F.Mask) (roundrect_rratio 0.25))
  (pad 13 smd roundrect (at -3.7125 1.625) (size 1.475 0.4) (layers F.Cu F.Paste F.Mask) (roundrect_rratio 0.25))
  (pad 12 smd roundrect (at -3.7125 0.975) (size 1.475 0.4) (layers F.Cu F.Paste F.Mask) (roundrect_rratio 0.25))
  (pad 11 smd roundrect (at -3.7125 0.325) (size 1.475 0.4) (layers F.Cu F.Paste F.Mask) (roundrect_rratio 0.25))
  (pad 10 smd roundrect (at -3.7125 -0.325) (size 1.475 0.4) (layers F.Cu F.Paste F.Mask) (roundrect_rratio 0.25))
  (pad 9 smd roundrect (at -3.7125 -0.975) (size 1.475 0.4) (layers F.Cu F.Paste F.Mask) (roundrect_rratio 0.25))
  (pad 8 smd roundrect (at -3.7125 -1.625) (size 1.475 0.4) (layers F.Cu F.Paste F.Mask) (roundrect_rratio 0.25))
  (pad 7 smd roundrect (at -3.7125 -2.275) (size 1.475 0.4) (layers F.Cu F.Paste F.Mask) (roundrect_rratio 0.25))
  (pad 6 smd roundrect (at -3.7125 -2.925) (size 1.475 0.4) (layers F.Cu F.Paste F.Mask) (roundrect_rratio 0.25))
  (pad 5 smd roundrect (at -3.7125 -3.575) (size 1.475 0.4) (layers F.Cu F.Paste F.Mask) (roundrect_rratio 0.25))
  (pad 4 smd roundrect (at -3.7125 -4.225) (size 1.475 0.4) (layers F.Cu F.Paste F.Mask) (roundrect_rratio 0.25))
  (pad 3 smd roundrect (at -3.7125 -4.875) (size 1.475 0.4) (layers F.Cu F.Paste F.Mask) (roundrect_rratio 0.25))
  (pad 2 smd roundrect (at -3.7125 -5.525) (size 1.475 0.4) (layers F.Cu F.Paste F.Mask) (roundrect_rratio 0.25))
  (pad 1 smd roundrect (at -3.7125 -6.175) (size 1.475 0.4) (layers F.Cu F.Paste F.Mask) (roundrect_rratio 0.25))
  (model ${KISYS3DMOD}/Package_SO.3dshapes/TSSOP-40_6.1x14mm_P0.65mm.wrl
    (at (xyz 0 0 0))
    (scale (xyz 1 1 1))
    (rotate (xyz 0 0 0))
  )
)
