(module TSSOP-28_6.1x7.8mm_P0.5mm (layer F.Cu) (tedit 607FE0DF)
  (descr "TSSOP, 28 Pin (JEDEC MO-153 Var EA https://www.jedec.org/document_search?search_api_views_fulltext=MO-153), Alternate KiCad Library")
  (tags "TSSOP SO")
  (attr smd)
  (fp_text reference REF** (at 0 -4.85) (layer F.SilkS)
    (effects (font (size 1 1) (thickness 0.15)))
  )
  (fp_text value TSSOP-28_6.1x7.8mm_P0.5mm (at 0 4.85) (layer F.Fab)
    (effects (font (size 1 1) (thickness 0.15)))
  )
  (fp_line (start 4.953 -1.75) (end 4.75 -1.75) (layer F.SilkS) (width 0.12))
  (fp_line (start 5.08 0.75) (end 4.75 0.75) (layer F.SilkS) (width 0.12))
  (fp_line (start 4.953 3.25) (end 4.75 3.25) (layer F.SilkS) (width 0.12))
  (fp_line (start -5.08 1.25) (end -4.75 1.25) (layer F.SilkS) (width 0.12))
  (fp_line (start -4.953 -1.25) (end -4.699 -1.25) (layer F.SilkS) (width 0.12))
  (fp_line (start 4.699 -4.1275) (end -4.1275 -4.1275) (layer F.SilkS) (width 0.12))
  (fp_line (start 4.699 4.1275) (end 4.699 -4.1275) (layer F.SilkS) (width 0.12))
  (fp_line (start -4.699 4.1275) (end 4.699 4.1275) (layer F.SilkS) (width 0.12))
  (fp_line (start -4.699 -3.556) (end -4.699 4.1275) (layer F.SilkS) (width 0.12))
  (fp_line (start 4.7 -4.15) (end -4.7 -4.15) (layer F.CrtYd) (width 0.05))
  (fp_line (start 4.7 4.15) (end 4.7 -4.15) (layer F.CrtYd) (width 0.05))
  (fp_line (start -4.7 4.15) (end 4.7 4.15) (layer F.CrtYd) (width 0.05))
  (fp_line (start -4.7 -4.15) (end -4.7 4.15) (layer F.CrtYd) (width 0.05))
  (fp_line (start -3.05 -2.9) (end -2.05 -3.9) (layer F.Fab) (width 0.1))
  (fp_line (start -3.05 3.9) (end -3.05 -2.9) (layer F.Fab) (width 0.1))
  (fp_line (start 3.05 3.9) (end -3.05 3.9) (layer F.Fab) (width 0.1))
  (fp_line (start 3.05 -3.9) (end 3.05 3.9) (layer F.Fab) (width 0.1))
  (fp_line (start -2.05 -3.9) (end 3.05 -3.9) (layer F.Fab) (width 0.1))
  (fp_circle (center -4.5085 -3.937) (end -4.445 -3.937) (layer F.SilkS) (width 0.3))
  (fp_text user %R (at 0 0) (layer F.Fab)
    (effects (font (size 1 1) (thickness 0.15)))
  )
  (pad 28 smd roundrect (at 3.7125 -3.25) (size 1.475 0.3) (layers F.Cu F.Paste F.Mask) (roundrect_rratio 0.25))
  (pad 27 smd roundrect (at 3.7125 -2.75) (size 1.475 0.3) (layers F.Cu F.Paste F.Mask) (roundrect_rratio 0.25))
  (pad 26 smd roundrect (at 3.7125 -2.25) (size 1.475 0.3) (layers F.Cu F.Paste F.Mask) (roundrect_rratio 0.25))
  (pad 25 smd roundrect (at 3.7125 -1.75) (size 1.475 0.3) (layers F.Cu F.Paste F.Mask) (roundrect_rratio 0.25))
  (pad 24 smd roundrect (at 3.7125 -1.25) (size 1.475 0.3) (layers F.Cu F.Paste F.Mask) (roundrect_rratio 0.25))
  (pad 23 smd roundrect (at 3.7125 -0.75) (size 1.475 0.3) (layers F.Cu F.Paste F.Mask) (roundrect_rratio 0.25))
  (pad 22 smd roundrect (at 3.7125 -0.25) (size 1.475 0.3) (layers F.Cu F.Paste F.Mask) (roundrect_rratio 0.25))
  (pad 21 smd roundrect (at 3.7125 0.25) (size 1.475 0.3) (layers F.Cu F.Paste F.Mask) (roundrect_rratio 0.25))
  (pad 20 smd roundrect (at 3.7125 0.75) (size 1.475 0.3) (layers F.Cu F.Paste F.Mask) (roundrect_rratio 0.25))
  (pad 19 smd roundrect (at 3.7125 1.25) (size 1.475 0.3) (layers F.Cu F.Paste F.Mask) (roundrect_rratio 0.25))
  (pad 18 smd roundrect (at 3.7125 1.75) (size 1.475 0.3) (layers F.Cu F.Paste F.Mask) (roundrect_rratio 0.25))
  (pad 17 smd roundrect (at 3.7125 2.25) (size 1.475 0.3) (layers F.Cu F.Paste F.Mask) (roundrect_rratio 0.25))
  (pad 16 smd roundrect (at 3.7125 2.75) (size 1.475 0.3) (layers F.Cu F.Paste F.Mask) (roundrect_rratio 0.25))
  (pad 15 smd roundrect (at 3.7125 3.25) (size 1.475 0.3) (layers F.Cu F.Paste F.Mask) (roundrect_rratio 0.25))
  (pad 14 smd roundrect (at -3.7125 3.25) (size 1.475 0.3) (layers F.Cu F.Paste F.Mask) (roundrect_rratio 0.25))
  (pad 13 smd roundrect (at -3.7125 2.75) (size 1.475 0.3) (layers F.Cu F.Paste F.Mask) (roundrect_rratio 0.25))
  (pad 12 smd roundrect (at -3.7125 2.25) (size 1.475 0.3) (layers F.Cu F.Paste F.Mask) (roundrect_rratio 0.25))
  (pad 11 smd roundrect (at -3.7125 1.75) (size 1.475 0.3) (layers F.Cu F.Paste F.Mask) (roundrect_rratio 0.25))
  (pad 10 smd roundrect (at -3.7125 1.25) (size 1.475 0.3) (layers F.Cu F.Paste F.Mask) (roundrect_rratio 0.25))
  (pad 9 smd roundrect (at -3.7125 0.75) (size 1.475 0.3) (layers F.Cu F.Paste F.Mask) (roundrect_rratio 0.25))
  (pad 8 smd roundrect (at -3.7125 0.25) (size 1.475 0.3) (layers F.Cu F.Paste F.Mask) (roundrect_rratio 0.25))
  (pad 7 smd roundrect (at -3.7125 -0.25) (size 1.475 0.3) (layers F.Cu F.Paste F.Mask) (roundrect_rratio 0.25))
  (pad 6 smd roundrect (at -3.7125 -0.75) (size 1.475 0.3) (layers F.Cu F.Paste F.Mask) (roundrect_rratio 0.25))
  (pad 5 smd roundrect (at -3.7125 -1.25) (size 1.475 0.3) (layers F.Cu F.Paste F.Mask) (roundrect_rratio 0.25))
  (pad 4 smd roundrect (at -3.7125 -1.75) (size 1.475 0.3) (layers F.Cu F.Paste F.Mask) (roundrect_rratio 0.25))
  (pad 3 smd roundrect (at -3.7125 -2.25) (size 1.475 0.3) (layers F.Cu F.Paste F.Mask) (roundrect_rratio 0.25))
  (pad 2 smd roundrect (at -3.7125 -2.75) (size 1.475 0.3) (layers F.Cu F.Paste F.Mask) (roundrect_rratio 0.25))
  (pad 1 smd roundrect (at -3.7125 -3.25) (size 1.475 0.3) (layers F.Cu F.Paste F.Mask) (roundrect_rratio 0.25))
  (model ${KISYS3DMOD}/Package_SO.3dshapes/TSSOP-28_6.1x7.8mm_P0.5mm.wrl
    (at (xyz 0 0 0))
    (scale (xyz 1 1 1))
    (rotate (xyz 0 0 0))
  )
)
