(module TSSOP-44_4.4x11.2mm_P0.5mm (layer F.Cu) (tedit 607FF84A)
  (descr "TSSOP44: plastic thin shrink small outline package; 44 leads; body width 4.4 mm (see NXP SSOP-TSSOP-VSO-REFLOW.pdf and sot510-1_po.pdf), Alternate KiCad Library")
  (tags "SSOP 0.5")
  (attr smd)
  (fp_text reference REF** (at 0 -6.65) (layer F.SilkS)
    (effects (font (size 1 1) (thickness 0.15)))
  )
  (fp_text value TSSOP-44_4.4x11.2mm_P0.5mm (at 0 7) (layer F.Fab)
    (effects (font (size 1 1) (thickness 0.15)))
  )
  (fp_line (start 3.683 -3.25) (end 4.064 -3.25) (layer F.SilkS) (width 0.12))
  (fp_line (start 3.683 -0.75) (end 3.937 -0.75) (layer F.SilkS) (width 0.12))
  (fp_line (start 3.683 1.75) (end 4.064 1.75) (layer F.SilkS) (width 0.12))
  (fp_line (start 3.683 4.25) (end 3.937 4.25) (layer F.SilkS) (width 0.12))
  (fp_line (start -4.064 4.25) (end -3.683 4.25) (layer F.SilkS) (width 0.12))
  (fp_line (start -3.937 1.75) (end -3.683 1.75) (layer F.SilkS) (width 0.12))
  (fp_line (start -4.064 -0.75) (end -3.683 -0.75) (layer F.SilkS) (width 0.12))
  (fp_line (start -3.937 -3.25) (end -3.683 -3.25) (layer F.SilkS) (width 0.12))
  (fp_line (start 3.683 -5.9055) (end -3.175 -5.9055) (layer F.SilkS) (width 0.12))
  (fp_line (start 3.683 5.9055) (end 3.683 -5.9055) (layer F.SilkS) (width 0.12))
  (fp_line (start -3.683 5.9055) (end 3.683 5.9055) (layer F.SilkS) (width 0.12))
  (fp_line (start -3.683 -5.3975) (end -3.683 5.9055) (layer F.SilkS) (width 0.12))
  (fp_line (start -3.7 5.95) (end 3.7 5.95) (layer F.CrtYd) (width 0.05))
  (fp_line (start -3.7 -5.95) (end 3.7 -5.95) (layer F.CrtYd) (width 0.05))
  (fp_line (start 3.7 -5.95) (end 3.7 5.95) (layer F.CrtYd) (width 0.05))
  (fp_line (start -3.7 -5.95) (end -3.7 5.95) (layer F.CrtYd) (width 0.05))
  (fp_line (start -2.2 -4.6) (end -1.2 -5.6) (layer F.Fab) (width 0.15))
  (fp_line (start -2.2 5.6) (end -2.2 -4.6) (layer F.Fab) (width 0.15))
  (fp_line (start 2.2 5.6) (end -2.2 5.6) (layer F.Fab) (width 0.15))
  (fp_line (start 2.2 -5.6) (end 2.2 5.6) (layer F.Fab) (width 0.15))
  (fp_line (start -1.2 -5.6) (end 2.2 -5.6) (layer F.Fab) (width 0.15))
  (fp_circle (center -3.556 -5.7785) (end -3.4925 -5.7785) (layer F.SilkS) (width 0.3))
  (fp_text user %R (at 0 0) (layer F.Fab)
    (effects (font (size 0.8 0.8) (thickness 0.15)))
  )
  (pad 44 smd rect (at 2.85 -5.25) (size 1.1 0.285) (layers F.Cu F.Paste F.Mask))
  (pad 43 smd rect (at 2.85 -4.75) (size 1.1 0.285) (layers F.Cu F.Paste F.Mask))
  (pad 42 smd rect (at 2.85 -4.25) (size 1.1 0.285) (layers F.Cu F.Paste F.Mask))
  (pad 41 smd rect (at 2.85 -3.75) (size 1.1 0.285) (layers F.Cu F.Paste F.Mask))
  (pad 40 smd rect (at 2.85 -3.25) (size 1.1 0.285) (layers F.Cu F.Paste F.Mask))
  (pad 39 smd rect (at 2.85 -2.75) (size 1.1 0.285) (layers F.Cu F.Paste F.Mask))
  (pad 22 smd rect (at -2.85 5.25) (size 1.1 0.285) (layers F.Cu F.Paste F.Mask))
  (pad 21 smd rect (at -2.85 4.75) (size 1.1 0.285) (layers F.Cu F.Paste F.Mask))
  (pad 20 smd rect (at -2.85 4.25) (size 1.1 0.285) (layers F.Cu F.Paste F.Mask))
  (pad 38 smd rect (at 2.85 -2.25) (size 1.1 0.285) (layers F.Cu F.Paste F.Mask))
  (pad 37 smd rect (at 2.85 -1.75) (size 1.1 0.285) (layers F.Cu F.Paste F.Mask))
  (pad 36 smd rect (at 2.85 -1.25) (size 1.1 0.285) (layers F.Cu F.Paste F.Mask))
  (pad 35 smd rect (at 2.85 -0.75) (size 1.1 0.285) (layers F.Cu F.Paste F.Mask))
  (pad 34 smd rect (at 2.85 -0.25) (size 1.1 0.285) (layers F.Cu F.Paste F.Mask))
  (pad 33 smd rect (at 2.85 0.25) (size 1.1 0.285) (layers F.Cu F.Paste F.Mask))
  (pad 32 smd rect (at 2.85 0.75) (size 1.1 0.285) (layers F.Cu F.Paste F.Mask))
  (pad 31 smd rect (at 2.85 1.25) (size 1.1 0.285) (layers F.Cu F.Paste F.Mask))
  (pad 30 smd rect (at 2.85 1.75) (size 1.1 0.285) (layers F.Cu F.Paste F.Mask))
  (pad 29 smd rect (at 2.85 2.25) (size 1.1 0.285) (layers F.Cu F.Paste F.Mask))
  (pad 28 smd rect (at 2.85 2.75) (size 1.1 0.285) (layers F.Cu F.Paste F.Mask))
  (pad 27 smd rect (at 2.85 3.25) (size 1.1 0.285) (layers F.Cu F.Paste F.Mask))
  (pad 26 smd rect (at 2.85 3.75) (size 1.1 0.285) (layers F.Cu F.Paste F.Mask))
  (pad 25 smd rect (at 2.85 4.25) (size 1.1 0.285) (layers F.Cu F.Paste F.Mask))
  (pad 24 smd rect (at 2.85 4.75) (size 1.1 0.285) (layers F.Cu F.Paste F.Mask))
  (pad 23 smd rect (at 2.85 5.25) (size 1.1 0.285) (layers F.Cu F.Paste F.Mask))
  (pad 19 smd rect (at -2.85 3.75) (size 1.1 0.285) (layers F.Cu F.Paste F.Mask))
  (pad 18 smd rect (at -2.85 3.25) (size 1.1 0.285) (layers F.Cu F.Paste F.Mask))
  (pad 17 smd rect (at -2.85 2.75) (size 1.1 0.285) (layers F.Cu F.Paste F.Mask))
  (pad 16 smd rect (at -2.85 2.25) (size 1.1 0.285) (layers F.Cu F.Paste F.Mask))
  (pad 15 smd rect (at -2.85 1.75) (size 1.1 0.285) (layers F.Cu F.Paste F.Mask))
  (pad 14 smd rect (at -2.85 1.25) (size 1.1 0.285) (layers F.Cu F.Paste F.Mask))
  (pad 13 smd rect (at -2.85 0.75) (size 1.1 0.285) (layers F.Cu F.Paste F.Mask))
  (pad 12 smd rect (at -2.85 0.25) (size 1.1 0.285) (layers F.Cu F.Paste F.Mask))
  (pad 11 smd rect (at -2.85 -0.25) (size 1.1 0.285) (layers F.Cu F.Paste F.Mask))
  (pad 10 smd rect (at -2.85 -0.75) (size 1.1 0.285) (layers F.Cu F.Paste F.Mask))
  (pad 9 smd rect (at -2.85 -1.25) (size 1.1 0.285) (layers F.Cu F.Paste F.Mask))
  (pad 8 smd rect (at -2.85 -1.75) (size 1.1 0.285) (layers F.Cu F.Paste F.Mask))
  (pad 7 smd rect (at -2.85 -2.25) (size 1.1 0.285) (layers F.Cu F.Paste F.Mask))
  (pad 6 smd rect (at -2.85 -2.75) (size 1.1 0.285) (layers F.Cu F.Paste F.Mask))
  (pad 5 smd rect (at -2.85 -3.25) (size 1.1 0.285) (layers F.Cu F.Paste F.Mask))
  (pad 4 smd rect (at -2.85 -3.75) (size 1.1 0.285) (layers F.Cu F.Paste F.Mask))
  (pad 3 smd rect (at -2.85 -4.25) (size 1.1 0.285) (layers F.Cu F.Paste F.Mask))
  (pad 2 smd rect (at -2.85 -4.75) (size 1.1 0.285) (layers F.Cu F.Paste F.Mask))
  (pad 1 smd rect (at -2.85 -5.25) (size 1.1 0.285) (layers F.Cu F.Paste F.Mask))
  (model ${KISYS3DMOD}/Package_SO.3dshapes/TSSOP-44_4.4x11.2mm_P0.5mm.wrl
    (at (xyz 0 0 0))
    (scale (xyz 1 1 1))
    (rotate (xyz 0 0 0))
  )
)
