(module VSO-40_7.6x15.4mm_P0.762mm (layer F.Cu) (tedit 607FF91A)
  (descr "VSO40: plastic very small outline package; 40 leads (see NXP SSOP-TSSOP-VSO-REFLOW.pdf and sot158-1_po.pdf), Alternate KiCad Library")
  (tags "SSOP 0.762")
  (attr smd)
  (fp_text reference REF** (at 0 -8.8) (layer F.SilkS)
    (effects (font (size 1 1) (thickness 0.15)))
  )
  (fp_text value VSO-40_7.6x15.4mm_P0.762mm (at 0 8.8) (layer F.Fab)
    (effects (font (size 1 1) (thickness 0.15)))
  )
  (fp_line (start 6.5405 -7.239) (end 6.9215 -7.239) (layer F.SilkS) (width 0.12))
  (fp_line (start 6.5405 -3.429) (end 6.7945 -3.429) (layer F.SilkS) (width 0.12))
  (fp_line (start 6.5405 0.381) (end 6.9215 0.381) (layer F.SilkS) (width 0.12))
  (fp_line (start 6.5405 4.191) (end 6.7945 4.191) (layer F.SilkS) (width 0.12))
  (fp_line (start -6.5405 7.239) (end -6.9215 7.239) (layer F.SilkS) (width 0.12))
  (fp_line (start -6.5405 3.429) (end -6.7945 3.429) (layer F.SilkS) (width 0.12))
  (fp_line (start -6.604 -0.381) (end -6.9215 -0.381) (layer F.SilkS) (width 0.12))
  (fp_line (start -6.5405 -4.191) (end -6.7945 -4.191) (layer F.SilkS) (width 0.12))
  (fp_line (start 6.5405 -8.001) (end -5.969 -8.001) (layer F.SilkS) (width 0.12))
  (fp_line (start 6.5405 8.001) (end 6.5405 -8.001) (layer F.SilkS) (width 0.12))
  (fp_line (start -6.5405 8.001) (end 6.5405 8.001) (layer F.SilkS) (width 0.12))
  (fp_line (start -6.5405 -7.4295) (end -6.5405 8.001) (layer F.SilkS) (width 0.12))
  (fp_line (start -6.55 8.05) (end 6.55 8.05) (layer F.CrtYd) (width 0.05))
  (fp_line (start -6.55 -8.05) (end 6.55 -8.05) (layer F.CrtYd) (width 0.05))
  (fp_line (start 6.55 -8.05) (end 6.55 8.05) (layer F.CrtYd) (width 0.05))
  (fp_line (start -6.55 -8.05) (end -6.55 8.05) (layer F.CrtYd) (width 0.05))
  (fp_line (start -3.8 -6.7) (end -2.8 -7.7) (layer F.Fab) (width 0.15))
  (fp_line (start -3.8 7.7) (end -3.8 -6.7) (layer F.Fab) (width 0.15))
  (fp_line (start 3.8 7.7) (end -3.8 7.7) (layer F.Fab) (width 0.15))
  (fp_line (start 3.8 -7.7) (end 3.8 7.7) (layer F.Fab) (width 0.15))
  (fp_line (start -2.8 -7.7) (end 3.8 -7.7) (layer F.Fab) (width 0.15))
  (fp_circle (center -6.35 -7.8105) (end -6.2865 -7.8105) (layer F.SilkS) (width 0.3))
  (fp_text user %R (at 0 0) (layer F.Fab)
    (effects (font (size 0.8 0.8) (thickness 0.15)))
  )
  (pad 40 smd rect (at 5.2 -7.239) (size 2.2 0.4) (layers F.Cu F.Paste F.Mask))
  (pad 39 smd rect (at 5.2 -6.477) (size 2.2 0.4) (layers F.Cu F.Paste F.Mask))
  (pad 38 smd rect (at 5.2 -5.715) (size 2.2 0.4) (layers F.Cu F.Paste F.Mask))
  (pad 37 smd rect (at 5.2 -4.953) (size 2.2 0.4) (layers F.Cu F.Paste F.Mask))
  (pad 36 smd rect (at 5.2 -4.191) (size 2.2 0.4) (layers F.Cu F.Paste F.Mask))
  (pad 35 smd rect (at 5.2 -3.429) (size 2.2 0.4) (layers F.Cu F.Paste F.Mask))
  (pad 34 smd rect (at 5.2 -2.667) (size 2.2 0.4) (layers F.Cu F.Paste F.Mask))
  (pad 33 smd rect (at 5.2 -1.905) (size 2.2 0.4) (layers F.Cu F.Paste F.Mask))
  (pad 32 smd rect (at 5.2 -1.143) (size 2.2 0.4) (layers F.Cu F.Paste F.Mask))
  (pad 31 smd rect (at 5.2 -0.381) (size 2.2 0.4) (layers F.Cu F.Paste F.Mask))
  (pad 30 smd rect (at 5.2 0.381) (size 2.2 0.4) (layers F.Cu F.Paste F.Mask))
  (pad 29 smd rect (at 5.2 1.143) (size 2.2 0.4) (layers F.Cu F.Paste F.Mask))
  (pad 28 smd rect (at 5.2 1.905) (size 2.2 0.4) (layers F.Cu F.Paste F.Mask))
  (pad 27 smd rect (at 5.2 2.667) (size 2.2 0.4) (layers F.Cu F.Paste F.Mask))
  (pad 26 smd rect (at 5.2 3.429) (size 2.2 0.4) (layers F.Cu F.Paste F.Mask))
  (pad 25 smd rect (at 5.2 4.191) (size 2.2 0.4) (layers F.Cu F.Paste F.Mask))
  (pad 24 smd rect (at 5.2 4.953) (size 2.2 0.4) (layers F.Cu F.Paste F.Mask))
  (pad 23 smd rect (at 5.2 5.715) (size 2.2 0.4) (layers F.Cu F.Paste F.Mask))
  (pad 22 smd rect (at 5.2 6.477) (size 2.2 0.4) (layers F.Cu F.Paste F.Mask))
  (pad 21 smd rect (at 5.2 7.239) (size 2.2 0.4) (layers F.Cu F.Paste F.Mask))
  (pad 20 smd rect (at -5.2 7.239) (size 2.2 0.4) (layers F.Cu F.Paste F.Mask))
  (pad 19 smd rect (at -5.2 6.477) (size 2.2 0.4) (layers F.Cu F.Paste F.Mask))
  (pad 18 smd rect (at -5.2 5.715) (size 2.2 0.4) (layers F.Cu F.Paste F.Mask))
  (pad 17 smd rect (at -5.2 4.953) (size 2.2 0.4) (layers F.Cu F.Paste F.Mask))
  (pad 16 smd rect (at -5.2 4.191) (size 2.2 0.4) (layers F.Cu F.Paste F.Mask))
  (pad 15 smd rect (at -5.2 3.429) (size 2.2 0.4) (layers F.Cu F.Paste F.Mask))
  (pad 14 smd rect (at -5.2 2.667) (size 2.2 0.4) (layers F.Cu F.Paste F.Mask))
  (pad 13 smd rect (at -5.2 1.905) (size 2.2 0.4) (layers F.Cu F.Paste F.Mask))
  (pad 12 smd rect (at -5.2 1.143) (size 2.2 0.4) (layers F.Cu F.Paste F.Mask))
  (pad 11 smd rect (at -5.2 0.381) (size 2.2 0.4) (layers F.Cu F.Paste F.Mask))
  (pad 10 smd rect (at -5.2 -0.381) (size 2.2 0.4) (layers F.Cu F.Paste F.Mask))
  (pad 9 smd rect (at -5.2 -1.143) (size 2.2 0.4) (layers F.Cu F.Paste F.Mask))
  (pad 8 smd rect (at -5.2 -1.905) (size 2.2 0.4) (layers F.Cu F.Paste F.Mask))
  (pad 7 smd rect (at -5.2 -2.667) (size 2.2 0.4) (layers F.Cu F.Paste F.Mask))
  (pad 6 smd rect (at -5.2 -3.429) (size 2.2 0.4) (layers F.Cu F.Paste F.Mask))
  (pad 5 smd rect (at -5.2 -4.191) (size 2.2 0.4) (layers F.Cu F.Paste F.Mask))
  (pad 4 smd rect (at -5.2 -4.953) (size 2.2 0.4) (layers F.Cu F.Paste F.Mask))
  (pad 3 smd rect (at -5.2 -5.715) (size 2.2 0.4) (layers F.Cu F.Paste F.Mask))
  (pad 2 smd rect (at -5.2 -6.477) (size 2.2 0.4) (layers F.Cu F.Paste F.Mask))
  (pad 1 smd rect (at -5.2 -7.239) (size 2.2 0.4) (layers F.Cu F.Paste F.Mask))
  (model ${KISYS3DMOD}/Package_SO.3dshapes/VSO-40_7.6x15.4mm_P0.762mm.wrl
    (at (xyz 0 0 0))
    (scale (xyz 1 1 1))
    (rotate (xyz 0 0 0))
  )
)
