(module Zetex_SM8 (layer F.Cu) (tedit 607FF950)
  (descr "Zetex,  SMD, 8 pin package (http://datasheet.octopart.com/ZDT6758TA-Zetex-datasheet-68057.pdf), Alternate KiCad Library")
  (tags "Zetex SM8")
  (attr smd)
  (fp_text reference REF** (at 0 -4.2) (layer F.SilkS)
    (effects (font (size 1 1) (thickness 0.15)))
  )
  (fp_text value Zetex_SM8 (at 0 4.2) (layer F.Fab)
    (effects (font (size 1 1) (thickness 0.15)))
  )
  (fp_line (start 5.08 -3.429) (end -2.159 -3.429) (layer F.SilkS) (width 0.12))
  (fp_line (start 5.08 3.429) (end 5.08 -3.429) (layer F.SilkS) (width 0.12))
  (fp_line (start -5.08 3.429) (end 5.08 3.429) (layer F.SilkS) (width 0.12))
  (fp_line (start -2.159 -3.429) (end -4.5085 -3.429) (layer F.SilkS) (width 0.12))
  (fp_line (start -5.08 3.429) (end -5.08 -2.8575) (layer F.SilkS) (width 0.12))
  (fp_line (start -5.1 3.5) (end 5.1 3.5) (layer F.CrtYd) (width 0.05))
  (fp_line (start -5.1 -3.5) (end 5.1 -3.5) (layer F.CrtYd) (width 0.05))
  (fp_line (start 5.1 -3.5) (end 5.1 3.5) (layer F.CrtYd) (width 0.05))
  (fp_line (start -5.1 -3.5) (end -5.1 3.5) (layer F.CrtYd) (width 0.05))
  (fp_line (start -1.75 -2.25) (end -0.75 -3.25) (layer F.Fab) (width 0.1))
  (fp_line (start -1.75 3.25) (end -1.75 -2.25) (layer F.Fab) (width 0.1))
  (fp_line (start 1.75 3.25) (end -1.75 3.25) (layer F.Fab) (width 0.1))
  (fp_line (start 1.75 -3.25) (end 1.75 3.25) (layer F.Fab) (width 0.1))
  (fp_line (start -0.75 -3.25) (end 1.75 -3.25) (layer F.Fab) (width 0.1))
  (fp_circle (center -4.8895 -3.2385) (end -4.826 -3.2385) (layer F.SilkS) (width 0.3))
  (fp_text user %R (at 0 0 90) (layer F.Fab)
    (effects (font (size 1 1) (thickness 0.15)))
  )
  (pad 8 smd rect (at 3.4 -2.28) (size 2.8 0.95) (layers F.Cu F.Paste F.Mask))
  (pad 7 smd rect (at 3.4 -0.76) (size 2.8 0.95) (layers F.Cu F.Paste F.Mask))
  (pad 6 smd rect (at 3.4 0.76) (size 2.8 0.95) (layers F.Cu F.Paste F.Mask))
  (pad 5 smd rect (at 3.4 2.28) (size 2.8 0.95) (layers F.Cu F.Paste F.Mask))
  (pad 4 smd rect (at -3.4 2.28) (size 2.8 0.95) (layers F.Cu F.Paste F.Mask))
  (pad 3 smd rect (at -3.4 0.76) (size 2.8 0.95) (layers F.Cu F.Paste F.Mask))
  (pad 2 smd rect (at -3.4 -0.76) (size 2.8 0.95) (layers F.Cu F.Paste F.Mask))
  (pad 1 smd rect (at -3.4 -2.28) (size 2.8 0.95) (layers F.Cu F.Paste F.Mask))
  (model ${KISYS3DMOD}/Package_SO.3dshapes/Zetex_SM8.wrl
    (at (xyz 0 0 0))
    (scale (xyz 1 1 1))
    (rotate (xyz 0 0 0))
  )
)
