(module R_Array_SIP9 (layer F.Cu) (tedit 5A14249F)
  (descr "9-pin Resistor SIP pack")
  (tags R)
  (fp_text reference REF** (at 11.43 -2.4) (layer F.SilkS)
    (effects (font (size 1 1) (thickness 0.15)))
  )
  (fp_text value R_Array_SIP9 (at 11.43 2.4) (layer F.Fab)
    (effects (font (size 1 1) (thickness 0.15)))
  )
  (fp_text user %R (at 10.16 0) (layer F.Fab)
    (effects (font (size 1 1) (thickness 0.15)))
  )
  (fp_line (start -1.29 -1.25) (end -1.29 1.25) (layer F.Fab) (width 0.1))
  (fp_line (start -1.29 1.25) (end 21.61 1.25) (layer F.Fab) (width 0.1))
  (fp_line (start 21.61 1.25) (end 21.61 -1.25) (layer F.Fab) (width 0.1))
  (fp_line (start 21.61 -1.25) (end -1.29 -1.25) (layer F.Fab) (width 0.1))
  (fp_line (start 1.27 -1.25) (end 1.27 1.25) (layer F.Fab) (width 0.1))
  (fp_line (start -1.44 -1.4) (end -1.44 1.4) (layer F.SilkS) (width 0.12))
  (fp_line (start -1.44 1.4) (end 21.76 1.4) (layer F.SilkS) (width 0.12))
  (fp_line (start 21.76 1.4) (end 21.76 -1.4) (layer F.SilkS) (width 0.12))
  (fp_line (start 21.76 -1.4) (end -1.44 -1.4) (layer F.SilkS) (width 0.12))
  (fp_line (start 1.27 -1.4) (end 1.27 1.4) (layer F.SilkS) (width 0.12))
  (fp_line (start -1.7 -1.65) (end -1.7 1.65) (layer F.CrtYd) (width 0.05))
  (fp_line (start -1.7 1.65) (end 22.05 1.65) (layer F.CrtYd) (width 0.05))
  (fp_line (start 22.05 1.65) (end 22.05 -1.65) (layer F.CrtYd) (width 0.05))
  (fp_line (start 22.05 -1.65) (end -1.7 -1.65) (layer F.CrtYd) (width 0.05))
  (pad 9 thru_hole oval (at 20.32 0) (size 1.6 1.6) (drill 0.8) (layers *.Cu *.Mask))
  (pad 8 thru_hole oval (at 17.78 0) (size 1.6 1.6) (drill 0.8) (layers *.Cu *.Mask))
  (pad 7 thru_hole oval (at 15.24 0) (size 1.6 1.6) (drill 0.8) (layers *.Cu *.Mask))
  (pad 6 thru_hole oval (at 12.7 0) (size 1.6 1.6) (drill 0.8) (layers *.Cu *.Mask))
  (pad 5 thru_hole oval (at 10.16 0) (size 1.6 1.6) (drill 0.8) (layers *.Cu *.Mask))
  (pad 4 thru_hole oval (at 7.62 0) (size 1.6 1.6) (drill 0.8) (layers *.Cu *.Mask))
  (pad 3 thru_hole oval (at 5.08 0) (size 1.6 1.6) (drill 0.8) (layers *.Cu *.Mask))
  (pad 2 thru_hole oval (at 2.54 0) (size 1.6 1.6) (drill 0.8) (layers *.Cu *.Mask))
  (pad 1 thru_hole rect (at 0 0) (size 1.6 1.6) (drill 0.8) (layers *.Cu *.Mask))
  (model ${KISYS3DMOD}/Resistor_THT.3dshapes/R_Array_SIP9.wrl
    (at (xyz 0 0 0))
    (scale (xyz 1 1 1))
    (rotate (xyz 0 0 0))
  )
)
