(module R_Axial_Power_L48.0mm_W12.5mm_P7.62mm_Vertical (layer F.Cu) (tedit 5F5F274A)
  (descr "Resistor, Axial_Power series, Axial, Vertical, pin pitch=7.62mm, 15W, length*width*height=48*12.5*12.5mm^3, http://cdn-reichelt.de/documents/datenblatt/B400/5WAXIAL_9WAXIAL_11WAXIAL_17WAXIAL%23YAG.pdf")
  (tags "Resistor Axial_Power series Axial Vertical pin pitch 7.62mm 15W length 48mm width 12.5mm height 12.5mm")
  (fp_text reference REF** (at 3.81 -7.37) (layer F.SilkS)
    (effects (font (size 1 1) (thickness 0.15)))
  )
  (fp_text value R_Axial_Power_L48.0mm_W12.5mm_P7.62mm_Vertical (at 3.81 7.37) (layer F.Fab)
    (effects (font (size 1 1) (thickness 0.15)))
  )
  (fp_line (start 9.07 -6.5) (end -6.5 -6.5) (layer F.CrtYd) (width 0.05))
  (fp_line (start 9.07 6.5) (end 9.07 -6.5) (layer F.CrtYd) (width 0.05))
  (fp_line (start -6.5 6.5) (end 9.07 6.5) (layer F.CrtYd) (width 0.05))
  (fp_line (start -6.5 -6.5) (end -6.5 6.5) (layer F.CrtYd) (width 0.05))
  (fp_line (start 0 0) (end 7.62 0) (layer F.Fab) (width 0.1))
  (fp_line (start 6.25 -6.25) (end -6.25 -6.25) (layer F.Fab) (width 0.1))
  (fp_line (start 6.25 6.25) (end 6.25 -6.25) (layer F.Fab) (width 0.1))
  (fp_line (start -6.25 6.25) (end 6.25 6.25) (layer F.Fab) (width 0.1))
  (fp_line (start -6.25 -6.25) (end -6.25 6.25) (layer F.Fab) (width 0.1))
  (fp_text user %R (at 0 -1.7) (layer F.Fab)
    (effects (font (size 1 1) (thickness 0.15)))
  )
  (fp_line (start -6.477 -6.477) (end -6.477 6.477) (layer F.SilkS) (width 0.12))
  (fp_line (start -6.477 6.477) (end 6.35 6.477) (layer F.SilkS) (width 0.12))
  (fp_line (start 6.35 6.477) (end 6.35 0.508) (layer F.SilkS) (width 0.12))
  (fp_line (start 6.35 -0.508) (end 6.35 -6.477) (layer F.SilkS) (width 0.12))
  (fp_line (start 6.35 -6.477) (end -6.477 -6.477) (layer F.SilkS) (width 0.12))
  (pad 2 thru_hole oval (at 7.62 0) (size 2.4 2.4) (drill 1.2) (layers *.Cu *.Mask))
  (pad 1 thru_hole circle (at 0 0) (size 2.4 2.4) (drill 1.2) (layers *.Cu *.Mask))
  (model ${KISYS3DMOD}/Resistor_THT.3dshapes/R_Axial_Power_L48.0mm_W12.5mm_P7.62mm_Vertical.wrl
    (at (xyz 0 0 0))
    (scale (xyz 1 1 1))
    (rotate (xyz 0 0 0))
  )
)
