(module R_Axial_DIN0414_L11.9mm_D4.5mm_P7.62mm_Vertical (layer F.Cu) (tedit 5AE5139B)
  (descr "Resistor, Axial_DIN0414 series, Axial, Vertical, pin pitch=7.62mm, 2W, length*diameter=11.9*4.5mm^2, http://www.vishay.com/docs/20128/wkxwrx.pdf")
  (tags "Resistor Axial_DIN0414 series Axial Vertical pin pitch 7.62mm 2W length 11.9mm diameter 4.5mm")
  (fp_text reference REF** (at 3.81 -3.37) (layer F.SilkS)
    (effects (font (size 1 1) (thickness 0.15)))
  )
  (fp_text value R_Axial_DIN0414_L11.9mm_D4.5mm_P7.62mm_Vertical (at 3.81 3.37) (layer F.Fab)
    (effects (font (size 1 1) (thickness 0.15)))
  )
  (fp_text user %R (at 3.81 -3.37) (layer F.Fab)
    (effects (font (size 1 1) (thickness 0.15)))
  )
  (fp_circle (center 0 0) (end 2.25 0) (layer F.Fab) (width 0.1))
  (fp_circle (center 0 0) (end 2.37 0) (layer F.SilkS) (width 0.12))
  (fp_line (start 0 0) (end 7.62 0) (layer F.Fab) (width 0.1))
  (fp_line (start 2.37 0) (end 6.12 0) (layer F.SilkS) (width 0.12))
  (fp_line (start -2.5 -2.5) (end -2.5 2.5) (layer F.CrtYd) (width 0.05))
  (fp_line (start -2.5 2.5) (end 9.07 2.5) (layer F.CrtYd) (width 0.05))
  (fp_line (start 9.07 2.5) (end 9.07 -2.5) (layer F.CrtYd) (width 0.05))
  (fp_line (start 9.07 -2.5) (end -2.5 -2.5) (layer F.CrtYd) (width 0.05))
  (pad 2 thru_hole oval (at 7.62 0) (size 2.4 2.4) (drill 1.2) (layers *.Cu *.Mask))
  (pad 1 thru_hole circle (at 0 0) (size 2.4 2.4) (drill 1.2) (layers *.Cu *.Mask))
  (model ${KISYS3DMOD}/Resistor_THT.3dshapes/R_Axial_DIN0414_L11.9mm_D4.5mm_P7.62mm_Vertical.wrl
    (at (xyz 0 0 0))
    (scale (xyz 1 1 1))
    (rotate (xyz 0 0 0))
  )
)
