(module R_Axial_DIN0309_L9.0mm_D3.2mm_P20.32mm_Horizontal (layer F.Cu) (tedit 60810F4A)
  (descr "Resistor, Axial_DIN0309 series, Axial, Horizontal, pin pitch=20.32mm, 0.5W = 1/2W, length*diameter=9*3.2mm^2, http://cdn-reichelt.de/documents/datenblatt/B400/1_4W%23YAG.pdf, Alternate KiCad Library")
  (tags "Resistor Axial_DIN0309 series Axial Horizontal pin pitch 20.32mm 0.5W = 1/2W length 9mm diameter 3.2mm")
  (fp_text reference REF** (at 10.16 -2.72) (layer F.SilkS)
    (effects (font (size 1 1) (thickness 0.15)))
  )
  (fp_text value R_Axial_DIN0309_L9.0mm_D3.2mm_P20.32mm_Horizontal (at 10.16 2.72) (layer F.Fab)
    (effects (font (size 1 1) (thickness 0.15)))
  )
  (fp_line (start 21.37 -1.85) (end -1.05 -1.85) (layer F.CrtYd) (width 0.05))
  (fp_line (start 21.37 1.85) (end 21.37 -1.85) (layer F.CrtYd) (width 0.05))
  (fp_line (start -1.05 1.85) (end 21.37 1.85) (layer F.CrtYd) (width 0.05))
  (fp_line (start -1.05 -1.85) (end -1.05 1.85) (layer F.CrtYd) (width 0.05))
  (fp_line (start 20.32 0) (end 14.66 0) (layer F.Fab) (width 0.1))
  (fp_line (start 0 0) (end 5.66 0) (layer F.Fab) (width 0.1))
  (fp_line (start 14.66 -1.6) (end 5.66 -1.6) (layer F.Fab) (width 0.1))
  (fp_line (start 14.66 1.6) (end 14.66 -1.6) (layer F.Fab) (width 0.1))
  (fp_line (start 5.66 1.6) (end 14.66 1.6) (layer F.Fab) (width 0.1))
  (fp_line (start 5.66 -1.6) (end 5.66 1.6) (layer F.Fab) (width 0.1))
  (fp_line (start 14.732 0) (end 19.304 0) (layer F.SilkS) (width 0.12))
  (fp_line (start 14.732 1.143) (end 14.732 -1.143) (layer F.SilkS) (width 0.12))
  (fp_line (start 5.588 0) (end 1.016 0) (layer F.SilkS) (width 0.12))
  (fp_line (start 5.588 -1.143) (end 5.969 -1.651) (layer F.SilkS) (width 0.12))
  (fp_line (start 12.319 -1.524) (end 10.033 -1.524) (layer F.SilkS) (width 0.12))
  (fp_line (start 7.874 -1.651) (end 8.001 -1.524) (layer F.SilkS) (width 0.12))
  (fp_line (start 8.001 -1.524) (end 10.287 -1.524) (layer F.SilkS) (width 0.12))
  (fp_line (start 5.588 1.143) (end 5.588 -1.143) (layer F.SilkS) (width 0.12))
  (fp_line (start 14.732 -1.143) (end 14.351 -1.651) (layer F.SilkS) (width 0.12))
  (fp_line (start 14.351 -1.651) (end 12.446 -1.651) (layer F.SilkS) (width 0.12))
  (fp_line (start 5.588 1.143) (end 5.969 1.651) (layer F.SilkS) (width 0.12))
  (fp_line (start 5.969 -1.651) (end 7.874 -1.651) (layer F.SilkS) (width 0.12))
  (fp_line (start 12.446 -1.651) (end 12.319 -1.524) (layer F.SilkS) (width 0.12))
  (fp_line (start 5.969 1.651) (end 7.874 1.651) (layer F.SilkS) (width 0.12))
  (fp_line (start 12.319 1.524) (end 10.033 1.524) (layer F.SilkS) (width 0.12))
  (fp_line (start 12.446 1.651) (end 12.319 1.524) (layer F.SilkS) (width 0.12))
  (fp_line (start 14.351 1.651) (end 12.446 1.651) (layer F.SilkS) (width 0.12))
  (fp_line (start 14.732 1.143) (end 14.351 1.651) (layer F.SilkS) (width 0.12))
  (fp_line (start 7.874 1.651) (end 8.001 1.524) (layer F.SilkS) (width 0.12))
  (fp_line (start 8.001 1.524) (end 10.287 1.524) (layer F.SilkS) (width 0.12))
  (fp_text user %R (at 10.16 0) (layer F.Fab)
    (effects (font (size 1 1) (thickness 0.15)))
  )
  (pad 2 thru_hole oval (at 20.32 0) (size 1.6 1.6) (drill 0.8) (layers *.Cu *.Mask))
  (pad 1 thru_hole circle (at 0 0) (size 1.6 1.6) (drill 0.8) (layers *.Cu *.Mask))
  (model ${KISYS3DMOD}/Resistor_THT.3dshapes/R_Axial_DIN0309_L9.0mm_D3.2mm_P20.32mm_Horizontal.wrl
    (at (xyz 0 0 0))
    (scale (xyz 1 1 1))
    (rotate (xyz 0 0 0))
  )
)
