(module R_Axial_DIN0516_L15.5mm_D5.0mm_P20.32mm_Horizontal (layer F.Cu) (tedit 60811044)
  (descr "Resistor, Axial_DIN0516 series, Axial, Horizontal, pin pitch=20.32mm, 2W, length*diameter=15.5*5mm^2, http://cdn-reichelt.de/documents/datenblatt/B400/1_4W%23YAG.pdf, Alternate KiCad Library")
  (tags "Resistor Axial_DIN0516 series Axial Horizontal pin pitch 20.32mm 2W length 15.5mm diameter 5mm")
  (fp_text reference REF** (at 10.16 -3.62) (layer F.SilkS)
    (effects (font (size 1 1) (thickness 0.15)))
  )
  (fp_text value R_Axial_DIN0516_L15.5mm_D5.0mm_P20.32mm_Horizontal (at 10.16 3.62) (layer F.Fab)
    (effects (font (size 1 1) (thickness 0.15)))
  )
  (fp_line (start 2.413 0) (end 1.524 0) (layer F.SilkS) (width 0.12))
  (fp_line (start 2.413 2.032) (end 2.413 -2.032) (layer F.SilkS) (width 0.12))
  (fp_line (start 18.796 0) (end 17.907 0) (layer F.SilkS) (width 0.12))
  (fp_line (start 17.907 2.032) (end 17.907 -2.032) (layer F.SilkS) (width 0.12))
  (fp_line (start 17.399 -2.54) (end 14.224 -2.54) (layer F.SilkS) (width 0.12))
  (fp_line (start 6.35 -2.286) (end 10.16 -2.286) (layer F.SilkS) (width 0.12))
  (fp_line (start 2.413 -2.032) (end 2.921 -2.54) (layer F.SilkS) (width 0.12))
  (fp_line (start 13.97 -2.286) (end 10.16 -2.286) (layer F.SilkS) (width 0.12))
  (fp_line (start 17.907 -2.032) (end 17.399 -2.54) (layer F.SilkS) (width 0.12))
  (fp_line (start 6.096 -2.54) (end 6.35 -2.286) (layer F.SilkS) (width 0.12))
  (fp_line (start 2.921 -2.54) (end 6.096 -2.54) (layer F.SilkS) (width 0.12))
  (fp_line (start 14.224 -2.54) (end 13.97 -2.286) (layer F.SilkS) (width 0.12))
  (fp_line (start 17.399 2.54) (end 14.224 2.54) (layer F.SilkS) (width 0.12))
  (fp_line (start 13.97 2.286) (end 10.16 2.286) (layer F.SilkS) (width 0.12))
  (fp_line (start 17.907 2.032) (end 17.399 2.54) (layer F.SilkS) (width 0.12))
  (fp_line (start 14.224 2.54) (end 13.97 2.286) (layer F.SilkS) (width 0.12))
  (fp_line (start 6.35 2.286) (end 10.16 2.286) (layer F.SilkS) (width 0.12))
  (fp_line (start 6.096 2.54) (end 6.35 2.286) (layer F.SilkS) (width 0.12))
  (fp_line (start 2.921 2.54) (end 6.096 2.54) (layer F.SilkS) (width 0.12))
  (fp_line (start 2.413 2.032) (end 2.921 2.54) (layer F.SilkS) (width 0.12))
  (fp_line (start 2.41 -2.5) (end 2.41 2.5) (layer F.Fab) (width 0.1))
  (fp_line (start 2.41 2.5) (end 17.91 2.5) (layer F.Fab) (width 0.1))
  (fp_line (start 17.91 2.5) (end 17.91 -2.5) (layer F.Fab) (width 0.1))
  (fp_line (start 17.91 -2.5) (end 2.41 -2.5) (layer F.Fab) (width 0.1))
  (fp_line (start 0 0) (end 2.41 0) (layer F.Fab) (width 0.1))
  (fp_line (start 20.32 0) (end 17.91 0) (layer F.Fab) (width 0.1))
  (fp_line (start -1.45 -2.75) (end -1.45 2.75) (layer F.CrtYd) (width 0.05))
  (fp_line (start -1.45 2.75) (end 21.77 2.75) (layer F.CrtYd) (width 0.05))
  (fp_line (start 21.77 2.75) (end 21.77 -2.75) (layer F.CrtYd) (width 0.05))
  (fp_line (start 21.77 -2.75) (end -1.45 -2.75) (layer F.CrtYd) (width 0.05))
  (fp_text user %R (at 10.16 0) (layer F.Fab)
    (effects (font (size 1 1) (thickness 0.15)))
  )
  (pad 2 thru_hole oval (at 20.32 0) (size 2.4 2.4) (drill 1.2) (layers *.Cu *.Mask))
  (pad 1 thru_hole circle (at 0 0) (size 2.4 2.4) (drill 1.2) (layers *.Cu *.Mask))
  (model ${KISYS3DMOD}/Resistor_THT.3dshapes/R_Axial_DIN0516_L15.5mm_D5.0mm_P20.32mm_Horizontal.wrl
    (at (xyz 0 0 0))
    (scale (xyz 1 1 1))
    (rotate (xyz 0 0 0))
  )
)
