(module R_Axial_DIN0309_L9.0mm_D3.2mm_P12.70mm_Horizontal (layer F.Cu) (tedit 60810F3F)
  (descr "Resistor, Axial_DIN0309 series, Axial, Horizontal, pin pitch=12.7mm, 0.5W = 1/2W, length*diameter=9*3.2mm^2, http://cdn-reichelt.de/documents/datenblatt/B400/1_4W%23YAG.pdf, Alternate KiCad Library")
  (tags "Resistor Axial_DIN0309 series Axial Horizontal pin pitch 12.7mm 0.5W = 1/2W length 9mm diameter 3.2mm")
  (fp_text reference REF** (at 6.35 -2.72) (layer F.SilkS)
    (effects (font (size 1 1) (thickness 0.15)))
  )
  (fp_text value R_Axial_DIN0309_L9.0mm_D3.2mm_P12.70mm_Horizontal (at 6.35 2.72) (layer F.Fab)
    (effects (font (size 1 1) (thickness 0.15)))
  )
  (fp_line (start 10.922 0) (end 11.557 0) (layer F.SilkS) (width 0.12))
  (fp_line (start 10.922 1.143) (end 10.922 -1.143) (layer F.SilkS) (width 0.12))
  (fp_line (start 1.778 0) (end 1.143 0) (layer F.SilkS) (width 0.12))
  (fp_line (start 1.778 1.143) (end 1.778 -1.143) (layer F.SilkS) (width 0.12))
  (fp_line (start 8.509 -1.524) (end 6.223 -1.524) (layer F.SilkS) (width 0.12))
  (fp_line (start 8.636 -1.651) (end 8.509 -1.524) (layer F.SilkS) (width 0.12))
  (fp_line (start 1.778 -1.143) (end 2.159 -1.651) (layer F.SilkS) (width 0.12))
  (fp_line (start 2.159 -1.651) (end 4.064 -1.651) (layer F.SilkS) (width 0.12))
  (fp_line (start 4.064 -1.651) (end 4.191 -1.524) (layer F.SilkS) (width 0.12))
  (fp_line (start 4.191 -1.524) (end 6.477 -1.524) (layer F.SilkS) (width 0.12))
  (fp_line (start 10.541 -1.651) (end 8.636 -1.651) (layer F.SilkS) (width 0.12))
  (fp_line (start 10.922 -1.143) (end 10.541 -1.651) (layer F.SilkS) (width 0.12))
  (fp_line (start 8.509 1.524) (end 6.223 1.524) (layer F.SilkS) (width 0.12))
  (fp_line (start 8.636 1.651) (end 8.509 1.524) (layer F.SilkS) (width 0.12))
  (fp_line (start 10.541 1.651) (end 8.636 1.651) (layer F.SilkS) (width 0.12))
  (fp_line (start 10.922 1.143) (end 10.541 1.651) (layer F.SilkS) (width 0.12))
  (fp_line (start 4.191 1.524) (end 6.477 1.524) (layer F.SilkS) (width 0.12))
  (fp_line (start 4.064 1.651) (end 4.191 1.524) (layer F.SilkS) (width 0.12))
  (fp_line (start 2.159 1.651) (end 4.064 1.651) (layer F.SilkS) (width 0.12))
  (fp_line (start 1.778 1.143) (end 2.159 1.651) (layer F.SilkS) (width 0.12))
  (fp_line (start 1.85 -1.6) (end 1.85 1.6) (layer F.Fab) (width 0.1))
  (fp_line (start 1.85 1.6) (end 10.85 1.6) (layer F.Fab) (width 0.1))
  (fp_line (start 10.85 1.6) (end 10.85 -1.6) (layer F.Fab) (width 0.1))
  (fp_line (start 10.85 -1.6) (end 1.85 -1.6) (layer F.Fab) (width 0.1))
  (fp_line (start 0 0) (end 1.85 0) (layer F.Fab) (width 0.1))
  (fp_line (start 12.7 0) (end 10.85 0) (layer F.Fab) (width 0.1))
  (fp_line (start -1.05 -1.85) (end -1.05 1.85) (layer F.CrtYd) (width 0.05))
  (fp_line (start -1.05 1.85) (end 13.75 1.85) (layer F.CrtYd) (width 0.05))
  (fp_line (start 13.75 1.85) (end 13.75 -1.85) (layer F.CrtYd) (width 0.05))
  (fp_line (start 13.75 -1.85) (end -1.05 -1.85) (layer F.CrtYd) (width 0.05))
  (fp_text user %R (at 6.35 0) (layer F.Fab)
    (effects (font (size 1 1) (thickness 0.15)))
  )
  (pad 2 thru_hole oval (at 12.7 0) (size 1.6 1.6) (drill 0.8) (layers *.Cu *.Mask))
  (pad 1 thru_hole circle (at 0 0) (size 1.6 1.6) (drill 0.8) (layers *.Cu *.Mask))
  (model ${KISYS3DMOD}/Resistor_THT.3dshapes/R_Axial_DIN0309_L9.0mm_D3.2mm_P12.70mm_Horizontal.wrl
    (at (xyz 0 0 0))
    (scale (xyz 1 1 1))
    (rotate (xyz 0 0 0))
  )
)
