(module R_Axial_Power_L60.0mm_W14.0mm_P71.12mm (layer F.Cu) (tedit 5AE5139B)
  (descr "Resistor, Axial_Power series, Box, pin pitch=71.12mm, 25W, length*width*height=60*14*14mm^3, http://cdn-reichelt.de/documents/datenblatt/B400/5WAXIAL_9WAXIAL_11WAXIAL_17WAXIAL%23YAG.pdf")
  (tags "Resistor Axial_Power series Box pin pitch 71.12mm 25W length 60mm width 14mm height 14mm")
  (fp_text reference REF** (at 35.56 -8.12) (layer F.SilkS)
    (effects (font (size 1 1) (thickness 0.15)))
  )
  (fp_text value R_Axial_Power_L60.0mm_W14.0mm_P71.12mm (at 35.56 8.12) (layer F.Fab)
    (effects (font (size 1 1) (thickness 0.15)))
  )
  (fp_text user %R (at 35.56 0) (layer F.Fab)
    (effects (font (size 1 1) (thickness 0.15)))
  )
  (fp_line (start 5.56 -7) (end 5.56 7) (layer F.Fab) (width 0.1))
  (fp_line (start 5.56 7) (end 65.56 7) (layer F.Fab) (width 0.1))
  (fp_line (start 65.56 7) (end 65.56 -7) (layer F.Fab) (width 0.1))
  (fp_line (start 65.56 -7) (end 5.56 -7) (layer F.Fab) (width 0.1))
  (fp_line (start 0 0) (end 5.56 0) (layer F.Fab) (width 0.1))
  (fp_line (start 71.12 0) (end 65.56 0) (layer F.Fab) (width 0.1))
  (fp_line (start 5.44 -7.12) (end 5.44 7.12) (layer F.SilkS) (width 0.12))
  (fp_line (start 5.44 7.12) (end 65.68 7.12) (layer F.SilkS) (width 0.12))
  (fp_line (start 65.68 7.12) (end 65.68 -7.12) (layer F.SilkS) (width 0.12))
  (fp_line (start 65.68 -7.12) (end 5.44 -7.12) (layer F.SilkS) (width 0.12))
  (fp_line (start 1.44 0) (end 5.44 0) (layer F.SilkS) (width 0.12))
  (fp_line (start 69.68 0) (end 65.68 0) (layer F.SilkS) (width 0.12))
  (fp_line (start -1.45 -7.25) (end -1.45 7.25) (layer F.CrtYd) (width 0.05))
  (fp_line (start -1.45 7.25) (end 72.58 7.25) (layer F.CrtYd) (width 0.05))
  (fp_line (start 72.58 7.25) (end 72.58 -7.25) (layer F.CrtYd) (width 0.05))
  (fp_line (start 72.58 -7.25) (end -1.45 -7.25) (layer F.CrtYd) (width 0.05))
  (pad 2 thru_hole oval (at 71.12 0) (size 2.4 2.4) (drill 1.2) (layers *.Cu *.Mask))
  (pad 1 thru_hole circle (at 0 0) (size 2.4 2.4) (drill 1.2) (layers *.Cu *.Mask))
  (model ${KISYS3DMOD}/Resistor_THT.3dshapes/R_Axial_Power_L60.0mm_W14.0mm_P71.12mm.wrl
    (at (xyz 0 0 0))
    (scale (xyz 1 1 1))
    (rotate (xyz 0 0 0))
  )
)
