(module R_Axial_DIN0204_L3.6mm_D1.6mm_P5.08mm_Vertical (layer F.Cu) (tedit 5AE5139B)
  (descr "Resistor, Axial_DIN0204 series, Axial, Vertical, pin pitch=5.08mm, 0.167W, length*diameter=3.6*1.6mm^2, http://cdn-reichelt.de/documents/datenblatt/B400/1_4W%23YAG.pdf")
  (tags "Resistor Axial_DIN0204 series Axial Vertical pin pitch 5.08mm 0.167W length 3.6mm diameter 1.6mm")
  (fp_text reference REF** (at 2.54 -1.92) (layer F.SilkS)
    (effects (font (size 1 1) (thickness 0.15)))
  )
  (fp_text value R_Axial_DIN0204_L3.6mm_D1.6mm_P5.08mm_Vertical (at 2.54 1.92) (layer F.Fab)
    (effects (font (size 1 1) (thickness 0.15)))
  )
  (fp_text user %R (at 2.54 -1.92) (layer F.Fab)
    (effects (font (size 1 1) (thickness 0.15)))
  )
  (fp_circle (center 0 0) (end 0.8 0) (layer F.Fab) (width 0.1))
  (fp_circle (center 0 0) (end 0.92 0) (layer F.SilkS) (width 0.12))
  (fp_line (start 0 0) (end 5.08 0) (layer F.Fab) (width 0.1))
  (fp_line (start 0.92 0) (end 4.08 0) (layer F.SilkS) (width 0.12))
  (fp_line (start -1.05 -1.05) (end -1.05 1.05) (layer F.CrtYd) (width 0.05))
  (fp_line (start -1.05 1.05) (end 6.03 1.05) (layer F.CrtYd) (width 0.05))
  (fp_line (start 6.03 1.05) (end 6.03 -1.05) (layer F.CrtYd) (width 0.05))
  (fp_line (start 6.03 -1.05) (end -1.05 -1.05) (layer F.CrtYd) (width 0.05))
  (pad 2 thru_hole oval (at 5.08 0) (size 1.4 1.4) (drill 0.7) (layers *.Cu *.Mask))
  (pad 1 thru_hole circle (at 0 0) (size 1.4 1.4) (drill 0.7) (layers *.Cu *.Mask))
  (model ${KISYS3DMOD}/Resistor_THT.3dshapes/R_Axial_DIN0204_L3.6mm_D1.6mm_P5.08mm_Vertical.wrl
    (at (xyz 0 0 0))
    (scale (xyz 1 1 1))
    (rotate (xyz 0 0 0))
  )
)
