(module R_Axial_DIN0516_L15.5mm_D5.0mm_P25.40mm_Horizontal (layer F.Cu) (tedit 60811049)
  (descr "Resistor, Axial_DIN0516 series, Axial, Horizontal, pin pitch=25.4mm, 2W, length*diameter=15.5*5mm^2, http://cdn-reichelt.de/documents/datenblatt/B400/1_4W%23YAG.pdf, Alternate KiCad Library")
  (tags "Resistor Axial_DIN0516 series Axial Horizontal pin pitch 25.4mm 2W length 15.5mm diameter 5mm")
  (fp_text reference REF** (at 12.7 -3.62) (layer F.SilkS)
    (effects (font (size 1 1) (thickness 0.15)))
  )
  (fp_text value R_Axial_DIN0516_L15.5mm_D5.0mm_P25.40mm_Horizontal (at 12.7 3.62) (layer F.Fab)
    (effects (font (size 1 1) (thickness 0.15)))
  )
  (fp_line (start 4.953 2.032) (end 5.461 2.54) (layer F.SilkS) (width 0.12))
  (fp_line (start 8.636 2.54) (end 8.89 2.286) (layer F.SilkS) (width 0.12))
  (fp_line (start 5.461 2.54) (end 8.636 2.54) (layer F.SilkS) (width 0.12))
  (fp_line (start 8.89 2.286) (end 12.7 2.286) (layer F.SilkS) (width 0.12))
  (fp_line (start 23.876 0) (end 20.447 0) (layer F.SilkS) (width 0.12))
  (fp_line (start 8.89 -2.286) (end 12.7 -2.286) (layer F.SilkS) (width 0.12))
  (fp_line (start 4.953 2.032) (end 4.953 -2.032) (layer F.SilkS) (width 0.12))
  (fp_line (start 4.953 0) (end 1.524 0) (layer F.SilkS) (width 0.12))
  (fp_line (start 20.447 2.032) (end 19.939 2.54) (layer F.SilkS) (width 0.12))
  (fp_line (start 8.636 -2.54) (end 8.89 -2.286) (layer F.SilkS) (width 0.12))
  (fp_line (start 20.447 -2.032) (end 19.939 -2.54) (layer F.SilkS) (width 0.12))
  (fp_line (start 16.51 -2.286) (end 12.7 -2.286) (layer F.SilkS) (width 0.12))
  (fp_line (start 20.447 2.032) (end 20.447 -2.032) (layer F.SilkS) (width 0.12))
  (fp_line (start 4.953 -2.032) (end 5.461 -2.54) (layer F.SilkS) (width 0.12))
  (fp_line (start 19.939 -2.54) (end 16.764 -2.54) (layer F.SilkS) (width 0.12))
  (fp_line (start 16.764 2.54) (end 16.51 2.286) (layer F.SilkS) (width 0.12))
  (fp_line (start 5.461 -2.54) (end 8.636 -2.54) (layer F.SilkS) (width 0.12))
  (fp_line (start 16.764 -2.54) (end 16.51 -2.286) (layer F.SilkS) (width 0.12))
  (fp_line (start 19.939 2.54) (end 16.764 2.54) (layer F.SilkS) (width 0.12))
  (fp_line (start 16.51 2.286) (end 12.7 2.286) (layer F.SilkS) (width 0.12))
  (fp_line (start 4.95 -2.5) (end 4.95 2.5) (layer F.Fab) (width 0.1))
  (fp_line (start 4.95 2.5) (end 20.45 2.5) (layer F.Fab) (width 0.1))
  (fp_line (start 20.45 2.5) (end 20.45 -2.5) (layer F.Fab) (width 0.1))
  (fp_line (start 20.45 -2.5) (end 4.95 -2.5) (layer F.Fab) (width 0.1))
  (fp_line (start 0 0) (end 4.95 0) (layer F.Fab) (width 0.1))
  (fp_line (start 25.4 0) (end 20.45 0) (layer F.Fab) (width 0.1))
  (fp_line (start -1.45 -2.75) (end -1.45 2.75) (layer F.CrtYd) (width 0.05))
  (fp_line (start -1.45 2.75) (end 26.85 2.75) (layer F.CrtYd) (width 0.05))
  (fp_line (start 26.85 2.75) (end 26.85 -2.75) (layer F.CrtYd) (width 0.05))
  (fp_line (start 26.85 -2.75) (end -1.45 -2.75) (layer F.CrtYd) (width 0.05))
  (fp_text user %R (at 12.7 0) (layer F.Fab)
    (effects (font (size 1 1) (thickness 0.15)))
  )
  (pad 2 thru_hole oval (at 25.4 0) (size 2.4 2.4) (drill 1.2) (layers *.Cu *.Mask))
  (pad 1 thru_hole circle (at 0 0) (size 2.4 2.4) (drill 1.2) (layers *.Cu *.Mask))
  (model ${KISYS3DMOD}/Resistor_THT.3dshapes/R_Axial_DIN0516_L15.5mm_D5.0mm_P25.40mm_Horizontal.wrl
    (at (xyz 0 0 0))
    (scale (xyz 1 1 1))
    (rotate (xyz 0 0 0))
  )
)
