(module R_Axial_DIN0204_L3.6mm_D1.6mm_P7.62mm_Horizontal (layer F.Cu) (tedit 60810ECD)
  (descr "Resistor, Axial_DIN0204 series, Axial, Horizontal, pin pitch=7.62mm, 0.167W, length*diameter=3.6*1.6mm^2, http://cdn-reichelt.de/documents/datenblatt/B400/1_4W%23YAG.pdf, Alternate KiCad Library")
  (tags "Resistor Axial_DIN0204 series Axial Horizontal pin pitch 7.62mm 0.167W length 3.6mm diameter 1.6mm")
  (fp_text reference REF** (at 3.81 -1.92) (layer F.SilkS)
    (effects (font (size 1 1) (thickness 0.15)))
  )
  (fp_text value R_Axial_DIN0204_L3.6mm_D1.6mm_P7.62mm_Horizontal (at 3.81 1.92) (layer F.Fab)
    (effects (font (size 1 1) (thickness 0.15)))
  )
  (fp_line (start 1.89 0) (end 2.032 0) (layer F.SilkS) (width 0.12))
  (fp_line (start 2.032 0.635) (end 2.032 -0.635) (layer F.SilkS) (width 0.12))
  (fp_line (start 5.715 0) (end 5.588 0) (layer F.SilkS) (width 0.12))
  (fp_line (start 5.588 -0.635) (end 5.588 0.635) (layer F.SilkS) (width 0.12))
  (fp_line (start 2.032 0.635) (end 2.286 0.889) (layer F.SilkS) (width 0.12))
  (fp_line (start 2.286 0.889) (end 2.921 0.889) (layer F.SilkS) (width 0.12))
  (fp_line (start 3.048 0.762) (end 3.81 0.762) (layer F.SilkS) (width 0.12))
  (fp_line (start 2.921 0.889) (end 3.048 0.762) (layer F.SilkS) (width 0.12))
  (fp_line (start 4.572 0.762) (end 3.81 0.762) (layer F.SilkS) (width 0.12))
  (fp_line (start 5.334 0.889) (end 4.699 0.889) (layer F.SilkS) (width 0.12))
  (fp_line (start 4.699 0.889) (end 4.572 0.762) (layer F.SilkS) (width 0.12))
  (fp_line (start 5.588 0.635) (end 5.334 0.889) (layer F.SilkS) (width 0.12))
  (fp_line (start 4.572 -0.762) (end 3.81 -0.762) (layer F.SilkS) (width 0.12))
  (fp_line (start 2.286 -0.889) (end 2.921 -0.889) (layer F.SilkS) (width 0.12))
  (fp_line (start 3.048 -0.762) (end 3.81 -0.762) (layer F.SilkS) (width 0.12))
  (fp_line (start 5.334 -0.889) (end 4.699 -0.889) (layer F.SilkS) (width 0.12))
  (fp_line (start 4.699 -0.889) (end 4.572 -0.762) (layer F.SilkS) (width 0.12))
  (fp_line (start 5.588 -0.635) (end 5.334 -0.889) (layer F.SilkS) (width 0.12))
  (fp_line (start 2.032 -0.635) (end 2.286 -0.889) (layer F.SilkS) (width 0.12))
  (fp_line (start 2.921 -0.889) (end 3.048 -0.762) (layer F.SilkS) (width 0.12))
  (fp_line (start 2.01 -0.8) (end 2.01 0.8) (layer F.Fab) (width 0.1))
  (fp_line (start 2.01 0.8) (end 5.61 0.8) (layer F.Fab) (width 0.1))
  (fp_line (start 5.61 0.8) (end 5.61 -0.8) (layer F.Fab) (width 0.1))
  (fp_line (start 5.61 -0.8) (end 2.01 -0.8) (layer F.Fab) (width 0.1))
  (fp_line (start 0 0) (end 2.01 0) (layer F.Fab) (width 0.1))
  (fp_line (start 7.62 0) (end 5.61 0) (layer F.Fab) (width 0.1))
  (fp_line (start 0.94 0) (end 1.89 0) (layer F.SilkS) (width 0.12))
  (fp_line (start 6.68 0) (end 5.73 0) (layer F.SilkS) (width 0.12))
  (fp_line (start -0.95 -1.05) (end -0.95 1.05) (layer F.CrtYd) (width 0.05))
  (fp_line (start -0.95 1.05) (end 8.57 1.05) (layer F.CrtYd) (width 0.05))
  (fp_line (start 8.57 1.05) (end 8.57 -1.05) (layer F.CrtYd) (width 0.05))
  (fp_line (start 8.57 -1.05) (end -0.95 -1.05) (layer F.CrtYd) (width 0.05))
  (fp_text user %R (at 3.81 0) (layer F.Fab)
    (effects (font (size 0.72 0.72) (thickness 0.108)))
  )
  (pad 2 thru_hole oval (at 7.62 0) (size 1.4 1.4) (drill 0.7) (layers *.Cu *.Mask))
  (pad 1 thru_hole circle (at 0 0) (size 1.4 1.4) (drill 0.7) (layers *.Cu *.Mask))
  (model ${KISYS3DMOD}/Resistor_THT.3dshapes/R_Axial_DIN0204_L3.6mm_D1.6mm_P7.62mm_Horizontal.wrl
    (at (xyz 0 0 0))
    (scale (xyz 1 1 1))
    (rotate (xyz 0 0 0))
  )
)
