(module R_Axial_DIN0309_L9.0mm_D3.2mm_P25.40mm_Horizontal (layer F.Cu) (tedit 60810F4E)
  (descr "Resistor, Axial_DIN0309 series, Axial, Horizontal, pin pitch=25.4mm, 0.5W = 1/2W, length*diameter=9*3.2mm^2, http://cdn-reichelt.de/documents/datenblatt/B400/1_4W%23YAG.pdf, Alternate KiCad Library")
  (tags "Resistor Axial_DIN0309 series Axial Horizontal pin pitch 25.4mm 0.5W = 1/2W length 9mm diameter 3.2mm")
  (fp_text reference REF** (at 12.7 -2.72) (layer F.SilkS)
    (effects (font (size 1 1) (thickness 0.15)))
  )
  (fp_text value R_Axial_DIN0309_L9.0mm_D3.2mm_P25.40mm_Horizontal (at 12.7 2.72) (layer F.Fab)
    (effects (font (size 1 1) (thickness 0.15)))
  )
  (fp_line (start 26.45 -1.85) (end -1.05 -1.85) (layer F.CrtYd) (width 0.05))
  (fp_line (start 26.45 1.85) (end 26.45 -1.85) (layer F.CrtYd) (width 0.05))
  (fp_line (start -1.05 1.85) (end 26.45 1.85) (layer F.CrtYd) (width 0.05))
  (fp_line (start -1.05 -1.85) (end -1.05 1.85) (layer F.CrtYd) (width 0.05))
  (fp_line (start 25.4 0) (end 17.2 0) (layer F.Fab) (width 0.1))
  (fp_line (start 0 0) (end 8.2 0) (layer F.Fab) (width 0.1))
  (fp_line (start 17.2 -1.6) (end 8.2 -1.6) (layer F.Fab) (width 0.1))
  (fp_line (start 17.2 1.6) (end 17.2 -1.6) (layer F.Fab) (width 0.1))
  (fp_line (start 8.2 1.6) (end 17.2 1.6) (layer F.Fab) (width 0.1))
  (fp_line (start 8.2 -1.6) (end 8.2 1.6) (layer F.Fab) (width 0.1))
  (fp_line (start 17.272 0) (end 24.384 0) (layer F.SilkS) (width 0.12))
  (fp_line (start 17.272 1.143) (end 17.272 -1.143) (layer F.SilkS) (width 0.12))
  (fp_line (start 8.128 0) (end 1.016 0) (layer F.SilkS) (width 0.12))
  (fp_line (start 8.128 -1.143) (end 8.509 -1.651) (layer F.SilkS) (width 0.12))
  (fp_line (start 14.859 -1.524) (end 12.573 -1.524) (layer F.SilkS) (width 0.12))
  (fp_line (start 10.414 -1.651) (end 10.541 -1.524) (layer F.SilkS) (width 0.12))
  (fp_line (start 10.541 -1.524) (end 12.827 -1.524) (layer F.SilkS) (width 0.12))
  (fp_line (start 8.128 1.143) (end 8.128 -1.143) (layer F.SilkS) (width 0.12))
  (fp_line (start 17.272 -1.143) (end 16.891 -1.651) (layer F.SilkS) (width 0.12))
  (fp_line (start 16.891 -1.651) (end 14.986 -1.651) (layer F.SilkS) (width 0.12))
  (fp_line (start 8.128 1.143) (end 8.509 1.651) (layer F.SilkS) (width 0.12))
  (fp_line (start 8.509 -1.651) (end 10.414 -1.651) (layer F.SilkS) (width 0.12))
  (fp_line (start 14.986 -1.651) (end 14.859 -1.524) (layer F.SilkS) (width 0.12))
  (fp_line (start 8.509 1.651) (end 10.414 1.651) (layer F.SilkS) (width 0.12))
  (fp_line (start 14.859 1.524) (end 12.573 1.524) (layer F.SilkS) (width 0.12))
  (fp_line (start 14.986 1.651) (end 14.859 1.524) (layer F.SilkS) (width 0.12))
  (fp_line (start 16.891 1.651) (end 14.986 1.651) (layer F.SilkS) (width 0.12))
  (fp_line (start 17.272 1.143) (end 16.891 1.651) (layer F.SilkS) (width 0.12))
  (fp_line (start 10.414 1.651) (end 10.541 1.524) (layer F.SilkS) (width 0.12))
  (fp_line (start 10.541 1.524) (end 12.827 1.524) (layer F.SilkS) (width 0.12))
  (fp_text user %R (at 12.7 0) (layer F.Fab)
    (effects (font (size 1 1) (thickness 0.15)))
  )
  (pad 2 thru_hole oval (at 25.4 0) (size 1.6 1.6) (drill 0.8) (layers *.Cu *.Mask))
  (pad 1 thru_hole circle (at 0 0) (size 1.6 1.6) (drill 0.8) (layers *.Cu *.Mask))
  (model ${KISYS3DMOD}/Resistor_THT.3dshapes/R_Axial_DIN0309_L9.0mm_D3.2mm_P25.40mm_Horizontal.wrl
    (at (xyz 0 0 0))
    (scale (xyz 1 1 1))
    (rotate (xyz 0 0 0))
  )
)
