(module R_Axial_Power_L60.0mm_W14.0mm_P10.16mm_Vertical (layer F.Cu) (tedit 5AE5139B)
  (descr "Resistor, Axial_Power series, Axial, Vertical, pin pitch=10.16mm, 25W, length*width*height=60*14*14mm^3, http://cdn-reichelt.de/documents/datenblatt/B400/5WAXIAL_9WAXIAL_11WAXIAL_17WAXIAL%23YAG.pdf")
  (tags "Resistor Axial_Power series Axial Vertical pin pitch 10.16mm 25W length 60mm width 14mm height 14mm")
  (fp_text reference REF** (at 5.08 -8.12) (layer F.SilkS)
    (effects (font (size 1 1) (thickness 0.15)))
  )
  (fp_text value R_Axial_Power_L60.0mm_W14.0mm_P10.16mm_Vertical (at 5.08 8.12) (layer F.Fab)
    (effects (font (size 1 1) (thickness 0.15)))
  )
  (fp_text user %R (at 0 -1.7) (layer F.Fab)
    (effects (font (size 1 1) (thickness 0.15)))
  )
  (fp_line (start -7 -7) (end -7 7) (layer F.Fab) (width 0.1))
  (fp_line (start -7 7) (end 7 7) (layer F.Fab) (width 0.1))
  (fp_line (start 7 7) (end 7 -7) (layer F.Fab) (width 0.1))
  (fp_line (start 7 -7) (end -7 -7) (layer F.Fab) (width 0.1))
  (fp_line (start 0 0) (end 10.16 0) (layer F.Fab) (width 0.1))
  (fp_line (start -7.12 -7.12) (end -7.12 7.12) (layer F.SilkS) (width 0.12))
  (fp_line (start -7.12 7.12) (end 7.12 7.12) (layer F.SilkS) (width 0.12))
  (fp_line (start 7.12 7.12) (end 7.12 -7.12) (layer F.SilkS) (width 0.12))
  (fp_line (start 7.12 -7.12) (end -7.12 -7.12) (layer F.SilkS) (width 0.12))
  (fp_line (start 7.12 0) (end 8.66 0) (layer F.SilkS) (width 0.12))
  (fp_line (start -7.25 -7.25) (end -7.25 7.25) (layer F.CrtYd) (width 0.05))
  (fp_line (start -7.25 7.25) (end 11.61 7.25) (layer F.CrtYd) (width 0.05))
  (fp_line (start 11.61 7.25) (end 11.61 -7.25) (layer F.CrtYd) (width 0.05))
  (fp_line (start 11.61 -7.25) (end -7.25 -7.25) (layer F.CrtYd) (width 0.05))
  (pad 2 thru_hole oval (at 10.16 0) (size 2.4 2.4) (drill 1.2) (layers *.Cu *.Mask))
  (pad 1 thru_hole circle (at 0 0) (size 2.4 2.4) (drill 1.2) (layers *.Cu *.Mask))
  (model ${KISYS3DMOD}/Resistor_THT.3dshapes/R_Axial_Power_L60.0mm_W14.0mm_P10.16mm_Vertical.wrl
    (at (xyz 0 0 0))
    (scale (xyz 1 1 1))
    (rotate (xyz 0 0 0))
  )
)
