(module R_Axial_DIN0918_L18.0mm_D9.0mm_P30.48mm_Horizontal (layer F.Cu) (tedit 6081108D)
  (descr "Resistor, Axial_DIN0918 series, Axial, Horizontal, pin pitch=30.48mm, 4W, length*diameter=18*9mm^2, Alternate KiCad Library")
  (tags "Resistor Axial_DIN0918 series Axial Horizontal pin pitch 30.48mm 4W length 18mm diameter 9mm")
  (fp_text reference REF** (at 15.24 -5.62) (layer F.SilkS)
    (effects (font (size 1 1) (thickness 0.15)))
  )
  (fp_text value R_Axial_DIN0918_L18.0mm_D9.0mm_P30.48mm_Horizontal (at 15.24 5.62) (layer F.Fab)
    (effects (font (size 1 1) (thickness 0.15)))
  )
  (fp_line (start 7.366 -4.699) (end 10.541 -4.699) (layer F.SilkS) (width 0.12))
  (fp_line (start 10.922 -4.318) (end 15.24 -4.318) (layer F.SilkS) (width 0.12))
  (fp_line (start 23.114 4.699) (end 19.939 4.699) (layer F.SilkS) (width 0.12))
  (fp_line (start 19.558 4.318) (end 15.24 4.318) (layer F.SilkS) (width 0.12))
  (fp_line (start 19.939 4.699) (end 19.558 4.318) (layer F.SilkS) (width 0.12))
  (fp_line (start 6.223 3.683) (end 7.366 4.699) (layer F.SilkS) (width 0.12))
  (fp_line (start 24.257 3.683) (end 23.114 4.699) (layer F.SilkS) (width 0.12))
  (fp_line (start 10.541 4.699) (end 10.922 4.318) (layer F.SilkS) (width 0.12))
  (fp_line (start 10.541 -4.699) (end 10.922 -4.318) (layer F.SilkS) (width 0.12))
  (fp_line (start 10.922 4.318) (end 15.24 4.318) (layer F.SilkS) (width 0.12))
  (fp_line (start 7.366 4.699) (end 10.541 4.699) (layer F.SilkS) (width 0.12))
  (fp_line (start 23.114 -4.699) (end 19.939 -4.699) (layer F.SilkS) (width 0.12))
  (fp_line (start 19.558 -4.318) (end 15.24 -4.318) (layer F.SilkS) (width 0.12))
  (fp_line (start 24.257 -3.683) (end 23.114 -4.699) (layer F.SilkS) (width 0.12))
  (fp_line (start 6.223 -3.683) (end 7.366 -4.699) (layer F.SilkS) (width 0.12))
  (fp_line (start 19.939 -4.699) (end 19.558 -4.318) (layer F.SilkS) (width 0.12))
  (fp_line (start 6.223 -3.683) (end 6.223 3.683) (layer F.SilkS) (width 0.12))
  (fp_line (start 24.257 0) (end 28.956 0) (layer F.SilkS) (width 0.12))
  (fp_line (start 24.257 -3.683) (end 24.257 3.683) (layer F.SilkS) (width 0.12))
  (fp_line (start 6.223 0) (end 1.524 0) (layer F.SilkS) (width 0.12))
  (fp_line (start 6.24 -4.5) (end 6.24 4.5) (layer F.Fab) (width 0.1))
  (fp_line (start 6.24 4.5) (end 24.24 4.5) (layer F.Fab) (width 0.1))
  (fp_line (start 24.24 4.5) (end 24.24 -4.5) (layer F.Fab) (width 0.1))
  (fp_line (start 24.24 -4.5) (end 6.24 -4.5) (layer F.Fab) (width 0.1))
  (fp_line (start 0 0) (end 6.24 0) (layer F.Fab) (width 0.1))
  (fp_line (start 30.48 0) (end 24.24 0) (layer F.Fab) (width 0.1))
  (fp_line (start -1.45 -4.75) (end -1.45 4.75) (layer F.CrtYd) (width 0.05))
  (fp_line (start -1.45 4.75) (end 31.94 4.75) (layer F.CrtYd) (width 0.05))
  (fp_line (start 31.94 4.75) (end 31.94 -4.75) (layer F.CrtYd) (width 0.05))
  (fp_line (start 31.94 -4.75) (end -1.45 -4.75) (layer F.CrtYd) (width 0.05))
  (fp_text user %R (at 15.24 0) (layer F.Fab)
    (effects (font (size 1 1) (thickness 0.15)))
  )
  (pad 2 thru_hole oval (at 30.48 0) (size 2.4 2.4) (drill 1.2) (layers *.Cu *.Mask))
  (pad 1 thru_hole circle (at 0 0) (size 2.4 2.4) (drill 1.2) (layers *.Cu *.Mask))
  (model ${KISYS3DMOD}/Resistor_THT.3dshapes/R_Axial_DIN0918_L18.0mm_D9.0mm_P30.48mm_Horizontal.wrl
    (at (xyz 0 0 0))
    (scale (xyz 1 1 1))
    (rotate (xyz 0 0 0))
  )
)
