(module R_Axial_DIN0411_L9.9mm_D3.6mm_P25.40mm_Horizontal (layer F.Cu) (tedit 60811006)
  (descr "Resistor, Axial_DIN0411 series, Axial, Horizontal, pin pitch=25.4mm, 1W, length*diameter=9.9*3.6mm^2, Alternate KiCad Library")
  (tags "Resistor Axial_DIN0411 series Axial Horizontal pin pitch 25.4mm 1W length 9.9mm diameter 3.6mm")
  (fp_text reference REF** (at 12.7 -2.92) (layer F.SilkS)
    (effects (font (size 1 1) (thickness 0.15)))
  )
  (fp_text value R_Axial_DIN0411_L9.9mm_D3.6mm_P25.40mm_Horizontal (at 12.7 2.92) (layer F.Fab)
    (effects (font (size 1 1) (thickness 0.15)))
  )
  (fp_line (start 17.653 0) (end 23.876 0) (layer F.SilkS) (width 0.12))
  (fp_line (start 7.747 0) (end 1.524 0) (layer F.SilkS) (width 0.12))
  (fp_line (start 10.541 1.651) (end 12.7 1.651) (layer F.SilkS) (width 0.12))
  (fp_line (start 7.747 1.397) (end 8.128 1.778) (layer F.SilkS) (width 0.12))
  (fp_line (start 8.128 1.778) (end 8.255 1.905) (layer F.SilkS) (width 0.12))
  (fp_line (start 8.255 1.905) (end 10.287 1.905) (layer F.SilkS) (width 0.12))
  (fp_line (start 10.287 1.905) (end 10.541 1.651) (layer F.SilkS) (width 0.12))
  (fp_line (start 7.747 1.397) (end 7.747 -1.397) (layer F.SilkS) (width 0.12))
  (fp_line (start 17.653 1.397) (end 17.653 -1.397) (layer F.SilkS) (width 0.12))
  (fp_line (start 10.541 -1.651) (end 12.7 -1.651) (layer F.SilkS) (width 0.12))
  (fp_line (start 7.747 -1.397) (end 8.128 -1.778) (layer F.SilkS) (width 0.12))
  (fp_line (start 17.145 -1.905) (end 15.113 -1.905) (layer F.SilkS) (width 0.12))
  (fp_line (start 17.272 -1.778) (end 17.145 -1.905) (layer F.SilkS) (width 0.12))
  (fp_line (start 17.653 -1.397) (end 17.272 -1.778) (layer F.SilkS) (width 0.12))
  (fp_line (start 14.859 -1.651) (end 12.7 -1.651) (layer F.SilkS) (width 0.12))
  (fp_line (start 8.128 -1.778) (end 8.255 -1.905) (layer F.SilkS) (width 0.12))
  (fp_line (start 8.255 -1.905) (end 10.287 -1.905) (layer F.SilkS) (width 0.12))
  (fp_line (start 10.287 -1.905) (end 10.541 -1.651) (layer F.SilkS) (width 0.12))
  (fp_line (start 15.113 -1.905) (end 14.859 -1.651) (layer F.SilkS) (width 0.12))
  (fp_line (start 15.113 1.905) (end 14.859 1.651) (layer F.SilkS) (width 0.12))
  (fp_line (start 17.145 1.905) (end 15.113 1.905) (layer F.SilkS) (width 0.12))
  (fp_line (start 17.272 1.778) (end 17.145 1.905) (layer F.SilkS) (width 0.12))
  (fp_line (start 17.653 1.397) (end 17.272 1.778) (layer F.SilkS) (width 0.12))
  (fp_line (start 14.859 1.651) (end 12.7 1.651) (layer F.SilkS) (width 0.12))
  (fp_line (start 7.75 -1.8) (end 7.75 1.8) (layer F.Fab) (width 0.1))
  (fp_line (start 7.75 1.8) (end 17.65 1.8) (layer F.Fab) (width 0.1))
  (fp_line (start 17.65 1.8) (end 17.65 -1.8) (layer F.Fab) (width 0.1))
  (fp_line (start 17.65 -1.8) (end 7.75 -1.8) (layer F.Fab) (width 0.1))
  (fp_line (start 0 0) (end 7.75 0) (layer F.Fab) (width 0.1))
  (fp_line (start 25.4 0) (end 17.65 0) (layer F.Fab) (width 0.1))
  (fp_line (start -1.45 -2.05) (end -1.45 2.05) (layer F.CrtYd) (width 0.05))
  (fp_line (start -1.45 2.05) (end 26.85 2.05) (layer F.CrtYd) (width 0.05))
  (fp_line (start 26.85 2.05) (end 26.85 -2.05) (layer F.CrtYd) (width 0.05))
  (fp_line (start 26.85 -2.05) (end -1.45 -2.05) (layer F.CrtYd) (width 0.05))
  (fp_text user %R (at 12.7 0) (layer F.Fab)
    (effects (font (size 1 1) (thickness 0.15)))
  )
  (pad 2 thru_hole oval (at 25.4 0) (size 2.4 2.4) (drill 1.2) (layers *.Cu *.Mask))
  (pad 1 thru_hole circle (at 0 0) (size 2.4 2.4) (drill 1.2) (layers *.Cu *.Mask))
  (model ${KISYS3DMOD}/Resistor_THT.3dshapes/R_Axial_DIN0411_L9.9mm_D3.6mm_P25.40mm_Horizontal.wrl
    (at (xyz 0 0 0))
    (scale (xyz 1 1 1))
    (rotate (xyz 0 0 0))
  )
)
