(module R_Axial_Power_L20.0mm_W6.4mm_P7.62mm_Vertical (layer F.Cu) (tedit 5AE5139B)
  (descr "Resistor, Axial_Power series, Axial, Vertical, pin pitch=7.62mm, 4W, length*width*height=20*6.4*6.4mm^3, http://cdn-reichelt.de/documents/datenblatt/B400/5WAXIAL_9WAXIAL_11WAXIAL_17WAXIAL%23YAG.pdf")
  (tags "Resistor Axial_Power series Axial Vertical pin pitch 7.62mm 4W length 20mm width 6.4mm height 6.4mm")
  (fp_text reference REF** (at 3.81 -4.32) (layer F.SilkS)
    (effects (font (size 1 1) (thickness 0.15)))
  )
  (fp_text value R_Axial_Power_L20.0mm_W6.4mm_P7.62mm_Vertical (at 3.81 4.32) (layer F.Fab)
    (effects (font (size 1 1) (thickness 0.15)))
  )
  (fp_text user %R (at 0 -1.7) (layer F.Fab)
    (effects (font (size 1 1) (thickness 0.15)))
  )
  (fp_line (start -3.2 -3.2) (end -3.2 3.2) (layer F.Fab) (width 0.1))
  (fp_line (start -3.2 3.2) (end 3.2 3.2) (layer F.Fab) (width 0.1))
  (fp_line (start 3.2 3.2) (end 3.2 -3.2) (layer F.Fab) (width 0.1))
  (fp_line (start 3.2 -3.2) (end -3.2 -3.2) (layer F.Fab) (width 0.1))
  (fp_line (start 0 0) (end 7.62 0) (layer F.Fab) (width 0.1))
  (fp_line (start -3.32 -3.32) (end -3.32 3.32) (layer F.SilkS) (width 0.12))
  (fp_line (start -3.32 3.32) (end 3.32 3.32) (layer F.SilkS) (width 0.12))
  (fp_line (start 3.32 3.32) (end 3.32 -3.32) (layer F.SilkS) (width 0.12))
  (fp_line (start 3.32 -3.32) (end -3.32 -3.32) (layer F.SilkS) (width 0.12))
  (fp_line (start 3.32 0) (end 6.12 0) (layer F.SilkS) (width 0.12))
  (fp_line (start -3.45 -3.45) (end -3.45 3.45) (layer F.CrtYd) (width 0.05))
  (fp_line (start -3.45 3.45) (end 9.07 3.45) (layer F.CrtYd) (width 0.05))
  (fp_line (start 9.07 3.45) (end 9.07 -3.45) (layer F.CrtYd) (width 0.05))
  (fp_line (start 9.07 -3.45) (end -3.45 -3.45) (layer F.CrtYd) (width 0.05))
  (pad 2 thru_hole oval (at 7.62 0) (size 2.4 2.4) (drill 1.2) (layers *.Cu *.Mask))
  (pad 1 thru_hole circle (at 0 0) (size 2.4 2.4) (drill 1.2) (layers *.Cu *.Mask))
  (model ${KISYS3DMOD}/Resistor_THT.3dshapes/R_Axial_Power_L20.0mm_W6.4mm_P7.62mm_Vertical.wrl
    (at (xyz 0 0 0))
    (scale (xyz 1 1 1))
    (rotate (xyz 0 0 0))
  )
)
