(module R_Axial_Power_L20.0mm_W6.4mm_P22.40mm (layer F.Cu) (tedit 5AE5139B)
  (descr "Resistor, Axial_Power series, Box, pin pitch=22.4mm, 4W, length*width*height=20*6.4*6.4mm^3, http://cdn-reichelt.de/documents/datenblatt/B400/5WAXIAL_9WAXIAL_11WAXIAL_17WAXIAL%23YAG.pdf")
  (tags "Resistor Axial_Power series Box pin pitch 22.4mm 4W length 20mm width 6.4mm height 6.4mm")
  (fp_text reference REF** (at 11.2 -4.32) (layer F.SilkS)
    (effects (font (size 1 1) (thickness 0.15)))
  )
  (fp_text value R_Axial_Power_L20.0mm_W6.4mm_P22.40mm (at 11.2 4.32) (layer F.Fab)
    (effects (font (size 1 1) (thickness 0.15)))
  )
  (fp_text user %R (at 11.2 0) (layer F.Fab)
    (effects (font (size 1 1) (thickness 0.15)))
  )
  (fp_line (start 1.2 -3.2) (end 1.2 3.2) (layer F.Fab) (width 0.1))
  (fp_line (start 1.2 3.2) (end 21.2 3.2) (layer F.Fab) (width 0.1))
  (fp_line (start 21.2 3.2) (end 21.2 -3.2) (layer F.Fab) (width 0.1))
  (fp_line (start 21.2 -3.2) (end 1.2 -3.2) (layer F.Fab) (width 0.1))
  (fp_line (start 0 0) (end 1.2 0) (layer F.Fab) (width 0.1))
  (fp_line (start 22.4 0) (end 21.2 0) (layer F.Fab) (width 0.1))
  (fp_line (start 1.08 -1.44) (end 1.08 -3.32) (layer F.SilkS) (width 0.12))
  (fp_line (start 1.08 -3.32) (end 21.32 -3.32) (layer F.SilkS) (width 0.12))
  (fp_line (start 21.32 -3.32) (end 21.32 -1.44) (layer F.SilkS) (width 0.12))
  (fp_line (start 1.08 1.44) (end 1.08 3.32) (layer F.SilkS) (width 0.12))
  (fp_line (start 1.08 3.32) (end 21.32 3.32) (layer F.SilkS) (width 0.12))
  (fp_line (start 21.32 3.32) (end 21.32 1.44) (layer F.SilkS) (width 0.12))
  (fp_line (start -1.45 -3.45) (end -1.45 3.45) (layer F.CrtYd) (width 0.05))
  (fp_line (start -1.45 3.45) (end 23.85 3.45) (layer F.CrtYd) (width 0.05))
  (fp_line (start 23.85 3.45) (end 23.85 -3.45) (layer F.CrtYd) (width 0.05))
  (fp_line (start 23.85 -3.45) (end -1.45 -3.45) (layer F.CrtYd) (width 0.05))
  (pad 2 thru_hole oval (at 22.4 0) (size 2.4 2.4) (drill 1.2) (layers *.Cu *.Mask))
  (pad 1 thru_hole circle (at 0 0) (size 2.4 2.4) (drill 1.2) (layers *.Cu *.Mask))
  (model ${KISYS3DMOD}/Resistor_THT.3dshapes/R_Axial_Power_L20.0mm_W6.4mm_P22.40mm.wrl
    (at (xyz 0 0 0))
    (scale (xyz 1 1 1))
    (rotate (xyz 0 0 0))
  )
)
