(module R_Axial_Power_L50.0mm_W9.0mm_P60.96mm (layer F.Cu) (tedit 5AE5139B)
  (descr "Resistor, Axial_Power series, Box, pin pitch=60.96mm, 11W, length*width*height=50*9*9mm^3, http://cdn-reichelt.de/documents/datenblatt/B400/5WAXIAL_9WAXIAL_11WAXIAL_17WAXIAL%23YAG.pdf")
  (tags "Resistor Axial_Power series Box pin pitch 60.96mm 11W length 50mm width 9mm height 9mm")
  (fp_text reference REF** (at 30.48 -5.62) (layer F.SilkS)
    (effects (font (size 1 1) (thickness 0.15)))
  )
  (fp_text value R_Axial_Power_L50.0mm_W9.0mm_P60.96mm (at 30.48 5.62) (layer F.Fab)
    (effects (font (size 1 1) (thickness 0.15)))
  )
  (fp_text user %R (at 30.48 0) (layer F.Fab)
    (effects (font (size 1 1) (thickness 0.15)))
  )
  (fp_line (start 5.48 -4.5) (end 5.48 4.5) (layer F.Fab) (width 0.1))
  (fp_line (start 5.48 4.5) (end 55.48 4.5) (layer F.Fab) (width 0.1))
  (fp_line (start 55.48 4.5) (end 55.48 -4.5) (layer F.Fab) (width 0.1))
  (fp_line (start 55.48 -4.5) (end 5.48 -4.5) (layer F.Fab) (width 0.1))
  (fp_line (start 0 0) (end 5.48 0) (layer F.Fab) (width 0.1))
  (fp_line (start 60.96 0) (end 55.48 0) (layer F.Fab) (width 0.1))
  (fp_line (start 5.36 -4.62) (end 5.36 4.62) (layer F.SilkS) (width 0.12))
  (fp_line (start 5.36 4.62) (end 55.6 4.62) (layer F.SilkS) (width 0.12))
  (fp_line (start 55.6 4.62) (end 55.6 -4.62) (layer F.SilkS) (width 0.12))
  (fp_line (start 55.6 -4.62) (end 5.36 -4.62) (layer F.SilkS) (width 0.12))
  (fp_line (start 1.44 0) (end 5.36 0) (layer F.SilkS) (width 0.12))
  (fp_line (start 59.52 0) (end 55.6 0) (layer F.SilkS) (width 0.12))
  (fp_line (start -1.45 -4.75) (end -1.45 4.75) (layer F.CrtYd) (width 0.05))
  (fp_line (start -1.45 4.75) (end 62.41 4.75) (layer F.CrtYd) (width 0.05))
  (fp_line (start 62.41 4.75) (end 62.41 -4.75) (layer F.CrtYd) (width 0.05))
  (fp_line (start 62.41 -4.75) (end -1.45 -4.75) (layer F.CrtYd) (width 0.05))
  (pad 2 thru_hole oval (at 60.96 0) (size 2.4 2.4) (drill 1.2) (layers *.Cu *.Mask))
  (pad 1 thru_hole circle (at 0 0) (size 2.4 2.4) (drill 1.2) (layers *.Cu *.Mask))
  (model ${KISYS3DMOD}/Resistor_THT.3dshapes/R_Axial_Power_L50.0mm_W9.0mm_P60.96mm.wrl
    (at (xyz 0 0 0))
    (scale (xyz 1 1 1))
    (rotate (xyz 0 0 0))
  )
)
