(module R_Bare_Metal_Element_L12.4mm_W4.8mm_P11.40mm (layer F.Cu) (tedit 605C610D)
  (descr "Resistor, Bare_Metal_Element series, Bare Metal Strip/Wire, Horizontal, pin pitch=11.4mm, 1W, length*width=12.4*4.8mm^2, https://www.bourns.com/pdfs/PWR4412-2S.pdf")
  (tags "Resistor Bare_Metal_Element series Bare Metal Strip Wire Horizontal pin pitch 11.4mm 1W length 12.4mm width 4.8mm ")
  (fp_text reference REF** (at 5.7 -3.52) (layer F.SilkS)
    (effects (font (size 1 1) (thickness 0.15)))
  )
  (fp_text value R_Bare_Metal_Element_L12.4mm_W4.8mm_P11.40mm (at 5.7 3.52) (layer F.Fab)
    (effects (font (size 1 1) (thickness 0.15)))
  )
  (fp_line (start 13.15 -2.65) (end -1.75 -2.65) (layer F.CrtYd) (width 0.05))
  (fp_line (start 13.15 2.65) (end 13.15 -2.65) (layer F.CrtYd) (width 0.05))
  (fp_line (start -1.75 2.65) (end 13.15 2.65) (layer F.CrtYd) (width 0.05))
  (fp_line (start -1.75 -2.65) (end -1.75 2.65) (layer F.CrtYd) (width 0.05))
  (fp_line (start 12.02 2.52) (end 12.02 1.74) (layer F.SilkS) (width 0.12))
  (fp_line (start -0.62 2.52) (end 12.02 2.52) (layer F.SilkS) (width 0.12))
  (fp_line (start -0.62 1.74) (end -0.62 2.52) (layer F.SilkS) (width 0.12))
  (fp_line (start 12.02 -2.52) (end 12.02 -1.74) (layer F.SilkS) (width 0.12))
  (fp_line (start -0.62 -2.52) (end 12.02 -2.52) (layer F.SilkS) (width 0.12))
  (fp_line (start -0.62 -1.74) (end -0.62 -2.52) (layer F.SilkS) (width 0.12))
  (fp_line (start 11.9 -2.4) (end -0.5 -2.4) (layer F.Fab) (width 0.1))
  (fp_line (start 11.9 2.4) (end 11.9 -2.4) (layer F.Fab) (width 0.1))
  (fp_line (start -0.5 2.4) (end 11.9 2.4) (layer F.Fab) (width 0.1))
  (fp_line (start -0.5 -2.4) (end -0.5 2.4) (layer F.Fab) (width 0.1))
  (fp_text user %R (at 5.7 0) (layer F.Fab)
    (effects (font (size 1 1) (thickness 0.15)))
  )
  (pad 2 thru_hole oval (at 11.4 0) (size 3 3) (drill 1.5) (layers *.Cu *.Mask))
  (pad 1 thru_hole circle (at 0 0) (size 3 3) (drill 1.5) (layers *.Cu *.Mask))
  (model ${KISYS3DMOD}/Resistor_THT.3dshapes/R_Bare_Metal_Element_L12.4mm_W4.8mm_P11.40mm.wrl
    (at (xyz 0 0 0))
    (scale (xyz 1 1 1))
    (rotate (xyz 0 0 0))
  )
)
