(module R_Box_L26.0mm_W5.0mm_P20.00mm (layer F.Cu) (tedit 5AE5139B)
  (descr "Resistor, Box series, Radial, pin pitch=20.00mm, 10W, length*width=26.0*5.0mm^2, http://www.produktinfo.conrad.com/datenblaetter/425000-449999/443860-da-01-de-METALLBAND_WIDERSTAND_0_1_OHM_5W_5Pr.pdf")
  (tags "Resistor Box series Radial pin pitch 20.00mm 10W length 26.0mm width 5.0mm")
  (fp_text reference REF** (at 10 -3.75) (layer F.SilkS)
    (effects (font (size 1 1) (thickness 0.15)))
  )
  (fp_text value R_Box_L26.0mm_W5.0mm_P20.00mm (at 10 3.75) (layer F.Fab)
    (effects (font (size 1 1) (thickness 0.15)))
  )
  (fp_text user %R (at 10 0) (layer F.Fab)
    (effects (font (size 1 1) (thickness 0.15)))
  )
  (fp_line (start -3 -2.5) (end -3 2.5) (layer F.Fab) (width 0.1))
  (fp_line (start -3 2.5) (end 23 2.5) (layer F.Fab) (width 0.1))
  (fp_line (start 23 2.5) (end 23 -2.5) (layer F.Fab) (width 0.1))
  (fp_line (start 23 -2.5) (end -3 -2.5) (layer F.Fab) (width 0.1))
  (fp_line (start -3.12 -2.62) (end 23.12 -2.62) (layer F.SilkS) (width 0.12))
  (fp_line (start -3.12 2.62) (end 23.12 2.62) (layer F.SilkS) (width 0.12))
  (fp_line (start -3.12 -2.62) (end -3.12 2.62) (layer F.SilkS) (width 0.12))
  (fp_line (start 23.12 -2.62) (end 23.12 2.62) (layer F.SilkS) (width 0.12))
  (fp_line (start -3.25 -2.75) (end -3.25 2.75) (layer F.CrtYd) (width 0.05))
  (fp_line (start -3.25 2.75) (end 23.25 2.75) (layer F.CrtYd) (width 0.05))
  (fp_line (start 23.25 2.75) (end 23.25 -2.75) (layer F.CrtYd) (width 0.05))
  (fp_line (start 23.25 -2.75) (end -3.25 -2.75) (layer F.CrtYd) (width 0.05))
  (pad 2 thru_hole circle (at 20 0) (size 2.8 2.8) (drill 1.4) (layers *.Cu *.Mask))
  (pad 1 thru_hole circle (at 0 0) (size 2.8 2.8) (drill 1.4) (layers *.Cu *.Mask))
  (model ${KISYS3DMOD}/Resistor_THT.3dshapes/R_Box_L26.0mm_W5.0mm_P20.00mm.wrl
    (at (xyz 0 0 0))
    (scale (xyz 1 1 1))
    (rotate (xyz 0 0 0))
  )
)
