(module Infineon_PG-HSOF-8-1 (layer F.Cu) (tedit 607FF981)
  (descr "HSOF-8-1 [TOLL] power MOSFET (http://www.infineon.com/cms/en/product/packages/PG-HSOF/PG-HSOF-8-1/), Alternate KiCad Library")
  (tags "mosfet hsof toll")
  (attr smd)
  (fp_text reference REF** (at 0 -6) (layer F.SilkS)
    (effects (font (size 1 1) (thickness 0.15)))
  )
  (fp_text value Infineon_PG-HSOF-8-1 (at 0 6) (layer F.Fab)
    (effects (font (size 1 1) (thickness 0.15)))
  )
  (fp_line (start 6.9215 -5.334) (end -6.2865 -5.334) (layer F.SilkS) (width 0.12))
  (fp_line (start 6.9215 5.334) (end 6.9215 -5.334) (layer F.SilkS) (width 0.12))
  (fp_line (start -6.9215 5.334) (end 6.9215 5.334) (layer F.SilkS) (width 0.12))
  (fp_line (start -6.9215 5.2705) (end -6.9215 5.334) (layer F.SilkS) (width 0.12))
  (fp_line (start -6.9215 -4.699) (end -6.9215 5.2705) (layer F.SilkS) (width 0.12))
  (fp_line (start -4.1875 -4.95) (end 5.1875 -4.95) (layer F.Fab) (width 0.1))
  (fp_line (start -5.1875 4.95) (end -5.1875 -3.95) (layer F.Fab) (width 0.1))
  (fp_line (start 5.1875 4.95) (end -5.1875 4.95) (layer F.Fab) (width 0.1))
  (fp_line (start 5.1875 -4.95) (end 5.1875 4.95) (layer F.Fab) (width 0.1))
  (fp_line (start 6.9 -5.3) (end -6.9 -5.3) (layer F.CrtYd) (width 0.05))
  (fp_line (start -6.9 5.3) (end 6.9 5.3) (layer F.CrtYd) (width 0.05))
  (fp_line (start -6.9 5.3) (end -6.9 -5.3) (layer F.CrtYd) (width 0.05))
  (fp_line (start 6.9 -5.3) (end 6.9 5.3) (layer F.CrtYd) (width 0.05))
  (fp_line (start -4.1875 -4.95) (end -5.1875 -3.95) (layer F.Fab) (width 0.1))
  (fp_circle (center -6.6675 -5.08) (end -6.604 -5.08) (layer F.SilkS) (width 0.3))
  (fp_text user %R (at 0 0) (layer F.Fab)
    (effects (font (size 1 1) (thickness 0.15)))
  )
  (pad 3 smd custom (at 3.8 0) (size 2.9 8.7) (layers F.Cu F.Mask)
    (zone_connect 2)
    (options (clearance outline) (anchor rect))
    (primitives
      (gr_poly (pts
         (xy 1.45 -5.05) (xy 2.85 -5.05) (xy 2.85 5.05) (xy 1.45 5.05)) (width 0))
      (gr_poly (pts
         (xy -1.45 -4.85) (xy -5.15 -4.85) (xy -5.15 4.85) (xy -1.45 4.85)) (width 0))
    ))
  (pad 1 smd rect (at -5.25 -4.2) (size 2.8 0.8) (layers F.Cu F.Mask))
  (pad 2 smd custom (at -4.25 0.6) (size 0.8 8) (layers F.Cu F.Mask)
    (zone_connect 2)
    (options (clearance outline) (anchor rect))
    (primitives
      (gr_poly (pts
         (xy -0.4 -4) (xy -2.4 -4) (xy -2.4 -3.2) (xy -0.4 -3.2)) (width 0))
      (gr_poly (pts
         (xy -0.4 -2.8) (xy -2.4 -2.8) (xy -2.4 -2) (xy -0.4 -2)) (width 0))
      (gr_poly (pts
         (xy -0.4 -1.6) (xy -2.4 -1.6) (xy -2.4 -0.8) (xy -0.4 -0.8)) (width 0))
      (gr_poly (pts
         (xy -0.4 -0.4) (xy -2.4 -0.4) (xy -2.4 0.4) (xy -0.4 0.4)) (width 0))
      (gr_poly (pts
         (xy -0.4 0.8) (xy -2.4 0.8) (xy -2.4 1.6) (xy -0.4 1.6)) (width 0))
      (gr_poly (pts
         (xy -0.4 2) (xy -2.4 2) (xy -2.4 2.8) (xy -0.4 2.8)) (width 0))
      (gr_poly (pts
         (xy -0.4 3.2) (xy -2.4 3.2) (xy -2.4 4) (xy -0.4 4)) (width 0))
    ))
  (pad "" smd rect (at -5.25 -4.2) (size 2.6 0.7) (layers F.Paste))
  (pad "" smd rect (at -5.25 -3) (size 2.6 0.7) (layers F.Paste))
  (pad "" smd rect (at -5.25 -1.8) (size 2.6 0.7) (layers F.Paste))
  (pad "" smd rect (at -5.25 -0.6) (size 2.6 0.7) (layers F.Paste))
  (pad "" smd rect (at -5.25 0.6) (size 2.6 0.7) (layers F.Paste))
  (pad "" smd rect (at -5.25 1.8) (size 2.6 0.7) (layers F.Paste))
  (pad "" smd rect (at -5.25 3) (size 2.6 0.7) (layers F.Paste))
  (pad "" smd rect (at -5.25 4.2) (size 2.6 0.7) (layers F.Paste))
  (model ${KISYS3DMOD}/Package_TO_SOT_SMD.3dshapes/Infineon_PG-HSOF-8-1.wrl
    (at (xyz 0 0 0))
    (scale (xyz 1 1 1))
    (rotate (xyz 0 0 0))
  )
)
