(module LFPAK56 (layer F.Cu) (tedit 607FF9AA)
  (descr "LFPAK56 https://assets.nexperia.com/documents/outline-drawing/SOT669.pdf, Alternate KiCad Library")
  (tags "LFPAK56 SOT-669 Power-SO8")
  (solder_mask_margin 0.075)
  (solder_paste_margin -0.05)
  (attr smd)
  (fp_text reference REF** (at -0.245 -3.48) (layer F.SilkS)
    (effects (font (size 1 1) (thickness 0.15)))
  )
  (fp_text value LFPAK56 (at -0.245 3.52) (layer F.Fab)
    (effects (font (size 1 1) (thickness 0.15)))
  )
  (fp_line (start 3.683 -2.7305) (end -3.2385 -2.7305) (layer F.SilkS) (width 0.12))
  (fp_line (start 3.683 2.7305) (end 3.683 -2.7305) (layer F.SilkS) (width 0.12))
  (fp_line (start -3.683 2.7305) (end 3.683 2.7305) (layer F.SilkS) (width 0.12))
  (fp_line (start -3.683 -2.286) (end -3.683 2.7305) (layer F.SilkS) (width 0.12))
  (fp_line (start -3.67 2.75) (end -3.67 -2.75) (layer F.CrtYd) (width 0.05))
  (fp_line (start -3.67 2.75) (end 3.67 2.75) (layer F.CrtYd) (width 0.05))
  (fp_line (start 3.67 -2.75) (end -3.67 -2.75) (layer F.CrtYd) (width 0.05))
  (fp_line (start 3.67 -2.75) (end 3.67 2.75) (layer F.CrtYd) (width 0.05))
  (fp_line (start 1.885 2.5) (end 1.885 -2.5) (layer F.Fab) (width 0.1))
  (fp_line (start -2.215 2.5) (end 1.885 2.5) (layer F.Fab) (width 0.1))
  (fp_line (start -2.215 -2.5) (end -2.215 2.5) (layer F.Fab) (width 0.1))
  (fp_line (start 1.885 -2.5) (end -2.215 -2.5) (layer F.Fab) (width 0.1))
  (fp_line (start 3.185 -2.2) (end 1.885 -2.2) (layer F.Fab) (width 0.1))
  (fp_line (start 3.185 2.2) (end 1.885 2.2) (layer F.Fab) (width 0.1))
  (fp_line (start 3.185 -2.2) (end 3.185 2.2) (layer F.Fab) (width 0.1))
  (fp_line (start -3.215 -1.65) (end -2.215 -1.65) (layer F.Fab) (width 0.1))
  (fp_line (start -3.215 -2.15) (end -2.215 -2.15) (layer F.Fab) (width 0.1))
  (fp_line (start -3.215 -2.15) (end -3.215 -1.65) (layer F.Fab) (width 0.1))
  (fp_line (start -3.215 -0.4) (end -2.215 -0.4) (layer F.Fab) (width 0.1))
  (fp_line (start -3.215 -0.85) (end -3.215 -0.4) (layer F.Fab) (width 0.1))
  (fp_line (start -2.215 -0.85) (end -3.215 -0.85) (layer F.Fab) (width 0.1))
  (fp_line (start -3.215 0.85) (end -2.215 0.85) (layer F.Fab) (width 0.1))
  (fp_line (start -3.215 0.4) (end -3.215 0.85) (layer F.Fab) (width 0.1))
  (fp_line (start -2.215 0.4) (end -3.215 0.4) (layer F.Fab) (width 0.1))
  (fp_line (start -3.215 2.15) (end -2.215 2.15) (layer F.Fab) (width 0.1))
  (fp_line (start -3.215 1.7) (end -3.215 2.15) (layer F.Fab) (width 0.1))
  (fp_line (start -2.215 1.7) (end -3.215 1.7) (layer F.Fab) (width 0.1))
  (fp_circle (center -3.556 -2.6035) (end -3.4925 -2.6035) (layer F.SilkS) (width 0.2))
  (fp_text user %R (at 0 0 90) (layer F.Fab)
    (effects (font (size 1 1) (thickness 0.15)))
  )
  (pad 5 smd custom (at 0.435 0) (size 3.3 4.2) (layers F.Cu F.Mask)
    (solder_mask_margin 0.07) (zone_connect 2)
    (options (clearance outline) (anchor rect))
    (primitives
      (gr_poly (pts
         (xy 1.425 -2.35) (xy 2.975 -2.35) (xy 2.975 2.35) (xy 1.425 2.35)) (width 0))
    ))
  (pad "" smd rect (at 0.185 0) (size 0.6 0.9) (layers F.Paste))
  (pad "" smd rect (at 2.885 0.6 270) (size 0.6 0.9) (layers F.Paste))
  (pad 4 smd rect (at -2.835 1.91 270) (size 0.7 1.15) (layers F.Cu F.Paste F.Mask)
    (solder_mask_margin 0.07) (solder_paste_margin -0.05))
  (pad 3 smd rect (at -2.835 0.64 270) (size 0.7 1.15) (layers F.Cu F.Paste F.Mask)
    (solder_mask_margin 0.07) (solder_paste_margin -0.05))
  (pad 1 smd rect (at -2.835 -1.91 270) (size 0.7 1.15) (layers F.Cu F.Paste F.Mask)
    (solder_mask_margin 0.07) (solder_paste_margin -0.05))
  (pad 2 smd rect (at -2.835 -0.64 270) (size 0.7 1.15) (layers F.Cu F.Paste F.Mask)
    (solder_mask_margin 0.07) (solder_paste_margin -0.05))
  (pad "" smd rect (at 2.885 -0.6 270) (size 0.6 0.9) (layers F.Paste))
  (pad "" smd rect (at 2.885 1.88 270) (size 0.6 0.9) (layers F.Paste))
  (pad "" smd rect (at 2.885 -1.88 270) (size 0.6 0.9) (layers F.Paste))
  (pad "" smd rect (at -0.665 0) (size 0.6 0.9) (layers F.Paste))
  (pad "" smd rect (at 1.035 0) (size 0.6 0.9) (layers F.Paste))
  (pad "" smd rect (at 1.035 1.15) (size 0.6 0.9) (layers F.Paste))
  (pad "" smd rect (at -0.665 1.15) (size 0.6 0.9) (layers F.Paste))
  (pad "" smd rect (at 0.185 1.15) (size 0.6 0.9) (layers F.Paste))
  (pad "" smd rect (at 1.035 -1.15) (size 0.6 0.9) (layers F.Paste))
  (pad "" smd rect (at -0.665 -1.15) (size 0.6 0.9) (layers F.Paste))
  (pad "" smd rect (at 0.185 -1.15) (size 0.6 0.9) (layers F.Paste))
  (model ${KISYS3DMOD}/Package_TO_SOT_SMD.3dshapes/LFPAK56.wrl
    (at (xyz 0 0 0))
    (scale (xyz 1 1 1))
    (rotate (xyz 0 0 0))
  )
)
