(module LFPAK33 (layer F.Cu) (tedit 607FF9A5)
  (descr "LFPAK33 SOT-1210 https://assets.nexperia.com/documents/outline-drawing/SOT1210.pdf, Alternate KiCad Library")
  (tags "LFPAK33 SOT-1210")
  (solder_mask_margin 0.05)
  (attr smd)
  (fp_text reference REF** (at 0 -2.55) (layer F.SilkS)
    (effects (font (size 1 1) (thickness 0.15)))
  )
  (fp_text value LFPAK33 (at 0 2.64) (layer F.Fab)
    (effects (font (size 1 1) (thickness 0.15)))
  )
  (fp_line (start 2.2225 -1.8415) (end -1.651 -1.8415) (layer F.SilkS) (width 0.12))
  (fp_line (start 2.2225 1.8415) (end 2.2225 -1.8415) (layer F.SilkS) (width 0.12))
  (fp_line (start -2.2225 1.8415) (end 2.2225 1.8415) (layer F.SilkS) (width 0.12))
  (fp_line (start -2.2225 -1.27) (end -2.2225 1.8415) (layer F.SilkS) (width 0.12))
  (fp_line (start -0.6 -1.65) (end -1.1 -1.15) (layer F.Fab) (width 0.1))
  (fp_line (start -2.2 1.9) (end -2.2 -1.9) (layer F.CrtYd) (width 0.05))
  (fp_line (start -2.2 1.9) (end 2.2 1.9) (layer F.CrtYd) (width 0.05))
  (fp_line (start -2.2 -1.9) (end 2.2 -1.9) (layer F.CrtYd) (width 0.05))
  (fp_line (start 2.2 -1.9) (end 2.2 1.9) (layer F.CrtYd) (width 0.05))
  (fp_line (start 1.5 1.65) (end 1.5 -1.65) (layer F.Fab) (width 0.1))
  (fp_line (start -1.1 1.65) (end 1.5 1.65) (layer F.Fab) (width 0.1))
  (fp_line (start -1.1 -1.15) (end -1.1 1.65) (layer F.Fab) (width 0.1))
  (fp_line (start -0.6 -1.65) (end 1.5 -1.65) (layer F.Fab) (width 0.1))
  (fp_circle (center -1.9685 -1.5875) (end -1.905 -1.5875) (layer F.SilkS) (width 0.3))
  (fp_text user %R (at 0 0 90) (layer F.Fab)
    (effects (font (size 0.75 0.75) (thickness 0.13)))
  )
  (pad 5 smd custom (at 0.405 0) (size 1.85 2.25) (layers F.Cu F.Mask)
    (zone_connect 2)
    (options (clearance outline) (anchor rect))
    (primitives
      (gr_poly (pts
         (xy 0.925 -1.175) (xy 1.545 -1.175) (xy 1.545 -0.775) (xy 0.925 -0.775)) (width 0))
      (gr_poly (pts
         (xy 0.925 -0.525) (xy 1.545 -0.525) (xy 1.545 -0.125) (xy 0.925 -0.125)) (width 0))
      (gr_poly (pts
         (xy 0.925 0.125) (xy 1.545 0.125) (xy 1.545 0.525) (xy 0.925 0.525)) (width 0))
      (gr_poly (pts
         (xy 0.925 0.775) (xy 1.545 0.775) (xy 1.545 1.175) (xy 0.925 1.175)) (width 0))
    ))
  (pad "" smd rect (at 1.575 0.975) (size 0.75 0.3) (layers F.Paste))
  (pad "" smd rect (at 1.575 0.325) (size 0.75 0.3) (layers F.Paste))
  (pad "" smd rect (at 1.575 -0.325) (size 0.75 0.3) (layers F.Paste))
  (pad "" smd rect (at 1.575 -0.975) (size 0.75 0.3) (layers F.Paste))
  (pad "" smd rect (at -1.535 -0.975) (size 0.83 0.3) (layers F.Paste))
  (pad "" smd rect (at -1.535 -0.325) (size 0.83 0.3) (layers F.Paste))
  (pad "" smd rect (at -1.535 0.325) (size 0.83 0.3) (layers F.Paste))
  (pad 4 smd rect (at -1.535 0.975) (size 0.83 0.4) (layers F.Cu F.Mask))
  (pad "" smd rect (at -1.535 0.975) (size 0.83 0.3) (layers F.Paste))
  (pad 3 smd rect (at -1.535 0.325) (size 0.83 0.4) (layers F.Cu F.Mask))
  (pad 1 smd rect (at -1.535 -0.975) (size 0.83 0.4) (layers F.Cu F.Mask))
  (pad 2 smd rect (at -1.535 -0.325) (size 0.83 0.4) (layers F.Cu F.Mask))
  (pad "" smd rect (at 0.645 0.626) (size 0.51 0.635) (layers F.Paste))
  (pad "" smd rect (at -0.215 0.626) (size 0.51 0.635) (layers F.Paste))
  (pad "" smd rect (at 0.645 -0.626) (size 0.51 0.635) (layers F.Paste))
  (pad "" smd rect (at -0.215 -0.626) (size 0.51 0.635) (layers F.Paste))
  (model ${KISYS3DMOD}/Package_TO_SOT_SMD.3dshapes/LFPAK33.wrl
    (at (xyz 0 0 0))
    (scale (xyz 1 1 1))
    (rotate (xyz 0 0 0))
  )
)
