(module OnSemi_ECH8 (layer F.Cu) (tedit 607FF9B0)
  (descr "On Semiconductor ECH8, https://www.onsemi.com/pub/Collateral/318BF.PDF, Alternate KiCad Library")
  (tags "ECH8 SOT28-FL SOT-28-FL")
  (attr smd)
  (fp_text reference REF** (at 0 -2.5) (layer F.SilkS)
    (effects (font (size 1 1) (thickness 0.15)))
  )
  (fp_text value OnSemi_ECH8 (at 0 2.25 180) (layer F.Fab)
    (effects (font (size 0.5 0.5) (thickness 0.075)))
  )
  (fp_line (start 1.9685 -1.651) (end -1.397 -1.651) (layer F.SilkS) (width 0.12))
  (fp_line (start 1.9685 1.651) (end 1.9685 -1.651) (layer F.SilkS) (width 0.12))
  (fp_line (start -1.9685 1.651) (end 1.9685 1.651) (layer F.SilkS) (width 0.12))
  (fp_line (start -1.9685 -1.143) (end -1.9685 1.651) (layer F.SilkS) (width 0.12))
  (fp_line (start -0.55 -1.45) (end 1.15 -1.45) (layer F.Fab) (width 0.1))
  (fp_line (start 1.15 -1.45) (end 1.15 1.45) (layer F.Fab) (width 0.1))
  (fp_line (start 1.15 1.45) (end -1.15 1.45) (layer F.Fab) (width 0.1))
  (fp_line (start -1.15 1.45) (end -1.15 -0.85) (layer F.Fab) (width 0.1))
  (fp_line (start -1.15 -0.85) (end -0.55 -1.45) (layer F.Fab) (width 0.1))
  (fp_line (start -1.95 -1.7) (end -1.95 1.7) (layer F.CrtYd) (width 0.05))
  (fp_line (start -1.95 1.7) (end 1.95 1.7) (layer F.CrtYd) (width 0.05))
  (fp_line (start 1.95 1.7) (end 1.95 -1.7) (layer F.CrtYd) (width 0.05))
  (fp_line (start 1.95 -1.7) (end -1.95 -1.7) (layer F.CrtYd) (width 0.05))
  (fp_circle (center -1.778 -1.524) (end -1.7145 -1.524) (layer F.SilkS) (width 0.3))
  (fp_text user %R (at 0 0 270) (layer F.Fab)
    (effects (font (size 0.5 0.5) (thickness 0.075)))
  )
  (pad 1 smd roundrect (at -1.4 -0.975 270) (size 0.4 0.6) (layers F.Cu F.Paste F.Mask) (roundrect_rratio 0.25))
  (pad 2 smd roundrect (at -1.4 -0.325 270) (size 0.4 0.6) (layers F.Cu F.Paste F.Mask) (roundrect_rratio 0.25))
  (pad 3 smd roundrect (at -1.4 0.325 270) (size 0.4 0.6) (layers F.Cu F.Paste F.Mask) (roundrect_rratio 0.25))
  (pad 4 smd roundrect (at -1.4 0.975 270) (size 0.4 0.6) (layers F.Cu F.Paste F.Mask) (roundrect_rratio 0.25))
  (pad 5 smd roundrect (at 1.4 0.975 270) (size 0.4 0.6) (layers F.Cu F.Paste F.Mask) (roundrect_rratio 0.25))
  (pad 6 smd roundrect (at 1.4 0.325 270) (size 0.4 0.6) (layers F.Cu F.Paste F.Mask) (roundrect_rratio 0.25))
  (pad 7 smd roundrect (at 1.4 -0.325 270) (size 0.4 0.6) (layers F.Cu F.Paste F.Mask) (roundrect_rratio 0.25))
  (pad 8 smd roundrect (at 1.4 -0.975 270) (size 0.4 0.6) (layers F.Cu F.Paste F.Mask) (roundrect_rratio 0.25))
  (model ${KISYS3DMOD}/Package_TO_SOT_SMD.3dshapes/OnSemi_ECH8.wrl
    (at (xyz 0 0 0))
    (scale (xyz 1 1 1))
    (rotate (xyz 0 0 0))
  )
)
