(module PQFN_8x8 (layer F.Cu) (tedit 607FF9B8)
  (descr "Low Profile 8x8mm PQFN, Dual Cool 88, https://www.onsemi.com/pub/Collateral/FDMT80080DC-D.pdf, Alternate KiCad Library")
  (tags "pqfn vdfn mosfet")
  (attr smd)
  (fp_text reference REF** (at 0 -4.9) (layer F.SilkS)
    (effects (font (size 1 1) (thickness 0.15)))
  )
  (fp_text value PQFN_8x8 (at 0 5) (layer F.Fab)
    (effects (font (size 1 1) (thickness 0.15)))
  )
  (fp_line (start 4.7625 -4.2545) (end -4.191 -4.2545) (layer F.SilkS) (width 0.12))
  (fp_line (start 4.7625 4.2545) (end 4.7625 -4.2545) (layer F.SilkS) (width 0.12))
  (fp_line (start -4.7625 4.2545) (end 4.7625 4.2545) (layer F.SilkS) (width 0.12))
  (fp_line (start -4.7625 -3.683) (end -4.7625 4.2545) (layer F.SilkS) (width 0.12))
  (fp_circle (center 0 0) (end 0 0.25) (layer F.Fab) (width 0.1))
  (fp_line (start 0.25 0) (end -0.25 0) (layer F.Fab) (width 0.1))
  (fp_line (start 0 0.25) (end 0 -0.25) (layer F.Fab) (width 0.1))
  (fp_line (start 4.69 -4.25) (end 4.69 4.25) (layer F.CrtYd) (width 0.05))
  (fp_line (start -4.69 -4.25) (end 4.69 -4.25) (layer F.CrtYd) (width 0.05))
  (fp_line (start -4.69 4.25) (end -4.69 -4.25) (layer F.CrtYd) (width 0.05))
  (fp_line (start 4.69 4.25) (end -4.69 4.25) (layer F.CrtYd) (width 0.05))
  (fp_line (start -3 -4) (end -4 -3) (layer F.Fab) (width 0.1))
  (fp_line (start -3 -4) (end 4 -4) (layer F.Fab) (width 0.1))
  (fp_line (start -4 4) (end -4 -3) (layer F.Fab) (width 0.1))
  (fp_line (start 4 4) (end -4 4) (layer F.Fab) (width 0.1))
  (fp_line (start 4 -4) (end 4 4) (layer F.Fab) (width 0.1))
  (fp_circle (center -4.572 -4.064) (end -4.5085 -4.064) (layer F.SilkS) (width 0.3))
  (fp_text user %R (at 0 0) (layer F.Fab)
    (effects (font (size 1 1) (thickness 0.15)))
  )
  (pad 3 smd custom (at 0.785 0) (size 5.23 6.9) (layers F.Cu F.Mask)
    (zone_connect 2)
    (options (clearance outline) (anchor rect))
    (primitives
      (gr_poly (pts
         (xy 2.615 -3.55) (xy 3.715 -3.55) (xy 3.715 -2.45) (xy 2.615 -2.45)) (width 0))
      (gr_poly (pts
         (xy 2.615 -1.55) (xy 3.715 -1.55) (xy 3.715 -0.45) (xy 2.615 -0.45)) (width 0))
      (gr_poly (pts
         (xy 2.615 0.45) (xy 3.715 0.45) (xy 3.715 1.55) (xy 2.615 1.55)) (width 0))
      (gr_poly (pts
         (xy 2.615 2.45) (xy 3.715 2.45) (xy 3.715 3.55) (xy 2.615 3.55)) (width 0))
    ))
  (pad 2 smd custom (at -3.61 1) (size 0.48 5.1) (layers F.Cu F.Paste F.Mask)
    (zone_connect 2)
    (options (clearance outline) (anchor rect))
    (primitives
      (gr_poly (pts
         (xy -0.24 -2.55) (xy -0.89 -2.55) (xy -0.89 -1.45) (xy -0.24 -1.45)) (width 0))
      (gr_poly (pts
         (xy -0.24 -0.55) (xy -0.89 -0.55) (xy -0.89 0.55) (xy -0.24 0.55)) (width 0))
      (gr_poly (pts
         (xy -0.24 1.45) (xy -0.89 1.45) (xy -0.89 2.55) (xy -0.24 2.55)) (width 0))
    ))
  (pad "" smd rect (at -0.5 2.25 270) (size 1.5 1.5) (layers F.Paste))
  (pad "" smd rect (at -0.5 0 270) (size 1.5 1.5) (layers F.Paste))
  (pad "" smd rect (at -0.5 -2.25 270) (size 1.5 1.5) (layers F.Paste))
  (pad "" smd rect (at 2 0 270) (size 1.5 1.5) (layers F.Paste))
  (pad "" smd rect (at 2 2.25 270) (size 1.5 1.5) (layers F.Paste))
  (pad "" smd rect (at 2 -2.25 270) (size 1.5 1.5) (layers F.Paste))
  (pad 1 smd rect (at -3.935 -3) (size 1.13 1.1) (layers F.Cu F.Paste F.Mask))
  (model ${KISYS3DMOD}/Package_TO_SOT_SMD.3dshapes/PQFN_8x8.wrl
    (at (xyz 0 0 0))
    (scale (xyz 1 1 1))
    (rotate (xyz 0 0 0))
  )
)
