(module SC-70-8_Handsoldering (layer F.Cu) (tedit 607FF9FA)
  (descr "SC70-8, Handsoldering, Alternate KiCad Library")
  (tags "SC70-8 Handsoldering")
  (attr smd)
  (fp_text reference REF** (at 0 -2.1) (layer F.SilkS)
    (effects (font (size 1 1) (thickness 0.15)))
  )
  (fp_text value SC-70-8_Handsoldering (at 0.05 1.95 180) (layer F.Fab)
    (effects (font (size 1 1) (thickness 0.15)))
  )
  (fp_line (start 2.159 -1.27) (end -1.7145 -1.27) (layer F.SilkS) (width 0.12))
  (fp_line (start 2.159 1.27) (end 2.159 -1.27) (layer F.SilkS) (width 0.12))
  (fp_line (start -2.159 1.27) (end 2.159 1.27) (layer F.SilkS) (width 0.12))
  (fp_line (start -2.159 -0.8255) (end -2.159 1.27) (layer F.SilkS) (width 0.12))
  (fp_line (start -0.17 -1.1) (end -0.67 -0.6) (layer F.Fab) (width 0.1))
  (fp_line (start 0.68 1.1) (end -0.67 1.1) (layer F.Fab) (width 0.1))
  (fp_line (start 0.68 -1.1) (end 0.68 1.1) (layer F.Fab) (width 0.1))
  (fp_line (start -0.67 -0.6) (end -0.67 1.1) (layer F.Fab) (width 0.1))
  (fp_line (start 0.68 -1.1) (end -0.17 -1.1) (layer F.Fab) (width 0.1))
  (fp_line (start -2.2 1.3) (end -2.2 -1.3) (layer F.CrtYd) (width 0.05))
  (fp_line (start -2.2 -1.3) (end 2.2 -1.3) (layer F.CrtYd) (width 0.05))
  (fp_line (start 2.2 -1.3) (end 2.2 1.3) (layer F.CrtYd) (width 0.05))
  (fp_line (start 2.2 1.3) (end -2.2 1.3) (layer F.CrtYd) (width 0.05))
  (fp_circle (center -2.0955 -1.2065) (end -2.032 -1.2065) (layer F.SilkS) (width 0.2))
  (fp_text user %R (at 0 0 90) (layer F.Fab)
    (effects (font (size 0.5 0.5) (thickness 0.075)))
  )
  (pad 8 smd rect (at 1.15 -0.75 270) (size 0.3 1.5) (layers F.Cu F.Paste F.Mask))
  (pad 7 smd rect (at 1.15 -0.25 270) (size 0.3 1.5) (layers F.Cu F.Paste F.Mask))
  (pad 6 smd rect (at 1.15 0.25 270) (size 0.3 1.5) (layers F.Cu F.Paste F.Mask))
  (pad 5 smd rect (at 1.15 0.75 270) (size 0.3 1.5) (layers F.Cu F.Paste F.Mask))
  (pad 4 smd rect (at -1.15 0.75 270) (size 0.3 1.5) (layers F.Cu F.Paste F.Mask))
  (pad 3 smd rect (at -1.15 0.25 270) (size 0.3 1.5) (layers F.Cu F.Paste F.Mask))
  (pad 2 smd rect (at -1.15 -0.25 270) (size 0.3 1.5) (layers F.Cu F.Paste F.Mask))
  (pad 1 smd rect (at -1.15 -0.75 270) (size 0.3 1.5) (layers F.Cu F.Paste F.Mask))
  (model ${KISYS3DMOD}/Package_TO_SOT_SMD.3dshapes/SC-70-8.wrl
    (at (xyz 0 0 0))
    (scale (xyz 1 1 1))
    (rotate (xyz 0 0 0))
  )
)
