(module SC-82AA_Handsoldering (layer F.Cu) (tedit 607FFA06)
  (descr "SC-82AA, Alternate KiCad Library")
  (tags SC-82AA)
  (attr smd)
  (fp_text reference REF** (at 0 -2) (layer F.SilkS)
    (effects (font (size 1 1) (thickness 0.15)))
  )
  (fp_text value SC-82AA_Handsoldering (at 0 2) (layer F.Fab)
    (effects (font (size 1 1) (thickness 0.15)))
  )
  (fp_circle (center -2.0955 -1.2065) (end -2.032 -1.2065) (layer F.SilkS) (width 0.2))
  (fp_line (start 2.2 1.4) (end 2.2 -1.4) (layer F.CrtYd) (width 0.05))
  (fp_line (start -2.2 -1.4) (end -2.2 1.4) (layer F.CrtYd) (width 0.05))
  (fp_line (start -2.2 -1.4) (end 2.2 -1.4) (layer F.CrtYd) (width 0.05))
  (fp_line (start -2.2 1.4) (end 2.2 1.4) (layer F.CrtYd) (width 0.05))
  (fp_line (start 0.675 -1.1) (end -0.175 -1.1) (layer F.Fab) (width 0.1))
  (fp_line (start -0.675 -0.6) (end -0.675 1.1) (layer F.Fab) (width 0.1))
  (fp_line (start 0.675 -1.1) (end 0.675 1.1) (layer F.Fab) (width 0.1))
  (fp_line (start 0.675 1.1) (end -0.675 1.1) (layer F.Fab) (width 0.1))
  (fp_line (start -0.175 -1.1) (end -0.675 -0.6) (layer F.Fab) (width 0.1))
  (fp_line (start -2.2225 -0.889) (end -2.2225 1.3335) (layer F.SilkS) (width 0.12))
  (fp_line (start -2.2225 1.3335) (end 2.159 1.3335) (layer F.SilkS) (width 0.12))
  (fp_line (start 2.159 1.3335) (end 2.2225 1.3335) (layer F.SilkS) (width 0.12))
  (fp_line (start 2.2225 1.3335) (end 2.2225 -1.3335) (layer F.SilkS) (width 0.12))
  (fp_line (start 2.2225 -1.3335) (end -1.778 -1.3335) (layer F.SilkS) (width 0.12))
  (fp_text user %R (at 0 0 90) (layer F.Fab)
    (effects (font (size 0.5 0.5) (thickness 0.075)))
  )
  (pad 4 smd rect (at 1.2 -0.65) (size 1.5 0.4) (layers F.Cu F.Paste F.Mask))
  (pad 3 smd rect (at 1.2 0.65) (size 1.5 0.4) (layers F.Cu F.Paste F.Mask))
  (pad 2 smd rect (at -1.2 0.65) (size 1.5 0.5) (layers F.Cu F.Paste F.Mask))
  (pad 1 smd rect (at -1.2 -0.65) (size 1.5 0.4) (layers F.Cu F.Paste F.Mask))
  (model ${KISYS3DMOD}/Package_TO_SOT_SMD.3dshapes/SC-82AA.wrl
    (at (xyz 0 0 0))
    (scale (xyz 1 1 1))
    (rotate (xyz 0 0 0))
  )
)
