(module SOT-323_SC-70_Handsoldering (layer F.Cu) (tedit 607FFAAD)
  (descr "SOT-323, SC-70 Handsoldering, Alternate KiCad Library")
  (tags "SOT-323 SC-70 Handsoldering")
  (attr smd)
  (fp_text reference REF** (at 0 -2) (layer F.SilkS)
    (effects (font (size 1 1) (thickness 0.15)))
  )
  (fp_text value SOT-323_SC-70_Handsoldering (at 0 2.05) (layer F.Fab)
    (effects (font (size 1 1) (thickness 0.15)))
  )
  (fp_line (start 2.3495 -1.2065) (end -2.3495 -1.2065) (layer F.SilkS) (width 0.12))
  (fp_line (start 2.3495 1.2065) (end 2.3495 -1.2065) (layer F.SilkS) (width 0.12))
  (fp_line (start -2.3495 1.2065) (end 2.3495 1.2065) (layer F.SilkS) (width 0.12))
  (fp_line (start -2.3495 -1.2065) (end -2.3495 1.2065) (layer F.SilkS) (width 0.12))
  (fp_line (start 2.4 1.3) (end -2.4 1.3) (layer F.CrtYd) (width 0.05))
  (fp_line (start 2.4 -1.3) (end 2.4 1.3) (layer F.CrtYd) (width 0.05))
  (fp_line (start -2.4 -1.3) (end 2.4 -1.3) (layer F.CrtYd) (width 0.05))
  (fp_line (start -2.4 1.3) (end -2.4 -1.3) (layer F.CrtYd) (width 0.05))
  (fp_line (start 0.675 -1.1) (end -0.175 -1.1) (layer F.Fab) (width 0.1))
  (fp_line (start -0.675 -0.6) (end -0.675 1.1) (layer F.Fab) (width 0.1))
  (fp_line (start 0.675 -1.1) (end 0.675 1.1) (layer F.Fab) (width 0.1))
  (fp_line (start 0.675 1.1) (end -0.675 1.1) (layer F.Fab) (width 0.1))
  (fp_line (start -0.175 -1.1) (end -0.675 -0.6) (layer F.Fab) (width 0.1))
  (fp_text user %R (at 0 0 90) (layer F.Fab)
    (effects (font (size 0.5 0.5) (thickness 0.075)))
  )
  (pad 3 smd rect (at 1.33 0 270) (size 0.45 1.5) (layers F.Cu F.Paste F.Mask))
  (pad 2 smd rect (at -1.33 0.65 270) (size 0.45 1.5) (layers F.Cu F.Paste F.Mask))
  (pad 1 smd rect (at -1.33 -0.65 270) (size 0.45 1.5) (layers F.Cu F.Paste F.Mask))
  (model ${KISYS3DMOD}/Package_TO_SOT_SMD.3dshapes/SOT-323_SC-70.wrl
    (at (xyz 0 0 0))
    (scale (xyz 1 1 1))
    (rotate (xyz 0 0 0))
  )
)
