(module SOT-1123 (layer F.Cu) (tedit 607FFB1E)
  (descr "SOT-1123 small outline transistor (see http://www.onsemi.com/pub/Collateral/NST3906F3-D.PDF), Alternate KiCad Library")
  (tags "SOT-1123 transistor")
  (attr smd)
  (fp_text reference REF** (at 0 -1.397) (layer F.SilkS)
    (effects (font (size 1 1) (thickness 0.15)))
  )
  (fp_text value SOT-1123 (at 0 1.25) (layer F.Fab)
    (effects (font (size 1 1) (thickness 0.15)))
  )
  (fp_line (start 0.889 -0.5715) (end -0.508 -0.5715) (layer F.SilkS) (width 0.12))
  (fp_line (start 0.889 0.5715) (end 0.889 -0.5715) (layer F.SilkS) (width 0.12))
  (fp_line (start -0.889 0.5715) (end 0.889 0.5715) (layer F.SilkS) (width 0.12))
  (fp_line (start -0.889 -0.1905) (end -0.889 0.5715) (layer F.SilkS) (width 0.12))
  (fp_circle (center -0.8255 -0.508) (end -0.762 -0.508) (layer F.SilkS) (width 0.2))
  (fp_line (start -0.85 -0.55) (end 0.85 -0.55) (layer F.CrtYd) (width 0.05))
  (fp_line (start 0.85 -0.55) (end 0.85 0.55) (layer F.CrtYd) (width 0.05))
  (fp_line (start 0.85 0.55) (end -0.85 0.55) (layer F.CrtYd) (width 0.05))
  (fp_line (start -0.85 0.55) (end -0.85 -0.55) (layer F.CrtYd) (width 0.05))
  (fp_line (start 0.4 -0.3) (end -0.2 -0.3) (layer F.Fab) (width 0.1))
  (fp_line (start -0.4 -0.1) (end -0.4 0.3) (layer F.Fab) (width 0.1))
  (fp_line (start -0.4 0.3) (end 0.4 0.3) (layer F.Fab) (width 0.1))
  (fp_line (start 0.4 0.3) (end 0.4 -0.3) (layer F.Fab) (width 0.1))
  (fp_line (start -0.2 -0.3) (end -0.4 -0.1) (layer F.Fab) (width 0.1))
  (fp_text user %R (at 0 0) (layer F.Fab)
    (effects (font (size 0.2 0.2) (thickness 0.05)))
  )
  (pad 3 smd roundrect (at 0.43 0) (size 0.34 0.26) (layers F.Cu F.Paste F.Mask) (roundrect_rratio 0.25))
  (pad 2 smd roundrect (at -0.43 0.19) (size 0.34 0.2) (layers F.Cu F.Paste F.Mask) (roundrect_rratio 0.25))
  (pad 1 smd roundrect (at -0.43 -0.19) (size 0.34 0.2) (layers F.Cu F.Paste F.Mask) (roundrect_rratio 0.25))
  (model ${KISYS3DMOD}/Package_TO_SOT_SMD.3dshapes/SOT-1123.wrl
    (at (xyz 0 0 0))
    (scale (xyz 1 1 1))
    (rotate (xyz 0 0 0))
  )
)
