(module SOT-89-5_Handsoldering (layer F.Cu) (tedit 607FFA65)
  (descr "SOT-89-5, http://www.e-devices.ricoh.co.jp/en/products/product_power/pkg/sot-89-5.pdf, Alternate KiCad Library")
  (tags SOT-89-5)
  (attr smd)
  (fp_text reference REF** (at 0 -3.5) (layer F.SilkS)
    (effects (font (size 1 1) (thickness 0.15)))
  )
  (fp_text value SOT-89-5_Handsoldering (at 0 3.5) (layer F.Fab)
    (effects (font (size 1 1) (thickness 0.15)))
  )
  (fp_line (start 3.8735 -2.4765) (end -3.302 -2.4765) (layer F.SilkS) (width 0.12))
  (fp_line (start 3.8735 2.4765) (end 3.8735 -2.4765) (layer F.SilkS) (width 0.12))
  (fp_line (start -3.8735 2.4765) (end 3.8735 2.4765) (layer F.SilkS) (width 0.12))
  (fp_line (start -3.8735 -1.905) (end -3.8735 2.4765) (layer F.SilkS) (width 0.12))
  (fp_circle (center -3.683 -2.286) (end -3.6195 -2.286) (layer F.SilkS) (width 0.3))
  (fp_line (start -3.85 2.5) (end -3.85 -2.5) (layer F.CrtYd) (width 0.05))
  (fp_line (start -3.85 2.5) (end 3.85 2.5) (layer F.CrtYd) (width 0.05))
  (fp_line (start 3.85 -2.5) (end -3.85 -2.5) (layer F.CrtYd) (width 0.05))
  (fp_line (start 3.85 -2.5) (end 3.85 2.5) (layer F.CrtYd) (width 0.05))
  (fp_line (start -0.25 -2.25) (end 1.25 -2.25) (layer F.Fab) (width 0.1))
  (fp_line (start -1.25 2.25) (end -1.25 -1.25) (layer F.Fab) (width 0.1))
  (fp_line (start 1.25 2.25) (end -1.25 2.25) (layer F.Fab) (width 0.1))
  (fp_line (start 1.25 -2.25) (end 1.25 2.25) (layer F.Fab) (width 0.1))
  (fp_line (start -1.25 -1.25) (end -0.25 -2.25) (layer F.Fab) (width 0.1))
  (fp_text user %R (at 0.5 0 90) (layer F.Fab)
    (effects (font (size 1 1) (thickness 0.15)))
  )
  (pad 2 smd custom (at 0 0) (size 0.8 2) (layers F.Cu F.Paste F.Mask)
    (zone_connect 2)
    (options (clearance outline) (anchor rect))
    (primitives
      (gr_poly (pts
         (xy -3.6 -0.5) (xy -0.9 -0.5) (xy -0.4 -1) (xy 0.4 -1) (xy 0.9 -0.5)
         (xy 3.6 -0.5) (xy 3.6 0.5) (xy 0.9 0.5) (xy 0.4 1) (xy -0.4 1)
         (xy -0.9 0.5) (xy -3.6 0.5)) (width 0))
    ))
  (pad 3 smd rect (at -2.35 1.5) (size 2.5 0.7) (layers F.Cu F.Paste F.Mask))
  (pad 1 smd rect (at -2.35 -1.5) (size 2.5 0.7) (layers F.Cu F.Paste F.Mask))
  (pad 4 smd rect (at 2.35 1.5) (size 2.5 0.7) (layers F.Cu F.Paste F.Mask))
  (pad 5 smd rect (at 2.35 -1.5) (size 2.5 0.7) (layers F.Cu F.Paste F.Mask))
  (model ${KISYS3DMOD}/Package_TO_SOT_SMD.3dshapes/SOT-89-5.wrl
    (at (xyz 0 0 0))
    (scale (xyz 1 1 1))
    (rotate (xyz 0 0 0))
  )
)
