(module SOT-23-5 (layer F.Cu) (tedit 607FFA1E)
  (descr "5-pin SOT23 package, Alternate KiCad Library")
  (tags SOT-23-5)
  (attr smd)
  (fp_text reference REF** (at 0 -2.9) (layer F.SilkS)
    (effects (font (size 1 1) (thickness 0.15)))
  )
  (fp_text value SOT-23-5 (at 0 2.9) (layer F.Fab)
    (effects (font (size 1 1) (thickness 0.15)))
  )
  (fp_line (start 1.905 -1.778) (end -1.4605 -1.778) (layer F.SilkS) (width 0.12))
  (fp_line (start 1.905 1.778) (end 1.905 -1.778) (layer F.SilkS) (width 0.12))
  (fp_line (start -1.905 1.778) (end 1.905 1.778) (layer F.SilkS) (width 0.12))
  (fp_line (start -1.905 -1.3335) (end -1.905 1.778) (layer F.SilkS) (width 0.12))
  (fp_circle (center -1.778 -1.651) (end -1.7145 -1.651) (layer F.SilkS) (width 0.2))
  (fp_line (start -1.9 -1.8) (end 1.9 -1.8) (layer F.CrtYd) (width 0.05))
  (fp_line (start 1.9 -1.8) (end 1.9 1.8) (layer F.CrtYd) (width 0.05))
  (fp_line (start 1.9 1.8) (end -1.9 1.8) (layer F.CrtYd) (width 0.05))
  (fp_line (start -1.9 1.8) (end -1.9 -1.8) (layer F.CrtYd) (width 0.05))
  (fp_line (start -0.9 -0.9) (end -0.25 -1.55) (layer F.Fab) (width 0.1))
  (fp_line (start 0.9 -1.55) (end -0.25 -1.55) (layer F.Fab) (width 0.1))
  (fp_line (start -0.9 -0.9) (end -0.9 1.55) (layer F.Fab) (width 0.1))
  (fp_line (start 0.9 1.55) (end -0.9 1.55) (layer F.Fab) (width 0.1))
  (fp_line (start 0.9 -1.55) (end 0.9 1.55) (layer F.Fab) (width 0.1))
  (fp_text user %R (at 0 0 90) (layer F.Fab)
    (effects (font (size 0.5 0.5) (thickness 0.075)))
  )
  (pad 5 smd rect (at 1.1 -0.95) (size 1.06 0.65) (layers F.Cu F.Paste F.Mask))
  (pad 4 smd rect (at 1.1 0.95) (size 1.06 0.65) (layers F.Cu F.Paste F.Mask))
  (pad 3 smd rect (at -1.1 0.95) (size 1.06 0.65) (layers F.Cu F.Paste F.Mask))
  (pad 2 smd rect (at -1.1 0) (size 1.06 0.65) (layers F.Cu F.Paste F.Mask))
  (pad 1 smd rect (at -1.1 -0.95) (size 1.06 0.65) (layers F.Cu F.Paste F.Mask))
  (model ${KISYS3DMOD}/Package_TO_SOT_SMD.3dshapes/SOT-23-5.wrl
    (at (xyz 0 0 0))
    (scale (xyz 1 1 1))
    (rotate (xyz 0 0 0))
  )
)
