(module SOT-223-6_TabPin3 (layer F.Cu) (tedit 607FFA99)
  (descr "module CMS SOT223 6 pins, http://www.ti.com/lit/ds/symlink/tps737.pdf, Alternate KiCad Library")
  (tags "CMS SOT")
  (attr smd)
  (fp_text reference REF** (at -0.0375 -4.5) (layer F.SilkS)
    (effects (font (size 1 1) (thickness 0.15)))
  )
  (fp_text value SOT-223-6_TabPin3 (at -0.0375 4.5) (layer F.Fab)
    (effects (font (size 1 1) (thickness 0.15)))
  )
  (fp_circle (center -4.2545 -3.3655) (end -4.191 -3.3655) (layer F.SilkS) (width 0.3))
  (fp_line (start 4.445 -3.556) (end 4.445 3.556) (layer F.SilkS) (width 0.12))
  (fp_line (start 4.445 3.556) (end -4.3815 3.556) (layer F.SilkS) (width 0.12))
  (fp_line (start -3.937 -3.556) (end 4.3815 -3.556) (layer F.SilkS) (width 0.12))
  (fp_line (start -4.3815 3.556) (end -4.445 3.556) (layer F.SilkS) (width 0.12))
  (fp_line (start -4.445 3.556) (end -4.445 -3.048) (layer F.SilkS) (width 0.12))
  (fp_line (start 4.3815 -3.556) (end 4.445 -3.556) (layer F.SilkS) (width 0.12))
  (fp_line (start -1.8875 -2.3) (end -0.8375 -3.35) (layer F.Fab) (width 0.1))
  (fp_line (start -1.8875 -2.3) (end -1.8875 3.35) (layer F.Fab) (width 0.1))
  (fp_line (start -0.8375 -3.35) (end 1.8125 -3.35) (layer F.Fab) (width 0.1))
  (fp_line (start -1.8875 3.35) (end 1.8125 3.35) (layer F.Fab) (width 0.1))
  (fp_line (start 1.8125 -3.35) (end 1.8125 3.35) (layer F.Fab) (width 0.1))
  (fp_line (start -4.49 -3.6) (end 4.49 -3.6) (layer F.CrtYd) (width 0.05))
  (fp_line (start -4.49 -3.6) (end -4.49 3.6) (layer F.CrtYd) (width 0.05))
  (fp_line (start 4.49 3.6) (end 4.49 -3.6) (layer F.CrtYd) (width 0.05))
  (fp_line (start 4.49 3.6) (end -4.49 3.6) (layer F.CrtYd) (width 0.05))
  (fp_text user %R (at 0 0 90) (layer F.Fab)
    (effects (font (size 0.8 0.8) (thickness 0.12)))
  )
  (pad 1 smd rect (at -3.1375 -2.54) (size 2.2 0.6) (layers F.Cu F.Paste F.Mask))
  (pad 5 smd rect (at -3.1375 2.54) (size 2.2 0.6) (layers F.Cu F.Paste F.Mask))
  (pad 3 smd rect (at -3.1375 0) (size 2.2 0.6) (layers F.Cu F.Paste F.Mask))
  (pad 3 smd rect (at 3.1625 0) (size 2.15 3.45) (layers F.Cu F.Paste F.Mask))
  (pad 2 smd rect (at -3.1375 -1.27) (size 2.2 0.6) (layers F.Cu F.Paste F.Mask))
  (pad 4 smd rect (at -3.1375 1.27) (size 2.2 0.6) (layers F.Cu F.Paste F.Mask))
  (model ${KISYS3DMOD}/Package_TO_SOT_SMD.3dshapes/SOT-223-6.wrl
    (at (xyz 0 0 0))
    (scale (xyz 1 1 1))
    (rotate (xyz 0 0 0))
  )
)
