(module SOT-666 (layer F.Cu) (tedit 607FFB01)
  (descr "SOT666, Alternate KiCad Library")
  (tags SOT-666)
  (attr smd)
  (fp_text reference REF** (at 0 -1.8415) (layer F.SilkS)
    (effects (font (size 1 1) (thickness 0.15)))
  )
  (fp_text value SOT-666 (at 0 1.75 180) (layer F.Fab)
    (effects (font (size 1 1) (thickness 0.15)))
  )
  (fp_line (start 1.524 -1.0795) (end -1.0795 -1.0795) (layer F.SilkS) (width 0.12))
  (fp_line (start 1.524 1.0795) (end 1.524 -1.0795) (layer F.SilkS) (width 0.12))
  (fp_line (start -1.524 1.0795) (end 1.524 1.0795) (layer F.SilkS) (width 0.12))
  (fp_line (start -1.524 -0.635) (end -1.524 1.0795) (layer F.SilkS) (width 0.12))
  (fp_line (start 1.5 1.1) (end 1.5 -1.1) (layer F.CrtYd) (width 0.05))
  (fp_line (start -1.5 -1.1) (end -1.5 1.1) (layer F.CrtYd) (width 0.05))
  (fp_line (start 0.65 0.85) (end -0.65 0.85) (layer F.Fab) (width 0.1))
  (fp_line (start 0.65 -0.85) (end 0.65 0.85) (layer F.Fab) (width 0.1))
  (fp_line (start -1.5 1.1) (end 1.5 1.1) (layer F.CrtYd) (width 0.05))
  (fp_line (start -0.65 -0.53) (end -0.65 0.85) (layer F.Fab) (width 0.1))
  (fp_line (start 0.65 -0.85) (end -0.33 -0.85) (layer F.Fab) (width 0.1))
  (fp_line (start -1.5 -1.1) (end 1.5 -1.1) (layer F.CrtYd) (width 0.05))
  (fp_line (start -0.65 -0.53) (end -0.33 -0.85) (layer F.Fab) (width 0.1))
  (fp_circle (center -1.397 -0.9525) (end -1.3335 -0.9525) (layer F.SilkS) (width 0.2))
  (fp_text user %R (at 0 0 90) (layer F.Fab)
    (effects (font (size 0.5 0.5) (thickness 0.075)))
  )
  (pad 6 smd rect (at 0.85 -0.5375) (size 0.5 0.375) (layers F.Cu F.Paste F.Mask))
  (pad 4 smd rect (at 0.85 0.5375) (size 0.5 0.375) (layers F.Cu F.Paste F.Mask))
  (pad 2 smd rect (at -0.925 0) (size 0.65 0.3) (layers F.Cu F.Paste F.Mask))
  (pad 5 smd rect (at 0.925 0) (size 0.65 0.3) (layers F.Cu F.Paste F.Mask))
  (pad 3 smd rect (at -0.85 0.5375) (size 0.5 0.375) (layers F.Cu F.Paste F.Mask))
  (pad 1 smd rect (at -0.85 -0.5375) (size 0.5 0.375) (layers F.Cu F.Paste F.Mask))
  (model ${KISYS3DMOD}/Package_TO_SOT_SMD.3dshapes/SOT-666.wrl
    (at (xyz 0 0 0))
    (scale (xyz 1 1 1))
    (rotate (xyz 0 0 0))
  )
)
