(module SOT-23W_Handsoldering (layer F.Cu) (tedit 607FFA49)
  (descr "SOT-23W http://www.allegromicro.com/~/media/Files/Datasheets/A112x-Datasheet.ashx?la=en&hash=7BC461E058CC246E0BAB62433B2F1ECA104CA9D3, Alternate KiCad Library")
  (tags "SOT-23W for handsoldering")
  (attr smd)
  (fp_text reference REF** (at 0 -2.5) (layer F.SilkS)
    (effects (font (size 1 1) (thickness 0.15)))
  )
  (fp_text value SOT-23W_Handsoldering (at 0 2.5) (layer F.Fab)
    (effects (font (size 1 1) (thickness 0.15)))
  )
  (fp_line (start 2.9845 -1.7145) (end -2.9845 -1.7145) (layer F.SilkS) (width 0.12))
  (fp_line (start 2.9845 1.7145) (end 2.9845 -1.7145) (layer F.SilkS) (width 0.12))
  (fp_line (start -2.9845 1.7145) (end 2.9845 1.7145) (layer F.SilkS) (width 0.12))
  (fp_line (start -2.9845 -1.7145) (end -2.9845 1.7145) (layer F.SilkS) (width 0.12))
  (fp_line (start -0.955 -0.49) (end -0.955 1.49) (layer F.Fab) (width 0.1))
  (fp_line (start 0.045 -1.49) (end 0.955 -1.49) (layer F.Fab) (width 0.1))
  (fp_line (start -0.955 -0.49) (end 0.045 -1.49) (layer F.Fab) (width 0.1))
  (fp_line (start 0.955 -1.49) (end 0.955 1.49) (layer F.Fab) (width 0.1))
  (fp_line (start -0.955 1.49) (end 0.955 1.49) (layer F.Fab) (width 0.1))
  (fp_line (start -2.95 -1.74) (end 2.95 -1.74) (layer F.CrtYd) (width 0.05))
  (fp_line (start 2.95 -1.74) (end 2.95 1.74) (layer F.CrtYd) (width 0.05))
  (fp_line (start 2.95 1.74) (end -2.95 1.74) (layer F.CrtYd) (width 0.05))
  (fp_line (start -2.95 1.74) (end -2.95 -1.74) (layer F.CrtYd) (width 0.05))
  (fp_text user %R (at 0 0 90) (layer F.Fab)
    (effects (font (size 0.5 0.5) (thickness 0.075)))
  )
  (pad 3 smd rect (at 1.7 0) (size 2 0.7) (layers F.Cu F.Paste F.Mask))
  (pad 2 smd rect (at -1.7 0.95) (size 2 0.7) (layers F.Cu F.Paste F.Mask))
  (pad 1 smd rect (at -1.7 -0.95) (size 2 0.7) (layers F.Cu F.Paste F.Mask))
  (model ${KISYS3DMOD}/Package_TO_SOT_SMD.3dshapes/SOT-23W_Handsoldering.wrl
    (at (xyz 0 0 0))
    (scale (xyz 1 1 1))
    (rotate (xyz 0 0 0))
  )
)
