(module SOT-383FL (layer F.Cu) (tedit 607FFADA)
  (descr "8-pin SOT-383FL package, http://www.onsemi.com/pub_link/Collateral/ENA2267-D.PDF, Alternate KiCad Library")
  (tags SOT-383FL)
  (attr smd)
  (fp_text reference REF** (at 0 -1.9685) (layer F.SilkS)
    (effects (font (size 1 1) (thickness 0.15)))
  )
  (fp_text value SOT-383FL (at 0 1.9) (layer F.Fab)
    (effects (font (size 1 1) (thickness 0.15)))
  )
  (fp_circle (center -1.3335 -1.143) (end -1.27 -1.143) (layer F.SilkS) (width 0.2))
  (fp_line (start 1.397 -1.2065) (end -1.016 -1.2065) (layer F.SilkS) (width 0.12))
  (fp_line (start -1.397 -0.8255) (end -1.397 1.2065) (layer F.SilkS) (width 0.12))
  (fp_line (start -1.397 1.2065) (end 1.397 1.2065) (layer F.SilkS) (width 0.12))
  (fp_line (start 1.397 1.2065) (end 1.397 -1.2065) (layer F.SilkS) (width 0.12))
  (fp_line (start 1.4 1.25) (end -1.4 1.25) (layer F.CrtYd) (width 0.05))
  (fp_line (start 1.4 1.25) (end 1.4 -1.25) (layer F.CrtYd) (width 0.05))
  (fp_line (start -1.4 -1.25) (end -1.4 1.25) (layer F.CrtYd) (width 0.05))
  (fp_line (start -1.4 -1.25) (end 1.4 -1.25) (layer F.CrtYd) (width 0.05))
  (fp_line (start 0.85 1) (end 0.85 -1) (layer F.Fab) (width 0.1))
  (fp_line (start -0.85 1) (end 0.85 1) (layer F.Fab) (width 0.1))
  (fp_line (start -0.85 -0.75) (end -0.6 -1) (layer F.Fab) (width 0.1))
  (fp_line (start -0.85 -0.75) (end -0.85 1) (layer F.Fab) (width 0.1))
  (fp_line (start -0.6 -1) (end 0.85 -1) (layer F.Fab) (width 0.1))
  (fp_text user %R (at 0 0 90) (layer F.Fab)
    (effects (font (size 0.5 0.5) (thickness 0.075)))
  )
  (pad 8 smd rect (at 0.95 -0.75) (size 0.4 0.3) (layers F.Cu F.Paste F.Mask))
  (pad 7 smd rect (at 0.95 -0.25) (size 0.4 0.3) (layers F.Cu F.Paste F.Mask))
  (pad 6 smd rect (at 0.95 0.25) (size 0.4 0.3) (layers F.Cu F.Paste F.Mask))
  (pad 5 smd rect (at 0.95 0.75) (size 0.4 0.3) (layers F.Cu F.Paste F.Mask))
  (pad 4 smd rect (at -0.95 0.75) (size 0.4 0.3) (layers F.Cu F.Paste F.Mask))
  (pad 3 smd rect (at -0.95 0.25) (size 0.4 0.3) (layers F.Cu F.Paste F.Mask))
  (pad 2 smd rect (at -0.95 -0.25) (size 0.4 0.3) (layers F.Cu F.Paste F.Mask))
  (pad 1 smd rect (at -0.95 -0.75) (size 0.4 0.3) (layers F.Cu F.Paste F.Mask))
  (model ${KISYS3DMOD}/Package_TO_SOT_SMD.3dshapes/SOT-383FL.wrl
    (at (xyz 0 0 0))
    (scale (xyz 1 1 1))
    (rotate (xyz 0 0 0))
  )
)
