(module SOT-886 (layer F.Cu) (tedit 607FFB13)
  (descr "SOT-886, Alternate KiCad Library")
  (tags SOT-886)
  (attr smd)
  (fp_text reference REF** (at 0 -1.7 180) (layer F.SilkS)
    (effects (font (size 1 1) (thickness 0.15)))
  )
  (fp_text value SOT-886 (at 0 1.8 180) (layer F.Fab)
    (effects (font (size 1 1) (thickness 0.15)))
  )
  (fp_line (start 0.762 -0.9525) (end -0.381 -0.9525) (layer F.SilkS) (width 0.12))
  (fp_line (start 0.762 0.9525) (end 0.762 -0.9525) (layer F.SilkS) (width 0.12))
  (fp_line (start -0.762 0.9525) (end 0.762 0.9525) (layer F.SilkS) (width 0.12))
  (fp_line (start -0.762 0.889) (end -0.762 0.9525) (layer F.SilkS) (width 0.12))
  (fp_line (start -0.762 -0.5715) (end -0.762 0.889) (layer F.SilkS) (width 0.12))
  (fp_line (start 0.75 1) (end -0.75 1) (layer F.CrtYd) (width 0.05))
  (fp_line (start 0.75 1) (end 0.75 -1) (layer F.CrtYd) (width 0.05))
  (fp_line (start -0.75 -1) (end -0.75 1) (layer F.CrtYd) (width 0.05))
  (fp_line (start -0.75 -1) (end 0.75 -1) (layer F.CrtYd) (width 0.05))
  (fp_line (start 0.5 -0.75) (end -0.2 -0.75) (layer F.Fab) (width 0.1))
  (fp_line (start 0.5 0.75) (end 0.5 -0.75) (layer F.Fab) (width 0.1))
  (fp_line (start -0.5 0.75) (end 0.5 0.75) (layer F.Fab) (width 0.1))
  (fp_line (start -0.5 -0.45) (end -0.5 0.75) (layer F.Fab) (width 0.1))
  (fp_line (start -0.2 -0.75) (end -0.5 -0.45) (layer F.Fab) (width 0.1))
  (fp_circle (center -0.6985 -0.889) (end -0.635 -0.889) (layer F.SilkS) (width 0.2))
  (fp_text user %R (at 0 0 90) (layer F.Fab)
    (effects (font (size 0.4 0.4) (thickness 0.0625)))
  )
  (pad 6 smd rect (at 0.34 -0.5) (size 0.33 0.27) (layers F.Cu F.Paste F.Mask))
  (pad 5 smd rect (at 0.34 0) (size 0.33 0.27) (layers F.Cu F.Paste F.Mask))
  (pad 4 smd rect (at 0.34 0.5) (size 0.33 0.27) (layers F.Cu F.Paste F.Mask))
  (pad 3 smd rect (at -0.34 0.5) (size 0.33 0.27) (layers F.Cu F.Paste F.Mask))
  (pad 2 smd rect (at -0.34 0) (size 0.33 0.27) (layers F.Cu F.Paste F.Mask))
  (pad 1 smd rect (at -0.34 -0.5) (size 0.33 0.27) (layers F.Cu F.Paste F.Mask))
  (model ${KISYS3DMOD}/Package_TO_SOT_SMD.3dshapes/SOT-886.wrl
    (at (xyz 0 0 0))
    (scale (xyz 1 1 1))
    (rotate (xyz 0 0 0))
  )
)
