(module SuperSOT-6 (layer F.Cu) (tedit 607FFB43)
  (descr "6-pin SuperSOT package http://www.mouser.com/ds/2/149/FMB5551-889214.pdf, Alternate KiCad Library")
  (tags "SuperSOT-6 SSOT-6")
  (attr smd)
  (fp_text reference REF** (at 0 -2.54) (layer F.SilkS)
    (effects (font (size 1 1) (thickness 0.15)))
  )
  (fp_text value SuperSOT-6 (at 0 2.5) (layer F.Fab)
    (effects (font (size 1 1) (thickness 0.15)))
  )
  (fp_circle (center -1.905 -1.5875) (end -1.8415 -1.5875) (layer F.SilkS) (width 0.2))
  (fp_line (start -2.032 -1.27) (end -2.032 1.651) (layer F.SilkS) (width 0.12))
  (fp_line (start -2.032 1.7145) (end 2.032 1.7145) (layer F.SilkS) (width 0.12))
  (fp_line (start 2.032 1.7145) (end 2.032 -1.7145) (layer F.SilkS) (width 0.12))
  (fp_line (start 2.032 -1.7145) (end -1.5875 -1.7145) (layer F.SilkS) (width 0.12))
  (fp_line (start -2.032 1.651) (end -2.032 1.7145) (layer F.SilkS) (width 0.12))
  (fp_line (start 2.05 1.7) (end -2.05 1.7) (layer F.CrtYd) (width 0.05))
  (fp_line (start 2.05 1.7) (end 2.05 -1.7) (layer F.CrtYd) (width 0.05))
  (fp_line (start -2.05 -1.7) (end -2.05 1.7) (layer F.CrtYd) (width 0.05))
  (fp_line (start -2.05 -1.7) (end 2.05 -1.7) (layer F.CrtYd) (width 0.05))
  (fp_line (start -0.85 -1) (end -0.85 1.45) (layer F.Fab) (width 0.12))
  (fp_line (start -0.4 -1.45) (end -0.85 -1) (layer F.Fab) (width 0.12))
  (fp_line (start 0.85 -1.45) (end -0.4 -1.45) (layer F.Fab) (width 0.12))
  (fp_line (start 0.85 1.45) (end 0.85 -1.45) (layer F.Fab) (width 0.12))
  (fp_line (start -0.85 1.45) (end 0.85 1.45) (layer F.Fab) (width 0.12))
  (fp_text user %R (at 0 0 90) (layer F.Fab)
    (effects (font (size 0.5 0.5) (thickness 0.075)))
  )
  (pad 5 smd rect (at 1.3 0) (size 1 0.7) (layers F.Cu F.Paste F.Mask))
  (pad 6 smd rect (at 1.3 -0.95) (size 1 0.7) (layers F.Cu F.Paste F.Mask))
  (pad 4 smd rect (at 1.3 0.95) (size 1 0.7) (layers F.Cu F.Paste F.Mask))
  (pad 3 smd rect (at -1.3 0.95) (size 1 0.7) (layers F.Cu F.Paste F.Mask))
  (pad 2 smd rect (at -1.3 0) (size 1 0.7) (layers F.Cu F.Paste F.Mask))
  (pad 1 smd rect (at -1.3 -0.95) (size 1 0.7) (layers F.Cu F.Paste F.Mask))
  (model ${KISYS3DMOD}/Package_TO_SOT_SMD.3dshapes/SuperSOT-6.wrl
    (at (xyz 0 0 0))
    (scale (xyz 1 1 1))
    (rotate (xyz 0 0 0))
  )
)
