(module Texas_NDQ (layer F.Cu) (tedit 60800C4A)
  (descr "Texas Instruments, NDQ, 5 pin (https://www.ti.com/lit/ml/mmsf022/mmsf022.pdf), Alternate KiCad Library")
  (tags "ti pfm dap")
  (attr smd)
  (fp_text reference REF** (at 2.5 -6) (layer F.SilkS)
    (effects (font (size 1 1) (thickness 0.15)))
  )
  (fp_text value Texas_NDQ (at 2.5 6) (layer F.Fab)
    (effects (font (size 1 1) (thickness 0.15)))
  )
  (fp_line (start 7.366 5.207) (end 7.366 -5.207) (layer F.SilkS) (width 0.12))
  (fp_line (start -7.493 5.207) (end 7.366 5.207) (layer F.SilkS) (width 0.12))
  (fp_line (start -7.493 -5.207) (end -7.493 5.207) (layer F.SilkS) (width 0.12))
  (fp_line (start -7.4295 -5.207) (end -7.493 -5.207) (layer F.SilkS) (width 0.12))
  (fp_line (start 7.366 -5.207) (end -7.4295 -5.207) (layer F.SilkS) (width 0.12))
  (fp_line (start 7.2225 -5.08) (end 7.2225 5.08) (layer F.Fab) (width 0.1))
  (fp_line (start -2.6275 5.08) (end -2.6275 -4.08) (layer F.Fab) (width 0.1))
  (fp_line (start -1.6275 -5.08) (end 7.2225 -5.08) (layer F.Fab) (width 0.1))
  (fp_line (start 7.2225 5.08) (end -2.6275 5.08) (layer F.Fab) (width 0.1))
  (fp_line (start -1.6275 -5.08) (end -2.6275 -4.08) (layer F.Fab) (width 0.1))
  (fp_line (start -2.88 5.33) (end -2.88 4.19) (layer F.CrtYd) (width 0.05))
  (fp_line (start 7.47 5.33) (end -2.88 5.33) (layer F.CrtYd) (width 0.05))
  (fp_line (start 7.47 -5.33) (end -2.88 -5.33) (layer F.CrtYd) (width 0.05))
  (fp_line (start 7.47 -5.33) (end 7.47 5.33) (layer F.CrtYd) (width 0.05))
  (fp_line (start -7.47 4.19) (end -7.47 -4.19) (layer F.CrtYd) (width 0.05))
  (fp_line (start -2.88 -4.19) (end -7.47 -4.19) (layer F.CrtYd) (width 0.05))
  (fp_line (start -2.88 4.19) (end -7.47 4.19) (layer F.CrtYd) (width 0.05))
  (fp_line (start -2.88 -4.19) (end -2.88 -5.33) (layer F.CrtYd) (width 0.05))
  (fp_line (start -2.6275 -0.415) (end -6.7875 -0.415) (layer F.Fab) (width 0.1))
  (fp_line (start -6.7875 -0.415) (end -6.7875 0.415) (layer F.Fab) (width 0.1))
  (fp_line (start -2.6275 0.415) (end -6.7875 0.415) (layer F.Fab) (width 0.1))
  (fp_line (start -2.6275 1.285) (end -6.7875 1.285) (layer F.Fab) (width 0.1))
  (fp_line (start -6.7875 1.285) (end -6.7875 2.115) (layer F.Fab) (width 0.1))
  (fp_line (start -2.6275 2.115) (end -6.7875 2.115) (layer F.Fab) (width 0.1))
  (fp_line (start -2.6275 2.985) (end -6.7875 2.985) (layer F.Fab) (width 0.1))
  (fp_line (start -6.7875 2.985) (end -6.7875 3.815) (layer F.Fab) (width 0.1))
  (fp_line (start -2.6275 3.815) (end -6.7875 3.815) (layer F.Fab) (width 0.1))
  (fp_line (start -2.6275 -3.815) (end -6.7875 -3.815) (layer F.Fab) (width 0.1))
  (fp_line (start -6.7875 -3.815) (end -6.7875 -2.985) (layer F.Fab) (width 0.1))
  (fp_line (start -2.6275 -2.985) (end -6.7875 -2.985) (layer F.Fab) (width 0.1))
  (fp_line (start -6.7875 -2.115) (end -6.7875 -1.285) (layer F.Fab) (width 0.1))
  (fp_line (start -2.6275 -1.285) (end -6.7875 -1.285) (layer F.Fab) (width 0.1))
  (fp_line (start -2.6275 -2.115) (end -6.7875 -2.115) (layer F.Fab) (width 0.1))
  (fp_text user %R (at 2.5 0) (layer F.Fab)
    (effects (font (size 1 1) (thickness 0.15)))
  )
  (pad 6 smd rect (at 3.2075 0) (size 6.35 5.59) (layers F.Cu F.Paste F.Mask))
  (pad 5 smd rect (at -6.0175 3.4) (size 2.41 1.07) (layers F.Cu F.Paste F.Mask))
  (pad 4 smd rect (at -6.0175 1.7) (size 2.41 1.07) (layers F.Cu F.Paste F.Mask))
  (pad 3 smd rect (at -6.0175 0) (size 2.41 1.07) (layers F.Cu F.Paste F.Mask))
  (pad 2 smd rect (at -6.0175 -1.7) (size 2.41 1.07) (layers F.Cu F.Paste F.Mask))
  (pad 1 smd rect (at -6.0175 -3.4) (size 2.41 1.07) (layers F.Cu F.Paste F.Mask))
  (model ${KISYS3DMOD}/Package_TO_SOT_SMD.3dshapes/Texas_NDQ.wrl
    (at (xyz 0 0 0))
    (scale (xyz 1 1 1))
    (rotate (xyz 0 0 0))
  )
)
