(module Texas_R-PDSO-G6 (layer F.Cu) (tedit 60800C67)
  (descr "R-PDSO-G6, http://www.ti.com/lit/ds/slis144b/slis144b.pdf, Alternate KiCad Library")
  (tags "R-PDSO-G6 SC-70-6")
  (attr smd)
  (fp_text reference REF** (at 0 -2.0955) (layer F.SilkS)
    (effects (font (size 1 1) (thickness 0.15)))
  )
  (fp_text value Texas_R-PDSO-G6 (at 0 2) (layer F.Fab)
    (effects (font (size 1 1) (thickness 0.15)))
  )
  (fp_line (start 1.778 -1.397) (end -1.3335 -1.397) (layer F.SilkS) (width 0.12))
  (fp_line (start 1.778 1.397) (end 1.778 -1.397) (layer F.SilkS) (width 0.12))
  (fp_line (start -1.778 1.397) (end 1.778 1.397) (layer F.SilkS) (width 0.12))
  (fp_line (start -1.778 -0.9525) (end -1.778 1.397) (layer F.SilkS) (width 0.12))
  (fp_line (start -0.175 -1.1) (end -0.675 -0.6) (layer F.Fab) (width 0.1))
  (fp_line (start 0.675 1.1) (end -0.675 1.1) (layer F.Fab) (width 0.1))
  (fp_line (start 0.675 -1.1) (end 0.675 1.1) (layer F.Fab) (width 0.1))
  (fp_line (start -1.6 1.4) (end 1.6 1.4) (layer F.CrtYd) (width 0.05))
  (fp_line (start -0.675 -0.6) (end -0.675 1.1) (layer F.Fab) (width 0.1))
  (fp_line (start 0.675 -1.1) (end -0.175 -1.1) (layer F.Fab) (width 0.1))
  (fp_line (start -1.6 -1.4) (end 1.6 -1.4) (layer F.CrtYd) (width 0.05))
  (fp_line (start -1.6 -1.4) (end -1.6 1.4) (layer F.CrtYd) (width 0.05))
  (fp_line (start 1.6 1.4) (end 1.6 -1.4) (layer F.CrtYd) (width 0.05))
  (fp_circle (center -1.651 -1.27) (end -1.5875 -1.27) (layer F.SilkS) (width 0.2))
  (fp_text user %R (at 0 0 90) (layer F.Fab)
    (effects (font (size 0.5 0.5) (thickness 0.075)))
  )
  (pad 6 smd rect (at 1.1 -0.65) (size 0.9 0.4) (layers F.Cu F.Paste F.Mask))
  (pad 4 smd rect (at 1.1 0.65) (size 0.9 0.4) (layers F.Cu F.Paste F.Mask))
  (pad 2 smd rect (at -1.1 0) (size 0.9 0.4) (layers F.Cu F.Paste F.Mask))
  (pad 5 smd rect (at 1.1 0) (size 0.9 0.4) (layers F.Cu F.Paste F.Mask))
  (pad 3 smd rect (at -1.1 0.65) (size 0.9 0.4) (layers F.Cu F.Paste F.Mask))
  (pad 1 smd rect (at -1.1 -0.65) (size 0.9 0.4) (layers F.Cu F.Paste F.Mask))
  (model ${KISYS3DMOD}/Package_TO_SOT_SMD.3dshapes/SOT-363_SC-70-6.wrl
    (at (xyz 0 0 0))
    (scale (xyz 1 1 1))
    (rotate (xyz 0 0 0))
  )
)
