(module Texas_DRT-3 (layer F.Cu) (tedit 60800C44)
  (descr "Texas Instrument DRT-3 1x0.8mm Pitch 0.7mm http://www.ti.com/lit/ds/symlink/tpd2eusb30.pdf, Alternate KiCad Library")
  (tags "DRT-3 1x0.8mm Pitch 0.7mm")
  (attr smd)
  (fp_text reference REF** (at 0 -1.5) (layer F.SilkS)
    (effects (font (size 1 1) (thickness 0.15)))
  )
  (fp_text value Texas_DRT-3 (at 0 1.5) (layer F.Fab)
    (effects (font (size 1 1) (thickness 0.15)))
  )
  (fp_line (start 0.762 -0.8255) (end 0 -0.8255) (layer F.SilkS) (width 0.12))
  (fp_line (start 0.762 0.8255) (end 0.762 -0.8255) (layer F.SilkS) (width 0.12))
  (fp_line (start -0.762 0.8255) (end 0.762 0.8255) (layer F.SilkS) (width 0.12))
  (fp_line (start -0.762 0.762) (end -0.762 0.8255) (layer F.SilkS) (width 0.12))
  (fp_line (start -0.762 -0.8255) (end -0.762 0.762) (layer F.SilkS) (width 0.12))
  (fp_line (start 0 -0.8255) (end -0.762 -0.8255) (layer F.SilkS) (width 0.12))
  (fp_line (start -0.5 0.1) (end -0.2 0.4) (layer F.Fab) (width 0.1))
  (fp_line (start -0.8 0.7) (end -0.8 -0.7) (layer F.CrtYd) (width 0.05))
  (fp_line (start 0.8 0.7) (end -0.8 0.7) (layer F.CrtYd) (width 0.05))
  (fp_line (start 0.8 -0.7) (end 0.8 0.7) (layer F.CrtYd) (width 0.05))
  (fp_line (start -0.8 -0.7) (end 0.8 -0.7) (layer F.CrtYd) (width 0.05))
  (fp_line (start -0.5 0.1) (end -0.5 -0.4) (layer F.Fab) (width 0.1))
  (fp_line (start 0.5 0.4) (end -0.2 0.4) (layer F.Fab) (width 0.1))
  (fp_line (start 0.5 -0.4) (end 0.5 0.4) (layer F.Fab) (width 0.1))
  (fp_line (start -0.5 -0.4) (end 0.5 -0.4) (layer F.Fab) (width 0.1))
  (fp_text user %R (at 0 -1.5) (layer F.Fab)
    (effects (font (size 1 1) (thickness 0.15)))
  )
  (pad 3 smd rect (at 0 -0.425) (size 0.3 0.3) (layers F.Cu F.Paste F.Mask))
  (pad 2 smd rect (at 0.35 0.425) (size 0.3 0.3) (layers F.Cu F.Paste F.Mask))
  (pad 1 smd rect (at -0.35 0.425) (size 0.3 0.3) (layers F.Cu F.Paste F.Mask))
  (model ${KISYS3DMOD}/Package_TO_SOT_SMD.3dshapes/Texas_DRT-3.wrl
    (at (xyz 0 0 0))
    (scale (xyz 1 1 1))
    (rotate (xyz 0 0 0))
  )
)
