(module TO-263-2_TabPin1 (layer F.Cu) (tedit 60800BAC)
  (descr "TO-263 / D2PAK / DDPAK SMD package, tab to pin 1, https://www.wolfspeed.com/media/downloads/137/C3D06060G.pdf, Alternate KiCad Library")
  (tags "D2PAK DDPAK TO-263 D2PAK-3 TO-263-3 SOT-404 diode")
  (attr smd)
  (fp_text reference REF** (at 0 -6.65) (layer F.SilkS)
    (effects (font (size 1 1) (thickness 0.15)))
  )
  (fp_text value TO-263-2_TabPin1 (at 0 6.65) (layer F.Fab)
    (effects (font (size 1 1) (thickness 0.15)))
  )
  (fp_line (start -8.3185 5.588) (end -8.3185 5.6515) (layer F.SilkS) (width 0.12))
  (fp_line (start -8.3185 -5.588) (end -8.3185 5.588) (layer F.SilkS) (width 0.12))
  (fp_line (start -8.3185 -5.6515) (end -8.3185 -5.588) (layer F.SilkS) (width 0.12))
  (fp_line (start 8.3185 5.6515) (end 8.3185 -5.6515) (layer F.SilkS) (width 0.12))
  (fp_line (start 8.3185 -5.6515) (end -8.3185 -5.6515) (layer F.SilkS) (width 0.12))
  (fp_line (start -8.3185 5.6515) (end 8.3185 5.6515) (layer F.SilkS) (width 0.12))
  (fp_line (start 6.5 -5) (end 7.5 -5) (layer F.Fab) (width 0.1))
  (fp_line (start 7.5 -5) (end 7.5 5) (layer F.Fab) (width 0.1))
  (fp_line (start 7.5 5) (end 6.5 5) (layer F.Fab) (width 0.1))
  (fp_line (start 6.5 -5) (end 6.5 5) (layer F.Fab) (width 0.1))
  (fp_line (start 6.5 5) (end -2.75 5) (layer F.Fab) (width 0.1))
  (fp_line (start -2.75 5) (end -2.75 -4) (layer F.Fab) (width 0.1))
  (fp_line (start -2.75 -4) (end -1.75 -5) (layer F.Fab) (width 0.1))
  (fp_line (start -1.75 -5) (end 6.5 -5) (layer F.Fab) (width 0.1))
  (fp_line (start -2.75 -3.04) (end -7.45 -3.04) (layer F.Fab) (width 0.1))
  (fp_line (start -7.45 -3.04) (end -7.45 -2.04) (layer F.Fab) (width 0.1))
  (fp_line (start -7.45 -2.04) (end -2.75 -2.04) (layer F.Fab) (width 0.1))
  (fp_line (start -2.75 2.04) (end -7.45 2.04) (layer F.Fab) (width 0.1))
  (fp_line (start -7.45 2.04) (end -7.45 3.04) (layer F.Fab) (width 0.1))
  (fp_line (start -7.45 3.04) (end -2.75 3.04) (layer F.Fab) (width 0.1))
  (fp_line (start -8.32 -5.65) (end -8.32 5.65) (layer F.CrtYd) (width 0.05))
  (fp_line (start -8.32 5.65) (end 8.32 5.65) (layer F.CrtYd) (width 0.05))
  (fp_line (start 8.32 5.65) (end 8.32 -5.65) (layer F.CrtYd) (width 0.05))
  (fp_line (start 8.32 -5.65) (end -8.32 -5.65) (layer F.CrtYd) (width 0.05))
  (fp_text user %R (at 0 0) (layer F.Fab)
    (effects (font (size 1 1) (thickness 0.15)))
  )
  (pad "" smd rect (at 0.95 2.775) (size 4.55 5.25) (layers F.Paste))
  (pad "" smd rect (at 5.8 -2.775) (size 4.55 5.25) (layers F.Paste))
  (pad "" smd rect (at 0.95 -2.775) (size 4.55 5.25) (layers F.Paste))
  (pad "" smd rect (at 5.8 2.775) (size 4.55 5.25) (layers F.Paste))
  (pad 1 smd rect (at 3.375 0) (size 9.4 10.8) (layers F.Cu F.Mask))
  (pad 2 smd rect (at -5.775 2.54) (size 4.6 1.1) (layers F.Cu F.Paste F.Mask))
  (pad 1 smd rect (at -5.775 -2.54) (size 4.6 1.1) (layers F.Cu F.Paste F.Mask))
  (model ${KISYS3DMOD}/Package_TO_SOT_SMD.3dshapes/TO-263-2.wrl
    (at (xyz 0 0 0))
    (scale (xyz 1 1 1))
    (rotate (xyz 0 0 0))
  )
)
