(module TO-252-5_TabPin6 (layer F.Cu) (tedit 60800B9D)
  (descr "TO-252 / DPAK SMD package, http://www.infineon.com/cms/en/product/packages/PG-TO252/PG-TO252-5-11/, Alternate KiCad Library")
  (tags "DPAK TO-252 DPAK-5 TO-252-5")
  (attr smd)
  (fp_text reference REF** (at 0 -4.5) (layer F.SilkS)
    (effects (font (size 1 1) (thickness 0.15)))
  )
  (fp_text value TO-252-5_TabPin6 (at 0 4.5) (layer F.Fab)
    (effects (font (size 1 1) (thickness 0.15)))
  )
  (fp_line (start -5.588 3.429) (end 5.588 3.429) (layer F.SilkS) (width 0.12))
  (fp_line (start 5.588 -3.429) (end -5.588 -3.429) (layer F.SilkS) (width 0.12))
  (fp_line (start 5.588 3.429) (end 5.588 -3.429) (layer F.SilkS) (width 0.12))
  (fp_line (start -5.588 -3.429) (end -5.588 3.429) (layer F.SilkS) (width 0.12))
  (fp_line (start 3.95 -2.7) (end 4.95 -2.7) (layer F.Fab) (width 0.1))
  (fp_line (start 4.95 -2.7) (end 4.95 2.7) (layer F.Fab) (width 0.1))
  (fp_line (start 4.95 2.7) (end 3.95 2.7) (layer F.Fab) (width 0.1))
  (fp_line (start 3.95 -3.25) (end 3.95 3.25) (layer F.Fab) (width 0.1))
  (fp_line (start 3.95 3.25) (end -2.27 3.25) (layer F.Fab) (width 0.1))
  (fp_line (start -2.27 3.25) (end -2.27 -2.25) (layer F.Fab) (width 0.1))
  (fp_line (start -2.27 -2.25) (end -1.27 -3.25) (layer F.Fab) (width 0.1))
  (fp_line (start -1.27 -3.25) (end 3.95 -3.25) (layer F.Fab) (width 0.1))
  (fp_line (start -1.94 -2.58) (end -4.97 -2.58) (layer F.Fab) (width 0.1))
  (fp_line (start -4.97 -2.58) (end -4.97 -1.98) (layer F.Fab) (width 0.1))
  (fp_line (start -4.97 -1.98) (end -2.27 -1.98) (layer F.Fab) (width 0.1))
  (fp_line (start -2.27 -1.44) (end -4.97 -1.44) (layer F.Fab) (width 0.1))
  (fp_line (start -4.97 -1.44) (end -4.97 -0.84) (layer F.Fab) (width 0.1))
  (fp_line (start -4.97 -0.84) (end -2.27 -0.84) (layer F.Fab) (width 0.1))
  (fp_line (start -2.27 -0.3) (end -4.97 -0.3) (layer F.Fab) (width 0.1))
  (fp_line (start -4.97 -0.3) (end -4.97 0.3) (layer F.Fab) (width 0.1))
  (fp_line (start -4.97 0.3) (end -2.27 0.3) (layer F.Fab) (width 0.1))
  (fp_line (start -2.27 0.84) (end -4.97 0.84) (layer F.Fab) (width 0.1))
  (fp_line (start -4.97 0.84) (end -4.97 1.44) (layer F.Fab) (width 0.1))
  (fp_line (start -4.97 1.44) (end -2.27 1.44) (layer F.Fab) (width 0.1))
  (fp_line (start -2.27 1.98) (end -4.97 1.98) (layer F.Fab) (width 0.1))
  (fp_line (start -4.97 1.98) (end -4.97 2.58) (layer F.Fab) (width 0.1))
  (fp_line (start -4.97 2.58) (end -2.27 2.58) (layer F.Fab) (width 0.1))
  (fp_line (start -5.55 -3.5) (end -5.55 3.5) (layer F.CrtYd) (width 0.05))
  (fp_line (start -5.55 3.5) (end 5.55 3.5) (layer F.CrtYd) (width 0.05))
  (fp_line (start 5.55 3.5) (end 5.55 -3.5) (layer F.CrtYd) (width 0.05))
  (fp_line (start 5.55 -3.5) (end -5.55 -3.5) (layer F.CrtYd) (width 0.05))
  (fp_text user %R (at 0 0) (layer F.Fab)
    (effects (font (size 1 1) (thickness 0.15)))
  )
  (pad "" smd rect (at 0.425 1.525) (size 3.05 2.75) (layers F.Paste))
  (pad "" smd rect (at 3.775 -1.525) (size 3.05 2.75) (layers F.Paste))
  (pad "" smd rect (at 0.425 -1.525) (size 3.05 2.75) (layers F.Paste))
  (pad "" smd rect (at 3.775 1.525) (size 3.05 2.75) (layers F.Paste))
  (pad 6 smd rect (at 2.1 0) (size 6.4 5.8) (layers F.Cu F.Mask))
  (pad 5 smd rect (at -4.2 2.28) (size 2.2 0.8) (layers F.Cu F.Paste F.Mask))
  (pad 4 smd rect (at -4.2 1.14) (size 2.2 0.8) (layers F.Cu F.Paste F.Mask))
  (pad 3 smd rect (at -4.2 0) (size 2.2 0.8) (layers F.Cu F.Paste F.Mask))
  (pad 2 smd rect (at -4.2 -1.14) (size 2.2 0.8) (layers F.Cu F.Paste F.Mask))
  (pad 1 smd rect (at -4.2 -2.28) (size 2.2 0.8) (layers F.Cu F.Paste F.Mask))
  (model ${KISYS3DMOD}/Package_TO_SOT_SMD.3dshapes/TO-252-5_TabPin6.wrl
    (at (xyz 0 0 0))
    (scale (xyz 1 1 1))
    (rotate (xyz 0 0 0))
  )
)
