(module TO-263-7_TabPin8 (layer F.Cu) (tedit 60800BE1)
  (descr "TO-263 / D2PAK / DDPAK SMD package, http://www.infineon.com/cms/en/product/packages/PG-TO263/PG-TO263-7-1/, Alternate KiCad Library")
  (tags "D2PAK DDPAK TO-263 D2PAK-7 TO-263-7 SOT-427")
  (attr smd)
  (fp_text reference REF** (at 0 -6.65) (layer F.SilkS)
    (effects (font (size 1 1) (thickness 0.15)))
  )
  (fp_text value TO-263-7_TabPin8 (at 0 6.65) (layer F.Fab)
    (effects (font (size 1 1) (thickness 0.15)))
  )
  (fp_circle (center -5.7785 -4.7625) (end -5.715 -4.7625) (layer F.SilkS) (width 0.4))
  (fp_line (start -8.3185 5.588) (end -8.3185 5.6515) (layer F.SilkS) (width 0.12))
  (fp_line (start -8.3185 -5.588) (end -8.3185 5.588) (layer F.SilkS) (width 0.12))
  (fp_line (start -8.3185 -5.6515) (end -8.3185 -5.588) (layer F.SilkS) (width 0.12))
  (fp_line (start 8.3185 5.6515) (end 8.3185 -5.6515) (layer F.SilkS) (width 0.12))
  (fp_line (start 8.3185 -5.6515) (end -8.3185 -5.6515) (layer F.SilkS) (width 0.12))
  (fp_line (start -8.3185 5.6515) (end 8.3185 5.6515) (layer F.SilkS) (width 0.12))
  (fp_line (start 6.5 -5) (end 7.5 -5) (layer F.Fab) (width 0.1))
  (fp_line (start 7.5 -5) (end 7.5 5) (layer F.Fab) (width 0.1))
  (fp_line (start 7.5 5) (end 6.5 5) (layer F.Fab) (width 0.1))
  (fp_line (start 6.5 -5) (end 6.5 5) (layer F.Fab) (width 0.1))
  (fp_line (start 6.5 5) (end -2.75 5) (layer F.Fab) (width 0.1))
  (fp_line (start -2.75 5) (end -2.75 -4) (layer F.Fab) (width 0.1))
  (fp_line (start -2.75 -4) (end -1.75 -5) (layer F.Fab) (width 0.1))
  (fp_line (start -1.75 -5) (end 6.5 -5) (layer F.Fab) (width 0.1))
  (fp_line (start -2.64 -4.11) (end -7.45 -4.11) (layer F.Fab) (width 0.1))
  (fp_line (start -7.45 -4.11) (end -7.45 -3.51) (layer F.Fab) (width 0.1))
  (fp_line (start -7.45 -3.51) (end -2.75 -3.51) (layer F.Fab) (width 0.1))
  (fp_line (start -2.75 -2.84) (end -7.45 -2.84) (layer F.Fab) (width 0.1))
  (fp_line (start -7.45 -2.84) (end -7.45 -2.24) (layer F.Fab) (width 0.1))
  (fp_line (start -7.45 -2.24) (end -2.75 -2.24) (layer F.Fab) (width 0.1))
  (fp_line (start -2.75 -1.57) (end -7.45 -1.57) (layer F.Fab) (width 0.1))
  (fp_line (start -7.45 -1.57) (end -7.45 -0.97) (layer F.Fab) (width 0.1))
  (fp_line (start -7.45 -0.97) (end -2.75 -0.97) (layer F.Fab) (width 0.1))
  (fp_line (start -2.75 -0.3) (end -7.45 -0.3) (layer F.Fab) (width 0.1))
  (fp_line (start -7.45 -0.3) (end -7.45 0.3) (layer F.Fab) (width 0.1))
  (fp_line (start -7.45 0.3) (end -2.75 0.3) (layer F.Fab) (width 0.1))
  (fp_line (start -2.75 0.97) (end -7.45 0.97) (layer F.Fab) (width 0.1))
  (fp_line (start -7.45 0.97) (end -7.45 1.57) (layer F.Fab) (width 0.1))
  (fp_line (start -7.45 1.57) (end -2.75 1.57) (layer F.Fab) (width 0.1))
  (fp_line (start -2.75 2.24) (end -7.45 2.24) (layer F.Fab) (width 0.1))
  (fp_line (start -7.45 2.24) (end -7.45 2.84) (layer F.Fab) (width 0.1))
  (fp_line (start -7.45 2.84) (end -2.75 2.84) (layer F.Fab) (width 0.1))
  (fp_line (start -2.75 3.51) (end -7.45 3.51) (layer F.Fab) (width 0.1))
  (fp_line (start -7.45 3.51) (end -7.45 4.11) (layer F.Fab) (width 0.1))
  (fp_line (start -7.45 4.11) (end -2.75 4.11) (layer F.Fab) (width 0.1))
  (fp_line (start -8.32 -5.65) (end -8.32 5.65) (layer F.CrtYd) (width 0.05))
  (fp_line (start -8.32 5.65) (end 8.32 5.65) (layer F.CrtYd) (width 0.05))
  (fp_line (start 8.32 5.65) (end 8.32 -5.65) (layer F.CrtYd) (width 0.05))
  (fp_line (start 8.32 -5.65) (end -8.32 -5.65) (layer F.CrtYd) (width 0.05))
  (fp_text user %R (at 0 0) (layer F.Fab)
    (effects (font (size 1 1) (thickness 0.15)))
  )
  (pad "" smd rect (at 0.95 2.775) (size 4.55 5.25) (layers F.Paste))
  (pad "" smd rect (at 5.8 -2.775) (size 4.55 5.25) (layers F.Paste))
  (pad "" smd rect (at 0.95 -2.775) (size 4.55 5.25) (layers F.Paste))
  (pad "" smd rect (at 5.8 2.775) (size 4.55 5.25) (layers F.Paste))
  (pad 8 smd rect (at 3.375 0) (size 9.4 10.8) (layers F.Cu F.Mask))
  (pad 7 smd rect (at -5.775 3.81) (size 4.6 0.8) (layers F.Cu F.Paste F.Mask))
  (pad 6 smd rect (at -5.775 2.54) (size 4.6 0.8) (layers F.Cu F.Paste F.Mask))
  (pad 5 smd rect (at -5.775 1.27) (size 4.6 0.8) (layers F.Cu F.Paste F.Mask))
  (pad 4 smd rect (at -5.775 0) (size 4.6 0.8) (layers F.Cu F.Paste F.Mask))
  (pad 3 smd rect (at -5.775 -1.27) (size 4.6 0.8) (layers F.Cu F.Paste F.Mask))
  (pad 2 smd rect (at -5.775 -2.54) (size 4.6 0.8) (layers F.Cu F.Paste F.Mask))
  (pad 1 smd rect (at -5.775 -3.81) (size 4.6 0.8) (layers F.Cu F.Paste F.Mask))
  (model ${KISYS3DMOD}/Package_TO_SOT_SMD.3dshapes/TO-263-7_TabPin8.wrl
    (at (xyz 0 0 0))
    (scale (xyz 1 1 1))
    (rotate (xyz 0 0 0))
  )
)
