(module TO-50-4_ShortPad-WithHole_Housing (layer F.Cu) (tedit 60800B71)
  (descr "TO-50-4 Macro X Package Style M238, Alternate KiCad Library")
  (tags "TO-50-4 Macro X Package Style M238")
  (attr smd)
  (fp_text reference REF** (at 4.35 -3.556) (layer F.SilkS)
    (effects (font (size 1 1) (thickness 0.15)))
  )
  (fp_text value TO-50-4_ShortPad-WithHole_Housing (at 16.675 2.975) (layer F.Fab)
    (effects (font (size 1 1) (thickness 0.15)))
  )
  (fp_line (start 0.8 3.2) (end 0.8 7.8) (layer F.CrtYd) (width 0.05))
  (fp_line (start 0.8 7.8) (end -1.6 7.8) (layer F.CrtYd) (width 0.05))
  (fp_line (start -1.6 7.8) (end -1.6 3.2) (layer F.CrtYd) (width 0.05))
  (fp_line (start 2.8 -1.2) (end 8.8 -1.2) (layer F.CrtYd) (width 0.05))
  (fp_line (start 8.8 -1.2) (end 8.8 1.2) (layer F.CrtYd) (width 0.05))
  (fp_line (start 8.8 1.2) (end 2.8 1.2) (layer F.CrtYd) (width 0.05))
  (fp_line (start -1.6 -3.2) (end -1.6 -7.6) (layer F.CrtYd) (width 0.05))
  (fp_line (start -1.6 -7.6) (end 0.8 -7.6) (layer F.CrtYd) (width 0.05))
  (fp_line (start 0.8 -7.6) (end 0.8 -3.2) (layer F.CrtYd) (width 0.05))
  (fp_line (start -3.6 1.2) (end -8 1.2) (layer F.CrtYd) (width 0.05))
  (fp_line (start -8 1.2) (end -8 -1.2) (layer F.CrtYd) (width 0.05))
  (fp_line (start -8 -1.2) (end -3.6 -1.2) (layer F.CrtYd) (width 0.05))
  (fp_line (start -3.6 -1.2) (end -1.6 -3.2) (layer F.CrtYd) (width 0.05))
  (fp_line (start 0.8 -3.2) (end 2.8 -1.2) (layer F.CrtYd) (width 0.05))
  (fp_line (start 2.8 1.2) (end 0.8 3.2) (layer F.CrtYd) (width 0.05))
  (fp_line (start -1.6 3.2) (end -3.6 1.2) (layer F.CrtYd) (width 0.05))
  (fp_circle (center -0.4 0) (end -0.35 -2.55) (layer F.Fab) (width 0.1))
  (fp_line (start -0.081 -3.048) (end -0.081 -2.921) (layer F.SilkS) (width 0.12))
  (fp_line (start -0.716 -3.048) (end -0.716 -2.921) (layer F.SilkS) (width 0.12))
  (fp_line (start 2.521 0.3175) (end 2.5845 0.3175) (layer F.SilkS) (width 0.12))
  (fp_line (start -0.716 2.921) (end -0.716 3.048) (layer F.SilkS) (width 0.12))
  (fp_line (start -0.0825 2.921) (end -0.081 3.048) (layer F.SilkS) (width 0.12))
  (fp_line (start -3.321 0.3175) (end -3.4465 0.3175) (layer F.SilkS) (width 0.12))
  (fp_line (start 2.521 -0.3175) (end 2.5845 -0.3175) (layer F.SilkS) (width 0.12))
  (fp_line (start -3.321 -0.3175) (end -3.4465 -0.3175) (layer F.SilkS) (width 0.12))
  (fp_text user %R (at 0.375 0) (layer F.Fab)
    (effects (font (size 1 1) (thickness 0.15)))
  )
  (pad 4 smd rect (at -0.4 -5.2 270) (size 4 1.5) (layers F.Cu F.Paste F.Mask))
  (pad "" np_thru_hole circle (at -0.4 0 270) (size 5.5 5.5) (drill 5.5) (layers *.Cu *.Mask))
  (pad 3 smd rect (at 5.6 0 270) (size 1.5 5.5) (layers F.Cu F.Paste F.Mask))
  (pad 2 smd rect (at -0.4 5.2 270) (size 4 1.5) (layers F.Cu F.Paste F.Mask))
  (pad 1 smd rect (at -5.6 0 270) (size 1.5 4) (layers F.Cu F.Paste F.Mask))
  (model ${KISYS3DMOD}/Package_TO_SOT_SMD.3dshapes/TO-50-4_ShortPad-WithHole_Housing.wrl
    (at (xyz 0 0 0))
    (scale (xyz 1 1 1))
    (rotate (xyz 0 0 0))
  )
)
