(module TO-50-4_LongPad-NoHole_Housing (layer F.Cu) (tedit 60800B30)
  (descr "TO-50-4 Macro X Package Style M238, Alternate KiCad Library")
  (tags "TO-50-4 Macro X Package Style M238")
  (attr smd)
  (fp_text reference REF** (at -6.9865 -6.604) (layer F.SilkS)
    (effects (font (size 1 1) (thickness 0.15)))
  )
  (fp_text value TO-50-4_LongPad-NoHole_Housing (at 15.775 3.4) (layer F.Fab)
    (effects (font (size 1 1) (thickness 0.15)))
  )
  (fp_circle (center -0.7 0) (end -0.65 -2.55) (layer F.Fab) (width 0.1))
  (fp_line (start -11.3 -1.2) (end -3.9 -1.2) (layer F.CrtYd) (width 0.05))
  (fp_line (start -11.3 1.2) (end -11.3 -1.2) (layer F.CrtYd) (width 0.05))
  (fp_line (start -3.9 1.2) (end -11.3 1.2) (layer F.CrtYd) (width 0.05))
  (fp_line (start -1.9 3.2) (end -3.9 1.2) (layer F.CrtYd) (width 0.05))
  (fp_line (start -1.9 10.6) (end -1.9 3.2) (layer F.CrtYd) (width 0.05))
  (fp_line (start 0.5 10.6) (end -1.9 10.6) (layer F.CrtYd) (width 0.05))
  (fp_line (start 0.5 3.2) (end 0.5 10.6) (layer F.CrtYd) (width 0.05))
  (fp_line (start 2.5 1.2) (end 0.5 3.2) (layer F.CrtYd) (width 0.05))
  (fp_line (start 13.1 1.2) (end 2.5 1.2) (layer F.CrtYd) (width 0.05))
  (fp_line (start 13.1 -1.2) (end 13.1 1.2) (layer F.CrtYd) (width 0.05))
  (fp_line (start 2.5 -1.2) (end 13.1 -1.2) (layer F.CrtYd) (width 0.05))
  (fp_line (start 0.5 -3.2) (end 2.5 -1.2) (layer F.CrtYd) (width 0.05))
  (fp_line (start -3.9 -1.2) (end -1.9 -3.2) (layer F.CrtYd) (width 0.05))
  (fp_line (start 0.5 -10.8) (end 0.5 -3.2) (layer F.CrtYd) (width 0.05))
  (fp_line (start -1.9 -10.8) (end 0.5 -10.8) (layer F.CrtYd) (width 0.05))
  (fp_line (start -1.9 -3.2) (end -1.9 -10.8) (layer F.CrtYd) (width 0.05))
  (fp_line (start 1.9035 -0.3175) (end 2.2845 -0.3175) (layer F.SilkS) (width 0.12))
  (fp_line (start -1.016 2.6035) (end -1.016 3.048) (layer F.SilkS) (width 0.12))
  (fp_line (start -0.381 2.6035) (end -0.381 3.048) (layer F.SilkS) (width 0.12))
  (fp_line (start -3.302 0.3175) (end -3.7465 0.3175) (layer F.SilkS) (width 0.12))
  (fp_line (start 1.9035 0.3175) (end 2.2845 0.3175) (layer F.SilkS) (width 0.12))
  (fp_line (start -3.302 -0.3175) (end -3.7465 -0.3175) (layer F.SilkS) (width 0.12))
  (fp_circle (center -0.7 0) (end -0.7 -2.6) (layer F.SilkS) (width 0.12))
  (fp_line (start -1.016 -3.048) (end -1.016 -2.6035) (layer F.SilkS) (width 0.12))
  (fp_line (start -0.381 -3.048) (end -0.381 -2.6035) (layer F.SilkS) (width 0.12))
  (fp_text user %R (at 0.75 0) (layer F.Fab)
    (effects (font (size 1 1) (thickness 0.15)))
  )
  (pad 4 smd rect (at -0.7 -6.8 270) (size 7 1.5) (layers F.Cu F.Paste F.Mask))
  (pad 3 smd rect (at 7.5 0 270) (size 1.5 10) (layers F.Cu F.Paste F.Mask))
  (pad 2 smd rect (at -0.7 6.8 270) (size 7 1.5) (layers F.Cu F.Paste F.Mask))
  (pad 1 smd rect (at -7.5 0 270) (size 1.5 7) (layers F.Cu F.Paste F.Mask))
  (model ${KISYS3DMOD}/Package_TO_SOT_SMD.3dshapes/TO-50-4_LongPad-NoHole_Housing.wrl
    (at (xyz 0 0 0))
    (scale (xyz 1 1 1))
    (rotate (xyz 0 0 0))
  )
)
