(module TSOT-23-5 (layer F.Cu) (tedit 60800C14)
  (descr "5-pin TSOT23 package, http://cds.linear.com/docs/en/packaging/SOT_5_05-08-1635.pdf, Alternate KiCad Library")
  (tags TSOT-23-5)
  (attr smd)
  (fp_text reference REF** (at 0 -2.45) (layer F.SilkS)
    (effects (font (size 1 1) (thickness 0.15)))
  )
  (fp_text value TSOT-23-5 (at 0 2.5) (layer F.Fab)
    (effects (font (size 1 1) (thickness 0.15)))
  )
  (fp_circle (center -2.0955 -1.5875) (end -2.032 -1.5875) (layer F.SilkS) (width 0.2))
  (fp_line (start -2.159 -1.2065) (end -2.159 1.651) (layer F.SilkS) (width 0.12))
  (fp_line (start 2.159 -1.651) (end -1.7145 -1.651) (layer F.SilkS) (width 0.12))
  (fp_line (start 2.159 1.651) (end 2.159 -1.651) (layer F.SilkS) (width 0.12))
  (fp_line (start -2.159 1.651) (end 2.159 1.651) (layer F.SilkS) (width 0.12))
  (fp_line (start 2.17 1.7) (end -2.17 1.7) (layer F.CrtYd) (width 0.05))
  (fp_line (start 2.17 1.7) (end 2.17 -1.7) (layer F.CrtYd) (width 0.05))
  (fp_line (start -2.17 -1.7) (end -2.17 1.7) (layer F.CrtYd) (width 0.05))
  (fp_line (start -2.17 -1.7) (end 2.17 -1.7) (layer F.CrtYd) (width 0.05))
  (fp_line (start 0.88 -1.45) (end 0.88 1.45) (layer F.Fab) (width 0.1))
  (fp_line (start 0.88 1.45) (end -0.88 1.45) (layer F.Fab) (width 0.1))
  (fp_line (start -0.88 -1) (end -0.88 1.45) (layer F.Fab) (width 0.1))
  (fp_line (start 0.88 -1.45) (end -0.43 -1.45) (layer F.Fab) (width 0.1))
  (fp_line (start -0.88 -1) (end -0.43 -1.45) (layer F.Fab) (width 0.1))
  (fp_text user %R (at 0 0 90) (layer F.Fab)
    (effects (font (size 0.5 0.5) (thickness 0.075)))
  )
  (pad 5 smd rect (at 1.31 -0.95) (size 1.22 0.65) (layers F.Cu F.Paste F.Mask))
  (pad 4 smd rect (at 1.31 0.95) (size 1.22 0.65) (layers F.Cu F.Paste F.Mask))
  (pad 3 smd rect (at -1.31 0.95) (size 1.22 0.65) (layers F.Cu F.Paste F.Mask))
  (pad 2 smd rect (at -1.31 0) (size 1.22 0.65) (layers F.Cu F.Paste F.Mask))
  (pad 1 smd rect (at -1.31 -0.95) (size 1.22 0.65) (layers F.Cu F.Paste F.Mask))
  (model ${KISYS3DMOD}/Package_TO_SOT_SMD.3dshapes/TSOT-23-5.wrl
    (at (xyz 0 0 0))
    (scale (xyz 1 1 1))
    (rotate (xyz 0 0 0))
  )
)
