(module Vishay_PowerPAK_SC70-6L_Single (layer F.Cu) (tedit 60800C7A)
  (descr "Vishay PowerPAK SC70 single transistor package http://www.vishay.com/docs/70486/70486.pdf, Alternate KiCad Library")
  (tags "powerpak sc70 sc-70")
  (attr smd)
  (fp_text reference REF** (at 0 -2) (layer F.SilkS)
    (effects (font (size 1 1) (thickness 0.15)))
  )
  (fp_text value Vishay_PowerPAK_SC70-6L_Single (at 0 2) (layer F.Fab)
    (effects (font (size 1 1) (thickness 0.15)))
  )
  (fp_line (start 1.3335 -1.2065) (end -0.889 -1.2065) (layer F.SilkS) (width 0.12))
  (fp_line (start 1.3335 1.2065) (end 1.3335 -1.2065) (layer F.SilkS) (width 0.12))
  (fp_line (start -1.3335 1.2065) (end 1.3335 1.2065) (layer F.SilkS) (width 0.12))
  (fp_line (start -1.3335 -0.762) (end -1.3335 1.2065) (layer F.SilkS) (width 0.12))
  (fp_circle (center -1.2065 -1.0795) (end -1.143 -1.0795) (layer F.SilkS) (width 0.2))
  (fp_line (start -1.35 -1.28) (end 1.35 -1.28) (layer F.CrtYd) (width 0.05))
  (fp_line (start -1.35 1.28) (end -1.35 -1.28) (layer F.CrtYd) (width 0.05))
  (fp_line (start 1.35 1.28) (end -1.35 1.28) (layer F.CrtYd) (width 0.05))
  (fp_line (start 1.35 -1.28) (end 1.35 1.28) (layer F.CrtYd) (width 0.05))
  (fp_line (start -0.5 -1.025) (end 1.025 -1.025) (layer F.Fab) (width 0.1))
  (fp_line (start -1.025 -0.5) (end -0.5 -1.025) (layer F.Fab) (width 0.1))
  (fp_line (start -1.025 1.025) (end -1.025 -0.5) (layer F.Fab) (width 0.1))
  (fp_line (start 1.025 1.025) (end -1.025 1.025) (layer F.Fab) (width 0.1))
  (fp_line (start 1.025 -1.025) (end 1.025 1.025) (layer F.Fab) (width 0.1))
  (fp_text user %R (at 0 0) (layer F.Fab)
    (effects (font (size 0.4 0.4) (thickness 0.1)))
  )
  (pad 1 smd custom (at 0 -0.325) (size 1.5 0.95) (layers F.Cu F.Mask)
    (zone_connect 2)
    (options (clearance outline) (anchor rect))
    (primitives
      (gr_poly (pts
         (xy -1.1 -0.475) (xy 1.1 -0.475) (xy 1.1 -0.175) (xy -1.1 -0.175)) (width 0))
      (gr_poly (pts
         (xy -1.1 0.175) (xy 1.1 0.175) (xy 1.1 0.475) (xy -1.1 0.475)) (width 0))
    ))
  (pad "" smd rect (at 0.35 -0.325) (size 0.6 0.8) (layers F.Paste))
  (pad "" smd rect (at -0.35 -0.325) (size 0.6 0.8) (layers F.Paste))
  (pad 4 smd rect (at 0.04 0.65) (size 0.87 0.235) (layers F.Cu F.Paste F.Mask))
  (pad 4 smd rect (at 0.925 0.65) (size 0.35 0.3) (layers F.Cu F.Paste F.Mask))
  (pad 3 smd rect (at -0.925 0.65) (size 0.35 0.3) (layers F.Cu F.Paste F.Mask))
  (model ${KISYS3DMOD}/Package_TO_SOT_SMD.3dshapes/Vishay_PowerPAK_SC70-6L_Single.wrl
    (at (xyz 0 0 0))
    (scale (xyz 1 1 1))
    (rotate (xyz 0 0 0))
  )
)
