(module VSOF5 (layer F.Cu) (tedit 60800C6D)
  (descr "VSOF5, Alternate KiCad Library")
  (tags VSOF5)
  (attr smd)
  (fp_text reference REF** (at 0 -1.7) (layer F.SilkS)
    (effects (font (size 1 1) (thickness 0.15)))
  )
  (fp_text value VSOF5 (at -0.2 1.8) (layer F.Fab)
    (effects (font (size 1 1) (thickness 0.15)))
  )
  (fp_line (start 1.0795 -1.016) (end -0.635 -1.016) (layer F.SilkS) (width 0.12))
  (fp_line (start 1.0795 1.016) (end 1.0795 -1.016) (layer F.SilkS) (width 0.12))
  (fp_line (start -1.0795 1.016) (end 1.0795 1.016) (layer F.SilkS) (width 0.12))
  (fp_line (start -1.0795 -0.5715) (end -1.0795 1.016) (layer F.SilkS) (width 0.12))
  (fp_line (start 1.06 1.05) (end -1.05 1.05) (layer F.CrtYd) (width 0.05))
  (fp_line (start 1.06 1.05) (end 1.06 -1.05) (layer F.CrtYd) (width 0.05))
  (fp_line (start -1.05 -1.05) (end -1.05 1.05) (layer F.CrtYd) (width 0.05))
  (fp_line (start -1.05 -1.05) (end 1.06 -1.05) (layer F.CrtYd) (width 0.05))
  (fp_line (start 0.6 0.8) (end -0.6 0.8) (layer F.Fab) (width 0.1))
  (fp_line (start 0.6 -0.8) (end 0.6 0.8) (layer F.Fab) (width 0.1))
  (fp_line (start -0.3 -0.8) (end 0.6 -0.8) (layer F.Fab) (width 0.1))
  (fp_line (start -0.6 -0.5) (end -0.3 -0.8) (layer F.Fab) (width 0.1))
  (fp_line (start -0.6 0.8) (end -0.6 -0.5) (layer F.Fab) (width 0.1))
  (fp_circle (center -0.9525 -0.889) (end -0.889 -0.889) (layer F.SilkS) (width 0.2))
  (fp_text user %R (at 0 0 90) (layer F.Fab)
    (effects (font (size 0.4 0.4) (thickness 0.0625)))
  )
  (pad 1 smd rect (at -0.68 -0.5 270) (size 0.25 0.35) (layers F.Cu F.Paste F.Mask))
  (pad 3 smd rect (at -0.68 0.5 270) (size 0.25 0.35) (layers F.Cu F.Paste F.Mask))
  (pad 4 smd rect (at 0.68 0.5 270) (size 0.25 0.35) (layers F.Cu F.Paste F.Mask))
  (pad 2 smd rect (at -0.68 0 270) (size 0.25 0.35) (layers F.Cu F.Paste F.Mask))
  (pad 5 smd rect (at 0.68 -0.5 270) (size 0.25 0.35) (layers F.Cu F.Paste F.Mask))
  (model ${KISYS3DMOD}/Package_TO_SOT_SMD.3dshapes/VSOF5.wrl
    (at (xyz 0 0 0))
    (scale (xyz 1 1 1))
    (rotate (xyz 0 0 0))
  )
)
