(module Heraeus_TO-92-2 (layer F.Cu) (tedit 60802ECF)
  (descr "TO-92 2-pin variant by Heraeus, drill 0.75mm (http://www.produktinfo.conrad.com/datenblaetter/175000-199999/181293-da-01-de-TO92_Temperatursensor_PT1000_32209225.pdf), Alternate KiCad Library")
  (tags "to-92 ")
  (fp_text reference REF** (at 1.25 -2.55) (layer F.SilkS)
    (effects (font (size 1 1) (thickness 0.15)))
  )
  (fp_text value Heraeus_TO-92-2 (at 1 2.05) (layer F.Fab)
    (effects (font (size 1 1) (thickness 0.15)))
  )
  (fp_circle (center 0 1.4605) (end 0.0635 1.4605) (layer F.SilkS) (width 0.3))
  (fp_line (start -1.1 -1.85) (end -1.1 1.25) (layer F.CrtYd) (width 0.05))
  (fp_line (start 3.5 -1.85) (end -1.1 -1.85) (layer F.CrtYd) (width 0.05))
  (fp_line (start 3.5 1.25) (end 3.5 -1.85) (layer F.CrtYd) (width 0.05))
  (fp_line (start -1.1 1.25) (end 3.5 1.25) (layer F.CrtYd) (width 0.05))
  (fp_line (start -0.9 1.05) (end -0.9 -1.15) (layer F.SilkS) (width 0.12))
  (fp_line (start 3.3 1.05) (end -0.9 1.05) (layer F.SilkS) (width 0.12))
  (fp_line (start 3.3 -1.15) (end 3.3 1.05) (layer F.SilkS) (width 0.12))
  (fp_line (start -0.4 -1.65) (end 2.8 -1.65) (layer F.SilkS) (width 0.12))
  (fp_line (start -0.85 -1.1) (end -0.85 1) (layer F.Fab) (width 0.12))
  (fp_line (start 2.7 -1.6) (end -0.35 -1.6) (layer F.Fab) (width 0.12))
  (fp_line (start 3.25 1) (end 3.25 -1.1) (layer F.Fab) (width 0.12))
  (fp_line (start -0.85 1) (end 3.25 1) (layer F.Fab) (width 0.12))
  (fp_text user %R (at 1.25 -2.55) (layer F.Fab)
    (effects (font (size 1 1) (thickness 0.15)))
  )
  (fp_arc (start -0.35 -1.1) (end -0.35 -1.6) (angle -90) (layer F.Fab) (width 0.12))
  (fp_arc (start 2.75 -1.1) (end 3.25 -1.1) (angle -90) (layer F.Fab) (width 0.12))
  (fp_arc (start -0.4 -1.15) (end -0.4 -1.65) (angle -90) (layer F.SilkS) (width 0.12))
  (fp_arc (start 2.8 -1.15) (end 3.3 -1.15) (angle -90) (layer F.SilkS) (width 0.12))
  (pad 1 thru_hole rect (at 0 0 180) (size 1.05 1.5) (drill 0.75) (layers *.Cu *.Mask))
  (pad 2 thru_hole oval (at 2.54 0 180) (size 1.05 1.5) (drill 0.75) (layers *.Cu *.Mask))
  (model ${KISYS3DMOD}/Package_TO_SOT_THT.3dshapes/Heraeus_TO-92-2.wrl
    (at (xyz 0 0 0))
    (scale (xyz 1 1 1))
    (rotate (xyz 0 0 0))
  )
)
