(module PowerIntegrations_TO-220-7C (layer F.Cu) (tedit 60802EDC)
  (descr "Non Isolated Modified TO-220 7pin Package, see http://www.farnell.com/datasheets/5793.pdf, Alternate KiCad Library")
  (tags "Power Integration Y Package")
  (fp_text reference REF** (at 3.81 -9.398) (layer F.SilkS)
    (effects (font (size 1 1) (thickness 0.15)))
  )
  (fp_text value PowerIntegrations_TO-220-7C (at 3.81 2.22) (layer F.Fab)
    (effects (font (size 1 1) (thickness 0.15)))
  )
  (fp_line (start 9.36 1.39) (end -1.74 1.39) (layer F.CrtYd) (width 0.05))
  (fp_line (start 9.36 1.39) (end 9.36 -8.33) (layer F.CrtYd) (width 0.05))
  (fp_line (start -1.74 -8.33) (end -1.74 1.39) (layer F.CrtYd) (width 0.05))
  (fp_line (start -1.74 -8.33) (end 9.36 -8.33) (layer F.CrtYd) (width 0.05))
  (fp_line (start 9.144 -8.128) (end -1.524 -8.128) (layer F.SilkS) (width 0.15))
  (fp_line (start 9.144 -3.302) (end 6.35 -3.302) (layer F.SilkS) (width 0.15))
  (fp_line (start 9.144 -8.128) (end 9.144 -3.302) (layer F.SilkS) (width 0.15))
  (fp_line (start -1.524 -3.302) (end 1.27 -3.302) (layer F.SilkS) (width 0.15))
  (fp_line (start -1.524 -8.128) (end -1.524 -3.302) (layer F.SilkS) (width 0.15))
  (fp_line (start 9.144 -6.858) (end 5.08 -6.858) (layer F.SilkS) (width 0.15))
  (fp_line (start -1.524 -6.858) (end 0 -6.858) (layer F.SilkS) (width 0.15))
  (fp_line (start -0.49 -1.48) (end -0.508 -3.302) (layer F.SilkS) (width 0.15))
  (fp_line (start 0.51 -1.48) (end 0.508 -3.302) (layer F.SilkS) (width 0.15))
  (fp_line (start 7.112 -1.27) (end 7.112 -3.302) (layer F.SilkS) (width 0.15))
  (fp_line (start 8.128 -1.27) (end 8.128 -3.302) (layer F.SilkS) (width 0.15))
  (fp_line (start -1.49 -3.38) (end 9.11 -3.38) (layer F.Fab) (width 0.12))
  (fp_line (start 9.11 -3.38) (end 9.11 -8.08) (layer F.Fab) (width 0.12))
  (fp_line (start 9.11 -8.08) (end -1.49 -8.08) (layer F.Fab) (width 0.12))
  (fp_line (start -1.49 -8.08) (end -1.49 -3.38) (layer F.Fab) (width 0.12))
  (fp_line (start -1.49 -6.88) (end 9.11 -6.88) (layer F.Fab) (width 0.12))
  (fp_line (start 7.11 -3.38) (end 7.11 0.02) (layer F.Fab) (width 0.12))
  (fp_line (start 7.11 0.02) (end 8.11 0.02) (layer F.Fab) (width 0.12))
  (fp_line (start 8.11 0.02) (end 8.11 -3.38) (layer F.Fab) (width 0.12))
  (fp_line (start -0.49 -3.38) (end -0.49 0.02) (layer F.Fab) (width 0.12))
  (fp_line (start -0.49 0.02) (end 0.51 0.02) (layer F.Fab) (width 0.12))
  (fp_line (start 0.51 0.02) (end 0.51 -3.38) (layer F.Fab) (width 0.12))
  (fp_text user %R (at 3.81 -5.08) (layer F.Fab)
    (effects (font (size 1 1) (thickness 0.15)))
  )
  (pad 1 thru_hole rect (at 0 0) (size 1.905 2.286) (drill 1.016) (layers *.Cu *.Mask))
  (pad 7 thru_hole oval (at 7.62 0) (size 1.905 2.286) (drill 1.016) (layers *.Cu *.Mask))
  (pad 5 thru_hole oval (at 5.08 -3.81) (size 1.905 2.286) (drill 1.016) (layers *.Cu *.Mask))
  (pad 3 thru_hole oval (at 2.54 -3.81) (size 1.905 2.286) (drill 1.016) (layers *.Cu *.Mask))
  (pad 2 thru_hole oval (at 1.27 -6.35) (size 1.905 2.286) (drill 1.016) (layers *.Cu *.Mask))
  (pad 4 thru_hole oval (at 3.81 -6.35) (size 1.905 2.286) (drill 1.016) (layers *.Cu *.Mask))
  (model ${KISYS3DMOD}/Package_TO_SOT_THT.3dshapes/PowerIntegrations_TO-220-7C.wrl
    (at (xyz 0 0 0))
    (scale (xyz 1 1 1))
    (rotate (xyz 0 0 0))
  )
)
