(module TO-18-2_Zener (layer F.Cu) (tedit 608035CA)
  (descr "TO-18-2, Alternate KiCad Library")
  (tags TO-18-2)
  (fp_text reference REF** (at 1.27 -4.02) (layer F.SilkS)
    (effects (font (size 1 1) (thickness 0.15)))
  )
  (fp_text value TO-18-2_Zener (at 1.27 4.02) (layer F.Fab)
    (effects (font (size 1 1) (thickness 0.15)))
  )
  (fp_line (start 1.016 -0.5715) (end 1.143 -0.5715) (layer F.SilkS) (width 0.12))
  (fp_line (start -0.329057 -2.419301) (end -1.156372 -3.246616) (layer F.Fab) (width 0.1))
  (fp_line (start -1.156372 -3.246616) (end -1.976616 -2.426372) (layer F.Fab) (width 0.1))
  (fp_line (start -1.976616 -2.426372) (end -1.149301 -1.599057) (layer F.Fab) (width 0.1))
  (fp_line (start -0.312331 -2.572281) (end -1.224499 -3.484448) (layer F.SilkS) (width 0.12))
  (fp_line (start -1.224499 -3.484448) (end -2.214448 -2.494499) (layer F.SilkS) (width 0.12))
  (fp_line (start -2.214448 -2.494499) (end -1.302281 -1.582331) (layer F.SilkS) (width 0.12))
  (fp_line (start -2.23 -3.5) (end -2.23 3.15) (layer F.CrtYd) (width 0.05))
  (fp_line (start -2.23 3.15) (end 4.42 3.15) (layer F.CrtYd) (width 0.05))
  (fp_line (start 4.42 3.15) (end 4.42 -3.5) (layer F.CrtYd) (width 0.05))
  (fp_line (start 4.42 -3.5) (end -2.23 -3.5) (layer F.CrtYd) (width 0.05))
  (fp_circle (center 1.27 0) (end 3.67 0) (layer F.Fab) (width 0.1))
  (fp_poly (pts (xy 1.016 0) (xy 1.7145 -0.508) (xy 1.7145 0.508)) (layer F.SilkS) (width 0.1))
  (fp_line (start 1.016 0) (end 1.7145 -0.508) (layer F.SilkS) (width 0.12))
  (fp_line (start 1.7145 0.508) (end 1.016 0) (layer F.SilkS) (width 0.12))
  (fp_line (start 1.7145 -0.508) (end 1.7145 0.508) (layer F.SilkS) (width 0.12))
  (fp_line (start 1.016 0.5715) (end 1.016 -0.5715) (layer F.SilkS) (width 0.12))
  (fp_arc (start 1.27 0) (end -0.312331 -2.572281) (angle 333.2) (layer F.SilkS) (width 0.12))
  (fp_arc (start 1.27 0) (end -0.329057 -2.419301) (angle 336.9) (layer F.Fab) (width 0.1))
  (fp_text user %R (at 1.27 -4.02) (layer F.Fab)
    (effects (font (size 1 1) (thickness 0.15)))
  )
  (pad 2 thru_hole oval (at 2.54 0) (size 1.2 1.2) (drill 0.7) (layers *.Cu *.Mask))
  (pad 1 thru_hole oval (at 0 0) (size 1.6 1.2) (drill 0.7) (layers *.Cu *.Mask))
  (model ${KISYS3DMOD}/Package_TO_SOT_THT.3dshapes/TO-18-2.wrl
    (at (xyz 0 0 0))
    (scale (xyz 1 1 1))
    (rotate (xyz 0 0 0))
  )
)
