(module TO-17-4 (layer F.Cu) (tedit 6080358C)
  (descr "TO-17-4, Alternate KiCad Library")
  (tags TO-17-4)
  (fp_text reference REF** (at 0.9 -3.72) (layer F.SilkS)
    (effects (font (size 1 1) (thickness 0.15)))
  )
  (fp_text value TO-17-4 (at 0.9 3.72) (layer F.Fab)
    (effects (font (size 1 1) (thickness 0.15)))
  )
  (fp_circle (center 0.9 0) (end 3 0) (layer F.Fab) (width 0.1))
  (fp_line (start 3.75 -2.87) (end -1.97 -2.87) (layer F.CrtYd) (width 0.05))
  (fp_line (start 3.75 2.85) (end 3.75 -2.87) (layer F.CrtYd) (width 0.05))
  (fp_line (start -1.97 2.85) (end 3.75 2.85) (layer F.CrtYd) (width 0.05))
  (fp_line (start -1.97 -2.87) (end -1.97 2.85) (layer F.CrtYd) (width 0.05))
  (fp_line (start -1.959292 -2.152185) (end -1.344109 -1.537002) (layer F.SilkS) (width 0.12))
  (fp_line (start -1.252185 -2.859292) (end -1.959292 -2.152185) (layer F.SilkS) (width 0.12))
  (fp_line (start -0.637002 -2.244109) (end -1.252185 -2.859292) (layer F.SilkS) (width 0.12))
  (fp_line (start -1.717766 -2.080365) (end -1.187436 -1.550035) (layer F.Fab) (width 0.1))
  (fp_line (start -1.180365 -2.617766) (end -1.717766 -2.080365) (layer F.Fab) (width 0.1))
  (fp_line (start -0.650035 -2.087436) (end -1.180365 -2.617766) (layer F.Fab) (width 0.1))
  (fp_arc (start 0.9 0) (end -0.637002 -2.244109) (angle 338.8) (layer F.SilkS) (width 0.12))
  (fp_arc (start 0.9 0) (end -0.650035 -2.087436) (angle 343.2) (layer F.Fab) (width 0.1))
  (fp_text user %R (at 0.9 -3.72) (layer F.Fab)
    (effects (font (size 1 1) (thickness 0.15)))
  )
  (pad 4 thru_hole oval (at 0.9 -0.9) (size 0.9 0.9) (drill 0.6) (layers *.Cu *.Mask))
  (pad 3 thru_hole oval (at 1.8 0) (size 0.9 0.9) (drill 0.6) (layers *.Cu *.Mask))
  (pad 2 thru_hole oval (at 0.9 0.9) (size 0.9 0.9) (drill 0.6) (layers *.Cu *.Mask))
  (pad 1 thru_hole oval (at 0 0) (size 1.2 0.9) (drill 0.6) (layers *.Cu *.Mask))
  (model ${KISYS3DMOD}/Package_TO_SOT_THT.3dshapes/TO-17-4.wrl
    (at (xyz 0 0 0))
    (scale (xyz 1 1 1))
    (rotate (xyz 0 0 0))
  )
)
