(module TO-100-10_Window (layer F.Cu) (tedit 60803961)
  (descr "TO-100-10_Window, Window, Alternate KiCad Library")
  (tags "TO-100-10_Window Window")
  (fp_text reference REF** (at 2.92 -5.82) (layer F.SilkS)
    (effects (font (size 1 1) (thickness 0.15)))
  )
  (fp_text value TO-100-10_Window (at 2.92 5.82) (layer F.Fab)
    (effects (font (size 1 1) (thickness 0.15)))
  )
  (fp_line (start 7.87 -4.95) (end -2.04 -4.95) (layer F.CrtYd) (width 0.05))
  (fp_line (start 7.87 4.95) (end 7.87 -4.95) (layer F.CrtYd) (width 0.05))
  (fp_line (start -2.04 4.95) (end 7.87 4.95) (layer F.CrtYd) (width 0.05))
  (fp_line (start -2.04 -4.95) (end -2.04 4.95) (layer F.CrtYd) (width 0.05))
  (fp_line (start -1.745856 -3.888039) (end -0.854902 -2.997084) (layer F.SilkS) (width 0.12))
  (fp_line (start -0.968039 -4.665856) (end -1.745856 -3.888039) (layer F.SilkS) (width 0.12))
  (fp_line (start -0.077084 -3.774902) (end -0.968039 -4.665856) (layer F.SilkS) (width 0.12))
  (fp_line (start 0.283 1.324) (end 1.596 2.637) (layer F.Fab) (width 0.1))
  (fp_line (start 0.009 0.485) (end 2.435 2.911) (layer F.Fab) (width 0.1))
  (fp_line (start -0.028 -0.12) (end 3.04 2.948) (layer F.Fab) (width 0.1))
  (fp_line (start 0.036 -0.622) (end 3.542 2.884) (layer F.Fab) (width 0.1))
  (fp_line (start 0.165 -1.058) (end 3.978 2.755) (layer F.Fab) (width 0.1))
  (fp_line (start 0.346 -1.443) (end 4.363 2.574) (layer F.Fab) (width 0.1))
  (fp_line (start 0.57 -1.784) (end 4.704 2.35) (layer F.Fab) (width 0.1))
  (fp_line (start 0.834 -2.086) (end 5.006 2.086) (layer F.Fab) (width 0.1))
  (fp_line (start 1.136 -2.35) (end 5.27 1.784) (layer F.Fab) (width 0.1))
  (fp_line (start 1.477 -2.574) (end 5.494 1.443) (layer F.Fab) (width 0.1))
  (fp_line (start 1.862 -2.755) (end 5.675 1.058) (layer F.Fab) (width 0.1))
  (fp_line (start 2.298 -2.884) (end 5.804 0.622) (layer F.Fab) (width 0.1))
  (fp_line (start 2.8 -2.948) (end 5.868 0.12) (layer F.Fab) (width 0.1))
  (fp_line (start 3.405 -2.911) (end 5.831 -0.485) (layer F.Fab) (width 0.1))
  (fp_line (start 4.244 -2.637) (end 5.557 -1.324) (layer F.Fab) (width 0.1))
  (fp_line (start -1.499621 -3.81151) (end -0.69352 -3.005408) (layer F.Fab) (width 0.1))
  (fp_line (start -0.89151 -4.419621) (end -1.499621 -3.81151) (layer F.Fab) (width 0.1))
  (fp_line (start -0.085408 -3.61352) (end -0.89151 -4.419621) (layer F.Fab) (width 0.1))
  (fp_circle (center 2.92 0) (end 5.87 0) (layer F.Fab) (width 0.1))
  (fp_circle (center 2.92 0) (end 7.17 0) (layer F.Fab) (width 0.1))
  (fp_text user %R (at 2.92 -5.82) (layer F.Fab)
    (effects (font (size 1 1) (thickness 0.15)))
  )
  (fp_arc (start 2.92 0) (end -0.077084 -3.774902) (angle 346.9) (layer F.SilkS) (width 0.12))
  (fp_arc (start 2.92 0) (end -0.085408 -3.61352) (angle 349.5) (layer F.Fab) (width 0.1))
  (pad 10 thru_hole oval (at 0.55767 -1.716333) (size 1.2 1.2) (drill 0.7) (layers *.Cu *.Mask))
  (pad 9 thru_hole oval (at 2.01767 -2.777085) (size 1.2 1.2) (drill 0.7) (layers *.Cu *.Mask))
  (pad 8 thru_hole oval (at 3.82233 -2.777085) (size 1.2 1.2) (drill 0.7) (layers *.Cu *.Mask))
  (pad 7 thru_hole oval (at 5.28233 -1.716333) (size 1.2 1.2) (drill 0.7) (layers *.Cu *.Mask))
  (pad 6 thru_hole oval (at 5.84 0) (size 1.2 1.2) (drill 0.7) (layers *.Cu *.Mask))
  (pad 5 thru_hole oval (at 5.28233 1.716333) (size 1.2 1.2) (drill 0.7) (layers *.Cu *.Mask))
  (pad 4 thru_hole oval (at 3.82233 2.777085) (size 1.2 1.2) (drill 0.7) (layers *.Cu *.Mask))
  (pad 3 thru_hole oval (at 2.01767 2.777085) (size 1.2 1.2) (drill 0.7) (layers *.Cu *.Mask))
  (pad 2 thru_hole oval (at 0.55767 1.716333) (size 1.2 1.2) (drill 0.7) (layers *.Cu *.Mask))
  (pad 1 thru_hole oval (at 0 0) (size 1.6 1.2) (drill 0.7) (layers *.Cu *.Mask))
  (model ${KISYS3DMOD}/Package_TO_SOT_THT.3dshapes/TO-100-10_Window.wrl
    (at (xyz 0 0 0))
    (scale (xyz 1 1 1))
    (rotate (xyz 0 0 0))
  )
)
