(module TO-126-3_Horizontal_TabUp (layer F.Cu) (tedit 6080397D)
  (descr "TO-126-3, Horizontal, RM 2.54mm, see https://www.diodes.com/assets/Package-Files/TO126.pdf, Alternate KiCad Library")
  (tags "TO-126-3 Horizontal RM 2.54mm")
  (fp_text reference REF** (at 2.54 16.12) (layer F.SilkS)
    (effects (font (size 1 1) (thickness 0.15)))
  )
  (fp_text value TO-126-3_Horizontal_TabUp (at 2.54 -1.9) (layer F.Fab)
    (effects (font (size 1 1) (thickness 0.15)))
  )
  (fp_line (start 5.334 1.143) (end 5.334 3.8735) (layer F.SilkS) (width 0.12))
  (fp_line (start 4.826 3.8735) (end 4.826 1.143) (layer F.SilkS) (width 0.12))
  (fp_line (start 2.794 1.143) (end 2.794 3.8735) (layer F.SilkS) (width 0.12))
  (fp_line (start 2.286 3.8735) (end 2.286 1.143) (layer F.SilkS) (width 0.12))
  (fp_line (start 0.254 1.143) (end 0.254 3.8735) (layer F.SilkS) (width 0.12))
  (fp_line (start -0.254 3.8735) (end -0.254 1.143) (layer F.SilkS) (width 0.12))
  (fp_line (start 6.79 -1.15) (end -1.71 -1.15) (layer F.CrtYd) (width 0.05))
  (fp_line (start 6.79 15.25) (end 6.79 -1.15) (layer F.CrtYd) (width 0.05))
  (fp_line (start -1.71 15.25) (end 6.79 15.25) (layer F.CrtYd) (width 0.05))
  (fp_line (start -1.71 -1.15) (end -1.71 15.25) (layer F.CrtYd) (width 0.05))
  (fp_line (start 6.66 3.88) (end 6.66 15.12) (layer F.SilkS) (width 0.12))
  (fp_line (start -1.58 3.88) (end -1.58 15.12) (layer F.SilkS) (width 0.12))
  (fp_line (start -1.58 15.12) (end 6.66 15.12) (layer F.SilkS) (width 0.12))
  (fp_line (start -1.58 3.88) (end 6.66 3.88) (layer F.SilkS) (width 0.12))
  (fp_line (start 5.08 4) (end 5.08 0) (layer F.Fab) (width 0.1))
  (fp_line (start 2.54 4) (end 2.54 0) (layer F.Fab) (width 0.1))
  (fp_line (start 0 4) (end 0 0) (layer F.Fab) (width 0.1))
  (fp_line (start 6.54 4) (end -1.46 4) (layer F.Fab) (width 0.1))
  (fp_line (start 6.54 15) (end 6.54 4) (layer F.Fab) (width 0.1))
  (fp_line (start -1.46 15) (end 6.54 15) (layer F.Fab) (width 0.1))
  (fp_line (start -1.46 4) (end -1.46 15) (layer F.Fab) (width 0.1))
  (fp_circle (center 2.54 11.1) (end 4.14 11.1) (layer F.Fab) (width 0.1))
  (fp_circle (center 2.54 11.0998) (end 0.635 11.1252) (layer F.SilkS) (width 0.12))
  (fp_text user %R (at 2.54 16.12) (layer F.Fab)
    (effects (font (size 1 1) (thickness 0.15)))
  )
  (pad 3 thru_hole oval (at 5.08 0) (size 1.8 1.8) (drill 1) (layers *.Cu *.Mask))
  (pad 2 thru_hole oval (at 2.54 0) (size 1.8 1.8) (drill 1) (layers *.Cu *.Mask))
  (pad 1 thru_hole rect (at 0 0) (size 1.8 1.8) (drill 1) (layers *.Cu *.Mask))
  (pad "" np_thru_hole oval (at 2.54 11.1) (size 3.2 3.2) (drill 3.2) (layers *.Cu *.Mask))
  (model ${KISYS3DMOD}/Package_TO_SOT_THT.3dshapes/TO-126-3_Horizontal_TabUp.wrl
    (at (xyz 0 0 0))
    (scale (xyz 1 1 1))
    (rotate (xyz 0 0 0))
  )
)
