(module TO-220F-2_Horizontal_TabDown (layer F.Cu) (tedit 60803DBA)
  (descr "TO-220F-2, Horizontal, RM 5.08mm, see http://www.onsemi.com/pub/Collateral/FFPF10F150S-D.pdf, Alternate KiCad Library")
  (tags "TO-220F-2 Horizontal RM 5.08mm")
  (fp_text reference REF** (at 2.54 -20.22) (layer F.SilkS)
    (effects (font (size 1 1) (thickness 0.15)))
  )
  (fp_text value TO-220F-2_Horizontal_TabDown (at 2.54 2) (layer F.Fab)
    (effects (font (size 1 1) (thickness 0.15)))
  )
  (fp_line (start 4.58 -3.048) (end 4.58 -1.4) (layer F.SilkS) (width 0.12))
  (fp_line (start 5.58 -3.048) (end 5.58 -1.4) (layer F.SilkS) (width 0.12))
  (fp_line (start 4.58 -1.4) (end 4.78 -1.2) (layer F.SilkS) (width 0.12))
  (fp_line (start 5.58 -1.4) (end 5.38 -1.2) (layer F.SilkS) (width 0.12))
  (fp_line (start -0.5 -3.048) (end -0.5 -1.4) (layer F.SilkS) (width 0.12))
  (fp_line (start 0.5 -1.4) (end 0.3 -1.2) (layer F.SilkS) (width 0.12))
  (fp_line (start -0.5 -1.4) (end -0.3 -1.2) (layer F.SilkS) (width 0.12))
  (fp_line (start 0.5 -3.048) (end 0.5 -1.4) (layer F.SilkS) (width 0.12))
  (fp_line (start 7.92 -19.35) (end -2.84 -19.35) (layer F.CrtYd) (width 0.05))
  (fp_line (start 7.92 1.25) (end 7.92 -19.35) (layer F.CrtYd) (width 0.05))
  (fp_line (start -2.84 1.25) (end 7.92 1.25) (layer F.CrtYd) (width 0.05))
  (fp_line (start -2.84 -19.35) (end -2.84 1.25) (layer F.CrtYd) (width 0.05))
  (fp_line (start 7.79 -19.22) (end 7.79 -3.11) (layer F.SilkS) (width 0.12))
  (fp_line (start -2.71 -19.22) (end -2.71 -3.11) (layer F.SilkS) (width 0.12))
  (fp_line (start -2.71 -19.22) (end 7.79 -19.22) (layer F.SilkS) (width 0.12))
  (fp_line (start -2.71 -3.11) (end 7.79 -3.11) (layer F.SilkS) (width 0.12))
  (fp_line (start 5.08 -3.23) (end 5.08 0) (layer F.Fab) (width 0.1))
  (fp_line (start 0 -3.23) (end 0 0) (layer F.Fab) (width 0.1))
  (fp_line (start 7.67 -3.23) (end -2.59 -3.23) (layer F.Fab) (width 0.1))
  (fp_line (start 7.67 -12.42) (end 7.67 -3.23) (layer F.Fab) (width 0.1))
  (fp_line (start -2.59 -12.42) (end 7.67 -12.42) (layer F.Fab) (width 0.1))
  (fp_line (start -2.59 -3.23) (end -2.59 -12.42) (layer F.Fab) (width 0.1))
  (fp_line (start 7.67 -12.42) (end -2.59 -12.42) (layer F.Fab) (width 0.1))
  (fp_line (start 7.67 -19.1) (end 7.67 -12.42) (layer F.Fab) (width 0.1))
  (fp_line (start -2.59 -19.1) (end 7.67 -19.1) (layer F.Fab) (width 0.1))
  (fp_line (start -2.59 -12.42) (end -2.59 -19.1) (layer F.Fab) (width 0.1))
  (fp_circle (center 2.54 -15.8) (end 4.39 -15.8) (layer F.Fab) (width 0.1))
  (fp_line (start -2.7 -12.4) (end 7.75 -12.4) (layer F.SilkS) (width 0.12))
  (fp_text user %R (at 2.54 -20.22) (layer F.Fab)
    (effects (font (size 1 1) (thickness 0.15)))
  )
  (pad 2 thru_hole oval (at 5.08 0) (size 2 2) (drill 1.2) (layers *.Cu *.Mask))
  (pad 1 thru_hole rect (at 0 0) (size 2 2) (drill 1.2) (layers *.Cu *.Mask))
  (pad "" np_thru_hole oval (at 2.54 -15.8) (size 3.5 3.5) (drill 3.5) (layers *.Cu *.Mask))
  (model ${KISYS3DMOD}/Package_TO_SOT_THT.3dshapes/TO-220F-2_Horizontal_TabDown.wrl
    (at (xyz 0 0 0))
    (scale (xyz 1 1 1))
    (rotate (xyz 0 0 0))
  )
)
