(module TO-220F-3_Vertical_KAK (layer F.Cu) (tedit 60803EA2)
  (descr "TO-220F-3, Vertical, RM 2.54mm, see http://www.st.com/resource/en/datasheet/stp20nm60.pdf, Alternate KiCad Library")
  (tags "TO-220F-3 Vertical RM 2.54mm")
  (fp_text reference REF** (at 2.54 -4.1675) (layer F.SilkS)
    (effects (font (size 1 1) (thickness 0.15)))
  )
  (fp_text value TO-220F-3_Vertical_KAK (at 2.54 2.9025) (layer F.Fab)
    (effects (font (size 1 1) (thickness 0.15)))
  )
  (fp_line (start 0 2.0955) (end 0 3.2385) (layer F.SilkS) (width 0.12))
  (fp_circle (center 2.54 3.2385) (end 2.54 3.302) (layer F.SilkS) (width 0.12))
  (fp_line (start 0 3.2385) (end 0.508 3.2385) (layer F.SilkS) (width 0.12))
  (fp_line (start 0.508 3.2385) (end 2.032 2.286) (layer F.SilkS) (width 0.12))
  (fp_line (start 0.508 2.286) (end 0.508 4.191) (layer F.SilkS) (width 0.2))
  (fp_line (start 2.54 3.2385) (end 3.048 3.2385) (layer F.SilkS) (width 0.12))
  (fp_poly (pts (xy 0.508 3.2385) (xy 2.032 2.286) (xy 2.032 4.191)) (layer F.SilkS) (width 0.1))
  (fp_poly (pts (xy 3.048 2.286) (xy 4.572 3.2385) (xy 3.048 4.191)) (layer F.SilkS) (width 0.1))
  (fp_line (start 3.048 2.286) (end 3.048 4.191) (layer F.SilkS) (width 0.12))
  (fp_line (start 5.08 2.0955) (end 5.08 3.2385) (layer F.SilkS) (width 0.12))
  (fp_circle (center 2.54 3.2385) (end 2.54 3.429) (layer F.SilkS) (width 0.12))
  (fp_line (start 2.032 2.4765) (end 2.032 2.286) (layer F.SilkS) (width 0.12))
  (fp_line (start 2.032 4.0005) (end 2.032 4.191) (layer F.SilkS) (width 0.12))
  (fp_line (start 4.572 4.191) (end 4.572 2.286) (layer F.SilkS) (width 0.2))
  (fp_line (start 3.048 4.191) (end 4.572 3.2385) (layer F.SilkS) (width 0.12))
  (fp_line (start 5.08 3.2385) (end 4.572 3.2385) (layer F.SilkS) (width 0.12))
  (fp_line (start 2.54 3.2385) (end 2.032 3.2385) (layer F.SilkS) (width 0.12))
  (fp_line (start 2.54 2.0955) (end 2.54 3.2385) (layer F.SilkS) (width 0.12))
  (fp_line (start 4.572 3.2385) (end 3.048 2.286) (layer F.SilkS) (width 0.12))
  (fp_line (start 2.032 4.0005) (end 2.032 2.4765) (layer F.SilkS) (width 0.12))
  (fp_circle (center 2.54 3.2385) (end 2.54 3.3655) (layer F.SilkS) (width 0.12))
  (fp_line (start 0.508 3.2385) (end 2.032 4.191) (layer F.SilkS) (width 0.12))
  (fp_line (start -2.59 -3.0475) (end -2.59 1.6525) (layer F.Fab) (width 0.1))
  (fp_line (start -2.59 1.6525) (end 7.67 1.6525) (layer F.Fab) (width 0.1))
  (fp_line (start 7.67 1.6525) (end 7.67 -3.0475) (layer F.Fab) (width 0.1))
  (fp_line (start 7.67 -3.0475) (end -2.59 -3.0475) (layer F.Fab) (width 0.1))
  (fp_line (start -2.59 -0.5275) (end 7.67 -0.5275) (layer F.Fab) (width 0.1))
  (fp_line (start 0.69 -3.0475) (end 0.69 -0.5275) (layer F.Fab) (width 0.1))
  (fp_line (start 4.39 -3.0475) (end 4.39 -0.5275) (layer F.Fab) (width 0.1))
  (fp_line (start -2.71 -3.168) (end 7.79 -3.168) (layer F.SilkS) (width 0.12))
  (fp_line (start -2.71 1.773) (end 7.79 1.773) (layer F.SilkS) (width 0.12))
  (fp_line (start -2.71 -3.168) (end -2.71 1.773) (layer F.SilkS) (width 0.12))
  (fp_line (start 7.79 -3.168) (end 7.79 1.773) (layer F.SilkS) (width 0.12))
  (fp_line (start -2.71 -0.408) (end -1.103 -0.408) (layer F.SilkS) (width 0.12))
  (fp_line (start 1.103 -0.408) (end 1.438 -0.408) (layer F.SilkS) (width 0.12))
  (fp_line (start 3.643 -0.408) (end 3.978 -0.408) (layer F.SilkS) (width 0.12))
  (fp_line (start 6.183 -0.408) (end 7.79 -0.408) (layer F.SilkS) (width 0.12))
  (fp_line (start 0.69 -3.168) (end 0.69 -1.15) (layer F.SilkS) (width 0.12))
  (fp_line (start 4.391 -3.168) (end 4.391 -1.15) (layer F.SilkS) (width 0.12))
  (fp_line (start -2.84 -3.3) (end -2.84 1.91) (layer F.CrtYd) (width 0.05))
  (fp_line (start -2.84 1.91) (end 7.92 1.91) (layer F.CrtYd) (width 0.05))
  (fp_line (start 7.92 1.91) (end 7.92 -3.3) (layer F.CrtYd) (width 0.05))
  (fp_line (start 7.92 -3.3) (end -2.84 -3.3) (layer F.CrtYd) (width 0.05))
  (fp_text user %R (at 2.54 -4.1675) (layer F.Fab)
    (effects (font (size 1 1) (thickness 0.15)))
  )
  (pad 3 thru_hole oval (at 5.08 0) (size 1.905 2) (drill 1.2) (layers *.Cu *.Mask))
  (pad 2 thru_hole oval (at 2.54 0) (size 1.905 2) (drill 1.2) (layers *.Cu *.Mask))
  (pad 1 thru_hole rect (at 0 0) (size 1.905 2) (drill 1.2) (layers *.Cu *.Mask))
  (model ${KISYS3DMOD}/Package_TO_SOT_THT.3dshapes/TO-220F-3_Vertical.wrl
    (at (xyz 0 0 0))
    (scale (xyz 1 1 1))
    (rotate (xyz 0 0 0))
  )
)
