(module TO-251-3-1EP_Horizontal_TabDown (layer F.Cu) (tedit 60803FB9)
  (descr "TO-251-3, Horizontal, RM 2.29mm, IPAK, see https://www.diodes.com/assets/Package-Files/TO251.pdf, Alternate KiCad Library")
  (tags "TO-251-3 Horizontal RM 2.29mm IPAK")
  (fp_text reference REF** (at 2.29 -11.653333) (layer F.SilkS)
    (effects (font (size 1 1) (thickness 0.15)))
  )
  (fp_text value TO-251-3-1EP_Horizontal_TabDown (at 2.29 1.9) (layer F.Fab)
    (effects (font (size 1 1) (thickness 0.15)))
  )
  (fp_line (start 2.54 -1.0795) (end 2.54 -2.3495) (layer F.SilkS) (width 0.12))
  (fp_line (start 2.032 -2.3495) (end 2.032 -1.0795) (layer F.SilkS) (width 0.12))
  (fp_line (start 5.7 -10.7315) (end 5.7 -2.38) (layer F.SilkS) (width 0.12))
  (fp_line (start -1.12 -10.7315) (end 5.7 -10.7315) (layer F.SilkS) (width 0.12))
  (fp_line (start -0.254 -2.3495) (end -0.254 -1.143) (layer F.SilkS) (width 0.12))
  (fp_line (start 0.254 -1.143) (end 0.254 -2.3495) (layer F.SilkS) (width 0.12))
  (fp_line (start -1.12 -2.38) (end 5.7 -2.38) (layer F.SilkS) (width 0.12))
  (fp_line (start 4.318 -2.3495) (end 4.318 -1.0795) (layer F.SilkS) (width 0.12))
  (fp_line (start -1.12 -10.7315) (end -1.12 -2.38) (layer F.SilkS) (width 0.12))
  (fp_line (start 4.826 -1.0795) (end 4.826 -2.3495) (layer F.SilkS) (width 0.12))
  (fp_line (start -0.38 -8.6) (end -0.38 -9.5) (layer F.Fab) (width 0.1))
  (fp_line (start -0.38 -9.5) (end 4.96 -9.5) (layer F.Fab) (width 0.1))
  (fp_line (start 4.96 -9.5) (end 4.96 -8.6) (layer F.Fab) (width 0.1))
  (fp_line (start 4.96 -8.6) (end -0.38 -8.6) (layer F.Fab) (width 0.1))
  (fp_line (start -1 -2.5) (end -1 -8.6) (layer F.Fab) (width 0.1))
  (fp_line (start -1 -8.6) (end 5.58 -8.6) (layer F.Fab) (width 0.1))
  (fp_line (start 5.58 -8.6) (end 5.58 -2.5) (layer F.Fab) (width 0.1))
  (fp_line (start 5.58 -2.5) (end -1 -2.5) (layer F.Fab) (width 0.1))
  (fp_line (start 0 -2.5) (end 0 0) (layer F.Fab) (width 0.1))
  (fp_line (start 2.29 -2.5) (end 2.29 0) (layer F.Fab) (width 0.1))
  (fp_line (start 4.58 -2.5) (end 4.58 0) (layer F.Fab) (width 0.1))
  (fp_line (start -1.25 -10.79) (end -1.25 1.16) (layer F.CrtYd) (width 0.05))
  (fp_line (start -1.25 1.16) (end 5.83 1.16) (layer F.CrtYd) (width 0.05))
  (fp_line (start 5.83 1.16) (end 5.83 -10.79) (layer F.CrtYd) (width 0.05))
  (fp_line (start 5.83 -10.79) (end -1.25 -10.79) (layer F.CrtYd) (width 0.05))
  (fp_text user %R (at 2.29 -11.653333) (layer F.Fab)
    (effects (font (size 1 1) (thickness 0.15)))
  )
  (pad 3 thru_hole oval (at 4.58 0) (size 1.7175 1.8) (drill 1.1) (layers *.Cu *.Mask))
  (pad 2 thru_hole oval (at 2.29 0) (size 1.7175 1.8) (drill 1.1) (layers *.Cu *.Mask))
  (pad 1 thru_hole rect (at 0 0) (size 1.7175 1.8) (drill 1.1) (layers *.Cu *.Mask))
  (pad 4 smd rect (at 2.29 -7.433333) (size 5.7 6.2) (layers F.Cu F.Paste F.Mask))
  (model ${KISYS3DMOD}/Package_TO_SOT_THT.3dshapes/TO-251-3-1EP_Horizontal_TabDown.wrl
    (at (xyz 0 0 0))
    (scale (xyz 1 1 1))
    (rotate (xyz 0 0 0))
  )
)
