(module TO-264-2_Horizontal_TabDown (layer F.Cu) (tedit 60803FE2)
  (descr "TO-264-2, Horizontal, RM 10.9mm, see https://www.fairchildsemi.com/package-drawings/TO/TO264A03.pdf, Alternate KiCad Library")
  (tags "TO-264-2 Horizontal RM 10.9mm")
  (fp_text reference REF** (at 5.45 -32.2) (layer F.SilkS)
    (effects (font (size 1 1) (thickness 0.15)))
  )
  (fp_text value TO-264-2_Horizontal_TabDown (at 5.45 3.25) (layer F.Fab)
    (effects (font (size 1 1) (thickness 0.15)))
  )
  (fp_line (start 11.9 -4) (end 11.9 -4.9) (layer F.SilkS) (width 0.12))
  (fp_line (start 11.3 -2.5) (end 11.3 -3.3) (layer F.SilkS) (width 0.12))
  (fp_line (start 11.3 -3.3) (end 11.9 -4) (layer F.SilkS) (width 0.12))
  (fp_line (start 9.9 -4) (end 10.5 -3.3) (layer F.SilkS) (width 0.12))
  (fp_line (start 10.5 -3.3) (end 10.5 -2.5) (layer F.SilkS) (width 0.12))
  (fp_line (start 9.9 -4.9) (end 9.9 -4) (layer F.SilkS) (width 0.12))
  (fp_line (start 1 -4) (end 1 -4.9) (layer F.SilkS) (width 0.12))
  (fp_line (start 0.4 -3.3) (end 1 -4) (layer F.SilkS) (width 0.12))
  (fp_line (start 0.4 -2.5) (end 0.4 -3.3) (layer F.SilkS) (width 0.12))
  (fp_line (start -0.4 -3.3) (end -0.4 -2.5) (layer F.SilkS) (width 0.12))
  (fp_line (start -1 -4) (end -0.4 -3.3) (layer F.SilkS) (width 0.12))
  (fp_line (start -1 -4.9) (end -1 -4) (layer F.SilkS) (width 0.12))
  (fp_line (start 9.5 -4.96) (end 15.57 -4.96) (layer F.SilkS) (width 0.12))
  (fp_line (start 2.9 -4.96) (end 8 -4.96) (layer F.SilkS) (width 0.12))
  (fp_line (start 8 -6) (end 8 -4.96) (layer F.SilkS) (width 0.12))
  (fp_line (start 9.5 -6) (end 8 -6) (layer F.SilkS) (width 0.12))
  (fp_line (start 9.5 -4.96) (end 9.5 -6) (layer F.SilkS) (width 0.12))
  (fp_line (start 2.9 -6) (end 2.9 -4.96) (layer F.SilkS) (width 0.12))
  (fp_line (start 1.4 -6) (end 2.9 -6) (layer F.SilkS) (width 0.12))
  (fp_line (start 1.4 -4.96) (end 1.4 -6) (layer F.SilkS) (width 0.12))
  (fp_line (start 15.7 -31.33) (end -4.8 -31.33) (layer F.CrtYd) (width 0.05))
  (fp_line (start 15.7 2.5) (end 15.7 -31.33) (layer F.CrtYd) (width 0.05))
  (fp_line (start -4.8 2.5) (end 15.7 2.5) (layer F.CrtYd) (width 0.05))
  (fp_line (start -4.8 -31.33) (end -4.8 2.5) (layer F.CrtYd) (width 0.05))
  (fp_line (start 15.57 -31.2) (end 15.57 -4.96) (layer F.SilkS) (width 0.12))
  (fp_line (start -4.67 -31.2) (end -4.67 -4.96) (layer F.SilkS) (width 0.12))
  (fp_line (start -4.67 -31.2) (end 15.57 -31.2) (layer F.SilkS) (width 0.12))
  (fp_line (start -4.67 -4.96) (end 1.4 -4.96) (layer F.SilkS) (width 0.12))
  (fp_line (start 10.9 -5.08) (end 10.9 0) (layer F.Fab) (width 0.1))
  (fp_line (start 0 -5.08) (end 0 0) (layer F.Fab) (width 0.1))
  (fp_line (start 15.45 -5.08) (end -4.55 -5.08) (layer F.Fab) (width 0.1))
  (fp_line (start 15.45 -31.08) (end 15.45 -5.08) (layer F.Fab) (width 0.1))
  (fp_line (start -4.55 -31.08) (end 15.45 -31.08) (layer F.Fab) (width 0.1))
  (fp_line (start -4.55 -5.08) (end -4.55 -31.08) (layer F.Fab) (width 0.1))
  (fp_circle (center 5.45 -25.08) (end 7.1 -25.08) (layer F.Fab) (width 0.1))
  (fp_text user %R (at 5.45 -32.2) (layer F.Fab)
    (effects (font (size 1 1) (thickness 0.15)))
  )
  (fp_arc (start 15.5 -25) (end 15.5 -27.5) (angle -180) (layer F.SilkS) (width 0.12))
  (fp_arc (start -4.6 -25) (end -4.6 -22.5) (angle -180) (layer F.SilkS) (width 0.12))
  (pad 2 thru_hole oval (at 10.9 0) (size 2.5 4.5) (drill 1.5) (layers *.Cu *.Mask))
  (pad 1 thru_hole rect (at 0 0) (size 2.5 4.5) (drill 1.5) (layers *.Cu *.Mask))
  (pad "" np_thru_hole oval (at 5.45 -25.08) (size 3.3 3.3) (drill 3.3) (layers *.Cu *.Mask))
  (model ${KISYS3DMOD}/Package_TO_SOT_THT.3dshapes/TO-264-2_Horizontal_TabDown.wrl
    (at (xyz 0 0 0))
    (scale (xyz 1 1 1))
    (rotate (xyz 0 0 0))
  )
)
