(module TO-220-5_Vertical (layer F.Cu) (tedit 60803D52)
  (descr "TO-220-5, Vertical, RM 1.7mm, Pentawatt, Multiwatt-5, see http://www.analog.com/media/en/package-pcb-resources/package/pkg_pdf/ltc-legacy-to-220/to-220_5_05-08-1421_straight_lead.pdf, Alternate KiCad Library")
  (tags "TO-220-5 Vertical RM 1.7mm Pentawatt Multiwatt-5")
  (fp_text reference REF** (at 3.4 -4.27) (layer F.SilkS)
    (effects (font (size 1 1) (thickness 0.15)))
  )
  (fp_text value TO-220-5_Vertical (at 3.4 2.5) (layer F.Fab)
    (effects (font (size 1 1) (thickness 0.15)))
  )
  (fp_line (start 8.65 -3.4) (end -1.85 -3.4) (layer F.CrtYd) (width 0.05))
  (fp_line (start 8.65 1.51) (end 8.65 -3.4) (layer F.CrtYd) (width 0.05))
  (fp_line (start -1.85 1.51) (end 8.65 1.51) (layer F.CrtYd) (width 0.05))
  (fp_line (start -1.85 -3.4) (end -1.85 1.51) (layer F.CrtYd) (width 0.05))
  (fp_line (start 5.25 -3.27) (end 5.25 -1.76) (layer F.SilkS) (width 0.12))
  (fp_line (start 1.55 -3.27) (end 1.55 -1.76) (layer F.SilkS) (width 0.12))
  (fp_line (start -1.721 -1.76) (end 8.52 -1.76) (layer F.SilkS) (width 0.12))
  (fp_line (start 8.52 -3.27) (end 8.52 1.371) (layer F.SilkS) (width 0.12))
  (fp_line (start -1.721 -3.27) (end -1.721 1.371) (layer F.SilkS) (width 0.12))
  (fp_line (start -1.721 1.371) (end 8.52 1.371) (layer F.SilkS) (width 0.12))
  (fp_line (start -1.721 -3.27) (end 8.52 -3.27) (layer F.SilkS) (width 0.12))
  (fp_line (start 5.25 -3.15) (end 5.25 -1.88) (layer F.Fab) (width 0.1))
  (fp_line (start 1.55 -3.15) (end 1.55 -1.88) (layer F.Fab) (width 0.1))
  (fp_line (start -1.6 -1.88) (end 8.4 -1.88) (layer F.Fab) (width 0.1))
  (fp_line (start 8.4 -3.15) (end -1.6 -3.15) (layer F.Fab) (width 0.1))
  (fp_line (start 8.4 1.25) (end 8.4 -3.15) (layer F.Fab) (width 0.1))
  (fp_line (start -1.6 1.25) (end 8.4 1.25) (layer F.Fab) (width 0.1))
  (fp_line (start -1.6 -3.15) (end -1.6 1.25) (layer F.Fab) (width 0.1))
  (fp_text user %R (at 3.4 -4.27) (layer F.Fab)
    (effects (font (size 1 1) (thickness 0.15)))
  )
  (pad 5 thru_hole oval (at 6.8 0) (size 1.275 1.8) (drill 1.1) (layers *.Cu *.Mask))
  (pad 4 thru_hole oval (at 5.1 0) (size 1.275 1.8) (drill 1.1) (layers *.Cu *.Mask))
  (pad 3 thru_hole oval (at 3.4 0) (size 1.275 1.8) (drill 1.1) (layers *.Cu *.Mask))
  (pad 2 thru_hole oval (at 1.7 0) (size 1.275 1.8) (drill 1.1) (layers *.Cu *.Mask))
  (pad 1 thru_hole rect (at 0 0) (size 1.275 1.8) (drill 1.1) (layers *.Cu *.Mask))
  (model ${KISYS3DMOD}/Package_TO_SOT_THT.3dshapes/TO-220-5_Vertical.wrl
    (at (xyz 0 0 0))
    (scale (xyz 1 1 1))
    (rotate (xyz 0 0 0))
  )
)
