(module TO-218-2_Horizontal_TabDown (layer F.Cu) (tedit 608039BC)
  (descr "TO-218-2, Horizontal, RM 10.95mm, SOT-93, see https://www.vishay.com/docs/95214/fto218.pdf, Alternate KiCad Library")
  (tags "TO-218-2 Horizontal RM 10.95mm SOT-93")
  (fp_text reference REF** (at 5.475 -23.45) (layer F.SilkS)
    (effects (font (size 1 1) (thickness 0.15)))
  )
  (fp_text value TO-218-2_Horizontal_TabDown (at 5.475 2.75) (layer F.Fab)
    (effects (font (size 1 1) (thickness 0.15)))
  )
  (fp_line (start 11.85 -2.2) (end 11.85 -1.65) (layer F.SilkS) (width 0.12))
  (fp_line (start 10.05 -2.2) (end 10.05 -1.65) (layer F.SilkS) (width 0.12))
  (fp_line (start 0.9 -2.2) (end 0.9 -2) (layer F.SilkS) (width 0.12))
  (fp_line (start -0.9 -2.2) (end -0.9 -2) (layer F.SilkS) (width 0.12))
  (fp_line (start -2.1 -14.55) (end 13.05 -14.55) (layer F.SilkS) (width 0.12))
  (fp_line (start 13.05 -20.5) (end 11 -22.55) (layer F.SilkS) (width 0.12))
  (fp_line (start -2.1 -20.5) (end -0.05 -22.55) (layer F.SilkS) (width 0.12))
  (fp_line (start 13.05 -2.25) (end -2.1 -2.25) (layer F.SilkS) (width 0.12))
  (fp_line (start 13.05 -20.5) (end 13.05 -2.25) (layer F.SilkS) (width 0.12))
  (fp_line (start -0.05 -22.55) (end 11 -22.55) (layer F.SilkS) (width 0.12))
  (fp_line (start -2.1 -2.25) (end -2.1 -20.5) (layer F.SilkS) (width 0.12))
  (fp_circle (center 5.475 -18.55) (end 7.59 -18.55) (layer F.Fab) (width 0.1))
  (fp_line (start -1.995 -14.54) (end -1.995 -22.33) (layer F.Fab) (width 0.1))
  (fp_line (start -1.995 -22.33) (end 12.945 -22.33) (layer F.Fab) (width 0.1))
  (fp_line (start 12.945 -22.33) (end 12.945 -14.54) (layer F.Fab) (width 0.1))
  (fp_line (start 12.945 -14.54) (end -1.995 -14.54) (layer F.Fab) (width 0.1))
  (fp_line (start -1.995 -2.35) (end -1.995 -14.54) (layer F.Fab) (width 0.1))
  (fp_line (start -1.995 -14.54) (end 12.945 -14.54) (layer F.Fab) (width 0.1))
  (fp_line (start 12.945 -14.54) (end 12.945 -2.35) (layer F.Fab) (width 0.1))
  (fp_line (start 12.945 -2.35) (end -1.995 -2.35) (layer F.Fab) (width 0.1))
  (fp_line (start 0 -2.35) (end 0 0) (layer F.Fab) (width 0.1))
  (fp_line (start 10.95 -2.35) (end 10.95 0) (layer F.Fab) (width 0.1))
  (fp_line (start -2.25 -22.65) (end -2.25 2) (layer F.CrtYd) (width 0.05))
  (fp_line (start -2.25 2) (end 13.2 2) (layer F.CrtYd) (width 0.05))
  (fp_line (start 13.2 2) (end 13.2 -22.65) (layer F.CrtYd) (width 0.05))
  (fp_line (start 13.2 -22.65) (end -2.25 -22.65) (layer F.CrtYd) (width 0.05))
  (fp_text user %R (at 5.475 -23.45) (layer F.Fab)
    (effects (font (size 1 1) (thickness 0.15)))
  )
  (fp_arc (start 13.05 -8.6) (end 13.05 -10.35) (angle -180) (layer F.SilkS) (width 0.12))
  (fp_arc (start -2.1 -8.6) (end -2.1 -6.85) (angle -180) (layer F.SilkS) (width 0.12))
  (pad 2 thru_hole oval (at 10.95 0) (size 2.5 3.5) (drill 1.5) (layers *.Cu *.Mask))
  (pad 1 thru_hole rect (at 0 0) (size 2.5 3.5) (drill 1.5) (layers *.Cu *.Mask))
  (pad "" np_thru_hole oval (at 5.475 -18.55) (size 4.04 4.04) (drill 4.04) (layers *.Cu *.Mask))
  (model ${KISYS3DMOD}/Package_TO_SOT_THT.3dshapes/TO-218-2_Horizontal_TabDown.wrl
    (at (xyz 0 0 0))
    (scale (xyz 1 1 1))
    (rotate (xyz 0 0 0))
  )
)
