(module TO-251-2_Vertical (layer F.Cu) (tedit 60803FB4)
  (descr "TO-251-2, Vertical, RM 4.58mm, IPAK, see https://www.diodes.com/assets/Package-Files/TO251.pdf, Alternate KiCad Library")
  (tags "TO-251-2 Vertical RM 4.58mm IPAK")
  (fp_text reference REF** (at 2.29 -2.39) (layer F.SilkS)
    (effects (font (size 1 1) (thickness 0.15)))
  )
  (fp_text value TO-251-2_Vertical (at 2.29 2.28) (layer F.Fab)
    (effects (font (size 1 1) (thickness 0.15)))
  )
  (fp_line (start 5.83 -1.52) (end -1.25 -1.52) (layer F.CrtYd) (width 0.05))
  (fp_line (start 5.83 1.28) (end 5.83 -1.52) (layer F.CrtYd) (width 0.05))
  (fp_line (start -1.25 1.28) (end 5.83 1.28) (layer F.CrtYd) (width 0.05))
  (fp_line (start -1.25 -1.52) (end -1.25 1.28) (layer F.CrtYd) (width 0.05))
  (fp_line (start 5.505 -0.651) (end 5.7 -0.651) (layer F.SilkS) (width 0.12))
  (fp_line (start 1.05 -0.651) (end 3.656 -0.651) (layer F.SilkS) (width 0.12))
  (fp_line (start -1.12 -0.651) (end -1.05 -0.651) (layer F.SilkS) (width 0.12))
  (fp_line (start 5.7 -1.39) (end 5.7 1.15) (layer F.SilkS) (width 0.12))
  (fp_line (start -1.12 -1.39) (end -1.12 1.15) (layer F.SilkS) (width 0.12))
  (fp_line (start -1.12 1.15) (end 5.7 1.15) (layer F.SilkS) (width 0.12))
  (fp_line (start -1.12 -1.39) (end 5.7 -1.39) (layer F.SilkS) (width 0.12))
  (fp_line (start -1 -0.77) (end 5.58 -0.77) (layer F.Fab) (width 0.1))
  (fp_line (start 5.58 -1.27) (end -1 -1.27) (layer F.Fab) (width 0.1))
  (fp_line (start 5.58 1.03) (end 5.58 -1.27) (layer F.Fab) (width 0.1))
  (fp_line (start -1 1.03) (end 5.58 1.03) (layer F.Fab) (width 0.1))
  (fp_line (start -1 -1.27) (end -1 1.03) (layer F.Fab) (width 0.1))
  (fp_text user %R (at 2.29 -2.39) (layer F.Fab)
    (effects (font (size 1 1) (thickness 0.15)))
  )
  (pad 2 thru_hole oval (at 4.58 0) (size 1.8 1.8) (drill 1.1) (layers *.Cu *.Mask))
  (pad 1 thru_hole rect (at 0 0) (size 1.8 1.8) (drill 1.1) (layers *.Cu *.Mask))
  (model ${KISYS3DMOD}/Package_TO_SOT_THT.3dshapes/TO-251-2_Vertical.wrl
    (at (xyz 0 0 0))
    (scale (xyz 1 1 1))
    (rotate (xyz 0 0 0))
  )
)
