(module TO-220-2_Horizontal_TabDown_KA (layer F.Cu) (tedit 60803C3C)
  (descr "TO-220-2, Horizontal, RM 5.08mm, see https://www.centralsemi.com/PDFS/CASE/TO-220-2PD.PDF, Alternate KiCad Library")
  (tags "TO-220-2 Horizontal RM 5.08mm")
  (fp_text reference REF** (at 2.54 -20.58) (layer F.SilkS)
    (effects (font (size 1 1) (thickness 0.15)))
  )
  (fp_text value TO-220-2_Horizontal_TabDown_KA (at 2.54 2) (layer F.Fab)
    (effects (font (size 1 1) (thickness 0.15)))
  )
  (fp_poly (pts (xy 3.3 1) (xy 1.8 0) (xy 3.3 -1)) (layer F.SilkS) (width 0.1))
  (fp_line (start 5.58 -1.4) (end 5.38 -1.2) (layer F.SilkS) (width 0.12))
  (fp_line (start 5.58 -3.65) (end 5.58 -1.4) (layer F.SilkS) (width 0.12))
  (fp_line (start 4.58 -3.65) (end 4.58 -1.4) (layer F.SilkS) (width 0.12))
  (fp_line (start 4.58 -1.4) (end 4.78 -1.2) (layer F.SilkS) (width 0.12))
  (fp_line (start 0.5 -1.4) (end 0.3 -1.2) (layer F.SilkS) (width 0.12))
  (fp_line (start -0.5 -1.4) (end -0.3 -1.2) (layer F.SilkS) (width 0.12))
  (fp_line (start 0.5 -3.65) (end 0.5 -1.4) (layer F.SilkS) (width 0.12))
  (fp_line (start -0.5 -3.65) (end -0.5 -1.4) (layer F.SilkS) (width 0.12))
  (fp_line (start 7.66 -19.58) (end 7.66 -18.05) (layer F.SilkS) (width 0.12))
  (fp_line (start 7.1 -18.05) (end 7.66 -18.05) (layer F.SilkS) (width 0.12))
  (fp_line (start 7.66 -16.55) (end 7.1 -16.55) (layer F.SilkS) (width 0.12))
  (fp_line (start 7.1 -16.55) (end 7.1 -18.05) (layer F.SilkS) (width 0.12))
  (fp_line (start -2.58 -19.58) (end -2.58 -18.05) (layer F.SilkS) (width 0.12))
  (fp_line (start -2.58 -16.55) (end -2.58 -3.69) (layer F.SilkS) (width 0.12))
  (fp_line (start 7.66 -16.55) (end 7.66 -3.69) (layer F.SilkS) (width 0.12))
  (fp_line (start -2.05 -18.05) (end -2.05 -16.55) (layer F.SilkS) (width 0.12))
  (fp_line (start -2.58 -18.05) (end -2.05 -18.05) (layer F.SilkS) (width 0.12))
  (fp_line (start -2.575 -13.05) (end 7.65 -13.05) (layer F.SilkS) (width 0.12))
  (fp_line (start -2.58 -19.58) (end 7.66 -19.58) (layer F.SilkS) (width 0.12))
  (fp_line (start -2.58 -3.69) (end 7.66 -3.69) (layer F.SilkS) (width 0.12))
  (fp_line (start -2.05 -16.55) (end -2.575 -16.55) (layer F.SilkS) (width 0.12))
  (fp_circle (center 2.54 -16.66) (end 4.39 -16.66) (layer F.Fab) (width 0.1))
  (fp_line (start -2.46 -13.06) (end -2.46 -19.46) (layer F.Fab) (width 0.1))
  (fp_line (start -2.46 -19.46) (end 7.54 -19.46) (layer F.Fab) (width 0.1))
  (fp_line (start 7.54 -19.46) (end 7.54 -13.06) (layer F.Fab) (width 0.1))
  (fp_line (start 7.54 -13.06) (end -2.46 -13.06) (layer F.Fab) (width 0.1))
  (fp_line (start -2.46 -3.81) (end -2.46 -13.06) (layer F.Fab) (width 0.1))
  (fp_line (start -2.46 -13.06) (end 7.54 -13.06) (layer F.Fab) (width 0.1))
  (fp_line (start 7.54 -13.06) (end 7.54 -3.81) (layer F.Fab) (width 0.1))
  (fp_line (start 7.54 -3.81) (end -2.46 -3.81) (layer F.Fab) (width 0.1))
  (fp_line (start 0 -3.81) (end 0 0) (layer F.Fab) (width 0.1))
  (fp_line (start 5.08 -3.81) (end 5.08 0) (layer F.Fab) (width 0.1))
  (fp_line (start -2.71 -19.71) (end -2.71 1.25) (layer F.CrtYd) (width 0.05))
  (fp_line (start -2.71 1.25) (end 7.79 1.25) (layer F.CrtYd) (width 0.05))
  (fp_line (start 7.79 1.25) (end 7.79 -19.71) (layer F.CrtYd) (width 0.05))
  (fp_line (start 7.79 -19.71) (end -2.71 -19.71) (layer F.CrtYd) (width 0.05))
  (fp_line (start 3.302 0) (end 3.683 0) (layer F.SilkS) (width 0.12))
  (fp_line (start 1.778 0) (end 3.302 1.016) (layer F.SilkS) (width 0.12))
  (fp_line (start 1.397 0) (end 1.778 0) (layer F.SilkS) (width 0.12))
  (fp_line (start 1.778 0) (end 1.778 -1.016) (layer F.SilkS) (width 0.12))
  (fp_line (start 1.778 0) (end 1.778 1.016) (layer F.SilkS) (width 0.12))
  (fp_line (start 3.302 1.016) (end 3.302 -1.016) (layer F.SilkS) (width 0.12))
  (fp_line (start 3.302 -1.016) (end 1.778 0) (layer F.SilkS) (width 0.12))
  (fp_text user %R (at 2.54 -20.58) (layer F.Fab)
    (effects (font (size 1 1) (thickness 0.15)))
  )
  (fp_arc (start 7.6 -7) (end 7.6 -8.35) (angle -180) (layer F.SilkS) (width 0.12))
  (fp_arc (start -2.55 -7) (end -2.55 -5.65) (angle -180) (layer F.SilkS) (width 0.12))
  (pad 2 thru_hole oval (at 5.08 0) (size 2 2) (drill 1.1) (layers *.Cu *.Mask))
  (pad 1 thru_hole rect (at 0 0) (size 2 2) (drill 1.1) (layers *.Cu *.Mask))
  (pad "" np_thru_hole oval (at 2.54 -16.66) (size 3.5 3.5) (drill 3.5) (layers *.Cu *.Mask))
  (model ${KISYS3DMOD}/Package_TO_SOT_THT.3dshapes/TO-220-2_Horizontal_TabDown.wrl
    (at (xyz 0 0 0))
    (scale (xyz 1 1 1))
    (rotate (xyz 0 0 0))
  )
)
