(module TO-220-3_Horizontal_TabDown_BCE (layer F.Cu) (tedit 60803C64)
  (descr "TO-220-3, Horizontal, RM 2.54mm, see https://www.vishay.com/docs/66542/to-220-1.pdf, Alternate KiCad Library")
  (tags "TO-220-3 Horizontal RM 2.54mm")
  (fp_text reference REF** (at 2.54 -20.58) (layer F.SilkS)
    (effects (font (size 1 1) (thickness 0.15)))
  )
  (fp_text value TO-220-3_Horizontal_TabDown_BCE (at 2.54 2) (layer F.Fab)
    (effects (font (size 1 1) (thickness 0.15)))
  )
  (fp_line (start 7.1 -16.55) (end 7.1 -18.05) (layer F.SilkS) (width 0.12))
  (fp_line (start -2.58 -19.58) (end 7.66 -19.58) (layer F.SilkS) (width 0.12))
  (fp_line (start -2.58 -3.69) (end 7.66 -3.69) (layer F.SilkS) (width 0.12))
  (fp_line (start -2.05 -18.05) (end -2.05 -16.55) (layer F.SilkS) (width 0.12))
  (fp_line (start 7.66 -16.55) (end 7.66 -3.69) (layer F.SilkS) (width 0.12))
  (fp_line (start -2.05 -16.55) (end -2.575 -16.55) (layer F.SilkS) (width 0.12))
  (fp_line (start 4.58 -3.65) (end 4.58 -1.4) (layer F.SilkS) (width 0.12))
  (fp_line (start -2.58 -16.55) (end -2.58 -3.69) (layer F.SilkS) (width 0.12))
  (fp_line (start 7.66 -16.55) (end 7.1 -16.55) (layer F.SilkS) (width 0.12))
  (fp_line (start 4.58 -1.4) (end 4.78 -1.2) (layer F.SilkS) (width 0.12))
  (fp_line (start 5.58 -3.65) (end 5.58 -1.4) (layer F.SilkS) (width 0.12))
  (fp_line (start -0.5 -1.4) (end -0.3 -1.2) (layer F.SilkS) (width 0.12))
  (fp_line (start -2.575 -13.05) (end 7.65 -13.05) (layer F.SilkS) (width 0.12))
  (fp_line (start 0.5 -3.65) (end 0.5 -1.4) (layer F.SilkS) (width 0.12))
  (fp_line (start 7.1 -18.05) (end 7.66 -18.05) (layer F.SilkS) (width 0.12))
  (fp_line (start 7.66 -19.58) (end 7.66 -18.05) (layer F.SilkS) (width 0.12))
  (fp_line (start -2.58 -19.58) (end -2.58 -18.05) (layer F.SilkS) (width 0.12))
  (fp_line (start -2.58 -18.05) (end -2.05 -18.05) (layer F.SilkS) (width 0.12))
  (fp_line (start 0.5 -1.4) (end 0.3 -1.2) (layer F.SilkS) (width 0.12))
  (fp_line (start -0.5 -3.65) (end -0.5 -1.4) (layer F.SilkS) (width 0.12))
  (fp_line (start 5.58 -1.4) (end 5.38 -1.2) (layer F.SilkS) (width 0.12))
  (fp_line (start 2.04 -3.65) (end 2.04 -1.4) (layer F.SilkS) (width 0.12))
  (fp_line (start 3.04 -1.4) (end 2.84 -1.2) (layer F.SilkS) (width 0.12))
  (fp_line (start 3.04 -3.65) (end 3.04 -1.4) (layer F.SilkS) (width 0.12))
  (fp_line (start 2.04 -1.4) (end 2.24 -1.2) (layer F.SilkS) (width 0.12))
  (fp_line (start 7.79 -19.71) (end -2.71 -19.71) (layer F.CrtYd) (width 0.05))
  (fp_line (start 7.79 1.25) (end 7.79 -19.71) (layer F.CrtYd) (width 0.05))
  (fp_line (start -2.71 1.25) (end 7.79 1.25) (layer F.CrtYd) (width 0.05))
  (fp_line (start -2.71 -19.71) (end -2.71 1.25) (layer F.CrtYd) (width 0.05))
  (fp_line (start 5.08 -3.81) (end 5.08 0) (layer F.Fab) (width 0.1))
  (fp_line (start 2.54 -3.81) (end 2.54 0) (layer F.Fab) (width 0.1))
  (fp_line (start 0 -3.81) (end 0 0) (layer F.Fab) (width 0.1))
  (fp_line (start 7.54 -3.81) (end -2.46 -3.81) (layer F.Fab) (width 0.1))
  (fp_line (start 7.54 -13.06) (end 7.54 -3.81) (layer F.Fab) (width 0.1))
  (fp_line (start -2.46 -13.06) (end 7.54 -13.06) (layer F.Fab) (width 0.1))
  (fp_line (start -2.46 -3.81) (end -2.46 -13.06) (layer F.Fab) (width 0.1))
  (fp_line (start 7.54 -13.06) (end -2.46 -13.06) (layer F.Fab) (width 0.1))
  (fp_line (start 7.54 -19.46) (end 7.54 -13.06) (layer F.Fab) (width 0.1))
  (fp_line (start -2.46 -19.46) (end 7.54 -19.46) (layer F.Fab) (width 0.1))
  (fp_line (start -2.46 -13.06) (end -2.46 -19.46) (layer F.Fab) (width 0.1))
  (fp_circle (center 2.54 -16.66) (end 4.39 -16.66) (layer F.Fab) (width 0.1))
  (fp_text user %R (at 2.54 -20.58) (layer F.Fab)
    (effects (font (size 1 1) (thickness 0.15)))
  )
  (fp_text user E (at 5.08 1.905) (layer F.SilkS)
    (effects (font (size 1 1) (thickness 0.15)))
  )
  (fp_text user C (at 2.54 1.905) (layer F.SilkS)
    (effects (font (size 1 1) (thickness 0.15)))
  )
  (fp_text user B (at 0 1.905) (layer F.SilkS)
    (effects (font (size 1 1) (thickness 0.15)))
  )
  (fp_arc (start 7.6 -7) (end 7.6 -8.35) (angle -180) (layer F.SilkS) (width 0.12))
  (fp_arc (start -2.55 -7) (end -2.55 -5.65) (angle -180) (layer F.SilkS) (width 0.12))
  (pad 3 thru_hole oval (at 5.08 0) (size 1.905 2) (drill 1.1) (layers *.Cu *.Mask))
  (pad 2 thru_hole oval (at 2.54 0) (size 1.905 2) (drill 1.1) (layers *.Cu *.Mask))
  (pad 1 thru_hole rect (at 0 0) (size 1.905 2) (drill 1.1) (layers *.Cu *.Mask))
  (pad "" np_thru_hole oval (at 2.54 -16.66) (size 3.5 3.5) (drill 3.5) (layers *.Cu *.Mask))
  (model ${KISYS3DMOD}/Package_TO_SOT_THT.3dshapes/TO-220-3_Horizontal_TabDown.wrl
    (at (xyz 0 0 0))
    (scale (xyz 1 1 1))
    (rotate (xyz 0 0 0))
  )
)
