(module TO-220-11_P3.4x5.08mm_StaggerOdd_Lead8.45mm_TabDown (layer F.Cu) (tedit 60803D9F)
  (descr "TO-220-11, Horizontal, RM 1.7mm, staggered type-1, see http://www.ti.com/lit/ds/symlink/lmd18200.pdf, Alternate KiCad Library")
  (tags "TO-220-11 Horizontal RM 1.7mm staggered type-1")
  (fp_text reference REF** (at 8.5 -27) (layer F.SilkS)
    (effects (font (size 1 1) (thickness 0.15)))
  )
  (fp_text value TO-220-11_P3.4x5.08mm_StaggerOdd_Lead8.45mm_TabDown (at 8.5 1.9) (layer F.Fab)
    (effects (font (size 1 1) (thickness 0.15)))
  )
  (fp_line (start 9.7 -8.222) (end 9.7 -5.972) (layer F.SilkS) (width 0.12))
  (fp_line (start -0.5 -5.972) (end -0.3 -5.772) (layer F.SilkS) (width 0.12))
  (fp_line (start 3.9 -5.972) (end 3.7 -5.772) (layer F.SilkS) (width 0.12))
  (fp_line (start 3.9 -8.222) (end 3.9 -5.972) (layer F.SilkS) (width 0.12))
  (fp_line (start 11.4 -8.222) (end 11.4 -6.08) (layer F.SilkS) (width 0.12))
  (fp_line (start -1.72 -23.6855) (end -1.72 -8.26) (layer F.SilkS) (width 0.12))
  (fp_line (start 14.1 -5.972) (end 13.9 -5.772) (layer F.SilkS) (width 0.12))
  (fp_line (start 0.5 -5.972) (end 0.3 -5.772) (layer F.SilkS) (width 0.12))
  (fp_line (start 13.1 -5.972) (end 13.3 -5.772) (layer F.SilkS) (width 0.12))
  (fp_line (start 6.5 -1.1) (end 6.5 -5.772) (layer F.SilkS) (width 0.12))
  (fp_line (start 18.72 -23.6855) (end 16.396 -26) (layer F.SilkS) (width 0.12))
  (fp_line (start 2.9 -8.222) (end 2.9 -5.972) (layer F.SilkS) (width 0.12))
  (fp_line (start 1.2 -8.222) (end 1.2 -6.08) (layer F.SilkS) (width 0.12))
  (fp_line (start 7.3 -8.222) (end 7.3 -5.972) (layer F.SilkS) (width 0.12))
  (fp_line (start 9 -8.222) (end 9 -6.08) (layer F.SilkS) (width 0.12))
  (fp_line (start 13.3 -1.1) (end 13.3 -5.772) (layer F.SilkS) (width 0.12))
  (fp_line (start 9.7 -5.972) (end 9.9 -5.772) (layer F.SilkS) (width 0.12))
  (fp_line (start 8 -8.222) (end 8 -6.08) (layer F.SilkS) (width 0.12))
  (fp_line (start 17.5 -5.972) (end 17.3 -5.772) (layer F.SilkS) (width 0.12))
  (fp_line (start 15.8 -8.222) (end 15.8 -6.08) (layer F.SilkS) (width 0.12))
  (fp_line (start 13.9 -1.1) (end 13.9 -5.772) (layer F.SilkS) (width 0.12))
  (fp_line (start 5.6 -8.222) (end 5.6 -6.08) (layer F.SilkS) (width 0.12))
  (fp_line (start 2.9 -5.972) (end 3.1 -5.772) (layer F.SilkS) (width 0.12))
  (fp_line (start 13.1 -8.222) (end 13.1 -5.972) (layer F.SilkS) (width 0.12))
  (fp_line (start 16.7 -1.1) (end 16.7 -5.772) (layer F.SilkS) (width 0.12))
  (fp_line (start 10.5 -1.1) (end 10.5 -5.772) (layer F.SilkS) (width 0.12))
  (fp_line (start 7.1 -1.1) (end 7.1 -5.772) (layer F.SilkS) (width 0.12))
  (fp_line (start 9.9 -1.1) (end 9.9 -5.772) (layer F.SilkS) (width 0.12))
  (fp_line (start 6.3 -8.222) (end 6.3 -5.972) (layer F.SilkS) (width 0.12))
  (fp_line (start 10.7 -5.972) (end 10.5 -5.772) (layer F.SilkS) (width 0.12))
  (fp_line (start 2.2 -8.222) (end 2.2 -6.08) (layer F.SilkS) (width 0.12))
  (fp_line (start 16.5 -5.972) (end 16.7 -5.772) (layer F.SilkS) (width 0.12))
  (fp_line (start 7.3 -5.972) (end 7.1 -5.772) (layer F.SilkS) (width 0.12))
  (fp_line (start -0.3 -1.2) (end -0.3 -5.772) (layer F.SilkS) (width 0.12))
  (fp_line (start 3.7 -1.1) (end 3.7 -5.772) (layer F.SilkS) (width 0.12))
  (fp_line (start -1.72 -8.26) (end 18.72 -8.26) (layer F.SilkS) (width 0.12))
  (fp_line (start 4.6 -8.222) (end 4.6 -6.08) (layer F.SilkS) (width 0.12))
  (fp_line (start 17.5 -8.222) (end 17.5 -5.972) (layer F.SilkS) (width 0.12))
  (fp_line (start 0.5845 -26) (end 16.396 -26) (layer F.SilkS) (width 0.12))
  (fp_line (start 18.72 -23.6855) (end 18.72 -8.26) (layer F.SilkS) (width 0.12))
  (fp_line (start 10.7 -8.222) (end 10.7 -5.972) (layer F.SilkS) (width 0.12))
  (fp_line (start 3.1 -1.1) (end 3.1 -5.772) (layer F.SilkS) (width 0.12))
  (fp_line (start -1.72 -23.6855) (end 0.5845 -26) (layer F.SilkS) (width 0.12))
  (fp_line (start -1.69 -19.08) (end 18.66 -19.08) (layer F.SilkS) (width 0.12))
  (fp_line (start 6.3 -5.972) (end 6.5 -5.772) (layer F.SilkS) (width 0.12))
  (fp_line (start 17.3 -1.1) (end 17.3 -5.772) (layer F.SilkS) (width 0.12))
  (fp_line (start 0.3 -1.2) (end 0.3 -5.772) (layer F.SilkS) (width 0.12))
  (fp_line (start 12.4 -8.222) (end 12.4 -6.08) (layer F.SilkS) (width 0.12))
  (fp_line (start 14.1 -8.222) (end 14.1 -5.972) (layer F.SilkS) (width 0.12))
  (fp_line (start 14.8 -8.222) (end 14.8 -6.08) (layer F.SilkS) (width 0.12))
  (fp_line (start 0.5 -8.222) (end 0.5 -5.972) (layer F.SilkS) (width 0.12))
  (fp_line (start 16.5 -8.222) (end 16.5 -5.972) (layer F.SilkS) (width 0.12))
  (fp_line (start -0.5 -8.222) (end -0.5 -5.972) (layer F.SilkS) (width 0.12))
  (fp_circle (center 8.5 -23.08) (end 10.35 -23.08) (layer F.Fab) (width 0.1))
  (fp_line (start -1.6 -19.08) (end -1.6 -23.63) (layer F.Fab) (width 0.1))
  (fp_line (start -1.6 -23.63) (end 0.651 -25.88) (layer F.Fab) (width 0.1))
  (fp_line (start 0.651 -25.88) (end 16.351 -25.88) (layer F.Fab) (width 0.1))
  (fp_line (start 16.351 -25.88) (end 18.6 -23.63) (layer F.Fab) (width 0.1))
  (fp_line (start 18.6 -23.63) (end 18.6 -19.08) (layer F.Fab) (width 0.1))
  (fp_line (start 18.6 -19.08) (end -1.6 -19.08) (layer F.Fab) (width 0.1))
  (fp_line (start -1.6 -8.38) (end -1.6 -19.08) (layer F.Fab) (width 0.1))
  (fp_line (start -1.6 -19.08) (end 18.6 -19.08) (layer F.Fab) (width 0.1))
  (fp_line (start 18.6 -19.08) (end 18.6 -8.38) (layer F.Fab) (width 0.1))
  (fp_line (start 18.6 -8.38) (end -1.6 -8.38) (layer F.Fab) (width 0.1))
  (fp_line (start 0 -8.382) (end 0 0) (layer F.Fab) (width 0.1))
  (fp_line (start 1.7 -8.38) (end 1.7 -5.08) (layer F.Fab) (width 0.1))
  (fp_line (start 3.4 -8.38205) (end 3.4 0) (layer F.Fab) (width 0.1))
  (fp_line (start 5.1 -8.38) (end 5.1 -5.08) (layer F.Fab) (width 0.1))
  (fp_line (start 6.8 -8.3822) (end 6.8 0) (layer F.Fab) (width 0.1))
  (fp_line (start 8.5 -8.38) (end 8.5 -5.08) (layer F.Fab) (width 0.1))
  (fp_line (start 10.2 -8.382032) (end 10.2 0) (layer F.Fab) (width 0.1))
  (fp_line (start 11.9 -8.38) (end 11.9 -5.08) (layer F.Fab) (width 0.1))
  (fp_line (start 13.6 -8.382007) (end 13.6 0) (layer F.Fab) (width 0.1))
  (fp_line (start 15.3 -8.38) (end 15.3 -5.08) (layer F.Fab) (width 0.1))
  (fp_line (start 17 -8.382019) (end 17 0) (layer F.Fab) (width 0.1))
  (fp_line (start -1.85 -26.13) (end -1.85 1.15) (layer F.CrtYd) (width 0.05))
  (fp_line (start -1.85 1.15) (end 18.85 1.15) (layer F.CrtYd) (width 0.05))
  (fp_line (start 18.85 1.15) (end 18.85 -26.13) (layer F.CrtYd) (width 0.05))
  (fp_line (start 18.85 -26.13) (end -1.85 -26.13) (layer F.CrtYd) (width 0.05))
  (fp_text user %R (at 8.5 -27) (layer F.Fab)
    (effects (font (size 1 1) (thickness 0.15)))
  )
  (fp_arc (start -1.69 -12.77) (end -1.69 -11.42) (angle -180) (layer F.SilkS) (width 0.12))
  (fp_arc (start 18.66 -12.77) (end 18.66 -14.12) (angle -180) (layer F.SilkS) (width 0.12))
  (fp_text user REF** (at 8.5 -27) (layer F.SilkS)
    (effects (font (size 1 1) (thickness 0.15)))
  )
  (pad 11 thru_hole oval (at 17 0) (size 1.8 1.8) (drill 1) (layers *.Cu *.Mask))
  (pad 10 thru_hole oval (at 15.3 -5.08) (size 1.8 1.8) (drill 1) (layers *.Cu *.Mask))
  (pad 9 thru_hole oval (at 13.6 0) (size 1.8 1.8) (drill 1) (layers *.Cu *.Mask))
  (pad 8 thru_hole oval (at 11.9 -5.08) (size 1.8 1.8) (drill 1) (layers *.Cu *.Mask))
  (pad 7 thru_hole oval (at 10.2 0) (size 1.8 1.8) (drill 1) (layers *.Cu *.Mask))
  (pad 6 thru_hole oval (at 8.5 -5.08) (size 1.8 1.8) (drill 1) (layers *.Cu *.Mask))
  (pad 5 thru_hole oval (at 6.8 0) (size 1.8 1.8) (drill 1) (layers *.Cu *.Mask))
  (pad 4 thru_hole oval (at 5.1 -5.08) (size 1.8 1.8) (drill 1) (layers *.Cu *.Mask))
  (pad 3 thru_hole oval (at 3.4 0) (size 1.8 1.8) (drill 1) (layers *.Cu *.Mask))
  (pad 2 thru_hole oval (at 1.7 -5.08) (size 1.8 1.8) (drill 1) (layers *.Cu *.Mask))
  (pad 1 thru_hole rect (at 0 0) (size 1.8 1.8) (drill 1) (layers *.Cu *.Mask))
  (pad "" np_thru_hole oval (at 8.5 -23.08) (size 3.5 3.5) (drill 3.5) (layers *.Cu *.Mask))
  (model ${KISYS3DMOD}/Package_TO_SOT_THT.3dshapes/TO-220-11_P3.4x5.08mm_StaggerOdd_Lead8.45mm_Tab-Down.wrl
    (at (xyz 0 0 0))
    (scale (xyz 1 1 1))
    (rotate (xyz 0 0 0))
  )
)
