(module TO-220F-5_Horizontal_TabDown (layer F.Cu) (tedit 60803ED5)
  (descr "TO-220F-5, Horizontal, RM 1.7mm, PentawattF-, MultiwattF-5, Alternate KiCad Library")
  (tags "TO-220F-5 Horizontal RM 1.7mm PentawattF- MultiwattF-5")
  (fp_text reference REF** (at 3.4 -20.22) (layer F.SilkS)
    (effects (font (size 1 1) (thickness 0.15)))
  )
  (fp_text value TO-220F-5_Horizontal_TabDown (at 3.4 1.9) (layer F.Fab)
    (effects (font (size 1 1) (thickness 0.15)))
  )
  (fp_line (start 6.3 -1.457) (end 6.5 -1.257) (layer F.SilkS) (width 0.12))
  (fp_line (start 7.3 -3.105) (end 7.3 -1.457) (layer F.SilkS) (width 0.12))
  (fp_line (start 7.3 -1.457) (end 7.1 -1.257) (layer F.SilkS) (width 0.12))
  (fp_line (start 6.3 -3.105) (end 6.3 -1.457) (layer F.SilkS) (width 0.12))
  (fp_line (start 4.6 -1.457) (end 4.8 -1.257) (layer F.SilkS) (width 0.12))
  (fp_line (start 5.6 -3.105) (end 5.6 -1.457) (layer F.SilkS) (width 0.12))
  (fp_line (start 5.6 -1.457) (end 5.4 -1.257) (layer F.SilkS) (width 0.12))
  (fp_line (start 4.6 -3.105) (end 4.6 -1.457) (layer F.SilkS) (width 0.12))
  (fp_line (start 2.9 -1.457) (end 3.1 -1.257) (layer F.SilkS) (width 0.12))
  (fp_line (start 3.9 -3.105) (end 3.9 -1.457) (layer F.SilkS) (width 0.12))
  (fp_line (start 3.9 -1.457) (end 3.7 -1.257) (layer F.SilkS) (width 0.12))
  (fp_line (start 2.9 -3.105) (end 2.9 -1.457) (layer F.SilkS) (width 0.12))
  (fp_line (start 1.2 -1.457) (end 1.4 -1.257) (layer F.SilkS) (width 0.12))
  (fp_line (start 2.2 -3.105) (end 2.2 -1.457) (layer F.SilkS) (width 0.12))
  (fp_line (start 2.2 -1.457) (end 2 -1.257) (layer F.SilkS) (width 0.12))
  (fp_line (start 1.2 -3.105) (end 1.2 -1.457) (layer F.SilkS) (width 0.12))
  (fp_line (start -0.5 -1.457) (end -0.3 -1.257) (layer F.SilkS) (width 0.12))
  (fp_line (start 0.5 -3.105) (end 0.5 -1.457) (layer F.SilkS) (width 0.12))
  (fp_line (start 0.5 -1.457) (end 0.3 -1.257) (layer F.SilkS) (width 0.12))
  (fp_line (start -0.5 -3.105) (end -0.5 -1.457) (layer F.SilkS) (width 0.12))
  (fp_line (start 8.78 -19.35) (end -1.98 -19.35) (layer F.CrtYd) (width 0.05))
  (fp_line (start 8.78 1.15) (end 8.78 -19.35) (layer F.CrtYd) (width 0.05))
  (fp_line (start -1.98 1.15) (end 8.78 1.15) (layer F.CrtYd) (width 0.05))
  (fp_line (start -1.98 -19.35) (end -1.98 1.15) (layer F.CrtYd) (width 0.05))
  (fp_line (start 6.8 -3.23) (end 6.8 0) (layer F.Fab) (width 0.1))
  (fp_line (start 5.1 -3.23) (end 5.1 0) (layer F.Fab) (width 0.1))
  (fp_line (start 3.4 -3.23) (end 3.4 0) (layer F.Fab) (width 0.1))
  (fp_line (start 1.7 -3.23) (end 1.7 0) (layer F.Fab) (width 0.1))
  (fp_line (start 0 -3.23) (end 0 0) (layer F.Fab) (width 0.1))
  (fp_line (start 8.53 -3.23) (end -1.73 -3.23) (layer F.Fab) (width 0.1))
  (fp_line (start 8.53 -12.42) (end 8.53 -3.23) (layer F.Fab) (width 0.1))
  (fp_line (start -1.73 -12.42) (end 8.53 -12.42) (layer F.Fab) (width 0.1))
  (fp_line (start -1.73 -3.23) (end -1.73 -12.42) (layer F.Fab) (width 0.1))
  (fp_line (start 8.53 -12.42) (end -1.73 -12.42) (layer F.Fab) (width 0.1))
  (fp_line (start 8.53 -19.1) (end 8.53 -12.42) (layer F.Fab) (width 0.1))
  (fp_line (start -1.73 -19.1) (end 8.53 -19.1) (layer F.Fab) (width 0.1))
  (fp_line (start -1.73 -12.42) (end -1.73 -19.1) (layer F.Fab) (width 0.1))
  (fp_circle (center 3.4 -15.8) (end 5.25 -15.8) (layer F.Fab) (width 0.1))
  (fp_line (start -1.8464 -19.22) (end -1.8464 -3.11) (layer F.SilkS) (width 0.12))
  (fp_line (start -1.8464 -19.22) (end 8.6536 -19.22) (layer F.SilkS) (width 0.12))
  (fp_line (start 8.6536 -19.22) (end 8.6536 -3.11) (layer F.SilkS) (width 0.12))
  (fp_line (start -1.8464 -3.11) (end 8.6536 -3.11) (layer F.SilkS) (width 0.12))
  (fp_line (start -1.8364 -12.4) (end 8.6136 -12.4) (layer F.SilkS) (width 0.12))
  (fp_text user %R (at 3.4 -20.22) (layer F.Fab)
    (effects (font (size 1 1) (thickness 0.15)))
  )
  (pad 5 thru_hole oval (at 6.8 0) (size 1.275 1.8) (drill 1.2) (layers *.Cu *.Mask))
  (pad 4 thru_hole oval (at 5.1 0) (size 1.275 1.8) (drill 1.2) (layers *.Cu *.Mask))
  (pad 3 thru_hole oval (at 3.4 0) (size 1.275 1.8) (drill 1.2) (layers *.Cu *.Mask))
  (pad 2 thru_hole oval (at 1.7 0) (size 1.275 1.8) (drill 1.2) (layers *.Cu *.Mask))
  (pad 1 thru_hole rect (at 0 0) (size 1.275 1.8) (drill 1.2) (layers *.Cu *.Mask))
  (pad "" np_thru_hole oval (at 3.4 -15.8) (size 3.5 3.5) (drill 3.5) (layers *.Cu *.Mask))
  (model ${KISYS3DMOD}/Package_TO_SOT_THT.3dshapes/TO-220F-5_Horizontal_TabDown.wrl
    (at (xyz 0 0 0))
    (scale (xyz 1 1 1))
    (rotate (xyz 0 0 0))
  )
)
