(module TO-220F-5_P3.4x3.7mm_StaggerEven_Lead3.5mm_Vertical (layer F.Cu) (tedit 60803EED)
  (descr "TO-220F-5, Vertical, RM 1.7mm, PentawattF-, MultiwattF-5, staggered type-2, Alternate KiCad Library")
  (tags "TO-220F-5 Vertical RM 1.7mm PentawattF- MultiwattF-5 staggered type-2")
  (fp_text reference REF** (at 3.4 -5.62) (layer F.SilkS)
    (effects (font (size 1 1) (thickness 0.15)))
  )
  (fp_text value TO-220F-5_P3.4x3.7mm_StaggerEven_Lead3.5mm_Vertical (at 3.4 5.85) (layer F.Fab)
    (effects (font (size 1 1) (thickness 0.15)))
  )
  (fp_line (start 4.6 2.366) (end 4.8 2.566) (layer F.SilkS) (width 0.12))
  (fp_line (start 5.6 2.366) (end 5.4 2.566) (layer F.SilkS) (width 0.12))
  (fp_line (start 4.6 0.337) (end 4.6 2.366) (layer F.SilkS) (width 0.12))
  (fp_line (start 5.6 0.337) (end 5.6 2.366) (layer F.SilkS) (width 0.12))
  (fp_line (start 1.2 2.416) (end 1.4 2.616) (layer F.SilkS) (width 0.12))
  (fp_line (start 2.2 2.416) (end 2 2.616) (layer F.SilkS) (width 0.12))
  (fp_line (start 1.2 0.387) (end 1.2 2.416) (layer F.SilkS) (width 0.12))
  (fp_line (start 2.2 0.387) (end 2.2 2.416) (layer F.SilkS) (width 0.12))
  (fp_line (start -1.73 -4.5) (end -1.73 0.2) (layer F.Fab) (width 0.1))
  (fp_line (start -1.73 0.2) (end 8.53 0.2) (layer F.Fab) (width 0.1))
  (fp_line (start 8.53 0.2) (end 8.53 -4.5) (layer F.Fab) (width 0.1))
  (fp_line (start 8.53 -4.5) (end -1.73 -4.5) (layer F.Fab) (width 0.1))
  (fp_line (start -1.73 -1.98) (end 8.53 -1.98) (layer F.Fab) (width 0.1))
  (fp_line (start 1.55 -4.5) (end 1.55 -1.98) (layer F.Fab) (width 0.1))
  (fp_line (start 5.25 -4.5) (end 5.25 -1.98) (layer F.Fab) (width 0.1))
  (fp_line (start 1.7 0.2) (end 1.7 3.7) (layer F.Fab) (width 0.1))
  (fp_line (start 5.1 0.2) (end 5.1 3.7) (layer F.Fab) (width 0.1))
  (fp_line (start -1.85 -4.62) (end 8.65 -4.62) (layer F.SilkS) (width 0.12))
  (fp_line (start -1.85 0.321) (end -1.05 0.321) (layer F.SilkS) (width 0.12))
  (fp_line (start 1.05 0.321) (end 2.369 0.321) (layer F.SilkS) (width 0.12))
  (fp_line (start 4.432 0.321) (end 5.769 0.321) (layer F.SilkS) (width 0.12))
  (fp_line (start 7.832 0.321) (end 8.65 0.321) (layer F.SilkS) (width 0.12))
  (fp_line (start -1.85 -4.62) (end -1.85 0.321) (layer F.SilkS) (width 0.12))
  (fp_line (start 8.65 -4.62) (end 8.65 0.321) (layer F.SilkS) (width 0.12))
  (fp_line (start -1.85 -1.861) (end 8.65 -1.861) (layer F.SilkS) (width 0.12))
  (fp_line (start 1.55 -4.62) (end 1.55 -1.861) (layer F.SilkS) (width 0.12))
  (fp_line (start 5.25 -4.62) (end 5.25 -1.861) (layer F.SilkS) (width 0.12))
  (fp_line (start -1.98 -4.75) (end -1.98 4.85) (layer F.CrtYd) (width 0.05))
  (fp_line (start -1.98 4.85) (end 8.78 4.85) (layer F.CrtYd) (width 0.05))
  (fp_line (start 8.78 4.85) (end 8.78 -4.75) (layer F.CrtYd) (width 0.05))
  (fp_line (start 8.78 -4.75) (end -1.98 -4.75) (layer F.CrtYd) (width 0.05))
  (fp_text user %R (at 3.4 -5.62) (layer F.Fab)
    (effects (font (size 1 1) (thickness 0.15)))
  )
  (pad 5 thru_hole oval (at 6.8 0) (size 1.8 1.8) (drill 1.2) (layers *.Cu *.Mask))
  (pad 4 thru_hole oval (at 5.1 3.7) (size 1.8 1.8) (drill 1.2) (layers *.Cu *.Mask))
  (pad 3 thru_hole oval (at 3.4 0) (size 1.8 1.8) (drill 1.2) (layers *.Cu *.Mask))
  (pad 2 thru_hole oval (at 1.7 3.7) (size 1.8 1.8) (drill 1.2) (layers *.Cu *.Mask))
  (pad 1 thru_hole rect (at 0 0) (size 1.8 1.8) (drill 1.2) (layers *.Cu *.Mask))
  (model ${KISYS3DMOD}/Package_TO_SOT_THT.3dshapes/TO-220F-5_P3.4x3.7mm_StaggerEven_Lead3.5mm_Vertical.wrl
    (at (xyz 0 0 0))
    (scale (xyz 1 1 1))
    (rotate (xyz 0 0 0))
  )
)
