(module TO-220F-4_Horizontal_TabUp (layer F.Cu) (tedit 60803EB3)
  (descr "TO-220F-4, Horizontal, RM 2.54mm, see https://www.njr.com/semicon/PDF/package/TO-220F-4_E.pdf, Alternate KiCad Library")
  (tags "TO-220F-4 Horizontal RM 2.54mm")
  (fp_text reference REF** (at 3.81 20.22) (layer F.SilkS)
    (effects (font (size 1 1) (thickness 0.15)))
  )
  (fp_text value TO-220F-4_Horizontal_TabUp (at 3.81 -2) (layer F.Fab)
    (effects (font (size 1 1) (thickness 0.15)))
  )
  (fp_line (start 8.12 3.048) (end 8.12 1.4) (layer F.SilkS) (width 0.12))
  (fp_line (start 7.12 3.048) (end 7.12 1.4) (layer F.SilkS) (width 0.12))
  (fp_line (start 8.12 1.4) (end 7.92 1.2) (layer F.SilkS) (width 0.12))
  (fp_line (start 7.12 1.4) (end 7.32 1.2) (layer F.SilkS) (width 0.12))
  (fp_line (start -0.5 1.4) (end -0.3 1.2) (layer F.SilkS) (width 0.12))
  (fp_line (start 2.04 3.048) (end 2.04 1.4) (layer F.SilkS) (width 0.12))
  (fp_line (start 0.5 3.048) (end 0.5 1.4) (layer F.SilkS) (width 0.12))
  (fp_line (start 9.06 3.11) (end -1.44 3.11) (layer F.SilkS) (width 0.12))
  (fp_line (start 1.77 12.4) (end 1.52 12.4) (layer F.SilkS) (width 0.12))
  (fp_line (start 2.37 12.4) (end 2.12 12.4) (layer F.SilkS) (width 0.12))
  (fp_line (start 3.57 12.4) (end 3.32 12.4) (layer F.SilkS) (width 0.12))
  (fp_line (start 5.37 12.4) (end 5.12 12.4) (layer F.SilkS) (width 0.12))
  (fp_line (start 3.04 3.048) (end 3.04 1.4) (layer F.SilkS) (width 0.12))
  (fp_line (start 6.57 12.4) (end 6.32 12.4) (layer F.SilkS) (width 0.12))
  (fp_line (start 7.82 12.4) (end 7.57 12.4) (layer F.SilkS) (width 0.12))
  (fp_line (start 4.77 12.4) (end 4.52 12.4) (layer F.SilkS) (width 0.12))
  (fp_line (start 4.58 1.4) (end 4.78 1.2) (layer F.SilkS) (width 0.12))
  (fp_line (start 5.58 1.4) (end 5.38 1.2) (layer F.SilkS) (width 0.12))
  (fp_line (start 9.02 12.4) (end 8.77 12.4) (layer F.SilkS) (width 0.12))
  (fp_line (start 4.17 12.4) (end 3.92 12.4) (layer F.SilkS) (width 0.12))
  (fp_line (start 2.97 12.4) (end 2.72 12.4) (layer F.SilkS) (width 0.12))
  (fp_line (start 5.97 12.4) (end 5.72 12.4) (layer F.SilkS) (width 0.12))
  (fp_line (start 1.17 12.4) (end 0.92 12.4) (layer F.SilkS) (width 0.12))
  (fp_line (start 8.42 12.4) (end 8.17 12.4) (layer F.SilkS) (width 0.12))
  (fp_line (start -1.23 12.4) (end -1.43 12.4) (layer F.SilkS) (width 0.12))
  (fp_line (start -1.44 19.22) (end -1.44 3.11) (layer F.SilkS) (width 0.12))
  (fp_line (start 7.17 12.4) (end 6.92 12.4) (layer F.SilkS) (width 0.12))
  (fp_line (start 9.06 19.22) (end 9.06 3.11) (layer F.SilkS) (width 0.12))
  (fp_line (start 0.5 1.4) (end 0.3 1.2) (layer F.SilkS) (width 0.12))
  (fp_line (start -0.63 12.4) (end -0.88 12.4) (layer F.SilkS) (width 0.12))
  (fp_line (start 0.57 12.4) (end 0.32 12.4) (layer F.SilkS) (width 0.12))
  (fp_line (start -0.03 12.4) (end -0.28 12.4) (layer F.SilkS) (width 0.12))
  (fp_line (start -0.5 3.048) (end -0.5 1.4) (layer F.SilkS) (width 0.12))
  (fp_line (start 3.04 1.4) (end 2.84 1.2) (layer F.SilkS) (width 0.12))
  (fp_line (start 2.04 1.4) (end 2.24 1.2) (layer F.SilkS) (width 0.12))
  (fp_line (start 5.58 3.048) (end 5.58 1.4) (layer F.SilkS) (width 0.12))
  (fp_line (start 4.58 3.048) (end 4.58 1.4) (layer F.SilkS) (width 0.12))
  (fp_line (start 9.06 19.22) (end -1.44 19.22) (layer F.SilkS) (width 0.12))
  (fp_circle (center 3.81 15.8) (end 5.66 15.8) (layer F.Fab) (width 0.1))
  (fp_line (start -1.32 12.42) (end -1.32 19.1) (layer F.Fab) (width 0.1))
  (fp_line (start -1.32 19.1) (end 8.94 19.1) (layer F.Fab) (width 0.1))
  (fp_line (start 8.94 19.1) (end 8.94 12.42) (layer F.Fab) (width 0.1))
  (fp_line (start 8.94 12.42) (end -1.32 12.42) (layer F.Fab) (width 0.1))
  (fp_line (start -1.32 3.23) (end -1.32 12.42) (layer F.Fab) (width 0.1))
  (fp_line (start -1.32 12.42) (end 8.94 12.42) (layer F.Fab) (width 0.1))
  (fp_line (start 8.94 12.42) (end 8.94 3.23) (layer F.Fab) (width 0.1))
  (fp_line (start 8.94 3.23) (end -1.32 3.23) (layer F.Fab) (width 0.1))
  (fp_line (start 0 3.23) (end 0 0) (layer F.Fab) (width 0.1))
  (fp_line (start 2.54 3.23) (end 2.54 0) (layer F.Fab) (width 0.1))
  (fp_line (start 5.08 3.23) (end 5.08 0) (layer F.Fab) (width 0.1))
  (fp_line (start 7.62 3.23) (end 7.62 0) (layer F.Fab) (width 0.1))
  (fp_line (start -1.57 -1.25) (end -1.57 19.35) (layer F.CrtYd) (width 0.05))
  (fp_line (start -1.57 19.35) (end 9.19 19.35) (layer F.CrtYd) (width 0.05))
  (fp_line (start 9.19 19.35) (end 9.19 -1.25) (layer F.CrtYd) (width 0.05))
  (fp_line (start 9.19 -1.25) (end -1.57 -1.25) (layer F.CrtYd) (width 0.05))
  (fp_text user %R (at 3.81 20.22) (layer F.Fab)
    (effects (font (size 1 1) (thickness 0.15)))
  )
  (pad 4 thru_hole oval (at 7.62 0) (size 1.905 2) (drill 1.2) (layers *.Cu *.Mask))
  (pad 3 thru_hole oval (at 5.08 0) (size 1.905 2) (drill 1.2) (layers *.Cu *.Mask))
  (pad 2 thru_hole oval (at 2.54 0) (size 1.905 2) (drill 1.2) (layers *.Cu *.Mask))
  (pad 1 thru_hole rect (at 0 0) (size 1.905 2) (drill 1.2) (layers *.Cu *.Mask))
  (pad "" np_thru_hole oval (at 3.81 15.8) (size 3.5 3.5) (drill 3.5) (layers *.Cu *.Mask))
  (model ${KISYS3DMOD}/Package_TO_SOT_THT.3dshapes/TO-220F-4_Horizontal_TabUp.wrl
    (at (xyz 0 0 0))
    (scale (xyz 1 1 1))
    (rotate (xyz 0 0 0))
  )
)
