(module TO-220-3_Vertical_KAK (layer F.Cu) (tedit 60803CEE)
  (descr "TO-220-3, Vertical, RM 2.54mm, see https://www.vishay.com/docs/66542/to-220-1.pdf, Alternate KiCad Library")
  (tags "TO-220-3 Vertical RM 2.54mm")
  (fp_text reference REF** (at 2.54 -4.27) (layer F.SilkS)
    (effects (font (size 1 1) (thickness 0.15)))
  )
  (fp_text value TO-220-3_Vertical_KAK (at 2.54 2.5) (layer F.Fab)
    (effects (font (size 1 1) (thickness 0.15)))
  )
  (fp_line (start 2.032 3.6195) (end 2.032 2.0955) (layer F.SilkS) (width 0.12))
  (fp_circle (center 2.54 2.8575) (end 2.54 2.921) (layer F.SilkS) (width 0.12))
  (fp_line (start 3.048 3.81) (end 4.572 2.8575) (layer F.SilkS) (width 0.12))
  (fp_poly (pts (xy 3.048 1.905) (xy 4.572 2.8575) (xy 3.048 3.81)) (layer F.SilkS) (width 0.1))
  (fp_line (start 3.048 1.905) (end 3.048 3.81) (layer F.SilkS) (width 0.12))
  (fp_poly (pts (xy 0.508 2.8575) (xy 2.032 1.905) (xy 2.032 3.81)) (layer F.SilkS) (width 0.1))
  (fp_circle (center 2.54 2.8575) (end 2.54 3.048) (layer F.SilkS) (width 0.12))
  (fp_line (start 0 1.7145) (end 0 2.8575) (layer F.SilkS) (width 0.12))
  (fp_line (start 5.08 2.8575) (end 4.572 2.8575) (layer F.SilkS) (width 0.12))
  (fp_line (start 0 2.8575) (end 0.508 2.8575) (layer F.SilkS) (width 0.12))
  (fp_line (start 2.54 1.7145) (end 2.54 2.8575) (layer F.SilkS) (width 0.12))
  (fp_line (start 2.032 2.0955) (end 2.032 1.905) (layer F.SilkS) (width 0.12))
  (fp_line (start 5.08 1.7145) (end 5.08 2.8575) (layer F.SilkS) (width 0.12))
  (fp_line (start 4.572 3.81) (end 4.572 1.905) (layer F.SilkS) (width 0.2))
  (fp_line (start 0.508 2.8575) (end 2.032 1.905) (layer F.SilkS) (width 0.12))
  (fp_circle (center 2.54 2.8575) (end 2.54 2.9845) (layer F.SilkS) (width 0.12))
  (fp_line (start 4.572 2.8575) (end 3.048 1.905) (layer F.SilkS) (width 0.12))
  (fp_line (start 2.54 2.8575) (end 3.048 2.8575) (layer F.SilkS) (width 0.12))
  (fp_line (start 0.508 2.8575) (end 2.032 3.81) (layer F.SilkS) (width 0.12))
  (fp_line (start 0.508 1.905) (end 0.508 3.81) (layer F.SilkS) (width 0.2))
  (fp_line (start 2.032 3.6195) (end 2.032 3.81) (layer F.SilkS) (width 0.12))
  (fp_line (start 2.54 2.8575) (end 2.032 2.8575) (layer F.SilkS) (width 0.12))
  (fp_line (start 7.79 -3.4) (end -2.71 -3.4) (layer F.CrtYd) (width 0.05))
  (fp_line (start 7.79 1.51) (end 7.79 -3.4) (layer F.CrtYd) (width 0.05))
  (fp_line (start -2.71 1.51) (end 7.79 1.51) (layer F.CrtYd) (width 0.05))
  (fp_line (start -2.71 -3.4) (end -2.71 1.51) (layer F.CrtYd) (width 0.05))
  (fp_line (start 4.391 -3.27) (end 4.391 -1.76) (layer F.SilkS) (width 0.12))
  (fp_line (start 0.69 -3.27) (end 0.69 -1.76) (layer F.SilkS) (width 0.12))
  (fp_line (start -2.58 -1.76) (end 7.66 -1.76) (layer F.SilkS) (width 0.12))
  (fp_line (start 7.66 -3.27) (end 7.66 1.371) (layer F.SilkS) (width 0.12))
  (fp_line (start -2.58 -3.27) (end -2.58 1.371) (layer F.SilkS) (width 0.12))
  (fp_line (start -2.58 1.371) (end 7.66 1.371) (layer F.SilkS) (width 0.12))
  (fp_line (start -2.58 -3.27) (end 7.66 -3.27) (layer F.SilkS) (width 0.12))
  (fp_line (start 4.39 -3.15) (end 4.39 -1.88) (layer F.Fab) (width 0.1))
  (fp_line (start 0.69 -3.15) (end 0.69 -1.88) (layer F.Fab) (width 0.1))
  (fp_line (start -2.46 -1.88) (end 7.54 -1.88) (layer F.Fab) (width 0.1))
  (fp_line (start 7.54 -3.15) (end -2.46 -3.15) (layer F.Fab) (width 0.1))
  (fp_line (start 7.54 1.25) (end 7.54 -3.15) (layer F.Fab) (width 0.1))
  (fp_line (start -2.46 1.25) (end 7.54 1.25) (layer F.Fab) (width 0.1))
  (fp_line (start -2.46 -3.15) (end -2.46 1.25) (layer F.Fab) (width 0.1))
  (fp_text user %R (at 2.54 -4.27) (layer F.Fab)
    (effects (font (size 1 1) (thickness 0.15)))
  )
  (pad 3 thru_hole oval (at 5.08 0) (size 1.905 2) (drill 1.1) (layers *.Cu *.Mask))
  (pad 2 thru_hole oval (at 2.54 0) (size 1.905 2) (drill 1.1) (layers *.Cu *.Mask))
  (pad 1 thru_hole rect (at 0 0) (size 1.905 2) (drill 1.1) (layers *.Cu *.Mask))
  (model ${KISYS3DMOD}/Package_TO_SOT_THT.3dshapes/TO-220-3_Vertical.wrl
    (at (xyz 0 0 0))
    (scale (xyz 1 1 1))
    (rotate (xyz 0 0 0))
  )
)
