(module TO-220-15_P2.54x2.54mm_StaggerOdd_Lead5.84mm_TabDown (layer F.Cu) (tedit 60803DB4)
  (descr "TO-220-15, Horizontal, RM 1.27mm, staggered type-1, see http://www.st.com/resource/en/datasheet/l298.pdf, Alternate KiCad Library")
  (tags "TO-220-15 Horizontal RM 1.27mm staggered type-1")
  (fp_text reference REF** (at 8.89 -24.46) (layer F.SilkS)
    (effects (font (size 1 1) (thickness 0.15)))
  )
  (fp_text value TO-220-15_P2.54x2.54mm_StaggerOdd_Lead5.84mm_TabDown (at 8.89 1.9) (layer F.Fab)
    (effects (font (size 1 1) (thickness 0.15)))
  )
  (fp_line (start 17.526 -5.715) (end 17.526 -3.048) (layer F.SilkS) (width 0.12))
  (fp_line (start 17.526 -2.032) (end 17.526 -1.0795) (layer F.SilkS) (width 0.12))
  (fp_line (start 18.034 -1.905) (end 18.034 -1.0795) (layer F.SilkS) (width 0.12))
  (fp_line (start 18.034 -5.715) (end 18.034 -1.905) (layer F.SilkS) (width 0.12))
  (fp_line (start -0.254 -5.715) (end -0.254 -3.175) (layer F.SilkS) (width 0.12))
  (fp_line (start -0.254 -3.175) (end -0.254 -1.143) (layer F.SilkS) (width 0.12))
  (fp_line (start 0.254 -2.032) (end 0.254 -1.143) (layer F.SilkS) (width 0.12))
  (fp_line (start 0.254 -5.715) (end 0.254 -3.048) (layer F.SilkS) (width 0.12))
  (fp_line (start 2.286 -5.715) (end 2.286 -3.048) (layer F.SilkS) (width 0.12))
  (fp_line (start 2.286 -2.032) (end 2.286 -1.0795) (layer F.SilkS) (width 0.12))
  (fp_line (start 2.794 -2.032) (end 2.794 -1.0795) (layer F.SilkS) (width 0.12))
  (fp_line (start 2.794 -5.715) (end 2.794 -3.048) (layer F.SilkS) (width 0.12))
  (fp_line (start 4.826 -5.715) (end 4.826 -3.048) (layer F.SilkS) (width 0.12))
  (fp_line (start 4.826 -2.032) (end 4.826 -1.0795) (layer F.SilkS) (width 0.12))
  (fp_line (start 5.334 -2.032) (end 5.334 -1.0795) (layer F.SilkS) (width 0.12))
  (fp_line (start 5.334 -5.715) (end 5.334 -3.048) (layer F.SilkS) (width 0.12))
  (fp_line (start 7.366 -5.715) (end 7.366 -3.048) (layer F.SilkS) (width 0.12))
  (fp_line (start 7.366 -2.032) (end 7.366 -1.0795) (layer F.SilkS) (width 0.12))
  (fp_line (start 7.874 -2.032) (end 7.874 -1.0795) (layer F.SilkS) (width 0.12))
  (fp_line (start 7.874 -5.715) (end 7.874 -3.048) (layer F.SilkS) (width 0.12))
  (fp_line (start 9.906 -5.715) (end 9.906 -3.048) (layer F.SilkS) (width 0.12))
  (fp_line (start 9.906 -2.032) (end 9.906 -1.0795) (layer F.SilkS) (width 0.12))
  (fp_line (start 10.414 -2.032) (end 10.414 -1.0795) (layer F.SilkS) (width 0.12))
  (fp_line (start 10.414 -5.715) (end 10.414 -3.048) (layer F.SilkS) (width 0.12))
  (fp_line (start 12.446 -5.715) (end 12.446 -3.048) (layer F.SilkS) (width 0.12))
  (fp_line (start 12.446 -2.032) (end 12.446 -1.0795) (layer F.SilkS) (width 0.12))
  (fp_line (start 12.954 -2.032) (end 12.954 -1.0795) (layer F.SilkS) (width 0.12))
  (fp_line (start 12.954 -5.715) (end 12.954 -3.048) (layer F.SilkS) (width 0.12))
  (fp_line (start 1.016 -5.715) (end 1.016 -3.6195) (layer F.SilkS) (width 0.12))
  (fp_line (start 1.524 -5.715) (end 1.524 -3.6195) (layer F.SilkS) (width 0.12))
  (fp_line (start 3.556 -5.715) (end 3.556 -3.6195) (layer F.SilkS) (width 0.12))
  (fp_line (start 4.064 -5.715) (end 4.064 -3.6195) (layer F.SilkS) (width 0.12))
  (fp_line (start 6.096 -5.715) (end 6.096 -3.6195) (layer F.SilkS) (width 0.12))
  (fp_line (start 6.604 -5.715) (end 6.604 -3.6195) (layer F.SilkS) (width 0.12))
  (fp_line (start 8.636 -5.715) (end 8.636 -3.6195) (layer F.SilkS) (width 0.12))
  (fp_line (start 9.144 -5.715) (end 9.144 -3.6195) (layer F.SilkS) (width 0.12))
  (fp_line (start 11.684 -5.715) (end 11.684 -3.6195) (layer F.SilkS) (width 0.12))
  (fp_line (start 11.176 -5.715) (end 11.176 -3.6195) (layer F.SilkS) (width 0.12))
  (fp_line (start 14.224 -5.715) (end 14.224 -3.6195) (layer F.SilkS) (width 0.12))
  (fp_line (start 13.716 -5.715) (end 13.716 -3.6195) (layer F.SilkS) (width 0.12))
  (fp_line (start 16.256 -5.715) (end 16.256 -3.6195) (layer F.SilkS) (width 0.12))
  (fp_line (start -1.339 -5.72) (end 19.101 -5.72) (layer F.SilkS) (width 0.12))
  (fp_line (start -1.339 -21.1455) (end -1.339 -5.72) (layer F.SilkS) (width 0.12))
  (fp_line (start 19.101 -21.1455) (end 16.777 -23.46) (layer F.SilkS) (width 0.12))
  (fp_line (start 16.764 -5.715) (end 16.764 -3.6195) (layer F.SilkS) (width 0.12))
  (fp_line (start -1.339 -21.1455) (end 0.9655 -23.46) (layer F.SilkS) (width 0.12))
  (fp_line (start 0.9655 -23.46) (end 16.777 -23.46) (layer F.SilkS) (width 0.12))
  (fp_line (start 19.101 -21.1455) (end 19.101 -5.72) (layer F.SilkS) (width 0.12))
  (fp_line (start -1.309 -16.54) (end 19.041 -16.54) (layer F.SilkS) (width 0.12))
  (fp_line (start 15.494 -5.715) (end 15.494 -3.048) (layer F.SilkS) (width 0.12))
  (fp_line (start 15.494 -2.032) (end 15.494 -1.0795) (layer F.SilkS) (width 0.12))
  (fp_line (start 14.986 -2.032) (end 14.986 -1.0795) (layer F.SilkS) (width 0.12))
  (fp_line (start 14.986 -5.715) (end 14.986 -3.048) (layer F.SilkS) (width 0.12))
  (fp_circle (center 8.89 -20.54) (end 10.74 -20.54) (layer F.Fab) (width 0.1))
  (fp_line (start -1.21 -16.54) (end -1.21 -21.09) (layer F.Fab) (width 0.1))
  (fp_line (start -1.21 -21.09) (end 1.041 -23.34) (layer F.Fab) (width 0.1))
  (fp_line (start 1.041 -23.34) (end 16.74 -23.34) (layer F.Fab) (width 0.1))
  (fp_line (start 16.74 -23.34) (end 18.99 -21.09) (layer F.Fab) (width 0.1))
  (fp_line (start 18.99 -21.09) (end 18.99 -16.54) (layer F.Fab) (width 0.1))
  (fp_line (start 18.99 -16.54) (end -1.21 -16.54) (layer F.Fab) (width 0.1))
  (fp_line (start -1.21 -5.84) (end -1.21 -16.54) (layer F.Fab) (width 0.1))
  (fp_line (start -1.21 -16.54) (end 18.99 -16.54) (layer F.Fab) (width 0.1))
  (fp_line (start 18.99 -16.54) (end 18.99 -5.84) (layer F.Fab) (width 0.1))
  (fp_line (start 18.99 -5.84) (end -1.21 -5.84) (layer F.Fab) (width 0.1))
  (fp_line (start 0 -5.84) (end 0 0) (layer F.Fab) (width 0.1))
  (fp_line (start 1.27 -5.84) (end 1.27 -2.54) (layer F.Fab) (width 0.1))
  (fp_line (start 2.54 -5.84) (end 2.54 0) (layer F.Fab) (width 0.1))
  (fp_line (start 3.81 -5.84) (end 3.81 -2.54) (layer F.Fab) (width 0.1))
  (fp_line (start 5.08 -5.84) (end 5.08 0) (layer F.Fab) (width 0.1))
  (fp_line (start 6.35 -5.84) (end 6.35 -2.54) (layer F.Fab) (width 0.1))
  (fp_line (start 7.62 -5.84) (end 7.62 0) (layer F.Fab) (width 0.1))
  (fp_line (start 8.89 -5.84) (end 8.89 -2.54) (layer F.Fab) (width 0.1))
  (fp_line (start 10.16 -5.84) (end 10.16 0) (layer F.Fab) (width 0.1))
  (fp_line (start 11.43 -5.84) (end 11.43 -2.54) (layer F.Fab) (width 0.1))
  (fp_line (start 12.7 -5.84) (end 12.7 0) (layer F.Fab) (width 0.1))
  (fp_line (start 13.97 -5.84) (end 13.97 -2.54) (layer F.Fab) (width 0.1))
  (fp_line (start 15.24 -5.84) (end 15.24 0) (layer F.Fab) (width 0.1))
  (fp_line (start 16.51 -5.84) (end 16.51 -2.54) (layer F.Fab) (width 0.1))
  (fp_line (start 17.78 -5.84) (end 17.78 0) (layer F.Fab) (width 0.1))
  (fp_line (start -1.46 -23.59) (end -1.46 1.15) (layer F.CrtYd) (width 0.05))
  (fp_line (start -1.46 1.15) (end 19.25 1.15) (layer F.CrtYd) (width 0.05))
  (fp_line (start 19.25 1.15) (end 19.25 -23.59) (layer F.CrtYd) (width 0.05))
  (fp_line (start 19.25 -23.59) (end -1.46 -23.59) (layer F.CrtYd) (width 0.05))
  (fp_text user %R (at 8.89 -24.46) (layer F.Fab)
    (effects (font (size 1 1) (thickness 0.15)))
  )
  (fp_arc (start 19.041 -10.23) (end 19.041 -11.58) (angle -180) (layer F.SilkS) (width 0.12))
  (fp_arc (start -1.309 -10.23) (end -1.309 -8.88) (angle -180) (layer F.SilkS) (width 0.12))
  (pad 15 thru_hole oval (at 17.78 0) (size 1.8 1.8) (drill 1) (layers *.Cu *.Mask))
  (pad 14 thru_hole oval (at 16.51 -2.54) (size 1.8 1.8) (drill 1) (layers *.Cu *.Mask))
  (pad 13 thru_hole oval (at 15.24 0) (size 1.8 1.8) (drill 1) (layers *.Cu *.Mask))
  (pad 12 thru_hole oval (at 13.97 -2.54) (size 1.8 1.8) (drill 1) (layers *.Cu *.Mask))
  (pad 11 thru_hole oval (at 12.7 0) (size 1.8 1.8) (drill 1) (layers *.Cu *.Mask))
  (pad 10 thru_hole oval (at 11.43 -2.54) (size 1.8 1.8) (drill 1) (layers *.Cu *.Mask))
  (pad 9 thru_hole oval (at 10.16 0) (size 1.8 1.8) (drill 1) (layers *.Cu *.Mask))
  (pad 8 thru_hole oval (at 8.89 -2.54) (size 1.8 1.8) (drill 1) (layers *.Cu *.Mask))
  (pad 7 thru_hole oval (at 7.62 0) (size 1.8 1.8) (drill 1) (layers *.Cu *.Mask))
  (pad 6 thru_hole oval (at 6.35 -2.54) (size 1.8 1.8) (drill 1) (layers *.Cu *.Mask))
  (pad 5 thru_hole oval (at 5.08 0) (size 1.8 1.8) (drill 1) (layers *.Cu *.Mask))
  (pad 4 thru_hole oval (at 3.81 -2.54) (size 1.8 1.8) (drill 1) (layers *.Cu *.Mask))
  (pad 3 thru_hole oval (at 2.54 0) (size 1.8 1.8) (drill 1) (layers *.Cu *.Mask))
  (pad 2 thru_hole oval (at 1.27 -2.54) (size 1.8 1.8) (drill 1) (layers *.Cu *.Mask))
  (pad 1 thru_hole rect (at 0 0) (size 1.8 1.8) (drill 1) (layers *.Cu *.Mask))
  (pad "" np_thru_hole oval (at 8.89 -20.54) (size 3.5 3.5) (drill 3.5) (layers *.Cu *.Mask))
  (model ${KISYS3DMOD}/Package_TO_SOT_THT.3dshapes/TO-220-15_P2.54x2.54mm_StaggerOdd_Lead5.84mm_TabDown.wrl
    (at (xyz 0 0 0))
    (scale (xyz 1 1 1))
    (rotate (xyz 0 0 0))
  )
)
