(module TO-220F-4_P5.08x2.05mm_StaggerOdd_Lead1.85mm_Vertical (layer F.Cu) (tedit 60803EBE)
  (descr "TO-220F-4, Vertical, RM 2.54mm, staggered type-1, see https://www.njr.com/semicon/PDF/package/TO-220F-4_E.pdf, Alternate KiCad Library")
  (tags "TO-220F-4 Vertical RM 2.54mm staggered type-1")
  (fp_text reference REF** (at 3.81 -7.67) (layer F.SilkS)
    (effects (font (size 1 1) (thickness 0.15)))
  )
  (fp_text value TO-220F-4_P5.08x2.05mm_StaggerOdd_Lead1.85mm_Vertical (at 3.81 2.15) (layer F.Fab)
    (effects (font (size 1 1) (thickness 0.15)))
  )
  (fp_line (start 5.58 -1.3365) (end 5.38 -1.1365) (layer F.SilkS) (width 0.12))
  (fp_line (start 4.58 -1.3365) (end 4.78 -1.1365) (layer F.SilkS) (width 0.12))
  (fp_line (start 5.58 -1.7145) (end 5.58 -1.3365) (layer F.SilkS) (width 0.12))
  (fp_line (start 4.58 -1.7145) (end 4.58 -1.3365) (layer F.SilkS) (width 0.12))
  (fp_line (start 0.5 -1.3365) (end 0.3 -1.1365) (layer F.SilkS) (width 0.12))
  (fp_line (start -0.5 -1.3365) (end -0.3 -1.1365) (layer F.SilkS) (width 0.12))
  (fp_line (start 0.5 -1.7145) (end 0.5 -1.3365) (layer F.SilkS) (width 0.12))
  (fp_line (start -0.5 -1.7145) (end -0.5 -1.3365) (layer F.SilkS) (width 0.12))
  (fp_line (start -1.32 -6.55) (end -1.32 -1.85) (layer F.Fab) (width 0.1))
  (fp_line (start -1.32 -1.85) (end 8.94 -1.85) (layer F.Fab) (width 0.1))
  (fp_line (start 8.94 -1.85) (end 8.94 -6.55) (layer F.Fab) (width 0.1))
  (fp_line (start 8.94 -6.55) (end -1.32 -6.55) (layer F.Fab) (width 0.1))
  (fp_line (start -1.32 -4.03) (end 8.94 -4.03) (layer F.Fab) (width 0.1))
  (fp_line (start 1.96 -6.55) (end 1.96 -4.03) (layer F.Fab) (width 0.1))
  (fp_line (start 5.66 -6.55) (end 5.66 -4.03) (layer F.Fab) (width 0.1))
  (fp_line (start 0 -1.85) (end 0 0) (layer F.Fab) (width 0.1))
  (fp_line (start 5.08 -1.85) (end 5.08 0) (layer F.Fab) (width 0.1))
  (fp_line (start -1.44 -6.67) (end 9.06 -6.67) (layer F.SilkS) (width 0.12))
  (fp_line (start -1.44 -1.729) (end 1.509 -1.729) (layer F.SilkS) (width 0.12))
  (fp_line (start 3.572 -1.729) (end 6.589 -1.729) (layer F.SilkS) (width 0.12))
  (fp_line (start 8.652 -1.729) (end 9.06 -1.729) (layer F.SilkS) (width 0.12))
  (fp_line (start -1.44 -6.67) (end -1.44 -1.729) (layer F.SilkS) (width 0.12))
  (fp_line (start 9.06 -6.67) (end 9.06 -1.729) (layer F.SilkS) (width 0.12))
  (fp_line (start -1.44 -3.911) (end 9.06 -3.911) (layer F.SilkS) (width 0.12))
  (fp_line (start 1.96 -6.67) (end 1.96 -3.911) (layer F.SilkS) (width 0.12))
  (fp_line (start 5.66 -6.67) (end 5.66 -3.911) (layer F.SilkS) (width 0.12))
  (fp_line (start -1.57 -6.8) (end -1.57 1.16) (layer F.CrtYd) (width 0.05))
  (fp_line (start -1.57 1.16) (end 9.19 1.16) (layer F.CrtYd) (width 0.05))
  (fp_line (start 9.19 1.16) (end 9.19 -6.8) (layer F.CrtYd) (width 0.05))
  (fp_line (start 9.19 -6.8) (end -1.57 -6.8) (layer F.CrtYd) (width 0.05))
  (fp_text user %R (at 3.81 -7.67) (layer F.Fab)
    (effects (font (size 1 1) (thickness 0.15)))
  )
  (pad 4 thru_hole oval (at 7.62 -2.05) (size 1.8 1.8) (drill 1.2) (layers *.Cu *.Mask))
  (pad 3 thru_hole oval (at 5.08 0) (size 1.8 1.8) (drill 1.2) (layers *.Cu *.Mask))
  (pad 2 thru_hole oval (at 2.54 -2.05) (size 1.8 1.8) (drill 1.2) (layers *.Cu *.Mask))
  (pad 1 thru_hole rect (at 0 0) (size 1.8 1.8) (drill 1.2) (layers *.Cu *.Mask))
  (model ${KISYS3DMOD}/Package_TO_SOT_THT.3dshapes/TO-220F-4_P5.08x2.05mm_StaggerOdd_Lead1.85mm_Vertical.wrl
    (at (xyz 0 0 0))
    (scale (xyz 1 1 1))
    (rotate (xyz 0 0 0))
  )
)
