(module TO-220-8_Vertical (layer F.Cu) (tedit 60803D6F)
  (descr "TO-220-8 (Multiwatt8), Vertical, 2.54mm Pitch (http://www.st.com/resource/en/datasheet/tda7264.pdf), Alternate KiCad Library")
  (tags "TO-220-9 Vertical 2.54mm Pitch Multiwatt 8")
  (fp_text reference REF** (at 8.89 -3.8) (layer F.SilkS)
    (effects (font (size 1 1) (thickness 0.15)))
  )
  (fp_text value TO-220-8_Vertical (at 8.89 3.1) (layer F.Fab)
    (effects (font (size 1 1) (thickness 0.15)))
  )
  (fp_line (start 19.09 -3.16) (end -1.31 -3.16) (layer F.CrtYd) (width 0.05))
  (fp_line (start 19.09 2.34) (end 19.09 -3.16) (layer F.CrtYd) (width 0.05))
  (fp_line (start -1.31 2.34) (end 19.09 2.34) (layer F.CrtYd) (width 0.05))
  (fp_line (start -1.31 -3.16) (end -1.31 2.34) (layer F.CrtYd) (width 0.05))
  (fp_line (start 10.765 -3.03) (end 10.765 -1.19) (layer F.SilkS) (width 0.12))
  (fp_line (start 7.015 -3.03) (end 7.015 -1.19) (layer F.SilkS) (width 0.12))
  (fp_line (start -1.18 -1.19) (end 18.96 -1.19) (layer F.SilkS) (width 0.12))
  (fp_line (start 18.96 -3.03) (end 18.96 2.21) (layer F.SilkS) (width 0.12))
  (fp_line (start -1.18 -3.03) (end -1.18 2.211) (layer F.SilkS) (width 0.12))
  (fp_line (start -1.18 2.21) (end 18.96 2.21) (layer F.SilkS) (width 0.12))
  (fp_line (start -1.18 -3.03) (end 18.96 -3.03) (layer F.SilkS) (width 0.12))
  (fp_line (start 10.765 -2.91) (end 10.765 -1.31) (layer F.Fab) (width 0.1))
  (fp_line (start 7.015 -2.91) (end 7.015 -1.31) (layer F.Fab) (width 0.1))
  (fp_line (start -1.06 -1.31) (end 18.84 -1.31) (layer F.Fab) (width 0.1))
  (fp_line (start 18.84 -2.91) (end -1.06 -2.91) (layer F.Fab) (width 0.1))
  (fp_line (start 18.84 2.09) (end 18.84 -2.91) (layer F.Fab) (width 0.1))
  (fp_line (start -1.06 2.09) (end 18.84 2.09) (layer F.Fab) (width 0.1))
  (fp_line (start -1.06 -2.91) (end -1.06 2.09) (layer F.Fab) (width 0.1))
  (fp_text user %R (at 8.89 0) (layer F.Fab)
    (effects (font (size 1 1) (thickness 0.15)))
  )
  (pad 8 thru_hole oval (at 17.78 0) (size 1.5 1.5) (drill 0.7) (layers *.Cu *.Mask))
  (pad 7 thru_hole oval (at 15.24 0) (size 1.5 1.5) (drill 0.7) (layers *.Cu *.Mask))
  (pad 6 thru_hole oval (at 12.7 0) (size 1.5 1.5) (drill 0.7) (layers *.Cu *.Mask))
  (pad 5 thru_hole oval (at 10.16 0) (size 1.5 1.5) (drill 0.7) (layers *.Cu *.Mask))
  (pad 4 thru_hole oval (at 7.62 0) (size 1.5 1.5) (drill 0.7) (layers *.Cu *.Mask))
  (pad 3 thru_hole oval (at 5.08 0) (size 1.5 1.5) (drill 0.7) (layers *.Cu *.Mask))
  (pad 2 thru_hole oval (at 2.54 0) (size 1.5 1.5) (drill 0.7) (layers *.Cu *.Mask))
  (pad 1 thru_hole rect (at 0 0) (size 1.5 1.5) (drill 0.7) (layers *.Cu *.Mask))
  (model ${KISYS3DMOD}/Package_TO_SOT_THT.3dshapes/TO-220-8_Vertical.wrl
    (at (xyz 0 0 0))
    (scale (xyz 1 1 1))
    (rotate (xyz 0 0 0))
  )
)
