(module TO-247-3_Horizontal_TabUp_BCE (layer F.Cu) (tedit 60803F66)
  (descr "TO-247-3, Horizontal, RM 5.45mm, see https://toshiba.semicon-storage.com/us/product/mosfet/to-247-4l.html, Alternate KiCad Library")
  (tags "TO-247-3 Horizontal RM 5.45mm")
  (fp_text reference REF** (at 5.45 27.15) (layer F.SilkS)
    (effects (font (size 1 1) (thickness 0.15)))
  )
  (fp_text value TO-247-3_Horizontal_TabUp_BCE (at 5.45 -3.25) (layer F.Fab)
    (effects (font (size 1 1) (thickness 0.15)))
  )
  (fp_line (start 3.95 4.95) (end 3.95 1.95) (layer F.SilkS) (width 0.12))
  (fp_line (start 6.95 1.95) (end 6.6 1.95) (layer F.SilkS) (width 0.12))
  (fp_line (start 6.95 4.95) (end 6.95 1.95) (layer F.SilkS) (width 0.12))
  (fp_line (start 3.95 1.95) (end 4.3 1.95) (layer F.SilkS) (width 0.12))
  (fp_line (start 9.4 4.5) (end 9.4 3) (layer F.SilkS) (width 0.12))
  (fp_line (start 11.4 4.95) (end 11.4 2.35) (layer F.SilkS) (width 0.12))
  (fp_line (start 1.5 1.9) (end 1.45 1.9) (layer F.SilkS) (width 0.12))
  (fp_line (start -0.5 4.9) (end -0.5 2.45) (layer F.SilkS) (width 0.12))
  (fp_line (start 1.5 4.9) (end 1.5 1.9) (layer F.SilkS) (width 0.12))
  (fp_line (start 11.4 4.5) (end 11.4 3) (layer F.SilkS) (width 0.12))
  (fp_line (start 9.4 4.95) (end 9.4 1.95) (layer F.SilkS) (width 0.12))
  (fp_line (start 9.4 1.95) (end 9.8 1.95) (layer F.SilkS) (width 0.12))
  (fp_circle (center 5.45 19.86) (end 7.255 19.86) (layer F.Fab) (width 0.1))
  (fp_line (start -2.5 5.08) (end -2.5 26.03) (layer F.Fab) (width 0.1))
  (fp_line (start -2.5 26.03) (end 13.4 26.03) (layer F.Fab) (width 0.1))
  (fp_line (start 13.4 26.03) (end 13.4 5.08) (layer F.Fab) (width 0.1))
  (fp_line (start 13.4 5.08) (end -2.5 5.08) (layer F.Fab) (width 0.1))
  (fp_line (start 0 5.08) (end 0 0) (layer F.Fab) (width 0.1))
  (fp_line (start 5.45 5.08) (end 5.45 0) (layer F.Fab) (width 0.1))
  (fp_line (start 10.9 5.08) (end 10.9 0) (layer F.Fab) (width 0.1))
  (fp_line (start -2.62 4.96) (end 13.52 4.96) (layer F.SilkS) (width 0.12))
  (fp_line (start -2.62 26.15) (end 13.52 26.15) (layer F.SilkS) (width 0.12))
  (fp_line (start -2.62 4.96) (end -2.62 26.15) (layer F.SilkS) (width 0.12))
  (fp_line (start 13.52 4.96) (end 13.52 26.15) (layer F.SilkS) (width 0.12))
  (fp_line (start -2.75 -2.5) (end -2.75 26.28) (layer F.CrtYd) (width 0.05))
  (fp_line (start -2.75 26.28) (end 13.65 26.28) (layer F.CrtYd) (width 0.05))
  (fp_line (start 13.65 26.28) (end 13.65 -2.5) (layer F.CrtYd) (width 0.05))
  (fp_line (start 13.65 -2.5) (end -2.75 -2.5) (layer F.CrtYd) (width 0.05))
  (fp_text user %R (at 5.45 27.15) (layer F.Fab)
    (effects (font (size 1 1) (thickness 0.15)))
  )
  (fp_arc (start -2.54 19.812) (end -2.54 22.098) (angle -14.03624347) (layer F.SilkS) (width 0.12))
  (fp_arc (start -2.539999 19.812001) (end -1.524 21.844) (angle -22.83366811) (layer F.SilkS) (width 0.12))
  (fp_arc (start -2.54 19.812) (end -0.508001 20.827999) (angle -20.22484815) (layer F.SilkS) (width 0.12))
  (fp_arc (start -2.54 19.812) (end -0.508001 18.796001) (angle 20.22484815) (layer F.SilkS) (width 0.12))
  (fp_arc (start -2.54 19.812) (end -1.524001 17.780001) (angle 22.83366546) (layer F.SilkS) (width 0.12))
  (fp_arc (start -2.54 19.812) (end -2.54 17.526) (angle 14.03624347) (layer F.SilkS) (width 0.12))
  (fp_arc (start 13.462 19.812) (end 11.430001 20.827999) (angle 20.22484815) (layer F.SilkS) (width 0.12))
  (fp_arc (start 13.462 19.812) (end 13.462 17.526) (angle -14.03624347) (layer F.SilkS) (width 0.12))
  (fp_arc (start 13.461999 19.811999) (end 12.446 17.78) (angle -22.83366811) (layer F.SilkS) (width 0.12))
  (fp_arc (start 13.462 19.812) (end 13.462 22.098) (angle 14.03624347) (layer F.SilkS) (width 0.12))
  (fp_arc (start 13.462 19.812) (end 11.430001 18.796001) (angle -20.22484815) (layer F.SilkS) (width 0.12))
  (fp_arc (start 13.462 19.812) (end 12.446001 21.843999) (angle 22.83366546) (layer F.SilkS) (width 0.12))
  (fp_text user B (at 0 -3.048) (layer F.SilkS)
    (effects (font (size 1 1) (thickness 0.15)))
  )
  (fp_text user C (at 5.461 -3.048) (layer F.SilkS)
    (effects (font (size 1 1) (thickness 0.15)))
  )
  (fp_text user E (at 10.922 -3.048) (layer F.SilkS)
    (effects (font (size 1 1) (thickness 0.15)))
  )
  (pad 3 thru_hole oval (at 10.9 0) (size 2.5 4.5) (drill 1.5) (layers *.Cu *.Mask))
  (pad 2 thru_hole oval (at 5.45 0) (size 2.5 4.5) (drill 1.5) (layers *.Cu *.Mask))
  (pad 1 thru_hole rect (at 0 0) (size 2.5 4.5) (drill 1.5) (layers *.Cu *.Mask))
  (pad "" np_thru_hole oval (at 5.45 19.86) (size 3.6 3.6) (drill 3.6) (layers *.Cu *.Mask))
  (model ${KISYS3DMOD}/Package_TO_SOT_THT.3dshapes/TO-247-3_Horizontal_TabUp.wrl
    (at (xyz 0 0 0))
    (scale (xyz 1 1 1))
    (rotate (xyz 0 0 0))
  )
)
