(module TO-247-3_Vertical_GDS (layer F.Cu) (tedit 60803F86)
  (descr "TO-247-3, Vertical, RM 5.45mm, see https://toshiba.semicon-storage.com/us/product/mosfet/to-247-4l.html, Alternate KiCad Library")
  (tags "TO-247-3 Vertical RM 5.45mm")
  (fp_text reference REF** (at 5.45 -3.45) (layer F.SilkS)
    (effects (font (size 1 1) (thickness 0.15)))
  )
  (fp_text value TO-247-3_Vertical_GDS (at 5.45 3.95) (layer F.Fab)
    (effects (font (size 1 1) (thickness 0.15)))
  )
  (fp_line (start -2.5 -2.33) (end -2.5 2.7) (layer F.Fab) (width 0.1))
  (fp_line (start -2.5 2.7) (end 13.4 2.7) (layer F.Fab) (width 0.1))
  (fp_line (start 13.4 2.7) (end 13.4 -2.33) (layer F.Fab) (width 0.1))
  (fp_line (start 13.4 -2.33) (end -2.5 -2.33) (layer F.Fab) (width 0.1))
  (fp_line (start 3.645 -2.33) (end 3.645 2.7) (layer F.Fab) (width 0.1))
  (fp_line (start 7.255 -2.33) (end 7.255 2.7) (layer F.Fab) (width 0.1))
  (fp_line (start -2.62 -2.451) (end 13.52 -2.451) (layer F.SilkS) (width 0.12))
  (fp_line (start -2.62 2.82) (end 13.52 2.82) (layer F.SilkS) (width 0.12))
  (fp_line (start -2.62 -2.451) (end -2.62 2.82) (layer F.SilkS) (width 0.12))
  (fp_line (start 13.52 -2.451) (end 13.52 2.82) (layer F.SilkS) (width 0.12))
  (fp_line (start 3.646 -2.451) (end 3.646 2.82) (layer F.SilkS) (width 0.12))
  (fp_line (start 7.255 -2.451) (end 7.255 2.82) (layer F.SilkS) (width 0.12))
  (fp_line (start -2.75 -2.59) (end -2.75 2.95) (layer F.CrtYd) (width 0.05))
  (fp_line (start -2.75 2.95) (end 13.65 2.95) (layer F.CrtYd) (width 0.05))
  (fp_line (start 13.65 2.95) (end 13.65 -2.59) (layer F.CrtYd) (width 0.05))
  (fp_line (start 13.65 -2.59) (end -2.75 -2.59) (layer F.CrtYd) (width 0.05))
  (fp_text user %R (at 5.45 -3.45) (layer F.Fab)
    (effects (font (size 1 1) (thickness 0.15)))
  )
  (fp_text user G (at 0 3.81) (layer F.SilkS)
    (effects (font (size 1 1) (thickness 0.15)))
  )
  (fp_text user D (at 5.461 3.81) (layer F.SilkS)
    (effects (font (size 1 1) (thickness 0.15)))
  )
  (fp_text user S (at 10.922 3.81) (layer F.SilkS)
    (effects (font (size 1 1) (thickness 0.15)))
  )
  (pad 3 thru_hole oval (at 10.9 0) (size 2.5 4.5) (drill 1.5) (layers *.Cu *.Mask))
  (pad 2 thru_hole oval (at 5.45 0) (size 2.5 4.5) (drill 1.5) (layers *.Cu *.Mask))
  (pad 1 thru_hole rect (at 0 0) (size 2.5 4.5) (drill 1.5) (layers *.Cu *.Mask))
  (model ${KISYS3DMOD}/Package_TO_SOT_THT.3dshapes/TO-247-3_Vertical.wrl
    (at (xyz 0 0 0))
    (scale (xyz 1 1 1))
    (rotate (xyz 0 0 0))
  )
)
