(module TO-247-4_Horizontal_TabUp (layer F.Cu) (tedit 60803F95)
  (descr "TO-247-4, Horizontal, RM 2.54mm, see https://toshiba.semicon-storage.com/us/product/mosfet/to-247-4l.html, Alternate KiCad Library")
  (tags "TO-247-4 Horizontal RM 2.54mm")
  (fp_text reference REF** (at 5.08 27.15) (layer F.SilkS)
    (effects (font (size 1 1) (thickness 0.15)))
  )
  (fp_text value TO-247-4_Horizontal_TabUp (at 5.08 -3.25) (layer F.Fab)
    (effects (font (size 1 1) (thickness 0.15)))
  )
  (fp_line (start 9.46 4.9) (end 9.4615 2.286) (layer F.SilkS) (width 0.12))
  (fp_line (start 10.8585 2.286) (end 10.86 4.9) (layer F.SilkS) (width 0.12))
  (fp_line (start 6.92 4.9) (end 6.9215 2.286) (layer F.SilkS) (width 0.12))
  (fp_line (start 8.3185 2.286) (end 8.32 4.9) (layer F.SilkS) (width 0.12))
  (fp_line (start 5.7785 2.286) (end 5.78 4.9) (layer F.SilkS) (width 0.12))
  (fp_line (start 4.38 4.9) (end 4.3815 2.286) (layer F.SilkS) (width 0.12))
  (fp_line (start 0.7 2.5) (end 0.7 4.9) (layer F.SilkS) (width 0.12))
  (fp_line (start -0.7 4.9) (end -0.7 2.5) (layer F.SilkS) (width 0.12))
  (fp_line (start -3.001 4.96) (end -3.001 26.15) (layer F.SilkS) (width 0.12))
  (fp_line (start 13.139 4.96) (end 13.139 26.15) (layer F.SilkS) (width 0.12))
  (fp_line (start -3.001 26.15) (end 13.139 26.15) (layer F.SilkS) (width 0.12))
  (fp_line (start -3.001 4.96) (end 13.139 4.96) (layer F.SilkS) (width 0.12))
  (fp_circle (center 5.08 19.86) (end 6.885 19.86) (layer F.Fab) (width 0.1))
  (fp_line (start -2.87 5.08) (end -2.87 26.03) (layer F.Fab) (width 0.1))
  (fp_line (start -2.87 26.03) (end 13.03 26.03) (layer F.Fab) (width 0.1))
  (fp_line (start 13.03 26.03) (end 13.03 5.08) (layer F.Fab) (width 0.1))
  (fp_line (start 13.03 5.08) (end -2.87 5.08) (layer F.Fab) (width 0.1))
  (fp_line (start 0 5.08) (end 0 0) (layer F.Fab) (width 0.1))
  (fp_line (start 5.08 5.08) (end 5.08 0) (layer F.Fab) (width 0.1))
  (fp_line (start 7.62 5.08) (end 7.62 0) (layer F.Fab) (width 0.1))
  (fp_line (start 10.16 5.08) (end 10.16 0) (layer F.Fab) (width 0.1))
  (fp_line (start -3.12 -2.5) (end -3.12 26.28) (layer F.CrtYd) (width 0.05))
  (fp_line (start -3.12 26.28) (end 13.28 26.28) (layer F.CrtYd) (width 0.05))
  (fp_line (start 13.28 26.28) (end 13.28 -2.5) (layer F.CrtYd) (width 0.05))
  (fp_line (start 13.28 -2.5) (end -3.12 -2.5) (layer F.CrtYd) (width 0.05))
  (fp_text user %R (at 5.08 27.15) (layer F.Fab)
    (effects (font (size 1 1) (thickness 0.15)))
  )
  (fp_arc (start 13.081 19.812) (end 13.081 22.098) (angle 14.03624347) (layer F.SilkS) (width 0.12))
  (fp_arc (start -2.920999 19.812001) (end -1.905 21.844) (angle -22.83366811) (layer F.SilkS) (width 0.12))
  (fp_arc (start 13.081 19.812) (end 13.081 17.526) (angle -14.03624347) (layer F.SilkS) (width 0.12))
  (fp_arc (start 13.080999 19.811999) (end 12.065 17.78) (angle -22.83366811) (layer F.SilkS) (width 0.12))
  (fp_arc (start -2.921 19.812) (end -0.889001 20.827999) (angle -20.22484815) (layer F.SilkS) (width 0.12))
  (fp_arc (start 13.081 19.812) (end 11.049001 18.796001) (angle -20.22484815) (layer F.SilkS) (width 0.12))
  (fp_arc (start 13.081 19.812) (end 11.049001 20.827999) (angle 20.22484815) (layer F.SilkS) (width 0.12))
  (fp_arc (start -2.921 19.812) (end -2.921 22.098) (angle -14.03624347) (layer F.SilkS) (width 0.12))
  (fp_arc (start -2.921 19.812) (end -1.905001 17.780001) (angle 22.83366546) (layer F.SilkS) (width 0.12))
  (fp_arc (start -2.921 19.812) (end -0.889001 18.796001) (angle 20.22484815) (layer F.SilkS) (width 0.12))
  (fp_arc (start 13.081 19.812) (end 12.065001 21.843999) (angle 22.83366546) (layer F.SilkS) (width 0.12))
  (fp_arc (start -2.921 19.812) (end -2.921 17.526) (angle 14.03624347) (layer F.SilkS) (width 0.12))
  (pad 4 thru_hole oval (at 10.16 0) (size 1.905 4.5) (drill 1.5) (layers *.Cu *.Mask))
  (pad 3 thru_hole oval (at 7.62 0) (size 1.905 4.5) (drill 1.5) (layers *.Cu *.Mask))
  (pad 2 thru_hole oval (at 5.08 0) (size 1.905 4.5) (drill 1.5) (layers *.Cu *.Mask))
  (pad 1 thru_hole rect (at 0 0) (size 1.905 4.5) (drill 1.5) (layers *.Cu *.Mask))
  (pad "" np_thru_hole oval (at 5.08 19.86) (size 3.6 3.6) (drill 3.6) (layers *.Cu *.Mask))
  (model ${KISYS3DMOD}/Package_TO_SOT_THT.3dshapes/TO-247-4_Horizontal_TabUp.wrl
    (at (xyz 0 0 0))
    (scale (xyz 1 1 1))
    (rotate (xyz 0 0 0))
  )
)
