(module TO-3P-3_Vertical_BCE (layer F.Cu) (tedit 60802FEC)
  (descr "TO-3P-3, Vertical, RM 5.45mm, , see https://toshiba.semicon-storage.com/ap-en/design-support/package/detail.TO-3P(N).html, Alternate KiCad Library")
  (tags "TO-3P-3 Vertical RM 5.45mm ")
  (fp_text reference REF** (at 5.45 -4.12) (layer F.SilkS)
    (effects (font (size 1 1) (thickness 0.15)))
  )
  (fp_text value TO-3P-3_Vertical_BCE (at 5.45 3.5) (layer F.Fab)
    (effects (font (size 1 1) (thickness 0.15)))
  )
  (fp_line (start -2.3 -3) (end -2.3 1.5) (layer F.Fab) (width 0.1))
  (fp_line (start -2.3 1.5) (end 13.2 1.5) (layer F.Fab) (width 0.1))
  (fp_line (start 13.2 1.5) (end 13.2 -3) (layer F.Fab) (width 0.1))
  (fp_line (start 13.2 -3) (end -2.3 -3) (layer F.Fab) (width 0.1))
  (fp_line (start -2.3 -1.5) (end 13.2 -1.5) (layer F.Fab) (width 0.1))
  (fp_line (start 3.85 -3) (end 3.85 -1.5) (layer F.Fab) (width 0.1))
  (fp_line (start 7.05 -3) (end 7.05 -1.5) (layer F.Fab) (width 0.1))
  (fp_line (start -2.42 -3.12) (end 13.32 -3.12) (layer F.SilkS) (width 0.12))
  (fp_line (start -2.42 1.62) (end -1.4 1.62) (layer F.SilkS) (width 0.12))
  (fp_line (start 1.4 1.62) (end 4.051 1.62) (layer F.SilkS) (width 0.12))
  (fp_line (start 6.85 1.62) (end 9.5 1.62) (layer F.SilkS) (width 0.12))
  (fp_line (start 12.3 1.62) (end 13.32 1.62) (layer F.SilkS) (width 0.12))
  (fp_line (start -2.42 -3.12) (end -2.42 1.62) (layer F.SilkS) (width 0.12))
  (fp_line (start 13.32 -3.12) (end 13.32 1.62) (layer F.SilkS) (width 0.12))
  (fp_line (start -2.42 -1.38) (end -1.4 -1.38) (layer F.SilkS) (width 0.12))
  (fp_line (start 1.4 -1.38) (end 4.051 -1.38) (layer F.SilkS) (width 0.12))
  (fp_line (start 6.85 -1.38) (end 9.5 -1.38) (layer F.SilkS) (width 0.12))
  (fp_line (start 12.3 -1.38) (end 13.32 -1.38) (layer F.SilkS) (width 0.12))
  (fp_line (start 3.85 -3.12) (end 3.85 -1.38) (layer F.SilkS) (width 0.12))
  (fp_line (start 7.051 -3.12) (end 7.051 -1.38) (layer F.SilkS) (width 0.12))
  (fp_line (start -2.55 -3.25) (end -2.55 2.5) (layer F.CrtYd) (width 0.05))
  (fp_line (start -2.55 2.5) (end 13.45 2.5) (layer F.CrtYd) (width 0.05))
  (fp_line (start 13.45 2.5) (end 13.45 -3.25) (layer F.CrtYd) (width 0.05))
  (fp_line (start 13.45 -3.25) (end -2.55 -3.25) (layer F.CrtYd) (width 0.05))
  (fp_text user %R (at 5.45 -4.12) (layer F.Fab)
    (effects (font (size 1 1) (thickness 0.15)))
  )
  (fp_text user B (at 0 3.175) (layer F.SilkS)
    (effects (font (size 1 1) (thickness 0.15)))
  )
  (fp_text user C (at 5.461 3.175) (layer F.SilkS)
    (effects (font (size 1 1) (thickness 0.15)))
  )
  (fp_text user E (at 10.922 3.175) (layer F.SilkS)
    (effects (font (size 1 1) (thickness 0.15)))
  )
  (pad 3 thru_hole oval (at 10.9 0) (size 2.5 4.5) (drill 1.5) (layers *.Cu *.Mask))
  (pad 2 thru_hole oval (at 5.45 0) (size 2.5 4.5) (drill 1.5) (layers *.Cu *.Mask))
  (pad 1 thru_hole rect (at 0 0) (size 2.5 4.5) (drill 1.5) (layers *.Cu *.Mask))
  (model ${KISYS3DMOD}/Package_TO_SOT_THT.3dshapes/TO-3P-3_Vertical.wrl
    (at (xyz 0 0 0))
    (scale (xyz 1 1 1))
    (rotate (xyz 0 0 0))
  )
)
