(module TO-39-3_Board (layer F.Cu) (tedit 60803650)
  (descr "TO-39-3 Mounted through a board, Alternate KiCad Library")
  (tags TO-39-3)
  (fp_text reference REF** (at 2.54 5.842) (layer F.SilkS)
    (effects (font (size 1 1) (thickness 0.15)))
  )
  (fp_text value TO-39-3_Board (at 2.54 5.82) (layer F.Fab)
    (effects (font (size 1 1) (thickness 0.15)))
  )
  (fp_circle (center 2.54 0) (end 6.79 0) (layer F.Fab) (width 0.1))
  (fp_line (start 7.49 -4.95) (end -2.41 -4.95) (layer F.CrtYd) (width 0.05))
  (fp_line (start 7.49 4.95) (end 7.49 -4.95) (layer F.CrtYd) (width 0.05))
  (fp_line (start -2.41 4.95) (end 7.49 4.95) (layer F.CrtYd) (width 0.05))
  (fp_line (start -2.41 -4.95) (end -2.41 4.95) (layer F.CrtYd) (width 0.05))
  (fp_line (start -2.125856 3.888039) (end -1.234902 2.997084) (layer F.SilkS) (width 0.12))
  (fp_line (start -1.348039 4.665856) (end -2.125856 3.888039) (layer F.SilkS) (width 0.12))
  (fp_line (start -0.457084 3.774902) (end -1.348039 4.665856) (layer F.SilkS) (width 0.12))
  (fp_line (start -1.879621 3.81151) (end -1.07352 3.005408) (layer F.Fab) (width 0.1))
  (fp_line (start -1.27151 4.419621) (end -1.879621 3.81151) (layer F.Fab) (width 0.1))
  (fp_line (start -0.465408 3.61352) (end -1.27151 4.419621) (layer F.Fab) (width 0.1))
  (fp_arc (start 2.54 0) (end -0.457084 3.774902) (angle -346.9) (layer F.SilkS) (width 0.12))
  (fp_arc (start 2.54 0) (end -0.465408 3.61352) (angle -349.5) (layer F.Fab) (width 0.1))
  (fp_text user %R (at 2.54 -5.82) (layer F.Fab)
    (effects (font (size 1 1) (thickness 0.15)))
  )
  (pad 1 smd rect (at -4.572 0) (size 3 1.2) (layers F.Cu F.Paste F.Mask)
    (zone_connect 2))
  (pad 3 smd rect (at 9.652 0) (size 3 1.2) (layers F.Cu F.Paste F.Mask)
    (zone_connect 2))
  (pad 2 smd rect (at 2.54 -7.112) (size 1.2 3) (layers F.Cu F.Paste F.Mask)
    (zone_connect 2))
  (pad 3 thru_hole circle (at 2.54 0) (size 9.2 9.2) (drill 8.4) (layers *.Cu *.Mask)
    (zone_connect 2))
)
