(module TO-3PB-3_Horizontal_TabDown (layer F.Cu) (tedit 60803005)
  (descr "TO-3PB-3, Horizontal, RM 5.45mm, , see http://www.onsemi.com/pub/Collateral/340AC.PDF, Alternate KiCad Library")
  (tags "TO-3PB-3 Horizontal RM 5.45mm ")
  (fp_text reference REF** (at 5.45 -22.72) (layer F.SilkS)
    (effects (font (size 1 1) (thickness 0.15)))
  )
  (fp_text value TO-3PB-3_Horizontal_TabDown (at 5.45 3.25) (layer F.Fab)
    (effects (font (size 1 1) (thickness 0.15)))
  )
  (fp_line (start 12.28 -1.58) (end 13.32 -1.58) (layer F.SilkS) (width 0.12))
  (fp_line (start 6.78 -1.58) (end 9.6 -1.58) (layer F.SilkS) (width 0.12))
  (fp_line (start 1.5 -1.58) (end 4.1 -1.58) (layer F.SilkS) (width 0.12))
  (fp_line (start -2.42 -1.58) (end -1.5 -1.58) (layer F.SilkS) (width 0.12))
  (fp_line (start -2.42 -21.82) (end -2.42 -1.58) (layer F.SilkS) (width 0.12))
  (fp_line (start -2.42 -21.82) (end 13.32 -21.82) (layer F.SilkS) (width 0.12))
  (fp_line (start 11 -21) (end 13 -17.9) (layer F.SilkS) (width 0.12))
  (fp_line (start -2 -17.9) (end -0.1 -21) (layer F.SilkS) (width 0.12))
  (fp_line (start 13 -17.9) (end 13.3 -17.9) (layer F.SilkS) (width 0.12))
  (fp_line (start -0.1 -21) (end 11 -21) (layer F.SilkS) (width 0.12))
  (fp_line (start -2 -17.9) (end -2.4 -17.9) (layer F.SilkS) (width 0.12))
  (fp_line (start 13.32 -21.82) (end 13.32 -1.58) (layer F.SilkS) (width 0.12))
  (fp_line (start 13.51 -21.85) (end -2.6 -21.85) (layer F.CrtYd) (width 0.05))
  (fp_line (start 13.51 2.5) (end 13.51 -21.85) (layer F.CrtYd) (width 0.05))
  (fp_line (start -2.6 2.5) (end 13.51 2.5) (layer F.CrtYd) (width 0.05))
  (fp_line (start -2.6 -21.85) (end -2.6 2.5) (layer F.CrtYd) (width 0.05))
  (fp_line (start 10.9 -1.6) (end 10.9 0) (layer F.Fab) (width 0.1))
  (fp_line (start 5.45 -1.6) (end 5.45 0) (layer F.Fab) (width 0.1))
  (fp_line (start 0 -1.6) (end 0 0) (layer F.Fab) (width 0.1))
  (fp_line (start 13.25 -1.6) (end -2.35 -1.6) (layer F.Fab) (width 0.1))
  (fp_line (start 13.25 -15.401) (end 13.25 -1.6) (layer F.Fab) (width 0.1))
  (fp_line (start 10.55 -20.1) (end 13.25 -15.401) (layer F.Fab) (width 0.1))
  (fp_line (start 0.351 -20.1) (end 10.55 -20.1) (layer F.Fab) (width 0.1))
  (fp_line (start -2.35 -15.401) (end 0.351 -20.1) (layer F.Fab) (width 0.1))
  (fp_line (start -2.35 -1.6) (end -2.35 -15.401) (layer F.Fab) (width 0.1))
  (fp_line (start 13.25 -19.3) (end 13.25 -15.401) (layer F.Fab) (width 0.1))
  (fp_line (start 11.95 -21.6) (end 13.25 -19.3) (layer F.Fab) (width 0.1))
  (fp_line (start -1.05 -21.6) (end 11.95 -21.6) (layer F.Fab) (width 0.1))
  (fp_line (start -2.35 -19.3) (end -1.05 -21.6) (layer F.Fab) (width 0.1))
  (fp_line (start -2.35 -15.401) (end -2.35 -19.3) (layer F.Fab) (width 0.1))
  (fp_circle (center 5.45 -16.6) (end 7.05 -16.6) (layer F.Fab) (width 0.1))
  (fp_text user %R (at 5.45 -22.72) (layer F.Fab)
    (effects (font (size 1 1) (thickness 0.15)))
  )
  (fp_arc (start 13.3 -10.7) (end 13.3 -11.9) (angle -180) (layer F.SilkS) (width 0.12))
  (fp_arc (start -2.4 -10.7) (end -2.4 -9.5) (angle -180) (layer F.SilkS) (width 0.12))
  (pad 3 thru_hole oval (at 10.9 0) (size 2.5 4.5) (drill 1.5) (layers *.Cu *.Mask))
  (pad 2 thru_hole oval (at 5.45 0) (size 2.5 4.5) (drill 1.5) (layers *.Cu *.Mask))
  (pad 1 thru_hole rect (at 0 0) (size 2.5 4.5) (drill 1.5) (layers *.Cu *.Mask))
  (pad "" np_thru_hole oval (at 5.45 -16.6) (size 3.4 3.4) (drill 3.4) (layers *.Cu *.Mask))
  (model ${KISYS3DMOD}/Package_TO_SOT_THT.3dshapes/TO-3PB-3_Horizontal_TabDown.wrl
    (at (xyz 0 0 0))
    (scale (xyz 1 1 1))
    (rotate (xyz 0 0 0))
  )
)
