(module TO-3P-3_Horizontal_TabUp_GDS (layer F.Cu) (tedit 60802FDB)
  (descr "TO-3P-3, Horizontal, RM 5.45mm, , see https://toshiba.semicon-storage.com/ap-en/design-support/package/detail.TO-3P(N).html, Alternate KiCad Library")
  (tags "TO-3P-3 Horizontal RM 5.45mm ")
  (fp_text reference REF** (at 5.45 24.12) (layer F.SilkS)
    (effects (font (size 1 1) (thickness 0.15)))
  )
  (fp_text value TO-3P-3_Horizontal_TabUp_GDS (at 5.45 -3.25) (layer F.Fab)
    (effects (font (size 1 1) (thickness 0.15)))
  )
  (fp_circle (center 5.45 18.8) (end 7.05 18.8) (layer F.Fab) (width 0.1))
  (fp_line (start -2.3 22.3) (end -2.3 21) (layer F.Fab) (width 0.1))
  (fp_line (start -2.3 21) (end -1.15 23) (layer F.Fab) (width 0.1))
  (fp_line (start -1.15 23) (end 12.05 23) (layer F.Fab) (width 0.1))
  (fp_line (start 12.05 23) (end 13.2 21) (layer F.Fab) (width 0.1))
  (fp_line (start 13.2 21) (end 13.2 22.3) (layer F.Fab) (width 0.1))
  (fp_line (start 13.2 22.3) (end -2.3 22.3) (layer F.Fab) (width 0.1))
  (fp_line (start -2.3 3) (end -2.3 18.8) (layer F.Fab) (width 0.1))
  (fp_line (start -2.3 18.8) (end -0.11 22.3) (layer F.Fab) (width 0.1))
  (fp_line (start -0.11 22.3) (end 11.01 22.3) (layer F.Fab) (width 0.1))
  (fp_line (start 11.01 22.3) (end 13.2 18.8) (layer F.Fab) (width 0.1))
  (fp_line (start 13.2 18.8) (end 13.2 3) (layer F.Fab) (width 0.1))
  (fp_line (start 13.2 3) (end -2.3 3) (layer F.Fab) (width 0.1))
  (fp_line (start 0 3) (end 0 0) (layer F.Fab) (width 0.1))
  (fp_line (start 5.45 3) (end 5.45 0) (layer F.Fab) (width 0.1))
  (fp_line (start 10.9 3) (end 10.9 0) (layer F.Fab) (width 0.1))
  (fp_line (start -2.55 -2.5) (end -2.55 23.25) (layer F.CrtYd) (width 0.05))
  (fp_line (start -2.55 23.25) (end 13.45 23.25) (layer F.CrtYd) (width 0.05))
  (fp_line (start 13.45 23.25) (end 13.45 -2.5) (layer F.CrtYd) (width 0.05))
  (fp_line (start 13.45 -2.5) (end -2.55 -2.5) (layer F.CrtYd) (width 0.05))
  (fp_line (start -1 20.8) (end -0.8 21.1) (layer F.SilkS) (width 0.12))
  (fp_line (start -0.6 21.4) (end -0.4 21.7) (layer F.SilkS) (width 0.12))
  (fp_line (start -0.2 22) (end 0 22.3) (layer F.SilkS) (width 0.12))
  (fp_line (start 12.7 19.6) (end 12.5 19.9) (layer F.SilkS) (width 0.12))
  (fp_line (start 12.3 20.2) (end 12.1 20.5) (layer F.SilkS) (width 0.12))
  (fp_line (start 11.9 20.8) (end 11.7 21.1) (layer F.SilkS) (width 0.12))
  (fp_line (start -1.8 19.6) (end -1.6 19.9) (layer F.SilkS) (width 0.12))
  (fp_line (start -1.4 20.2) (end -1.2 20.5) (layer F.SilkS) (width 0.12))
  (fp_line (start 11.5 21.4) (end 11.3 21.7) (layer F.SilkS) (width 0.12))
  (fp_line (start 11.1 22) (end 10.9 22.3) (layer F.SilkS) (width 0.12))
  (fp_line (start 9.8 22.3) (end 9.5 22.3) (layer F.SilkS) (width 0.12))
  (fp_line (start 10.5 22.3) (end 10.2 22.3) (layer F.SilkS) (width 0.12))
  (fp_line (start 9.1 22.3) (end 8.8 22.3) (layer F.SilkS) (width 0.12))
  (fp_line (start 8.4 22.3) (end 8.1 22.3) (layer F.SilkS) (width 0.12))
  (fp_line (start 7.7 22.3) (end 7.4 22.3) (layer F.SilkS) (width 0.12))
  (fp_line (start 7 22.3) (end 6.7 22.3) (layer F.SilkS) (width 0.12))
  (fp_line (start 13 19.2) (end 13.3 19.2) (layer F.SilkS) (width 0.12))
  (fp_line (start -2.1 19.2) (end -2.4 19.2) (layer F.SilkS) (width 0.12))
  (fp_line (start 4.45 2.85) (end 4.45 2.1) (layer F.SilkS) (width 0.12))
  (fp_line (start 13.32 23.12) (end 13.32 2.88) (layer F.SilkS) (width 0.12))
  (fp_line (start 11.9 2.85) (end 11.9 2.1) (layer F.SilkS) (width 0.12))
  (fp_line (start 9.9 2.85) (end 9.9 2.1) (layer F.SilkS) (width 0.12))
  (fp_line (start 13.32 23.12) (end -2.42 23.12) (layer F.SilkS) (width 0.12))
  (fp_line (start -1 2.85) (end -1 2.5) (layer F.SilkS) (width 0.12))
  (fp_line (start -2.42 23.12) (end -2.42 2.88) (layer F.SilkS) (width 0.12))
  (fp_line (start 1 2.85) (end 1 2.5) (layer F.SilkS) (width 0.12))
  (fp_line (start 6.45 2.85) (end 6.45 2.1) (layer F.SilkS) (width 0.12))
  (fp_line (start 13.32 2.88) (end -2.42 2.88) (layer F.SilkS) (width 0.12))
  (fp_line (start 5.6 22.3) (end 5.3 22.3) (layer F.SilkS) (width 0.12))
  (fp_line (start 4.9 22.3) (end 4.6 22.3) (layer F.SilkS) (width 0.12))
  (fp_line (start 4.2 22.3) (end 3.9 22.3) (layer F.SilkS) (width 0.12))
  (fp_line (start 2.8 22.3) (end 2.5 22.3) (layer F.SilkS) (width 0.12))
  (fp_line (start 3.5 22.3) (end 3.2 22.3) (layer F.SilkS) (width 0.12))
  (fp_line (start 2.1 22.3) (end 1.8 22.3) (layer F.SilkS) (width 0.12))
  (fp_line (start 1.4 22.3) (end 1.1 22.3) (layer F.SilkS) (width 0.12))
  (fp_line (start 0.7 22.3) (end 0.4 22.3) (layer F.SilkS) (width 0.12))
  (fp_line (start 6.3 22.3) (end 6 22.3) (layer F.SilkS) (width 0.12))
  (fp_text user %R (at 5.45 24.12) (layer F.Fab)
    (effects (font (size 1 1) (thickness 0.15)))
  )
  (fp_text user D (at 5.461 -3.048) (layer F.SilkS)
    (effects (font (size 1 1) (thickness 0.15)))
  )
  (fp_text user G (at 0 -3.048) (layer F.SilkS)
    (effects (font (size 1 1) (thickness 0.15)))
  )
  (fp_text user S (at 10.922 -3.048) (layer F.SilkS)
    (effects (font (size 1 1) (thickness 0.15)))
  )
  (pad 3 thru_hole oval (at 10.9 0) (size 2.5 4.5) (drill 1.5) (layers *.Cu *.Mask))
  (pad 2 thru_hole oval (at 5.45 0) (size 2.5 4.5) (drill 1.5) (layers *.Cu *.Mask))
  (pad 1 thru_hole rect (at 0 0) (size 2.5 4.5) (drill 1.5) (layers *.Cu *.Mask))
  (pad "" np_thru_hole oval (at 5.45 18.8) (size 3.4 3.4) (drill 3.4) (layers *.Cu *.Mask))
  (model ${KISYS3DMOD}/Package_TO_SOT_THT.3dshapes/TO-3P-3_Horizontal_TabUp.wrl
    (at (xyz 0 0 0))
    (scale (xyz 1 1 1))
    (rotate (xyz 0 0 0))
  )
)
