(module TO-3PF-3_Horizontal_TabDown_GDS (layer F.Cu) (tedit 6080303F)
  (descr "TO-3PF-3, Horizontal, RM 5.45mm, , see https://pl.mouser.com/datasheet/2/308/FJAF4310-D-1809538.pdf, Alternate KiCad Library")
  (tags "TO-3PF-3 Horizontal RM 5.45mm ")
  (fp_text reference REF** (at 5.334 -33.528) (layer F.SilkS)
    (effects (font (size 1 1) (thickness 0.15)))
  )
  (fp_text value TO-3PF-3_Horizontal_TabDown_GDS (at 5.45 3.5) (layer F.Fab)
    (effects (font (size 1 1) (thickness 0.15)))
  )
  (fp_line (start 11.9 -6) (end 11.9 -2.05) (layer F.SilkS) (width 0.12))
  (fp_line (start 9.9 -6) (end 9.9 -2.05) (layer F.SilkS) (width 0.12))
  (fp_line (start 6.45 -4.05) (end 6.45 -2.05) (layer F.SilkS) (width 0.12))
  (fp_line (start 4.45 -4.05) (end 4.45 -2.05) (layer F.SilkS) (width 0.12))
  (fp_line (start 1 -6) (end 1 -2.5) (layer F.SilkS) (width 0.12))
  (fp_line (start -1 -6) (end -1 -2.5) (layer F.SilkS) (width 0.12))
  (fp_line (start 13.35 -20.65) (end -2.45 -20.65) (layer F.SilkS) (width 0.12))
  (fp_circle (center 5.45 -28.15) (end 7.4 -28.15) (layer F.SilkS) (width 0.12))
  (fp_line (start -2.45 -6.05) (end -2.45 -32.75) (layer F.SilkS) (width 0.12))
  (fp_line (start 3.35 -6.05) (end -2.45 -6.05) (layer F.SilkS) (width 0.12))
  (fp_line (start 3.35 -4.05) (end 3.35 -6.05) (layer F.SilkS) (width 0.12))
  (fp_line (start 7.55 -4.05) (end 3.35 -4.05) (layer F.SilkS) (width 0.12))
  (fp_line (start 7.55 -6.05) (end 7.55 -4.05) (layer F.SilkS) (width 0.12))
  (fp_line (start 13.35 -6.05) (end 7.55 -6.05) (layer F.SilkS) (width 0.12))
  (fp_line (start 13.35 -32.75) (end 13.35 -6.05) (layer F.SilkS) (width 0.12))
  (fp_line (start -2.45 -32.75) (end 13.35 -32.75) (layer F.SilkS) (width 0.12))
  (fp_circle (center 5.45 -28.15) (end 7.25 -28.15) (layer F.Fab) (width 0.12))
  (fp_line (start -2.55 -32.85) (end -2.55 2.4) (layer F.CrtYd) (width 0.05))
  (fp_line (start -2.55 2.4) (end 13.45 2.4) (layer F.CrtYd) (width 0.05))
  (fp_line (start 13.45 2.4) (end 13.45 -32.85) (layer F.CrtYd) (width 0.05))
  (fp_line (start 13.45 -32.85) (end -2.55 -32.85) (layer F.CrtYd) (width 0.05))
  (fp_line (start 5.45 -4.15) (end 3.45 -4.15) (layer F.Fab) (width 0.12))
  (fp_line (start 5.45 -4.15) (end 7.45 -4.15) (layer F.Fab) (width 0.12))
  (fp_line (start 7.45 -4.15) (end 7.45 -6.15) (layer F.Fab) (width 0.12))
  (fp_line (start 3.45 -4.15) (end 3.45 -6.15) (layer F.Fab) (width 0.12))
  (fp_line (start 3.45 -6.15) (end -2.35 -6.15) (layer F.Fab) (width 0.12))
  (fp_line (start -2.35 -6.15) (end -2.35 -32.65) (layer F.Fab) (width 0.12))
  (fp_line (start -2.35 -32.65) (end 13.25 -32.65) (layer F.Fab) (width 0.12))
  (fp_line (start 13.25 -32.65) (end 13.25 -6.15) (layer F.Fab) (width 0.12))
  (fp_line (start 13.25 -6.15) (end 7.45 -6.15) (layer F.Fab) (width 0.12))
  (fp_line (start -2.35 -20.65) (end 13.25 -20.65) (layer F.Fab) (width 0.12))
  (fp_text user %R (at 5.334 -33.528) (layer F.Fab)
    (effects (font (size 1 1) (thickness 0.15)))
  )
  (fp_text user G (at 0 3.064) (layer F.SilkS)
    (effects (font (size 1 1) (thickness 0.15)))
  )
  (fp_text user S (at 10.922 3.064) (layer F.SilkS)
    (effects (font (size 1 1) (thickness 0.15)))
  )
  (fp_text user D (at 5.461 3.064) (layer F.SilkS)
    (effects (font (size 1 1) (thickness 0.15)))
  )
  (pad 1 thru_hole rect (at 0 0) (size 2.5 4.5) (drill 1.5) (layers *.Cu *.Mask))
  (pad 2 thru_hole oval (at 5.45 0) (size 2.5 4.5) (drill 1.5) (layers *.Cu *.Mask))
  (pad 3 thru_hole oval (at 10.9 0) (size 2.5 4.5) (drill 1.5) (layers *.Cu *.Mask))
  (pad "" np_thru_hole circle (at 5.45 -28.15) (size 3.4 3.4) (drill 3.4) (layers *.Cu *.Mask))
)
