(module TO-46-3_Pin2Center (layer F.Cu) (tedit 608036BC)
  (descr "TO-46-3, Pin2 at center of package, Thorlabs photodiodes, https://www.thorlabs.de/drawings/374b6862eb3b5a04-9360B5F6-5056-2306-D912111C06C3F830/FDGA05-SpecSheet.pdf, Alternate KiCad Library")
  (tags "TO-46-3 Thorlabs")
  (fp_text reference REF** (at 1.27 -4.02) (layer F.SilkS)
    (effects (font (size 1 1) (thickness 0.15)))
  )
  (fp_text value TO-46-3_Pin2Center (at 1.27 4.02) (layer F.Fab)
    (effects (font (size 1 1) (thickness 0.15)))
  )
  (fp_circle (center 1.27 0) (end 3.67 0) (layer F.Fab) (width 0.1))
  (fp_line (start 4.42 3.14) (end -2.73 3.14) (layer F.CrtYd) (width 0.05))
  (fp_line (start 4.42 3.14) (end 4.42 -3.15) (layer F.CrtYd) (width 0.05))
  (fp_line (start -2.73 -3.15) (end -2.73 3.14) (layer F.CrtYd) (width 0.05))
  (fp_line (start -2.73 -3.15) (end 4.42 -3.15) (layer F.CrtYd) (width 0.05))
  (fp_line (start -2.48 0.65) (end -1.58 0.65) (layer F.Fab) (width 0.1))
  (fp_line (start -2.48 -0.5) (end -2.48 0.65) (layer F.Fab) (width 0.1))
  (fp_line (start -1.58 -0.5) (end -2.48 -0.5) (layer F.Fab) (width 0.1))
  (fp_line (start -1.68 -0.6) (end -2.58 -0.6) (layer F.SilkS) (width 0.12))
  (fp_line (start -2.58 0.75) (end -1.68 0.75) (layer F.SilkS) (width 0.12))
  (fp_line (start -2.58 -0.6) (end -2.58 0.75) (layer F.SilkS) (width 0.12))
  (fp_arc (start 1.27 0) (end -1.58 -0.5) (angle 336.9) (layer F.Fab) (width 0.1))
  (fp_arc (start 1.27 0) (end -1.68 -0.6) (angle 334) (layer F.SilkS) (width 0.12))
  (fp_text user %R (at 1.27 -4.02) (layer F.Fab)
    (effects (font (size 1 1) (thickness 0.15)))
  )
  (pad 3 thru_hole oval (at 2.29 -1.02 90) (size 1 1) (drill 0.7) (layers *.Cu *.Mask))
  (pad 2 thru_hole oval (at 1.27 0) (size 1 1) (drill 0.6) (layers *.Cu *.Mask))
  (pad 1 thru_hole oval (at 0 0 90) (size 1.5 1) (drill 0.7) (layers *.Cu *.Mask))
  (model ${KISYS3DMOD}/Package_TO_SOT_THT.3dshapes/TO-46-3_Pin2Center.wrl
    (at (xyz 0 0 0))
    (scale (xyz 1 1 1))
    (rotate (xyz 0 0 0))
  )
)
