(module TO-5-10 (layer F.Cu) (tedit 60803547)
  (descr "TO-5-10, Alternate KiCad Library")
  (tags TO-5-10)
  (fp_text reference REF** (at 2.92 -5.82) (layer F.SilkS)
    (effects (font (size 1 1) (thickness 0.15)))
  )
  (fp_text value TO-5-10 (at 2.92 5.82) (layer F.Fab)
    (effects (font (size 1 1) (thickness 0.15)))
  )
  (fp_circle (center 2.92 0) (end 7.17 0) (layer F.Fab) (width 0.1))
  (fp_line (start 7.87 -4.95) (end -2.04 -4.95) (layer F.CrtYd) (width 0.05))
  (fp_line (start 7.87 4.95) (end 7.87 -4.95) (layer F.CrtYd) (width 0.05))
  (fp_line (start -2.04 4.95) (end 7.87 4.95) (layer F.CrtYd) (width 0.05))
  (fp_line (start -2.04 -4.95) (end -2.04 4.95) (layer F.CrtYd) (width 0.05))
  (fp_line (start -1.745856 -3.888039) (end -0.854902 -2.997084) (layer F.SilkS) (width 0.12))
  (fp_line (start -0.968039 -4.665856) (end -1.745856 -3.888039) (layer F.SilkS) (width 0.12))
  (fp_line (start -0.077084 -3.774902) (end -0.968039 -4.665856) (layer F.SilkS) (width 0.12))
  (fp_line (start -1.499621 -3.81151) (end -0.69352 -3.005408) (layer F.Fab) (width 0.1))
  (fp_line (start -0.89151 -4.419621) (end -1.499621 -3.81151) (layer F.Fab) (width 0.1))
  (fp_line (start -0.085408 -3.61352) (end -0.89151 -4.419621) (layer F.Fab) (width 0.1))
  (fp_arc (start 2.92 0) (end -0.077084 -3.774902) (angle 346.9) (layer F.SilkS) (width 0.12))
  (fp_arc (start 2.92 0) (end -0.085408 -3.61352) (angle 349.5) (layer F.Fab) (width 0.1))
  (fp_text user %R (at 2.92 -5.82) (layer F.Fab)
    (effects (font (size 1 1) (thickness 0.15)))
  )
  (pad 10 thru_hole oval (at 0.55767 -1.716333) (size 1.2 1.2) (drill 0.7) (layers *.Cu *.Mask))
  (pad 9 thru_hole oval (at 2.01767 -2.777085) (size 1.2 1.2) (drill 0.7) (layers *.Cu *.Mask))
  (pad 8 thru_hole oval (at 3.82233 -2.777085) (size 1.2 1.2) (drill 0.7) (layers *.Cu *.Mask))
  (pad 7 thru_hole oval (at 5.28233 -1.716333) (size 1.2 1.2) (drill 0.7) (layers *.Cu *.Mask))
  (pad 6 thru_hole oval (at 5.84 0) (size 1.2 1.2) (drill 0.7) (layers *.Cu *.Mask))
  (pad 5 thru_hole oval (at 5.28233 1.716333) (size 1.2 1.2) (drill 0.7) (layers *.Cu *.Mask))
  (pad 4 thru_hole oval (at 3.82233 2.777085) (size 1.2 1.2) (drill 0.7) (layers *.Cu *.Mask))
  (pad 3 thru_hole oval (at 2.01767 2.777085) (size 1.2 1.2) (drill 0.7) (layers *.Cu *.Mask))
  (pad 2 thru_hole oval (at 0.55767 1.716333) (size 1.2 1.2) (drill 0.7) (layers *.Cu *.Mask))
  (pad 1 thru_hole oval (at 0 0) (size 1.6 1.2) (drill 0.7) (layers *.Cu *.Mask))
  (model ${KISYS3DMOD}/Package_TO_SOT_THT.3dshapes/TO-5-10.wrl
    (at (xyz 0 0 0))
    (scale (xyz 1 1 1))
    (rotate (xyz 0 0 0))
  )
)
