(module TO-5-2_AK (layer F.Cu) (tedit 608030A0)
  (descr "TO-5-2, Alternate KiCad Library")
  (tags TO-5-2)
  (fp_text reference REF** (at 2.54 -5.82) (layer F.SilkS)
    (effects (font (size 1 1) (thickness 0.15)))
  )
  (fp_text value TO-5-2_AK (at 2.54 5.82) (layer F.Fab)
    (effects (font (size 1 1) (thickness 0.15)))
  )
  (fp_poly (pts (xy 3.302 0) (xy 2.032 0.889) (xy 2.032 -0.889)) (layer F.SilkS) (width 0.1))
  (fp_line (start 2.032 -0.889) (end 3.302 0) (layer F.SilkS) (width 0.12))
  (fp_line (start 2.032 0.889) (end 2.032 -0.889) (layer F.SilkS) (width 0.12))
  (fp_line (start 3.302 0) (end 2.032 0.889) (layer F.SilkS) (width 0.12))
  (fp_line (start 3.302 -0.889) (end 3.302 0.889) (layer F.SilkS) (width 0.12))
  (fp_line (start 1.27 0) (end 2.032 0) (layer F.SilkS) (width 0.12))
  (fp_circle (center 2.54 0) (end 6.79 0) (layer F.Fab) (width 0.1))
  (fp_line (start 7.49 -4.95) (end -2.41 -4.95) (layer F.CrtYd) (width 0.05))
  (fp_line (start 7.49 4.95) (end 7.49 -4.95) (layer F.CrtYd) (width 0.05))
  (fp_line (start -2.41 4.95) (end 7.49 4.95) (layer F.CrtYd) (width 0.05))
  (fp_line (start -2.41 -4.95) (end -2.41 4.95) (layer F.CrtYd) (width 0.05))
  (fp_line (start -2.125856 -3.888039) (end -1.234902 -2.997084) (layer F.SilkS) (width 0.12))
  (fp_line (start -1.348039 -4.665856) (end -2.125856 -3.888039) (layer F.SilkS) (width 0.12))
  (fp_line (start -0.457084 -3.774902) (end -1.348039 -4.665856) (layer F.SilkS) (width 0.12))
  (fp_line (start -1.879621 -3.81151) (end -1.07352 -3.005408) (layer F.Fab) (width 0.1))
  (fp_line (start -1.27151 -4.419621) (end -1.879621 -3.81151) (layer F.Fab) (width 0.1))
  (fp_line (start -0.465408 -3.61352) (end -1.27151 -4.419621) (layer F.Fab) (width 0.1))
  (fp_line (start 3.302 0) (end 4.064 0) (layer F.SilkS) (width 0.12))
  (fp_arc (start 2.54 0) (end -0.457084 -3.774902) (angle 346.9) (layer F.SilkS) (width 0.12))
  (fp_arc (start 2.54 0) (end -0.465408 -3.61352) (angle 349.5) (layer F.Fab) (width 0.1))
  (fp_text user %R (at 2.54 -5.82) (layer F.Fab)
    (effects (font (size 1 1) (thickness 0.15)))
  )
  (pad 2 thru_hole oval (at 5.08 0) (size 1.2 1.2) (drill 0.7) (layers *.Cu *.Mask))
  (pad 1 thru_hole oval (at 0 0) (size 1.6 1.2) (drill 0.7) (layers *.Cu *.Mask))
  (model ${KISYS3DMOD}/Package_TO_SOT_THT.3dshapes/TO-5-2.wrl
    (at (xyz 0 0 0))
    (scale (xyz 1 1 1))
    (rotate (xyz 0 0 0))
  )
)
