(module TO-72-4_Board_EBC (layer F.Cu) (tedit 60803708)
  (descr "TO-72-4 Mounted through a board, BJT connections, Alternate KiCad Library")
  (tags TO-72-4)
  (fp_text reference REF** (at -2.667 4.572) (layer F.SilkS)
    (effects (font (size 1 1) (thickness 0.15)))
  )
  (fp_text value TO-72-4_Board_EBC (at 1.27 4.02) (layer F.Fab)
    (effects (font (size 1 1) (thickness 0.15)))
  )
  (fp_line (start 1.905 6.604) (end 0.635 6.604) (layer F.CrtYd) (width 0.05))
  (fp_line (start 1.905 3.048) (end 1.905 6.604) (layer F.CrtYd) (width 0.05))
  (fp_line (start 4.318 3.048) (end 1.905 3.048) (layer F.CrtYd) (width 0.05))
  (fp_line (start 4.318 0.635) (end 4.318 3.048) (layer F.CrtYd) (width 0.05))
  (fp_line (start 7.874 0.635) (end 4.318 0.635) (layer F.CrtYd) (width 0.05))
  (fp_line (start 7.874 -0.635) (end 7.874 0.635) (layer F.CrtYd) (width 0.05))
  (fp_line (start 4.318 -0.635) (end 7.874 -0.635) (layer F.CrtYd) (width 0.05))
  (fp_line (start 4.318 -3.048) (end 4.318 -0.635) (layer F.CrtYd) (width 0.05))
  (fp_line (start 1.905 -3.048) (end 4.318 -3.048) (layer F.CrtYd) (width 0.05))
  (fp_line (start 1.905 -6.604) (end 1.905 -3.048) (layer F.CrtYd) (width 0.05))
  (fp_line (start 0.635 -6.604) (end 1.905 -6.604) (layer F.CrtYd) (width 0.05))
  (fp_line (start 0.635 -3.048) (end 0.635 -6.604) (layer F.CrtYd) (width 0.05))
  (fp_line (start -1.778 -3.048) (end 0.635 -3.048) (layer F.CrtYd) (width 0.05))
  (fp_line (start -1.778 -0.635) (end -1.778 -3.048) (layer F.CrtYd) (width 0.05))
  (fp_line (start -5.334 -0.635) (end -1.778 -0.635) (layer F.CrtYd) (width 0.05))
  (fp_line (start -5.334 0.635) (end -5.334 -0.635) (layer F.CrtYd) (width 0.05))
  (fp_line (start -2.413 0.635) (end -5.334 0.635) (layer F.CrtYd) (width 0.05))
  (fp_line (start -2.413 3.683) (end -2.413 0.635) (layer F.CrtYd) (width 0.05))
  (fp_line (start 0.635 3.683) (end -2.413 3.683) (layer F.CrtYd) (width 0.05))
  (fp_line (start 0.635 6.604) (end 0.635 3.683) (layer F.CrtYd) (width 0.05))
  (fp_line (start -0.329057 2.419301) (end -1.156372 3.246616) (layer F.Fab) (width 0.1))
  (fp_line (start -1.156372 3.246616) (end -1.976616 2.426372) (layer F.Fab) (width 0.1))
  (fp_line (start -1.976616 2.426372) (end -1.149301 1.599057) (layer F.Fab) (width 0.1))
  (fp_line (start -0.312331 2.572281) (end -1.224499 3.484448) (layer F.SilkS) (width 0.12))
  (fp_line (start -1.224499 3.484448) (end -2.214448 2.494499) (layer F.SilkS) (width 0.12))
  (fp_line (start -2.214448 2.494499) (end -1.302281 1.582331) (layer F.SilkS) (width 0.12))
  (fp_circle (center 1.27 0) (end 3.67 0) (layer F.Fab) (width 0.1))
  (fp_arc (start 1.27 0) (end 2.032 2.921) (angle -286.9814842) (layer F.SilkS) (width 0.12))
  (fp_arc (start 1.27 0) (end -0.329057 2.419301) (angle -336.9) (layer F.Fab) (width 0.1))
  (fp_text user %R (at 1.27 4.02) (layer F.Fab)
    (effects (font (size 1 1) (thickness 0.15)))
  )
  (fp_arc (start 1.27 0) (end -0.312331 2.572281) (angle -16.9766584) (layer F.SilkS) (width 0.12))
  (fp_text user E (at -3.81 -1.397) (layer F.SilkS)
    (effects (font (size 1 1) (thickness 0.15)))
  )
  (fp_text user B (at 2.54 -5.08) (layer F.SilkS)
    (effects (font (size 1 1) (thickness 0.15)))
  )
  (fp_text user C (at 6.35 -1.397) (layer F.SilkS)
    (effects (font (size 1 1) (thickness 0.15)))
  )
  (fp_text user Case (at 2.921 4.572) (layer F.SilkS)
    (effects (font (size 0.5 0.5) (thickness 0.1)))
  )
  (pad 1 smd rect (at -3.81 0) (size 3 1.2) (layers F.Cu F.Paste F.Mask)
    (zone_connect 2))
  (pad 3 smd rect (at 6.35 0) (size 3 1.2) (layers F.Cu F.Paste F.Mask)
    (zone_connect 2))
  (pad 2 smd rect (at 1.27 -5.08) (size 1.2 3) (layers F.Cu F.Paste F.Mask)
    (zone_connect 2))
  (pad 4 smd rect (at 1.27 4.572) (size 1.2 4) (layers F.Cu F.Paste F.Mask)
    (zone_connect 2))
  (pad 4 thru_hole circle (at 1.27 0) (size 5.5 5.5) (drill 4.8) (layers *.Cu *.Mask)
    (zone_connect 2))
  (model ${KISYS3DMOD}/Package_TO_SOT_THT.3dshapes/TO-72-4.wrl
    (at (xyz 0 0 0))
    (scale (xyz 1 1 1))
    (rotate (xyz 0 0 0))
  )
)
