(module TO-92-2_Horizontal2_KA (layer F.Cu) (tedit 60803776)
  (descr "2-pin TO-92 horizontal, leads molded, narrow, drill 0.75mm (see NXP sot054_po.pdf), Alternate KiCad Library")
  (tags "to-92 sc-43 sc-43a sot54 PA33 temperature sensor diode")
  (fp_text reference REF** (at 1.35 1.7) (layer F.SilkS)
    (effects (font (size 1 1) (thickness 0.15)))
  )
  (fp_text value TO-92-2_Horizontal2_KA (at 1.14 -10.03) (layer F.Fab)
    (effects (font (size 1 1) (thickness 0.15)))
  )
  (fp_line (start 0.9525 -0.508) (end 0.9525 0.508) (layer F.SilkS) (width 0.12))
  (fp_line (start 1.651 -0.508) (end 1.651 0.508) (layer F.SilkS) (width 0.12))
  (fp_line (start 0.9525 0) (end 1.651 -0.508) (layer F.SilkS) (width 0.12))
  (fp_poly (pts (xy 1.651 0.508) (xy 0.9525 0) (xy 1.651 -0.508)) (layer F.SilkS) (width 0.1))
  (fp_line (start 1.651 0.508) (end 0.9525 0) (layer F.SilkS) (width 0.12))
  (fp_line (start 3.8 0.9) (end -1.3 0.9) (layer F.CrtYd) (width 0.05))
  (fp_line (start 3.8 0.9) (end 3.81 -9.14) (layer F.CrtYd) (width 0.05))
  (fp_line (start -1.27 -9.14) (end -1.3 0.9) (layer F.CrtYd) (width 0.05))
  (fp_line (start -1.27 -9.14) (end 3.81 -9.14) (layer F.CrtYd) (width 0.05))
  (fp_line (start -1.13 -9) (end -1.13 -3.81) (layer F.SilkS) (width 0.12))
  (fp_line (start 3.67 -9) (end -1.13 -9) (layer F.SilkS) (width 0.12))
  (fp_line (start 3.67 -3.81) (end 3.67 -9) (layer F.SilkS) (width 0.12))
  (fp_line (start -1.13 -3.81) (end 3.67 -3.81) (layer F.SilkS) (width 0.12))
  (fp_line (start 2.54 -1.02) (end 2.54 -3.81) (layer F.SilkS) (width 0.12))
  (fp_line (start 0 -1.02) (end 0 -3.81) (layer F.SilkS) (width 0.12))
  (fp_line (start 3.56 -8.89) (end -1.02 -8.89) (layer F.Fab) (width 0.1))
  (fp_line (start 3.56 -3.94) (end 3.56 -8.89) (layer F.Fab) (width 0.1))
  (fp_line (start -1.02 -3.94) (end 3.56 -3.94) (layer F.Fab) (width 0.1))
  (fp_line (start -1.02 -8.89) (end -1.02 -3.94) (layer F.Fab) (width 0.1))
  (fp_line (start 0 -3.94) (end 0 -1.02) (layer F.Fab) (width 0.1))
  (fp_line (start 2.54 -3.94) (end 2.54 -1.02) (layer F.Fab) (width 0.1))
  (fp_text user %R (at 1.27 -6.25) (layer F.Fab)
    (effects (font (size 1 1) (thickness 0.15)))
  )
  (pad 1 thru_hole rect (at 0 0 270) (size 1.3 1.3) (drill 0.75) (layers *.Cu *.Mask))
  (pad 2 thru_hole circle (at 2.54 0 270) (size 1.3 1.3) (drill 0.75) (layers *.Cu *.Mask))
  (model ${KISYS3DMOD}/Package_TO_SOT_THT.3dshapes/TO-92-2_Horizontal2.wrl
    (at (xyz 0 0 0))
    (scale (xyz 1 1 1))
    (rotate (xyz 0 0 0))
  )
)
