(module TO-92_Inline_Wide_DGS (layer F.Cu) (tedit 60803897)
  (descr "TO-92 leads in-line, wide, drill 0.75mm (see NXP sot054_po.pdf), Alternate KiCad Library")
  (tags "to-92 sc-43 sc-43a sot54 PA33 transistor")
  (fp_text reference REF** (at 2.54 -3.56) (layer F.SilkS)
    (effects (font (size 1 1) (thickness 0.15)))
  )
  (fp_text value TO-92_Inline_Wide_DGS (at 2.54 2.79) (layer F.Fab)
    (effects (font (size 1 1) (thickness 0.15)))
  )
  (fp_line (start 6.09 2.01) (end -1.01 2.01) (layer F.CrtYd) (width 0.05))
  (fp_line (start 6.09 2.01) (end 6.09 -2.73) (layer F.CrtYd) (width 0.05))
  (fp_line (start -1.01 -2.73) (end -1.01 2.01) (layer F.CrtYd) (width 0.05))
  (fp_line (start -1.01 -2.73) (end 6.09 -2.73) (layer F.CrtYd) (width 0.05))
  (fp_line (start 0.8 1.75) (end 4.3 1.75) (layer F.Fab) (width 0.1))
  (fp_line (start 0.74 1.85) (end 4.34 1.85) (layer F.SilkS) (width 0.12))
  (fp_arc (start 2.54 0) (end 4.34 1.85) (angle -20) (layer F.SilkS) (width 0.12))
  (fp_arc (start 2.54 0) (end 2.54 -2.48) (angle -135) (layer F.Fab) (width 0.1))
  (fp_arc (start 2.54 0) (end 2.54 -2.48) (angle 135) (layer F.Fab) (width 0.1))
  (fp_arc (start 2.54 0) (end 0.74 1.85) (angle 20) (layer F.SilkS) (width 0.12))
  (fp_text user %R (at 2.54 -3.56) (layer F.Fab)
    (effects (font (size 1 1) (thickness 0.15)))
  )
  (fp_text user S (at 5.461 -1.4605) (layer F.SilkS)
    (effects (font (size 0.9 0.9) (thickness 0.15)))
  )
  (fp_text user D (at -0.381 -1.4605) (layer F.SilkS)
    (effects (font (size 0.9 0.9) (thickness 0.15)))
  )
  (fp_text user G (at 2.54 -1.4605) (layer F.SilkS)
    (effects (font (size 0.9 0.9) (thickness 0.15)))
  )
  (fp_arc (start 2.54 0) (end 2.54 -2.6) (angle 65) (layer F.SilkS) (width 0.12))
  (fp_arc (start 2.54 0) (end 2.54 -2.6) (angle -65) (layer F.SilkS) (width 0.12))
  (pad 1 thru_hole rect (at 0 0 90) (size 1.5 1.5) (drill 0.8) (layers *.Cu *.Mask))
  (pad 3 thru_hole circle (at 5.08 0 90) (size 1.5 1.5) (drill 0.8) (layers *.Cu *.Mask))
  (pad 2 thru_hole circle (at 2.54 0 90) (size 1.5 1.5) (drill 0.8) (layers *.Cu *.Mask))
  (model ${KISYS3DMOD}/Package_TO_SOT_THT.3dshapes/TO-92_Inline_Wide.wrl
    (at (xyz 0 0 0))
    (scale (xyz 1 1 1))
    (rotate (xyz 0 0 0))
  )
)
