(module TO-92Mini-2 (layer F.Cu) (tedit 608037F4)
  (descr "TO-92Mini package, drill 0.6mm (https://media.digikey.com/pdf/Data%20Sheets/Infineon%20PDFs/KT,KTY.pdf), Alternate KiCad Library")
  (tags "to-92Mini transistor ")
  (fp_text reference REF** (at 1.27 -2.06) (layer F.SilkS)
    (effects (font (size 1 1) (thickness 0.15)))
  )
  (fp_text value TO-92Mini-2 (at 1.25 1.7) (layer F.Fab)
    (effects (font (size 1 1) (thickness 0.15)))
  )
  (fp_line (start -0.55 0.85) (end 1.45 0.85) (layer F.SilkS) (width 0.12))
  (fp_line (start -0.55 0.85) (end 1.45 0.85) (layer B.CrtYd) (width 0.05))
  (fp_line (start -0.35 0.65) (end 1.25 0.65) (layer F.Fab) (width 0.12))
  (fp_arc (start 0.45 0) (end 1.25 0.65) (angle -258.2) (layer F.Fab) (width 0.12))
  (fp_arc (start 0.45 0) (end 1.45 0.85) (angle -260.7290731) (layer F.SilkS) (width 0.12))
  (fp_arc (start 0.45 0) (end 1.45 0.85) (angle -260.7) (layer B.CrtYd) (width 0.05))
  (fp_text user %R (at 1.27 -2.06) (layer F.Fab)
    (effects (font (size 1 1) (thickness 0.15)))
  )
  (pad 1 thru_hole rect (at 0 0 180) (size 0.8 1.2) (drill 0.6) (layers *.Cu *.Mask))
  (pad 2 thru_hole oval (at 0.9 0 180) (size 0.8 1.2) (drill 0.6) (layers *.Cu *.Mask))
  (model ${KISYS3DMOD}/Package_TO_SOT_THT.3dshapes/TO-92Mini-2.wrl
    (at (xyz 0 0 0))
    (scale (xyz 1 1 1))
    (rotate (xyz 0 0 0))
  )
)
