(module TO-92_SGD (layer F.Cu) (tedit 608038C2)
  (descr "TO-92 leads molded, narrow, drill 0.75mm (see NXP sot054_po.pdf), Alternate KiCad Library")
  (tags "to-92 sc-43 sc-43a sot54 PA33 transistor")
  (fp_text reference REF** (at 1.27 -3.56) (layer F.SilkS)
    (effects (font (size 1 1) (thickness 0.15)))
  )
  (fp_text value TO-92_SGD (at 1.27 2.79) (layer F.Fab)
    (effects (font (size 1 1) (thickness 0.15)))
  )
  (fp_line (start 4 2.01) (end -1.46 2.01) (layer F.CrtYd) (width 0.05))
  (fp_line (start 4 2.01) (end 4 -2.73) (layer F.CrtYd) (width 0.05))
  (fp_line (start -1.46 -2.73) (end -1.46 2.01) (layer F.CrtYd) (width 0.05))
  (fp_line (start -1.46 -2.73) (end 4 -2.73) (layer F.CrtYd) (width 0.05))
  (fp_line (start -0.5 1.75) (end 3 1.75) (layer F.Fab) (width 0.1))
  (fp_line (start -0.53 1.85) (end 3.07 1.85) (layer F.SilkS) (width 0.12))
  (fp_arc (start 1.27 0) (end 1.27 -2.6) (angle 135) (layer F.SilkS) (width 0.12))
  (fp_arc (start 1.27 0) (end 1.27 -2.48) (angle -135) (layer F.Fab) (width 0.1))
  (fp_arc (start 1.27 0) (end 1.27 -2.6) (angle -135) (layer F.SilkS) (width 0.12))
  (fp_arc (start 1.27 0) (end 1.27 -2.48) (angle 135) (layer F.Fab) (width 0.1))
  (fp_text user %R (at 1.27 -3.56) (layer F.Fab)
    (effects (font (size 1 1) (thickness 0.15)))
  )
  (fp_text user G (at 1.27 0.1905) (layer F.SilkS)
    (effects (font (size 0.9 0.9) (thickness 0.15)))
  )
  (fp_text user D (at 2.54 -1.3335) (layer F.SilkS)
    (effects (font (size 0.9 0.9) (thickness 0.15)))
  )
  (fp_text user S (at 0 -1.3335) (layer F.SilkS)
    (effects (font (size 0.9 0.9) (thickness 0.15)))
  )
  (pad 1 thru_hole rect (at 0 0 90) (size 1.3 1.3) (drill 0.75) (layers *.Cu *.Mask))
  (pad 3 thru_hole circle (at 2.54 0 90) (size 1.3 1.3) (drill 0.75) (layers *.Cu *.Mask))
  (pad 2 thru_hole circle (at 1.27 -1.27 90) (size 1.3 1.3) (drill 0.75) (layers *.Cu *.Mask))
  (model ${KISYS3DMOD}/Package_TO_SOT_THT.3dshapes/TO-92.wrl
    (at (xyz 0 0 0))
    (scale (xyz 1 1 1))
    (rotate (xyz 0 0 0))
  )
)
