(module TO-92L_Inline (layer F.Cu) (tedit 608037C4)
  (descr "TO-92L leads in-line (large body variant of TO-92), also known as TO-226, wide, drill 0.75mm (see https://www.diodes.com/assets/Package-Files/TO92L.pdf and http://www.ti.com/lit/an/snoa059/snoa059.pdf), Alternate KiCad Library")
  (tags "TO-92L Inline Wide transistor")
  (fp_text reference REF** (at 1.19 -3.56) (layer F.SilkS)
    (effects (font (size 1 1) (thickness 0.15)))
  )
  (fp_text value TO-92L_Inline (at 1.19 2.79) (layer F.Fab)
    (effects (font (size 1 1) (thickness 0.15)))
  )
  (fp_line (start 3.95 1.85) (end -1.55 1.85) (layer F.CrtYd) (width 0.05))
  (fp_line (start 3.95 1.85) (end 3.95 -2.75) (layer F.CrtYd) (width 0.05))
  (fp_line (start -1.55 -2.75) (end -1.55 1.85) (layer F.CrtYd) (width 0.05))
  (fp_line (start -1.55 -2.75) (end 3.95 -2.75) (layer F.CrtYd) (width 0.05))
  (fp_line (start -0.7 1.6) (end 3.05 1.6) (layer F.Fab) (width 0.1))
  (fp_line (start -0.75 1.7) (end 3.1 1.7) (layer F.SilkS) (width 0.12))
  (fp_arc (start 1.19 0) (end 1.19 -2.48) (angle -130.2499344) (layer F.Fab) (width 0.1))
  (fp_arc (start 1.19 0) (end 1.19 -2.48) (angle 129.9527847) (layer F.Fab) (width 0.1))
  (fp_arc (start 1.19 0) (end -0.75 1.7) (angle 262.164354) (layer F.SilkS) (width 0.12))
  (fp_text user %R (at 1.19 -3.56) (layer F.Fab)
    (effects (font (size 1 1) (thickness 0.15)))
  )
  (pad 1 thru_hole rect (at 0 0) (size 1.05 1.5) (drill 0.75) (layers *.Cu *.Mask))
  (pad 3 thru_hole roundrect (at 2.54 0) (size 1.05 1.5) (drill 0.75) (layers *.Cu *.Mask) (roundrect_rratio 0.25))
  (pad 2 thru_hole roundrect (at 1.27 0) (size 1.05 1.5) (drill 0.75) (layers *.Cu *.Mask) (roundrect_rratio 0.25))
  (model ${KISYS3DMOD}/Package_TO_SOT_THT.3dshapes/TO-92L_Inline.wrl
    (at (xyz 0 0 0))
    (scale (xyz 1 1 1))
    (rotate (xyz 0 0 0))
  )
)
