(module L_01005_0402Metric (layer F.Cu) (tedit 60794D10)
  (descr "Inductor SMD 01005 (0402 Metric), square (rectangular) end terminal, IPC_7351 nominal, (Body size source: http://www.vishay.com/docs/20056/crcw01005e3.pdf), Alternate KiCad Library")
  (tags inductor)
  (attr smd)
  (fp_text reference REF** (at 0 -1.0668) (layer F.SilkS)
    (effects (font (size 1 1) (thickness 0.15)))
  )
  (fp_text value L_01005_0402Metric (at 0 1) (layer F.Fab)
    (effects (font (size 1 1) (thickness 0.15)))
  )
  (fp_line (start -0.6604 0.3556) (end -0.6604 -0.3556) (layer F.SilkS) (width 0.12))
  (fp_line (start 0.6604 0.3556) (end -0.6604 0.3556) (layer F.SilkS) (width 0.12))
  (fp_line (start 0.6604 -0.3556) (end 0.6604 0.3556) (layer F.SilkS) (width 0.12))
  (fp_line (start -0.6604 -0.3556) (end 0.6604 -0.3556) (layer F.SilkS) (width 0.12))
  (fp_line (start -0.2 0.1) (end -0.2 -0.1) (layer F.Fab) (width 0.1))
  (fp_line (start -0.2 -0.1) (end 0.2 -0.1) (layer F.Fab) (width 0.1))
  (fp_line (start 0.2 -0.1) (end 0.2 0.1) (layer F.Fab) (width 0.1))
  (fp_line (start 0.2 0.1) (end -0.2 0.1) (layer F.Fab) (width 0.1))
  (fp_line (start -0.7112 0.4064) (end -0.7112 -0.4064) (layer F.CrtYd) (width 0.05))
  (fp_line (start -0.7112 -0.4064) (end 0.7112 -0.4064) (layer F.CrtYd) (width 0.05))
  (fp_line (start 0.7112 -0.4064) (end 0.7112 0.4064) (layer F.CrtYd) (width 0.05))
  (fp_line (start 0.7112 0.4064) (end -0.7112 0.4064) (layer F.CrtYd) (width 0.05))
  (fp_text user %R (at 0 -0.62) (layer F.Fab)
    (effects (font (size 0.25 0.25) (thickness 0.04)))
  )
  (pad 2 smd roundrect (at 0.25 0) (size 0.4 0.3) (layers F.Cu F.Mask) (roundrect_rratio 0.25))
  (pad 1 smd roundrect (at -0.25 0) (size 0.4 0.3) (layers F.Cu F.Mask) (roundrect_rratio 0.25))
  (pad "" smd roundrect (at 0.275 0) (size 0.27 0.27) (layers F.Paste) (roundrect_rratio 0.25))
  (pad "" smd roundrect (at -0.275 0) (size 0.27 0.27) (layers F.Paste) (roundrect_rratio 0.25))
  (model ${KISYS3DMOD}/Inductor_SMD.3dshapes/L_01005_0402Metric.wrl
    (at (xyz 0 0 0))
    (scale (xyz 1 1 1))
    (rotate (xyz 0 0 0))
  )
)
