(module L_0603_1608Metric (layer F.Cu) (tedit 60794CBC)
  (descr "Inductor SMD 0603 (1608 Metric), square (rectangular) end terminal, IPC_7351 nominal, (Body size source: http://www.tortai-tech.com/upload/download/2011102023233369053.pdf), Alternate KiCad Library")
  (tags inductor)
  (attr smd)
  (fp_text reference REF** (at 0 -1.43) (layer F.SilkS)
    (effects (font (size 1 1) (thickness 0.15)))
  )
  (fp_text value L_0603_1608Metric (at 0 1.43) (layer F.Fab)
    (effects (font (size 1 1) (thickness 0.15)))
  )
  (fp_line (start -1.4732 0.7112) (end -1.4732 -0.7112) (layer F.SilkS) (width 0.12))
  (fp_line (start 1.4732 0.7112) (end -1.4732 0.7112) (layer F.SilkS) (width 0.12))
  (fp_line (start 1.4732 -0.7112) (end 1.4732 0.7112) (layer F.SilkS) (width 0.12))
  (fp_line (start -1.4732 -0.7112) (end 1.4732 -0.7112) (layer F.SilkS) (width 0.12))
  (fp_line (start -0.8 0.4) (end -0.8 -0.4) (layer F.Fab) (width 0.1))
  (fp_line (start -0.8 -0.4) (end 0.8 -0.4) (layer F.Fab) (width 0.1))
  (fp_line (start 0.8 -0.4) (end 0.8 0.4) (layer F.Fab) (width 0.1))
  (fp_line (start 0.8 0.4) (end -0.8 0.4) (layer F.Fab) (width 0.1))
  (fp_line (start -1.524 0.762) (end -1.524 -0.762) (layer F.CrtYd) (width 0.05))
  (fp_line (start -1.524 -0.762) (end 1.524 -0.762) (layer F.CrtYd) (width 0.05))
  (fp_line (start 1.524 -0.762) (end 1.524 0.762) (layer F.CrtYd) (width 0.05))
  (fp_line (start 1.524 0.762) (end -1.524 0.762) (layer F.CrtYd) (width 0.05))
  (fp_text user %R (at 0 0) (layer F.Fab)
    (effects (font (size 0.4 0.4) (thickness 0.06)))
  )
  (pad 2 smd roundrect (at 0.7875 0) (size 0.875 0.95) (layers F.Cu F.Paste F.Mask) (roundrect_rratio 0.25))
  (pad 1 smd roundrect (at -0.7875 0) (size 0.875 0.95) (layers F.Cu F.Paste F.Mask) (roundrect_rratio 0.25))
  (model ${KISYS3DMOD}/Inductor_SMD.3dshapes/L_0603_1608Metric.wrl
    (at (xyz 0 0 0))
    (scale (xyz 1 1 1))
    (rotate (xyz 0 0 0))
  )
)
