(module L_2512_6332Metric (layer F.Cu) (tedit 60794EFE)
  (descr "Inductor SMD 2512 (6332 Metric), square (rectangular) end terminal, IPC_7351 nominal, (Body size source: http://www.tortai-tech.com/upload/download/2011102023233369053.pdf), Alternate KiCad Library")
  (tags inductor)
  (attr smd)
  (fp_text reference REF** (at 0 -2.62) (layer F.SilkS)
    (effects (font (size 1 1) (thickness 0.15)))
  )
  (fp_text value L_2512_6332Metric (at 0 2.62) (layer F.Fab)
    (effects (font (size 1 1) (thickness 0.15)))
  )
  (fp_line (start -3.81 1.905) (end -3.81 -1.905) (layer F.SilkS) (width 0.12))
  (fp_line (start 3.81 1.905) (end -3.81 1.905) (layer F.SilkS) (width 0.12))
  (fp_line (start 3.81 -1.905) (end 3.81 1.905) (layer F.SilkS) (width 0.12))
  (fp_line (start -3.81 -1.905) (end 3.81 -1.905) (layer F.SilkS) (width 0.12))
  (fp_line (start -1.905 0) (end -1.778 0) (layer F.SilkS) (width 0.12))
  (fp_line (start 1.778 0) (end 1.905 0) (layer F.SilkS) (width 0.12))
  (fp_line (start -3.15 1.6) (end -3.15 -1.6) (layer F.Fab) (width 0.1))
  (fp_line (start -3.15 -1.6) (end 3.15 -1.6) (layer F.Fab) (width 0.1))
  (fp_line (start 3.15 -1.6) (end 3.15 1.6) (layer F.Fab) (width 0.1))
  (fp_line (start 3.15 1.6) (end -3.15 1.6) (layer F.Fab) (width 0.1))
  (fp_line (start -3.8735 1.9685) (end -3.8735 -1.9685) (layer F.CrtYd) (width 0.05))
  (fp_line (start -3.8735 -1.9685) (end 3.8735 -1.9685) (layer F.CrtYd) (width 0.05))
  (fp_line (start 3.8735 -1.9685) (end 3.8735 1.9685) (layer F.CrtYd) (width 0.05))
  (fp_line (start 3.8735 1.9685) (end -3.8735 1.9685) (layer F.CrtYd) (width 0.05))
  (fp_text user %R (at 0 0) (layer F.Fab)
    (effects (font (size 1 1) (thickness 0.15)))
  )
  (fp_arc (start -0.4445 0) (end 0 0) (angle -180) (layer F.SilkS) (width 0.12))
  (fp_arc (start -1.3335 0) (end -0.889 0) (angle -180) (layer F.SilkS) (width 0.12))
  (fp_arc (start 0.4445 0) (end 0.889 0) (angle -180) (layer F.SilkS) (width 0.12))
  (fp_arc (start 1.3335 0) (end 1.778 0) (angle -180) (layer F.SilkS) (width 0.12))
  (pad 2 smd roundrect (at 2.9 0) (size 1.35 3.35) (layers F.Cu F.Paste F.Mask) (roundrect_rratio 0.185185))
  (pad 1 smd roundrect (at -2.9 0) (size 1.35 3.35) (layers F.Cu F.Paste F.Mask) (roundrect_rratio 0.185185))
  (model ${KISYS3DMOD}/Inductor_SMD.3dshapes/L_2512_6332Metric.wrl
    (at (xyz 0 0 0))
    (scale (xyz 1 1 1))
    (rotate (xyz 0 0 0))
  )
)
