(module L_7.3x7.3_H4.5 (layer F.Cu) (tedit 60794C79)
  (descr "Choke, SMD, 7.3x7.3mm 4.5mm height, Alternate KiCad Library")
  (tags "Choke SMD")
  (attr smd)
  (fp_text reference REF** (at 0 -4.45) (layer F.SilkS)
    (effects (font (size 1 1) (thickness 0.15)))
  )
  (fp_text value L_7.3x7.3_H4.5 (at 0 4.45) (layer F.Fab)
    (effects (font (size 1 1) (thickness 0.15)))
  )
  (fp_line (start -2.032 0) (end -2.0955 0) (layer F.SilkS) (width 0.12))
  (fp_line (start 2.032 0) (end 2.0955 0) (layer F.SilkS) (width 0.12))
  (fp_line (start 3.7 1.4) (end 3.7 3.7) (layer F.SilkS) (width 0.12))
  (fp_line (start 3.7 3.7) (end -3.7 3.7) (layer F.SilkS) (width 0.12))
  (fp_line (start -3.7 3.7) (end -3.7 1.4) (layer F.SilkS) (width 0.12))
  (fp_line (start -3.7 -1.4) (end -3.7 -3.7) (layer F.SilkS) (width 0.12))
  (fp_line (start -3.7 -3.7) (end 3.7 -3.7) (layer F.SilkS) (width 0.12))
  (fp_line (start 3.7 -3.7) (end 3.7 -1.4) (layer F.SilkS) (width 0.12))
  (fp_line (start -4.2 -3.9) (end -4.2 3.9) (layer F.CrtYd) (width 0.05))
  (fp_line (start -4.2 3.9) (end 4.2 3.9) (layer F.CrtYd) (width 0.05))
  (fp_line (start 4.2 3.9) (end 4.2 -3.9) (layer F.CrtYd) (width 0.05))
  (fp_line (start 4.2 -3.9) (end -4.2 -3.9) (layer F.CrtYd) (width 0.05))
  (fp_line (start 3.65 3.65) (end 3.65 1.4) (layer F.Fab) (width 0.1))
  (fp_line (start 3.65 -3.65) (end 3.65 -1.4) (layer F.Fab) (width 0.1))
  (fp_line (start -3.65 3.65) (end -3.65 1.4) (layer F.Fab) (width 0.1))
  (fp_line (start -3.65 -3.65) (end -3.65 -1.4) (layer F.Fab) (width 0.1))
  (fp_line (start 3.65 3.65) (end -3.65 3.65) (layer F.Fab) (width 0.1))
  (fp_line (start -3.65 -3.65) (end 3.65 -3.65) (layer F.Fab) (width 0.1))
  (fp_arc (start 0 0) (end -2.29 -2.29) (angle 90) (layer F.Fab) (width 0.1))
  (fp_arc (start 0 0) (end 2.29 2.29) (angle 90) (layer F.Fab) (width 0.1))
  (fp_text user %R (at 0 0) (layer F.Fab)
    (effects (font (size 1 1) (thickness 0.15)))
  )
  (fp_arc (start 1.524 0) (end 2.032 0) (angle -180) (layer F.SilkS) (width 0.12))
  (fp_arc (start 0.508 0) (end 1.016 0) (angle -180) (layer F.SilkS) (width 0.12))
  (fp_arc (start -1.524 0) (end -1.016 0) (angle -180) (layer F.SilkS) (width 0.12))
  (fp_arc (start -0.508 0) (end 0 0) (angle -180) (layer F.SilkS) (width 0.12))
  (pad 2 smd rect (at 3.2 0) (size 1.5 2.2) (layers F.Cu F.Paste F.Mask))
  (pad 1 smd rect (at -3.2 0) (size 1.5 2.2) (layers F.Cu F.Paste F.Mask))
  (model ${KISYS3DMOD}/Inductor_SMD.3dshapes/L_7.3x7.3_H4.5.wrl
    (at (xyz 0 0 0))
    (scale (xyz 1 1 1))
    (rotate (xyz 0 0 0))
  )
)
