(module L_Bourns_SDR1806 (layer F.Cu) (tedit 60794F5A)
  (descr "https://www.bourns.com/docs/Product-Datasheets/SDR1806.pdf, Alternate KiCad Library")
  (tags "Bourns SDR1806")
  (attr smd)
  (fp_text reference REF** (at 0 -8.3) (layer F.SilkS)
    (effects (font (size 1 1) (thickness 0.15)))
  )
  (fp_text value L_Bourns_SDR1806 (at 0 8.3) (layer F.Fab)
    (effects (font (size 1 1) (thickness 0.15)))
  )
  (fp_line (start -5.588 0) (end -5.969 0) (layer F.SilkS) (width 0.12))
  (fp_line (start 5.588 0) (end 5.969 0) (layer F.SilkS) (width 0.12))
  (fp_line (start 4 -6) (end 9.15 -2.8) (layer F.SilkS) (width 0.12))
  (fp_line (start -4 6) (end -9.15 2.8) (layer F.SilkS) (width 0.12))
  (fp_line (start -9.15 -2.8) (end -4 -6) (layer F.SilkS) (width 0.15))
  (fp_line (start 9.15 2.8) (end 4 6) (layer F.SilkS) (width 0.12))
  (fp_line (start -2 -7.4) (end 2 -7.4) (layer F.CrtYd) (width 0.05))
  (fp_line (start 9.6 -2.7) (end 9.6 2.7) (layer F.CrtYd) (width 0.05))
  (fp_line (start 2 7.4) (end -2 7.4) (layer F.CrtYd) (width 0.05))
  (fp_line (start -9.6 2.7) (end -9.6 -2.7) (layer F.CrtYd) (width 0.05))
  (fp_line (start -9.15 -2.65) (end -3.9 -5.9) (layer F.Fab) (width 0.1))
  (fp_line (start 3.9 -5.9) (end 9.15 -2.65) (layer F.Fab) (width 0.1))
  (fp_line (start -3.9 5.9) (end -9.15 2.65) (layer F.Fab) (width 0.1))
  (fp_line (start 9.15 2.65) (end 3.9 5.9) (layer F.Fab) (width 0.1))
  (fp_line (start -9.15 -2.65) (end -9.15 2.65) (layer F.Fab) (width 0.1))
  (fp_line (start 9.15 2.65) (end 9.15 -2.65) (layer F.Fab) (width 0.1))
  (fp_circle (center -4.318 0) (end -4.318 -0.762) (layer F.Fab) (width 0.1))
  (fp_circle (center 0 0) (end 0 -6.4) (layer F.Fab) (width 0.1))
  (fp_line (start -2 -7.4) (end -9.6 -2.7) (layer F.CrtYd) (width 0.05))
  (fp_line (start 2 7.4) (end 9.6 2.7) (layer F.CrtYd) (width 0.05))
  (fp_line (start -9.6 2.7) (end -2 7.4) (layer F.CrtYd) (width 0.05))
  (fp_line (start 9.6 -2.7) (end 2 -7.4) (layer F.CrtYd) (width 0.05))
  (fp_arc (start 0 0) (end -3.9 5.9) (angle -66.9) (layer F.Fab) (width 0.1))
  (fp_arc (start 0 0) (end 3.9 -5.9) (angle -66.9) (layer F.Fab) (width 0.1))
  (fp_arc (start 0 0) (end -4 6) (angle -67.3) (layer F.SilkS) (width 0.12))
  (fp_arc (start 0 0) (end 4 -6) (angle -67.3) (layer F.SilkS) (width 0.12))
  (fp_text user %R (at 0 0) (layer F.Fab)
    (effects (font (size 1 1) (thickness 0.15)))
  )
  (fp_arc (start -1.397 0) (end 0 0) (angle -180) (layer F.SilkS) (width 0.12))
  (fp_arc (start -4.191 0) (end -2.794 0) (angle -180) (layer F.SilkS) (width 0.12))
  (fp_arc (start 1.397 0) (end 2.794 0) (angle -180) (layer F.SilkS) (width 0.12))
  (fp_arc (start 4.191 0) (end 5.588 0) (angle -180) (layer F.SilkS) (width 0.12))
  (pad 2 smd rect (at 7.85 0 180) (size 3 2.9) (layers F.Cu F.Paste F.Mask))
  (pad 1 smd rect (at -7.85 0) (size 3 2.9) (layers F.Cu F.Paste F.Mask))
  (model ${KISYS3DMOD}/Inductor_SMD.3dshapes/L_Bourns_SDR1806.wrl
    (at (xyz 0 0 0))
    (scale (xyz 1 1 1))
    (rotate (xyz 0 0 0))
  )
)
