(module L_Bourns_SRP2313AA (layer F.Cu) (tedit 60794F7D)
  (descr "Bourns SRR1260 series SMD inductor http://www.bourns.com/docs/product-datasheets/srp2313aa.pdf, Alternate KiCad Library")
  (tags "Bourns SRR1260 SMD inductor")
  (attr smd)
  (fp_text reference REF** (at 0 -11.9) (layer F.SilkS)
    (effects (font (size 1 1) (thickness 0.15)))
  )
  (fp_text value L_Bourns_SRP2313AA (at 0 12.1) (layer F.Fab)
    (effects (font (size 1 1) (thickness 0.15)))
  )
  (fp_line (start -5.588 0) (end -5.969 0) (layer F.SilkS) (width 0.12))
  (fp_line (start 5.588 0) (end 5.969 0) (layer F.SilkS) (width 0.12))
  (fp_line (start -10.4 -11) (end 10.4 -11) (layer F.Fab) (width 0.1))
  (fp_line (start -11.35 -10.05) (end -11.35 10.05) (layer F.Fab) (width 0.1))
  (fp_line (start 10.4 11) (end -10.4 11) (layer F.Fab) (width 0.1))
  (fp_line (start 11.35 -10.05) (end 11.35 10.05) (layer F.Fab) (width 0.1))
  (fp_line (start -10.4 -11.15) (end 10.4 -11.15) (layer F.SilkS) (width 0.12))
  (fp_line (start 10.4 11.15) (end -10.4 11.15) (layer F.SilkS) (width 0.12))
  (fp_line (start -10.4 -11.25) (end 10.4 -11.25) (layer F.CrtYd) (width 0.05))
  (fp_line (start -12.25 9.4) (end -12.25 -9.4) (layer F.CrtYd) (width 0.05))
  (fp_line (start 10.4 11.25) (end -10.4 11.25) (layer F.CrtYd) (width 0.05))
  (fp_line (start 12.25 -9.4) (end 12.25 9.4) (layer F.CrtYd) (width 0.05))
  (fp_arc (start -11.6 9.4) (end -12.25 9.4) (angle -90) (layer F.CrtYd) (width 0.05))
  (fp_arc (start 11.6 9.4) (end 11.6 10.05) (angle -90) (layer F.CrtYd) (width 0.05))
  (fp_arc (start 11.6 -9.4) (end 12.25 -9.4) (angle -90) (layer F.CrtYd) (width 0.05))
  (fp_arc (start -11.6 -9.4) (end -11.6 -10.05) (angle -90) (layer F.CrtYd) (width 0.05))
  (fp_arc (start -10.4 10.05) (end -11.5 10.05) (angle -90) (layer F.SilkS) (width 0.12))
  (fp_arc (start -10.4 10.05) (end -11.6 10.05) (angle -90) (layer F.CrtYd) (width 0.05))
  (fp_arc (start 10.4 10.05) (end 10.4 11.25) (angle -90) (layer F.CrtYd) (width 0.05))
  (fp_arc (start 10.4 10.05) (end 10.4 11) (angle -90) (layer F.Fab) (width 0.1))
  (fp_arc (start 10.4 -10.05) (end 11.6 -10.05) (angle -90) (layer F.CrtYd) (width 0.05))
  (fp_arc (start 10.4 -10.05) (end 11.5 -10.05) (angle -90) (layer F.SilkS) (width 0.12))
  (fp_arc (start -10.4 -10.05) (end -10.4 -11.25) (angle -90) (layer F.CrtYd) (width 0.05))
  (fp_arc (start -10.4 -10.05) (end -10.4 -11.15) (angle -90) (layer F.SilkS) (width 0.12))
  (fp_arc (start -10.4 10.05) (end -11.35 10.05) (angle -90) (layer F.Fab) (width 0.1))
  (fp_arc (start 10.4 10.05) (end 10.4 11.15) (angle -90) (layer F.SilkS) (width 0.12))
  (fp_arc (start 10.4 -10.05) (end 11.35 -10.05) (angle -90) (layer F.Fab) (width 0.1))
  (fp_arc (start -10.4 -10.05) (end -10.4 -11) (angle -90) (layer F.Fab) (width 0.1))
  (fp_text user %R (at 0 0) (layer F.Fab)
    (effects (font (size 1 1) (thickness 0.15)))
  )
  (fp_arc (start 4.191 0) (end 5.588 0) (angle -180) (layer F.SilkS) (width 0.12))
  (fp_arc (start 1.397 0) (end 2.794 0) (angle -180) (layer F.SilkS) (width 0.12))
  (fp_arc (start -4.191 0) (end -2.794 0) (angle -180) (layer F.SilkS) (width 0.12))
  (fp_arc (start -1.397 0) (end 0 0) (angle -180) (layer F.SilkS) (width 0.12))
  (pad 2 smd rect (at 7.25 0) (size 2 19.6) (layers F.Cu F.Paste F.Mask))
  (pad 1 smd rect (at -7.25 0) (size 2 19.6) (layers F.Cu F.Paste F.Mask))
  (pad 1 smd roundrect (at -9.125 0) (size 5.75 19.6) (layers F.Cu F.Paste F.Mask) (roundrect_rratio 0.07000000000000001))
  (pad 2 smd roundrect (at 9.125 0) (size 5.75 19.6) (layers F.Cu F.Paste F.Mask) (roundrect_rratio 0.07000000000000001))
  (model ${KISYS3DMOD}/Inductor_SMD.3dshapes/L_Bourns_SRP2313AA.wrl
    (at (xyz 0 0 0))
    (scale (xyz 1 1 1))
    (rotate (xyz 0 0 0))
  )
)
