(module L_Bourns_SRF1260 (layer F.Cu) (tedit 60794F60)
  (descr "Inductor, Bourns, SRF1260, 12.5mmx12.5mm (Script generated with StandardBox.py) (https://www.bourns.com/docs/Product-Datasheets/SRF1260.pdf), Alternate KiCad Library")
  (tags "Inductor Bourns_SRF1260")
  (attr smd)
  (fp_text reference REF** (at -3.75 -7.45) (layer F.SilkS)
    (effects (font (size 1 1) (thickness 0.15)))
  )
  (fp_text value L_Bourns_SRF1260 (at 0 7.25) (layer F.Fab)
    (effects (font (size 1 1) (thickness 0.15)))
  )
  (fp_line (start 0.1905 -0.8255) (end 0.1905 1.524) (layer F.SilkS) (width 0.12))
  (fp_line (start -0.1905 -0.8255) (end -0.1905 1.524) (layer F.SilkS) (width 0.12))
  (fp_line (start -6.5 -6.5) (end -6.5 6.5) (layer F.CrtYd) (width 0.05))
  (fp_line (start 3.04 6.5) (end 6.5 6.5) (layer F.CrtYd) (width 0.05))
  (fp_line (start 3.04 6.75) (end 3.04 6.5) (layer F.CrtYd) (width 0.05))
  (fp_line (start 0.39 6.75) (end 3.04 6.75) (layer F.CrtYd) (width 0.05))
  (fp_line (start 0.39 6.5) (end 0.39 6.75) (layer F.CrtYd) (width 0.05))
  (fp_line (start -0.39 6.5) (end 0.39 6.5) (layer F.CrtYd) (width 0.05))
  (fp_line (start -0.39 6.75) (end -0.39 6.5) (layer F.CrtYd) (width 0.05))
  (fp_line (start -3.04 6.75) (end -0.39 6.75) (layer F.CrtYd) (width 0.05))
  (fp_line (start -3.04 6.5) (end -3.04 6.75) (layer F.CrtYd) (width 0.05))
  (fp_line (start -6.5 6.5) (end -3.04 6.5) (layer F.CrtYd) (width 0.05))
  (fp_line (start 6.5 -6.5) (end 6.5 6.5) (layer F.CrtYd) (width 0.05))
  (fp_line (start 3.04 -6.5) (end 6.5 -6.5) (layer F.CrtYd) (width 0.05))
  (fp_line (start 3.04 -6.75) (end 3.04 -6.5) (layer F.CrtYd) (width 0.05))
  (fp_line (start 0.39 -6.75) (end 3.04 -6.75) (layer F.CrtYd) (width 0.05))
  (fp_line (start 0.39 -6.5) (end 0.39 -6.75) (layer F.CrtYd) (width 0.05))
  (fp_line (start -0.39 -6.5) (end 0.39 -6.5) (layer F.CrtYd) (width 0.05))
  (fp_line (start -0.39 -6.75) (end -0.39 -6.5) (layer F.CrtYd) (width 0.05))
  (fp_line (start -3.04 -6.75) (end -0.39 -6.75) (layer F.CrtYd) (width 0.05))
  (fp_line (start -3.04 -6.5) (end -3.04 -6.75) (layer F.CrtYd) (width 0.05))
  (fp_line (start -6.5 -6.5) (end -3.04 -6.5) (layer F.CrtYd) (width 0.05))
  (fp_line (start -6.37 -6.37) (end -6.37 6.37) (layer F.SilkS) (width 0.12))
  (fp_line (start 3.04 6.37) (end 6.37 6.37) (layer F.SilkS) (width 0.12))
  (fp_line (start -0.39 6.37) (end 0.39 6.37) (layer F.SilkS) (width 0.12))
  (fp_line (start -6.37 6.37) (end -3.04 6.37) (layer F.SilkS) (width 0.12))
  (fp_line (start 6.37 -6.37) (end 6.37 6.37) (layer F.SilkS) (width 0.12))
  (fp_line (start 3.04 -6.37) (end 6.37 -6.37) (layer F.SilkS) (width 0.12))
  (fp_line (start -0.39 -6.37) (end 0.39 -6.37) (layer F.SilkS) (width 0.12))
  (fp_line (start -6.37 -6.37) (end -3.04 -6.37) (layer F.SilkS) (width 0.12))
  (fp_line (start -6.25 -5.25) (end -5.25 -6.25) (layer F.Fab) (width 0.1))
  (fp_line (start -6.25 6.25) (end -6.25 -5.25) (layer F.Fab) (width 0.1))
  (fp_line (start 6.25 6.25) (end -6.25 6.25) (layer F.Fab) (width 0.1))
  (fp_line (start 6.25 -6.25) (end 6.25 6.25) (layer F.Fab) (width 0.1))
  (fp_line (start -5.25 -6.25) (end 6.25 -6.25) (layer F.Fab) (width 0.1))
  (fp_line (start 1.651 1.397) (end 1.651 1.524) (layer F.SilkS) (width 0.12))
  (fp_line (start 1.651 1.524) (end 1.651 1.651) (layer F.SilkS) (width 0.12))
  (fp_line (start 1.651 -0.635) (end 1.651 -1.016) (layer F.SilkS) (width 0.12))
  (fp_line (start -1.778 1.397) (end -1.778 1.651) (layer F.SilkS) (width 0.12))
  (fp_line (start -1.778 -0.762) (end -1.778 -0.889) (layer F.SilkS) (width 0.12))
  (fp_line (start -1.778 -0.635) (end -1.778 -0.762) (layer F.SilkS) (width 0.12))
  (fp_line (start 1.651 -1.778) (end 1.651 -1.524) (layer F.SilkS) (width 0.12))
  (fp_line (start -1.778 -1.778) (end -1.778 -1.524) (layer F.SilkS) (width 0.12))
  (fp_line (start -1.778 -0.889) (end -1.778 -1.016) (layer F.SilkS) (width 0.12))
  (fp_line (start -1.778 -1.016) (end 1.651 -1.524) (layer F.SilkS) (width 0.12))
  (fp_line (start -1.778 -1.524) (end 1.651 -1.016) (layer F.SilkS) (width 0.12))
  (fp_circle (center 1.27 -0.762) (end 1.3335 -0.762) (layer F.SilkS) (width 0.13))
  (fp_circle (center -1.397 -0.762) (end -1.3335 -0.762) (layer F.SilkS) (width 0.13))
  (fp_circle (center -6.731 -6.731) (end -6.6675 -6.731) (layer F.SilkS) (width 0.13))
  (fp_circle (center -6.731 -6.731) (end -6.5405 -6.731) (layer F.SilkS) (width 0.13))
  (fp_text user %R (at 0 0) (layer F.Fab)
    (effects (font (size 1 1) (thickness 0.15)))
  )
  (fp_arc (start 1.651 1.143) (end 1.651 0.889) (angle -180) (layer F.SilkS) (width 0.12))
  (fp_arc (start 1.651 0.635) (end 1.651 0.381) (angle -180) (layer F.SilkS) (width 0.12))
  (fp_arc (start 1.651 0.127) (end 1.651 -0.127) (angle -180) (layer F.SilkS) (width 0.12))
  (fp_arc (start 1.651 -0.381) (end 1.651 -0.635) (angle -180) (layer F.SilkS) (width 0.12))
  (fp_arc (start -1.778 1.143) (end -1.778 1.397) (angle -180) (layer F.SilkS) (width 0.12))
  (fp_arc (start -1.778 0.635) (end -1.778 0.889) (angle -180) (layer F.SilkS) (width 0.12))
  (fp_arc (start -1.778 0.127) (end -1.778 0.381) (angle -180) (layer F.SilkS) (width 0.12))
  (fp_arc (start -1.778 -0.381) (end -1.778 -0.127) (angle -180) (layer F.SilkS) (width 0.12))
  (pad 4 smd roundrect (at -1.715 4.25) (size 2.15 4.5) (layers F.Cu F.Paste F.Mask) (roundrect_rratio 0.25))
  (pad 3 smd roundrect (at 1.715 4.25) (size 2.15 4.5) (layers F.Cu F.Paste F.Mask) (roundrect_rratio 0.25))
  (pad 2 smd roundrect (at 1.715 -4.25) (size 2.15 4.5) (layers F.Cu F.Paste F.Mask) (roundrect_rratio 0.25))
  (pad 1 smd roundrect (at -1.715 -4.25) (size 2.15 4.5) (layers F.Cu F.Paste F.Mask) (roundrect_rratio 0.25))
  (model ${KISYS3DMOD}/Inductor_SMD.3dshapes/L_Bourns_SRF1260.wrl
    (at (xyz 0 0 0))
    (scale (xyz 1 1 1))
    (rotate (xyz 0 0 0))
  )
)
