(module L_Bourns-SRN6028 (layer F.Cu) (tedit 60794F33)
  (descr "Bourns SRN6028 series SMD inductor, Alternate KiCad Library")
  (tags "Bourns SRN6028 SMD inductor")
  (attr smd)
  (fp_text reference REF** (at 0 4) (layer F.SilkS)
    (effects (font (size 1 1) (thickness 0.15)))
  )
  (fp_text value L_Bourns-SRN6028 (at 0 -4) (layer F.Fab)
    (effects (font (size 1 1) (thickness 0.15)))
  )
  (fp_line (start 3.3 3.1) (end -3.3 3.1) (layer F.Fab) (width 0.1))
  (fp_line (start -3.3 -3.1) (end 3.3 -3.1) (layer F.Fab) (width 0.1))
  (fp_line (start -3.4 -3.2) (end -3.4 -2) (layer F.SilkS) (width 0.12))
  (fp_line (start -3.4 -3.2) (end 2 -3.2) (layer F.SilkS) (width 0.12))
  (fp_line (start -3.3 -3.1) (end -3.3 3.1) (layer F.Fab) (width 0.1))
  (fp_line (start 3.3 -3.1) (end 3.3 3.1) (layer F.Fab) (width 0.1))
  (fp_line (start 3.4 -3.2) (end 2 -3.2) (layer F.SilkS) (width 0.12))
  (fp_line (start 3.4 -3.2) (end 3.4 2) (layer F.SilkS) (width 0.12))
  (fp_line (start 3.4 3.2) (end 3.4 2) (layer F.SilkS) (width 0.12))
  (fp_line (start -3.4 3.2) (end -3.4 -2) (layer F.SilkS) (width 0.12))
  (fp_line (start 3.4 3.2) (end -2 3.2) (layer F.SilkS) (width 0.12))
  (fp_line (start -3.4 3.2) (end -2 3.2) (layer F.SilkS) (width 0.12))
  (fp_line (start -3.429 -3.302) (end 3.4925 -3.302) (layer F.CrtYd) (width 0.05))
  (fp_line (start 3.4925 -3.302) (end 3.4925 3.302) (layer F.CrtYd) (width 0.05))
  (fp_line (start 3.4925 3.302) (end -3.4925 3.302) (layer F.CrtYd) (width 0.05))
  (fp_line (start -3.4925 -3.2385) (end -3.4925 3.302) (layer F.CrtYd) (width 0.05))
  (fp_text user %R (at 0 0) (layer F.Fab)
    (effects (font (size 1 1) (thickness 0.15)))
  )
  (fp_arc (start 0.9525 0) (end 1.27 0) (angle -180) (layer F.SilkS) (width 0.12))
  (fp_arc (start 0.3175 0) (end 0.635 0) (angle -180) (layer F.SilkS) (width 0.12))
  (fp_arc (start -0.9525 0) (end -0.635 0) (angle -180) (layer F.SilkS) (width 0.12))
  (fp_arc (start -0.3175 0) (end 0 0) (angle -180) (layer F.SilkS) (width 0.12))
  (pad 2 smd rect (at 2.35 0) (size 1.6 5.7) (layers F.Cu F.Paste F.Mask))
  (pad 1 smd rect (at -2.35 0) (size 1.6 5.7) (layers F.Cu F.Paste F.Mask))
  (model ${KISYS3DMOD}/Inductor_SMD.3dshapes/L_Bourns-SRN6028.wrl
    (at (xyz 0 0 0))
    (scale (xyz 1 1 1))
    (rotate (xyz 0 0 0))
  )
)
