(module L_Bourns_SRP7028A_7.3x6.6mm (layer F.Cu) (tedit 60794F8C)
  (descr "Shielded Power Inductors (https://www.bourns.com/docs/product-datasheets/srp7028a.pdf), Alternate KiCad Library")
  (tags "Shielded Inductors Bourns SMD SRP7028A")
  (attr smd)
  (fp_text reference REF** (at 0 -4.2) (layer F.SilkS)
    (effects (font (size 1 1) (thickness 0.15)))
  )
  (fp_text value L_Bourns_SRP7028A_7.3x6.6mm (at 0 4.5) (layer F.Fab)
    (effects (font (size 1 1) (thickness 0.15)))
  )
  (fp_line (start -0.9525 0) (end -0.762 0) (layer F.SilkS) (width 0.12))
  (fp_line (start 0.762 0) (end 0.9525 0) (layer F.SilkS) (width 0.12))
  (fp_line (start -2.85 -3.3) (end 2.85 -3.3) (layer F.Fab) (width 0.1))
  (fp_line (start 3.35 -2.8) (end 3.35 2.8) (layer F.Fab) (width 0.1))
  (fp_line (start 2.85 3.3) (end -2.85 3.3) (layer F.Fab) (width 0.1))
  (fp_line (start -3.35 2.8) (end -3.35 -2.8) (layer F.Fab) (width 0.1))
  (fp_line (start -2.85 -3.41) (end 2.85 -3.41) (layer F.SilkS) (width 0.12))
  (fp_line (start 3.46 1.95) (end 3.46 2.8) (layer F.SilkS) (width 0.12))
  (fp_line (start 2.85 3.41) (end -2.8 3.41) (layer F.SilkS) (width 0.12))
  (fp_line (start -3.46 2.75) (end -3.46 1.95) (layer F.SilkS) (width 0.12))
  (fp_line (start -4.45 2) (end -4.45 -2) (layer F.CrtYd) (width 0.05))
  (fp_line (start -3.6 -3.55) (end 3.6 -3.55) (layer F.CrtYd) (width 0.05))
  (fp_line (start 4.45 -2) (end 4.45 2) (layer F.CrtYd) (width 0.05))
  (fp_line (start 3.6 3.55) (end -3.6 3.55) (layer F.CrtYd) (width 0.05))
  (fp_line (start 3.46 -2.8) (end 3.46 -1.95) (layer F.SilkS) (width 0.12))
  (fp_line (start -3.46 -1.95) (end -3.46 -2.8) (layer F.SilkS) (width 0.12))
  (fp_line (start -4.45 -2) (end -3.6 -2) (layer F.CrtYd) (width 0.05))
  (fp_line (start -3.6 2) (end -4.45 2) (layer F.CrtYd) (width 0.05))
  (fp_line (start 3.6 -2) (end 4.45 -2) (layer F.CrtYd) (width 0.05))
  (fp_line (start 4.45 2) (end 3.6 2) (layer F.CrtYd) (width 0.05))
  (fp_line (start -3.6 -2) (end -3.6 -3.55) (layer F.CrtYd) (width 0.05))
  (fp_line (start 3.6 -3.55) (end 3.6 -2) (layer F.CrtYd) (width 0.05))
  (fp_line (start 3.6 2) (end 3.6 3.55) (layer F.CrtYd) (width 0.05))
  (fp_line (start -3.6 3.55) (end -3.6 2) (layer F.CrtYd) (width 0.05))
  (fp_text user %R (at 0 0) (layer F.Fab)
    (effects (font (size 1 1) (thickness 0.15)))
  )
  (fp_arc (start 2.85 2.8) (end 2.85 3.41) (angle -90) (layer F.SilkS) (width 0.12))
  (fp_arc (start -2.8 2.75) (end -3.46 2.75) (angle -90) (layer F.SilkS) (width 0.12))
  (fp_arc (start 2.85 -2.8) (end 3.46 -2.8) (angle -90) (layer F.SilkS) (width 0.12))
  (fp_arc (start -2.85 -2.8) (end -2.85 -3.41) (angle -90) (layer F.SilkS) (width 0.12))
  (fp_arc (start 2.85 2.8) (end 2.85 3.3) (angle -90) (layer F.Fab) (width 0.1))
  (fp_arc (start -2.85 2.8) (end -3.35 2.8) (angle -90) (layer F.Fab) (width 0.1))
  (fp_arc (start 2.85 -2.8) (end 3.35 -2.8) (angle -90) (layer F.Fab) (width 0.1))
  (fp_arc (start -2.85 -2.8) (end -2.85 -3.3) (angle -90) (layer F.Fab) (width 0.1))
  (fp_arc (start 0.1905 0) (end 0.381 0) (angle -180) (layer F.SilkS) (width 0.12))
  (fp_arc (start -0.1905 0) (end 0 0) (angle -180) (layer F.SilkS) (width 0.12))
  (fp_arc (start 0.5715 0) (end 0.762 0) (angle -180) (layer F.SilkS) (width 0.12))
  (fp_arc (start -0.5715 0) (end -0.381 0) (angle -180) (layer F.SilkS) (width 0.12))
  (pad 2 smd rect (at 2.725 0) (size 2.95 3.5) (layers F.Cu F.Paste F.Mask))
  (pad 1 smd rect (at -2.725 0) (size 2.95 3.5) (layers F.Cu F.Paste F.Mask))
  (model ${KISYS3DMOD}/Inductor_SMD.3dshapes/L_Bourns_SRP7028A_7.3x6.6mm.wrl
    (at (xyz 0 0 0))
    (scale (xyz 1 1 1))
    (rotate (xyz 0 0 0))
  )
)
