(module L_Bourns-SRU1028_10.0x10.0mm (layer F.Cu) (tedit 60794F44)
  (descr "Bourns SRU1028 series SMD inductor, https://www.bourns.com/docs/Product-Datasheets/SRU1028.pdf, Alternate KiCad Library")
  (tags "Bourns SRU1028 SMD inductor")
  (attr smd)
  (fp_text reference REF** (at 0 -6.2) (layer F.SilkS)
    (effects (font (size 1 1) (thickness 0.15)))
  )
  (fp_text value L_Bourns-SRU1028_10.0x10.0mm (at 0 6.2) (layer F.Fab)
    (effects (font (size 1 1) (thickness 0.15)))
  )
  (fp_line (start -3.048 0) (end -3.302 0) (layer F.SilkS) (width 0.12))
  (fp_line (start 3.302 0) (end 3.048 0) (layer F.SilkS) (width 0.12))
  (fp_line (start -1.8 -5.2) (end -5 -2) (layer F.SilkS) (width 0.12))
  (fp_circle (center 0 0) (end 3.7 0) (layer F.Fab) (width 0.1))
  (fp_line (start 1.7 -5) (end 5 -1.7) (layer F.Fab) (width 0.1))
  (fp_line (start -1.7 -5) (end 1.7 -5) (layer F.Fab) (width 0.1))
  (fp_line (start -5 -1.7) (end -1.7 -5) (layer F.Fab) (width 0.1))
  (fp_line (start -5 1.7) (end -5 -1.7) (layer F.Fab) (width 0.1))
  (fp_line (start -1.7 5) (end -5 1.7) (layer F.Fab) (width 0.1))
  (fp_line (start 1.7 5) (end -1.7 5) (layer F.Fab) (width 0.1))
  (fp_line (start 5 1.7) (end 1.7 5) (layer F.Fab) (width 0.1))
  (fp_line (start 5 -1.7) (end 5 1.7) (layer F.Fab) (width 0.1))
  (fp_line (start -1.8 -5.2) (end 1.8 -5.2) (layer F.SilkS) (width 0.12))
  (fp_line (start -1.8 5.2) (end -5 2) (layer F.SilkS) (width 0.12))
  (fp_line (start 1.8 5.2) (end -1.8 5.2) (layer F.SilkS) (width 0.12))
  (fp_line (start 1.8 5.2) (end 5 2) (layer F.SilkS) (width 0.12))
  (fp_line (start 1.8 -5.2) (end 5 -2) (layer F.SilkS) (width 0.12))
  (fp_line (start -5.65 -5.25) (end 5.65 -5.25) (layer F.CrtYd) (width 0.05))
  (fp_line (start -5.65 5.25) (end -5.65 -5.25) (layer F.CrtYd) (width 0.05))
  (fp_line (start 5.65 5.25) (end -5.65 5.25) (layer F.CrtYd) (width 0.05))
  (fp_line (start 5.65 -5.25) (end 5.65 5.25) (layer F.CrtYd) (width 0.05))
  (fp_text user %R (at 0 0) (layer F.Fab)
    (effects (font (size 1 1) (thickness 0.15)))
  )
  (fp_arc (start 2.286 0) (end 3.048 0) (angle -180) (layer F.SilkS) (width 0.12))
  (fp_arc (start -0.762 0) (end 0 0) (angle -180) (layer F.SilkS) (width 0.12))
  (fp_arc (start -2.286 0) (end -1.524 0) (angle -180) (layer F.SilkS) (width 0.12))
  (fp_arc (start 0.762 0) (end 1.524 0) (angle -180) (layer F.SilkS) (width 0.12))
  (pad 2 smd rect (at 4.5 0) (size 1.8 3.6) (layers F.Cu F.Paste F.Mask))
  (pad 1 smd rect (at -4.5 0) (size 1.8 3.6) (layers F.Cu F.Paste F.Mask))
  (model ${KISYS3DMOD}/Inductor_SMD.3dshapes/L_Bourns-SRU1028_10.0x10.0mm.wrl
    (at (xyz 0 0 0))
    (scale (xyz 1 1 1))
    (rotate (xyz 0 0 0))
  )
)
