(module L_Bourns_SRN8040TA (layer F.Cu) (tedit 60794F6C)
  (descr "https://www.bourns.com/docs/product-datasheets/srn8040ta.pdf, Alternate KiCad Library")
  (tags Inductor)
  (attr smd)
  (fp_text reference REF** (at 0 -5.0165 180) (layer F.SilkS)
    (effects (font (size 1 1) (thickness 0.15)))
  )
  (fp_text value L_Bourns_SRN8040TA (at 0.1 5.2) (layer F.Fab)
    (effects (font (size 1 1) (thickness 0.15)))
  )
  (fp_line (start -1.016 0) (end -1.143 0) (layer F.SilkS) (width 0.12))
  (fp_line (start 1.016 0) (end 1.143 0) (layer F.SilkS) (width 0.12))
  (fp_line (start 4.5085 -4.1275) (end -1.016 -4.1275) (layer F.SilkS) (width 0.12))
  (fp_line (start 4.5085 4.1275) (end 4.5085 -4.1275) (layer F.SilkS) (width 0.12))
  (fp_line (start -4.5085 4.1275) (end 4.5085 4.1275) (layer F.SilkS) (width 0.12))
  (fp_line (start -4.5085 4.064) (end -4.5085 4.1275) (layer F.SilkS) (width 0.12))
  (fp_line (start -4.5085 -4.1275) (end -4.5085 4.064) (layer F.SilkS) (width 0.12))
  (fp_line (start -1.016 -4.1275) (end -4.5085 -4.1275) (layer F.SilkS) (width 0.12))
  (fp_line (start 4.6355 -4.2545) (end -4.6355 -4.2545) (layer F.CrtYd) (width 0.05))
  (fp_line (start -4.6355 -4.2545) (end -4.6355 4.2545) (layer F.CrtYd) (width 0.05))
  (fp_line (start -4.6355 4.2545) (end 4.6355 4.2545) (layer F.CrtYd) (width 0.05))
  (fp_line (start 4.6355 4.25) (end 4.6355 -4.25) (layer F.CrtYd) (width 0.05))
  (fp_line (start 1.6 -4) (end 2.3 -3.3) (layer F.Fab) (width 0.1))
  (fp_line (start 2.3 -3.3) (end 4 -3.3) (layer F.Fab) (width 0.1))
  (fp_line (start 4 -3.3) (end 4 3.3) (layer F.Fab) (width 0.1))
  (fp_line (start 1.6 4) (end 2.3 3.3) (layer F.Fab) (width 0.1))
  (fp_line (start 2.3 3.3) (end 4 3.3) (layer F.Fab) (width 0.1))
  (fp_line (start 1.6 4) (end -1.6 4) (layer F.Fab) (width 0.1))
  (fp_line (start -1.6 4) (end -2.3 3.3) (layer F.Fab) (width 0.1))
  (fp_line (start -2.3 3.3) (end -4 3.3) (layer F.Fab) (width 0.1))
  (fp_line (start -4 3.3) (end -4 -3.3) (layer F.Fab) (width 0.1))
  (fp_line (start 1.6 -4) (end -1.6 -4) (layer F.Fab) (width 0.1))
  (fp_line (start -1.6 -4) (end -2.3 -3.3) (layer F.Fab) (width 0.1))
  (fp_line (start -2.3 -3.3) (end -4 -3.3) (layer F.Fab) (width 0.1))
  (fp_text user %R (at 0 0) (layer F.Fab)
    (effects (font (size 1 1) (thickness 0.15)))
  )
  (fp_arc (start -0.254 0) (end 0 0) (angle -180) (layer F.SilkS) (width 0.12))
  (fp_arc (start -0.762 0) (end -0.508 0) (angle -180) (layer F.SilkS) (width 0.12))
  (fp_arc (start 0.254 0) (end 0.508 0) (angle -180) (layer F.SilkS) (width 0.12))
  (fp_arc (start 0.762 0) (end 1.016 0) (angle -180) (layer F.SilkS) (width 0.12))
  (pad 2 smd rect (at 2.825 0 270) (size 6.6 2.85) (layers F.Cu F.Paste F.Mask))
  (pad 1 smd rect (at -2.825 0 270) (size 6.6 2.85) (layers F.Cu F.Paste F.Mask))
  (model ${KISYS3DMOD}/Inductor_SMD.3dshapes/L_Bourns_SRN8040TA.wrl
    (at (xyz 0 0 0))
    (scale (xyz 1 1 1))
    (rotate (xyz 0 0 0))
  )
)
