(module L_CommonModeChoke_Coilcraft_0805USB (layer F.Cu) (tedit 60795002)
  (descr "Coilcraft 0805USB Series Common Mode Choke, https://www.coilcraft.com/pdfs/0805usb.pdf, Alternate KiCad Library")
  (tags "surface mount common mode bead")
  (attr smd)
  (fp_text reference REF** (at 0 2.286) (layer F.SilkS)
    (effects (font (size 1 1) (thickness 0.15)))
  )
  (fp_text value L_CommonModeChoke_Coilcraft_0805USB (at 0 -2) (layer F.Fab)
    (effects (font (size 1 1) (thickness 0.15)))
  )
  (fp_circle (center -1.1684 -1.6764) (end -1.1176 -1.6764) (layer F.SilkS) (width 0.12))
  (fp_line (start -1.016 1.524) (end -1.016 -1.524) (layer F.CrtYd) (width 0.05))
  (fp_line (start 1.016 1.524) (end 1.016 -1.524) (layer F.CrtYd) (width 0.05))
  (fp_line (start -1.016 1.524) (end 1.016 1.524) (layer F.CrtYd) (width 0.05))
  (fp_line (start -1.016 -1.524) (end 1.016 -1.524) (layer F.CrtYd) (width 0.05))
  (fp_line (start -0.635 -0.58) (end -0.205 -1.015) (layer F.Fab) (width 0.1))
  (fp_line (start -0.635 -0.58) (end -0.635 1.015) (layer F.Fab) (width 0.1))
  (fp_line (start 0.635 -1.015) (end 0.635 1.015) (layer F.Fab) (width 0.1))
  (fp_line (start -0.205 -1.015) (end 0.635 -1.015) (layer F.Fab) (width 0.1))
  (fp_line (start -0.635 1.015) (end 0.635 1.015) (layer F.Fab) (width 0.1))
  (fp_line (start -0.9144 -1.4224) (end 0.9144 -1.4224) (layer F.SilkS) (width 0.12))
  (fp_line (start 0.9144 -1.4224) (end 0.9144 1.4224) (layer F.SilkS) (width 0.12))
  (fp_line (start 0.9144 1.4224) (end -0.9144 1.4224) (layer F.SilkS) (width 0.12))
  (fp_line (start -0.9144 1.4224) (end -0.9144 -1.4224) (layer F.SilkS) (width 0.12))
  (fp_text user %R (at 0 0 90) (layer F.Fab)
    (effects (font (size 0.5 0.5) (thickness 0.075)))
  )
  (pad 4 smd roundrect (at 0.435 -0.835) (size 0.51 0.76) (layers F.Cu F.Paste F.Mask) (roundrect_rratio 0.05))
  (pad 3 smd roundrect (at 0.435 0.835) (size 0.51 0.76) (layers F.Cu F.Paste F.Mask) (roundrect_rratio 0.05))
  (pad 2 smd roundrect (at -0.435 0.835) (size 0.51 0.76) (layers F.Cu F.Paste F.Mask) (roundrect_rratio 0.05))
  (pad 1 smd roundrect (at -0.435 -0.835) (size 0.51 0.76) (layers F.Cu F.Paste F.Mask) (roundrect_rratio 0.05))
  (model ${KISYS3DMOD}/Inductor_SMD.3dshapes/L_CommonModeChoke_Coilcraft_0805USB.wrl
    (at (xyz 0 0 0))
    (scale (xyz 1 1 1))
    (rotate (xyz 0 0 0))
  )
)
