(module L_Coilcraft_XxL4040 (layer F.Cu) (tedit 60794FF7)
  (descr "L_Coilcraft_XxL4040 https://www.coilcraft.com/pdfs/xal4000.pdf, Alternate KiCad Library")
  (tags "L Coilcraft XxL4040")
  (attr smd)
  (fp_text reference REF** (at 0 -3) (layer F.SilkS)
    (effects (font (size 1 1) (thickness 0.15)))
  )
  (fp_text value L_Coilcraft_XxL4040 (at 0 3) (layer F.Fab)
    (effects (font (size 1 1) (thickness 0.15)))
  )
  (fp_line (start 2.154 2.154) (end 2.154 -2.154) (layer F.SilkS) (width 0.12))
  (fp_line (start -2.154 -2.154) (end -2.154 2.154) (layer F.SilkS) (width 0.12))
  (fp_line (start 2.154 2.154) (end -2.154 2.154) (layer F.SilkS) (width 0.12))
  (fp_line (start -2.154 -2.154) (end 2.154 -2.154) (layer F.SilkS) (width 0.12))
  (fp_line (start -2.26 2.26) (end -2.26 -2.26) (layer F.CrtYd) (width 0.05))
  (fp_line (start 2.26 2.26) (end -2.26 2.26) (layer F.CrtYd) (width 0.05))
  (fp_line (start 2.26 -2.26) (end 2.26 2.26) (layer F.CrtYd) (width 0.05))
  (fp_line (start -2.26 -2.26) (end 2.26 -2.26) (layer F.CrtYd) (width 0.05))
  (fp_line (start -2 2) (end -2 -2) (layer F.Fab) (width 0.1))
  (fp_line (start 2 2) (end -2 2) (layer F.Fab) (width 0.1))
  (fp_line (start 2 -2) (end 2 2) (layer F.Fab) (width 0.1))
  (fp_line (start -2 -2) (end 2 -2) (layer F.Fab) (width 0.1))
  (fp_text user %R (at 0 0) (layer F.Fab)
    (effects (font (size 1 1) (thickness 0.15)))
  )
  (fp_arc (start -0.1905 0) (end 0 0) (angle -180) (layer F.SilkS) (width 0.12))
  (fp_arc (start 0.1905 0) (end 0.381 0) (angle -180) (layer F.SilkS) (width 0.12))
  (pad 2 smd rect (at 1.185 0) (size 0.98 3.4) (layers F.Cu F.Paste F.Mask))
  (pad 1 smd rect (at -1.185 0) (size 0.98 3.4) (layers F.Cu F.Paste F.Mask))
  (model ${KISYS3DMOD}/Inductor_SMD.3dshapes/L_Coilcraft_XxL4040.wrl
    (at (xyz 0 0 0))
    (scale (xyz 1 1 1))
    (rotate (xyz 0 0 0))
  )
)
