(module L_CommonModeChoke_Coilcraft_0603USB (layer F.Cu) (tedit 60794FFC)
  (descr "Coilcraft 0603USB Series Common Mode Choke, https://www.coilcraft.com/pdfs/0603usb.pdf, Alternate KiCad Library")
  (tags "surface mount common mode bead")
  (attr smd)
  (fp_text reference REF** (at 0 2.0828) (layer F.SilkS)
    (effects (font (size 1 1) (thickness 0.15)))
  )
  (fp_text value L_CommonModeChoke_Coilcraft_0603USB (at 0 -2.01) (layer F.Fab)
    (effects (font (size 1 1) (thickness 0.15)))
  )
  (fp_circle (center -0.9144 -1.4224) (end -0.8636 -1.4224) (layer F.SilkS) (width 0.12))
  (fp_line (start -0.762 1.27) (end -0.762 -1.27) (layer F.CrtYd) (width 0.05))
  (fp_line (start 0.762 1.27) (end 0.762 -1.27) (layer F.CrtYd) (width 0.05))
  (fp_line (start -0.762 1.27) (end 0.762 1.27) (layer F.CrtYd) (width 0.05))
  (fp_line (start -0.762 -1.27) (end 0.762 -1.27) (layer F.CrtYd) (width 0.05))
  (fp_line (start -0.38 -0.58) (end -0.2 -0.76) (layer F.Fab) (width 0.1))
  (fp_line (start -0.38 -0.58) (end -0.38 0.76) (layer F.Fab) (width 0.1))
  (fp_line (start 0.38 -0.76) (end 0.38 0.76) (layer F.Fab) (width 0.1))
  (fp_line (start -0.2 -0.76) (end 0.38 -0.76) (layer F.Fab) (width 0.1))
  (fp_line (start -0.38 0.76) (end 0.38 0.76) (layer F.Fab) (width 0.1))
  (fp_line (start -0.6604 -1.1684) (end 0.6604 -1.1684) (layer F.SilkS) (width 0.12))
  (fp_line (start 0.6604 -1.1684) (end 0.6604 1.1684) (layer F.SilkS) (width 0.12))
  (fp_line (start 0.6604 1.1684) (end -0.6604 1.1684) (layer F.SilkS) (width 0.12))
  (fp_line (start -0.6604 1.1684) (end -0.6604 -1.1684) (layer F.SilkS) (width 0.12))
  (fp_text user %R (at 0 0 90) (layer F.Fab)
    (effects (font (size 0.5 0.5) (thickness 0.075)))
  )
  (pad 4 smd roundrect (at 0.275 -0.655) (size 0.3 0.58) (layers F.Cu F.Paste F.Mask) (roundrect_rratio 0.05))
  (pad 3 smd roundrect (at 0.275 0.655) (size 0.3 0.58) (layers F.Cu F.Paste F.Mask) (roundrect_rratio 0.05))
  (pad 2 smd roundrect (at -0.275 0.655) (size 0.3 0.58) (layers F.Cu F.Paste F.Mask) (roundrect_rratio 0.05))
  (pad 1 smd roundrect (at -0.275 -0.655) (size 0.3 0.58) (layers F.Cu F.Paste F.Mask) (roundrect_rratio 0.05))
  (model ${KISYS3DMOD}/Inductor_SMD.3dshapes/L_CommonModeChoke_Coilcraft_0603USB.wrl
    (at (xyz 0 0 0))
    (scale (xyz 1 1 1))
    (rotate (xyz 0 0 0))
  )
)
