(module L_CommonModeChoke_Coilcraft_1812CAN (layer F.Cu) (tedit 60795007)
  (descr "Coilcraft 1812CAN Series Common Mode Choke, https://www.coilcraft.com/pdfs/1812can.pdf, Alternate KiCad Library")
  (tags "surface mount common mode bead")
  (attr smd)
  (fp_text reference REF** (at 0 4) (layer F.SilkS)
    (effects (font (size 1 1) (thickness 0.15)))
  )
  (fp_text value L_CommonModeChoke_Coilcraft_1812CAN (at 0 -4) (layer F.Fab)
    (effects (font (size 1 1) (thickness 0.15)))
  )
  (fp_line (start 0.127 1.016) (end 0.127 -1.016) (layer F.SilkS) (width 0.12))
  (fp_line (start -0.127 -1.016) (end -0.127 1.016) (layer F.SilkS) (width 0.12))
  (fp_circle (center 0.4445 -0.9525) (end 0.4953 -0.9525) (layer F.SilkS) (width 0.12))
  (fp_circle (center -0.4445 -0.9525) (end -0.3937 -0.9525) (layer F.SilkS) (width 0.12))
  (fp_line (start 1.84 2.73) (end 1.84 -2.73) (layer F.CrtYd) (width 0.05))
  (fp_line (start -1.84 2.73) (end 1.84 2.73) (layer F.CrtYd) (width 0.05))
  (fp_line (start -1.84 2.73) (end -1.84 -2.73) (layer F.CrtYd) (width 0.05))
  (fp_line (start -1.84 -2.73) (end 1.84 -2.73) (layer F.CrtYd) (width 0.05))
  (fp_line (start -1.71 -2.595) (end 1.71 -2.595) (layer F.SilkS) (width 0.12))
  (fp_line (start 1.71 -2.595) (end 1.71 2.595) (layer F.SilkS) (width 0.12))
  (fp_line (start -1.71 2.595) (end 1.71 2.595) (layer F.SilkS) (width 0.12))
  (fp_line (start -1.71 -2.595) (end -1.71 2.595) (layer F.SilkS) (width 0.12))
  (fp_line (start -1.59 -1.78) (end -0.89 -2.475) (layer F.Fab) (width 0.1))
  (fp_line (start -1.59 -1.78) (end -1.59 2.475) (layer F.Fab) (width 0.1))
  (fp_line (start 1.59 -2.475) (end 1.59 2.475) (layer F.Fab) (width 0.1))
  (fp_line (start -0.89 -2.475) (end 1.59 -2.475) (layer F.Fab) (width 0.1))
  (fp_line (start -1.59 2.475) (end 1.59 2.475) (layer F.Fab) (width 0.1))
  (fp_circle (center -1.9812 -2.8448) (end -1.9304 -2.8448) (layer F.SilkS) (width 0.12))
  (fp_text user %R (at 0 0 90) (layer F.Fab)
    (effects (font (size 1 1) (thickness 0.15)))
  )
  (fp_arc (start -0.889 0.254) (end -0.889 0.508) (angle -180) (layer F.SilkS) (width 0.12))
  (fp_arc (start -0.889 0.762) (end -0.889 1.016) (angle -180) (layer F.SilkS) (width 0.12))
  (fp_arc (start -0.889 -0.254) (end -0.889 0) (angle -180) (layer F.SilkS) (width 0.12))
  (fp_arc (start -0.889 -0.762) (end -0.889 -0.508) (angle -180) (layer F.SilkS) (width 0.12))
  (fp_arc (start 0.889 0.254) (end 0.889 0) (angle -180) (layer F.SilkS) (width 0.12))
  (fp_arc (start 0.889 0.762) (end 0.889 0.508) (angle -180) (layer F.SilkS) (width 0.12))
  (fp_arc (start 0.889 -0.762) (end 0.889 -1.016) (angle -180) (layer F.SilkS) (width 0.12))
  (fp_arc (start 0.889 -0.254) (end 0.889 -0.508) (angle -180) (layer F.SilkS) (width 0.12))
  (pad 4 smd roundrect (at 0.865 -1.84) (size 1.15 1) (layers F.Cu F.Paste F.Mask) (roundrect_rratio 0.05))
  (pad 3 smd roundrect (at 0.865 1.84) (size 1.15 1) (layers F.Cu F.Paste F.Mask) (roundrect_rratio 0.05))
  (pad 2 smd roundrect (at -0.865 1.84) (size 1.15 1) (layers F.Cu F.Paste F.Mask) (roundrect_rratio 0.05))
  (pad 1 smd roundrect (at -0.865 -1.84) (size 1.15 1) (layers F.Cu F.Paste F.Mask) (roundrect_rratio 0.05))
  (model ${KISYS3DMOD}/Inductor_SMD.3dshapes/L_CommonModeChoke_Coilcraft_1812CAN.wrl
    (at (xyz 0 0 0))
    (scale (xyz 1 1 1))
    (rotate (xyz 0 0 0))
  )
)
