(module L_Coilcraft_XAL5030 (layer F.Cu) (tedit 60794FAE)
  (descr "L_Coilcraft_XAL5030, Alternate KiCad Library")
  (tags "L Coilcraft XAL5030")
  (attr smd)
  (fp_text reference REF** (at 0 -3.81) (layer F.SilkS)
    (effects (font (size 1 1) (thickness 0.15)))
  )
  (fp_text value L_Coilcraft_XAL5030 (at 0 4.572) (layer F.Fab)
    (effects (font (size 1 1) (thickness 0.15)))
  )
  (fp_line (start -2.794 -2.794) (end -2.794 2.794) (layer F.SilkS) (width 0.12))
  (fp_line (start 2.794 2.794) (end 2.794 -2.794) (layer F.SilkS) (width 0.12))
  (fp_line (start 2.794 2.794) (end -2.794 2.794) (layer F.SilkS) (width 0.12))
  (fp_line (start -2.794 -2.794) (end 2.794 -2.794) (layer F.SilkS) (width 0.12))
  (fp_line (start -2.9 2.9) (end -2.9 -2.9) (layer F.CrtYd) (width 0.05))
  (fp_line (start 2.9 2.9) (end -2.9 2.9) (layer F.CrtYd) (width 0.05))
  (fp_line (start 2.9 -2.9) (end 2.9 2.9) (layer F.CrtYd) (width 0.05))
  (fp_line (start -2.9 -2.9) (end 2.9 -2.9) (layer F.CrtYd) (width 0.05))
  (fp_line (start -2.64 2.64) (end -2.64 -2.64) (layer F.Fab) (width 0.1))
  (fp_line (start 2.64 2.64) (end -2.64 2.64) (layer F.Fab) (width 0.1))
  (fp_line (start 2.64 -2.64) (end 2.64 2.64) (layer F.Fab) (width 0.1))
  (fp_line (start -2.64 -2.64) (end 2.64 -2.64) (layer F.Fab) (width 0.1))
  (fp_text user %R (at 0 0) (layer F.Fab)
    (effects (font (size 1 1) (thickness 0.15)))
  )
  (fp_arc (start -0.1905 0) (end 0 0) (angle -180) (layer F.SilkS) (width 0.12))
  (fp_arc (start -0.5715 0) (end -0.381 0) (angle -180) (layer F.SilkS) (width 0.12))
  (fp_arc (start 0.1905 0) (end 0.381 0) (angle -180) (layer F.SilkS) (width 0.12))
  (fp_arc (start 0.5715 0) (end 0.762 0) (angle -180) (layer F.SilkS) (width 0.12))
  (pad 2 smd rect (at 1.655 0) (size 1.2 4.7) (layers F.Cu F.Paste F.Mask))
  (pad 1 smd rect (at -1.655 0) (size 1.2 4.7) (layers F.Cu F.Paste F.Mask))
  (model ${KISYS3DMOD}/Inductor_SMD.3dshapes/L_Coilcraft_XAL5030.wrl
    (at (xyz 0 0 0))
    (scale (xyz 1 1 1))
    (rotate (xyz 0 0 0))
  )
)
