(module L_Coilcraft_LPS4018 (layer F.Cu) (tedit 60794F9C)
  (descr "SMD Inductor Coilcraft LPS4018 https://www.coilcraft.com/pdfs/lps4018.pdf, Alternate KiCad Library")
  (tags "L Coilcraft LPS4018")
  (attr smd)
  (fp_text reference REF** (at 0 -3) (layer F.SilkS)
    (effects (font (size 1 1) (thickness 0.15)))
  )
  (fp_text value L_Coilcraft_LPS4018 (at 0 3) (layer F.Fab)
    (effects (font (size 1 1) (thickness 0.15)))
  )
  (fp_line (start 1.778 2.2225) (end -0.1905 2.2225) (layer F.SilkS) (width 0.12))
  (fp_line (start 2.4765 1.524) (end 1.778 2.2225) (layer F.SilkS) (width 0.12))
  (fp_line (start 2.4765 -1.524) (end 2.4765 1.524) (layer F.SilkS) (width 0.12))
  (fp_line (start 1.778 -2.2225) (end 2.4765 -1.524) (layer F.SilkS) (width 0.12))
  (fp_line (start -1.778 -2.2225) (end 1.778 -2.2225) (layer F.SilkS) (width 0.12))
  (fp_line (start -2.4765 -1.524) (end -1.778 -2.2225) (layer F.SilkS) (width 0.12))
  (fp_line (start -2.4765 1.524) (end -2.4765 -1.524) (layer F.SilkS) (width 0.12))
  (fp_line (start -1.778 2.2225) (end -2.4765 1.524) (layer F.SilkS) (width 0.12))
  (fp_line (start -0.1905 2.2225) (end -1.778 2.2225) (layer F.SilkS) (width 0.12))
  (fp_line (start 1.2 -1.95) (end 1.95 -1.2) (layer F.Fab) (width 0.1))
  (fp_line (start -1.95 -1.2) (end -1.21 -1.95) (layer F.Fab) (width 0.1))
  (fp_line (start -1.95 1.2) (end -1.2 1.95) (layer F.Fab) (width 0.1))
  (fp_line (start 1.2 1.95) (end 1.95 1.2) (layer F.Fab) (width 0.1))
  (fp_line (start 2.54 -2.286) (end 2.54 2.286) (layer F.CrtYd) (width 0.05))
  (fp_line (start -2.54 -2.286) (end 2.54 -2.286) (layer F.CrtYd) (width 0.05))
  (fp_line (start -1.95 1.2) (end -1.95 -1.2) (layer F.Fab) (width 0.1))
  (fp_line (start 1.2 1.95) (end -1.2 1.95) (layer F.Fab) (width 0.1))
  (fp_line (start 1.95 -1.2) (end 1.95 1.2) (layer F.Fab) (width 0.1))
  (fp_line (start -1.2 -1.95) (end 1.2 -1.95) (layer F.Fab) (width 0.1))
  (fp_line (start -2.54 -2.286) (end -2.54 2.286) (layer F.CrtYd) (width 0.05))
  (fp_line (start -2.54 2.286) (end 2.54 2.286) (layer F.CrtYd) (width 0.05))
  (fp_text user %R (at 0 0) (layer F.Fab)
    (effects (font (size 0.8 0.8) (thickness 0.12)))
  )
  (fp_arc (start -0.254 0) (end 0 0) (angle -180) (layer F.SilkS) (width 0.12))
  (fp_arc (start -0.762 0) (end -0.508 0) (angle -180) (layer F.SilkS) (width 0.12))
  (fp_arc (start 0.254 0) (end 0.508 0) (angle -180) (layer F.SilkS) (width 0.12))
  (fp_arc (start 0.762 0) (end 1.016 0) (angle -180) (layer F.SilkS) (width 0.12))
  (pad 1 smd custom (at -1.765 0) (size 0.87 2.79) (layers F.Cu F.Paste F.Mask)
    (zone_connect 2)
    (options (clearance outline) (anchor rect))
    (primitives
      (gr_poly (pts
         (xy -0.435 -1.395) (xy 0.125 -1.945) (xy 1.015 -1.945) (xy 1.015 -1.17) (xy 0.435 -0.575)
         (xy 0.435 0.575) (xy 1.015 1.17) (xy 1.015 1.945) (xy 0.125 1.945) (xy -0.435 1.395)
) (width 0))
    ))
  (pad 2 smd custom (at 1.765 0) (size 0.87 2.79) (layers F.Cu F.Paste F.Mask)
    (zone_connect 2)
    (options (clearance outline) (anchor rect))
    (primitives
      (gr_poly (pts
         (xy 0.435 -1.395) (xy -0.125 -1.945) (xy -1.015 -1.945) (xy -1.015 -1.17) (xy -0.435 -0.575)
         (xy -0.435 0.575) (xy -1.015 1.17) (xy -1.015 1.945) (xy -0.125 1.945) (xy 0.435 1.395)
) (width 0))
    ))
  (model ${KISYS3DMOD}/Inductor_SMD.3dshapes/L_Coilcraft_LPS4018.wrl
    (at (xyz 0 0 0))
    (scale (xyz 1 1 1))
    (rotate (xyz 0 0 0))
  )
)
