(module L_Murata_DEM35xxC (layer F.Cu) (tedit 609029E4)
  (descr "https://www.murata.com/~/media/webrenewal/products/inductor/chip/tokoproducts/wirewoundferritetypeforpl/m_dem3518c.ashx, Alternate KiCad Library")
  (tags "Inductor SMD DEM35xxC")
  (attr smd)
  (fp_text reference REF** (at 0 -3.1) (layer F.SilkS)
    (effects (font (size 1 1) (thickness 0.15)))
  )
  (fp_text value L_Murata_DEM35xxC (at 0 3.1) (layer F.Fab)
    (effects (font (size 1 1) (thickness 0.15)))
  )
  (fp_line (start -1.95 1.85) (end -1.95 -1.85) (layer F.Fab) (width 0.1))
  (fp_line (start 1.95 1.85) (end -1.95 1.85) (layer F.Fab) (width 0.1))
  (fp_line (start 1.95 -1.85) (end 1.95 1.85) (layer F.Fab) (width 0.1))
  (fp_line (start -1.95 -1.85) (end 1.95 -1.85) (layer F.Fab) (width 0.1))
  (fp_line (start 2.4 -2.1) (end -2.4 -2.1) (layer F.CrtYd) (width 0.05))
  (fp_line (start 2.4 2.1) (end 2.4 -2.1) (layer F.CrtYd) (width 0.05))
  (fp_line (start -2.4 2.1) (end 2.4 2.1) (layer F.CrtYd) (width 0.05))
  (fp_line (start -2.4 -2.1) (end -2.4 2.1) (layer F.CrtYd) (width 0.05))
  (fp_line (start -2.413 -2.032) (end 2.413 -2.032) (layer F.SilkS) (width 0.12))
  (fp_line (start 2.413 -2.032) (end 2.413 0.762) (layer F.SilkS) (width 0.12))
  (fp_line (start 2.413 0.762) (end 2.413 2.032) (layer F.SilkS) (width 0.12))
  (fp_line (start 2.413 2.032) (end -2.413 2.032) (layer F.SilkS) (width 0.12))
  (fp_line (start -2.413 2.032) (end -2.413 -0.762) (layer F.SilkS) (width 0.12))
  (fp_line (start -2.413 -0.762) (end -2.413 -2.032) (layer F.SilkS) (width 0.12))
  (fp_line (start 0.762 0) (end 0.889 0) (layer F.SilkS) (width 0.12))
  (fp_line (start -0.762 0) (end -0.889 0) (layer F.SilkS) (width 0.12))
  (fp_text user %R (at 0 0) (layer F.Fab)
    (effects (font (size 0.7 0.7) (thickness 0.1)))
  )
  (fp_arc (start -0.1905 0) (end 0 0) (angle -180) (layer F.SilkS) (width 0.12))
  (fp_arc (start -0.5715 0) (end -0.381 0) (angle -180) (layer F.SilkS) (width 0.12))
  (fp_arc (start 0.1905 0) (end 0.381 0) (angle -180) (layer F.SilkS) (width 0.12))
  (fp_arc (start 0.5715 0) (end 0.762 0) (angle -180) (layer F.SilkS) (width 0.12))
  (pad 2 smd roundrect (at 1.65 0) (size 1 1.4) (layers F.Cu F.Paste F.Mask) (roundrect_rratio 0.2))
  (pad 1 smd roundrect (at -1.65 0) (size 1 1.4) (layers F.Cu F.Paste F.Mask) (roundrect_rratio 0.2))
  (model ${KISYS3DMOD}/Inductor_SMD.3dshapes/L_Murata_DEM35xxC.wrl
    (at (xyz 0 0 0))
    (scale (xyz 1 1 1))
    (rotate (xyz 0 0 0))
  )
)
