(module L_Neosid_Air-Coil_SML_1turn_HDM0131A (layer F.Cu) (tedit 60795050)
  (descr "Neosid, Air-Coil, SML, 1turn, HDM0131A, Alternate KiCad Library")
  (tags "Neosid Air-Coil SML 1turn HDM0131A")
  (attr smd)
  (fp_text reference REF** (at 0 -5.5) (layer F.SilkS)
    (effects (font (size 1 1) (thickness 0.15)))
  )
  (fp_text value L_Neosid_Air-Coil_SML_1turn_HDM0131A (at 0 5.5) (layer F.Fab)
    (effects (font (size 1 1) (thickness 0.15)))
  )
  (fp_line (start 1.3335 -1.5875) (end 1.3335 -1.9685) (layer F.SilkS) (width 0.12))
  (fp_line (start 1.27 -1.524) (end 1.3335 -1.5875) (layer F.SilkS) (width 0.12))
  (fp_line (start -1.4605 1.778) (end -1.4605 2.159) (layer F.SilkS) (width 0.12))
  (fp_line (start -1.230136 1.555522) (end -1.4605 1.778) (layer F.SilkS) (width 0.12))
  (fp_line (start -2 4.45) (end -0.9 4.45) (layer F.CrtYd) (width 0.05))
  (fp_line (start -2 -2) (end -2 4.45) (layer F.CrtYd) (width 0.05))
  (fp_line (start 0.9 -2) (end -2 -2) (layer F.CrtYd) (width 0.05))
  (fp_line (start 0.9 -4.45) (end 0.9 -2) (layer F.CrtYd) (width 0.05))
  (fp_line (start 2 -4.45) (end 0.9 -4.45) (layer F.CrtYd) (width 0.05))
  (fp_line (start 2 2) (end 2 -4.45) (layer F.CrtYd) (width 0.05))
  (fp_line (start -0.9 2) (end 2 2) (layer F.CrtYd) (width 0.05))
  (fp_line (start -0.9 4.45) (end -0.9 2) (layer F.CrtYd) (width 0.05))
  (fp_line (start 1.4 1.4) (end 1.4 -3.5) (layer F.Fab) (width 0.1))
  (fp_line (start -1.5 -1.5) (end 1.4 1.4) (layer F.Fab) (width 0.1))
  (fp_line (start -1.5 3.4) (end -1.5 -1.5) (layer F.Fab) (width 0.1))
  (fp_text user %R (at -0.05 -0.05) (layer F.Fab)
    (effects (font (size 0.7 0.7) (thickness 0.105)))
  )
  (fp_arc (start -0.317499 0.381) (end 0 0) (angle -182.9357464) (layer F.SilkS) (width 0.12))
  (fp_arc (start -0.932567 1.158761) (end -0.615068 0.777761) (angle -182.9357464) (layer F.SilkS) (width 0.12))
  (fp_arc (start 0.317501 -0.381) (end 0.635 -0.762) (angle -182.9357464) (layer F.SilkS) (width 0.12))
  (fp_arc (start 0.952501 -1.143) (end 1.27 -1.524) (angle -182.9357464) (layer F.SilkS) (width 0.12))
  (pad 2 smd rect (at 1.45 -3.45) (size 0.6 1.5) (layers F.Cu F.Paste F.Mask))
  (pad 1 smd rect (at -1.45 3.45) (size 0.6 1.5) (layers F.Cu F.Paste F.Mask))
  (model ${KISYS3DMOD}/Inductor_SMD.3dshapes/L_Neosid_Air-Coil_SML_1turn_HDM0131A.wrl
    (at (xyz 0 0 0))
    (scale (xyz 1 1 1))
    (rotate (xyz 0 0 0))
  )
)
