(module L_Neosid_SM-NE127 (layer F.Cu) (tedit 6079511B)
  (descr "Neosid, Inductor, SM-NE127, Fixed inductor, SMD, https://neosid.de/import-data/product-pdf/neoFestind_SMNE127.pdf, Alternate KiCad Library")
  (tags "Neosid Inductor SM-NE127 Fixed inductor SMD")
  (attr smd)
  (fp_text reference REF** (at 0 -7.6) (layer F.SilkS)
    (effects (font (size 1 1) (thickness 0.15)))
  )
  (fp_text value L_Neosid_SM-NE127 (at 0 7.7) (layer F.Fab)
    (effects (font (size 1 1) (thickness 0.15)))
  )
  (fp_line (start -3.175 0) (end -3.048 0) (layer F.SilkS) (width 0.12))
  (fp_line (start 3.048 0) (end 3.175 0) (layer F.SilkS) (width 0.12))
  (fp_line (start -6.6 6.6) (end -6.6 -6.6) (layer F.SilkS) (width 0.12))
  (fp_line (start -6.6 -6.6) (end 6.6 -6.6) (layer F.SilkS) (width 0.12))
  (fp_line (start 6.6 -6.6) (end 6.6 6.6) (layer F.SilkS) (width 0.12))
  (fp_line (start 6.6 6.6) (end -6.6 6.6) (layer F.SilkS) (width 0.12))
  (fp_line (start -6.4 -6.4) (end 6.4 -6.4) (layer F.Fab) (width 0.1))
  (fp_line (start 6.4 -6.4) (end 6.4 6.4) (layer F.Fab) (width 0.1))
  (fp_line (start 6.4 6.4) (end -6.4 6.4) (layer F.Fab) (width 0.1))
  (fp_line (start -6.4 6.4) (end -6.4 -6.4) (layer F.Fab) (width 0.1))
  (fp_line (start -6.65 -6.65) (end 6.65 -6.65) (layer F.CrtYd) (width 0.05))
  (fp_line (start -6.65 -6.65) (end -6.65 6.65) (layer F.CrtYd) (width 0.05))
  (fp_line (start 6.65 6.65) (end 6.65 -6.65) (layer F.CrtYd) (width 0.05))
  (fp_line (start 6.65 6.65) (end -6.65 6.65) (layer F.CrtYd) (width 0.05))
  (fp_circle (center 0 0) (end 5 0) (layer F.Fab) (width 0.1))
  (fp_text user %R (at 0 0) (layer F.Fab)
    (effects (font (size 1 1) (thickness 0.15)))
  )
  (fp_arc (start 0.762 0) (end 1.524 0) (angle -180) (layer F.SilkS) (width 0.12))
  (fp_arc (start -0.762 0) (end 0 0) (angle -180) (layer F.SilkS) (width 0.12))
  (fp_arc (start -2.286 0) (end -1.524 0) (angle -180) (layer F.SilkS) (width 0.12))
  (fp_arc (start 2.286 0) (end 3.048 0) (angle -180) (layer F.SilkS) (width 0.12))
  (pad 1 smd rect (at -4.95 0) (size 2.9 5.4) (layers F.Cu F.Paste F.Mask))
  (pad 2 smd rect (at 4.95 0) (size 2.9 5.4) (layers F.Cu F.Paste F.Mask))
  (model ${KISYS3DMOD}/Inductor_SMD.3dshapes/L_Neosid_SM-NE127.wrl
    (at (xyz 0 0 0))
    (scale (xyz 1 1 1))
    (rotate (xyz 0 0 0))
  )
)
