(module L_Neosid_MicroCoil_Ms36-L (layer F.Cu) (tedit 607950E8)
  (descr "Neosid, Micro Coil, Inductor, Ms36-L, SMD, Fixed inductor, anti clockwise, https://neosid.de/en/products/inductors/rod-core-chokes/smd-rod-core-chokes/52026/ms-36/7-h?c=94, Alternate KiCad Library")
  (tags "Neosid Micro Coil Inductor Ms36-L SMD Fixed inductor anti clockwise")
  (attr smd)
  (fp_text reference REF** (at 0 -2.9) (layer F.SilkS)
    (effects (font (size 1 1) (thickness 0.15)))
  )
  (fp_text value L_Neosid_MicroCoil_Ms36-L (at 0 3.1) (layer F.Fab)
    (effects (font (size 1 1) (thickness 0.15)))
  )
  (fp_line (start -2.032 0) (end -2.159 0) (layer F.SilkS) (width 0.12))
  (fp_line (start 2.032 0) (end 2.159 0) (layer F.SilkS) (width 0.12))
  (fp_line (start 5.842 2.0955) (end -5.842 2.0955) (layer F.CrtYd) (width 0.05))
  (fp_line (start 5.842 2.0955) (end 5.842 -2.0955) (layer F.CrtYd) (width 0.05))
  (fp_line (start -5.842 -2.0955) (end -5.842 2.0955) (layer F.CrtYd) (width 0.05))
  (fp_line (start -5.842 -2.0955) (end 5.842 -2.0955) (layer F.CrtYd) (width 0.05))
  (fp_line (start -4 0.8) (end -3.6 0.8) (layer F.Fab) (width 0.1))
  (fp_line (start 3.6 0.8) (end 3.9 0.8) (layer F.Fab) (width 0.1))
  (fp_line (start 3.6 1.8) (end 3.6 0.8) (layer F.Fab) (width 0.1))
  (fp_line (start 3.6 -0.8) (end 3.6 -1.8) (layer F.Fab) (width 0.1))
  (fp_line (start 4 -0.8) (end 3.6 -0.8) (layer F.Fab) (width 0.1))
  (fp_line (start -3.6 1.8) (end -3.6 0.8) (layer F.Fab) (width 0.1))
  (fp_line (start -3.6 -1.8) (end 3.6 -1.8) (layer F.Fab) (width 0.1))
  (fp_line (start -3.6 -0.8) (end -3.6 -1.8) (layer F.Fab) (width 0.1))
  (fp_line (start -4 -0.8) (end -3.6 -0.8) (layer F.Fab) (width 0.1))
  (fp_line (start 3.6 1.8) (end -3.6 1.8) (layer F.Fab) (width 0.1))
  (fp_line (start -4 0.8) (end -4 -0.8) (layer F.Fab) (width 0.1))
  (fp_line (start 4 -0.8) (end 4 0.8) (layer F.Fab) (width 0.1))
  (fp_line (start -5.715 -2.032) (end 5.715 -2.032) (layer F.SilkS) (width 0.12))
  (fp_line (start 5.715 -2.032) (end 5.7785 -2.032) (layer F.SilkS) (width 0.12))
  (fp_line (start 5.7785 -2.032) (end 5.7785 2.032) (layer F.SilkS) (width 0.12))
  (fp_line (start 5.7785 2.032) (end -5.7785 2.032) (layer F.SilkS) (width 0.12))
  (fp_line (start -5.7785 2.032) (end -5.7785 -2.032) (layer F.SilkS) (width 0.12))
  (fp_line (start -5.7785 -2.032) (end -5.715 -2.032) (layer F.SilkS) (width 0.12))
  (fp_text user %R (at 0 0) (layer F.Fab)
    (effects (font (size 1 1) (thickness 0.15)))
  )
  (fp_arc (start -0.508 0) (end 0 0) (angle -180) (layer F.SilkS) (width 0.12))
  (fp_arc (start -1.524 0) (end -1.016 0) (angle -180) (layer F.SilkS) (width 0.12))
  (fp_arc (start 0.508 0) (end 1.016 0) (angle -180) (layer F.SilkS) (width 0.12))
  (fp_arc (start 1.524 0) (end 2.032 0) (angle -180) (layer F.SilkS) (width 0.12))
  (pad 2 smd rect (at 4 0) (size 3 3) (layers F.Cu F.Paste F.Mask))
  (pad 1 smd rect (at -4 0) (size 3 3) (layers F.Cu F.Paste F.Mask))
  (model ${KISYS3DMOD}/Inductor_SMD.3dshapes/L_Neosid_MicroCoil_Ms36-L.wrl
    (at (xyz 0 0 0))
    (scale (xyz 1 1 1))
    (rotate (xyz 0 0 0))
  )
)
