(module L_Neosid_Air-Coil_SML_5turn_HDM0531A (layer F.Cu) (tedit 607950CD)
  (descr "Neosid, Air-Coil, SML, 5turn, HDM0531A, Alternate KiCad Library")
  (tags "Neosid Air-Coil SML 5turn HDM0531A")
  (attr smd)
  (fp_text reference REF** (at 0 -5.5) (layer F.SilkS)
    (effects (font (size 1 1) (thickness 0.15)))
  )
  (fp_text value L_Neosid_Air-Coil_SML_5turn_HDM0531A (at 0 5.5) (layer F.Fab)
    (effects (font (size 1 1) (thickness 0.15)))
  )
  (fp_line (start -1.4605 1.778) (end -1.4605 2.3495) (layer F.SilkS) (width 0.12))
  (fp_line (start -1.27 1.524) (end -1.4605 1.778) (layer F.SilkS) (width 0.12))
  (fp_line (start 1.4605 -1.778) (end 1.27 -1.524) (layer F.SilkS) (width 0.12))
  (fp_line (start 1.4605 -1.778) (end 1.4605 -2.3495) (layer F.SilkS) (width 0.12))
  (fp_line (start -2 -1.8) (end -2 4.45) (layer F.CrtYd) (width 0.05))
  (fp_line (start 0.9 -1.8) (end -2 -1.8) (layer F.CrtYd) (width 0.05))
  (fp_line (start 0.9 -4.45) (end 0.9 -1.8) (layer F.CrtYd) (width 0.05))
  (fp_line (start 2 -4.45) (end 0.9 -4.45) (layer F.CrtYd) (width 0.05))
  (fp_line (start 2 1.8) (end 2 -4.45) (layer F.CrtYd) (width 0.05))
  (fp_line (start -0.9 1.8) (end 2 1.8) (layer F.CrtYd) (width 0.05))
  (fp_line (start -0.9 4.45) (end -0.9 1.8) (layer F.CrtYd) (width 0.05))
  (fp_line (start -2 4.45) (end -0.9 4.45) (layer F.CrtYd) (width 0.05))
  (fp_line (start 1.5 1.3) (end 1.5 -3.6) (layer F.Fab) (width 0.1))
  (fp_line (start 0.9 -1.3) (end 1.5 1.3) (layer F.Fab) (width 0.1))
  (fp_line (start 0.9 1.3) (end 0.9 -1.3) (layer F.Fab) (width 0.1))
  (fp_line (start 0.3 -1.3) (end 0.9 1.3) (layer F.Fab) (width 0.1))
  (fp_line (start 0.3 1.3) (end 0.3 -1.3) (layer F.Fab) (width 0.1))
  (fp_line (start -0.3 -1.3) (end 0.3 1.3) (layer F.Fab) (width 0.1))
  (fp_line (start -0.3 1.3) (end -0.3 -1.3) (layer F.Fab) (width 0.1))
  (fp_line (start -0.9 -1.3) (end -0.3 1.3) (layer F.Fab) (width 0.1))
  (fp_line (start -0.9 1.3) (end -0.9 -1.3) (layer F.Fab) (width 0.1))
  (fp_line (start -1.5 -1.3) (end -0.9 1.3) (layer F.Fab) (width 0.1))
  (fp_line (start -1.5 3.6) (end -1.5 -1.3) (layer F.Fab) (width 0.1))
  (fp_text user %R (at 0 0) (layer F.Fab)
    (effects (font (size 0.7 0.7) (thickness 0.105)))
  )
  (fp_arc (start 0.952501 -1.143001) (end 1.27 -1.524) (angle -180) (layer F.SilkS) (width 0.12))
  (fp_arc (start 0.317501 -0.381001) (end 0.635 -0.762) (angle -180) (layer F.SilkS) (width 0.12))
  (fp_arc (start -0.952499 1.142999) (end -0.635 0.762) (angle -180) (layer F.SilkS) (width 0.12))
  (fp_arc (start -0.317499 0.380999) (end 0 0) (angle -180) (layer F.SilkS) (width 0.12))
  (pad 2 smd rect (at 1.45 -3.45) (size 0.6 1.5) (layers F.Cu F.Paste F.Mask))
  (pad 1 smd rect (at -1.45 3.45) (size 0.6 1.5) (layers F.Cu F.Paste F.Mask))
  (model ${KISYS3DMOD}/Inductor_SMD.3dshapes/L_Neosid_Air-Coil_SML_5turn_HDM0531A.wrl
    (at (xyz 0 0 0))
    (scale (xyz 1 1 1))
    (rotate (xyz 0 0 0))
  )
)
