(module L_Neosid_SMs85 (layer F.Cu) (tedit 60902EE3)
  (descr "Neosid, Inductor, SMs85, Fixed inductor, SMD, magnetically shielded, https://neosid.de/import-data/product-pdf/neoFestind_ma_SMs85.pdf, Alternate KiCad Library")
  (tags "Neosid Inductor SMs85 Fixed inductor SMD magnetically shielded")
  (attr smd)
  (fp_text reference REF** (at 0 -6.4) (layer F.SilkS)
    (effects (font (size 1 1) (thickness 0.15)))
  )
  (fp_text value L_Neosid_SMs85 (at 0.1 6.5) (layer F.Fab)
    (effects (font (size 1 1) (thickness 0.15)))
  )
  (fp_line (start 4.75 5.65) (end -4.75 5.65) (layer F.CrtYd) (width 0.05))
  (fp_line (start 4.75 5.65) (end 4.75 -5.65) (layer F.CrtYd) (width 0.05))
  (fp_line (start -4.75 -5.65) (end -4.75 5.65) (layer F.CrtYd) (width 0.05))
  (fp_line (start -4.75 -5.65) (end 4.75 -5.65) (layer F.CrtYd) (width 0.05))
  (fp_line (start -4.4 5.4) (end -4.4 -5.4) (layer F.Fab) (width 0.1))
  (fp_line (start 4.4 5.4) (end -4.4 5.4) (layer F.Fab) (width 0.1))
  (fp_line (start 4.4 -5.4) (end 4.4 5.4) (layer F.Fab) (width 0.1))
  (fp_line (start -4.4 -5.4) (end 4.4 -5.4) (layer F.Fab) (width 0.1))
  (fp_line (start 4.7625 5.5) (end -4.7625 5.5) (layer F.SilkS) (width 0.12))
  (fp_line (start -4.7625 -5.5) (end 4.7625 -5.5) (layer F.SilkS) (width 0.12))
  (fp_line (start -1.778 0) (end -1.905 0) (layer F.SilkS) (width 0.12))
  (fp_line (start 1.905 0) (end 1.778 0) (layer F.SilkS) (width 0.12))
  (fp_text user %R (at 0 0) (layer F.Fab)
    (effects (font (size 1 1) (thickness 0.15)))
  )
  (fp_arc (start 0.4445 0) (end 0.889 0) (angle -180) (layer F.SilkS) (width 0.12))
  (fp_arc (start 1.3335 0) (end 1.778 0) (angle -180) (layer F.SilkS) (width 0.12))
  (fp_arc (start -0.4445 0) (end 0 0) (angle -180) (layer F.SilkS) (width 0.12))
  (fp_arc (start -1.3335 0) (end -0.889 0) (angle -180) (layer F.SilkS) (width 0.12))
  (fp_line (start -4.7625 -5.5) (end -4.7625 5.5) (layer F.SilkS) (width 0.12))
  (fp_line (start 4.7625 5.5) (end 4.7625 -5.5) (layer F.SilkS) (width 0.12))
  (pad 2 smd rect (at 3.38 0) (size 2.25 4.5) (layers F.Cu F.Paste F.Mask))
  (pad 1 smd rect (at -3.38 0) (size 2.25 4.5) (layers F.Cu F.Paste F.Mask))
  (model ${KISYS3DMOD}/Inductor_SMD.3dshapes/L_Neosid_SMs85.wrl
    (at (xyz 0 0 0))
    (scale (xyz 1 1 1))
    (rotate (xyz 0 0 0))
  )
)
