(module L_Neosid_Air-Coil_SML_6-10turn_HAM0631A-HAM1031A (layer F.Cu) (tedit 607950D3)
  (descr "Neosid, Air-Coil, SML, 6-10turn, HAM0631A-HAM1031A, Alternate KiCad Library")
  (tags "Neosid Air-Coil SML 6-10turn HAM0631A-HAM1031A")
  (attr smd)
  (fp_text reference REF** (at 0 -4.5) (layer F.SilkS)
    (effects (font (size 1 1) (thickness 0.15)))
  )
  (fp_text value L_Neosid_Air-Coil_SML_6-10turn_HAM0631A-HAM1031A (at 0 4.5) (layer F.Fab)
    (effects (font (size 1 1) (thickness 0.15)))
  )
  (fp_line (start -1.7145 1.27) (end -1.7145 1.397) (layer F.SilkS) (width 0.12))
  (fp_line (start -1.494644 1.057486) (end -1.7145 1.27) (layer F.SilkS) (width 0.12))
  (fp_line (start 1.778 -1.2065) (end 1.778 -1.397) (layer F.SilkS) (width 0.12))
  (fp_line (start 1.524 -1.016) (end 1.778 -1.2065) (layer F.SilkS) (width 0.12))
  (fp_line (start 1.8 0.8) (end 1.8 -2.5) (layer F.Fab) (width 0.1))
  (fp_line (start -1.8 -0.8) (end -1.8 2.5) (layer F.Fab) (width 0.1))
  (fp_line (start -1.8 -0.8) (end 1.8 -0.8) (layer F.Fab) (width 0.1))
  (fp_line (start 1.8 0.8) (end -1.8 0.8) (layer F.Fab) (width 0.1))
  (fp_line (start -2.35 3.45) (end -1.25 3.45) (layer F.CrtYd) (width 0.05))
  (fp_line (start -1.25 3.45) (end -1.25 1.3) (layer F.CrtYd) (width 0.05))
  (fp_line (start -1.25 1.3) (end 2.35 1.3) (layer F.CrtYd) (width 0.05))
  (fp_line (start 2.35 1.3) (end 2.35 -3.45) (layer F.CrtYd) (width 0.05))
  (fp_line (start 2.35 -3.45) (end 1.25 -3.45) (layer F.CrtYd) (width 0.05))
  (fp_line (start 1.25 -3.45) (end 1.25 -1.3) (layer F.CrtYd) (width 0.05))
  (fp_line (start 1.25 -1.3) (end -2.35 -1.3) (layer F.CrtYd) (width 0.05))
  (fp_line (start -2.35 -1.3) (end -2.35 3.45) (layer F.CrtYd) (width 0.05))
  (fp_text user %R (at 0 0) (layer F.Fab)
    (effects (font (size 0.8 0.8) (thickness 0.12)))
  )
  (fp_arc (start -0.380999 0.254) (end 0 0) (angle -183.1798358) (layer F.SilkS) (width 0.12))
  (fp_arc (start -1.128321 0.782743) (end -0.747322 0.528743) (angle -183.1798358) (layer F.SilkS) (width 0.12))
  (fp_arc (start 0.381001 -0.254) (end 0.762 -0.508) (angle -183.1798358) (layer F.SilkS) (width 0.12))
  (fp_arc (start 1.143001 -0.762) (end 1.524 -1.016) (angle -183.1798358) (layer F.SilkS) (width 0.12))
  (pad 2 smd rect (at 1.8 -2.45) (size 0.6 1.5) (layers F.Cu F.Paste F.Mask))
  (pad 1 smd rect (at -1.8 2.45) (size 0.6 1.5) (layers F.Cu F.Paste F.Mask))
  (model ${KISYS3DMOD}/Inductor_SMD.3dshapes/L_Neosid_Air-Coil_SML_6-10turn_HAM0631A-HAM1031A.wrl
    (at (xyz 0 0 0))
    (scale (xyz 1 1 1))
    (rotate (xyz 0 0 0))
  )
)
