(module L_Neosid_Air-Coil_SML_5turn_HAM0531A (layer F.Cu) (tedit 607950C6)
  (descr "Neosid, Air-Coil, SML, 5turn, HAM0531A, Alternate KiCad Library")
  (tags "Neosid Air-Coil SML 5turn HAM0531A")
  (attr smd)
  (fp_text reference REF** (at 0 -4.5) (layer F.SilkS)
    (effects (font (size 1 1) (thickness 0.15)))
  )
  (fp_text value L_Neosid_Air-Coil_SML_5turn_HAM0531A (at 0 4.5) (layer F.Fab)
    (effects (font (size 1 1) (thickness 0.15)))
  )
  (fp_line (start 0.889 -0.889) (end 0.889 -1.3335) (layer F.SilkS) (width 0.12))
  (fp_line (start -0.889 0.889) (end -0.762 0.762) (layer F.SilkS) (width 0.12))
  (fp_line (start 0.762 -0.762) (end 0.889 -0.889) (layer F.SilkS) (width 0.12))
  (fp_line (start -0.889 1.3335) (end -0.889 0.889) (layer F.SilkS) (width 0.12))
  (fp_line (start -1.45 -1.1) (end -1.45 3.45) (layer F.CrtYd) (width 0.05))
  (fp_line (start 0.35 -1.1) (end -1.45 -1.1) (layer F.CrtYd) (width 0.05))
  (fp_line (start 0.35 -3.45) (end 0.35 -1.1) (layer F.CrtYd) (width 0.05))
  (fp_line (start 1.45 -3.45) (end 0.35 -3.45) (layer F.CrtYd) (width 0.05))
  (fp_line (start 1.45 1.1) (end 1.45 -3.45) (layer F.CrtYd) (width 0.05))
  (fp_line (start -0.35 1.1) (end 1.45 1.1) (layer F.CrtYd) (width 0.05))
  (fp_line (start -0.35 3.45) (end -0.35 1.1) (layer F.CrtYd) (width 0.05))
  (fp_line (start -1.45 3.45) (end -0.35 3.45) (layer F.CrtYd) (width 0.05))
  (fp_line (start -0.9 -0.6) (end 0.9 -0.6) (layer F.Fab) (width 0.1))
  (fp_line (start -0.9 2.5) (end -0.9 -0.6) (layer F.Fab) (width 0.1))
  (fp_line (start 0.9 0.6) (end -0.9 0.6) (layer F.Fab) (width 0.1))
  (fp_line (start 0.9 -2.5) (end 0.9 0.6) (layer F.Fab) (width 0.1))
  (fp_text user %R (at 0 0) (layer F.Fab)
    (effects (font (size 0.5 0.5) (thickness 0.075)))
  )
  (fp_arc (start -0.190499 0.190499) (end 0 0) (angle -180) (layer F.SilkS) (width 0.12))
  (fp_arc (start -0.571497 0.571497) (end -0.380998 0.380998) (angle -180) (layer F.SilkS) (width 0.12))
  (fp_arc (start 0.190501 -0.190501) (end 0.381 -0.381) (angle -180) (layer F.SilkS) (width 0.12))
  (fp_arc (start 0.571501 -0.571501) (end 0.762 -0.762) (angle -180) (layer F.SilkS) (width 0.12))
  (pad 2 smd rect (at 0.9 -2.45) (size 0.6 1.5) (layers F.Cu F.Paste F.Mask))
  (pad 1 smd rect (at -0.9 2.45) (size 0.6 1.5) (layers F.Cu F.Paste F.Mask))
  (model ${KISYS3DMOD}/Inductor_SMD.3dshapes/L_Neosid_Air-Coil_SML_5turn_HAM0531A.wrl
    (at (xyz 0 0 0))
    (scale (xyz 1 1 1))
    (rotate (xyz 0 0 0))
  )
)
