(module L_Neosid_SMs95_SMs95p (layer F.Cu) (tedit 6079515B)
  (descr "Neosid, Inductor, SMs95, Fixed inductor, SMD, magnetically shielded, https://neosid.de/import-data/product-pdf/neoFestind_SMs95SMs95p.pdf, Alternate KiCad Library")
  (tags "Neosid Inductor SMs95 Fixed inductor SMD magnetically shielded")
  (attr smd)
  (fp_text reference REF** (at 0 -7) (layer F.SilkS)
    (effects (font (size 1 1) (thickness 0.15)))
  )
  (fp_text value L_Neosid_SMs95_SMs95p (at 0 7.1) (layer F.Fab)
    (effects (font (size 1 1) (thickness 0.15)))
  )
  (fp_line (start -3.4925 0) (end -3.302 0) (layer F.SilkS) (width 0.12))
  (fp_line (start 3.302 0) (end 3.4925 0) (layer F.SilkS) (width 0.12))
  (fp_line (start 6.6 2.6) (end 3 6.2) (layer F.SilkS) (width 0.12))
  (fp_line (start 3 6.2) (end -3 6.2) (layer F.SilkS) (width 0.12))
  (fp_line (start -3 6.2) (end -6.6 2.6) (layer F.SilkS) (width 0.12))
  (fp_line (start -6.6 -2.6) (end -3 -6.2) (layer F.SilkS) (width 0.12))
  (fp_line (start -3 -6.2) (end 3 -6.2) (layer F.SilkS) (width 0.12))
  (fp_line (start 3 -6.2) (end 6.6 -2.6) (layer F.SilkS) (width 0.12))
  (fp_line (start -6.5 -2.4) (end -6.5 2.4) (layer F.Fab) (width 0.1))
  (fp_line (start -6.5 2.4) (end -2.9 6) (layer F.Fab) (width 0.1))
  (fp_line (start -2.9 6) (end 2.9 6) (layer F.Fab) (width 0.1))
  (fp_line (start 2.9 6) (end 6.5 2.4) (layer F.Fab) (width 0.1))
  (fp_line (start 6.5 2.4) (end 6.5 -2.4) (layer F.Fab) (width 0.1))
  (fp_line (start 6.5 -2.4) (end 2.9 -6) (layer F.Fab) (width 0.1))
  (fp_line (start 2.9 -6) (end -2.9 -6) (layer F.Fab) (width 0.1))
  (fp_line (start -6.5 -2.4) (end -2.9 -6) (layer F.Fab) (width 0.1))
  (fp_line (start -6.95 -6.25) (end 6.95 -6.25) (layer F.CrtYd) (width 0.05))
  (fp_line (start -6.95 -6.25) (end -6.95 6.25) (layer F.CrtYd) (width 0.05))
  (fp_line (start 6.95 6.25) (end 6.95 -6.25) (layer F.CrtYd) (width 0.05))
  (fp_line (start 6.95 6.25) (end -6.95 6.25) (layer F.CrtYd) (width 0.05))
  (fp_text user %R (at 0 0) (layer F.Fab)
    (effects (font (size 1 1) (thickness 0.15)))
  )
  (fp_arc (start 0.8255 0) (end 1.651 0) (angle -180) (layer F.SilkS) (width 0.12))
  (fp_arc (start -0.8255 0) (end 0 0) (angle -180) (layer F.SilkS) (width 0.12))
  (fp_arc (start -2.4765 0) (end -1.651 0) (angle -180) (layer F.SilkS) (width 0.12))
  (fp_arc (start 2.4765 0) (end 3.302 0) (angle -180) (layer F.SilkS) (width 0.12))
  (pad 2 smd rect (at 5.25 0) (size 2.9 4.5) (layers F.Cu F.Paste F.Mask))
  (pad 1 smd rect (at -5.25 0) (size 2.9 4.5) (layers F.Cu F.Paste F.Mask))
  (model ${KISYS3DMOD}/Inductor_SMD.3dshapes/L_Neosid_SMs95_SMs95p.wrl
    (at (xyz 0 0 0))
    (scale (xyz 1 1 1))
    (rotate (xyz 0 0 0))
  )
)
