(module L_Neosid_SMs42 (layer F.Cu) (tedit 60902E01)
  (descr "Neosid, Inductor, SMs42, Fixed inductor, SMD, magneticaly shielded, https://neosid.de/import-data/product-pdf/neoFestind_ma_SMs42.pdf, Alternate KiCad Library")
  (tags "Neosid Inductor SMs42 Fixed inductor SMD magneticaly shielded")
  (attr smd)
  (fp_text reference REF** (at 0 -3.6) (layer F.SilkS)
    (effects (font (size 1 1) (thickness 0.15)))
  )
  (fp_text value L_Neosid_SMs42 (at 0 3.7) (layer F.Fab)
    (effects (font (size 1 1) (thickness 0.15)))
  )
  (fp_line (start 3.05 2.75) (end -3.05 2.75) (layer F.CrtYd) (width 0.05))
  (fp_line (start 3.05 2.75) (end 3.05 -2.75) (layer F.CrtYd) (width 0.05))
  (fp_line (start -3.05 -2.75) (end -3.05 2.75) (layer F.CrtYd) (width 0.05))
  (fp_line (start -3.05 -2.75) (end 3.05 -2.75) (layer F.CrtYd) (width 0.05))
  (fp_line (start -2.8 2.5) (end -2.8 -2.5) (layer F.Fab) (width 0.1))
  (fp_line (start 2.8 2.5) (end -2.8 2.5) (layer F.Fab) (width 0.1))
  (fp_line (start 2.8 -2.5) (end 2.8 2.5) (layer F.Fab) (width 0.1))
  (fp_line (start -2.8 -2.5) (end 2.8 -2.5) (layer F.Fab) (width 0.1))
  (fp_line (start -3.048 -2.7) (end 3.048 -2.7) (layer F.SilkS) (width 0.12))
  (fp_line (start 3.048 2.7) (end -3.048 2.7) (layer F.SilkS) (width 0.12))
  (fp_text user %R (at 0 0) (layer F.Fab)
    (effects (font (size 1 1) (thickness 0.15)))
  )
  (fp_arc (start 0.381 0) (end 0.762 0) (angle -180) (layer F.SilkS) (width 0.12))
  (fp_arc (start 1.143 0) (end 1.524 0) (angle -180) (layer F.SilkS) (width 0.12))
  (fp_arc (start -0.381 0) (end 0 0) (angle -180) (layer F.SilkS) (width 0.12))
  (fp_arc (start -1.143 0) (end -0.762 0) (angle -180) (layer F.SilkS) (width 0.12))
  (fp_line (start -3.048 -2.7) (end -3.048 2.7) (layer F.SilkS) (width 0.12))
  (fp_line (start 3.048 -2.7) (end 3.048 2.7) (layer F.SilkS) (width 0.12))
  (pad 2 smd rect (at 2.3 0) (size 1 2.4) (layers F.Cu F.Paste F.Mask))
  (pad 1 smd rect (at -2.3 0) (size 1 2.4) (layers F.Cu F.Paste F.Mask))
  (model ${KISYS3DMOD}/Inductor_SMD.3dshapes/L_Neosid_SMs42.wrl
    (at (xyz 0 0 0))
    (scale (xyz 1 1 1))
    (rotate (xyz 0 0 0))
  )
)
