(module L_Neosid_Air-Coil_SML_6-10turn_HDM0431A-HDM1031A (layer F.Cu) (tedit 607950DA)
  (descr "Neosid, Air-Coil, SML, 6-10turn, HDM0431A-HDM1031A, Alternate KiCad Library")
  (tags "Neosid Air-Coil SML 6-10turn HDM0431A-HDM1031A")
  (attr smd)
  (fp_text reference REF** (at 0 -5.5) (layer F.SilkS)
    (effects (font (size 1 1) (thickness 0.15)))
  )
  (fp_text value L_Neosid_Air-Coil_SML_6-10turn_HDM0431A-HDM1031A (at 0 5.5) (layer F.Fab)
    (effects (font (size 1 1) (thickness 0.15)))
  )
  (fp_line (start -2.8575 1.778) (end -2.8575 2.3495) (layer F.SilkS) (width 0.12))
  (fp_line (start -2.8575 1.778) (end -2.031998 1.269998) (layer F.SilkS) (width 0.12))
  (fp_line (start 2.8575 -1.778) (end 2.8575 -2.3495) (layer F.SilkS) (width 0.12))
  (fp_line (start 2.8575 -1.778) (end 2.032 -1.27) (layer F.SilkS) (width 0.12))
  (fp_line (start 2 -1.3) (end 2.9 1.3) (layer F.Fab) (width 0.1))
  (fp_line (start 2.9 1.3) (end 2.9 -3.7) (layer F.Fab) (width 0.1))
  (fp_line (start -1 -1.3) (end 0 1.3) (layer F.Fab) (width 0.1))
  (fp_line (start 0 1.3) (end 0 -1.3) (layer F.Fab) (width 0.1))
  (fp_line (start 0 -1.3) (end 1 1.3) (layer F.Fab) (width 0.1))
  (fp_line (start 1 1.3) (end 1 -1.3) (layer F.Fab) (width 0.1))
  (fp_line (start 1 -1.3) (end 2 1.3) (layer F.Fab) (width 0.1))
  (fp_line (start 2 1.3) (end 2 -1.3) (layer F.Fab) (width 0.1))
  (fp_line (start -3.45 -1.8) (end -3.45 4.45) (layer F.CrtYd) (width 0.05))
  (fp_line (start 2.35 -1.8) (end -3.45 -1.8) (layer F.CrtYd) (width 0.05))
  (fp_line (start 2.35 -4.45) (end 2.35 -1.8) (layer F.CrtYd) (width 0.05))
  (fp_line (start 3.45 -4.45) (end 2.35 -4.45) (layer F.CrtYd) (width 0.05))
  (fp_line (start 3.45 1.8) (end 3.45 -4.45) (layer F.CrtYd) (width 0.05))
  (fp_line (start -2.35 1.8) (end 3.45 1.8) (layer F.CrtYd) (width 0.05))
  (fp_line (start -2.35 4.45) (end -2.35 1.8) (layer F.CrtYd) (width 0.05))
  (fp_line (start -3.45 4.45) (end -2.35 4.45) (layer F.CrtYd) (width 0.05))
  (fp_line (start -1 1.3) (end -1 -1.3) (layer F.Fab) (width 0.1))
  (fp_line (start -2 -1.3) (end -1 1.3) (layer F.Fab) (width 0.1))
  (fp_line (start -2 1.3) (end -2 -1.3) (layer F.Fab) (width 0.1))
  (fp_line (start -2.9 -1.3) (end -2 1.3) (layer F.Fab) (width 0.1))
  (fp_line (start -2.9 3.5) (end -2.9 -1.3) (layer F.Fab) (width 0.1))
  (fp_text user %R (at 0 -0.1) (layer F.Fab)
    (effects (font (size 1 1) (thickness 0.15)))
  )
  (fp_arc (start -0.507999 0.317499) (end 0 0) (angle -180) (layer F.SilkS) (width 0.12))
  (fp_arc (start -1.523999 0.952499) (end -1.016 0.635) (angle -180) (layer F.SilkS) (width 0.12))
  (fp_arc (start 0.508001 -0.317501) (end 1.016 -0.635) (angle -180) (layer F.SilkS) (width 0.12))
  (fp_arc (start 1.524001 -0.952501) (end 2.032 -1.27) (angle -180) (layer F.SilkS) (width 0.12))
  (pad 1 smd rect (at -2.9 3.45) (size 0.6 1.5) (layers F.Cu F.Paste F.Mask))
  (pad 2 smd rect (at 2.9 -3.45) (size 0.6 1.5) (layers F.Cu F.Paste F.Mask))
  (model ${KISYS3DMOD}/Inductor_SMD.3dshapes/L_Neosid_Air-Coil_SML_6-10turn_HDM0431A-HDM1031A.wrl
    (at (xyz 0 0 0))
    (scale (xyz 1 1 1))
    (rotate (xyz 0 0 0))
  )
)
