(module L_Neosid_SMS-ME3015 (layer F.Cu) (tedit 60795146)
  (descr "Neosid, Power Inductor, SMS-ME3015, Fixed inductor, SMD, magnetically shielded, https://neosid.de/import-data/product-pdf/neoFestind_SMSME3015.pdf, Alternate KiCad Library")
  (tags "Neosid Power Inductor SMS-ME3015 Fixed inductor SMD magnetically shielded")
  (attr smd)
  (fp_text reference REF** (at 0 -2.6) (layer F.SilkS)
    (effects (font (size 1 1) (thickness 0.15)))
  )
  (fp_text value L_Neosid_SMS-ME3015 (at -0.1 2.8) (layer F.Fab)
    (effects (font (size 1 1) (thickness 0.15)))
  )
  (fp_line (start -0.3175 0) (end -0.254 0) (layer F.SilkS) (width 0.12))
  (fp_line (start 0.254 0) (end 0.3175 0) (layer F.SilkS) (width 0.12))
  (fp_line (start 1.8415 1.7145) (end 1.8415 -1.7145) (layer F.SilkS) (width 0.12))
  (fp_line (start -1.8415 1.7145) (end 1.8415 1.7145) (layer F.SilkS) (width 0.12))
  (fp_line (start -1.8415 -1.7145) (end -1.8415 1.7145) (layer F.SilkS) (width 0.12))
  (fp_line (start 1.8415 -1.7145) (end -1.8415 -1.7145) (layer F.SilkS) (width 0.12))
  (fp_line (start -1.5 -1.5) (end -1.5 1.5) (layer F.Fab) (width 0.1))
  (fp_line (start -1.5 1.5) (end 1.5 1.5) (layer F.Fab) (width 0.1))
  (fp_line (start 1.5 1.5) (end 1.5 -1.5) (layer F.Fab) (width 0.1))
  (fp_line (start 1.5 -1.5) (end -1.5 -1.5) (layer F.Fab) (width 0.1))
  (fp_line (start -1.905 -1.778) (end 1.905 -1.778) (layer F.CrtYd) (width 0.05))
  (fp_line (start -1.905 -1.722) (end -1.905 1.778) (layer F.CrtYd) (width 0.05))
  (fp_line (start 1.905 1.778) (end 1.905 -1.778) (layer F.CrtYd) (width 0.05))
  (fp_line (start 1.905 1.778) (end -1.905 1.778) (layer F.CrtYd) (width 0.05))
  (fp_text user %R (at 0 0) (layer F.Fab)
    (effects (font (size 0.7 0.7) (thickness 0.105)))
  )
  (fp_arc (start 0.127 0) (end 0.254 0) (angle -180) (layer F.SilkS) (width 0.12))
  (fp_arc (start -0.127 0) (end 0 0) (angle -180) (layer F.SilkS) (width 0.12))
  (pad 2 smd rect (at 1.1 0) (size 1 2.7) (layers F.Cu F.Paste F.Mask))
  (pad 1 smd rect (at -1.1 0) (size 1 2.7) (layers F.Cu F.Paste F.Mask))
  (model ${KISYS3DMOD}/Inductor_SMD.3dshapes/L_Neosid_SMS-ME3015.wrl
    (at (xyz 0 0 0))
    (scale (xyz 1 1 1))
    (rotate (xyz 0 0 0))
  )
)
