(module L_Sagami_CER1257B (layer F.Cu) (tedit 6079516D)
  (descr "Inductor, Sagami, h=6.0mm, http://www.sagami-elec.co.jp/file/CER1242B-CER1257B-CER1277B.pdf, Alternate KiCad Library")
  (tags "inductor sagami cer12xxb smd")
  (attr smd)
  (fp_text reference REF** (at 0 -8.128) (layer F.SilkS)
    (effects (font (size 1 1) (thickness 0.15)))
  )
  (fp_text value L_Sagami_CER1257B (at 0 8.128) (layer F.Fab)
    (effects (font (size 1 1) (thickness 0.15)))
  )
  (fp_line (start -3.81 0) (end -4.064 0) (layer F.SilkS) (width 0.12))
  (fp_line (start 4.064 0) (end 3.81 0) (layer F.SilkS) (width 0.12))
  (fp_line (start -6.223 2.032) (end -1.778 6.477) (layer F.Fab) (width 0.1))
  (fp_line (start -1.778 6.477) (end 1.778 6.477) (layer F.Fab) (width 0.1))
  (fp_line (start 1.778 6.477) (end 6.223 2.032) (layer F.Fab) (width 0.1))
  (fp_line (start 6.223 -2.032) (end 1.778 -6.477) (layer F.Fab) (width 0.1))
  (fp_line (start 1.778 -6.477) (end -1.778 -6.477) (layer F.Fab) (width 0.1))
  (fp_line (start -6.223 -2.032) (end -1.778 -6.477) (layer F.Fab) (width 0.1))
  (fp_line (start -6.604 2.032) (end -1.905 6.731) (layer F.SilkS) (width 0.12))
  (fp_line (start -1.905 6.731) (end 1.905 6.731) (layer F.SilkS) (width 0.12))
  (fp_line (start 1.905 6.731) (end 6.604 2.032) (layer F.SilkS) (width 0.12))
  (fp_line (start -6.604 -2.032) (end -1.905 -6.731) (layer F.SilkS) (width 0.12))
  (fp_line (start -1.905 -6.731) (end 1.905 -6.731) (layer F.SilkS) (width 0.12))
  (fp_line (start 1.905 -6.731) (end 6.604 -2.032) (layer F.SilkS) (width 0.12))
  (fp_line (start -8.15 6.73) (end 8.15 6.73) (layer F.CrtYd) (width 0.05))
  (fp_line (start -8.15 -6.73) (end 8.15 -6.73) (layer F.CrtYd) (width 0.05))
  (fp_line (start 8.15 -6.73) (end 8.15 6.73) (layer F.CrtYd) (width 0.05))
  (fp_line (start -8.15 -6.73) (end -8.15 6.73) (layer F.CrtYd) (width 0.05))
  (fp_line (start -3.81 2.032) (end -4.318 2.032) (layer F.Fab) (width 0.1))
  (fp_line (start 3.81 2.032) (end 4.318 2.032) (layer F.Fab) (width 0.1))
  (fp_line (start 3.81 -2.032) (end 4.318 -2.032) (layer F.Fab) (width 0.1))
  (fp_line (start -3.81 -2.032) (end -4.318 -2.032) (layer F.Fab) (width 0.1))
  (fp_arc (start 0 0) (end -2.032 -4.318) (angle 90) (layer F.Fab) (width 0.1))
  (fp_arc (start 0 0) (end -4.318 -2.032) (angle 90) (layer F.Fab) (width 0.1))
  (fp_arc (start 0 0) (end -2.032 -3.81) (angle 90) (layer F.Fab) (width 0.1))
  (fp_arc (start 0 0) (end -3.81 -2.032) (angle 90) (layer F.Fab) (width 0.1))
  (fp_arc (start 0 0) (end 4.318 2.032) (angle 90) (layer F.Fab) (width 0.1))
  (fp_arc (start 0 0) (end 2.032 4.318) (angle 90) (layer F.Fab) (width 0.1))
  (fp_arc (start 0 0) (end 3.81 2.032) (angle 90) (layer F.Fab) (width 0.1))
  (fp_arc (start 0 0) (end 2.032 3.81) (angle 90) (layer F.Fab) (width 0.1))
  (fp_text user %R (at 0 0) (layer F.Fab)
    (effects (font (size 1 1) (thickness 0.15)))
  )
  (fp_arc (start 0.9525 0) (end 1.905 0) (angle -180) (layer F.SilkS) (width 0.12))
  (fp_arc (start 2.8575 0) (end 3.81 0) (angle -180) (layer F.SilkS) (width 0.12))
  (fp_arc (start -0.9525 0) (end 0 0) (angle -180) (layer F.SilkS) (width 0.12))
  (fp_arc (start -2.8575 0) (end -1.905 0) (angle -180) (layer F.SilkS) (width 0.12))
  (pad 2 smd rect (at 6.125 0) (size 3.55 3.3) (layers F.Cu F.Paste F.Mask))
  (pad 1 smd rect (at -6.125 0) (size 3.55 3.3) (layers F.Cu F.Paste F.Mask))
  (model ${KISYS3DMOD}/Inductor_SMD.3dshapes/L_Sagami_CER1257B.wrl
    (at (xyz 0 0 0))
    (scale (xyz 1 1 1))
    (rotate (xyz 0 0 0))
  )
)
