(module L_Sumida_CDMC6D28_7.25x6.5mm (layer F.Cu) (tedit 607951A5)
  (descr "SMD Power Inductor (http://products.sumida.com/products/pdf/CDMC6D28.pdf), Alternate KiCad Library")
  (tags "Inductor Sumida SMD CDMC6D28")
  (attr smd)
  (fp_text reference REF** (at 0 -4.2) (layer F.SilkS)
    (effects (font (size 1 1) (thickness 0.15)))
  )
  (fp_text value L_Sumida_CDMC6D28_7.25x6.5mm (at 0 4.3) (layer F.Fab)
    (effects (font (size 1 1) (thickness 0.15)))
  )
  (fp_line (start -2.75 -3.25) (end 2.75 -3.25) (layer F.Fab) (width 0.1))
  (fp_line (start 3.25 -2.75) (end 3.25 2.75) (layer F.Fab) (width 0.1))
  (fp_line (start 2.75 3.25) (end -2.75 3.25) (layer F.Fab) (width 0.1))
  (fp_line (start -3.25 2.75) (end -3.25 -2.75) (layer F.Fab) (width 0.1))
  (fp_line (start -3.5 -3.5) (end 3.5 -3.5) (layer F.CrtYd) (width 0.05))
  (fp_line (start 4.1 -1.95) (end 4.1 1.95) (layer F.CrtYd) (width 0.05))
  (fp_line (start 3.5 3.5) (end -3.5 3.5) (layer F.CrtYd) (width 0.05))
  (fp_line (start -4.1 1.95) (end -4.1 -1.95) (layer F.CrtYd) (width 0.05))
  (fp_line (start -3.36 -1.9) (end -3.36 -2.75) (layer F.SilkS) (width 0.12))
  (fp_line (start -2.75 -3.36) (end 2.75 -3.36) (layer F.SilkS) (width 0.12))
  (fp_line (start 3.36 -2.75) (end 3.36 -1.9) (layer F.SilkS) (width 0.12))
  (fp_line (start 3.36 1.9) (end 3.36 2.75) (layer F.SilkS) (width 0.12))
  (fp_line (start -3.36 2.75) (end -3.36 1.9) (layer F.SilkS) (width 0.12))
  (fp_line (start 2.75 3.36) (end -2.75 3.36) (layer F.SilkS) (width 0.12))
  (fp_line (start -4.1 -1.95) (end -3.5 -1.95) (layer F.CrtYd) (width 0.05))
  (fp_line (start -3.5 -1.95) (end -3.5 -3.5) (layer F.CrtYd) (width 0.05))
  (fp_line (start 3.5 -1.95) (end 4.1 -1.95) (layer F.CrtYd) (width 0.05))
  (fp_line (start 3.5 -3.5) (end 3.5 -1.95) (layer F.CrtYd) (width 0.05))
  (fp_line (start 4.1 1.95) (end 3.5 1.95) (layer F.CrtYd) (width 0.05))
  (fp_line (start -3.5 1.95) (end -4.1 1.95) (layer F.CrtYd) (width 0.05))
  (fp_line (start 3.5 1.95) (end 3.5 3.5) (layer F.CrtYd) (width 0.05))
  (fp_line (start -3.5 3.5) (end -3.5 1.95) (layer F.CrtYd) (width 0.05))
  (fp_text user %R (at 0 0) (layer F.Fab)
    (effects (font (size 1 1) (thickness 0.15)))
  )
  (fp_arc (start 2.75 2.75) (end 2.75 3.36) (angle -90) (layer F.SilkS) (width 0.12))
  (fp_arc (start -2.75 2.75) (end -3.36 2.75) (angle -90) (layer F.SilkS) (width 0.12))
  (fp_arc (start 2.75 -2.75) (end 3.36 -2.75) (angle -90) (layer F.SilkS) (width 0.12))
  (fp_arc (start -2.75 -2.75) (end -2.75 -3.36) (angle -90) (layer F.SilkS) (width 0.12))
  (fp_arc (start 2.75 2.75) (end 2.75 3.25) (angle -90) (layer F.Fab) (width 0.1))
  (fp_arc (start -2.75 2.75) (end -3.25 2.75) (angle -90) (layer F.Fab) (width 0.1))
  (fp_arc (start 2.75 -2.75) (end 3.25 -2.75) (angle -90) (layer F.Fab) (width 0.1))
  (fp_arc (start -2.75 -2.75) (end -2.75 -3.25) (angle -90) (layer F.Fab) (width 0.1))
  (fp_arc (start 0.381 0) (end 0.762 0) (angle -180) (layer F.SilkS) (width 0.12))
  (fp_arc (start 1.143 0) (end 1.524 0) (angle -180) (layer F.SilkS) (width 0.12))
  (fp_arc (start -0.381 0) (end 0 0) (angle -180) (layer F.SilkS) (width 0.12))
  (fp_arc (start -1.143 0) (end -0.762 0) (angle -180) (layer F.SilkS) (width 0.12))
  (pad 2 smd rect (at 2.85 0) (size 2 3.4) (layers F.Cu F.Paste F.Mask))
  (pad 1 smd rect (at -2.85 0) (size 2 3.4) (layers F.Cu F.Paste F.Mask))
  (model ${KISYS3DMOD}/Inductor_SMD.3dshapes/L_Sumida_CDMC6D28_7.25x6.5mm.wrl
    (at (xyz 0 0 0))
    (scale (xyz 1 1 1))
    (rotate (xyz 0 0 0))
  )
)
