(module L_Taiyo-Yuden_NR-20xx_BigPads (layer F.Cu) (tedit 608FA931)
  (descr "Inductor, Taiyo Yuden, NR series, Taiyo-Yuden_NR-20xx, 2.0mmx2.0mm, Alternate KiCad Library")
  (tags "inductor taiyo-yuden nr smd")
  (attr smd)
  (fp_text reference REF** (at 0 -2) (layer F.SilkS)
    (effects (font (size 1 1) (thickness 0.15)))
  )
  (fp_text value L_Taiyo-Yuden_NR-20xx_BigPads (at 0 2.5) (layer F.Fab)
    (effects (font (size 1 1) (thickness 0.15)))
  )
  (fp_line (start 2.286 -1.3335) (end -2.286 -1.3335) (layer F.CrtYd) (width 0.05))
  (fp_line (start 2.286 1.3335) (end 2.286 -1.3335) (layer F.CrtYd) (width 0.05))
  (fp_line (start -2.286 1.3335) (end 2.286 1.3335) (layer F.CrtYd) (width 0.05))
  (fp_line (start -2.286 -1.3335) (end -2.286 1.3335) (layer F.CrtYd) (width 0.05))
  (fp_line (start -0.625 1) (end 0 1) (layer F.Fab) (width 0.1))
  (fp_line (start -1 0.625) (end -0.625 1) (layer F.Fab) (width 0.1))
  (fp_line (start -1 0) (end -1 0.625) (layer F.Fab) (width 0.1))
  (fp_line (start 0.625 1) (end 0 1) (layer F.Fab) (width 0.1))
  (fp_line (start 1 0.625) (end 0.625 1) (layer F.Fab) (width 0.1))
  (fp_line (start 1 0) (end 1 0.625) (layer F.Fab) (width 0.1))
  (fp_line (start 0.625 -1) (end 0 -1) (layer F.Fab) (width 0.1))
  (fp_line (start 1 -0.625) (end 0.625 -1) (layer F.Fab) (width 0.1))
  (fp_line (start 1 0) (end 1 -0.625) (layer F.Fab) (width 0.1))
  (fp_line (start -0.625 -1) (end 0 -1) (layer F.Fab) (width 0.1))
  (fp_line (start -1 -0.625) (end -0.625 -1) (layer F.Fab) (width 0.1))
  (fp_line (start -1 0) (end -1 -0.625) (layer F.Fab) (width 0.1))
  (fp_line (start -0.4445 -1.27) (end -2.2225 -1.27) (layer F.SilkS) (width 0.12))
  (fp_line (start -2.2225 -1.27) (end -2.2225 1.27) (layer F.SilkS) (width 0.12))
  (fp_line (start -2.2225 1.27) (end 2.2225 1.27) (layer F.SilkS) (width 0.12))
  (fp_line (start 2.2225 1.27) (end 2.2225 -1.27) (layer F.SilkS) (width 0.12))
  (fp_line (start 2.2225 -1.27) (end -0.4445 -1.27) (layer F.SilkS) (width 0.12))
  (fp_text user %R (at 0 0) (layer F.Fab)
    (effects (font (size 0.5 0.5) (thickness 0.075)))
  )
  (pad 2 smd rect (at 1.175 0) (size 1.65 2) (layers F.Cu F.Paste F.Mask))
  (pad 1 smd rect (at -1.175 0) (size 1.65 2) (layers F.Cu F.Paste F.Mask))
  (model ${KISYS3DMOD}/Inductor_SMD.3dshapes/L_Taiyo-Yuden_NR-20xx.wrl
    (at (xyz 0 0 0))
    (scale (xyz 1 1 1))
    (rotate (xyz 0 0 0))
  )
)
