(module L_Taiyo-Yuden_NR-80xx (layer F.Cu) (tedit 6079520B)
  (descr "Inductor, Taiyo Yuden, NR series, Taiyo-Yuden_NR-80xx, 8.0mmx8.0mm, Alternate KiCad Library")
  (tags "inductor taiyo-yuden nr smd")
  (attr smd)
  (fp_text reference REF** (at 0 -5) (layer F.SilkS)
    (effects (font (size 1 1) (thickness 0.15)))
  )
  (fp_text value L_Taiyo-Yuden_NR-80xx (at 0 5.5) (layer F.Fab)
    (effects (font (size 1 1) (thickness 0.15)))
  )
  (fp_line (start 4.1275 -4.1275) (end -2.794 -4.1275) (layer F.SilkS) (width 0.12))
  (fp_line (start 4.1275 4.1275) (end 4.1275 -4.1275) (layer F.SilkS) (width 0.12))
  (fp_line (start -4.1275 4.1275) (end 4.1275 4.1275) (layer F.SilkS) (width 0.12))
  (fp_line (start -4.1275 -4.1275) (end -4.1275 4.1275) (layer F.SilkS) (width 0.12))
  (fp_line (start -2.794 -4.1275) (end -4.1275 -4.1275) (layer F.SilkS) (width 0.12))
  (fp_line (start -4 0) (end -4 -2.8) (layer F.Fab) (width 0.1))
  (fp_line (start -4 -2.8) (end -2.8 -4) (layer F.Fab) (width 0.1))
  (fp_line (start -2.8 -4) (end 0 -4) (layer F.Fab) (width 0.1))
  (fp_line (start 4 0) (end 4 -2.8) (layer F.Fab) (width 0.1))
  (fp_line (start 4 -2.8) (end 2.8 -4) (layer F.Fab) (width 0.1))
  (fp_line (start 2.8 -4) (end 0 -4) (layer F.Fab) (width 0.1))
  (fp_line (start 4 0) (end 4 2.8) (layer F.Fab) (width 0.1))
  (fp_line (start 4 2.8) (end 2.8 4) (layer F.Fab) (width 0.1))
  (fp_line (start 2.8 4) (end 0 4) (layer F.Fab) (width 0.1))
  (fp_line (start -4 0) (end -4 2.8) (layer F.Fab) (width 0.1))
  (fp_line (start -4 2.8) (end -2.8 4) (layer F.Fab) (width 0.1))
  (fp_line (start -2.8 4) (end 0 4) (layer F.Fab) (width 0.1))
  (fp_line (start -4.25 -4.25) (end -4.25 4.25) (layer F.CrtYd) (width 0.05))
  (fp_line (start -4.25 4.25) (end 4.25 4.25) (layer F.CrtYd) (width 0.05))
  (fp_line (start 4.25 4.25) (end 4.25 -4.25) (layer F.CrtYd) (width 0.05))
  (fp_line (start 4.25 -4.25) (end -4.25 -4.25) (layer F.CrtYd) (width 0.05))
  (fp_text user %R (at 0 0) (layer F.Fab)
    (effects (font (size 1 1) (thickness 0.15)))
  )
  (fp_arc (start 0.381 0) (end 0.762 0) (angle -180) (layer F.SilkS) (width 0.12))
  (fp_arc (start 1.143 0) (end 1.524 0) (angle -180) (layer F.SilkS) (width 0.12))
  (fp_arc (start -0.381 0) (end 0 0) (angle -180) (layer F.SilkS) (width 0.12))
  (fp_arc (start -1.143 0) (end -0.762 0) (angle -180) (layer F.SilkS) (width 0.12))
  (pad 2 smd rect (at 2.8 0) (size 1.8 7.7) (layers F.Cu F.Paste F.Mask))
  (pad 1 smd rect (at -2.8 0) (size 1.8 7.7) (layers F.Cu F.Paste F.Mask))
  (model ${KISYS3DMOD}/Inductor_SMD.3dshapes/L_Taiyo-Yuden_NR-80xx.wrl
    (at (xyz 0 0 0))
    (scale (xyz 1 1 1))
    (rotate (xyz 0 0 0))
  )
)
