(module L_Taiyo-Yuden_NR-10050_9.8x10.0mm_BigPads (layer F.Cu) (tedit 608FA9A6)
  (descr "Inductor, Taiyo Yuden, NR series, Taiyo-Yuden_NR-10050, 9.8mmx10.0mm, https://ds.yuden.co.jp/TYCOMPAS/or/specSheet?pn=NR10050T1R3N, Alternate KiCad Library")
  (tags "inductor taiyo-yuden nr smd")
  (attr smd)
  (fp_text reference REF** (at 0 -6.25) (layer F.SilkS)
    (effects (font (size 1 1) (thickness 0.15)))
  )
  (fp_text value L_Taiyo-Yuden_NR-10050_9.8x10.0mm_BigPads (at 0 6.5) (layer F.Fab)
    (effects (font (size 1 1) (thickness 0.15)))
  )
  (fp_line (start 6.95 -5.25) (end -6.95 -5.25) (layer F.CrtYd) (width 0.05))
  (fp_line (start 6.95 5.25) (end 6.95 -5.25) (layer F.CrtYd) (width 0.05))
  (fp_line (start -6.95 5.25) (end 6.95 5.25) (layer F.CrtYd) (width 0.05))
  (fp_line (start -6.95 -5.25) (end -6.95 5.25) (layer F.CrtYd) (width 0.05))
  (fp_line (start 4.9 -5) (end -3.75 -5) (layer F.Fab) (width 0.1))
  (fp_line (start 4.9 3.85) (end 4.9 -5) (layer F.Fab) (width 0.1))
  (fp_line (start -4.9 5) (end 3.75 5) (layer F.Fab) (width 0.1))
  (fp_line (start -4.9 -3.85) (end -4.9 5) (layer F.Fab) (width 0.1))
  (fp_line (start 3.75 5) (end 4.9 3.85) (layer F.Fab) (width 0.1))
  (fp_line (start -4.9 -3.85) (end -3.75 -5) (layer F.Fab) (width 0.1))
  (fp_line (start 5.0165 -5.1435) (end 5.0165 -2.4765) (layer F.SilkS) (width 0.12))
  (fp_line (start -5.0165 -3.937) (end -5.0165 -2.4765) (layer F.SilkS) (width 0.12))
  (fp_line (start -4.699 5.1435) (end 3.81 5.1435) (layer F.SilkS) (width 0.12))
  (fp_line (start 3.81 5.1435) (end 5.0165 3.937) (layer F.SilkS) (width 0.12))
  (fp_line (start 4.699 -5.1435) (end -3.81 -5.1435) (layer F.SilkS) (width 0.12))
  (fp_line (start -5.0165 5.1435) (end -5.0165 2.4765) (layer F.SilkS) (width 0.12))
  (fp_line (start 4.699 -5.1435) (end 5.0165 -5.1435) (layer F.SilkS) (width 0.12))
  (fp_line (start -4.699 5.1435) (end -5.0165 5.1435) (layer F.SilkS) (width 0.12))
  (fp_line (start -3.81 -5.1435) (end -5.0165 -3.937) (layer F.SilkS) (width 0.12))
  (fp_line (start 5.0165 3.937) (end 5.0165 2.4765) (layer F.SilkS) (width 0.12))
  (fp_text user %R (at 0 0) (layer F.Fab)
    (effects (font (size 1 1) (thickness 0.15)))
  )
  (fp_arc (start 1.7145 0) (end 2.286 0) (angle -180) (layer F.SilkS) (width 0.12))
  (fp_arc (start -1.7145 0) (end -1.143 0) (angle -180) (layer F.SilkS) (width 0.12))
  (fp_arc (start 0.5715 0) (end 1.143 0) (angle -180) (layer F.SilkS) (width 0.12))
  (fp_arc (start -0.5715 0) (end 0 0) (angle -180) (layer F.SilkS) (width 0.12))
  (fp_text user REF** (at 0 -6.25) (layer F.SilkS)
    (effects (font (size 1 1) (thickness 0.15)))
  )
  (pad 2 smd rect (at 4.7 0) (size 4 4.5) (layers F.Cu F.Paste F.Mask))
  (pad 1 smd rect (at -4.7 0) (size 4 4.5) (layers F.Cu F.Paste F.Mask))
  (model ${KISYS3DMOD}/Inductor_SMD.3dshapes/L_Taiyo-Yuden_NR-10050_9.8x10.0mm.wrl
    (at (xyz 0 0 0))
    (scale (xyz 1 1 1))
    (rotate (xyz 0 0 0))
  )
)
