(module L_Taiyo-Yuden_NR-24xx (layer F.Cu) (tedit 607951D5)
  (descr "Inductor, Taiyo Yuden, NR series, Taiyo-Yuden_NR-24xx, 2.4mmx2.4mm, Alternate KiCad Library")
  (tags "inductor taiyo-yuden nr smd")
  (attr smd)
  (fp_text reference REF** (at 0 -2.2) (layer F.SilkS)
    (effects (font (size 1 1) (thickness 0.15)))
  )
  (fp_text value L_Taiyo-Yuden_NR-24xx (at 0 2.7) (layer F.Fab)
    (effects (font (size 1 1) (thickness 0.15)))
  )
  (fp_line (start 1.3335 -1.3335) (end 0 -1.3335) (layer F.SilkS) (width 0.12))
  (fp_line (start 1.3335 1.3335) (end 1.3335 -1.3335) (layer F.SilkS) (width 0.12))
  (fp_line (start -1.3335 1.3335) (end 1.3335 1.3335) (layer F.SilkS) (width 0.12))
  (fp_line (start -1.3335 -1.3335) (end -1.3335 1.3335) (layer F.SilkS) (width 0.12))
  (fp_line (start 0 -1.3335) (end -1.3335 -1.3335) (layer F.SilkS) (width 0.12))
  (fp_line (start -1.2 0) (end -1.2 -0.725) (layer F.Fab) (width 0.1))
  (fp_line (start -1.2 -0.725) (end -0.725 -1.2) (layer F.Fab) (width 0.1))
  (fp_line (start -0.725 -1.2) (end 0 -1.2) (layer F.Fab) (width 0.1))
  (fp_line (start 1.2 0) (end 1.2 -0.725) (layer F.Fab) (width 0.1))
  (fp_line (start 1.2 -0.725) (end 0.725 -1.2) (layer F.Fab) (width 0.1))
  (fp_line (start 0.725 -1.2) (end 0 -1.2) (layer F.Fab) (width 0.1))
  (fp_line (start 1.2 0) (end 1.2 0.725) (layer F.Fab) (width 0.1))
  (fp_line (start 1.2 0.725) (end 0.725 1.2) (layer F.Fab) (width 0.1))
  (fp_line (start 0.725 1.2) (end 0 1.2) (layer F.Fab) (width 0.1))
  (fp_line (start -1.2 0) (end -1.2 0.725) (layer F.Fab) (width 0.1))
  (fp_line (start -1.2 0.725) (end -0.725 1.2) (layer F.Fab) (width 0.1))
  (fp_line (start -0.725 1.2) (end 0 1.2) (layer F.Fab) (width 0.1))
  (fp_line (start -1.5 -1.5) (end -1.5 1.5) (layer F.CrtYd) (width 0.05))
  (fp_line (start -1.5 1.5) (end 1.5 1.5) (layer F.CrtYd) (width 0.05))
  (fp_line (start 1.5 1.5) (end 1.5 -1.5) (layer F.CrtYd) (width 0.05))
  (fp_line (start 1.5 -1.5) (end -1.5 -1.5) (layer F.CrtYd) (width 0.05))
  (fp_text user %R (at 0 0) (layer F.Fab)
    (effects (font (size 0.5 0.5) (thickness 0.075)))
  )
  (pad 2 smd rect (at 0.725 0) (size 0.7 2.2) (layers F.Cu F.Paste F.Mask))
  (pad 1 smd rect (at -0.725 0) (size 0.7 2.2) (layers F.Cu F.Paste F.Mask))
  (model ${KISYS3DMOD}/Inductor_SMD.3dshapes/L_Taiyo-Yuden_NR-24xx.wrl
    (at (xyz 0 0 0))
    (scale (xyz 1 1 1))
    (rotate (xyz 0 0 0))
  )
)
