(module L_Taiyo-Yuden_NR-30xx_BigPads (layer F.Cu) (tedit 608FA96C)
  (descr "Inductor, Taiyo Yuden, NR series, Taiyo-Yuden_NR-30xx, 3.0mmx3.0mm, Alternate KiCad Library")
  (tags "inductor taiyo-yuden nr smd")
  (attr smd)
  (fp_text reference REF** (at 0 -2.5) (layer F.SilkS)
    (effects (font (size 1 1) (thickness 0.15)))
  )
  (fp_text value L_Taiyo-Yuden_NR-30xx_BigPads (at 0 3) (layer F.Fab)
    (effects (font (size 1 1) (thickness 0.15)))
  )
  (fp_line (start 2.8575 -1.8) (end -2.8575 -1.8) (layer F.CrtYd) (width 0.05))
  (fp_line (start 2.8575 1.8) (end 2.8575 -1.8) (layer F.CrtYd) (width 0.05))
  (fp_line (start -2.8575 1.8) (end 2.8575 1.8) (layer F.CrtYd) (width 0.05))
  (fp_line (start -2.8575 -1.8) (end -2.8575 1.8) (layer F.CrtYd) (width 0.05))
  (fp_line (start -0.95 1.5) (end 0 1.5) (layer F.Fab) (width 0.1))
  (fp_line (start -1.5 0.95) (end -0.95 1.5) (layer F.Fab) (width 0.1))
  (fp_line (start -1.5 0) (end -1.5 0.95) (layer F.Fab) (width 0.1))
  (fp_line (start 0.95 1.5) (end 0 1.5) (layer F.Fab) (width 0.1))
  (fp_line (start 1.5 0.95) (end 0.95 1.5) (layer F.Fab) (width 0.1))
  (fp_line (start 1.5 0) (end 1.5 0.95) (layer F.Fab) (width 0.1))
  (fp_line (start 0.95 -1.5) (end 0 -1.5) (layer F.Fab) (width 0.1))
  (fp_line (start 1.5 -0.95) (end 0.95 -1.5) (layer F.Fab) (width 0.1))
  (fp_line (start 1.5 0) (end 1.5 -0.95) (layer F.Fab) (width 0.1))
  (fp_line (start -0.95 -1.5) (end 0 -1.5) (layer F.Fab) (width 0.1))
  (fp_line (start -1.5 -0.95) (end -0.95 -1.5) (layer F.Fab) (width 0.1))
  (fp_line (start -1.5 0) (end -1.5 -0.95) (layer F.Fab) (width 0.1))
  (fp_line (start -2.794 -1.7145) (end -2.794 1.7145) (layer F.SilkS) (width 0.12))
  (fp_line (start -2.794 1.7145) (end 2.794 1.7145) (layer F.SilkS) (width 0.12))
  (fp_line (start 2.794 1.7145) (end 2.794 -1.7145) (layer F.SilkS) (width 0.12))
  (fp_line (start 2.794 -1.7145) (end -2.794 -1.7145) (layer F.SilkS) (width 0.12))
  (fp_text user %R (at 0 0) (layer F.Fab)
    (effects (font (size 0.7 0.7) (thickness 0.105)))
  )
  (fp_arc (start -0.1905 0) (end 0 0) (angle -180) (layer F.SilkS) (width 0.12))
  (fp_arc (start 0.1905 0) (end 0.381 0) (angle -180) (layer F.SilkS) (width 0.12))
  (pad 2 smd rect (at 1.6 0) (size 1.8 2.9) (layers F.Cu F.Paste F.Mask))
  (pad 1 smd rect (at -1.6 0) (size 1.8 2.9) (layers F.Cu F.Paste F.Mask))
  (model ${KISYS3DMOD}/Inductor_SMD.3dshapes/L_Taiyo-Yuden_NR-30xx.wrl
    (at (xyz 0 0 0))
    (scale (xyz 1 1 1))
    (rotate (xyz 0 0 0))
  )
)
