(module L_TDK_SLF7045 (layer F.Cu) (tedit 6079526D)
  (descr "Inductor, TDK, SLF7045, 7.0mmx7.0mm (Script generated with StandardBox.py) (https://product.tdk.com/info/en/document/catalog/smd/inductor_commercial_power_slf7045_en.pdf), Alternate KiCad Library")
  (tags "Inductor TDK_SLF7045")
  (attr smd)
  (fp_text reference REF** (at -1 -4.7) (layer F.SilkS)
    (effects (font (size 1 1) (thickness 0.15)))
  )
  (fp_text value L_TDK_SLF7045 (at 0 4.5) (layer F.Fab)
    (effects (font (size 1 1) (thickness 0.15)))
  )
  (fp_line (start -3 -3.5) (end 3.5 -3.5) (layer F.Fab) (width 0.1))
  (fp_line (start 3.5 -3.5) (end 3.5 3.5) (layer F.Fab) (width 0.1))
  (fp_line (start 3.5 3.5) (end -3.5 3.5) (layer F.Fab) (width 0.1))
  (fp_line (start -3.5 3.5) (end -3.5 -3) (layer F.Fab) (width 0.1))
  (fp_line (start -3.5 -3) (end -3 -3.5) (layer F.Fab) (width 0.1))
  (fp_line (start -3.62 -3.62) (end 3.62 -3.62) (layer F.SilkS) (width 0.12))
  (fp_line (start 3.62 -3.62) (end 3.62 -1.35) (layer F.SilkS) (width 0.12))
  (fp_line (start 3.62 1.35) (end 3.62 3.62) (layer F.SilkS) (width 0.12))
  (fp_line (start -3.62 3.62) (end 3.62 3.62) (layer F.SilkS) (width 0.12))
  (fp_line (start -3.62 -3.62) (end -3.62 -1.35) (layer F.SilkS) (width 0.12))
  (fp_line (start -3.62 1.35) (end -3.62 3.62) (layer F.SilkS) (width 0.12))
  (fp_line (start -3.75 -3.75) (end 3.75 -3.75) (layer F.CrtYd) (width 0.05))
  (fp_line (start 3.75 -3.75) (end 3.75 -1.36) (layer F.CrtYd) (width 0.05))
  (fp_line (start 3.75 -1.36) (end 4.16 -1.36) (layer F.CrtYd) (width 0.05))
  (fp_line (start 4.16 -1.36) (end 4.16 1.36) (layer F.CrtYd) (width 0.05))
  (fp_line (start 4.16 1.36) (end 3.75 1.36) (layer F.CrtYd) (width 0.05))
  (fp_line (start 3.75 1.36) (end 3.75 3.75) (layer F.CrtYd) (width 0.05))
  (fp_line (start -3.75 3.75) (end 3.75 3.75) (layer F.CrtYd) (width 0.05))
  (fp_line (start -3.75 -3.75) (end -3.75 -1.36) (layer F.CrtYd) (width 0.05))
  (fp_line (start -3.75 -1.36) (end -4.16 -1.36) (layer F.CrtYd) (width 0.05))
  (fp_line (start -4.16 -1.36) (end -4.16 1.36) (layer F.CrtYd) (width 0.05))
  (fp_line (start -4.16 1.36) (end -3.75 1.36) (layer F.CrtYd) (width 0.05))
  (fp_line (start -3.75 1.36) (end -3.75 3.75) (layer F.CrtYd) (width 0.05))
  (fp_text user " " (at -49 0.05) (layer F.SilkS) hide
    (effects (font (size 3 3) (thickness 0.15)))
  )
  (fp_text user %R (at 0 0) (layer F.Fab)
    (effects (font (size 1 1) (thickness 0.15)))
  )
  (fp_arc (start -1.524 0) (end -1.016 0) (angle -180) (layer F.SilkS) (width 0.12))
  (fp_arc (start -0.508 0) (end 0 0) (angle -180) (layer F.SilkS) (width 0.12))
  (fp_arc (start 1.524 0) (end 2.032 0) (angle -180) (layer F.SilkS) (width 0.12))
  (fp_arc (start 0.508 0) (end 1.016 0) (angle -180) (layer F.SilkS) (width 0.12))
  (pad 2 smd roundrect (at 3.15 0) (size 1.5 2.2) (layers F.Cu F.Paste F.Mask) (roundrect_rratio 0.25))
  (pad 1 smd roundrect (at -3.15 0) (size 1.5 2.2) (layers F.Cu F.Paste F.Mask) (roundrect_rratio 0.25))
  (model ${KISYS3DMOD}/Inductor_SMD.3dshapes/L_TDK_SLF7045.wrl
    (at (xyz 0 0 0))
    (scale (xyz 1 1 1))
    (rotate (xyz 0 0 0))
  )
)
