(module L_TracoPower_TCK-047_5.2x5.8mm (layer F.Cu) (tedit 60795346)
  (descr "Inductor, Traco, TCK-047, 5.2x5.8mm, https://www.tracopower.com/products/tck047.pdf, Alternate KiCad Library")
  (tags "inductor smd traco")
  (attr smd)
  (fp_text reference REF** (at 0 -4) (layer F.SilkS)
    (effects (font (size 1 1) (thickness 0.15)))
  )
  (fp_text value L_TracoPower_TCK-047_5.2x5.8mm (at 0 4.15) (layer F.Fab)
    (effects (font (size 1 1) (thickness 0.15)))
  )
  (fp_line (start -3.2385 2.9845) (end -3.2385 -2.9845) (layer F.SilkS) (width 0.12))
  (fp_line (start 3.2385 2.9845) (end -3.2385 2.9845) (layer F.SilkS) (width 0.12))
  (fp_line (start 3.2385 -2.9845) (end 3.2385 2.9845) (layer F.SilkS) (width 0.12))
  (fp_line (start -3.2385 -2.9845) (end 3.2385 -2.9845) (layer F.SilkS) (width 0.12))
  (fp_line (start 3.302 3.048) (end -3.302 3.048) (layer F.CrtYd) (width 0.05))
  (fp_line (start 3.302 3.048) (end 3.302 -3.048) (layer F.CrtYd) (width 0.05))
  (fp_line (start -3.302 -3.048) (end -3.302 3.048) (layer F.CrtYd) (width 0.05))
  (fp_line (start -3.302 -3.048) (end 3.302 -3.048) (layer F.CrtYd) (width 0.05))
  (fp_line (start -1.285 2.6) (end 1.285 2.6) (layer F.Fab) (width 0.1))
  (fp_line (start -1.285 -2.6) (end 1.285 -2.6) (layer F.Fab) (width 0.1))
  (fp_arc (start 0 0) (end 1.284999 2.599999) (angle -127.4) (layer F.Fab) (width 0.1))
  (fp_arc (start 0 0) (end -1.284999 -2.599999) (angle -127.4) (layer F.Fab) (width 0.1))
  (fp_text user %R (at 0 0) (layer F.Fab)
    (effects (font (size 1 1) (thickness 0.15)))
  )
  (fp_arc (start 0.127 0) (end 0.254 0) (angle -180) (layer F.SilkS) (width 0.12))
  (fp_arc (start 0.381 0) (end 0.508 0) (angle -180) (layer F.SilkS) (width 0.12))
  (fp_arc (start -0.127 0) (end 0 0) (angle -180) (layer F.SilkS) (width 0.12))
  (fp_arc (start -0.381 0) (end -0.254 0) (angle -180) (layer F.SilkS) (width 0.12))
  (pad 2 smd rect (at 1.925 0 90) (size 5.5 2.15) (layers F.Cu F.Paste F.Mask))
  (pad 1 smd rect (at -1.925 0 90) (size 5.5 2.15) (layers F.Cu F.Paste F.Mask))
  (model ${KISYS3DMOD}/Inductor_SMD.3dshapes/L_TracoPower_TCK-047.wrl
    (at (xyz 0 0 0))
    (scale (xyz 1 1 1))
    (rotate (xyz 0 0 0))
  )
)
