(module L_Vishay_IHLP-2525 (layer F.Cu) (tedit 60903141)
  (descr "Inductor, Vishay, IHLP series, 6.3mmx6.3mm, Alternate KiCad Library")
  (tags "inductor vishay ihlp smd")
  (attr smd)
  (fp_text reference REF** (at 0 -4.175) (layer F.SilkS)
    (effects (font (size 1 1) (thickness 0.15)))
  )
  (fp_text value L_Vishay_IHLP-2525 (at 0 4.675) (layer F.Fab)
    (effects (font (size 1 1) (thickness 0.15)))
  )
  (fp_line (start 4.4 -3.45) (end -4.4 -3.45) (layer F.CrtYd) (width 0.05))
  (fp_line (start 4.4 3.45) (end 4.4 -3.45) (layer F.CrtYd) (width 0.05))
  (fp_line (start -4.4 3.45) (end 4.4 3.45) (layer F.CrtYd) (width 0.05))
  (fp_line (start -4.4 -3.45) (end -4.4 3.45) (layer F.CrtYd) (width 0.05))
  (fp_line (start -4.3815 3.275) (end 4.3815 3.275) (layer F.SilkS) (width 0.12))
  (fp_line (start -4.3815 -3.275) (end 4.3815 -3.275) (layer F.SilkS) (width 0.12))
  (fp_line (start 3.175 -3.175) (end -3.175 -3.175) (layer F.Fab) (width 0.1))
  (fp_line (start 3.175 3.175) (end 3.175 -3.175) (layer F.Fab) (width 0.1))
  (fp_line (start -3.175 3.175) (end 3.175 3.175) (layer F.Fab) (width 0.1))
  (fp_line (start -3.175 -3.175) (end -3.175 3.175) (layer F.Fab) (width 0.1))
  (fp_line (start -1.27 0) (end -1.397 0) (layer F.SilkS) (width 0.12))
  (fp_line (start 1.397 0) (end 1.27 0) (layer F.SilkS) (width 0.12))
  (fp_text user %R (at 0 0) (layer F.Fab)
    (effects (font (size 1 1) (thickness 0.15)))
  )
  (fp_arc (start 0.3175 0) (end 0.635 0) (angle -180) (layer F.SilkS) (width 0.12))
  (fp_arc (start 0.9525 0) (end 1.27 0) (angle -180) (layer F.SilkS) (width 0.12))
  (fp_arc (start -0.3175 0) (end 0 0) (angle -180) (layer F.SilkS) (width 0.12))
  (fp_arc (start -0.9525 0) (end -0.635 0) (angle -180) (layer F.SilkS) (width 0.12))
  (fp_line (start -4.3815 -3.275) (end -4.3815 3.275) (layer F.SilkS) (width 0.12))
  (fp_line (start 4.3815 3.275) (end 4.3815 -3.275) (layer F.SilkS) (width 0.12))
  (pad 2 smd rect (at 2.921 0) (size 2.413 3.429) (layers F.Cu F.Paste F.Mask))
  (pad 1 smd rect (at -2.921 0) (size 2.413 3.429) (layers F.Cu F.Paste F.Mask))
  (model ${KISYS3DMOD}/Inductor_SMD.3dshapes/L_Vishay_IHLP-2525.wrl
    (at (xyz 0 0 0))
    (scale (xyz 1 1 1))
    (rotate (xyz 0 0 0))
  )
)
