(module L_Vishay_IHLP-4040 (layer F.Cu) (tedit 60795383)
  (descr "Inductor, Vishay, IHLP series, 10.2mmx10.2mm, Alternate KiCad Library")
  (tags "inductor vishay ihlp smd")
  (attr smd)
  (fp_text reference REF** (at 0 -6.08) (layer F.SilkS)
    (effects (font (size 1 1) (thickness 0.15)))
  )
  (fp_text value L_Vishay_IHLP-4040 (at 0 6.58) (layer F.Fab)
    (effects (font (size 1 1) (thickness 0.15)))
  )
  (fp_line (start -5.08 -5.08) (end -5.08 5.08) (layer F.Fab) (width 0.1))
  (fp_line (start -5.08 5.08) (end 5.08 5.08) (layer F.Fab) (width 0.1))
  (fp_line (start 5.08 5.08) (end 5.08 -5.08) (layer F.Fab) (width 0.1))
  (fp_line (start 5.08 -5.08) (end -5.08 -5.08) (layer F.Fab) (width 0.1))
  (fp_line (start -5.18 -2.775) (end -5.18 -5.18) (layer F.SilkS) (width 0.12))
  (fp_line (start -5.18 -5.18) (end 5.18 -5.18) (layer F.SilkS) (width 0.12))
  (fp_line (start 5.18 -5.18) (end 5.18 -2.775) (layer F.SilkS) (width 0.12))
  (fp_line (start -5.18 2.775) (end -5.18 5.18) (layer F.SilkS) (width 0.12))
  (fp_line (start -5.18 5.18) (end 5.18 5.18) (layer F.SilkS) (width 0.12))
  (fp_line (start 5.18 5.18) (end 5.18 2.775) (layer F.SilkS) (width 0.12))
  (fp_line (start -6.35 -5.35) (end -6.35 5.35) (layer F.CrtYd) (width 0.05))
  (fp_line (start -6.35 5.35) (end 6.35 5.35) (layer F.CrtYd) (width 0.05))
  (fp_line (start 6.35 5.35) (end 6.35 -5.35) (layer F.CrtYd) (width 0.05))
  (fp_line (start 6.35 -5.35) (end -6.35 -5.35) (layer F.CrtYd) (width 0.05))
  (fp_text user %R (at 0 0) (layer F.Fab)
    (effects (font (size 1 1) (thickness 0.15)))
  )
  (fp_arc (start 0.635 0) (end 1.27 0) (angle -180) (layer F.SilkS) (width 0.12))
  (fp_arc (start 1.905 0) (end 2.54 0) (angle -180) (layer F.SilkS) (width 0.12))
  (fp_arc (start -0.635 0) (end 0 0) (angle -180) (layer F.SilkS) (width 0.12))
  (fp_arc (start -1.905 0) (end -1.27 0) (angle -180) (layer F.SilkS) (width 0.12))
  (pad 2 smd rect (at 4.5075 0) (size 3.175 4.95) (layers F.Cu F.Paste F.Mask))
  (pad 1 smd rect (at -4.5075 0) (size 3.175 4.95) (layers F.Cu F.Paste F.Mask))
  (model ${KISYS3DMOD}/Inductor_SMD.3dshapes/L_Vishay_IHLP-4040.wrl
    (at (xyz 0 0 0))
    (scale (xyz 1 1 1))
    (rotate (xyz 0 0 0))
  )
)
