(module L_Vishay_IHSM-5832 (layer F.Cu) (tedit 60903296)
  (descr "Inductor, Vishay, Vishay_IHSM-5832, http://www.vishay.com/docs/34020/ihsm5832.pdf, 16.3mmx8.1mm, Alternate KiCad Library")
  (tags "inductor vishay icsm smd")
  (attr smd)
  (fp_text reference REF** (at 0 -5.065) (layer F.SilkS)
    (effects (font (size 1 1) (thickness 0.15)))
  )
  (fp_text value L_Vishay_IHSM-5832 (at 0 5.565) (layer F.Fab)
    (effects (font (size 1 1) (thickness 0.15)))
  )
  (fp_line (start 8.13 -4.065) (end -8.13 -4.065) (layer F.Fab) (width 0.1))
  (fp_line (start 8.13 4.065) (end 8.13 -4.065) (layer F.Fab) (width 0.1))
  (fp_line (start -8.13 4.065) (end 8.13 4.065) (layer F.Fab) (width 0.1))
  (fp_line (start -8.13 -4.065) (end -8.13 4.065) (layer F.Fab) (width 0.1))
  (fp_line (start 11.3 -4.4) (end -11.3 -4.4) (layer F.CrtYd) (width 0.05))
  (fp_line (start 11.3 4.4) (end 11.3 -4.4) (layer F.CrtYd) (width 0.05))
  (fp_line (start -11.3 4.4) (end 11.3 4.4) (layer F.CrtYd) (width 0.05))
  (fp_line (start -11.3 -4.4) (end -11.3 4.4) (layer F.CrtYd) (width 0.05))
  (fp_text user %R (at 0 0) (layer F.Fab)
    (effects (font (size 1 1) (thickness 0.15)))
  )
  (fp_arc (start -0.9525 0) (end 0 0) (angle -180) (layer F.SilkS) (width 0.12))
  (fp_arc (start 0.9525 0) (end 1.905 0) (angle -180) (layer F.SilkS) (width 0.12))
  (fp_arc (start 2.8575 0) (end 3.81 0) (angle -180) (layer F.SilkS) (width 0.12))
  (fp_arc (start -2.8575 0) (end -1.905 0) (angle -180) (layer F.SilkS) (width 0.12))
  (fp_line (start 11.303 -4.165) (end 0 -4.165) (layer F.SilkS) (width 0.12))
  (fp_line (start 11.303 4.165) (end 0 4.165) (layer F.SilkS) (width 0.12))
  (fp_line (start -11.303 4.165) (end 0 4.165) (layer F.SilkS) (width 0.12))
  (fp_line (start -11.303 -4.191) (end -11.303 4.165) (layer F.SilkS) (width 0.12))
  (fp_line (start -11.303 -4.191) (end 0 -4.165) (layer F.SilkS) (width 0.12))
  (fp_line (start 11.303 4.165) (end 11.303 -4.165) (layer F.SilkS) (width 0.12))
  (pad 2 smd rect (at 7.6815 0) (size 6.6 7.4) (layers F.Cu F.Paste F.Mask))
  (pad 1 smd rect (at -7.6815 0) (size 6.6 7.4) (layers F.Cu F.Paste F.Mask))
  (model ${KISYS3DMOD}/Inductor_SMD.3dshapes/L_Vishay_IHSM-5832.wrl
    (at (xyz 0 0 0))
    (scale (xyz 1 1 1))
    (rotate (xyz 0 0 0))
  )
)
