(module L_Wuerth_WE-PD-Typ-LS_BigPads (layer F.Cu) (tedit 608FA9BA)
  (descr "Shielded Power Inductor, Wuerth Elektronik, WE-PD, SMD, Typ LS, Handsoldering, https://katalog.we-online.com/pbs/datasheet/7447715906.pdf, Alternate KiCad Library")
  (tags "Choke Shielded Power Inductor WE-PD TypLS Wuerth")
  (attr smd)
  (fp_text reference REF** (at 0 -7.2) (layer F.SilkS)
    (effects (font (size 1 1) (thickness 0.15)))
  )
  (fp_text value L_Wuerth_WE-PD-Typ-LS_BigPads (at 0 7.5) (layer F.Fab)
    (effects (font (size 1 1) (thickness 0.15)))
  )
  (fp_circle (center -2.1 3) (end -1.8 3.25) (layer F.Fab) (width 0.1))
  (fp_circle (center 0 0) (end 0.15 0.15) (layer F.Adhes) (width 0.38))
  (fp_circle (center 0 0) (end 0.55 0) (layer F.Adhes) (width 0.38))
  (fp_circle (center 0 0) (end 0.9 0) (layer F.Adhes) (width 0.38))
  (fp_line (start 6.2 -6.2) (end 6.2 -3.3) (layer F.Fab) (width 0.1))
  (fp_line (start -6.2 -6.2) (end -6.2 -3.3) (layer F.Fab) (width 0.1))
  (fp_line (start 6.2 -6.2) (end -6.2 -6.2) (layer F.Fab) (width 0.1))
  (fp_line (start 6.2 6.2) (end 6.2 3.3) (layer F.Fab) (width 0.1))
  (fp_line (start -6.2 6.2) (end 6.2 6.2) (layer F.Fab) (width 0.1))
  (fp_line (start -6.2 3.3) (end -6.2 6.2) (layer F.Fab) (width 0.1))
  (fp_line (start -5 -3.5) (end -4.8 -3.2) (layer F.Fab) (width 0.1))
  (fp_line (start -5.1 -4) (end -5 -3.5) (layer F.Fab) (width 0.1))
  (fp_line (start -4.9 -4.5) (end -5.1 -4) (layer F.Fab) (width 0.1))
  (fp_line (start -4.6 -4.8) (end -4.9 -4.5) (layer F.Fab) (width 0.1))
  (fp_line (start -4.2 -5) (end -4.6 -4.8) (layer F.Fab) (width 0.1))
  (fp_line (start -3.7 -5.1) (end -4.2 -5) (layer F.Fab) (width 0.1))
  (fp_line (start -3.3 -4.9) (end -3.7 -5.1) (layer F.Fab) (width 0.1))
  (fp_line (start -3 -4.7) (end -3.3 -4.9) (layer F.Fab) (width 0.1))
  (fp_line (start -2.6 -4.9) (end -3 -4.7) (layer F.Fab) (width 0.1))
  (fp_line (start -1.7 -5.3) (end -2.6 -4.9) (layer F.Fab) (width 0.1))
  (fp_line (start -0.8 -5.5) (end -1.7 -5.3) (layer F.Fab) (width 0.1))
  (fp_line (start 0 -5.6) (end -0.8 -5.5) (layer F.Fab) (width 0.1))
  (fp_line (start 0.9 -5.5) (end 0 -5.6) (layer F.Fab) (width 0.1))
  (fp_line (start 1.7 -5.3) (end 0.9 -5.5) (layer F.Fab) (width 0.1))
  (fp_line (start 2.2 -5.1) (end 1.7 -5.3) (layer F.Fab) (width 0.1))
  (fp_line (start 2.6 -4.9) (end 2.2 -5.1) (layer F.Fab) (width 0.1))
  (fp_line (start 3 -4.6) (end 2.6 -4.9) (layer F.Fab) (width 0.1))
  (fp_line (start 3.3 -4.9) (end 3 -4.6) (layer F.Fab) (width 0.1))
  (fp_line (start 3.6 -5) (end 3.3 -4.9) (layer F.Fab) (width 0.1))
  (fp_line (start 3.9 -5.1) (end 3.6 -5) (layer F.Fab) (width 0.1))
  (fp_line (start 4.2 -5.1) (end 3.9 -5.1) (layer F.Fab) (width 0.1))
  (fp_line (start 4.5 -4.9) (end 4.2 -5.1) (layer F.Fab) (width 0.1))
  (fp_line (start 4.8 -4.7) (end 4.5 -4.9) (layer F.Fab) (width 0.1))
  (fp_line (start 5 -4.3) (end 4.8 -4.7) (layer F.Fab) (width 0.1))
  (fp_line (start 5.1 -4) (end 5 -4.3) (layer F.Fab) (width 0.1))
  (fp_line (start 5 -3.6) (end 5.1 -4) (layer F.Fab) (width 0.1))
  (fp_line (start 4.9 -3.3) (end 5 -3.6) (layer F.Fab) (width 0.1))
  (fp_line (start -5 3.6) (end -4.8 3.2) (layer F.Fab) (width 0.1))
  (fp_line (start -5.1 4.1) (end -5 3.6) (layer F.Fab) (width 0.1))
  (fp_line (start -4.9 4.6) (end -5.1 4.1) (layer F.Fab) (width 0.1))
  (fp_line (start -4.6 4.8) (end -4.9 4.6) (layer F.Fab) (width 0.1))
  (fp_line (start -4.3 5) (end -4.6 4.8) (layer F.Fab) (width 0.1))
  (fp_line (start -3.9 5.1) (end -4.3 5) (layer F.Fab) (width 0.1))
  (fp_line (start -3.3 4.9) (end -3.9 5.1) (layer F.Fab) (width 0.1))
  (fp_line (start -3 4.7) (end -3.3 4.9) (layer F.Fab) (width 0.1))
  (fp_line (start -2.6 4.9) (end -3 4.7) (layer F.Fab) (width 0.1))
  (fp_line (start -2.1 5.1) (end -2.6 4.9) (layer F.Fab) (width 0.1))
  (fp_line (start -1.5 5.3) (end -2.1 5.1) (layer F.Fab) (width 0.1))
  (fp_line (start -0.6 5.5) (end -1.5 5.3) (layer F.Fab) (width 0.1))
  (fp_line (start 0.6 5.5) (end -0.6 5.5) (layer F.Fab) (width 0.1))
  (fp_line (start 1.6 5.3) (end 0.6 5.5) (layer F.Fab) (width 0.1))
  (fp_line (start 2.4 5) (end 1.6 5.3) (layer F.Fab) (width 0.1))
  (fp_line (start 3 4.6) (end 2.4 5) (layer F.Fab) (width 0.1))
  (fp_line (start 3.1 4.7) (end 3 4.6) (layer F.Fab) (width 0.1))
  (fp_line (start 3.5 5) (end 3.1 4.7) (layer F.Fab) (width 0.1))
  (fp_line (start 4 5.1) (end 3.5 5) (layer F.Fab) (width 0.1))
  (fp_line (start 4.5 5) (end 4 5.1) (layer F.Fab) (width 0.1))
  (fp_line (start 4.8 4.6) (end 4.5 5) (layer F.Fab) (width 0.1))
  (fp_line (start 5 4.3) (end 4.8 4.6) (layer F.Fab) (width 0.1))
  (fp_line (start 5.1 3.8) (end 5 4.3) (layer F.Fab) (width 0.1))
  (fp_line (start 5 3.4) (end 5.1 3.8) (layer F.Fab) (width 0.1))
  (fp_line (start 4.9 3.3) (end 5 3.4) (layer F.Fab) (width 0.1))
  (fp_line (start -6.75 -6.5) (end 6.75 -6.5) (layer F.CrtYd) (width 0.05))
  (fp_line (start 6.75 6.5) (end -6.75 6.5) (layer F.CrtYd) (width 0.05))
  (fp_line (start -6.3 6.3) (end -6.3 3.3) (layer F.SilkS) (width 0.12))
  (fp_line (start 6.3 6.3) (end -6.3 6.3) (layer F.SilkS) (width 0.12))
  (fp_line (start 6.3 3.3) (end 6.3 6.3) (layer F.SilkS) (width 0.12))
  (fp_line (start 6.3 -6.3) (end 6.3 -3.3) (layer F.SilkS) (width 0.12))
  (fp_line (start -6.3 -6.3) (end 6.3 -6.3) (layer F.SilkS) (width 0.12))
  (fp_line (start -6.3 -3.3) (end -6.3 -6.3) (layer F.SilkS) (width 0.12))
  (fp_line (start 6.75 3) (end 6.75 6.5) (layer F.CrtYd) (width 0.05))
  (fp_line (start 8.75 3) (end 6.75 3) (layer F.CrtYd) (width 0.05))
  (fp_line (start 8.75 -3) (end 8.75 3) (layer F.CrtYd) (width 0.05))
  (fp_line (start 6.75 -3) (end 8.75 -3) (layer F.CrtYd) (width 0.05))
  (fp_line (start 6.75 -6.5) (end 6.75 -3) (layer F.CrtYd) (width 0.05))
  (fp_line (start -6.75 -3) (end -6.75 -6.5) (layer F.CrtYd) (width 0.05))
  (fp_line (start -8.75 -3) (end -6.75 -3) (layer F.CrtYd) (width 0.05))
  (fp_line (start -8.75 3) (end -8.75 -3) (layer F.CrtYd) (width 0.05))
  (fp_line (start -6.75 3) (end -8.75 3) (layer F.CrtYd) (width 0.05))
  (fp_line (start -6.75 6.5) (end -6.75 3) (layer F.CrtYd) (width 0.05))
  (fp_line (start -6.2 -3.3) (end -6.2 3.3) (layer F.Fab) (width 0.1))
  (fp_line (start 6.2 3.3) (end 6.2 -3.4) (layer F.Fab) (width 0.1))
  (fp_line (start 3.175 0) (end 3.048 0) (layer F.SilkS) (width 0.12))
  (fp_line (start -3.048 0) (end -3.175 0) (layer F.SilkS) (width 0.12))
  (fp_text user %R (at 0 0) (layer F.Fab)
    (effects (font (size 1 1) (thickness 0.15)))
  )
  (fp_arc (start -0.762 0) (end 0 0) (angle -180) (layer F.SilkS) (width 0.12))
  (fp_arc (start 2.286 0) (end 3.048 0) (angle -180) (layer F.SilkS) (width 0.12))
  (fp_arc (start -2.286 0) (end -1.524 0) (angle -180) (layer F.SilkS) (width 0.12))
  (fp_arc (start 0.762 0) (end 1.524 0) (angle -180) (layer F.SilkS) (width 0.12))
  (pad 2 smd rect (at 5.9 0) (size 4.9 5.4) (layers F.Cu F.Paste F.Mask))
  (pad 1 smd rect (at -5.9 0) (size 4.9 5.4) (layers F.Cu F.Paste F.Mask))
  (model ${KISYS3DMOD}/Inductor_SMD.3dshapes/L_Wuerth_WE-PD-Typ-LS.wrl
    (at (xyz 0 0 0))
    (scale (xyz 1 1 1))
    (rotate (xyz 0 0 0))
  )
)
