(module L_Wuerth_MAPI-3010 (layer F.Cu) (tedit 60795470)
  (descr "Inductor, Wuerth Elektronik, Wuerth_MAPI-3010, 3.0mmx3.0mm, Alternate KiCad Library")
  (tags "inductor Wuerth smd")
  (attr smd)
  (fp_text reference REF** (at 0 -2.7) (layer F.SilkS)
    (effects (font (size 1 1) (thickness 0.15)))
  )
  (fp_text value L_Wuerth_MAPI-3010 (at 0 3.2) (layer F.Fab)
    (effects (font (size 1 1) (thickness 0.15)))
  )
  (fp_line (start 1.9685 -1.9685) (end -1.9685 -1.9685) (layer F.SilkS) (width 0.12))
  (fp_line (start 1.9685 1.9685) (end 1.9685 -1.9685) (layer F.SilkS) (width 0.12))
  (fp_line (start -1.9685 1.9685) (end 1.9685 1.9685) (layer F.SilkS) (width 0.12))
  (fp_line (start -1.9685 -1.9685) (end -1.9685 1.9685) (layer F.SilkS) (width 0.12))
  (fp_line (start -1.5 -1.5) (end -1.5 1.5) (layer F.Fab) (width 0.1))
  (fp_line (start -1.5 1.5) (end 1.5 1.5) (layer F.Fab) (width 0.1))
  (fp_line (start 1.5 1.5) (end 1.5 -1.5) (layer F.Fab) (width 0.1))
  (fp_line (start 1.5 -1.5) (end -1.5 -1.5) (layer F.Fab) (width 0.1))
  (fp_line (start -2.032 -2.032) (end -2.032 2.032) (layer F.CrtYd) (width 0.05))
  (fp_line (start -2.032 2.032) (end 2.032 2.032) (layer F.CrtYd) (width 0.05))
  (fp_line (start 2.032 1.968) (end 2.032 -2.032) (layer F.CrtYd) (width 0.05))
  (fp_line (start 2.032 -2.032) (end -2.032 -2.032) (layer F.CrtYd) (width 0.05))
  (fp_text user %R (at 0 0) (layer F.Fab)
    (effects (font (size 0.7 0.7) (thickness 0.105)))
  )
  (pad 2 smd rect (at 1.05 0) (size 1.3 3.4) (layers F.Cu F.Paste F.Mask))
  (pad 1 smd rect (at -1.05 0) (size 1.3 3.4) (layers F.Cu F.Paste F.Mask))
  (model ${KISYS3DMOD}/Inductor_SMD.3dshapes/L_Wuerth_MAPI-3010.wrl
    (at (xyz 0 0 0))
    (scale (xyz 1 1 1))
    (rotate (xyz 0 0 0))
  )
)
