(module L_Wuerth_HCI-2212 (layer F.Cu) (tedit 607953D7)
  (descr "Inductor, Wuerth Elektronik, Wuerth_HCI-2212, 22.5mmx22.0mm, Alternate KiCad Library")
  (tags "inductor Wuerth hci smd")
  (attr smd)
  (fp_text reference REF** (at 0 -12) (layer F.SilkS)
    (effects (font (size 1 1) (thickness 0.15)))
  )
  (fp_text value L_Wuerth_HCI-2212 (at 0 12.5) (layer F.Fab)
    (effects (font (size 1 1) (thickness 0.15)))
  )
  (fp_line (start -11.25 -11) (end -11.25 11) (layer F.Fab) (width 0.1))
  (fp_line (start -11.25 11) (end 11.25 11) (layer F.Fab) (width 0.1))
  (fp_line (start 11.25 11) (end 11.25 -11) (layer F.Fab) (width 0.1))
  (fp_line (start 11.25 -11) (end -11.25 -11) (layer F.Fab) (width 0.1))
  (fp_line (start -12.05 -11.3) (end -12.05 11.3) (layer F.CrtYd) (width 0.05))
  (fp_line (start -12.05 11.3) (end 12.05 11.3) (layer F.CrtYd) (width 0.05))
  (fp_line (start 12.05 11.3) (end 12.05 -11.3) (layer F.CrtYd) (width 0.05))
  (fp_line (start 12.05 -11.3) (end -12.05 -11.3) (layer F.CrtYd) (width 0.05))
  (fp_line (start -11.35 3.9) (end -11.35 11.1) (layer F.SilkS) (width 0.12))
  (fp_line (start -11.35 11.1) (end 11.35 11.1) (layer F.SilkS) (width 0.12))
  (fp_line (start 11.35 11.1) (end 11.35 3.9) (layer F.SilkS) (width 0.12))
  (fp_line (start -11.35 -3.9) (end -11.35 -11.1) (layer F.SilkS) (width 0.12))
  (fp_line (start -11.35 -11.1) (end 11.35 -11.1) (layer F.SilkS) (width 0.12))
  (fp_line (start 11.35 -11.1) (end 11.35 -3.9) (layer F.SilkS) (width 0.12))
  (fp_text user %R (at 0 0) (layer F.Fab)
    (effects (font (size 1 1) (thickness 0.15)))
  )
  (fp_arc (start 1.016 0) (end 2.032 0) (angle -180) (layer F.SilkS) (width 0.12))
  (fp_arc (start 3.048 0) (end 4.064 0) (angle -180) (layer F.SilkS) (width 0.12))
  (fp_arc (start -1.016 0) (end 0 0) (angle -180) (layer F.SilkS) (width 0.12))
  (fp_arc (start -3.048 0) (end -2.032 0) (angle -180) (layer F.SilkS) (width 0.12))
  (pad 2 smd rect (at 8.25 0) (size 7 7) (layers F.Cu F.Paste F.Mask))
  (pad 1 smd rect (at -8.25 0) (size 7 7) (layers F.Cu F.Paste F.Mask))
  (model ${KISYS3DMOD}/Inductor_SMD.3dshapes/L_Wuerth_HCI-2212.wrl
    (at (xyz 0 0 0))
    (scale (xyz 1 1 1))
    (rotate (xyz 0 0 0))
  )
)
