(module L_Wuerth_HCI-7050 (layer F.Cu) (tedit 609033A1)
  (descr "Inductor, Wuerth Elektronik, Wuerth_HCI-7050, 6.9mmx6.9mm, Alternate KiCad Library")
  (tags "inductor Wuerth hci smd")
  (attr smd)
  (fp_text reference REF** (at 0 -4.45) (layer F.SilkS)
    (effects (font (size 1 1) (thickness 0.15)))
  )
  (fp_text value L_Wuerth_HCI-7050 (at 0 4.95) (layer F.Fab)
    (effects (font (size 1 1) (thickness 0.15)))
  )
  (fp_line (start 4.2 -3.75) (end -4.2 -3.75) (layer F.CrtYd) (width 0.05))
  (fp_line (start 4.2 3.75) (end 4.2 -3.75) (layer F.CrtYd) (width 0.05))
  (fp_line (start -4.2 3.75) (end 4.2 3.75) (layer F.CrtYd) (width 0.05))
  (fp_line (start -4.2 -3.75) (end -4.2 3.75) (layer F.CrtYd) (width 0.05))
  (fp_line (start 3.45 -3.45) (end -3.45 -3.45) (layer F.Fab) (width 0.1))
  (fp_line (start 3.45 3.45) (end 3.45 -3.45) (layer F.Fab) (width 0.1))
  (fp_line (start -3.45 3.45) (end 3.45 3.45) (layer F.Fab) (width 0.1))
  (fp_line (start -3.45 -3.45) (end -3.45 3.45) (layer F.Fab) (width 0.1))
  (fp_line (start 0.762 0) (end 0.889 0) (layer F.SilkS) (width 0.12))
  (fp_line (start -0.762 0) (end -0.889 0) (layer F.SilkS) (width 0.12))
  (fp_text user %R (at 0 0) (layer F.Fab)
    (effects (font (size 1 1) (thickness 0.15)))
  )
  (fp_arc (start 0.5715 0) (end 0.762 0) (angle -180) (layer F.SilkS) (width 0.12))
  (fp_arc (start -0.1905 0) (end 0 0) (angle -180) (layer F.SilkS) (width 0.12))
  (fp_arc (start -0.5715 0) (end -0.381 0) (angle -180) (layer F.SilkS) (width 0.12))
  (fp_arc (start 0.1905 0) (end 0.381 0) (angle -180) (layer F.SilkS) (width 0.12))
  (fp_line (start -4.191 -3.55) (end -4.191 3.55) (layer F.SilkS) (width 0.12))
  (fp_line (start -4.191 -3.55) (end 4.191 -3.55) (layer F.SilkS) (width 0.12))
  (fp_line (start -4.191 3.55) (end 4.191 3.55) (layer F.SilkS) (width 0.12))
  (fp_line (start 4.191 3.55) (end 4.191 -3.55) (layer F.SilkS) (width 0.12))
  (pad 2 smd rect (at 2.55 0) (size 2.7 2.2) (layers F.Cu F.Paste F.Mask))
  (pad 1 smd rect (at -2.55 0) (size 2.7 2.2) (layers F.Cu F.Paste F.Mask))
  (model ${KISYS3DMOD}/Inductor_SMD.3dshapes/L_Wuerth_HCI-7050.wrl
    (at (xyz 0 0 0))
    (scale (xyz 1 1 1))
    (rotate (xyz 0 0 0))
  )
)
