(module L_Wuerth_HCM-1190 (layer F.Cu) (tedit 6079542B)
  (descr "Inductor, Wuerth Elektronik, Wuerth_HCM-1190, 10.5mmx11.0mm, Alternate KiCad Library")
  (tags "inductor Wuerth hcm smd")
  (attr smd)
  (fp_text reference REF** (at 0 -6.5) (layer F.SilkS)
    (effects (font (size 1 1) (thickness 0.15)))
  )
  (fp_text value L_Wuerth_HCM-1190 (at 0 7) (layer F.Fab)
    (effects (font (size 1 1) (thickness 0.15)))
  )
  (fp_line (start -1.524 0) (end -1.651 0) (layer F.SilkS) (width 0.12))
  (fp_line (start 1.524 0) (end 1.651 0) (layer F.SilkS) (width 0.12))
  (fp_line (start -5.35 5.6) (end 0 5.6) (layer F.SilkS) (width 0.12))
  (fp_line (start -5.35 1.65) (end -5.35 5.6) (layer F.SilkS) (width 0.12))
  (fp_line (start 5.35 5.6) (end 0 5.6) (layer F.SilkS) (width 0.12))
  (fp_line (start 5.35 1.65) (end 5.35 5.6) (layer F.SilkS) (width 0.12))
  (fp_line (start 5.35 -5.6) (end 0 -5.6) (layer F.SilkS) (width 0.12))
  (fp_line (start 5.35 -1.65) (end 5.35 -5.6) (layer F.SilkS) (width 0.12))
  (fp_line (start -5.35 -5.6) (end 0 -5.6) (layer F.SilkS) (width 0.12))
  (fp_line (start -5.35 -1.65) (end -5.35 -5.6) (layer F.SilkS) (width 0.12))
  (fp_line (start 5.25 -5.5) (end -5.25 -5.5) (layer F.Fab) (width 0.1))
  (fp_line (start 5.25 5.5) (end 5.25 -5.5) (layer F.Fab) (width 0.1))
  (fp_line (start -5.25 5.5) (end 5.25 5.5) (layer F.Fab) (width 0.1))
  (fp_line (start -5.25 -5.5) (end -5.25 5.5) (layer F.Fab) (width 0.1))
  (fp_line (start 6.4 -5.8) (end -6.4 -5.8) (layer F.CrtYd) (width 0.05))
  (fp_line (start 6.4 5.8) (end 6.4 -5.8) (layer F.CrtYd) (width 0.05))
  (fp_line (start -6.4 5.8) (end 6.4 5.8) (layer F.CrtYd) (width 0.05))
  (fp_line (start -6.4 -5.8) (end -6.4 5.8) (layer F.CrtYd) (width 0.05))
  (fp_arc (start -1.143 0) (end -0.762 0) (angle -180) (layer F.SilkS) (width 0.12))
  (fp_arc (start 1.143 0) (end 1.524 0) (angle -180) (layer F.SilkS) (width 0.12))
  (fp_arc (start 0.381 0) (end 0.762 0) (angle -180) (layer F.SilkS) (width 0.12))
  (fp_arc (start -0.381 0) (end 0 0) (angle -180) (layer F.SilkS) (width 0.12))
  (fp_text user %R (at 0 0) (layer F.Fab)
    (effects (font (size 1 1) (thickness 0.15)))
  )
  (pad 1 smd rect (at -4.1 0) (size 4 2.7) (layers F.Cu F.Paste F.Mask))
  (pad 2 smd rect (at 4.1 0) (size 4 2.7) (layers F.Cu F.Paste F.Mask))
  (model ${KISYS3DMOD}/Inductor_SMD.3dshapes/L_Wuerth_HCM-1190.wrl
    (at (xyz 0 0 0))
    (scale (xyz 1 1 1))
    (rotate (xyz 0 0 0))
  )
)
