(module L_Wuerth_HCI-1890 (layer F.Cu) (tedit 607953D2)
  (descr "Inductor, Wuerth Elektronik, Wuerth_HCI-1890, 18.2mmx18.2mm, Alternate KiCad Library")
  (tags "inductor Wuerth hci smd")
  (attr smd)
  (fp_text reference REF** (at 0 -10.1) (layer F.SilkS)
    (effects (font (size 1 1) (thickness 0.15)))
  )
  (fp_text value L_Wuerth_HCI-1890 (at 0 10.6) (layer F.Fab)
    (effects (font (size 1 1) (thickness 0.15)))
  )
  (fp_line (start -9.1 -9.1) (end -9.1 9.1) (layer F.Fab) (width 0.1))
  (fp_line (start -9.1 9.1) (end 9.1 9.1) (layer F.Fab) (width 0.1))
  (fp_line (start 9.1 9.1) (end 9.1 -9.1) (layer F.Fab) (width 0.1))
  (fp_line (start 9.1 -9.1) (end -9.1 -9.1) (layer F.Fab) (width 0.1))
  (fp_line (start -9.95 -9.4) (end -9.95 9.4) (layer F.CrtYd) (width 0.05))
  (fp_line (start -9.95 9.4) (end 9.95 9.4) (layer F.CrtYd) (width 0.05))
  (fp_line (start 9.95 9.4) (end 9.95 -9.4) (layer F.CrtYd) (width 0.05))
  (fp_line (start 9.95 -9.4) (end -9.95 -9.4) (layer F.CrtYd) (width 0.05))
  (fp_line (start -9.2 3.4) (end -9.2 9.2) (layer F.SilkS) (width 0.12))
  (fp_line (start -9.2 9.2) (end 9.2 9.2) (layer F.SilkS) (width 0.12))
  (fp_line (start 9.2 9.2) (end 9.2 3.4) (layer F.SilkS) (width 0.12))
  (fp_line (start -9.2 -3.4) (end -9.2 -9.2) (layer F.SilkS) (width 0.12))
  (fp_line (start -9.2 -9.2) (end 9.2 -9.2) (layer F.SilkS) (width 0.12))
  (fp_line (start 9.2 -9.2) (end 9.2 -3.4) (layer F.SilkS) (width 0.12))
  (fp_text user %R (at 0 0) (layer F.Fab)
    (effects (font (size 1 1) (thickness 0.15)))
  )
  (fp_arc (start 0.762 0) (end 1.524 0) (angle -180) (layer F.SilkS) (width 0.12))
  (fp_arc (start -0.762 0) (end 0 0) (angle -180) (layer F.SilkS) (width 0.12))
  (fp_arc (start -2.286 0) (end -1.524 0) (angle -180) (layer F.SilkS) (width 0.12))
  (fp_arc (start 2.286 0) (end 3.048 0) (angle -180) (layer F.SilkS) (width 0.12))
  (pad 2 smd rect (at 6.65 0) (size 6 6) (layers F.Cu F.Paste F.Mask))
  (pad 1 smd rect (at -6.65 0) (size 6 6) (layers F.Cu F.Paste F.Mask))
  (model ${KISYS3DMOD}/Inductor_SMD.3dshapes/L_Wuerth_HCI-1890.wrl
    (at (xyz 0 0 0))
    (scale (xyz 1 1 1))
    (rotate (xyz 0 0 0))
  )
)
