{
    "$schema": "https://gitlab.com/qu1ck/kicad/-/raw/pcm/kicad/pcm/schemas/pcm.v1.schema.json#",
    "name": "Dummy Plugin 4",
    "description": "Test plugin with multiple versions",
    "description_full": "v1.0 has a bad sha hash\nv2.0 has invalid zip file\nv3.0 and v4.0 are dev and testing packages",
    "identifier": "dummy-plugin-4",
    "type": "plugin",
    "author": {
        "name": "John Doe",
        "contact": {
            "email": "john@doe.com",
            "web": "johndoe.com"
        }
    },
    "maintainer": {
        "name": "John Doe",
        "contact": {
            "email": "john@doe.com",
            "web": "johndoe.com"
        }
    },
    "license": "WTFPL",
    "resources": {
        "Project page": "https://example.com",
        "Github": "https://github.com/example"
    },
    "tags": [
        "dummy",
        "test"
    ],
    "versions": [{
        "version": "2.1",
        "status": "testing",
        "kicad_version": "5.99",
        "platforms": ["linux", "macos", "windows"]
    }]
}