(module Crystal_SMD_EuroQuartz_MQ-4Pin_7.0x5.0mm (layer F.Cu) (tedit 608D2B47)
  (descr "SMD Crystal EuroQuartz MQ series http://cdn-reichelt.de/documents/datenblatt/B400/MQ.pdf, 7.0x5.0mm^2 package, Alternate KiCad Library")
  (tags "SMD SMT crystal")
  (attr smd)
  (fp_text reference REF** (at 0 -3.7) (layer F.SilkS)
    (effects (font (size 1 1) (thickness 0.15)))
  )
  (fp_text value Crystal_SMD_EuroQuartz_MQ-4Pin_7.0x5.0mm (at 0 3.7) (layer F.Fab)
    (effects (font (size 1 1) (thickness 0.15)))
  )
  (fp_circle (center -4.445 2.6035) (end -4.3815 2.6035) (layer F.SilkS) (width 0.2))
  (fp_line (start 4.5085 2.667) (end -2.9845 2.667) (layer F.SilkS) (width 0.12))
  (fp_line (start 4.5085 -2.667) (end 4.5085 2.667) (layer F.SilkS) (width 0.12))
  (fp_line (start -4.5085 -2.667) (end 4.5085 -2.667) (layer F.SilkS) (width 0.12))
  (fp_line (start -2.54 2.667) (end -4.1275 2.667) (layer F.SilkS) (width 0.12))
  (fp_line (start -4.5085 -2.6035) (end -4.5085 2.286) (layer F.SilkS) (width 0.12))
  (fp_line (start -3.4 -2.5) (end 3.4 -2.5) (layer F.Fab) (width 0.1))
  (fp_line (start 3.4 -2.5) (end 3.5 -2.4) (layer F.Fab) (width 0.1))
  (fp_line (start 3.5 -2.4) (end 3.5 2.4) (layer F.Fab) (width 0.1))
  (fp_line (start 3.5 2.4) (end 3.4 2.5) (layer F.Fab) (width 0.1))
  (fp_line (start 3.4 2.5) (end -3.4 2.5) (layer F.Fab) (width 0.1))
  (fp_line (start -3.4 2.5) (end -3.5 2.4) (layer F.Fab) (width 0.1))
  (fp_line (start -3.5 2.4) (end -3.5 -2.4) (layer F.Fab) (width 0.1))
  (fp_line (start -3.5 -2.4) (end -3.4 -2.5) (layer F.Fab) (width 0.1))
  (fp_line (start -3.5 1.5) (end -2.5 2.5) (layer F.Fab) (width 0.1))
  (fp_line (start -4.5 -2.8) (end -4.5 2.8) (layer F.CrtYd) (width 0.05))
  (fp_line (start -4.5 2.8) (end 4.5 2.8) (layer F.CrtYd) (width 0.05))
  (fp_line (start 4.5 2.8) (end 4.5 -2.8) (layer F.CrtYd) (width 0.05))
  (fp_line (start 4.5 -2.8) (end -4.5 -2.8) (layer F.CrtYd) (width 0.05))
  (fp_text user %R (at 0 0) (layer F.Fab)
    (effects (font (size 1 1) (thickness 0.15)))
  )
  (pad 4 smd rect (at -3.15 -1.25) (size 2.2 1.4) (layers F.Cu F.Paste F.Mask))
  (pad 3 smd rect (at 3.15 -1.25) (size 2.2 1.4) (layers F.Cu F.Paste F.Mask))
  (pad 2 smd rect (at 3.15 1.25) (size 2.2 1.4) (layers F.Cu F.Paste F.Mask))
  (pad 1 smd rect (at -3.15 1.25) (size 2.2 1.4) (layers F.Cu F.Paste F.Mask))
  (model ${KISYS3DMOD}/Crystal.3dshapes/Crystal_SMD_EuroQuartz_MQ-4Pin_7.0x5.0mm.wrl
    (at (xyz 0 0 0))
    (scale (xyz 1 1 1))
    (rotate (xyz 0 0 0))
  )
)
