(module Crystal_SMD_5032-2Pin_5.0x3.2mm_HandSoldering (layer F.Cu) (tedit 608D2A29)
  (descr "SMD Crystal SERIES SMD2520/2 http://www.icbase.com/File/PDF/HKC/HKC00061008.pdf, hand-soldering, 5.0x3.2mm^2 package, Alternate KiCad Library")
  (tags "SMD SMT crystal hand-soldering")
  (attr smd)
  (fp_text reference REF** (at 0 -2.8) (layer F.SilkS)
    (effects (font (size 1 1) (thickness 0.15)))
  )
  (fp_text value Crystal_SMD_5032-2Pin_5.0x3.2mm_HandSoldering (at 0 2.8) (layer F.Fab)
    (effects (font (size 1 1) (thickness 0.15)))
  )
  (fp_line (start -4.6355 -1.8415) (end -4.6355 -1.2065) (layer F.SilkS) (width 0.12))
  (fp_line (start 4.6355 -1.8415) (end -4.6355 -1.8415) (layer F.SilkS) (width 0.12))
  (fp_line (start 4.6355 1.8415) (end 4.6355 -1.8415) (layer F.SilkS) (width 0.12))
  (fp_line (start -4.6355 1.8415) (end 4.6355 1.8415) (layer F.SilkS) (width 0.12))
  (fp_line (start -4.6355 -1.2065) (end -4.6355 1.8415) (layer F.SilkS) (width 0.12))
  (fp_line (start -2.3 -1.6) (end 2.3 -1.6) (layer F.Fab) (width 0.1))
  (fp_line (start 2.3 -1.6) (end 2.5 -1.4) (layer F.Fab) (width 0.1))
  (fp_line (start 2.5 -1.4) (end 2.5 1.4) (layer F.Fab) (width 0.1))
  (fp_line (start 2.5 1.4) (end 2.3 1.6) (layer F.Fab) (width 0.1))
  (fp_line (start 2.3 1.6) (end -2.3 1.6) (layer F.Fab) (width 0.1))
  (fp_line (start -2.3 1.6) (end -2.5 1.4) (layer F.Fab) (width 0.1))
  (fp_line (start -2.5 1.4) (end -2.5 -1.4) (layer F.Fab) (width 0.1))
  (fp_line (start -2.5 -1.4) (end -2.3 -1.6) (layer F.Fab) (width 0.1))
  (fp_line (start -2.5 0.6) (end -1.5 1.6) (layer F.Fab) (width 0.1))
  (fp_line (start -4.6 -1.9) (end -4.6 1.9) (layer F.CrtYd) (width 0.05))
  (fp_line (start -4.6 1.9) (end 4.6 1.9) (layer F.CrtYd) (width 0.05))
  (fp_line (start 4.6 1.9) (end 4.6 -1.9) (layer F.CrtYd) (width 0.05))
  (fp_line (start 4.6 -1.9) (end -4.6 -1.9) (layer F.CrtYd) (width 0.05))
  (fp_circle (center 0 0) (end 0.4 0) (layer F.Adhes) (width 0.1))
  (fp_circle (center 0 0) (end 0.333333 0) (layer F.Adhes) (width 0.133333))
  (fp_circle (center 0 0) (end 0.213333 0) (layer F.Adhes) (width 0.133333))
  (fp_circle (center 0 0) (end 0.093333 0) (layer F.Adhes) (width 0.186667))
  (fp_text user %R (at 0 0) (layer F.Fab)
    (effects (font (size 1 1) (thickness 0.15)))
  )
  (pad 2 smd rect (at 2.6 0) (size 3.5 2.4) (layers F.Cu F.Paste F.Mask))
  (pad 1 smd rect (at -2.6 0) (size 3.5 2.4) (layers F.Cu F.Paste F.Mask))
  (model ${KISYS3DMOD}/Crystal.3dshapes/Crystal_SMD_5032-2Pin_5.0x3.2mm_HandSoldering.wrl
    (at (xyz 0 0 0))
    (scale (xyz 1 1 1))
    (rotate (xyz 0 0 0))
  )
)
