(module Crystal_DS15_D1.5mm_L5.0mm_Horizontal_1EP_style1 (layer F.Cu) (tedit 60783C80)
  (descr "Crystal THT DS15 5.0mm length 1.5mm diameter http://www.microcrystal.com/images/_Product-Documentation/03_TF_metal_Packages/01_Datasheet/DS-Series.pdf, Alternate KiCad Library")
  (tags ['DS15'])
  (fp_text reference REF** (at -1.67 1.25 90) (layer F.SilkS)
    (effects (font (size 1 1) (thickness 0.15)))
  )
  (fp_text value Crystal_DS15_D1.5mm_L5.0mm_Horizontal_1EP_style1 (at 3.37 1.25 90) (layer F.Fab)
    (effects (font (size 1 1) (thickness 0.15)))
  )
  (fp_line (start 2.1 7.25) (end 2.1 1.8) (layer F.SilkS) (width 0.12))
  (fp_line (start -0.4 7.25) (end 2.1 7.25) (layer F.SilkS) (width 0.12))
  (fp_line (start -0.4 7.2) (end -0.4 7.25) (layer F.SilkS) (width 0.12))
  (fp_line (start -0.4 1.8) (end -0.4 7.2) (layer F.SilkS) (width 0.12))
  (fp_line (start 0.1 1.5) (end 0.1 6.5) (layer F.Fab) (width 0.1))
  (fp_line (start 0.1 6.5) (end 1.6 6.5) (layer F.Fab) (width 0.1))
  (fp_line (start 1.6 6.5) (end 1.6 1.5) (layer F.Fab) (width 0.1))
  (fp_line (start 1.6 1.5) (end 0.1 1.5) (layer F.Fab) (width 0.1))
  (fp_line (start 0.6 1.5) (end 0 0.75) (layer F.Fab) (width 0.1))
  (fp_line (start 0 0.75) (end 0 0) (layer F.Fab) (width 0.1))
  (fp_line (start 1.1 1.5) (end 1.7 0.75) (layer F.Fab) (width 0.1))
  (fp_line (start 1.7 0.75) (end 1.7 0) (layer F.Fab) (width 0.1))
  (fp_line (start -0.4 1.8) (end -0.4 1.3) (layer F.SilkS) (width 0.12))
  (fp_line (start -0.4 1.3) (end 2.1 1.3) (layer F.SilkS) (width 0.12))
  (fp_line (start 2.1 1.3) (end 2.1 1.8) (layer F.SilkS) (width 0.12))
  (fp_line (start 0.6 1.3) (end 0 0.7) (layer F.SilkS) (width 0.12))
  (fp_line (start 0 0.7) (end 0 0.7) (layer F.SilkS) (width 0.12))
  (fp_line (start 1.1 1.3) (end 1.7 0.7) (layer F.SilkS) (width 0.12))
  (fp_line (start 1.7 0.7) (end 1.7 0.7) (layer F.SilkS) (width 0.12))
  (fp_line (start -0.8 -0.8) (end -0.8 7.3) (layer F.CrtYd) (width 0.05))
  (fp_line (start -0.8 7.3) (end 2.5 7.3) (layer F.CrtYd) (width 0.05))
  (fp_line (start 2.5 7.3) (end 2.5 -0.8) (layer F.CrtYd) (width 0.05))
  (fp_line (start 2.5 -0.8) (end -0.8 -0.8) (layer F.CrtYd) (width 0.05))
  (fp_text user %R (at 0.75 4 90) (layer F.Fab)
    (effects (font (size 0.6 0.6) (thickness 0.09)))
  )
  (pad 3 smd rect (at 0.85 4.5) (size 2 5) (layers F.Cu F.Paste F.Mask))
  (pad 2 thru_hole circle (at 1.7 0) (size 1 1) (drill 0.5) (layers *.Cu *.Mask))
  (pad 1 thru_hole circle (at 0 0) (size 1 1) (drill 0.5) (layers *.Cu *.Mask))
  (model ${KISYS3DMOD}/Crystal.3dshapes/Crystal_DS15_D1.5mm_L5.0mm_Horizontal_1EP_style1.wrl
    (at (xyz 0 0 0))
    (scale (xyz 1 1 1))
    (rotate (xyz 0 0 0))
  )
)
