(module Crystal_HC52-8mm_Vertical (layer F.Cu) (tedit 60783D53)
  (descr "Crystal THT HC-52/8mm, http://www.kvg-gmbh.de/assets/uploads/files/product_pdfs/XS71xx.pdf, Alternate KiCad Library")
  (tags "THT crystalHC-49/U")
  (fp_text reference REF** (at 1.9 -2.85) (layer F.SilkS)
    (effects (font (size 1 1) (thickness 0.15)))
  )
  (fp_text value Crystal_HC52-8mm_Vertical (at 1.9 2.85) (layer F.Fab)
    (effects (font (size 1 1) (thickness 0.15)))
  )
  (fp_line (start 2.159 1.27) (end 2.159 -1.27) (layer F.SilkS) (width 0.12))
  (fp_line (start 2.413 0) (end 2.794 0) (layer F.SilkS) (width 0.12))
  (fp_line (start 1.651 1.27) (end 2.159 1.27) (layer F.SilkS) (width 0.12))
  (fp_line (start 2.413 -1.016) (end 2.413 1.016) (layer F.SilkS) (width 0.12))
  (fp_line (start 1.397 0) (end 1.397 1.016) (layer F.SilkS) (width 0.12))
  (fp_line (start 1.016 0) (end 1.397 0) (layer F.SilkS) (width 0.12))
  (fp_line (start 1.397 0) (end 1.397 -1.016) (layer F.SilkS) (width 0.12))
  (fp_line (start 2.159 -1.27) (end 1.651 -1.27) (layer F.SilkS) (width 0.12))
  (fp_line (start 1.651 -1.27) (end 1.651 1.27) (layer F.SilkS) (width 0.12))
  (fp_line (start -0.45 -1.65) (end 4.25 -1.65) (layer F.Fab) (width 0.1))
  (fp_line (start -0.45 1.65) (end 4.25 1.65) (layer F.Fab) (width 0.1))
  (fp_line (start -0.45 -1.15) (end 4.25 -1.15) (layer F.Fab) (width 0.1))
  (fp_line (start -0.45 1.15) (end 4.25 1.15) (layer F.Fab) (width 0.1))
  (fp_line (start -0.45 -1.85) (end 4.25 -1.85) (layer F.SilkS) (width 0.12))
  (fp_line (start -0.45 1.85) (end 4.25 1.85) (layer F.SilkS) (width 0.12))
  (fp_line (start -2.6 -2.1) (end -2.6 2.1) (layer F.CrtYd) (width 0.05))
  (fp_line (start -2.6 2.1) (end 6.4 2.1) (layer F.CrtYd) (width 0.05))
  (fp_line (start 6.4 2.1) (end 6.4 -2.1) (layer F.CrtYd) (width 0.05))
  (fp_line (start 6.4 -2.1) (end -2.6 -2.1) (layer F.CrtYd) (width 0.05))
  (fp_arc (start 4.25 0) (end 4.25 -1.85) (angle 180) (layer F.SilkS) (width 0.12))
  (fp_arc (start -0.45 0) (end -0.45 -1.85) (angle -180) (layer F.SilkS) (width 0.12))
  (fp_arc (start 4.25 0) (end 4.25 -1.15) (angle 180) (layer F.Fab) (width 0.1))
  (fp_arc (start -0.45 0) (end -0.45 -1.15) (angle -180) (layer F.Fab) (width 0.1))
  (fp_arc (start 4.25 0) (end 4.25 -1.65) (angle 180) (layer F.Fab) (width 0.1))
  (fp_arc (start -0.45 0) (end -0.45 -1.65) (angle -180) (layer F.Fab) (width 0.1))
  (fp_text user %R (at 1.9 0) (layer F.Fab)
    (effects (font (size 1 1) (thickness 0.15)))
  )
  (pad 2 thru_hole circle (at 3.8 0) (size 1.5 1.5) (drill 0.8) (layers *.Cu *.Mask))
  (pad 1 thru_hole circle (at 0 0) (size 1.5 1.5) (drill 0.8) (layers *.Cu *.Mask))
  (model ${KISYS3DMOD}/Crystal.3dshapes/Crystal_HC52-8mm_Vertical.wrl
    (at (xyz 0 0 0))
    (scale (xyz 1 1 1))
    (rotate (xyz 0 0 0))
  )
)
