(module Crystal_SMD_TXC_AX_8045-2Pin_8.0x4.5mm (layer F.Cu) (tedit 608D2C4E)
  (descr "http://www.txccrystal.com/images/pdf/ax-automotive.pdf, Alternate KiCad Library")
  (tags "SMD SMT crystal")
  (attr smd)
  (fp_text reference REF** (at 0 -3.7) (layer F.SilkS)
    (effects (font (size 1 1) (thickness 0.15)))
  )
  (fp_text value Crystal_SMD_TXC_AX_8045-2Pin_8.0x4.5mm (at 0 4.25) (layer F.Fab)
    (effects (font (size 1 1) (thickness 0.15)))
  )
  (fp_line (start 3.75 2.25) (end 4 2) (layer F.Fab) (width 0.1))
  (fp_line (start 5 -2.95) (end -5 -2.95) (layer F.CrtYd) (width 0.05))
  (fp_line (start 5 2.95) (end 5 -2.95) (layer F.CrtYd) (width 0.05))
  (fp_line (start -5 2.95) (end 5 2.95) (layer F.CrtYd) (width 0.05))
  (fp_line (start -5 -2.95) (end -5 2.95) (layer F.CrtYd) (width 0.05))
  (fp_line (start -4 -2) (end -3.75 -2.25) (layer F.Fab) (width 0.1))
  (fp_line (start -4 2) (end -4 -2) (layer F.Fab) (width 0.1))
  (fp_line (start -3.75 2.25) (end -4 2) (layer F.Fab) (width 0.1))
  (fp_line (start 3.75 2.25) (end -3.75 2.25) (layer F.Fab) (width 0.1))
  (fp_line (start 4 -2) (end 4 2) (layer F.Fab) (width 0.1))
  (fp_line (start 3.75 -2.25) (end 4 -2) (layer F.Fab) (width 0.1))
  (fp_line (start -3.75 -2.25) (end 3.75 -2.25) (layer F.Fab) (width 0.1))
  (fp_line (start -4.7625 -2.54) (end -4.7625 2.54) (layer F.SilkS) (width 0.12))
  (fp_line (start -4.7625 2.54) (end 4.7625 2.54) (layer F.SilkS) (width 0.12))
  (fp_line (start 4.7625 2.54) (end 4.7625 -2.54) (layer F.SilkS) (width 0.12))
  (fp_line (start 4.7625 -2.54) (end -4.7625 -2.54) (layer F.SilkS) (width 0.12))
  (fp_text user %R (at 0 0) (layer F.Fab)
    (effects (font (size 1 1) (thickness 0.15)))
  )
  (pad 2 smd roundrect (at 3.25 0) (size 2.5 3) (layers F.Cu F.Paste F.Mask) (roundrect_rratio 0.25))
  (pad 1 smd roundrect (at -3.25 0) (size 2.5 3) (layers F.Cu F.Paste F.Mask) (roundrect_rratio 0.25))
  (model ${KISYS3DMOD}/Crystal.3dshapes/Crystal_SMD_TXC_AX_8045-2Pin_8.0x4.5mm.wrl
    (at (xyz 0 0 0))
    (scale (xyz 1 1 1))
    (rotate (xyz 0 0 0))
  )
)
