(module Crystal_HC51_Horizontal (layer F.Cu) (tedit 60783D16)
  (descr "Crystal THT HC-51 http://www.crovencrystals.com/croven_pdf/HC-51_Crystal_Holder_Rev_00.pdf, Alternate KiCad Library")
  (tags "THT crystal")
  (fp_text reference REF** (at -4.85 4.7625 90) (layer F.SilkS)
    (effects (font (size 1 1) (thickness 0.15)))
  )
  (fp_text value Crystal_HC51_Horizontal (at 17.2 4.7625 90) (layer F.Fab)
    (effects (font (size 1 1) (thickness 0.15)))
  )
  (fp_line (start 8 4.5) (end 4.5 4.5) (layer F.SilkS) (width 0.12))
  (fp_line (start 8 15.5) (end 8 4.5) (layer F.SilkS) (width 0.12))
  (fp_line (start 4.5 15.5) (end 8 15.5) (layer F.SilkS) (width 0.12))
  (fp_line (start 4.5 4.5) (end 4.5 15.5) (layer F.SilkS) (width 0.12))
  (fp_line (start 8.5 5) (end 8.5 10) (layer F.SilkS) (width 0.12))
  (fp_line (start 8.5 10) (end 8.5 15) (layer F.SilkS) (width 0.12))
  (fp_line (start 12.5 10) (end 8.5 10) (layer F.SilkS) (width 0.12))
  (fp_line (start 12.5 3) (end 12.5 10) (layer F.SilkS) (width 0.12))
  (fp_line (start 4 15) (end 4 10) (layer F.SilkS) (width 0.12))
  (fp_line (start 4 10) (end 4 5) (layer F.SilkS) (width 0.12))
  (fp_line (start 0 10) (end 4 10) (layer F.SilkS) (width 0.12))
  (fp_line (start 0 9) (end 0 10) (layer F.SilkS) (width 0.12))
  (fp_line (start 0 3) (end 0 9) (layer F.SilkS) (width 0.12))
  (fp_line (start -3.475 2.5) (end -3.475 22.2) (layer F.Fab) (width 0.1))
  (fp_line (start -3.475 22.2) (end 15.825 22.2) (layer F.Fab) (width 0.1))
  (fp_line (start 15.825 22.2) (end 15.825 2.5) (layer F.Fab) (width 0.1))
  (fp_line (start 15.825 2.5) (end -3.475 2.5) (layer F.Fab) (width 0.1))
  (fp_line (start 0 2.5) (end 0 1.25) (layer F.Fab) (width 0.1))
  (fp_line (start 0 1.25) (end 0 0) (layer F.Fab) (width 0.1))
  (fp_line (start 12.35 2.5) (end 12.35 1.25) (layer F.Fab) (width 0.1))
  (fp_line (start 12.35 1.25) (end 12.35 0) (layer F.Fab) (width 0.1))
  (fp_line (start -3.825 2.5) (end -3.825 2.4) (layer F.Fab) (width 0.1))
  (fp_line (start -3.825 2.4) (end 16.175 2.4) (layer F.Fab) (width 0.1))
  (fp_line (start 16.175 2.4) (end 16.175 2.5) (layer F.Fab) (width 0.1))
  (fp_line (start 16.175 2.5) (end -3.825 2.5) (layer F.Fab) (width 0.1))
  (fp_line (start -3.675 2.3) (end -3.675 22.4) (layer F.SilkS) (width 0.12))
  (fp_line (start -3.675 22.4) (end 16.025 22.4) (layer F.SilkS) (width 0.12))
  (fp_line (start 16.025 22.4) (end 16.025 2.3) (layer F.SilkS) (width 0.12))
  (fp_line (start 16.025 2.3) (end -3.675 2.3) (layer F.SilkS) (width 0.12))
  (fp_line (start 0 2.3) (end 0 1.35) (layer F.SilkS) (width 0.12))
  (fp_line (start 0 1.35) (end 0 1.35) (layer F.SilkS) (width 0.12))
  (fp_line (start 12.35 2.3) (end 12.35 1.35) (layer F.SilkS) (width 0.12))
  (fp_line (start 12.35 1.35) (end 12.35 1.35) (layer F.SilkS) (width 0.12))
  (fp_line (start -4.025 2.3) (end -4.025 2.18) (layer F.SilkS) (width 0.12))
  (fp_line (start -4.025 2.18) (end 16.375 2.18) (layer F.SilkS) (width 0.12))
  (fp_line (start 16.375 2.18) (end 16.375 2.3) (layer F.SilkS) (width 0.12))
  (fp_line (start 16.375 2.3) (end -4.025 2.3) (layer F.SilkS) (width 0.12))
  (fp_line (start -4.6 -1.4) (end -4.6 23.3) (layer F.CrtYd) (width 0.05))
  (fp_line (start -4.6 23.3) (end 17 23.3) (layer F.CrtYd) (width 0.05))
  (fp_line (start 17 23.3) (end 17 -1.4) (layer F.CrtYd) (width 0.05))
  (fp_line (start 17 -1.4) (end -4.6 -1.4) (layer F.CrtYd) (width 0.05))
  (fp_text user %R (at 6.25 8.25) (layer F.Fab)
    (effects (font (size 1 1) (thickness 0.15)))
  )
  (pad 2 thru_hole circle (at 12.35 0) (size 2.3 2.3) (drill 1.2) (layers *.Cu *.Mask))
  (pad 1 thru_hole circle (at 0 0) (size 2.3 2.3) (drill 1.2) (layers *.Cu *.Mask))
  (model ${KISYS3DMOD}/Crystal.3dshapes/Crystal_HC51_Horizontal.wrl
    (at (xyz 0 0 0))
    (scale (xyz 1 1 1))
    (rotate (xyz 0 0 0))
  )
)
