(module Crystal_DS26_D2.0mm_L6.0mm_Horizontal_1EP_style2 (layer F.Cu) (tedit 60783C9A)
  (descr "Crystal THT DS26 6.0mm length 2.0mm diameter http://www.microcrystal.com/images/_Product-Documentation/03_TF_metal_Packages/01_Datasheet/DS-Series.pdf, Alternate KiCad Library")
  (tags ['DS26'])
  (fp_text reference REF** (at -1.82 1.625 90) (layer F.SilkS)
    (effects (font (size 1 1) (thickness 0.15)))
  )
  (fp_text value Crystal_DS26_D2.0mm_L6.0mm_Horizontal_1EP_style2 (at 3.72 1.625 90) (layer F.Fab)
    (effects (font (size 1 1) (thickness 0.15)))
  )
  (fp_line (start 2.45 8.75) (end 2.45 6.2) (layer F.SilkS) (width 0.12))
  (fp_line (start -0.55 8.75) (end 2.45 8.75) (layer F.SilkS) (width 0.12))
  (fp_line (start -0.55 6.2) (end -0.55 8.75) (layer F.SilkS) (width 0.12))
  (fp_line (start -0.05 2) (end -0.05 8) (layer F.Fab) (width 0.1))
  (fp_line (start -0.05 8) (end 1.95 8) (layer F.Fab) (width 0.1))
  (fp_line (start 1.95 8) (end 1.95 2) (layer F.Fab) (width 0.1))
  (fp_line (start 1.95 2) (end -0.05 2) (layer F.Fab) (width 0.1))
  (fp_line (start 0.6 2) (end 0 1) (layer F.Fab) (width 0.1))
  (fp_line (start 0 1) (end 0 0) (layer F.Fab) (width 0.1))
  (fp_line (start 1.3 2) (end 1.9 1) (layer F.Fab) (width 0.1))
  (fp_line (start 1.9 1) (end 1.9 0) (layer F.Fab) (width 0.1))
  (fp_line (start -0.55 5.5) (end 2.45 5.5) (layer F.Fab) (width 0.1))
  (fp_line (start -0.55 4.8) (end -0.55 1.8) (layer F.SilkS) (width 0.12))
  (fp_line (start -0.55 1.8) (end 2.45 1.8) (layer F.SilkS) (width 0.12))
  (fp_line (start 2.45 1.8) (end 2.45 4.8) (layer F.SilkS) (width 0.12))
  (fp_line (start 0.6 1.8) (end 0 0.9) (layer F.SilkS) (width 0.12))
  (fp_line (start 0 0.9) (end 0 0.7) (layer F.SilkS) (width 0.12))
  (fp_line (start 1.3 1.8) (end 1.9 0.9) (layer F.SilkS) (width 0.12))
  (fp_line (start 1.9 0.9) (end 1.9 0.7) (layer F.SilkS) (width 0.12))
  (fp_line (start -1.3 -0.8) (end -1.3 8.8) (layer F.CrtYd) (width 0.05))
  (fp_line (start -1.3 8.8) (end 3.2 8.8) (layer F.CrtYd) (width 0.05))
  (fp_line (start 3.2 8.8) (end 3.2 -0.8) (layer F.CrtYd) (width 0.05))
  (fp_line (start 3.2 -0.8) (end -1.3 -0.8) (layer F.CrtYd) (width 0.05))
  (fp_text user %R (at -0.75 2.5 90) (layer F.Fab)
    (effects (font (size 1 1) (thickness 0.15)))
  )
  (pad 3 thru_hole rect (at 2.45 5.5) (size 1 1) (drill 0.5) (layers *.Cu *.Mask))
  (pad 3 thru_hole rect (at -0.55 5.5) (size 1 1) (drill 0.5) (layers *.Cu *.Mask))
  (pad 3 smd rect (at 0.95 5.5) (size 2.5 6) (layers F.Cu F.Paste F.Mask))
  (pad 2 thru_hole circle (at 1.9 0) (size 1 1) (drill 0.5) (layers *.Cu *.Mask))
  (pad 1 thru_hole circle (at 0 0) (size 1 1) (drill 0.5) (layers *.Cu *.Mask))
  (model ${KISYS3DMOD}/Crystal.3dshapes/Crystal_DS26_D2.0mm_L6.0mm_Horizontal_1EP_style2.wrl
    (at (xyz 0 0 0))
    (scale (xyz 1 1 1))
    (rotate (xyz 0 0 0))
  )
)
