(module Crystal_SMD_MicroCrystal_MS3V-T1R (layer F.Cu) (tedit 608D2BD3)
  (descr "SMD Watch Crystal MicroCrystal MS3V-T1R 5.2mm length 1.4mm diameter http://www.microcrystal.com/images/_Product-Documentation/03_TF_metal_Packages/01_Datasheet/MS3V-T1R.pdf, Alternate KiCad Library")
  (tags ['MS3V-T1R'])
  (attr smd)
  (fp_text reference REF** (at -2.07 -1.9625 90) (layer F.SilkS)
    (effects (font (size 1 1) (thickness 0.15)))
  )
  (fp_text value Crystal_SMD_MicroCrystal_MS3V-T1R (at 2.07 -1.9625 90) (layer F.Fab)
    (effects (font (size 1 1) (thickness 0.15)))
  )
  (fp_line (start 1.5 -3.93) (end -1.5 -3.93) (layer F.CrtYd) (width 0.05))
  (fp_line (start 1.5 3.97) (end 1.5 -3.93) (layer F.CrtYd) (width 0.05))
  (fp_line (start -1.5 3.97) (end 1.5 3.97) (layer F.CrtYd) (width 0.05))
  (fp_line (start -1.5 -3.93) (end -1.5 3.97) (layer F.CrtYd) (width 0.05))
  (fp_line (start 0.5 -2.375) (end 0.5 -2.375) (layer F.SilkS) (width 0.12))
  (fp_line (start 0.35 -2.125) (end 0.5 -2.375) (layer F.SilkS) (width 0.12))
  (fp_line (start -0.5 -2.375) (end -0.5 -2.375) (layer F.SilkS) (width 0.12))
  (fp_line (start -0.35 -2.125) (end -0.5 -2.375) (layer F.SilkS) (width 0.12))
  (fp_line (start 0.95 -2.125) (end 0.95 1.075) (layer F.SilkS) (width 0.12))
  (fp_line (start -0.95 -2.125) (end 0.95 -2.125) (layer F.SilkS) (width 0.12))
  (fp_line (start -0.95 1.075) (end -0.95 -2.125) (layer F.SilkS) (width 0.12))
  (fp_line (start 0.5 -2.525) (end 0.5 -3.125) (layer F.Fab) (width 0.1))
  (fp_line (start 0.35 -1.925) (end 0.5 -2.525) (layer F.Fab) (width 0.1))
  (fp_line (start -0.5 -2.525) (end -0.5 -3.125) (layer F.Fab) (width 0.1))
  (fp_line (start -0.35 -1.925) (end -0.5 -2.525) (layer F.Fab) (width 0.1))
  (fp_line (start 0.7 -1.925) (end -0.7 -1.925) (layer F.Fab) (width 0.1))
  (fp_line (start 0.7 3.275) (end 0.7 -1.925) (layer F.Fab) (width 0.1))
  (fp_line (start -0.7 3.275) (end 0.7 3.275) (layer F.Fab) (width 0.1))
  (fp_line (start -0.7 -1.925) (end -0.7 3.275) (layer F.Fab) (width 0.1))
  (fp_text user %R (at 0 0.075) (layer F.Fab)
    (effects (font (size 0.5 0.5) (thickness 0.075)))
  )
  (pad 3 smd rect (at 0 2.475) (size 1.5 2.4) (layers F.Cu F.Paste F.Mask))
  (pad 2 smd rect (at 0.5 -3.125) (size 0.6 1.1) (layers F.Cu F.Paste F.Mask))
  (pad 1 smd rect (at -0.5 -3.125) (size 0.6 1.1) (layers F.Cu F.Paste F.Mask))
  (model ${KISYS3DMOD}/Crystal.3dshapes/Crystal_SMD_MicroCrystal_MS3V-T1R.wrl
    (offset (xyz 0 0.3249999953589897 0))
    (scale (xyz 1 1 1))
    (rotate (xyz 0 0 0))
  )
)
