(module Crystal_SMD_SeikoEpson_MA406-4Pin_11.7x4.0mm (layer F.Cu) (tedit 60783F1F)
  (descr "SMD Crystal Seiko Epson MC-506 http://media.digikey.com/pdf/Data%20Sheets/Epson%20PDFs/MA-505,506.pdf, 11.7x4.0mm^2 package, Alternate KiCad Library")
  (tags "SMD SMT crystal")
  (attr smd)
  (fp_text reference REF** (at 0 -3.75) (layer F.SilkS)
    (effects (font (size 1 1) (thickness 0.15)))
  )
  (fp_text value Crystal_SMD_SeikoEpson_MA406-4Pin_11.7x4.0mm (at 0 3.75) (layer F.Fab)
    (effects (font (size 1 1) (thickness 0.15)))
  )
  (fp_line (start 6.1 -3) (end -6.1 -3) (layer F.CrtYd) (width 0.05))
  (fp_line (start 6.1 3) (end 6.1 -3) (layer F.CrtYd) (width 0.05))
  (fp_line (start -6.1 3) (end 6.1 3) (layer F.CrtYd) (width 0.05))
  (fp_line (start -6.1 -3) (end -6.1 3) (layer F.CrtYd) (width 0.05))
  (fp_line (start 3.7 2.2) (end -3.7 2.2) (layer F.SilkS) (width 0.12))
  (fp_line (start -6.05 2.2) (end -5.9 2.2) (layer F.SilkS) (width 0.12))
  (fp_line (start -6.05 -2.2) (end -5.9 -2.2) (layer F.SilkS) (width 0.12))
  (fp_line (start -6.05 2.2) (end -6.05 0.5) (layer F.SilkS) (width 0.12))
  (fp_line (start -6.05 -0.5) (end -6.05 -2.2) (layer F.SilkS) (width 0.12))
  (fp_line (start -3.7 -2.2) (end 3.7 -2.2) (layer F.SilkS) (width 0.12))
  (fp_line (start 6.05 2.2) (end 5.9 2.2) (layer F.SilkS) (width 0.12))
  (fp_line (start 6.05 -2.2) (end 6.05 2.2) (layer F.SilkS) (width 0.12))
  (fp_line (start 5.9 -2.2) (end 6.05 -2.2) (layer F.SilkS) (width 0.12))
  (fp_line (start -5.85 2) (end -5.85 0.5) (layer F.Fab) (width 0.1))
  (fp_line (start 5.85 2) (end -5.85 2) (layer F.Fab) (width 0.1))
  (fp_line (start 5.85 -2) (end 5.85 2) (layer F.Fab) (width 0.1))
  (fp_line (start -5.85 -2) (end 5.85 -2) (layer F.Fab) (width 0.1))
  (fp_line (start -5.85 -0.5) (end -5.85 -2) (layer F.Fab) (width 0.1))
  (fp_arc (start -6.05 0) (end -6.05 -0.5) (angle 180) (layer F.SilkS) (width 0.12))
  (fp_arc (start -5.85 0) (end -5.85 -0.5) (angle 180) (layer F.Fab) (width 0.1))
  (fp_text user %R (at 0 0) (layer F.Fab)
    (effects (font (size 1 1) (thickness 0.15)))
  )
  (pad 4 smd rect (at -4.8 -1.8) (size 1.8 1.9) (layers F.Cu F.Paste F.Mask))
  (pad 3 smd rect (at 4.8 -1.8) (size 1.8 1.9) (layers F.Cu F.Paste F.Mask))
  (pad 2 smd rect (at 4.8 1.8) (size 1.8 1.9) (layers F.Cu F.Paste F.Mask))
  (pad 1 smd rect (at -4.8 1.8) (size 1.8 1.9) (layers F.Cu F.Paste F.Mask))
  (model ${KISYS3DMOD}/Crystal.3dshapes/Crystal_SMD_SeikoEpson_MA406-4Pin_11.7x4.0mm.wrl
    (at (xyz 0 0 0))
    (scale (xyz 1 1 1))
    (rotate (xyz 0 0 0))
  )
)
