(module Crystal_HC33-U_Horizontal_1EP_style2 (layer F.Cu) (tedit 60783CC4)
  (descr "Crystal THT HC-33/U http://pdi.bentech-taiwan.com/PDI/GEN20SPEV20HC3320U.pdf, Alternate KiCad Library")
  (tags "THT crystal")
  (fp_text reference REF** (at -5.205 4.725 90) (layer F.SilkS)
    (effects (font (size 1 1) (thickness 0.15)))
  )
  (fp_text value Crystal_HC33-U_Horizontal_1EP_style2 (at 17.545 4.725 90) (layer F.Fab)
    (effects (font (size 1 1) (thickness 0.15)))
  )
  (fp_line (start -4.05 23.25) (end -4.05 13.55) (layer F.SilkS) (width 0.12))
  (fp_line (start -4 23.25) (end -4.05 23.25) (layer F.SilkS) (width 0.12))
  (fp_line (start 16.4 23.25) (end -4 23.25) (layer F.SilkS) (width 0.12))
  (fp_line (start 16.4 13.55) (end 16.4 23.25) (layer F.SilkS) (width 0.12))
  (fp_line (start -3.445 2.5) (end -3.445 22.2) (layer F.Fab) (width 0.1))
  (fp_line (start -3.445 22.2) (end 15.785 22.2) (layer F.Fab) (width 0.1))
  (fp_line (start 15.785 22.2) (end 15.785 2.5) (layer F.Fab) (width 0.1))
  (fp_line (start 15.785 2.5) (end -3.445 2.5) (layer F.Fab) (width 0.1))
  (fp_line (start 0 2.5) (end 0 1.25) (layer F.Fab) (width 0.1))
  (fp_line (start 0 1.25) (end 0 0) (layer F.Fab) (width 0.1))
  (fp_line (start 12.34 2.5) (end 12.34 1.25) (layer F.Fab) (width 0.1))
  (fp_line (start 12.34 1.25) (end 12.34 0) (layer F.Fab) (width 0.1))
  (fp_line (start -4.23 12.75) (end 16.57 12.75) (layer F.Fab) (width 0.1))
  (fp_line (start -3.795 2.5) (end -3.795 2.4) (layer F.Fab) (width 0.1))
  (fp_line (start -3.795 2.4) (end 16.135 2.4) (layer F.Fab) (width 0.1))
  (fp_line (start 16.135 2.4) (end 16.135 2.5) (layer F.Fab) (width 0.1))
  (fp_line (start 16.135 2.5) (end -3.795 2.5) (layer F.Fab) (width 0.1))
  (fp_line (start -4.05 11.95) (end -4.05 2.3) (layer F.SilkS) (width 0.12))
  (fp_line (start -4.03 2.3) (end 16.37 2.3) (layer F.SilkS) (width 0.12))
  (fp_line (start 16.4 2.3) (end 16.4 11.95) (layer F.SilkS) (width 0.12))
  (fp_line (start 0 2.3) (end 0 1.55) (layer F.SilkS) (width 0.12))
  (fp_line (start 0 1.55) (end 0 1.55) (layer F.SilkS) (width 0.12))
  (fp_line (start 12.34 2.3) (end 12.34 1.55) (layer F.SilkS) (width 0.12))
  (fp_line (start 12.34 1.55) (end 12.34 1.55) (layer F.SilkS) (width 0.12))
  (fp_line (start -4.38 2.3) (end -4.38 2.18) (layer F.SilkS) (width 0.12))
  (fp_line (start -4.38 2.18) (end 16.72 2.18) (layer F.SilkS) (width 0.12))
  (fp_line (start 16.72 2.18) (end 16.72 2.3) (layer F.SilkS) (width 0.12))
  (fp_line (start 16.72 2.3) (end -4.38 2.3) (layer F.SilkS) (width 0.12))
  (fp_line (start -5.1 -1.6) (end -5.1 23.7) (layer F.CrtYd) (width 0.05))
  (fp_line (start -5.1 23.7) (end 17.5 23.7) (layer F.CrtYd) (width 0.05))
  (fp_line (start 17.5 23.7) (end 17.5 -1.6) (layer F.CrtYd) (width 0.05))
  (fp_line (start 17.5 -1.6) (end -5.1 -1.6) (layer F.CrtYd) (width 0.05))
  (fp_text user %R (at 6.17 10.825) (layer F.Fab)
    (effects (font (size 1 1) (thickness 0.15)))
  )
  (pad 3 thru_hole rect (at 16.57 12.75) (size 1.2 1.2) (drill 0.8) (layers *.Cu *.Mask))
  (pad 3 thru_hole rect (at -4.23 12.75) (size 1.2 1.2) (drill 0.8) (layers *.Cu *.Mask))
  (pad 3 smd rect (at 6.17 12.75) (size 20 20.5) (layers F.Cu F.Paste F.Mask))
  (pad 2 thru_hole circle (at 12.34 0) (size 2.7 2.7) (drill 1.7) (layers *.Cu *.Mask))
  (pad 1 thru_hole circle (at 0 0) (size 2.7 2.7) (drill 1.7) (layers *.Cu *.Mask))
  (model ${KISYS3DMOD}/Crystal.3dshapes/Crystal_HC33-U_Horizontal_1EP_style2.wrl
    (at (xyz 0 0 0))
    (scale (xyz 1 1 1))
    (rotate (xyz 0 0 0))
  )
)
