(module Crystal_DS10_D1.0mm_L4.3mm_Horizontal_1EP_style1 (layer F.Cu) (tedit 60783C6B)
  (descr "Crystal THT DS10 4.3mm length 1.0mm diameter http://www.microcrystal.com/images/_Product-Documentation/03_TF_metal_Packages/01_Datasheet/DS-Series.pdf, Alternate KiCad Library")
  (tags ['DS10'])
  (fp_text reference REF** (at -1.52 1.075 90) (layer F.SilkS)
    (effects (font (size 1 1) (thickness 0.15)))
  )
  (fp_text value Crystal_DS10_D1.0mm_L4.3mm_Horizontal_1EP_style1 (at 3.02 1.075 90) (layer F.Fab)
    (effects (font (size 1 1) (thickness 0.15)))
  )
  (fp_line (start 1.75 6.5) (end 1.75 1.8) (layer F.SilkS) (width 0.12))
  (fp_line (start 1.7 6.5) (end 1.75 6.5) (layer F.SilkS) (width 0.12))
  (fp_line (start -0.25 6.5) (end 1.7 6.5) (layer F.SilkS) (width 0.12))
  (fp_line (start 0.25 1.5) (end 0.25 5.8) (layer F.Fab) (width 0.1))
  (fp_line (start 0.25 5.8) (end 1.25 5.8) (layer F.Fab) (width 0.1))
  (fp_line (start 1.25 5.8) (end 1.25 1.5) (layer F.Fab) (width 0.1))
  (fp_line (start 1.25 1.5) (end 0.25 1.5) (layer F.Fab) (width 0.1))
  (fp_line (start 0.6 1.5) (end 0 0.75) (layer F.Fab) (width 0.1))
  (fp_line (start 0 0.75) (end 0 0) (layer F.Fab) (width 0.1))
  (fp_line (start 0.9 1.5) (end 1.5 0.75) (layer F.Fab) (width 0.1))
  (fp_line (start 1.5 0.75) (end 1.5 0) (layer F.Fab) (width 0.1))
  (fp_line (start -0.25 6.5) (end -0.25 1.3) (layer F.SilkS) (width 0.12))
  (fp_line (start -0.25 1.3) (end 1.75 1.3) (layer F.SilkS) (width 0.12))
  (fp_line (start 1.75 1.3) (end 1.75 1.8) (layer F.SilkS) (width 0.12))
  (fp_line (start 0.6 1.3) (end 0 0.7) (layer F.SilkS) (width 0.12))
  (fp_line (start 0 0.7) (end 0 0.7) (layer F.SilkS) (width 0.12))
  (fp_line (start 0.9 1.3) (end 1.5 0.7) (layer F.SilkS) (width 0.12))
  (fp_line (start 1.5 0.7) (end 1.5 0.7) (layer F.SilkS) (width 0.12))
  (fp_line (start -0.8 -0.8) (end -0.8 6.6) (layer F.CrtYd) (width 0.05))
  (fp_line (start -0.8 6.6) (end 2.3 6.6) (layer F.CrtYd) (width 0.05))
  (fp_line (start 2.3 6.6) (end 2.3 -0.8) (layer F.CrtYd) (width 0.05))
  (fp_line (start 2.3 -0.8) (end -0.8 -0.8) (layer F.CrtYd) (width 0.05))
  (fp_text user %R (at 0.75 3.75 90) (layer F.Fab)
    (effects (font (size 0.6 0.6) (thickness 0.09)))
  )
  (pad 3 smd rect (at 0.75 4.15) (size 1.5 4.3) (layers F.Cu F.Paste F.Mask))
  (pad 2 thru_hole circle (at 1.5 0) (size 1 1) (drill 0.5) (layers *.Cu *.Mask))
  (pad 1 thru_hole circle (at 0 0) (size 1 1) (drill 0.5) (layers *.Cu *.Mask))
  (model ${KISYS3DMOD}/Crystal.3dshapes/Crystal_DS10_D1.0mm_L4.3mm_Horizontal_1EP_style1.wrl
    (at (xyz 0 0 0))
    (scale (xyz 1 1 1))
    (rotate (xyz 0 0 0))
  )
)
