(module Crystal_SMD_SeikoEpson_MC405-2Pin_9.6x4.1mm (layer F.Cu) (tedit 608D2C12)
  (descr "SMD Crystal Seiko Epson MC-405 https://support.epson.biz/td/api/doc_check.php?dl=brief_MC-306_en.pdf, 9.6x4.1mm^2 package, Alternate KiCad Library")
  (tags "SMD SMT crystal")
  (attr smd)
  (fp_text reference REF** (at 0 -3.23) (layer F.SilkS)
    (effects (font (size 1 1) (thickness 0.15)))
  )
  (fp_text value Crystal_SMD_SeikoEpson_MC405-2Pin_9.6x4.1mm (at 0 3.23) (layer F.Fab)
    (effects (font (size 1 1) (thickness 0.15)))
  )
  (fp_line (start 6.3 -2.3) (end -6.3 -2.3) (layer F.CrtYd) (width 0.05))
  (fp_line (start 6.3 2.3) (end 6.3 -2.3) (layer F.CrtYd) (width 0.05))
  (fp_line (start -6.3 2.3) (end 6.3 2.3) (layer F.CrtYd) (width 0.05))
  (fp_line (start -6.3 -2.3) (end -6.3 2.3) (layer F.CrtYd) (width 0.05))
  (fp_line (start -4.8 1.03) (end -3.8 2.03) (layer F.Fab) (width 0.1))
  (fp_line (start 4.8 -2.03) (end -4.8 -2.03) (layer F.Fab) (width 0.1))
  (fp_line (start 4.8 2.03) (end 4.8 -2.03) (layer F.Fab) (width 0.1))
  (fp_line (start -4.8 2.03) (end 4.8 2.03) (layer F.Fab) (width 0.1))
  (fp_line (start -4.8 -2.03) (end -4.8 2.03) (layer F.Fab) (width 0.1))
  (fp_line (start -6.2865 -2.286) (end -6.2865 2.286) (layer F.SilkS) (width 0.12))
  (fp_line (start -6.2865 2.286) (end 6.2865 2.286) (layer F.SilkS) (width 0.12))
  (fp_line (start 6.2865 2.286) (end 6.2865 -2.286) (layer F.SilkS) (width 0.12))
  (fp_line (start 6.2865 -2.286) (end -6.2865 -2.286) (layer F.SilkS) (width 0.12))
  (fp_text user %R (at 0 0) (layer F.Fab)
    (effects (font (size 1 1) (thickness 0.15)))
  )
  (pad 2 smd rect (at 4 0) (size 4.1 4.1) (layers F.Cu F.Paste F.Mask))
  (pad 1 smd rect (at -4 0) (size 4.1 4.1) (layers F.Cu F.Paste F.Mask))
  (model ${KISYS3DMOD}/Crystal.3dshapes/Crystal_SMD_SeikoEpson_MC405-2Pin_9.6x4.1mm.wrl
    (at (xyz 0 0 0))
    (scale (xyz 1 1 1))
    (rotate (xyz 0 0 0))
  )
)
