(module Crystal_SMD_MicroCrystal_CC8V-T1A-2Pin_2.0x1.2mm (layer F.Cu) (tedit 60783EDD)
  (descr "SMD Crystal MicroCrystal CC8V-T1A/CM8V-T1A series https://www.microcrystal.com/fileadmin/Media/Products/32kHz/Datasheet/CC8V-T1A.pdf, 2.0x1.2mm^2 package, Alternate KiCad Library")
  (tags "SMD SMT crystal")
  (attr smd)
  (fp_text reference REF** (at 0 -1.8) (layer F.SilkS)
    (effects (font (size 1 1) (thickness 0.15)))
  )
  (fp_text value Crystal_SMD_MicroCrystal_CC8V-T1A-2Pin_2.0x1.2mm (at 0 1.8) (layer F.Fab)
    (effects (font (size 1 1) (thickness 0.15)))
  )
  (fp_line (start 1.397 -1.016) (end -1.397 -1.016) (layer F.SilkS) (width 0.12))
  (fp_line (start 1.397 1.016) (end 1.397 -1.016) (layer F.SilkS) (width 0.12))
  (fp_line (start -1.397 1.016) (end 1.397 1.016) (layer F.SilkS) (width 0.12))
  (fp_line (start -1.397 0.9525) (end -1.397 1.016) (layer F.SilkS) (width 0.12))
  (fp_line (start -1.397 -1.016) (end -1.397 0.9525) (layer F.SilkS) (width 0.12))
  (fp_line (start -1 -0.6) (end -1 0.6) (layer F.Fab) (width 0.1))
  (fp_line (start -1 0.6) (end 1 0.6) (layer F.Fab) (width 0.1))
  (fp_line (start 1 0.6) (end 1 -0.6) (layer F.Fab) (width 0.1))
  (fp_line (start 1 -0.6) (end -1 -0.6) (layer F.Fab) (width 0.1))
  (fp_line (start -1 0.1) (end -0.5 0.6) (layer F.Fab) (width 0.1))
  (fp_line (start -1.4 -1) (end -1.4 1) (layer F.CrtYd) (width 0.05))
  (fp_line (start -1.4 1) (end 1.4 1) (layer F.CrtYd) (width 0.05))
  (fp_line (start 1.4 1) (end 1.4 -1) (layer F.CrtYd) (width 0.05))
  (fp_line (start 1.4 -1) (end -1.4 -1) (layer F.CrtYd) (width 0.05))
  (fp_text user %R (at 0 0) (layer F.Fab)
    (effects (font (size 0.5 0.5) (thickness 0.075)))
  )
  (pad 2 smd rect (at 0.75 0) (size 0.8 1.5) (layers F.Cu F.Paste F.Mask))
  (pad 1 smd rect (at -0.75 0) (size 0.8 1.5) (layers F.Cu F.Paste F.Mask))
  (model ${KISYS3DMOD}/Crystal.3dshapes/Crystal_SMD_MicroCrystal_CC8V-T1A-2Pin_2.0x1.2mm.wrl
    (at (xyz 0 0 0))
    (scale (xyz 1 1 1))
    (rotate (xyz 0 0 0))
  )
)
