(module Crystal_SMD_TXC_9HT11-2Pin_2.0x1.2mm (layer F.Cu) (tedit 60783FB0)
  (descr "SMD Crystal TXC 9HT11 http://txccrystal.com/images/pdf/9ht11.pdf, 2.0x1.2mm^2 package, Alternate KiCad Library")
  (tags "SMD SMT crystal")
  (attr smd)
  (fp_text reference REF** (at 0 -1.8) (layer F.SilkS)
    (effects (font (size 1 1) (thickness 0.15)))
  )
  (fp_text value Crystal_SMD_TXC_9HT11-2Pin_2.0x1.2mm (at 0 1.8) (layer F.Fab)
    (effects (font (size 1 1) (thickness 0.15)))
  )
  (fp_line (start 1.27 -0.8255) (end -1.27 -0.8255) (layer F.SilkS) (width 0.12))
  (fp_line (start 1.27 0.8255) (end 1.27 -0.8255) (layer F.SilkS) (width 0.12))
  (fp_line (start -1.27 0.8255) (end 1.27 0.8255) (layer F.SilkS) (width 0.12))
  (fp_line (start -1.27 -0.8255) (end -1.27 0.8255) (layer F.SilkS) (width 0.12))
  (fp_line (start -1 -0.6) (end -1 0.6) (layer F.Fab) (width 0.1))
  (fp_line (start -1 0.6) (end 1 0.6) (layer F.Fab) (width 0.1))
  (fp_line (start 1 0.6) (end 1 -0.6) (layer F.Fab) (width 0.1))
  (fp_line (start 1 -0.6) (end -1 -0.6) (layer F.Fab) (width 0.1))
  (fp_line (start -1 0.1) (end -0.5 0.6) (layer F.Fab) (width 0.1))
  (fp_line (start -1.3 -0.9) (end -1.3 0.9) (layer F.CrtYd) (width 0.05))
  (fp_line (start -1.3 0.9) (end 1.3 0.9) (layer F.CrtYd) (width 0.05))
  (fp_line (start 1.3 0.9) (end 1.3 -0.9) (layer F.CrtYd) (width 0.05))
  (fp_line (start 1.3 -0.9) (end -1.3 -0.9) (layer F.CrtYd) (width 0.05))
  (fp_circle (center 0 0) (end 0.2 0) (layer F.Adhes) (width 0.1))
  (fp_circle (center 0 0) (end 0.166667 0) (layer F.Adhes) (width 0.066667))
  (fp_circle (center 0 0) (end 0.106667 0) (layer F.Adhes) (width 0.066667))
  (fp_circle (center 0 0) (end 0.046667 0) (layer F.Adhes) (width 0.093333))
  (fp_text user %R (at 0 0) (layer F.Fab)
    (effects (font (size 0.5 0.5) (thickness 0.075)))
  )
  (pad 2 smd rect (at 0.7 0) (size 0.6 1.1) (layers F.Cu F.Paste F.Mask))
  (pad 1 smd rect (at -0.7 0) (size 0.6 1.1) (layers F.Cu F.Paste F.Mask))
  (model ${KISYS3DMOD}/Crystal.3dshapes/Crystal_SMD_TXC_9HT11-2Pin_2.0x1.2mm.wrl
    (at (xyz 0 0 0))
    (scale (xyz 1 1 1))
    (rotate (xyz 0 0 0))
  )
)
