(module Crystal_C38-LF_D3.0mm_L8.0mm_Horizontal_1EP_style2 (layer F.Cu) (tedit 60783C5B)
  (descr "Crystal THT C38-LF 8.0mm length 3.0mm diameter, Alternate KiCad Library")
  (tags ['C38-LF'])
  (fp_text reference REF** (at -2.07 2.25 90) (layer F.SilkS)
    (effects (font (size 1 1) (thickness 0.15)))
  )
  (fp_text value Crystal_C38-LF_D3.0mm_L8.0mm_Horizontal_1EP_style2 (at 3.97 2.25 90) (layer F.Fab)
    (effects (font (size 1 1) (thickness 0.15)))
  )
  (fp_line (start 2.7305 11.2395) (end 2.7305 7.874) (layer F.SilkS) (width 0.12))
  (fp_line (start -0.8255 11.2395) (end 2.7305 11.2395) (layer F.SilkS) (width 0.12))
  (fp_line (start -0.8255 7.874) (end -0.8255 11.2395) (layer F.SilkS) (width 0.12))
  (fp_line (start -0.55 2.5) (end -0.55 10.5) (layer F.Fab) (width 0.1))
  (fp_line (start -0.55 10.5) (end 2.45 10.5) (layer F.Fab) (width 0.1))
  (fp_line (start 2.45 10.5) (end 2.45 2.5) (layer F.Fab) (width 0.1))
  (fp_line (start 2.45 2.5) (end -0.55 2.5) (layer F.Fab) (width 0.1))
  (fp_line (start 0.405 2.5) (end 0 1.25) (layer F.Fab) (width 0.1))
  (fp_line (start 0 1.25) (end 0 0) (layer F.Fab) (width 0.1))
  (fp_line (start 1.495 2.5) (end 1.9 1.25) (layer F.Fab) (width 0.1))
  (fp_line (start 1.9 1.25) (end 1.9 0) (layer F.Fab) (width 0.1))
  (fp_line (start -0.95 7) (end 2.85 7) (layer F.Fab) (width 0.1))
  (fp_line (start -0.8255 6.1595) (end -0.8255 2.3) (layer F.SilkS) (width 0.12))
  (fp_line (start -0.8255 2.3) (end 2.7305 2.3) (layer F.SilkS) (width 0.12))
  (fp_line (start 2.7305 2.3) (end 2.7305 6.1595) (layer F.SilkS) (width 0.12))
  (fp_line (start 0.405 2.3) (end 0 1.15) (layer F.SilkS) (width 0.12))
  (fp_line (start 0 1.15) (end 0 0.7) (layer F.SilkS) (width 0.12))
  (fp_line (start 1.495 2.3) (end 1.9 1.15) (layer F.SilkS) (width 0.12))
  (fp_line (start 1.9 1.15) (end 1.9 0.7) (layer F.SilkS) (width 0.12))
  (fp_line (start -1.8 -0.8) (end -1.8 11.3) (layer F.CrtYd) (width 0.05))
  (fp_line (start -1.8 11.3) (end 3.7 11.3) (layer F.CrtYd) (width 0.05))
  (fp_line (start 3.7 11.3) (end 3.7 -0.8) (layer F.CrtYd) (width 0.05))
  (fp_line (start 3.7 -0.8) (end -1.8 -0.8) (layer F.CrtYd) (width 0.05))
  (fp_text user %R (at 1 4.75 90) (layer F.Fab)
    (effects (font (size 1 1) (thickness 0.15)))
  )
  (pad 3 thru_hole rect (at 2.85 7) (size 1.2 1.2) (drill 0.8) (layers *.Cu *.Mask))
  (pad 3 thru_hole rect (at -0.95 7) (size 1.2 1.2) (drill 0.8) (layers *.Cu *.Mask))
  (pad 3 smd rect (at 0.95 7) (size 3 8) (layers F.Cu F.Paste F.Mask))
  (pad 2 thru_hole circle (at 1.9 0) (size 1 1) (drill 0.5) (layers *.Cu *.Mask))
  (pad 1 thru_hole circle (at 0 0) (size 1 1) (drill 0.5) (layers *.Cu *.Mask))
  (model ${KISYS3DMOD}/Crystal.3dshapes/Crystal_C38-LF_D3.0mm_L8.0mm_Horizontal_1EP_style2.wrl
    (at (xyz 0 0 0))
    (scale (xyz 1 1 1))
    (rotate (xyz 0 0 0))
  )
)
