(module Crystal_HC50_Horizontal_1EP_style1 (layer F.Cu) (tedit 60783CFB)
  (descr "Crystal THT HC-50 http://www.crovencrystals.com/croven_pdf/HC-50_Crystal_Holder_Rev_00.pdf, Alternate KiCad Library")
  (tags "THT crystal")
  (fp_text reference REF** (at -4.675 3.25 90) (layer F.SilkS)
    (effects (font (size 1 1) (thickness 0.15)))
  )
  (fp_text value Crystal_HC50_Horizontal_1EP_style1 (at 9.575 3.25 90) (layer F.Fab)
    (effects (font (size 1 1) (thickness 0.15)))
  )
  (fp_line (start -3.075 2.5) (end -3.075 15.86) (layer F.Fab) (width 0.1))
  (fp_line (start -3.075 15.86) (end 7.975 15.86) (layer F.Fab) (width 0.1))
  (fp_line (start 7.975 15.86) (end 7.975 2.5) (layer F.Fab) (width 0.1))
  (fp_line (start 7.975 2.5) (end -3.075 2.5) (layer F.Fab) (width 0.1))
  (fp_line (start 0 2.5) (end 0 1.25) (layer F.Fab) (width 0.1))
  (fp_line (start 0 1.25) (end 0 0) (layer F.Fab) (width 0.1))
  (fp_line (start 4.9 2.5) (end 4.9 1.25) (layer F.Fab) (width 0.1))
  (fp_line (start 4.9 1.25) (end 4.9 0) (layer F.Fab) (width 0.1))
  (fp_line (start -3.425 2.5) (end -3.425 2.4) (layer F.Fab) (width 0.1))
  (fp_line (start -3.425 2.4) (end 8.325 2.4) (layer F.Fab) (width 0.1))
  (fp_line (start 8.325 2.4) (end 8.325 2.5) (layer F.Fab) (width 0.1))
  (fp_line (start 8.325 2.5) (end -3.425 2.5) (layer F.Fab) (width 0.1))
  (fp_line (start -3.55 2.3) (end -3.55 16.75) (layer F.SilkS) (width 0.12))
  (fp_line (start -3.55 16.75) (end 8.45 16.75) (layer F.SilkS) (width 0.12))
  (fp_line (start 8.45 16.75) (end 8.45 2.3) (layer F.SilkS) (width 0.12))
  (fp_line (start 8.4 2.3) (end -3.5 2.3) (layer F.SilkS) (width 0.12))
  (fp_line (start 0 2.3) (end 0 1.35) (layer F.SilkS) (width 0.12))
  (fp_line (start 0 1.35) (end 0 1.35) (layer F.SilkS) (width 0.12))
  (fp_line (start 4.9 2.3) (end 4.9 1.35) (layer F.SilkS) (width 0.12))
  (fp_line (start 4.9 1.35) (end 4.9 1.35) (layer F.SilkS) (width 0.12))
  (fp_line (start -3.85 2.3) (end -3.85 2.18) (layer F.SilkS) (width 0.12))
  (fp_line (start -3.85 2.18) (end 8.75 2.18) (layer F.SilkS) (width 0.12))
  (fp_line (start 8.75 2.18) (end 8.75 2.3) (layer F.SilkS) (width 0.12))
  (fp_line (start 8.75 2.3) (end -3.85 2.3) (layer F.SilkS) (width 0.12))
  (fp_line (start -4.2 -1.4) (end -4.2 17.2) (layer F.CrtYd) (width 0.05))
  (fp_line (start -4.2 17.2) (end 9.1 17.2) (layer F.CrtYd) (width 0.05))
  (fp_line (start 9.1 17.2) (end 9.1 -1.4) (layer F.CrtYd) (width 0.05))
  (fp_line (start 9.1 -1.4) (end -4.2 -1.4) (layer F.CrtYd) (width 0.05))
  (fp_text user %R (at 2.45 7.675) (layer F.Fab)
    (effects (font (size 1 1) (thickness 0.15)))
  )
  (pad 3 smd rect (at 2.45 9.5) (size 11.5 14) (layers F.Cu F.Paste F.Mask))
  (pad 2 thru_hole circle (at 4.9 0) (size 2.3 2.3) (drill 1.5) (layers *.Cu *.Mask))
  (pad 1 thru_hole circle (at 0 0) (size 2.3 2.3) (drill 1.5) (layers *.Cu *.Mask))
  (model ${KISYS3DMOD}/Crystal.3dshapes/Crystal_HC50_Horizontal_1EP_style1.wrl
    (at (xyz 0 0 0))
    (scale (xyz 1 1 1))
    (rotate (xyz 0 0 0))
  )
)
