(module Crystal_HC52-U_Horizontal (layer F.Cu) (tedit 60783D5E)
  (descr "Crystal THT HC-51/U http://www.kvg-gmbh.de/assets/uploads/files/product_pdfs/XS71xx.pdf, Alternate KiCad Library")
  (tags "THT crystal")
  (fp_text reference REF** (at -3.475 2.0625 90) (layer F.SilkS)
    (effects (font (size 1 1) (thickness 0.15)))
  )
  (fp_text value Crystal_HC52-U_Horizontal (at 7.275 2.0625 90) (layer F.Fab)
    (effects (font (size 1 1) (thickness 0.15)))
  )
  (fp_line (start 2.921 4.572) (end 2.921 6.477) (layer F.SilkS) (width 0.12))
  (fp_line (start 3.81 4.572) (end 2.921 4.572) (layer F.SilkS) (width 0.12))
  (fp_line (start 2.921 2.667) (end 2.921 4.572) (layer F.SilkS) (width 0.12))
  (fp_line (start 3.81 1.778) (end 3.81 3.429) (layer F.SilkS) (width 0.12))
  (fp_line (start 3.81 3.429) (end 3.81 4.572) (layer F.SilkS) (width 0.12))
  (fp_line (start 0 3.429) (end 0 4.572) (layer F.SilkS) (width 0.12))
  (fp_line (start 0 4.572) (end 0.889 4.572) (layer F.SilkS) (width 0.12))
  (fp_line (start 0.889 4.572) (end 0.889 2.667) (layer F.SilkS) (width 0.12))
  (fp_line (start 0 1.778) (end 0 3.429) (layer F.SilkS) (width 0.12))
  (fp_line (start 0.889 6.477) (end 0.889 4.572) (layer F.SilkS) (width 0.12))
  (fp_line (start 2.54 6.858) (end 2.54 2.286) (layer F.SilkS) (width 0.12))
  (fp_line (start 2.54 2.286) (end 1.27 2.286) (layer F.SilkS) (width 0.12))
  (fp_line (start 1.27 2.286) (end 1.27 6.858) (layer F.SilkS) (width 0.12))
  (fp_line (start 1.27 6.858) (end 2.54 6.858) (layer F.SilkS) (width 0.12))
  (fp_line (start -2.1 1.5) (end -2.1 10.3) (layer F.Fab) (width 0.1))
  (fp_line (start -2.1 10.3) (end 5.9 10.3) (layer F.Fab) (width 0.1))
  (fp_line (start 5.9 10.3) (end 5.9 1.5) (layer F.Fab) (width 0.1))
  (fp_line (start 5.9 1.5) (end -2.1 1.5) (layer F.Fab) (width 0.1))
  (fp_line (start 0 1.5) (end 0 0.75) (layer F.Fab) (width 0.1))
  (fp_line (start 0 0.75) (end 0 0) (layer F.Fab) (width 0.1))
  (fp_line (start 3.8 1.5) (end 3.8 0.75) (layer F.Fab) (width 0.1))
  (fp_line (start 3.8 0.75) (end 3.8 0) (layer F.Fab) (width 0.1))
  (fp_line (start -2.45 1.5) (end -2.45 1.4) (layer F.Fab) (width 0.1))
  (fp_line (start -2.45 1.4) (end 6.25 1.4) (layer F.Fab) (width 0.1))
  (fp_line (start 6.25 1.4) (end 6.25 1.5) (layer F.Fab) (width 0.1))
  (fp_line (start 6.25 1.5) (end -2.45 1.5) (layer F.Fab) (width 0.1))
  (fp_line (start -2.3 1.3) (end -2.3 10.5) (layer F.SilkS) (width 0.12))
  (fp_line (start -2.3 10.5) (end 6.1 10.5) (layer F.SilkS) (width 0.12))
  (fp_line (start 6.1 10.5) (end 6.1 1.3) (layer F.SilkS) (width 0.12))
  (fp_line (start 6.1 1.3) (end -2.3 1.3) (layer F.SilkS) (width 0.12))
  (fp_line (start 0 1.3) (end 0 0.95) (layer F.SilkS) (width 0.12))
  (fp_line (start 0 0.95) (end 0 0.95) (layer F.SilkS) (width 0.12))
  (fp_line (start 3.8 1.3) (end 3.8 0.95) (layer F.SilkS) (width 0.12))
  (fp_line (start 3.8 0.95) (end 3.8 0.95) (layer F.SilkS) (width 0.12))
  (fp_line (start -2.65 1.3) (end -2.65 1.18) (layer F.SilkS) (width 0.12))
  (fp_line (start -2.65 1.18) (end 6.45 1.18) (layer F.SilkS) (width 0.12))
  (fp_line (start 6.45 1.18) (end 6.45 1.3) (layer F.SilkS) (width 0.12))
  (fp_line (start 6.45 1.3) (end -2.65 1.3) (layer F.SilkS) (width 0.12))
  (fp_line (start -3.2 -1) (end -3.2 11.3) (layer F.CrtYd) (width 0.05))
  (fp_line (start -3.2 11.3) (end 7 11.3) (layer F.CrtYd) (width 0.05))
  (fp_line (start 7 11.3) (end 7 -1) (layer F.CrtYd) (width 0.05))
  (fp_line (start 7 -1) (end -3.2 -1) (layer F.CrtYd) (width 0.05))
  (fp_text user %R (at 2.25 5.25) (layer F.Fab)
    (effects (font (size 1 1) (thickness 0.15)))
  )
  (pad 2 thru_hole circle (at 3.8 0) (size 1.5 1.5) (drill 0.8) (layers *.Cu *.Mask))
  (pad 1 thru_hole circle (at 0 0) (size 1.5 1.5) (drill 0.8) (layers *.Cu *.Mask))
  (model ${KISYS3DMOD}/Crystal.3dshapes/Crystal_HC52-U_Horizontal.wrl
    (at (xyz 0 0 0))
    (scale (xyz 1 1 1))
    (rotate (xyz 0 0 0))
  )
)
