(module Crystal_HC52-8mm_Horizontal_1EP_style2 (layer F.Cu) (tedit 60783D4E)
  (descr "Crystal THT HC-51/8mm http://www.kvg-gmbh.de/assets/uploads/files/product_pdfs/XS71xx.pdf, Alternate KiCad Library")
  (tags "THT crystal")
  (fp_text reference REF** (at -3.725 1.925 90) (layer F.SilkS)
    (effects (font (size 1 1) (thickness 0.15)))
  )
  (fp_text value Crystal_HC52-8mm_Horizontal_1EP_style2 (at 7.525 1.925 90) (layer F.Fab)
    (effects (font (size 1 1) (thickness 0.15)))
  )
  (fp_line (start 6.4 10.25) (end 6.4 6.55) (layer F.SilkS) (width 0.12))
  (fp_line (start 6.35 10.25) (end 6.4 10.25) (layer F.SilkS) (width 0.12))
  (fp_line (start -2.6 10.25) (end 6.35 10.25) (layer F.SilkS) (width 0.12))
  (fp_line (start -2.6 6.55) (end -2.6 10.25) (layer F.SilkS) (width 0.12))
  (fp_line (start -2.1 1.5) (end -2.1 9.5) (layer F.Fab) (width 0.1))
  (fp_line (start -2.1 9.5) (end 5.9 9.5) (layer F.Fab) (width 0.1))
  (fp_line (start 5.9 9.5) (end 5.9 1.5) (layer F.Fab) (width 0.1))
  (fp_line (start 5.9 1.5) (end -2.1 1.5) (layer F.Fab) (width 0.1))
  (fp_line (start 0 1.5) (end 0 0.75) (layer F.Fab) (width 0.1))
  (fp_line (start 0 0.75) (end 0 0) (layer F.Fab) (width 0.1))
  (fp_line (start 3.8 1.5) (end 3.8 0.75) (layer F.Fab) (width 0.1))
  (fp_line (start 3.8 0.75) (end 3.8 0) (layer F.Fab) (width 0.1))
  (fp_line (start -2.75 5.75) (end 6.55 5.75) (layer F.Fab) (width 0.1))
  (fp_line (start -2.45 1.5) (end -2.45 1.4) (layer F.Fab) (width 0.1))
  (fp_line (start -2.45 1.4) (end 6.25 1.4) (layer F.Fab) (width 0.1))
  (fp_line (start 6.25 1.4) (end 6.25 1.5) (layer F.Fab) (width 0.1))
  (fp_line (start 6.25 1.5) (end -2.45 1.5) (layer F.Fab) (width 0.1))
  (fp_line (start -2.6 4.95) (end -2.6 1.3) (layer F.SilkS) (width 0.12))
  (fp_line (start -2.55 1.3) (end 6.35 1.3) (layer F.SilkS) (width 0.12))
  (fp_line (start 6.4 1.3) (end 6.4 4.95) (layer F.SilkS) (width 0.12))
  (fp_line (start 0 1.3) (end 0 0.95) (layer F.SilkS) (width 0.12))
  (fp_line (start 0 0.95) (end 0 0.95) (layer F.SilkS) (width 0.12))
  (fp_line (start 3.8 1.3) (end 3.8 0.95) (layer F.SilkS) (width 0.12))
  (fp_line (start 3.8 0.95) (end 3.8 0.95) (layer F.SilkS) (width 0.12))
  (fp_line (start -2.9 1.3) (end -2.9 1.18) (layer F.SilkS) (width 0.12))
  (fp_line (start -2.9 1.18) (end 6.7 1.18) (layer F.SilkS) (width 0.12))
  (fp_line (start 6.7 1.18) (end 6.7 1.3) (layer F.SilkS) (width 0.12))
  (fp_line (start 6.7 1.3) (end -2.9 1.3) (layer F.SilkS) (width 0.12))
  (fp_line (start -3.6 -1) (end -3.6 10.7) (layer F.CrtYd) (width 0.05))
  (fp_line (start -3.6 10.7) (end 7.4 10.7) (layer F.CrtYd) (width 0.05))
  (fp_line (start 7.4 10.7) (end 7.4 -1) (layer F.CrtYd) (width 0.05))
  (fp_line (start 7.4 -1) (end -3.6 -1) (layer F.CrtYd) (width 0.05))
  (fp_text user %R (at 1.9 4.625) (layer F.Fab)
    (effects (font (size 1 1) (thickness 0.15)))
  )
  (pad 3 thru_hole rect (at 6.55 5.75) (size 1.2 1.2) (drill 0.8) (layers *.Cu *.Mask))
  (pad 3 thru_hole rect (at -2.75 5.75) (size 1.2 1.2) (drill 0.8) (layers *.Cu *.Mask))
  (pad 3 smd rect (at 1.9 5.75) (size 8.5 8.5) (layers F.Cu F.Paste F.Mask))
  (pad 2 thru_hole circle (at 3.8 0) (size 1.5 1.5) (drill 0.8) (layers *.Cu *.Mask))
  (pad 1 thru_hole circle (at 0 0) (size 1.5 1.5) (drill 0.8) (layers *.Cu *.Mask))
  (model ${KISYS3DMOD}/Crystal.3dshapes/Crystal_HC52-8mm_Horizontal_1EP_style2.wrl
    (at (xyz 0 0 0))
    (scale (xyz 1 1 1))
    (rotate (xyz 0 0 0))
  )
)
