(module Crystal_SMD_MicroCrystal_MS1V-T1K (layer F.Cu) (tedit 608D2BCE)
  (descr "SMD Watch Crystal MicroCrystal MS1V-T1K 6.1mm length 2.0mm diameter http://www.microcrystal.com/images/_Product-Documentation/03_TF_metal_Packages/01_Datasheet/MS1V-T1K.pdf, Alternate KiCad Library")
  (tags ['MS1V-T1K'])
  (attr smd)
  (fp_text reference REF** (at -3.02 -2.275 90) (layer F.SilkS)
    (effects (font (size 1 1) (thickness 0.15)))
  )
  (fp_text value Crystal_SMD_MicroCrystal_MS1V-T1K (at 3.02 -2.275 90) (layer F.Fab)
    (effects (font (size 1 1) (thickness 0.15)))
  )
  (fp_line (start 2.1 -4.63) (end -2.1 -4.63) (layer F.CrtYd) (width 0.05))
  (fp_line (start 2.1 4.57) (end 2.1 -4.63) (layer F.CrtYd) (width 0.05))
  (fp_line (start -2.1 4.57) (end 2.1 4.57) (layer F.CrtYd) (width 0.05))
  (fp_line (start -2.1 -4.63) (end -2.1 4.57) (layer F.CrtYd) (width 0.05))
  (fp_line (start 1.27 -2.5) (end 1.27 -2.5) (layer F.SilkS) (width 0.12))
  (fp_line (start 0.5 -2.1) (end 1.27 -2.5) (layer F.SilkS) (width 0.12))
  (fp_line (start -1.27 -2.5) (end -1.27 -2.5) (layer F.SilkS) (width 0.12))
  (fp_line (start -0.5 -2.1) (end -1.27 -2.5) (layer F.SilkS) (width 0.12))
  (fp_line (start 1.7 -2.1) (end 1.7 1.6) (layer F.SilkS) (width 0.12))
  (fp_line (start -1.7 -2.1) (end 1.7 -2.1) (layer F.SilkS) (width 0.12))
  (fp_line (start -1.7 1.6) (end -1.7 -2.1) (layer F.SilkS) (width 0.12))
  (fp_line (start 1.27 -2.7) (end 1.27 -3.5) (layer F.Fab) (width 0.1))
  (fp_line (start 0.5 -1.9) (end 1.27 -2.7) (layer F.Fab) (width 0.1))
  (fp_line (start -1.27 -2.7) (end -1.27 -3.5) (layer F.Fab) (width 0.1))
  (fp_line (start -0.5 -1.9) (end -1.27 -2.7) (layer F.Fab) (width 0.1))
  (fp_line (start 1 -1.9) (end -1 -1.9) (layer F.Fab) (width 0.1))
  (fp_line (start 1 4.2) (end 1 -1.9) (layer F.Fab) (width 0.1))
  (fp_line (start -1 4.2) (end 1 4.2) (layer F.Fab) (width 0.1))
  (fp_line (start -1 -1.9) (end -1 4.2) (layer F.Fab) (width 0.1))
  (fp_text user %R (at 0 0.35) (layer F.Fab)
    (effects (font (size 0.6 0.6) (thickness 0.09)))
  )
  (pad 3 smd rect (at 0 3.05) (size 3 2.5) (layers F.Cu F.Paste F.Mask))
  (pad 2 smd rect (at 1.27 -3.5) (size 1 1.6) (layers F.Cu F.Paste F.Mask))
  (pad 1 smd rect (at -1.27 -3.5) (size 1 1.6) (layers F.Cu F.Paste F.Mask))
  (model ${KISYS3DMOD}/Crystal.3dshapes/Crystal_SMD_MicroCrystal_MS1V-T1K.wrl
    (offset (xyz 0 0.224999996200839 0))
    (scale (xyz 1 1 1))
    (rotate (xyz 0 0 0))
  )
)
