(module Crystal_SMD_MicroCrystal_CC5V-T1A-2Pin_4.1x1.5mm (layer F.Cu) (tedit 608D2BB9)
  (descr "SMD Crystal MicroCrystal CC5V-T1A series http://cdn-reichelt.de/documents/datenblatt/B400/CC5V-T1A.pdf, 4.1x1.5mm^2 package, Alternate KiCad Library")
  (tags "SMD SMT crystal")
  (attr smd)
  (fp_text reference REF** (at 0 -1.95) (layer F.SilkS)
    (effects (font (size 1 1) (thickness 0.15)))
  )
  (fp_text value Crystal_SMD_MicroCrystal_CC5V-T1A-2Pin_4.1x1.5mm (at 0 1.95) (layer F.Fab)
    (effects (font (size 1 1) (thickness 0.15)))
  )
  (fp_line (start 2.5 -1.2) (end -2.5 -1.2) (layer F.CrtYd) (width 0.05))
  (fp_line (start 2.5 1.2) (end 2.5 -1.2) (layer F.CrtYd) (width 0.05))
  (fp_line (start -2.5 1.2) (end 2.5 1.2) (layer F.CrtYd) (width 0.05))
  (fp_line (start -2.5 -1.2) (end -2.5 1.2) (layer F.CrtYd) (width 0.05))
  (fp_line (start -2.05 0.25) (end -1.55 0.75) (layer F.Fab) (width 0.1))
  (fp_line (start 2.05 -0.75) (end -2.05 -0.75) (layer F.Fab) (width 0.1))
  (fp_line (start 2.05 0.75) (end 2.05 -0.75) (layer F.Fab) (width 0.1))
  (fp_line (start -2.05 0.75) (end 2.05 0.75) (layer F.Fab) (width 0.1))
  (fp_line (start -2.05 -0.75) (end -2.05 0.75) (layer F.Fab) (width 0.1))
  (fp_line (start -2.54 -1.2065) (end -2.54 1.2065) (layer F.SilkS) (width 0.12))
  (fp_line (start -2.54 -1.2065) (end 2.4765 -1.2065) (layer F.SilkS) (width 0.12))
  (fp_line (start 2.4765 -1.2065) (end 2.54 -1.2065) (layer F.SilkS) (width 0.12))
  (fp_line (start 2.54 -1.2065) (end 2.54 1.2065) (layer F.SilkS) (width 0.12))
  (fp_line (start 2.54 1.2065) (end -2.54 1.2065) (layer F.SilkS) (width 0.12))
  (fp_text user %R (at 0 0) (layer F.Fab)
    (effects (font (size 1 1) (thickness 0.15)))
  )
  (pad 2 smd rect (at 1.7 0) (size 1.1 1.9) (layers F.Cu F.Paste F.Mask))
  (pad 1 smd rect (at -1.7 0) (size 1.1 1.9) (layers F.Cu F.Paste F.Mask))
  (model ${KISYS3DMOD}/Crystal.3dshapes/Crystal_SMD_MicroCrystal_CC5V-T1A-2Pin_4.1x1.5mm.wrl
    (at (xyz 0 0 0))
    (scale (xyz 1 1 1))
    (rotate (xyz 0 0 0))
  )
)
