(module Crystal_SMD_Abracon_ABM10-4Pin_2.5x2.0mm (layer F.Cu) (tedit 60783E11)
  (descr "Abracon Miniature Ceramic Smd Crystal ABM10 http://www.abracon.com/Resonators/ABM10.pdf, Alternate KiCad Library")
  (tags "SMD SMT crystal Abracon ABM10")
  (attr smd)
  (fp_text reference REF** (at 0 -2.5) (layer F.SilkS)
    (effects (font (size 1 1) (thickness 0.15)))
  )
  (fp_text value Crystal_SMD_Abracon_ABM10-4Pin_2.5x2.0mm (at 0.04 2.5) (layer F.Fab)
    (effects (font (size 1 1) (thickness 0.15)))
  )
  (fp_line (start 1.27 -1.524) (end -0.889 -1.524) (layer F.SilkS) (width 0.12))
  (fp_line (start 1.27 1.524) (end 1.27 -1.524) (layer F.SilkS) (width 0.12))
  (fp_line (start -1.27 1.524) (end 1.27 1.524) (layer F.SilkS) (width 0.12))
  (fp_line (start -1.27 -1.143) (end -1.27 1.524) (layer F.SilkS) (width 0.12))
  (fp_circle (center -1.27 -1.524) (end -1.2065 -1.524) (layer F.SilkS) (width 0.2))
  (fp_line (start -1.53 1.78) (end 1.53 1.78) (layer F.CrtYd) (width 0.05))
  (fp_line (start 1.53 -1.78) (end -1.53 -1.78) (layer F.CrtYd) (width 0.05))
  (fp_line (start 1.53 -1.78) (end 1.53 1.78) (layer F.CrtYd) (width 0.05))
  (fp_line (start -0.5 -1.25) (end -1 -0.75) (layer F.Fab) (width 0.1))
  (fp_line (start -1 1.25) (end 1 1.25) (layer F.Fab) (width 0.1))
  (fp_line (start -0.5 -1.25) (end 1 -1.25) (layer F.Fab) (width 0.1))
  (fp_line (start 1 -1.25) (end 1 1.25) (layer F.Fab) (width 0.1))
  (fp_line (start -1 -0.75) (end -1 1.25) (layer F.Fab) (width 0.1))
  (fp_line (start -1.53 -1.78) (end -1.53 1.78) (layer F.CrtYd) (width 0.05))
  (fp_text user %R (at 0 0 90) (layer F.Fab)
    (effects (font (size 0.5 0.5) (thickness 0.075)))
  )
  (pad 4 smd rect (at 0.625 -0.825) (size 0.8 0.9) (layers F.Cu F.Paste F.Mask))
  (pad 2 smd rect (at -0.625 0.825) (size 0.8 0.9) (layers F.Cu F.Paste F.Mask))
  (pad 3 smd rect (at 0.625 0.825) (size 0.8 0.9) (layers F.Cu F.Paste F.Mask))
  (pad 1 smd rect (at -0.625 -0.825) (size 0.8 0.9) (layers F.Cu F.Paste F.Mask))
  (model ${KISYS3DMOD}/Crystal.3dshapes/Crystal_SMD_Abracon_ABM10-4Pin_2.5x2.0mm.wrl
    (at (xyz 0 0 0))
    (scale (xyz 1 1 1))
    (rotate (xyz 0 0 0))
  )
)
