(module Resonator_SMD_muRata_SFECV-3Pin_6.9x2.9mm_HandSoldering (layer F.Cu) (tedit 60784037)
  (descr "SMD Resomator/Filter Murata SFECV, http://cdn-reichelt.de/documents/datenblatt/B400/SFECV-107.pdf, hand-soldering, 6.9x2.9mm^2 package, Alternate KiCad Library")
  (tags "SMD SMT ceramic resonator filter filter hand-soldering")
  (attr smd)
  (fp_text reference REF** (at 0 -3) (layer F.SilkS)
    (effects (font (size 1 1) (thickness 0.15)))
  )
  (fp_text value Resonator_SMD_muRata_SFECV-3Pin_6.9x2.9mm_HandSoldering (at 0 3) (layer F.Fab)
    (effects (font (size 1 1) (thickness 0.15)))
  )
  (fp_line (start -5.08 -2.286) (end -5.08 1.905) (layer F.SilkS) (width 0.12))
  (fp_line (start 5.08 -2.286) (end -5.08 -2.286) (layer F.SilkS) (width 0.12))
  (fp_line (start 5.08 2.286) (end 5.08 -2.286) (layer F.SilkS) (width 0.12))
  (fp_line (start -5.08 2.286) (end 5.08 2.286) (layer F.SilkS) (width 0.12))
  (fp_line (start -5.08 1.905) (end -5.08 2.286) (layer F.SilkS) (width 0.12))
  (fp_line (start -3.45 -1.45) (end -3.45 1.45) (layer F.Fab) (width 0.1))
  (fp_line (start -3.45 1.45) (end 3.45 1.45) (layer F.Fab) (width 0.1))
  (fp_line (start 3.45 1.45) (end 3.45 -1.45) (layer F.Fab) (width 0.1))
  (fp_line (start 3.45 -1.45) (end -3.45 -1.45) (layer F.Fab) (width 0.1))
  (fp_line (start -3.45 0.45) (end -2.45 1.45) (layer F.Fab) (width 0.1))
  (fp_line (start -5.1 -2.3) (end -5.1 2.3) (layer F.CrtYd) (width 0.05))
  (fp_line (start -5.1 2.3) (end 5.1 2.3) (layer F.CrtYd) (width 0.05))
  (fp_line (start 5.1 2.3) (end 5.1 -2.3) (layer F.CrtYd) (width 0.05))
  (fp_line (start 5.1 -2.3) (end -5.1 -2.3) (layer F.CrtYd) (width 0.05))
  (fp_text user %R (at 0 0) (layer F.Fab)
    (effects (font (size 1 1) (thickness 0.15)))
  )
  (pad 3 smd rect (at 3.75 0) (size 2.1 4) (layers F.Cu F.Paste F.Mask))
  (pad 2 smd rect (at 0 0) (size 2.1 4) (layers F.Cu F.Paste F.Mask))
  (pad 1 smd rect (at -3.75 0) (size 2.1 4) (layers F.Cu F.Paste F.Mask))
  (model ${KISYS3DMOD}/Crystal.3dshapes/Resonator_SMD_muRata_SFECV-3Pin_6.9x2.9mm_HandSoldering.wrl
    (at (xyz 0 0 0))
    (scale (xyz 1 1 1))
    (rotate (xyz 0 0 0))
  )
)
