(module Resonator_SMD_muRata_CSTxExxV-3Pin_3.0x1.1mm_HandSoldering (layer F.Cu) (tedit 6078402C)
  (descr "SMD Resomator/Filter Murata CSTCE, https://www.murata.com/en-eu/products/productdata/8801162264606/SPEC-CSTNE16M0VH3C000R0.pdf, Alternate KiCad Library")
  (tags "SMD SMT ceramic resonator filter")
  (attr smd)
  (fp_text reference REF** (at 0 -2.6035) (layer F.SilkS)
    (effects (font (size 1 1) (thickness 0.15)))
  )
  (fp_text value Resonator_SMD_muRata_CSTxExxV-3Pin_3.0x1.1mm_HandSoldering (at 0 1.8) (layer F.Fab)
    (effects (font (size 0.2 0.2) (thickness 0.03)))
  )
  (fp_line (start -1.7145 -1.8415) (end -1.7145 -1.778) (layer F.SilkS) (width 0.12))
  (fp_line (start 1.7145 -1.8415) (end -1.7145 -1.8415) (layer F.SilkS) (width 0.12))
  (fp_line (start 1.7145 1.8415) (end 1.7145 -1.8415) (layer F.SilkS) (width 0.12))
  (fp_line (start -1.7145 1.8415) (end 1.7145 1.8415) (layer F.SilkS) (width 0.12))
  (fp_line (start -1.7145 1.778) (end -1.7145 1.8415) (layer F.SilkS) (width 0.12))
  (fp_line (start -1.7145 -1.778) (end -1.7145 1.778) (layer F.SilkS) (width 0.12))
  (fp_line (start 1.5 0.8) (end 1.5 -0.8) (layer F.Fab) (width 0.1))
  (fp_line (start 1.5 -0.8) (end -1.5 -0.8) (layer F.Fab) (width 0.1))
  (fp_line (start -1 0.8) (end -1.5 0.3) (layer F.Fab) (width 0.1))
  (fp_line (start -1 0.8) (end 1.5 0.8) (layer F.Fab) (width 0.1))
  (fp_line (start -1.5 0.3) (end -1.5 -0.8) (layer F.Fab) (width 0.1))
  (fp_line (start 1.75 1.85) (end -1.75 1.85) (layer F.CrtYd) (width 0.05))
  (fp_line (start -1.75 -1.85) (end 1.75 -1.85) (layer F.CrtYd) (width 0.05))
  (fp_line (start 1.75 -1.85) (end 1.75 1.85) (layer F.CrtYd) (width 0.05))
  (fp_line (start -1.75 1.85) (end -1.75 -1.85) (layer F.CrtYd) (width 0.05))
  (fp_text user %R (at 0.1 -0.05) (layer F.Fab)
    (effects (font (size 0.6 0.6) (thickness 0.08)))
  )
  (pad 3 smd rect (at 1.2 0) (size 0.4 3.2) (layers F.Cu F.Paste F.Mask))
  (pad 2 smd rect (at 0 0) (size 0.4 3.2) (layers F.Cu F.Paste F.Mask))
  (pad 1 smd rect (at -1.2 0) (size 0.4 3.2) (layers F.Cu F.Paste F.Mask))
  (model ${KISYS3DMOD}/Crystal.3dshapes/Resonator_SMD_muRata_CSTxExxV-3Pin_3.0x1.1mm.wrl
    (at (xyz 0 0 0))
    (scale (xyz 1 1 1))
    (rotate (xyz 0 0 0))
  )
)
