(module Resonator-2Pin_W7.0mm_H2.5mm (layer F.Cu) (tedit 60783FC8)
  (descr "Ceramic Resomator/Filter 7.0x2.5mm^2, length*width=7.0x2.5mm^2 package, package length=7.0mm, package width=2.5mm, 2 pins, Alternate KiCad Library")
  (tags "THT ceramic resonator filter")
  (fp_text reference REF** (at 2.5 -2.45) (layer F.SilkS)
    (effects (font (size 1 1) (thickness 0.15)))
  )
  (fp_text value Resonator-2Pin_W7.0mm_H2.5mm (at 2.5 2.45) (layer F.Fab)
    (effects (font (size 1 1) (thickness 0.15)))
  )
  (fp_line (start 6.5 -1.7) (end -1.5 -1.7) (layer F.CrtYd) (width 0.05))
  (fp_line (start 6.5 1.7) (end 6.5 -1.7) (layer F.CrtYd) (width 0.05))
  (fp_line (start -1.5 1.7) (end 6.5 1.7) (layer F.CrtYd) (width 0.05))
  (fp_line (start -1.5 -1.7) (end -1.5 1.7) (layer F.CrtYd) (width 0.05))
  (fp_line (start 0.25 1.45) (end 4.75 1.45) (layer F.SilkS) (width 0.12))
  (fp_line (start 0.25 -1.45) (end 4.75 -1.45) (layer F.SilkS) (width 0.12))
  (fp_line (start 0.25 1.25) (end 4.75 1.25) (layer F.Fab) (width 0.1))
  (fp_line (start 0.25 -1.25) (end 4.75 -1.25) (layer F.Fab) (width 0.1))
  (fp_line (start 0.25 1.25) (end 4.75 1.25) (layer F.Fab) (width 0.1))
  (fp_line (start 0.25 -1.25) (end 4.75 -1.25) (layer F.Fab) (width 0.1))
  (fp_line (start 1.905 0) (end 1.905 1.016) (layer F.SilkS) (width 0.12))
  (fp_line (start 3.048 0) (end 3.048 -1.016) (layer F.SilkS) (width 0.12))
  (fp_line (start 1.905 0) (end 1.905 -1.016) (layer F.SilkS) (width 0.12))
  (fp_line (start 3.683 0) (end 3.048 0) (layer F.SilkS) (width 0.12))
  (fp_line (start 3.048 0) (end 3.048 1.016) (layer F.SilkS) (width 0.12))
  (fp_line (start 1.27 0) (end 1.905 0) (layer F.SilkS) (width 0.12))
  (fp_line (start 2.159 -1.27) (end 2.159 1.27) (layer F.SilkS) (width 0.12))
  (fp_line (start 2.159 1.27) (end 2.794 1.27) (layer F.SilkS) (width 0.12))
  (fp_line (start 2.794 1.27) (end 2.794 -1.27) (layer F.SilkS) (width 0.12))
  (fp_line (start 2.794 -1.27) (end 2.159 -1.27) (layer F.SilkS) (width 0.12))
  (fp_arc (start 4.75 0) (end 4.75 -1.45) (angle 180) (layer F.SilkS) (width 0.12))
  (fp_arc (start 0.25 0) (end 0.25 -1.45) (angle -180) (layer F.SilkS) (width 0.12))
  (fp_arc (start 4.75 0) (end 4.75 -1.25) (angle 180) (layer F.Fab) (width 0.1))
  (fp_arc (start 0.25 0) (end 0.25 -1.25) (angle -180) (layer F.Fab) (width 0.1))
  (fp_arc (start 4.75 0) (end 4.75 -1.25) (angle 180) (layer F.Fab) (width 0.1))
  (fp_arc (start 0.25 0) (end 0.25 -1.25) (angle -180) (layer F.Fab) (width 0.1))
  (fp_text user %R (at 2.5 0) (layer F.Fab)
    (effects (font (size 1 1) (thickness 0.15)))
  )
  (pad 2 thru_hole circle (at 5 0) (size 1.7 1.7) (drill 1) (layers *.Cu *.Mask))
  (pad 1 thru_hole circle (at 0 0) (size 1.7 1.7) (drill 1) (layers *.Cu *.Mask))
  (model ${KISYS3DMOD}/Crystal.3dshapes/Resonator-2Pin_W7.0mm_H2.5mm.wrl
    (at (xyz 0 0 0))
    (scale (xyz 1 1 1))
    (rotate (xyz 0 0 0))
  )
)
