(module Resonator_SMD_muRata_CDSCB-2Pin_4.5x2.0mm_HandSoldering (layer F.Cu) (tedit 608D2C67)
  (descr "SMD Resomator/Filter Murata CDSCB, http://cdn-reichelt.de/documents/datenblatt/B400/SFECV-107.pdf, hand-soldering, 4.5x2.0mm^2 package, Alternate KiCad Library")
  (tags "SMD SMT ceramic resonator filter filter hand-soldering")
  (attr smd)
  (fp_text reference REF** (at 0 -4.25) (layer F.SilkS)
    (effects (font (size 1 1) (thickness 0.15)))
  )
  (fp_text value Resonator_SMD_muRata_CDSCB-2Pin_4.5x2.0mm_HandSoldering (at 0 4.25) (layer F.Fab)
    (effects (font (size 1 1) (thickness 0.15)))
  )
  (fp_line (start 2.5 -3.5) (end -2.5 -3.5) (layer F.CrtYd) (width 0.05))
  (fp_line (start 2.5 3.5) (end 2.5 -3.5) (layer F.CrtYd) (width 0.05))
  (fp_line (start -2.5 3.5) (end 2.5 3.5) (layer F.CrtYd) (width 0.05))
  (fp_line (start -2.5 -3.5) (end -2.5 3.5) (layer F.CrtYd) (width 0.05))
  (fp_line (start -2.25 0) (end -1.25 1) (layer F.Fab) (width 0.1))
  (fp_line (start 2.25 -1) (end -2.25 -1) (layer F.Fab) (width 0.1))
  (fp_line (start 2.25 1) (end 2.25 -1) (layer F.Fab) (width 0.1))
  (fp_line (start -2.25 1) (end 2.25 1) (layer F.Fab) (width 0.1))
  (fp_line (start -2.25 -1) (end -2.25 1) (layer F.Fab) (width 0.1))
  (fp_line (start -1.4605 -2.54) (end -2.4765 -2.54) (layer F.SilkS) (width 0.12))
  (fp_line (start -2.4765 -2.54) (end -2.4765 2.4765) (layer F.SilkS) (width 0.12))
  (fp_line (start -2.4765 2.4765) (end -2.4765 2.54) (layer F.SilkS) (width 0.12))
  (fp_line (start -2.4765 2.54) (end 2.4765 2.54) (layer F.SilkS) (width 0.12))
  (fp_line (start 2.4765 2.54) (end 2.4765 -2.54) (layer F.SilkS) (width 0.12))
  (fp_line (start 2.4765 -2.54) (end -1.524 -2.54) (layer F.SilkS) (width 0.12))
  (fp_text user %R (at 0 0) (layer F.Fab)
    (effects (font (size 1 1) (thickness 0.15)))
  )
  (pad 2 smd rect (at 1.5 0) (size 1 4.55) (layers F.Cu F.Paste F.Mask))
  (pad 1 smd rect (at -1.5 0) (size 1 4.55) (layers F.Cu F.Paste F.Mask))
  (model ${KISYS3DMOD}/Crystal.3dshapes/Resonator_SMD_muRata_CDSCB-2Pin_4.5x2.0mm_HandSoldering.wrl
    (at (xyz 0 0 0))
    (scale (xyz 1 1 1))
    (rotate (xyz 0 0 0))
  )
)
