(module Resonator_SMD_muRata_SFSKA-3Pin_7.9x3.8mm_HandSoldering (layer F.Cu) (tedit 60784044)
  (descr "SMD Resomator/Filter Murata SFSKA, http://cdn-reichelt.de/documents/datenblatt/B400/SFECV-107.pdf, hand-soldering, 7.9x3.8mm^2 package, Alternate KiCad Library")
  (tags "SMD SMT ceramic resonator filter filter hand-soldering")
  (attr smd)
  (fp_text reference REF** (at 0 -3.4) (layer F.SilkS)
    (effects (font (size 1 1) (thickness 0.15)))
  )
  (fp_text value Resonator_SMD_muRata_SFSKA-3Pin_7.9x3.8mm_HandSoldering (at 0 3.4) (layer F.Fab)
    (effects (font (size 1 1) (thickness 0.15)))
  )
  (fp_line (start 4.3815 2.667) (end -4.3815 2.667) (layer F.SilkS) (width 0.12))
  (fp_line (start 4.3815 -2.667) (end 4.3815 2.667) (layer F.SilkS) (width 0.12))
  (fp_line (start -4.3815 -2.667) (end 4.3815 -2.667) (layer F.SilkS) (width 0.12))
  (fp_line (start -4.3815 2.667) (end -4.3815 -2.667) (layer F.SilkS) (width 0.12))
  (fp_line (start -3.95 -1.9) (end -3.95 1.9) (layer F.Fab) (width 0.1))
  (fp_line (start -3.95 1.9) (end 3.95 1.9) (layer F.Fab) (width 0.1))
  (fp_line (start 3.95 1.9) (end 3.95 -1.9) (layer F.Fab) (width 0.1))
  (fp_line (start 3.95 -1.9) (end -3.95 -1.9) (layer F.Fab) (width 0.1))
  (fp_line (start -3.95 0.9) (end -2.95 1.9) (layer F.Fab) (width 0.1))
  (fp_line (start -4.4 -2.7) (end -4.4 2.7) (layer F.CrtYd) (width 0.05))
  (fp_line (start -4.4 2.7) (end 4.4 2.7) (layer F.CrtYd) (width 0.05))
  (fp_line (start 4.4 2.7) (end 4.4 -2.7) (layer F.CrtYd) (width 0.05))
  (fp_line (start 4.4 -2.7) (end -4.4 -2.7) (layer F.CrtYd) (width 0.05))
  (fp_text user %R (at 0 0) (layer F.Fab)
    (effects (font (size 1 1) (thickness 0.15)))
  )
  (pad 3 smd rect (at 3.25 0) (size 1.75 4.8) (layers F.Cu F.Paste F.Mask))
  (pad 2 smd rect (at 0 0) (size 1.75 4.8) (layers F.Cu F.Paste F.Mask))
  (pad 1 smd rect (at -3.25 0) (size 1.75 4.8) (layers F.Cu F.Paste F.Mask))
  (model ${KISYS3DMOD}/Crystal.3dshapes/Resonator_SMD_muRata_SFSKA-3Pin_7.9x3.8mm_HandSoldering.wrl
    (at (xyz 0 0 0))
    (scale (xyz 1 1 1))
    (rotate (xyz 0 0 0))
  )
)
