(module Resonator-3Pin_W8.0mm_H3.5mm (layer F.Cu) (tedit 60783FE4)
  (descr "Ceramic Resomator/Filter 8.0x3.5mm^2, length*width=8.0x3.5mm^2 package, package length=8.0mm, package width=3.5mm, 3 pins, Alternate KiCad Library")
  (tags "THT ceramic resonator filter")
  (fp_text reference REF** (at 2.5 -2.95) (layer F.SilkS)
    (effects (font (size 1 1) (thickness 0.15)))
  )
  (fp_text value Resonator-3Pin_W8.0mm_H3.5mm (at 2.5 2.95) (layer F.Fab)
    (effects (font (size 1 1) (thickness 0.15)))
  )
  (fp_line (start 7 -2.2) (end -2 -2.2) (layer F.CrtYd) (width 0.05))
  (fp_line (start 7 2.2) (end 7 -2.2) (layer F.CrtYd) (width 0.05))
  (fp_line (start -2 2.2) (end 7 2.2) (layer F.CrtYd) (width 0.05))
  (fp_line (start -2 -2.2) (end -2 2.2) (layer F.CrtYd) (width 0.05))
  (fp_line (start 0.25 1.95) (end 4.75 1.95) (layer F.SilkS) (width 0.12))
  (fp_line (start 0.25 -1.95) (end 4.75 -1.95) (layer F.SilkS) (width 0.12))
  (fp_line (start 0.25 1.75) (end 4.75 1.75) (layer F.Fab) (width 0.1))
  (fp_line (start 0.25 -1.75) (end 4.75 -1.75) (layer F.Fab) (width 0.1))
  (fp_line (start 0.25 1.75) (end 4.75 1.75) (layer F.Fab) (width 0.1))
  (fp_line (start 0.25 -1.75) (end 4.75 -1.75) (layer F.Fab) (width 0.1))
  (fp_arc (start 4.75 0) (end 4.75 -1.95) (angle 180) (layer F.SilkS) (width 0.12))
  (fp_arc (start 0.25 0) (end 0.25 -1.95) (angle -180) (layer F.SilkS) (width 0.12))
  (fp_arc (start 4.75 0) (end 4.75 -1.75) (angle 180) (layer F.Fab) (width 0.1))
  (fp_arc (start 0.25 0) (end 0.25 -1.75) (angle -180) (layer F.Fab) (width 0.1))
  (fp_arc (start 4.75 0) (end 4.75 -1.75) (angle 180) (layer F.Fab) (width 0.1))
  (fp_arc (start 0.25 0) (end 0.25 -1.75) (angle -180) (layer F.Fab) (width 0.1))
  (fp_text user %R (at 2.5 0) (layer F.Fab)
    (effects (font (size 1 1) (thickness 0.15)))
  )
  (pad 3 thru_hole circle (at 5 0) (size 1.7 1.7) (drill 1) (layers *.Cu *.Mask))
  (pad 2 thru_hole circle (at 2.5 0) (size 1.7 1.7) (drill 1) (layers *.Cu *.Mask))
  (pad 1 thru_hole circle (at 0 0) (size 1.7 1.7) (drill 1) (layers *.Cu *.Mask))
  (model ${KISYS3DMOD}/Crystal.3dshapes/Resonator-3Pin_W8.0mm_H3.5mm.wrl
    (at (xyz 0 0 0))
    (scale (xyz 1 1 1))
    (rotate (xyz 0 0 0))
  )
)
