(module EQFP-144-1EP_20x20mm_P0.5mm_EP8.93x8.7mm_ThermalVias (layer F.Cu) (tedit 607FD3C1)
  (descr "EQFP, 144 Pin (https://www.intel.com/content/dam/www/programmable/us/en/pdfs/literature/packaging/04r00479-02.pdf), Alternate KiCad Library")
  (tags "EQFP QFP")
  (attr smd)
  (fp_text reference REF** (at 0 -12.827) (layer F.SilkS)
    (effects (font (size 1 1) (thickness 0.15)))
  )
  (fp_text value EQFP-144-1EP_20x20mm_P0.5mm_EP8.93x8.7mm_ThermalVias (at 0 12.35) (layer F.Fab)
    (effects (font (size 1 1) (thickness 0.15)))
  )
  (fp_line (start -9 -10) (end 10 -10) (layer F.Fab) (width 0.1))
  (fp_line (start 10 -10) (end 10 10) (layer F.Fab) (width 0.1))
  (fp_line (start 10 10) (end -10 10) (layer F.Fab) (width 0.1))
  (fp_line (start -10 10) (end -10 -9) (layer F.Fab) (width 0.1))
  (fp_line (start -10 -9) (end -9 -10) (layer F.Fab) (width 0.1))
  (fp_line (start 0 -11.65) (end -9.15 -11.65) (layer F.CrtYd) (width 0.05))
  (fp_line (start -9.15 -11.65) (end -9.15 -10.25) (layer F.CrtYd) (width 0.05))
  (fp_line (start -9.15 -10.25) (end -10.25 -10.25) (layer F.CrtYd) (width 0.05))
  (fp_line (start -10.25 -10.25) (end -10.25 -9.15) (layer F.CrtYd) (width 0.05))
  (fp_line (start -10.25 -9.15) (end -11.65 -9.15) (layer F.CrtYd) (width 0.05))
  (fp_line (start -11.65 -9.15) (end -11.65 0) (layer F.CrtYd) (width 0.05))
  (fp_line (start 0 -11.65) (end 9.15 -11.65) (layer F.CrtYd) (width 0.05))
  (fp_line (start 9.15 -11.65) (end 9.15 -10.25) (layer F.CrtYd) (width 0.05))
  (fp_line (start 9.15 -10.25) (end 10.25 -10.25) (layer F.CrtYd) (width 0.05))
  (fp_line (start 10.25 -10.25) (end 10.25 -9.15) (layer F.CrtYd) (width 0.05))
  (fp_line (start 10.25 -9.15) (end 11.65 -9.15) (layer F.CrtYd) (width 0.05))
  (fp_line (start 11.65 -9.15) (end 11.65 0) (layer F.CrtYd) (width 0.05))
  (fp_line (start 0 11.65) (end -9.15 11.65) (layer F.CrtYd) (width 0.05))
  (fp_line (start -9.15 11.65) (end -9.15 10.25) (layer F.CrtYd) (width 0.05))
  (fp_line (start -9.15 10.25) (end -10.25 10.25) (layer F.CrtYd) (width 0.05))
  (fp_line (start -10.25 10.25) (end -10.25 9.15) (layer F.CrtYd) (width 0.05))
  (fp_line (start -10.25 9.15) (end -11.65 9.15) (layer F.CrtYd) (width 0.05))
  (fp_line (start -11.65 9.15) (end -11.65 0) (layer F.CrtYd) (width 0.05))
  (fp_line (start 0 11.65) (end 9.15 11.65) (layer F.CrtYd) (width 0.05))
  (fp_line (start 9.15 11.65) (end 9.15 10.25) (layer F.CrtYd) (width 0.05))
  (fp_line (start 9.15 10.25) (end 10.25 10.25) (layer F.CrtYd) (width 0.05))
  (fp_line (start 10.25 10.25) (end 10.25 9.15) (layer F.CrtYd) (width 0.05))
  (fp_line (start 10.25 9.15) (end 11.65 9.15) (layer F.CrtYd) (width 0.05))
  (fp_line (start 11.65 9.15) (end 11.65 0) (layer F.CrtYd) (width 0.05))
  (fp_line (start 7.75 11.684) (end 7.75 12.065) (layer F.SilkS) (width 0.12))
  (fp_line (start -11.684 -1.75) (end -11.938 -1.75) (layer F.SilkS) (width 0.12))
  (fp_line (start 11.684 5.25) (end 12.065 5.25) (layer F.SilkS) (width 0.12))
  (fp_line (start -11.684 8.25) (end -11.938 8.25) (layer F.SilkS) (width 0.12))
  (fp_line (start 0.75 -11.75) (end 0.75 -12) (layer F.SilkS) (width 0.12))
  (fp_line (start -6.75 -11.684) (end -6.75 -12.065) (layer F.SilkS) (width 0.12))
  (fp_line (start 11.684 -7.25) (end 11.938 -7.25) (layer F.SilkS) (width 0.12))
  (fp_line (start -4.75 11.684) (end -4.75 11.938) (layer F.SilkS) (width 0.12))
  (fp_line (start -11.684 0.75) (end -12.065 0.75) (layer F.SilkS) (width 0.12))
  (fp_line (start 8.25 -11.684) (end 8.25 -12.065) (layer F.SilkS) (width 0.12))
  (fp_line (start 11.684 -4.75) (end 12.065 -4.75) (layer F.SilkS) (width 0.12))
  (fp_line (start 11.684 0.25) (end 12.065 0.25) (layer F.SilkS) (width 0.12))
  (fp_line (start 11.684 -11.684) (end -0.889 -11.684) (layer F.SilkS) (width 0.12))
  (fp_line (start 11.684 2.75) (end 11.938 2.75) (layer F.SilkS) (width 0.12))
  (fp_line (start 5.25 11.684) (end 5.25 11.938) (layer F.SilkS) (width 0.12))
  (fp_line (start -11.684 5.75) (end -12.065 5.75) (layer F.SilkS) (width 0.12))
  (fp_line (start 11.684 11.684) (end 11.684 -11.684) (layer F.SilkS) (width 0.12))
  (fp_line (start 11.684 -2.25) (end 11.938 -2.25) (layer F.SilkS) (width 0.12))
  (fp_line (start -11.684 11.684) (end 11.684 11.684) (layer F.SilkS) (width 0.12))
  (fp_line (start -7.25 11.684) (end -7.25 12.065) (layer F.SilkS) (width 0.12))
  (fp_line (start -10.668 -11.684) (end -11.684 -10.668) (layer F.SilkS) (width 0.12))
  (fp_line (start -4.25 -11.684) (end -4.25 -11.938) (layer F.SilkS) (width 0.12))
  (fp_line (start 5.75 -11.684) (end 5.75 -11.938) (layer F.SilkS) (width 0.12))
  (fp_line (start -11.684 -4.25) (end -12.065 -4.25) (layer F.SilkS) (width 0.12))
  (fp_line (start -1.75 -11.684) (end -1.75 -12.065) (layer F.SilkS) (width 0.12))
  (fp_line (start -11.684 3.25) (end -11.938 3.25) (layer F.SilkS) (width 0.12))
  (fp_line (start 2.75 11.684) (end 2.75 12.065) (layer F.SilkS) (width 0.12))
  (fp_circle (center -10.795 -10.795) (end -10.668 -10.795) (layer F.SilkS) (width 0.4))
  (fp_line (start -11.684 -6.75) (end -11.938 -6.75) (layer F.SilkS) (width 0.12))
  (fp_line (start -0.889 -11.684) (end -10.668 -11.684) (layer F.SilkS) (width 0.12))
  (fp_line (start 11.684 7.75) (end 11.938 7.75) (layer F.SilkS) (width 0.12))
  (fp_line (start -11.684 -10.668) (end -11.684 11.684) (layer F.SilkS) (width 0.12))
  (fp_line (start 0.25 11.684) (end 0.25 11.938) (layer F.SilkS) (width 0.12))
  (fp_line (start -2.25 11.684) (end -2.25 12.065) (layer F.SilkS) (width 0.12))
  (fp_line (start 3.25 -11.684) (end 3.25 -12.065) (layer F.SilkS) (width 0.12))
  (fp_text user %R (at 0 0) (layer F.Fab)
    (effects (font (size 1 1) (thickness 0.15)))
  )
  (fp_text user 1 (at -10.922 -9.906 -90 unlocked) (layer F.SilkS)
    (effects (font (size 1 1) (thickness 0.15)))
  )
  (fp_text user 36 (at -10.922 10.541 -90 unlocked) (layer F.SilkS)
    (effects (font (size 1 1) (thickness 0.15)))
  )
  (fp_text user 72 (at 10.795 10.541 -90 unlocked) (layer F.SilkS)
    (effects (font (size 1 1) (thickness 0.15)))
  )
  (fp_text user 108 (at 10.922 -10.414 -90 unlocked) (layer F.SilkS)
    (effects (font (size 1 0.8) (thickness 0.15)))
  )
  (pad "" smd custom (at 4.0325 3.975) (size 0.515312 0.515312) (layers F.Paste)
    (options (clearance outline) (anchor circle))
    (primitives
      (gr_poly (pts
         (xy -0.259336 -0.138952) (xy -0.18531 -0.212978) (xy 0.259336 -0.212978) (xy 0.259336 0.212978) (xy -0.259336 0.212978)
) (width 0.178714))
    ))
  (pad "" smd custom (at 4.0325 -3.975) (size 0.515312 0.515312) (layers F.Paste)
    (options (clearance outline) (anchor circle))
    (primitives
      (gr_poly (pts
         (xy -0.259336 -0.212978) (xy 0.259336 -0.212978) (xy 0.259336 0.212978) (xy -0.18531 0.212978) (xy -0.259336 0.138952)
) (width 0.178714))
    ))
  (pad "" smd custom (at -4.0325 3.975) (size 0.515312 0.515312) (layers F.Paste)
    (options (clearance outline) (anchor circle))
    (primitives
      (gr_poly (pts
         (xy -0.259336 -0.212978) (xy 0.18531 -0.212978) (xy 0.259336 -0.138952) (xy 0.259336 0.212978) (xy -0.259336 0.212978)
) (width 0.178714))
    ))
  (pad "" smd custom (at -4.0325 -3.975) (size 0.515312 0.515312) (layers F.Paste)
    (options (clearance outline) (anchor circle))
    (primitives
      (gr_poly (pts
         (xy -0.259336 -0.212978) (xy 0.259336 -0.212978) (xy 0.259336 0.138952) (xy 0.18531 0.212978) (xy -0.259336 0.212978)
) (width 0.178714))
    ))
  (pad "" smd custom (at 3 3.975) (size 0.538263 0.538263) (layers F.Paste)
    (options (clearance outline) (anchor circle))
    (primitives
      (gr_poly (pts
         (xy -0.417329 -0.180915) (xy -0.362316 -0.235928) (xy 0.362316 -0.235928) (xy 0.417329 -0.180915) (xy 0.417329 0.235928)
         (xy -0.417329 0.235928)) (width 0.132813))
    ))
  (pad "" smd custom (at 1.8 3.975) (size 0.538263 0.538263) (layers F.Paste)
    (options (clearance outline) (anchor circle))
    (primitives
      (gr_poly (pts
         (xy -0.417329 -0.180915) (xy -0.362316 -0.235928) (xy 0.362316 -0.235928) (xy 0.417329 -0.180915) (xy 0.417329 0.235928)
         (xy -0.417329 0.235928)) (width 0.132813))
    ))
  (pad "" smd custom (at 0.6 3.975) (size 0.538263 0.538263) (layers F.Paste)
    (options (clearance outline) (anchor circle))
    (primitives
      (gr_poly (pts
         (xy -0.417329 -0.180915) (xy -0.362316 -0.235928) (xy 0.362316 -0.235928) (xy 0.417329 -0.180915) (xy 0.417329 0.235928)
         (xy -0.417329 0.235928)) (width 0.132813))
    ))
  (pad "" smd custom (at -0.6 3.975) (size 0.538263 0.538263) (layers F.Paste)
    (options (clearance outline) (anchor circle))
    (primitives
      (gr_poly (pts
         (xy -0.417329 -0.180915) (xy -0.362316 -0.235928) (xy 0.362316 -0.235928) (xy 0.417329 -0.180915) (xy 0.417329 0.235928)
         (xy -0.417329 0.235928)) (width 0.132813))
    ))
  (pad "" smd custom (at -1.8 3.975) (size 0.538263 0.538263) (layers F.Paste)
    (options (clearance outline) (anchor circle))
    (primitives
      (gr_poly (pts
         (xy -0.417329 -0.180915) (xy -0.362316 -0.235928) (xy 0.362316 -0.235928) (xy 0.417329 -0.180915) (xy 0.417329 0.235928)
         (xy -0.417329 0.235928)) (width 0.132813))
    ))
  (pad "" smd custom (at -3 3.975) (size 0.538263 0.538263) (layers F.Paste)
    (options (clearance outline) (anchor circle))
    (primitives
      (gr_poly (pts
         (xy -0.417329 -0.180915) (xy -0.362316 -0.235928) (xy 0.362316 -0.235928) (xy 0.417329 -0.180915) (xy 0.417329 0.235928)
         (xy -0.417329 0.235928)) (width 0.132813))
    ))
  (pad "" smd custom (at 3 -3.975) (size 0.538263 0.538263) (layers F.Paste)
    (options (clearance outline) (anchor circle))
    (primitives
      (gr_poly (pts
         (xy -0.417329 -0.235928) (xy 0.417329 -0.235928) (xy 0.417329 0.180915) (xy 0.362316 0.235928) (xy -0.362316 0.235928)
         (xy -0.417329 0.180915)) (width 0.132813))
    ))
  (pad "" smd custom (at 1.8 -3.975) (size 0.538263 0.538263) (layers F.Paste)
    (options (clearance outline) (anchor circle))
    (primitives
      (gr_poly (pts
         (xy -0.417329 -0.235928) (xy 0.417329 -0.235928) (xy 0.417329 0.180915) (xy 0.362316 0.235928) (xy -0.362316 0.235928)
         (xy -0.417329 0.180915)) (width 0.132813))
    ))
  (pad "" smd custom (at 0.6 -3.975) (size 0.538263 0.538263) (layers F.Paste)
    (options (clearance outline) (anchor circle))
    (primitives
      (gr_poly (pts
         (xy -0.417329 -0.235928) (xy 0.417329 -0.235928) (xy 0.417329 0.180915) (xy 0.362316 0.235928) (xy -0.362316 0.235928)
         (xy -0.417329 0.180915)) (width 0.132813))
    ))
  (pad "" smd custom (at -0.6 -3.975) (size 0.538263 0.538263) (layers F.Paste)
    (options (clearance outline) (anchor circle))
    (primitives
      (gr_poly (pts
         (xy -0.417329 -0.235928) (xy 0.417329 -0.235928) (xy 0.417329 0.180915) (xy 0.362316 0.235928) (xy -0.362316 0.235928)
         (xy -0.417329 0.180915)) (width 0.132813))
    ))
  (pad "" smd custom (at -1.8 -3.975) (size 0.538263 0.538263) (layers F.Paste)
    (options (clearance outline) (anchor circle))
    (primitives
      (gr_poly (pts
         (xy -0.417329 -0.235928) (xy 0.417329 -0.235928) (xy 0.417329 0.180915) (xy 0.362316 0.235928) (xy -0.362316 0.235928)
         (xy -0.417329 0.180915)) (width 0.132813))
    ))
  (pad "" smd custom (at -3 -3.975) (size 0.538263 0.538263) (layers F.Paste)
    (options (clearance outline) (anchor circle))
    (primitives
      (gr_poly (pts
         (xy -0.417329 -0.235928) (xy 0.417329 -0.235928) (xy 0.417329 0.180915) (xy 0.362316 0.235928) (xy -0.362316 0.235928)
         (xy -0.417329 0.180915)) (width 0.132813))
    ))
  (pad "" smd roundrect (at 4.0325 3) (size 0.697385 0.967471) (layers F.Paste) (roundrect_rratio 0.25))
  (pad "" smd roundrect (at 4.0325 1.8) (size 0.697385 0.967471) (layers F.Paste) (roundrect_rratio 0.25))
  (pad "" smd roundrect (at 4.0325 0.6) (size 0.697385 0.967471) (layers F.Paste) (roundrect_rratio 0.25))
  (pad "" smd roundrect (at 4.0325 -0.6) (size 0.697385 0.967471) (layers F.Paste) (roundrect_rratio 0.25))
  (pad "" smd roundrect (at 4.0325 -1.8) (size 0.697385 0.967471) (layers F.Paste) (roundrect_rratio 0.25))
  (pad "" smd roundrect (at 4.0325 -3) (size 0.697385 0.967471) (layers F.Paste) (roundrect_rratio 0.25))
  (pad "" smd roundrect (at -4.0325 3) (size 0.697385 0.967471) (layers F.Paste) (roundrect_rratio 0.25))
  (pad "" smd roundrect (at -4.0325 1.8) (size 0.697385 0.967471) (layers F.Paste) (roundrect_rratio 0.25))
  (pad "" smd roundrect (at -4.0325 0.6) (size 0.697385 0.967471) (layers F.Paste) (roundrect_rratio 0.25))
  (pad "" smd roundrect (at -4.0325 -0.6) (size 0.697385 0.967471) (layers F.Paste) (roundrect_rratio 0.25))
  (pad "" smd roundrect (at -4.0325 -1.8) (size 0.697385 0.967471) (layers F.Paste) (roundrect_rratio 0.25))
  (pad "" smd roundrect (at -4.0325 -3) (size 0.697385 0.967471) (layers F.Paste) (roundrect_rratio 0.25))
  (pad "" smd roundrect (at 3 3) (size 0.967471 0.967471) (layers F.Paste) (roundrect_rratio 0.25))
  (pad "" smd roundrect (at 3 1.8) (size 0.967471 0.967471) (layers F.Paste) (roundrect_rratio 0.25))
  (pad "" smd roundrect (at 3 0.6) (size 0.967471 0.967471) (layers F.Paste) (roundrect_rratio 0.25))
  (pad "" smd roundrect (at 3 -0.6) (size 0.967471 0.967471) (layers F.Paste) (roundrect_rratio 0.25))
  (pad "" smd roundrect (at 3 -1.8) (size 0.967471 0.967471) (layers F.Paste) (roundrect_rratio 0.25))
  (pad "" smd roundrect (at 3 -3) (size 0.967471 0.967471) (layers F.Paste) (roundrect_rratio 0.25))
  (pad "" smd roundrect (at 1.8 3) (size 0.967471 0.967471) (layers F.Paste) (roundrect_rratio 0.25))
  (pad "" smd roundrect (at 1.8 1.8) (size 0.967471 0.967471) (layers F.Paste) (roundrect_rratio 0.25))
  (pad "" smd roundrect (at 1.8 0.6) (size 0.967471 0.967471) (layers F.Paste) (roundrect_rratio 0.25))
  (pad "" smd roundrect (at 1.8 -0.6) (size 0.967471 0.967471) (layers F.Paste) (roundrect_rratio 0.25))
  (pad "" smd roundrect (at 1.8 -1.8) (size 0.967471 0.967471) (layers F.Paste) (roundrect_rratio 0.25))
  (pad "" smd roundrect (at 1.8 -3) (size 0.967471 0.967471) (layers F.Paste) (roundrect_rratio 0.25))
  (pad "" smd roundrect (at 0.6 3) (size 0.967471 0.967471) (layers F.Paste) (roundrect_rratio 0.25))
  (pad "" smd roundrect (at 0.6 1.8) (size 0.967471 0.967471) (layers F.Paste) (roundrect_rratio 0.25))
  (pad "" smd roundrect (at 0.6 0.6) (size 0.967471 0.967471) (layers F.Paste) (roundrect_rratio 0.25))
  (pad "" smd roundrect (at 0.6 -0.6) (size 0.967471 0.967471) (layers F.Paste) (roundrect_rratio 0.25))
  (pad "" smd roundrect (at 0.6 -1.8) (size 0.967471 0.967471) (layers F.Paste) (roundrect_rratio 0.25))
  (pad "" smd roundrect (at 0.6 -3) (size 0.967471 0.967471) (layers F.Paste) (roundrect_rratio 0.25))
  (pad "" smd roundrect (at -0.6 3) (size 0.967471 0.967471) (layers F.Paste) (roundrect_rratio 0.25))
  (pad "" smd roundrect (at -0.6 1.8) (size 0.967471 0.967471) (layers F.Paste) (roundrect_rratio 0.25))
  (pad "" smd roundrect (at -0.6 0.6) (size 0.967471 0.967471) (layers F.Paste) (roundrect_rratio 0.25))
  (pad "" smd roundrect (at -0.6 -0.6) (size 0.967471 0.967471) (layers F.Paste) (roundrect_rratio 0.25))
  (pad "" smd roundrect (at -0.6 -1.8) (size 0.967471 0.967471) (layers F.Paste) (roundrect_rratio 0.25))
  (pad "" smd roundrect (at -0.6 -3) (size 0.967471 0.967471) (layers F.Paste) (roundrect_rratio 0.25))
  (pad "" smd roundrect (at -1.8 3) (size 0.967471 0.967471) (layers F.Paste) (roundrect_rratio 0.25))
  (pad "" smd roundrect (at -1.8 1.8) (size 0.967471 0.967471) (layers F.Paste) (roundrect_rratio 0.25))
  (pad "" smd roundrect (at -1.8 0.6) (size 0.967471 0.967471) (layers F.Paste) (roundrect_rratio 0.25))
  (pad "" smd roundrect (at -1.8 -0.6) (size 0.967471 0.967471) (layers F.Paste) (roundrect_rratio 0.25))
  (pad "" smd roundrect (at -1.8 -1.8) (size 0.967471 0.967471) (layers F.Paste) (roundrect_rratio 0.25))
  (pad "" smd roundrect (at -1.8 -3) (size 0.967471 0.967471) (layers F.Paste) (roundrect_rratio 0.25))
  (pad "" smd roundrect (at -3 3) (size 0.967471 0.967471) (layers F.Paste) (roundrect_rratio 0.25))
  (pad "" smd roundrect (at -3 1.8) (size 0.967471 0.967471) (layers F.Paste) (roundrect_rratio 0.25))
  (pad "" smd roundrect (at -3 0.6) (size 0.967471 0.967471) (layers F.Paste) (roundrect_rratio 0.25))
  (pad "" smd roundrect (at -3 -0.6) (size 0.967471 0.967471) (layers F.Paste) (roundrect_rratio 0.25))
  (pad "" smd roundrect (at -3 -1.8) (size 0.967471 0.967471) (layers F.Paste) (roundrect_rratio 0.25))
  (pad "" smd roundrect (at -3 -3) (size 0.967471 0.967471) (layers F.Paste) (roundrect_rratio 0.25))
  (pad 145 smd rect (at 0 0) (size 7.7 7.7) (layers B.Cu B.Mask))
  (pad 145 thru_hole circle (at 3.6 3.6) (size 0.5 0.5) (drill 0.2) (layers *.Cu))
  (pad 145 thru_hole circle (at 2.4 3.6) (size 0.5 0.5) (drill 0.2) (layers *.Cu))
  (pad 145 thru_hole circle (at 1.2 3.6) (size 0.5 0.5) (drill 0.2) (layers *.Cu))
  (pad 145 thru_hole circle (at 0 3.6) (size 0.5 0.5) (drill 0.2) (layers *.Cu))
  (pad 145 thru_hole circle (at -1.2 3.6) (size 0.5 0.5) (drill 0.2) (layers *.Cu))
  (pad 145 thru_hole circle (at -2.4 3.6) (size 0.5 0.5) (drill 0.2) (layers *.Cu))
  (pad 145 thru_hole circle (at -3.6 3.6) (size 0.5 0.5) (drill 0.2) (layers *.Cu))
  (pad 145 thru_hole circle (at 3.6 2.4) (size 0.5 0.5) (drill 0.2) (layers *.Cu))
  (pad 145 thru_hole circle (at 2.4 2.4) (size 0.5 0.5) (drill 0.2) (layers *.Cu))
  (pad 145 thru_hole circle (at 1.2 2.4) (size 0.5 0.5) (drill 0.2) (layers *.Cu))
  (pad 145 thru_hole circle (at 0 2.4) (size 0.5 0.5) (drill 0.2) (layers *.Cu))
  (pad 145 thru_hole circle (at -1.2 2.4) (size 0.5 0.5) (drill 0.2) (layers *.Cu))
  (pad 145 thru_hole circle (at -2.4 2.4) (size 0.5 0.5) (drill 0.2) (layers *.Cu))
  (pad 145 thru_hole circle (at -3.6 2.4) (size 0.5 0.5) (drill 0.2) (layers *.Cu))
  (pad 145 thru_hole circle (at 3.6 1.2) (size 0.5 0.5) (drill 0.2) (layers *.Cu))
  (pad 145 thru_hole circle (at 2.4 1.2) (size 0.5 0.5) (drill 0.2) (layers *.Cu))
  (pad 145 thru_hole circle (at 1.2 1.2) (size 0.5 0.5) (drill 0.2) (layers *.Cu))
  (pad 145 thru_hole circle (at 0 1.2) (size 0.5 0.5) (drill 0.2) (layers *.Cu))
  (pad 145 thru_hole circle (at -1.2 1.2) (size 0.5 0.5) (drill 0.2) (layers *.Cu))
  (pad 145 thru_hole circle (at -2.4 1.2) (size 0.5 0.5) (drill 0.2) (layers *.Cu))
  (pad 145 thru_hole circle (at -3.6 1.2) (size 0.5 0.5) (drill 0.2) (layers *.Cu))
  (pad 145 thru_hole circle (at 3.6 0) (size 0.5 0.5) (drill 0.2) (layers *.Cu))
  (pad 145 thru_hole circle (at 2.4 0) (size 0.5 0.5) (drill 0.2) (layers *.Cu))
  (pad 145 thru_hole circle (at 1.2 0) (size 0.5 0.5) (drill 0.2) (layers *.Cu))
  (pad 145 thru_hole circle (at 0 0) (size 0.5 0.5) (drill 0.2) (layers *.Cu))
  (pad 145 thru_hole circle (at -1.2 0) (size 0.5 0.5) (drill 0.2) (layers *.Cu))
  (pad 145 thru_hole circle (at -2.4 0) (size 0.5 0.5) (drill 0.2) (layers *.Cu))
  (pad 145 thru_hole circle (at -3.6 0) (size 0.5 0.5) (drill 0.2) (layers *.Cu))
  (pad 145 thru_hole circle (at 3.6 -1.2) (size 0.5 0.5) (drill 0.2) (layers *.Cu))
  (pad 145 thru_hole circle (at 2.4 -1.2) (size 0.5 0.5) (drill 0.2) (layers *.Cu))
  (pad 145 thru_hole circle (at 1.2 -1.2) (size 0.5 0.5) (drill 0.2) (layers *.Cu))
  (pad 145 thru_hole circle (at 0 -1.2) (size 0.5 0.5) (drill 0.2) (layers *.Cu))
  (pad 145 thru_hole circle (at -1.2 -1.2) (size 0.5 0.5) (drill 0.2) (layers *.Cu))
  (pad 145 thru_hole circle (at -2.4 -1.2) (size 0.5 0.5) (drill 0.2) (layers *.Cu))
  (pad 145 thru_hole circle (at -3.6 -1.2) (size 0.5 0.5) (drill 0.2) (layers *.Cu))
  (pad 145 thru_hole circle (at 3.6 -2.4) (size 0.5 0.5) (drill 0.2) (layers *.Cu))
  (pad 145 thru_hole circle (at 2.4 -2.4) (size 0.5 0.5) (drill 0.2) (layers *.Cu))
  (pad 145 thru_hole circle (at 1.2 -2.4) (size 0.5 0.5) (drill 0.2) (layers *.Cu))
  (pad 145 thru_hole circle (at 0 -2.4) (size 0.5 0.5) (drill 0.2) (layers *.Cu))
  (pad 145 thru_hole circle (at -1.2 -2.4) (size 0.5 0.5) (drill 0.2) (layers *.Cu))
  (pad 145 thru_hole circle (at -2.4 -2.4) (size 0.5 0.5) (drill 0.2) (layers *.Cu))
  (pad 145 thru_hole circle (at -3.6 -2.4) (size 0.5 0.5) (drill 0.2) (layers *.Cu))
  (pad 145 thru_hole circle (at 3.6 -3.6) (size 0.5 0.5) (drill 0.2) (layers *.Cu))
  (pad 145 thru_hole circle (at 2.4 -3.6) (size 0.5 0.5) (drill 0.2) (layers *.Cu))
  (pad 145 thru_hole circle (at 1.2 -3.6) (size 0.5 0.5) (drill 0.2) (layers *.Cu))
  (pad 145 thru_hole circle (at 0 -3.6) (size 0.5 0.5) (drill 0.2) (layers *.Cu))
  (pad 145 thru_hole circle (at -1.2 -3.6) (size 0.5 0.5) (drill 0.2) (layers *.Cu))
  (pad 145 thru_hole circle (at -2.4 -3.6) (size 0.5 0.5) (drill 0.2) (layers *.Cu))
  (pad 145 thru_hole circle (at -3.6 -3.6) (size 0.5 0.5) (drill 0.2) (layers *.Cu))
  (pad 145 smd rect (at 0 0) (size 8.93 8.7) (layers F.Cu F.Mask))
  (pad 144 smd roundrect (at -8.75 -10.6625) (size 0.3 1.475) (layers F.Cu F.Paste F.Mask) (roundrect_rratio 0.25))
  (pad 143 smd roundrect (at -8.25 -10.6625) (size 0.3 1.475) (layers F.Cu F.Paste F.Mask) (roundrect_rratio 0.25))
  (pad 142 smd roundrect (at -7.75 -10.6625) (size 0.3 1.475) (layers F.Cu F.Paste F.Mask) (roundrect_rratio 0.25))
  (pad 141 smd roundrect (at -7.25 -10.6625) (size 0.3 1.475) (layers F.Cu F.Paste F.Mask) (roundrect_rratio 0.25))
  (pad 140 smd roundrect (at -6.75 -10.6625) (size 0.3 1.475) (layers F.Cu F.Paste F.Mask) (roundrect_rratio 0.25))
  (pad 139 smd roundrect (at -6.25 -10.6625) (size 0.3 1.475) (layers F.Cu F.Paste F.Mask) (roundrect_rratio 0.25))
  (pad 138 smd roundrect (at -5.75 -10.6625) (size 0.3 1.475) (layers F.Cu F.Paste F.Mask) (roundrect_rratio 0.25))
  (pad 137 smd roundrect (at -5.25 -10.6625) (size 0.3 1.475) (layers F.Cu F.Paste F.Mask) (roundrect_rratio 0.25))
  (pad 136 smd roundrect (at -4.75 -10.6625) (size 0.3 1.475) (layers F.Cu F.Paste F.Mask) (roundrect_rratio 0.25))
  (pad 135 smd roundrect (at -4.25 -10.6625) (size 0.3 1.475) (layers F.Cu F.Paste F.Mask) (roundrect_rratio 0.25))
  (pad 134 smd roundrect (at -3.75 -10.6625) (size 0.3 1.475) (layers F.Cu F.Paste F.Mask) (roundrect_rratio 0.25))
  (pad 133 smd roundrect (at -3.25 -10.6625) (size 0.3 1.475) (layers F.Cu F.Paste F.Mask) (roundrect_rratio 0.25))
  (pad 132 smd roundrect (at -2.75 -10.6625) (size 0.3 1.475) (layers F.Cu F.Paste F.Mask) (roundrect_rratio 0.25))
  (pad 131 smd roundrect (at -2.25 -10.6625) (size 0.3 1.475) (layers F.Cu F.Paste F.Mask) (roundrect_rratio 0.25))
  (pad 130 smd roundrect (at -1.75 -10.6625) (size 0.3 1.475) (layers F.Cu F.Paste F.Mask) (roundrect_rratio 0.25))
  (pad 129 smd roundrect (at -1.25 -10.6625) (size 0.3 1.475) (layers F.Cu F.Paste F.Mask) (roundrect_rratio 0.25))
  (pad 128 smd roundrect (at -0.75 -10.6625) (size 0.3 1.475) (layers F.Cu F.Paste F.Mask) (roundrect_rratio 0.25))
  (pad 127 smd roundrect (at -0.25 -10.6625) (size 0.3 1.475) (layers F.Cu F.Paste F.Mask) (roundrect_rratio 0.25))
  (pad 126 smd roundrect (at 0.25 -10.6625) (size 0.3 1.475) (layers F.Cu F.Paste F.Mask) (roundrect_rratio 0.25))
  (pad 125 smd roundrect (at 0.75 -10.6625) (size 0.3 1.475) (layers F.Cu F.Paste F.Mask) (roundrect_rratio 0.25))
  (pad 124 smd roundrect (at 1.25 -10.6625) (size 0.3 1.475) (layers F.Cu F.Paste F.Mask) (roundrect_rratio 0.25))
  (pad 123 smd roundrect (at 1.75 -10.6625) (size 0.3 1.475) (layers F.Cu F.Paste F.Mask) (roundrect_rratio 0.25))
  (pad 122 smd roundrect (at 2.25 -10.6625) (size 0.3 1.475) (layers F.Cu F.Paste F.Mask) (roundrect_rratio 0.25))
  (pad 121 smd roundrect (at 2.75 -10.6625) (size 0.3 1.475) (layers F.Cu F.Paste F.Mask) (roundrect_rratio 0.25))
  (pad 120 smd roundrect (at 3.25 -10.6625) (size 0.3 1.475) (layers F.Cu F.Paste F.Mask) (roundrect_rratio 0.25))
  (pad 119 smd roundrect (at 3.75 -10.6625) (size 0.3 1.475) (layers F.Cu F.Paste F.Mask) (roundrect_rratio 0.25))
  (pad 118 smd roundrect (at 4.25 -10.6625) (size 0.3 1.475) (layers F.Cu F.Paste F.Mask) (roundrect_rratio 0.25))
  (pad 117 smd roundrect (at 4.75 -10.6625) (size 0.3 1.475) (layers F.Cu F.Paste F.Mask) (roundrect_rratio 0.25))
  (pad 116 smd roundrect (at 5.25 -10.6625) (size 0.3 1.475) (layers F.Cu F.Paste F.Mask) (roundrect_rratio 0.25))
  (pad 115 smd roundrect (at 5.75 -10.6625) (size 0.3 1.475) (layers F.Cu F.Paste F.Mask) (roundrect_rratio 0.25))
  (pad 114 smd roundrect (at 6.25 -10.6625) (size 0.3 1.475) (layers F.Cu F.Paste F.Mask) (roundrect_rratio 0.25))
  (pad 113 smd roundrect (at 6.75 -10.6625) (size 0.3 1.475) (layers F.Cu F.Paste F.Mask) (roundrect_rratio 0.25))
  (pad 112 smd roundrect (at 7.25 -10.6625) (size 0.3 1.475) (layers F.Cu F.Paste F.Mask) (roundrect_rratio 0.25))
  (pad 111 smd roundrect (at 7.75 -10.6625) (size 0.3 1.475) (layers F.Cu F.Paste F.Mask) (roundrect_rratio 0.25))
  (pad 110 smd roundrect (at 8.25 -10.6625) (size 0.3 1.475) (layers F.Cu F.Paste F.Mask) (roundrect_rratio 0.25))
  (pad 109 smd roundrect (at 8.75 -10.6625) (size 0.3 1.475) (layers F.Cu F.Paste F.Mask) (roundrect_rratio 0.25))
  (pad 108 smd roundrect (at 10.6625 -8.75) (size 1.475 0.3) (layers F.Cu F.Paste F.Mask) (roundrect_rratio 0.25))
  (pad 107 smd roundrect (at 10.6625 -8.25) (size 1.475 0.3) (layers F.Cu F.Paste F.Mask) (roundrect_rratio 0.25))
  (pad 106 smd roundrect (at 10.6625 -7.75) (size 1.475 0.3) (layers F.Cu F.Paste F.Mask) (roundrect_rratio 0.25))
  (pad 105 smd roundrect (at 10.6625 -7.25) (size 1.475 0.3) (layers F.Cu F.Paste F.Mask) (roundrect_rratio 0.25))
  (pad 104 smd roundrect (at 10.6625 -6.75) (size 1.475 0.3) (layers F.Cu F.Paste F.Mask) (roundrect_rratio 0.25))
  (pad 103 smd roundrect (at 10.6625 -6.25) (size 1.475 0.3) (layers F.Cu F.Paste F.Mask) (roundrect_rratio 0.25))
  (pad 102 smd roundrect (at 10.6625 -5.75) (size 1.475 0.3) (layers F.Cu F.Paste F.Mask) (roundrect_rratio 0.25))
  (pad 101 smd roundrect (at 10.6625 -5.25) (size 1.475 0.3) (layers F.Cu F.Paste F.Mask) (roundrect_rratio 0.25))
  (pad 100 smd roundrect (at 10.6625 -4.75) (size 1.475 0.3) (layers F.Cu F.Paste F.Mask) (roundrect_rratio 0.25))
  (pad 99 smd roundrect (at 10.6625 -4.25) (size 1.475 0.3) (layers F.Cu F.Paste F.Mask) (roundrect_rratio 0.25))
  (pad 98 smd roundrect (at 10.6625 -3.75) (size 1.475 0.3) (layers F.Cu F.Paste F.Mask) (roundrect_rratio 0.25))
  (pad 97 smd roundrect (at 10.6625 -3.25) (size 1.475 0.3) (layers F.Cu F.Paste F.Mask) (roundrect_rratio 0.25))
  (pad 96 smd roundrect (at 10.6625 -2.75) (size 1.475 0.3) (layers F.Cu F.Paste F.Mask) (roundrect_rratio 0.25))
  (pad 95 smd roundrect (at 10.6625 -2.25) (size 1.475 0.3) (layers F.Cu F.Paste F.Mask) (roundrect_rratio 0.25))
  (pad 94 smd roundrect (at 10.6625 -1.75) (size 1.475 0.3) (layers F.Cu F.Paste F.Mask) (roundrect_rratio 0.25))
  (pad 93 smd roundrect (at 10.6625 -1.25) (size 1.475 0.3) (layers F.Cu F.Paste F.Mask) (roundrect_rratio 0.25))
  (pad 92 smd roundrect (at 10.6625 -0.75) (size 1.475 0.3) (layers F.Cu F.Paste F.Mask) (roundrect_rratio 0.25))
  (pad 91 smd roundrect (at 10.6625 -0.25) (size 1.475 0.3) (layers F.Cu F.Paste F.Mask) (roundrect_rratio 0.25))
  (pad 90 smd roundrect (at 10.6625 0.25) (size 1.475 0.3) (layers F.Cu F.Paste F.Mask) (roundrect_rratio 0.25))
  (pad 89 smd roundrect (at 10.6625 0.75) (size 1.475 0.3) (layers F.Cu F.Paste F.Mask) (roundrect_rratio 0.25))
  (pad 88 smd roundrect (at 10.6625 1.25) (size 1.475 0.3) (layers F.Cu F.Paste F.Mask) (roundrect_rratio 0.25))
  (pad 87 smd roundrect (at 10.6625 1.75) (size 1.475 0.3) (layers F.Cu F.Paste F.Mask) (roundrect_rratio 0.25))
  (pad 86 smd roundrect (at 10.6625 2.25) (size 1.475 0.3) (layers F.Cu F.Paste F.Mask) (roundrect_rratio 0.25))
  (pad 85 smd roundrect (at 10.6625 2.75) (size 1.475 0.3) (layers F.Cu F.Paste F.Mask) (roundrect_rratio 0.25))
  (pad 84 smd roundrect (at 10.6625 3.25) (size 1.475 0.3) (layers F.Cu F.Paste F.Mask) (roundrect_rratio 0.25))
  (pad 83 smd roundrect (at 10.6625 3.75) (size 1.475 0.3) (layers F.Cu F.Paste F.Mask) (roundrect_rratio 0.25))
  (pad 82 smd roundrect (at 10.6625 4.25) (size 1.475 0.3) (layers F.Cu F.Paste F.Mask) (roundrect_rratio 0.25))
  (pad 81 smd roundrect (at 10.6625 4.75) (size 1.475 0.3) (layers F.Cu F.Paste F.Mask) (roundrect_rratio 0.25))
  (pad 80 smd roundrect (at 10.6625 5.25) (size 1.475 0.3) (layers F.Cu F.Paste F.Mask) (roundrect_rratio 0.25))
  (pad 79 smd roundrect (at 10.6625 5.75) (size 1.475 0.3) (layers F.Cu F.Paste F.Mask) (roundrect_rratio 0.25))
  (pad 78 smd roundrect (at 10.6625 6.25) (size 1.475 0.3) (layers F.Cu F.Paste F.Mask) (roundrect_rratio 0.25))
  (pad 77 smd roundrect (at 10.6625 6.75) (size 1.475 0.3) (layers F.Cu F.Paste F.Mask) (roundrect_rratio 0.25))
  (pad 76 smd roundrect (at 10.6625 7.25) (size 1.475 0.3) (layers F.Cu F.Paste F.Mask) (roundrect_rratio 0.25))
  (pad 75 smd roundrect (at 10.6625 7.75) (size 1.475 0.3) (layers F.Cu F.Paste F.Mask) (roundrect_rratio 0.25))
  (pad 74 smd roundrect (at 10.6625 8.25) (size 1.475 0.3) (layers F.Cu F.Paste F.Mask) (roundrect_rratio 0.25))
  (pad 73 smd roundrect (at 10.6625 8.75) (size 1.475 0.3) (layers F.Cu F.Paste F.Mask) (roundrect_rratio 0.25))
  (pad 72 smd roundrect (at 8.75 10.6625) (size 0.3 1.475) (layers F.Cu F.Paste F.Mask) (roundrect_rratio 0.25))
  (pad 71 smd roundrect (at 8.25 10.6625) (size 0.3 1.475) (layers F.Cu F.Paste F.Mask) (roundrect_rratio 0.25))
  (pad 70 smd roundrect (at 7.75 10.6625) (size 0.3 1.475) (layers F.Cu F.Paste F.Mask) (roundrect_rratio 0.25))
  (pad 69 smd roundrect (at 7.25 10.6625) (size 0.3 1.475) (layers F.Cu F.Paste F.Mask) (roundrect_rratio 0.25))
  (pad 68 smd roundrect (at 6.75 10.6625) (size 0.3 1.475) (layers F.Cu F.Paste F.Mask) (roundrect_rratio 0.25))
  (pad 67 smd roundrect (at 6.25 10.6625) (size 0.3 1.475) (layers F.Cu F.Paste F.Mask) (roundrect_rratio 0.25))
  (pad 66 smd roundrect (at 5.75 10.6625) (size 0.3 1.475) (layers F.Cu F.Paste F.Mask) (roundrect_rratio 0.25))
  (pad 65 smd roundrect (at 5.25 10.6625) (size 0.3 1.475) (layers F.Cu F.Paste F.Mask) (roundrect_rratio 0.25))
  (pad 64 smd roundrect (at 4.75 10.6625) (size 0.3 1.475) (layers F.Cu F.Paste F.Mask) (roundrect_rratio 0.25))
  (pad 63 smd roundrect (at 4.25 10.6625) (size 0.3 1.475) (layers F.Cu F.Paste F.Mask) (roundrect_rratio 0.25))
  (pad 62 smd roundrect (at 3.75 10.6625) (size 0.3 1.475) (layers F.Cu F.Paste F.Mask) (roundrect_rratio 0.25))
  (pad 61 smd roundrect (at 3.25 10.6625) (size 0.3 1.475) (layers F.Cu F.Paste F.Mask) (roundrect_rratio 0.25))
  (pad 60 smd roundrect (at 2.75 10.6625) (size 0.3 1.475) (layers F.Cu F.Paste F.Mask) (roundrect_rratio 0.25))
  (pad 59 smd roundrect (at 2.25 10.6625) (size 0.3 1.475) (layers F.Cu F.Paste F.Mask) (roundrect_rratio 0.25))
  (pad 58 smd roundrect (at 1.75 10.6625) (size 0.3 1.475) (layers F.Cu F.Paste F.Mask) (roundrect_rratio 0.25))
  (pad 57 smd roundrect (at 1.25 10.6625) (size 0.3 1.475) (layers F.Cu F.Paste F.Mask) (roundrect_rratio 0.25))
  (pad 56 smd roundrect (at 0.75 10.6625) (size 0.3 1.475) (layers F.Cu F.Paste F.Mask) (roundrect_rratio 0.25))
  (pad 55 smd roundrect (at 0.25 10.6625) (size 0.3 1.475) (layers F.Cu F.Paste F.Mask) (roundrect_rratio 0.25))
  (pad 54 smd roundrect (at -0.25 10.6625) (size 0.3 1.475) (layers F.Cu F.Paste F.Mask) (roundrect_rratio 0.25))
  (pad 53 smd roundrect (at -0.75 10.6625) (size 0.3 1.475) (layers F.Cu F.Paste F.Mask) (roundrect_rratio 0.25))
  (pad 52 smd roundrect (at -1.25 10.6625) (size 0.3 1.475) (layers F.Cu F.Paste F.Mask) (roundrect_rratio 0.25))
  (pad 51 smd roundrect (at -1.75 10.6625) (size 0.3 1.475) (layers F.Cu F.Paste F.Mask) (roundrect_rratio 0.25))
  (pad 50 smd roundrect (at -2.25 10.6625) (size 0.3 1.475) (layers F.Cu F.Paste F.Mask) (roundrect_rratio 0.25))
  (pad 49 smd roundrect (at -2.75 10.6625) (size 0.3 1.475) (layers F.Cu F.Paste F.Mask) (roundrect_rratio 0.25))
  (pad 48 smd roundrect (at -3.25 10.6625) (size 0.3 1.475) (layers F.Cu F.Paste F.Mask) (roundrect_rratio 0.25))
  (pad 47 smd roundrect (at -3.75 10.6625) (size 0.3 1.475) (layers F.Cu F.Paste F.Mask) (roundrect_rratio 0.25))
  (pad 46 smd roundrect (at -4.25 10.6625) (size 0.3 1.475) (layers F.Cu F.Paste F.Mask) (roundrect_rratio 0.25))
  (pad 45 smd roundrect (at -4.75 10.6625) (size 0.3 1.475) (layers F.Cu F.Paste F.Mask) (roundrect_rratio 0.25))
  (pad 44 smd roundrect (at -5.25 10.6625) (size 0.3 1.475) (layers F.Cu F.Paste F.Mask) (roundrect_rratio 0.25))
  (pad 43 smd roundrect (at -5.75 10.6625) (size 0.3 1.475) (layers F.Cu F.Paste F.Mask) (roundrect_rratio 0.25))
  (pad 42 smd roundrect (at -6.25 10.6625) (size 0.3 1.475) (layers F.Cu F.Paste F.Mask) (roundrect_rratio 0.25))
  (pad 41 smd roundrect (at -6.75 10.6625) (size 0.3 1.475) (layers F.Cu F.Paste F.Mask) (roundrect_rratio 0.25))
  (pad 40 smd roundrect (at -7.25 10.6625) (size 0.3 1.475) (layers F.Cu F.Paste F.Mask) (roundrect_rratio 0.25))
  (pad 39 smd roundrect (at -7.75 10.6625) (size 0.3 1.475) (layers F.Cu F.Paste F.Mask) (roundrect_rratio 0.25))
  (pad 38 smd roundrect (at -8.25 10.6625) (size 0.3 1.475) (layers F.Cu F.Paste F.Mask) (roundrect_rratio 0.25))
  (pad 37 smd roundrect (at -8.75 10.6625) (size 0.3 1.475) (layers F.Cu F.Paste F.Mask) (roundrect_rratio 0.25))
  (pad 36 smd roundrect (at -10.6625 8.75) (size 1.475 0.3) (layers F.Cu F.Paste F.Mask) (roundrect_rratio 0.25))
  (pad 35 smd roundrect (at -10.6625 8.25) (size 1.475 0.3) (layers F.Cu F.Paste F.Mask) (roundrect_rratio 0.25))
  (pad 34 smd roundrect (at -10.6625 7.75) (size 1.475 0.3) (layers F.Cu F.Paste F.Mask) (roundrect_rratio 0.25))
  (pad 33 smd roundrect (at -10.6625 7.25) (size 1.475 0.3) (layers F.Cu F.Paste F.Mask) (roundrect_rratio 0.25))
  (pad 32 smd roundrect (at -10.6625 6.75) (size 1.475 0.3) (layers F.Cu F.Paste F.Mask) (roundrect_rratio 0.25))
  (pad 31 smd roundrect (at -10.6625 6.25) (size 1.475 0.3) (layers F.Cu F.Paste F.Mask) (roundrect_rratio 0.25))
  (pad 30 smd roundrect (at -10.6625 5.75) (size 1.475 0.3) (layers F.Cu F.Paste F.Mask) (roundrect_rratio 0.25))
  (pad 29 smd roundrect (at -10.6625 5.25) (size 1.475 0.3) (layers F.Cu F.Paste F.Mask) (roundrect_rratio 0.25))
  (pad 28 smd roundrect (at -10.6625 4.75) (size 1.475 0.3) (layers F.Cu F.Paste F.Mask) (roundrect_rratio 0.25))
  (pad 27 smd roundrect (at -10.6625 4.25) (size 1.475 0.3) (layers F.Cu F.Paste F.Mask) (roundrect_rratio 0.25))
  (pad 26 smd roundrect (at -10.6625 3.75) (size 1.475 0.3) (layers F.Cu F.Paste F.Mask) (roundrect_rratio 0.25))
  (pad 25 smd roundrect (at -10.6625 3.25) (size 1.475 0.3) (layers F.Cu F.Paste F.Mask) (roundrect_rratio 0.25))
  (pad 24 smd roundrect (at -10.6625 2.75) (size 1.475 0.3) (layers F.Cu F.Paste F.Mask) (roundrect_rratio 0.25))
  (pad 23 smd roundrect (at -10.6625 2.25) (size 1.475 0.3) (layers F.Cu F.Paste F.Mask) (roundrect_rratio 0.25))
  (pad 22 smd roundrect (at -10.6625 1.75) (size 1.475 0.3) (layers F.Cu F.Paste F.Mask) (roundrect_rratio 0.25))
  (pad 21 smd roundrect (at -10.6625 1.25) (size 1.475 0.3) (layers F.Cu F.Paste F.Mask) (roundrect_rratio 0.25))
  (pad 20 smd roundrect (at -10.6625 0.75) (size 1.475 0.3) (layers F.Cu F.Paste F.Mask) (roundrect_rratio 0.25))
  (pad 19 smd roundrect (at -10.6625 0.25) (size 1.475 0.3) (layers F.Cu F.Paste F.Mask) (roundrect_rratio 0.25))
  (pad 18 smd roundrect (at -10.6625 -0.25) (size 1.475 0.3) (layers F.Cu F.Paste F.Mask) (roundrect_rratio 0.25))
  (pad 17 smd roundrect (at -10.6625 -0.75) (size 1.475 0.3) (layers F.Cu F.Paste F.Mask) (roundrect_rratio 0.25))
  (pad 16 smd roundrect (at -10.6625 -1.25) (size 1.475 0.3) (layers F.Cu F.Paste F.Mask) (roundrect_rratio 0.25))
  (pad 15 smd roundrect (at -10.6625 -1.75) (size 1.475 0.3) (layers F.Cu F.Paste F.Mask) (roundrect_rratio 0.25))
  (pad 14 smd roundrect (at -10.6625 -2.25) (size 1.475 0.3) (layers F.Cu F.Paste F.Mask) (roundrect_rratio 0.25))
  (pad 13 smd roundrect (at -10.6625 -2.75) (size 1.475 0.3) (layers F.Cu F.Paste F.Mask) (roundrect_rratio 0.25))
  (pad 12 smd roundrect (at -10.6625 -3.25) (size 1.475 0.3) (layers F.Cu F.Paste F.Mask) (roundrect_rratio 0.25))
  (pad 11 smd roundrect (at -10.6625 -3.75) (size 1.475 0.3) (layers F.Cu F.Paste F.Mask) (roundrect_rratio 0.25))
  (pad 10 smd roundrect (at -10.6625 -4.25) (size 1.475 0.3) (layers F.Cu F.Paste F.Mask) (roundrect_rratio 0.25))
  (pad 9 smd roundrect (at -10.6625 -4.75) (size 1.475 0.3) (layers F.Cu F.Paste F.Mask) (roundrect_rratio 0.25))
  (pad 8 smd roundrect (at -10.6625 -5.25) (size 1.475 0.3) (layers F.Cu F.Paste F.Mask) (roundrect_rratio 0.25))
  (pad 7 smd roundrect (at -10.6625 -5.75) (size 1.475 0.3) (layers F.Cu F.Paste F.Mask) (roundrect_rratio 0.25))
  (pad 6 smd roundrect (at -10.6625 -6.25) (size 1.475 0.3) (layers F.Cu F.Paste F.Mask) (roundrect_rratio 0.25))
  (pad 5 smd roundrect (at -10.6625 -6.75) (size 1.475 0.3) (layers F.Cu F.Paste F.Mask) (roundrect_rratio 0.25))
  (pad 4 smd roundrect (at -10.6625 -7.25) (size 1.475 0.3) (layers F.Cu F.Paste F.Mask) (roundrect_rratio 0.25))
  (pad 3 smd roundrect (at -10.6625 -7.75) (size 1.475 0.3) (layers F.Cu F.Paste F.Mask) (roundrect_rratio 0.25))
  (pad 2 smd roundrect (at -10.6625 -8.25) (size 1.475 0.3) (layers F.Cu F.Paste F.Mask) (roundrect_rratio 0.25))
  (pad 1 smd roundrect (at -10.6625 -8.75) (size 1.475 0.3) (layers F.Cu F.Paste F.Mask) (roundrect_rratio 0.25))
  (model ${KISYS3DMOD}/Package_QFP.3dshapes/EQFP-144-1EP_20x20mm_P0.5mm_EP8.93x8.7mm.wrl
    (at (xyz 0 0 0))
    (scale (xyz 1 1 1))
    (rotate (xyz 0 0 0))
  )
)
