(module LQFP-32_5x5mm_P0.5mm (layer F.Cu) (tedit 607FD3D4)
  (descr "LQFP, 32 Pin (https://www.nxp.com/docs/en/package-information/SOT401-1.pdf), Alternate KiCad Library")
  (tags "LQFP QFP")
  (attr smd)
  (fp_text reference REF** (at 0 -4.88) (layer F.SilkS)
    (effects (font (size 1 1) (thickness 0.15)))
  )
  (fp_text value LQFP-32_5x5mm_P0.5mm (at 0 4.88) (layer F.Fab)
    (effects (font (size 1 1) (thickness 0.15)))
  )
  (fp_circle (center -3.302 -3.302) (end -3.175 -3.302) (layer F.SilkS) (width 0.4))
  (fp_line (start -1.5 -2.5) (end 2.5 -2.5) (layer F.Fab) (width 0.1))
  (fp_line (start 2.5 -2.5) (end 2.5 2.5) (layer F.Fab) (width 0.1))
  (fp_line (start 2.5 2.5) (end -2.5 2.5) (layer F.Fab) (width 0.1))
  (fp_line (start -2.5 2.5) (end -2.5 -1.5) (layer F.Fab) (width 0.1))
  (fp_line (start -2.5 -1.5) (end -1.5 -2.5) (layer F.Fab) (width 0.1))
  (fp_line (start 0 -4.18) (end -2.15 -4.18) (layer F.CrtYd) (width 0.05))
  (fp_line (start -2.15 -4.18) (end -2.15 -2.75) (layer F.CrtYd) (width 0.05))
  (fp_line (start -2.15 -2.75) (end -2.75 -2.75) (layer F.CrtYd) (width 0.05))
  (fp_line (start -2.75 -2.75) (end -2.75 -2.15) (layer F.CrtYd) (width 0.05))
  (fp_line (start -2.75 -2.15) (end -4.18 -2.15) (layer F.CrtYd) (width 0.05))
  (fp_line (start -4.18 -2.15) (end -4.18 0) (layer F.CrtYd) (width 0.05))
  (fp_line (start 0 -4.18) (end 2.15 -4.18) (layer F.CrtYd) (width 0.05))
  (fp_line (start 2.15 -4.18) (end 2.15 -2.75) (layer F.CrtYd) (width 0.05))
  (fp_line (start 2.15 -2.75) (end 2.75 -2.75) (layer F.CrtYd) (width 0.05))
  (fp_line (start 2.75 -2.75) (end 2.75 -2.15) (layer F.CrtYd) (width 0.05))
  (fp_line (start 2.75 -2.15) (end 4.18 -2.15) (layer F.CrtYd) (width 0.05))
  (fp_line (start 4.18 -2.15) (end 4.18 0) (layer F.CrtYd) (width 0.05))
  (fp_line (start 0 4.18) (end -2.15 4.18) (layer F.CrtYd) (width 0.05))
  (fp_line (start -2.15 4.18) (end -2.15 2.75) (layer F.CrtYd) (width 0.05))
  (fp_line (start -2.15 2.75) (end -2.75 2.75) (layer F.CrtYd) (width 0.05))
  (fp_line (start -2.75 2.75) (end -2.75 2.15) (layer F.CrtYd) (width 0.05))
  (fp_line (start -2.75 2.15) (end -4.18 2.15) (layer F.CrtYd) (width 0.05))
  (fp_line (start -4.18 2.15) (end -4.18 0) (layer F.CrtYd) (width 0.05))
  (fp_line (start 0 4.18) (end 2.15 4.18) (layer F.CrtYd) (width 0.05))
  (fp_line (start 2.15 4.18) (end 2.15 2.75) (layer F.CrtYd) (width 0.05))
  (fp_line (start 2.15 2.75) (end 2.75 2.75) (layer F.CrtYd) (width 0.05))
  (fp_line (start 2.75 2.75) (end 2.75 2.15) (layer F.CrtYd) (width 0.05))
  (fp_line (start 2.75 2.15) (end 4.18 2.15) (layer F.CrtYd) (width 0.05))
  (fp_line (start 4.18 2.15) (end 4.18 0) (layer F.CrtYd) (width 0.05))
  (fp_line (start 0 -4.191) (end -3.175 -4.191) (layer F.SilkS) (width 0.12))
  (fp_line (start -3.175 -4.191) (end -4.191 -3.175) (layer F.SilkS) (width 0.12))
  (fp_line (start -4.191 -3.175) (end -4.191 4.191) (layer F.SilkS) (width 0.12))
  (fp_line (start -4.191 4.191) (end 4.191 4.191) (layer F.SilkS) (width 0.12))
  (fp_line (start 4.191 4.191) (end 4.191 -4.191) (layer F.SilkS) (width 0.12))
  (fp_line (start 4.191 -4.191) (end 0 -4.191) (layer F.SilkS) (width 0.12))
  (fp_text user %R (at 0 0) (layer F.Fab)
    (effects (font (size 1 1) (thickness 0.15)))
  )
  (fp_text user 1 (at -3.302 -2.54 -90 unlocked) (layer F.SilkS)
    (effects (font (size 1 1) (thickness 0.15)))
  )
  (fp_text user 8 (at -3.302 3.556 -90 unlocked) (layer F.SilkS)
    (effects (font (size 1 1) (thickness 0.15)))
  )
  (fp_text user 16 (at 3.175 3.048 -90 unlocked) (layer F.SilkS)
    (effects (font (size 1 1) (thickness 0.15)))
  )
  (fp_text user 24 (at 3.175 -3.048 -90 unlocked) (layer F.SilkS)
    (effects (font (size 1 1) (thickness 0.15)))
  )
  (pad 32 smd roundrect (at -1.75 -3.175) (size 0.3 1.5) (layers F.Cu F.Paste F.Mask) (roundrect_rratio 0.25))
  (pad 31 smd roundrect (at -1.25 -3.175) (size 0.3 1.5) (layers F.Cu F.Paste F.Mask) (roundrect_rratio 0.25))
  (pad 30 smd roundrect (at -0.75 -3.175) (size 0.3 1.5) (layers F.Cu F.Paste F.Mask) (roundrect_rratio 0.25))
  (pad 29 smd roundrect (at -0.25 -3.175) (size 0.3 1.5) (layers F.Cu F.Paste F.Mask) (roundrect_rratio 0.25))
  (pad 28 smd roundrect (at 0.25 -3.175) (size 0.3 1.5) (layers F.Cu F.Paste F.Mask) (roundrect_rratio 0.25))
  (pad 27 smd roundrect (at 0.75 -3.175) (size 0.3 1.5) (layers F.Cu F.Paste F.Mask) (roundrect_rratio 0.25))
  (pad 26 smd roundrect (at 1.25 -3.175) (size 0.3 1.5) (layers F.Cu F.Paste F.Mask) (roundrect_rratio 0.25))
  (pad 25 smd roundrect (at 1.75 -3.175) (size 0.3 1.5) (layers F.Cu F.Paste F.Mask) (roundrect_rratio 0.25))
  (pad 24 smd roundrect (at 3.175 -1.75) (size 1.5 0.3) (layers F.Cu F.Paste F.Mask) (roundrect_rratio 0.25))
  (pad 23 smd roundrect (at 3.175 -1.25) (size 1.5 0.3) (layers F.Cu F.Paste F.Mask) (roundrect_rratio 0.25))
  (pad 22 smd roundrect (at 3.175 -0.75) (size 1.5 0.3) (layers F.Cu F.Paste F.Mask) (roundrect_rratio 0.25))
  (pad 21 smd roundrect (at 3.175 -0.25) (size 1.5 0.3) (layers F.Cu F.Paste F.Mask) (roundrect_rratio 0.25))
  (pad 20 smd roundrect (at 3.175 0.25) (size 1.5 0.3) (layers F.Cu F.Paste F.Mask) (roundrect_rratio 0.25))
  (pad 19 smd roundrect (at 3.175 0.75) (size 1.5 0.3) (layers F.Cu F.Paste F.Mask) (roundrect_rratio 0.25))
  (pad 18 smd roundrect (at 3.175 1.25) (size 1.5 0.3) (layers F.Cu F.Paste F.Mask) (roundrect_rratio 0.25))
  (pad 17 smd roundrect (at 3.175 1.75) (size 1.5 0.3) (layers F.Cu F.Paste F.Mask) (roundrect_rratio 0.25))
  (pad 16 smd roundrect (at 1.75 3.175) (size 0.3 1.5) (layers F.Cu F.Paste F.Mask) (roundrect_rratio 0.25))
  (pad 15 smd roundrect (at 1.25 3.175) (size 0.3 1.5) (layers F.Cu F.Paste F.Mask) (roundrect_rratio 0.25))
  (pad 14 smd roundrect (at 0.75 3.175) (size 0.3 1.5) (layers F.Cu F.Paste F.Mask) (roundrect_rratio 0.25))
  (pad 13 smd roundrect (at 0.25 3.175) (size 0.3 1.5) (layers F.Cu F.Paste F.Mask) (roundrect_rratio 0.25))
  (pad 12 smd roundrect (at -0.25 3.175) (size 0.3 1.5) (layers F.Cu F.Paste F.Mask) (roundrect_rratio 0.25))
  (pad 11 smd roundrect (at -0.75 3.175) (size 0.3 1.5) (layers F.Cu F.Paste F.Mask) (roundrect_rratio 0.25))
  (pad 10 smd roundrect (at -1.25 3.175) (size 0.3 1.5) (layers F.Cu F.Paste F.Mask) (roundrect_rratio 0.25))
  (pad 9 smd roundrect (at -1.75 3.175) (size 0.3 1.5) (layers F.Cu F.Paste F.Mask) (roundrect_rratio 0.25))
  (pad 8 smd roundrect (at -3.175 1.75) (size 1.5 0.3) (layers F.Cu F.Paste F.Mask) (roundrect_rratio 0.25))
  (pad 7 smd roundrect (at -3.175 1.25) (size 1.5 0.3) (layers F.Cu F.Paste F.Mask) (roundrect_rratio 0.25))
  (pad 6 smd roundrect (at -3.175 0.75) (size 1.5 0.3) (layers F.Cu F.Paste F.Mask) (roundrect_rratio 0.25))
  (pad 5 smd roundrect (at -3.175 0.25) (size 1.5 0.3) (layers F.Cu F.Paste F.Mask) (roundrect_rratio 0.25))
  (pad 4 smd roundrect (at -3.175 -0.25) (size 1.5 0.3) (layers F.Cu F.Paste F.Mask) (roundrect_rratio 0.25))
  (pad 3 smd roundrect (at -3.175 -0.75) (size 1.5 0.3) (layers F.Cu F.Paste F.Mask) (roundrect_rratio 0.25))
  (pad 2 smd roundrect (at -3.175 -1.25) (size 1.5 0.3) (layers F.Cu F.Paste F.Mask) (roundrect_rratio 0.25))
  (pad 1 smd roundrect (at -3.175 -1.75) (size 1.5 0.3) (layers F.Cu F.Paste F.Mask) (roundrect_rratio 0.25))
  (model ${KISYS3DMOD}/Package_QFP.3dshapes/LQFP-32_5x5mm_P0.5mm.wrl
    (at (xyz 0 0 0))
    (scale (xyz 1 1 1))
    (rotate (xyz 0 0 0))
  )
)
