(module LQFP-64_7x7mm_P0.4mm (layer F.Cu) (tedit 607FD451)
  (descr "LQFP, 64 Pin (https://www.nxp.com/docs/en/package-information/SOT414-1.pdf), Alternate KiCad Library")
  (tags "LQFP QFP")
  (attr smd)
  (fp_text reference REF** (at 0 -6.35) (layer F.SilkS)
    (effects (font (size 1 1) (thickness 0.15)))
  )
  (fp_text value LQFP-64_7x7mm_P0.4mm (at 0 5.88) (layer F.Fab)
    (effects (font (size 1 1) (thickness 0.15)))
  )
  (fp_line (start -1.4 -5.207) (end -1.4 -5.588) (layer F.SilkS) (width 0.12))
  (fp_line (start 0.6 -5.207) (end 0.6 -5.461) (layer F.SilkS) (width 0.12))
  (fp_line (start 2.6 -5.207) (end 2.6 -5.588) (layer F.SilkS) (width 0.12))
  (fp_line (start 5.207 -1.8) (end 5.461 -1.8) (layer F.SilkS) (width 0.12))
  (fp_line (start 5.207 0.2) (end 5.588 0.2) (layer F.SilkS) (width 0.12))
  (fp_line (start 5.207 2.2) (end 5.461 2.2) (layer F.SilkS) (width 0.12))
  (fp_line (start 2.2 5.207) (end 2.2 5.588) (layer F.SilkS) (width 0.12))
  (fp_line (start 0.2 5.207) (end 0.2 5.461) (layer F.SilkS) (width 0.12))
  (fp_line (start -1.8 5.588) (end -1.8 5.207) (layer F.SilkS) (width 0.12))
  (fp_line (start -5.207 2.6) (end -5.461 2.6) (layer F.SilkS) (width 0.12))
  (fp_line (start -5.207 0.6) (end -5.588 0.6) (layer F.SilkS) (width 0.12))
  (fp_line (start -5.207 -1.4) (end -5.461 -1.4) (layer F.SilkS) (width 0.12))
  (fp_circle (center -4.318 -4.445) (end -4.191 -4.445) (layer F.SilkS) (width 0.3))
  (fp_line (start -2.5 -3.5) (end 3.5 -3.5) (layer F.Fab) (width 0.1))
  (fp_line (start 3.5 -3.5) (end 3.5 3.5) (layer F.Fab) (width 0.1))
  (fp_line (start 3.5 3.5) (end -3.5 3.5) (layer F.Fab) (width 0.1))
  (fp_line (start -3.5 3.5) (end -3.5 -2.5) (layer F.Fab) (width 0.1))
  (fp_line (start -3.5 -2.5) (end -2.5 -3.5) (layer F.Fab) (width 0.1))
  (fp_line (start 0 -5.18) (end -3.38 -5.18) (layer F.CrtYd) (width 0.05))
  (fp_line (start -3.38 -5.18) (end -3.38 -3.75) (layer F.CrtYd) (width 0.05))
  (fp_line (start -3.38 -3.75) (end -3.75 -3.75) (layer F.CrtYd) (width 0.05))
  (fp_line (start -3.75 -3.75) (end -3.75 -3.38) (layer F.CrtYd) (width 0.05))
  (fp_line (start -3.75 -3.38) (end -5.18 -3.38) (layer F.CrtYd) (width 0.05))
  (fp_line (start -5.18 -3.38) (end -5.18 0) (layer F.CrtYd) (width 0.05))
  (fp_line (start 0 -5.18) (end 3.38 -5.18) (layer F.CrtYd) (width 0.05))
  (fp_line (start 3.38 -5.18) (end 3.38 -3.75) (layer F.CrtYd) (width 0.05))
  (fp_line (start 3.38 -3.75) (end 3.75 -3.75) (layer F.CrtYd) (width 0.05))
  (fp_line (start 3.75 -3.75) (end 3.75 -3.38) (layer F.CrtYd) (width 0.05))
  (fp_line (start 3.75 -3.38) (end 5.18 -3.38) (layer F.CrtYd) (width 0.05))
  (fp_line (start 5.18 -3.38) (end 5.18 0) (layer F.CrtYd) (width 0.05))
  (fp_line (start 0 5.18) (end -3.38 5.18) (layer F.CrtYd) (width 0.05))
  (fp_line (start -3.38 5.18) (end -3.38 3.75) (layer F.CrtYd) (width 0.05))
  (fp_line (start -3.38 3.75) (end -3.75 3.75) (layer F.CrtYd) (width 0.05))
  (fp_line (start -3.75 3.75) (end -3.75 3.38) (layer F.CrtYd) (width 0.05))
  (fp_line (start -3.75 3.38) (end -5.18 3.38) (layer F.CrtYd) (width 0.05))
  (fp_line (start -5.18 3.38) (end -5.18 0) (layer F.CrtYd) (width 0.05))
  (fp_line (start 0 5.18) (end 3.38 5.18) (layer F.CrtYd) (width 0.05))
  (fp_line (start 3.38 5.18) (end 3.38 3.75) (layer F.CrtYd) (width 0.05))
  (fp_line (start 3.38 3.75) (end 3.75 3.75) (layer F.CrtYd) (width 0.05))
  (fp_line (start 3.75 3.75) (end 3.75 3.38) (layer F.CrtYd) (width 0.05))
  (fp_line (start 3.75 3.38) (end 5.18 3.38) (layer F.CrtYd) (width 0.05))
  (fp_line (start 5.18 3.38) (end 5.18 0) (layer F.CrtYd) (width 0.05))
  (fp_line (start -4.191 -5.207) (end -5.207 -4.191) (layer F.SilkS) (width 0.12))
  (fp_line (start -5.207 -4.191) (end -5.207 5.207) (layer F.SilkS) (width 0.12))
  (fp_line (start -5.207 5.207) (end 5.207 5.207) (layer F.SilkS) (width 0.12))
  (fp_line (start 5.207 5.207) (end 5.207 -5.207) (layer F.SilkS) (width 0.12))
  (fp_line (start 5.207 -5.207) (end -4.191 -5.207) (layer F.SilkS) (width 0.12))
  (fp_text user %R (at 0 0) (layer F.Fab)
    (effects (font (size 1 1) (thickness 0.15)))
  )
  (fp_text user 1 (at -4.318 -3.683 -90 unlocked) (layer F.SilkS)
    (effects (font (size 1 1) (thickness 0.15)))
  )
  (fp_text user 16 (at -4.318 4.191 -90 unlocked) (layer F.SilkS)
    (effects (font (size 1 0.8) (thickness 0.15)))
  )
  (fp_text user 32 (at 4.191 4.191 -90 unlocked) (layer F.SilkS)
    (effects (font (size 1 0.8) (thickness 0.15)))
  )
  (fp_text user 48 (at 4.191 -4.191 -90 unlocked) (layer F.SilkS)
    (effects (font (size 1 0.8) (thickness 0.15)))
  )
  (pad 64 smd roundrect (at -3 -4.175) (size 0.25 1.5) (layers F.Cu F.Paste F.Mask) (roundrect_rratio 0.25))
  (pad 63 smd roundrect (at -2.6 -4.175) (size 0.25 1.5) (layers F.Cu F.Paste F.Mask) (roundrect_rratio 0.25))
  (pad 62 smd roundrect (at -2.2 -4.175) (size 0.25 1.5) (layers F.Cu F.Paste F.Mask) (roundrect_rratio 0.25))
  (pad 61 smd roundrect (at -1.8 -4.175) (size 0.25 1.5) (layers F.Cu F.Paste F.Mask) (roundrect_rratio 0.25))
  (pad 60 smd roundrect (at -1.4 -4.175) (size 0.25 1.5) (layers F.Cu F.Paste F.Mask) (roundrect_rratio 0.25))
  (pad 59 smd roundrect (at -1 -4.175) (size 0.25 1.5) (layers F.Cu F.Paste F.Mask) (roundrect_rratio 0.25))
  (pad 58 smd roundrect (at -0.6 -4.175) (size 0.25 1.5) (layers F.Cu F.Paste F.Mask) (roundrect_rratio 0.25))
  (pad 57 smd roundrect (at -0.2 -4.175) (size 0.25 1.5) (layers F.Cu F.Paste F.Mask) (roundrect_rratio 0.25))
  (pad 56 smd roundrect (at 0.2 -4.175) (size 0.25 1.5) (layers F.Cu F.Paste F.Mask) (roundrect_rratio 0.25))
  (pad 55 smd roundrect (at 0.6 -4.175) (size 0.25 1.5) (layers F.Cu F.Paste F.Mask) (roundrect_rratio 0.25))
  (pad 54 smd roundrect (at 1 -4.175) (size 0.25 1.5) (layers F.Cu F.Paste F.Mask) (roundrect_rratio 0.25))
  (pad 53 smd roundrect (at 1.4 -4.175) (size 0.25 1.5) (layers F.Cu F.Paste F.Mask) (roundrect_rratio 0.25))
  (pad 52 smd roundrect (at 1.8 -4.175) (size 0.25 1.5) (layers F.Cu F.Paste F.Mask) (roundrect_rratio 0.25))
  (pad 51 smd roundrect (at 2.2 -4.175) (size 0.25 1.5) (layers F.Cu F.Paste F.Mask) (roundrect_rratio 0.25))
  (pad 50 smd roundrect (at 2.6 -4.175) (size 0.25 1.5) (layers F.Cu F.Paste F.Mask) (roundrect_rratio 0.25))
  (pad 49 smd roundrect (at 3 -4.175) (size 0.25 1.5) (layers F.Cu F.Paste F.Mask) (roundrect_rratio 0.25))
  (pad 48 smd roundrect (at 4.175 -3) (size 1.5 0.25) (layers F.Cu F.Paste F.Mask) (roundrect_rratio 0.25))
  (pad 47 smd roundrect (at 4.175 -2.6) (size 1.5 0.25) (layers F.Cu F.Paste F.Mask) (roundrect_rratio 0.25))
  (pad 46 smd roundrect (at 4.175 -2.2) (size 1.5 0.25) (layers F.Cu F.Paste F.Mask) (roundrect_rratio 0.25))
  (pad 45 smd roundrect (at 4.175 -1.8) (size 1.5 0.25) (layers F.Cu F.Paste F.Mask) (roundrect_rratio 0.25))
  (pad 44 smd roundrect (at 4.175 -1.4) (size 1.5 0.25) (layers F.Cu F.Paste F.Mask) (roundrect_rratio 0.25))
  (pad 43 smd roundrect (at 4.175 -1) (size 1.5 0.25) (layers F.Cu F.Paste F.Mask) (roundrect_rratio 0.25))
  (pad 42 smd roundrect (at 4.175 -0.6) (size 1.5 0.25) (layers F.Cu F.Paste F.Mask) (roundrect_rratio 0.25))
  (pad 41 smd roundrect (at 4.175 -0.2) (size 1.5 0.25) (layers F.Cu F.Paste F.Mask) (roundrect_rratio 0.25))
  (pad 40 smd roundrect (at 4.175 0.2) (size 1.5 0.25) (layers F.Cu F.Paste F.Mask) (roundrect_rratio 0.25))
  (pad 39 smd roundrect (at 4.175 0.6) (size 1.5 0.25) (layers F.Cu F.Paste F.Mask) (roundrect_rratio 0.25))
  (pad 38 smd roundrect (at 4.175 1) (size 1.5 0.25) (layers F.Cu F.Paste F.Mask) (roundrect_rratio 0.25))
  (pad 37 smd roundrect (at 4.175 1.4) (size 1.5 0.25) (layers F.Cu F.Paste F.Mask) (roundrect_rratio 0.25))
  (pad 36 smd roundrect (at 4.175 1.8) (size 1.5 0.25) (layers F.Cu F.Paste F.Mask) (roundrect_rratio 0.25))
  (pad 35 smd roundrect (at 4.175 2.2) (size 1.5 0.25) (layers F.Cu F.Paste F.Mask) (roundrect_rratio 0.25))
  (pad 34 smd roundrect (at 4.175 2.6) (size 1.5 0.25) (layers F.Cu F.Paste F.Mask) (roundrect_rratio 0.25))
  (pad 33 smd roundrect (at 4.175 3) (size 1.5 0.25) (layers F.Cu F.Paste F.Mask) (roundrect_rratio 0.25))
  (pad 32 smd roundrect (at 3 4.175) (size 0.25 1.5) (layers F.Cu F.Paste F.Mask) (roundrect_rratio 0.25))
  (pad 31 smd roundrect (at 2.6 4.175) (size 0.25 1.5) (layers F.Cu F.Paste F.Mask) (roundrect_rratio 0.25))
  (pad 30 smd roundrect (at 2.2 4.175) (size 0.25 1.5) (layers F.Cu F.Paste F.Mask) (roundrect_rratio 0.25))
  (pad 29 smd roundrect (at 1.8 4.175) (size 0.25 1.5) (layers F.Cu F.Paste F.Mask) (roundrect_rratio 0.25))
  (pad 28 smd roundrect (at 1.4 4.175) (size 0.25 1.5) (layers F.Cu F.Paste F.Mask) (roundrect_rratio 0.25))
  (pad 27 smd roundrect (at 1 4.175) (size 0.25 1.5) (layers F.Cu F.Paste F.Mask) (roundrect_rratio 0.25))
  (pad 26 smd roundrect (at 0.6 4.175) (size 0.25 1.5) (layers F.Cu F.Paste F.Mask) (roundrect_rratio 0.25))
  (pad 25 smd roundrect (at 0.2 4.175) (size 0.25 1.5) (layers F.Cu F.Paste F.Mask) (roundrect_rratio 0.25))
  (pad 24 smd roundrect (at -0.2 4.175) (size 0.25 1.5) (layers F.Cu F.Paste F.Mask) (roundrect_rratio 0.25))
  (pad 23 smd roundrect (at -0.6 4.175) (size 0.25 1.5) (layers F.Cu F.Paste F.Mask) (roundrect_rratio 0.25))
  (pad 22 smd roundrect (at -1 4.175) (size 0.25 1.5) (layers F.Cu F.Paste F.Mask) (roundrect_rratio 0.25))
  (pad 21 smd roundrect (at -1.4 4.175) (size 0.25 1.5) (layers F.Cu F.Paste F.Mask) (roundrect_rratio 0.25))
  (pad 20 smd roundrect (at -1.8 4.175) (size 0.25 1.5) (layers F.Cu F.Paste F.Mask) (roundrect_rratio 0.25))
  (pad 19 smd roundrect (at -2.2 4.175) (size 0.25 1.5) (layers F.Cu F.Paste F.Mask) (roundrect_rratio 0.25))
  (pad 18 smd roundrect (at -2.6 4.175) (size 0.25 1.5) (layers F.Cu F.Paste F.Mask) (roundrect_rratio 0.25))
  (pad 17 smd roundrect (at -3 4.175) (size 0.25 1.5) (layers F.Cu F.Paste F.Mask) (roundrect_rratio 0.25))
  (pad 16 smd roundrect (at -4.175 3) (size 1.5 0.25) (layers F.Cu F.Paste F.Mask) (roundrect_rratio 0.25))
  (pad 15 smd roundrect (at -4.175 2.6) (size 1.5 0.25) (layers F.Cu F.Paste F.Mask) (roundrect_rratio 0.25))
  (pad 14 smd roundrect (at -4.175 2.2) (size 1.5 0.25) (layers F.Cu F.Paste F.Mask) (roundrect_rratio 0.25))
  (pad 13 smd roundrect (at -4.175 1.8) (size 1.5 0.25) (layers F.Cu F.Paste F.Mask) (roundrect_rratio 0.25))
  (pad 12 smd roundrect (at -4.175 1.4) (size 1.5 0.25) (layers F.Cu F.Paste F.Mask) (roundrect_rratio 0.25))
  (pad 11 smd roundrect (at -4.175 1) (size 1.5 0.25) (layers F.Cu F.Paste F.Mask) (roundrect_rratio 0.25))
  (pad 10 smd roundrect (at -4.175 0.6) (size 1.5 0.25) (layers F.Cu F.Paste F.Mask) (roundrect_rratio 0.25))
  (pad 9 smd roundrect (at -4.175 0.2) (size 1.5 0.25) (layers F.Cu F.Paste F.Mask) (roundrect_rratio 0.25))
  (pad 8 smd roundrect (at -4.175 -0.2) (size 1.5 0.25) (layers F.Cu F.Paste F.Mask) (roundrect_rratio 0.25))
  (pad 7 smd roundrect (at -4.175 -0.6) (size 1.5 0.25) (layers F.Cu F.Paste F.Mask) (roundrect_rratio 0.25))
  (pad 6 smd roundrect (at -4.175 -1) (size 1.5 0.25) (layers F.Cu F.Paste F.Mask) (roundrect_rratio 0.25))
  (pad 5 smd roundrect (at -4.175 -1.4) (size 1.5 0.25) (layers F.Cu F.Paste F.Mask) (roundrect_rratio 0.25))
  (pad 4 smd roundrect (at -4.175 -1.8) (size 1.5 0.25) (layers F.Cu F.Paste F.Mask) (roundrect_rratio 0.25))
  (pad 3 smd roundrect (at -4.175 -2.2) (size 1.5 0.25) (layers F.Cu F.Paste F.Mask) (roundrect_rratio 0.25))
  (pad 2 smd roundrect (at -4.175 -2.6) (size 1.5 0.25) (layers F.Cu F.Paste F.Mask) (roundrect_rratio 0.25))
  (pad 1 smd roundrect (at -4.175 -3) (size 1.5 0.25) (layers F.Cu F.Paste F.Mask) (roundrect_rratio 0.25))
  (model ${KISYS3DMOD}/Package_QFP.3dshapes/LQFP-64_7x7mm_P0.4mm.wrl
    (at (xyz 0 0 0))
    (scale (xyz 1 1 1))
    (rotate (xyz 0 0 0))
  )
)
