(module LQFP-160_24x24mm_P0.5mm (layer F.Cu) (tedit 607FD59F)
  (descr "LQFP, 160 Pin (https://www.nxp.com/docs/en/package-information/SOT435-1.pdf), Alternate KiCad Library")
  (tags "LQFP QFP")
  (attr smd)
  (fp_text reference REF** (at 0 -14.859) (layer F.SilkS)
    (effects (font (size 1 1) (thickness 0.15)))
  )
  (fp_text value LQFP-160_24x24mm_P0.5mm (at 0 14.38) (layer F.Fab)
    (effects (font (size 1 1) (thickness 0.15)))
  )
  (fp_line (start -9.75 -13.716) (end -9.75 -14.097) (layer F.SilkS) (width 0.12))
  (fp_line (start -7.25 -13.716) (end -7.25 -13.97) (layer F.SilkS) (width 0.12))
  (fp_line (start -4.75 -13.716) (end -4.75 -14.097) (layer F.SilkS) (width 0.12))
  (fp_line (start -2.25 -13.716) (end -2.25 -13.97) (layer F.SilkS) (width 0.12))
  (fp_line (start 0.25 -13.716) (end 0.25 -14.097) (layer F.SilkS) (width 0.12))
  (fp_line (start 2.75 -13.716) (end 2.75 -13.97) (layer F.SilkS) (width 0.12))
  (fp_line (start 5.25 -13.716) (end 5.25 -14.097) (layer F.SilkS) (width 0.12))
  (fp_line (start 7.75 -13.716) (end 7.75 -13.97) (layer F.SilkS) (width 0.12))
  (fp_line (start 13.716 -9.75) (end 14.097 -9.75) (layer F.SilkS) (width 0.12))
  (fp_line (start 13.716 -7.25) (end 13.97 -7.25) (layer F.SilkS) (width 0.12))
  (fp_line (start 13.716 -4.75) (end 14.097 -4.75) (layer F.SilkS) (width 0.12))
  (fp_line (start 13.716 -2.25) (end 13.97 -2.25) (layer F.SilkS) (width 0.12))
  (fp_line (start 13.716 0.25) (end 14.097 0.25) (layer F.SilkS) (width 0.12))
  (fp_line (start 13.716 2.75) (end 13.97 2.75) (layer F.SilkS) (width 0.12))
  (fp_line (start 13.716 5.25) (end 14.097 5.25) (layer F.SilkS) (width 0.12))
  (fp_line (start 13.75 7.75) (end 14 7.75) (layer F.SilkS) (width 0.12))
  (fp_line (start 9.75 13.716) (end 9.75 14.097) (layer F.SilkS) (width 0.12))
  (fp_line (start 7.25 13.716) (end 7.25 14) (layer F.SilkS) (width 0.12))
  (fp_line (start 4.75 13.716) (end 4.75 14.097) (layer F.SilkS) (width 0.12))
  (fp_line (start 2.25 13.716) (end 2.25 13.97) (layer F.SilkS) (width 0.12))
  (fp_line (start -0.25 13.716) (end -0.25 14.097) (layer F.SilkS) (width 0.12))
  (fp_line (start -2.75 13.716) (end -2.75 13.97) (layer F.SilkS) (width 0.12))
  (fp_line (start -5.25 13.716) (end -5.25 14.097) (layer F.SilkS) (width 0.12))
  (fp_line (start -7.75 13.716) (end -7.75 14) (layer F.SilkS) (width 0.12))
  (fp_line (start -13.716 9.75) (end -14.097 9.75) (layer F.SilkS) (width 0.12))
  (fp_line (start -13.716 7.25) (end -13.97 7.25) (layer F.SilkS) (width 0.12))
  (fp_line (start -13.716 4.75) (end -14.097 4.75) (layer F.SilkS) (width 0.12))
  (fp_line (start -13.716 2.25) (end -13.97 2.25) (layer F.SilkS) (width 0.12))
  (fp_line (start -13.716 -0.25) (end -14.097 -0.25) (layer F.SilkS) (width 0.12))
  (fp_line (start -13.716 -2.75) (end -13.97 -2.75) (layer F.SilkS) (width 0.12))
  (fp_line (start -13.716 -5.25) (end -14.097 -5.25) (layer F.SilkS) (width 0.12))
  (fp_line (start -13.716 -7.75) (end -13.97 -7.75) (layer F.SilkS) (width 0.12))
  (fp_circle (center -12.827 -12.827) (end -12.7 -12.827) (layer F.SilkS) (width 0.4))
  (fp_line (start -11 -12) (end 12 -12) (layer F.Fab) (width 0.1))
  (fp_line (start 12 -12) (end 12 12) (layer F.Fab) (width 0.1))
  (fp_line (start 12 12) (end -12 12) (layer F.Fab) (width 0.1))
  (fp_line (start -12 12) (end -12 -11) (layer F.Fab) (width 0.1))
  (fp_line (start -12 -11) (end -11 -12) (layer F.Fab) (width 0.1))
  (fp_line (start 0 -13.68) (end -10.15 -13.68) (layer F.CrtYd) (width 0.05))
  (fp_line (start -10.15 -13.68) (end -10.15 -12.25) (layer F.CrtYd) (width 0.05))
  (fp_line (start -10.15 -12.25) (end -12.25 -12.25) (layer F.CrtYd) (width 0.05))
  (fp_line (start -12.25 -12.25) (end -12.25 -10.15) (layer F.CrtYd) (width 0.05))
  (fp_line (start -12.25 -10.15) (end -13.68 -10.15) (layer F.CrtYd) (width 0.05))
  (fp_line (start -13.68 -10.15) (end -13.68 0) (layer F.CrtYd) (width 0.05))
  (fp_line (start 0 -13.68) (end 10.15 -13.68) (layer F.CrtYd) (width 0.05))
  (fp_line (start 10.15 -13.68) (end 10.15 -12.25) (layer F.CrtYd) (width 0.05))
  (fp_line (start 10.15 -12.25) (end 12.25 -12.25) (layer F.CrtYd) (width 0.05))
  (fp_line (start 12.25 -12.25) (end 12.25 -10.15) (layer F.CrtYd) (width 0.05))
  (fp_line (start 12.25 -10.15) (end 13.68 -10.15) (layer F.CrtYd) (width 0.05))
  (fp_line (start 13.68 -10.15) (end 13.68 0) (layer F.CrtYd) (width 0.05))
  (fp_line (start 0 13.68) (end -10.15 13.68) (layer F.CrtYd) (width 0.05))
  (fp_line (start -10.15 13.68) (end -10.15 12.25) (layer F.CrtYd) (width 0.05))
  (fp_line (start -10.15 12.25) (end -12.25 12.25) (layer F.CrtYd) (width 0.05))
  (fp_line (start -12.25 12.25) (end -12.25 10.15) (layer F.CrtYd) (width 0.05))
  (fp_line (start -12.25 10.15) (end -13.68 10.15) (layer F.CrtYd) (width 0.05))
  (fp_line (start -13.68 10.15) (end -13.68 0) (layer F.CrtYd) (width 0.05))
  (fp_line (start 0 13.68) (end 10.15 13.68) (layer F.CrtYd) (width 0.05))
  (fp_line (start 10.15 13.68) (end 10.15 12.25) (layer F.CrtYd) (width 0.05))
  (fp_line (start 10.15 12.25) (end 12.25 12.25) (layer F.CrtYd) (width 0.05))
  (fp_line (start 12.25 12.25) (end 12.25 10.15) (layer F.CrtYd) (width 0.05))
  (fp_line (start 12.25 10.15) (end 13.68 10.15) (layer F.CrtYd) (width 0.05))
  (fp_line (start 13.68 10.15) (end 13.68 0) (layer F.CrtYd) (width 0.05))
  (fp_line (start -12.7 -13.716) (end -13.716 -12.7) (layer F.SilkS) (width 0.12))
  (fp_line (start -13.716 -12.7) (end -13.716 13.716) (layer F.SilkS) (width 0.12))
  (fp_line (start -13.716 13.716) (end 13.716 13.716) (layer F.SilkS) (width 0.12))
  (fp_line (start 13.716 13.716) (end 13.716 -13.716) (layer F.SilkS) (width 0.12))
  (fp_line (start 13.716 -13.716) (end -12.7 -13.716) (layer F.SilkS) (width 0.12))
  (fp_text user %R (at 0 0) (layer F.Fab)
    (effects (font (size 1 1) (thickness 0.15)))
  )
  (fp_text user 1 (at -12.827 -11.938 -90 unlocked) (layer F.SilkS)
    (effects (font (size 1 1) (thickness 0.15)))
  )
  (fp_text user 40 (at -12.827 12.446 -90 unlocked) (layer F.SilkS)
    (effects (font (size 1 1) (thickness 0.15)))
  )
  (fp_text user 80 (at 12.7 12.446 -90 unlocked) (layer F.SilkS)
    (effects (font (size 1 1) (thickness 0.15)))
  )
  (fp_text user 120 (at 12.7 -12.065 -90 unlocked) (layer F.SilkS)
    (effects (font (size 1 1) (thickness 0.15)))
  )
  (pad 160 smd roundrect (at -9.75 -12.675) (size 0.3 1.5) (layers F.Cu F.Paste F.Mask) (roundrect_rratio 0.25))
  (pad 159 smd roundrect (at -9.25 -12.675) (size 0.3 1.5) (layers F.Cu F.Paste F.Mask) (roundrect_rratio 0.25))
  (pad 158 smd roundrect (at -8.75 -12.675) (size 0.3 1.5) (layers F.Cu F.Paste F.Mask) (roundrect_rratio 0.25))
  (pad 157 smd roundrect (at -8.25 -12.675) (size 0.3 1.5) (layers F.Cu F.Paste F.Mask) (roundrect_rratio 0.25))
  (pad 156 smd roundrect (at -7.75 -12.675) (size 0.3 1.5) (layers F.Cu F.Paste F.Mask) (roundrect_rratio 0.25))
  (pad 155 smd roundrect (at -7.25 -12.675) (size 0.3 1.5) (layers F.Cu F.Paste F.Mask) (roundrect_rratio 0.25))
  (pad 154 smd roundrect (at -6.75 -12.675) (size 0.3 1.5) (layers F.Cu F.Paste F.Mask) (roundrect_rratio 0.25))
  (pad 153 smd roundrect (at -6.25 -12.675) (size 0.3 1.5) (layers F.Cu F.Paste F.Mask) (roundrect_rratio 0.25))
  (pad 152 smd roundrect (at -5.75 -12.675) (size 0.3 1.5) (layers F.Cu F.Paste F.Mask) (roundrect_rratio 0.25))
  (pad 151 smd roundrect (at -5.25 -12.675) (size 0.3 1.5) (layers F.Cu F.Paste F.Mask) (roundrect_rratio 0.25))
  (pad 150 smd roundrect (at -4.75 -12.675) (size 0.3 1.5) (layers F.Cu F.Paste F.Mask) (roundrect_rratio 0.25))
  (pad 149 smd roundrect (at -4.25 -12.675) (size 0.3 1.5) (layers F.Cu F.Paste F.Mask) (roundrect_rratio 0.25))
  (pad 148 smd roundrect (at -3.75 -12.675) (size 0.3 1.5) (layers F.Cu F.Paste F.Mask) (roundrect_rratio 0.25))
  (pad 147 smd roundrect (at -3.25 -12.675) (size 0.3 1.5) (layers F.Cu F.Paste F.Mask) (roundrect_rratio 0.25))
  (pad 146 smd roundrect (at -2.75 -12.675) (size 0.3 1.5) (layers F.Cu F.Paste F.Mask) (roundrect_rratio 0.25))
  (pad 145 smd roundrect (at -2.25 -12.675) (size 0.3 1.5) (layers F.Cu F.Paste F.Mask) (roundrect_rratio 0.25))
  (pad 144 smd roundrect (at -1.75 -12.675) (size 0.3 1.5) (layers F.Cu F.Paste F.Mask) (roundrect_rratio 0.25))
  (pad 143 smd roundrect (at -1.25 -12.675) (size 0.3 1.5) (layers F.Cu F.Paste F.Mask) (roundrect_rratio 0.25))
  (pad 142 smd roundrect (at -0.75 -12.675) (size 0.3 1.5) (layers F.Cu F.Paste F.Mask) (roundrect_rratio 0.25))
  (pad 141 smd roundrect (at -0.25 -12.675) (size 0.3 1.5) (layers F.Cu F.Paste F.Mask) (roundrect_rratio 0.25))
  (pad 140 smd roundrect (at 0.25 -12.675) (size 0.3 1.5) (layers F.Cu F.Paste F.Mask) (roundrect_rratio 0.25))
  (pad 139 smd roundrect (at 0.75 -12.675) (size 0.3 1.5) (layers F.Cu F.Paste F.Mask) (roundrect_rratio 0.25))
  (pad 138 smd roundrect (at 1.25 -12.675) (size 0.3 1.5) (layers F.Cu F.Paste F.Mask) (roundrect_rratio 0.25))
  (pad 137 smd roundrect (at 1.75 -12.675) (size 0.3 1.5) (layers F.Cu F.Paste F.Mask) (roundrect_rratio 0.25))
  (pad 136 smd roundrect (at 2.25 -12.675) (size 0.3 1.5) (layers F.Cu F.Paste F.Mask) (roundrect_rratio 0.25))
  (pad 135 smd roundrect (at 2.75 -12.675) (size 0.3 1.5) (layers F.Cu F.Paste F.Mask) (roundrect_rratio 0.25))
  (pad 134 smd roundrect (at 3.25 -12.675) (size 0.3 1.5) (layers F.Cu F.Paste F.Mask) (roundrect_rratio 0.25))
  (pad 133 smd roundrect (at 3.75 -12.675) (size 0.3 1.5) (layers F.Cu F.Paste F.Mask) (roundrect_rratio 0.25))
  (pad 132 smd roundrect (at 4.25 -12.675) (size 0.3 1.5) (layers F.Cu F.Paste F.Mask) (roundrect_rratio 0.25))
  (pad 131 smd roundrect (at 4.75 -12.675) (size 0.3 1.5) (layers F.Cu F.Paste F.Mask) (roundrect_rratio 0.25))
  (pad 130 smd roundrect (at 5.25 -12.675) (size 0.3 1.5) (layers F.Cu F.Paste F.Mask) (roundrect_rratio 0.25))
  (pad 129 smd roundrect (at 5.75 -12.675) (size 0.3 1.5) (layers F.Cu F.Paste F.Mask) (roundrect_rratio 0.25))
  (pad 128 smd roundrect (at 6.25 -12.675) (size 0.3 1.5) (layers F.Cu F.Paste F.Mask) (roundrect_rratio 0.25))
  (pad 127 smd roundrect (at 6.75 -12.675) (size 0.3 1.5) (layers F.Cu F.Paste F.Mask) (roundrect_rratio 0.25))
  (pad 126 smd roundrect (at 7.25 -12.675) (size 0.3 1.5) (layers F.Cu F.Paste F.Mask) (roundrect_rratio 0.25))
  (pad 125 smd roundrect (at 7.75 -12.675) (size 0.3 1.5) (layers F.Cu F.Paste F.Mask) (roundrect_rratio 0.25))
  (pad 124 smd roundrect (at 8.25 -12.675) (size 0.3 1.5) (layers F.Cu F.Paste F.Mask) (roundrect_rratio 0.25))
  (pad 123 smd roundrect (at 8.75 -12.675) (size 0.3 1.5) (layers F.Cu F.Paste F.Mask) (roundrect_rratio 0.25))
  (pad 122 smd roundrect (at 9.25 -12.675) (size 0.3 1.5) (layers F.Cu F.Paste F.Mask) (roundrect_rratio 0.25))
  (pad 121 smd roundrect (at 9.75 -12.675) (size 0.3 1.5) (layers F.Cu F.Paste F.Mask) (roundrect_rratio 0.25))
  (pad 120 smd roundrect (at 12.675 -9.75) (size 1.5 0.3) (layers F.Cu F.Paste F.Mask) (roundrect_rratio 0.25))
  (pad 119 smd roundrect (at 12.675 -9.25) (size 1.5 0.3) (layers F.Cu F.Paste F.Mask) (roundrect_rratio 0.25))
  (pad 118 smd roundrect (at 12.675 -8.75) (size 1.5 0.3) (layers F.Cu F.Paste F.Mask) (roundrect_rratio 0.25))
  (pad 117 smd roundrect (at 12.675 -8.25) (size 1.5 0.3) (layers F.Cu F.Paste F.Mask) (roundrect_rratio 0.25))
  (pad 116 smd roundrect (at 12.675 -7.75) (size 1.5 0.3) (layers F.Cu F.Paste F.Mask) (roundrect_rratio 0.25))
  (pad 115 smd roundrect (at 12.675 -7.25) (size 1.5 0.3) (layers F.Cu F.Paste F.Mask) (roundrect_rratio 0.25))
  (pad 114 smd roundrect (at 12.675 -6.75) (size 1.5 0.3) (layers F.Cu F.Paste F.Mask) (roundrect_rratio 0.25))
  (pad 113 smd roundrect (at 12.675 -6.25) (size 1.5 0.3) (layers F.Cu F.Paste F.Mask) (roundrect_rratio 0.25))
  (pad 112 smd roundrect (at 12.675 -5.75) (size 1.5 0.3) (layers F.Cu F.Paste F.Mask) (roundrect_rratio 0.25))
  (pad 111 smd roundrect (at 12.675 -5.25) (size 1.5 0.3) (layers F.Cu F.Paste F.Mask) (roundrect_rratio 0.25))
  (pad 110 smd roundrect (at 12.675 -4.75) (size 1.5 0.3) (layers F.Cu F.Paste F.Mask) (roundrect_rratio 0.25))
  (pad 109 smd roundrect (at 12.675 -4.25) (size 1.5 0.3) (layers F.Cu F.Paste F.Mask) (roundrect_rratio 0.25))
  (pad 108 smd roundrect (at 12.675 -3.75) (size 1.5 0.3) (layers F.Cu F.Paste F.Mask) (roundrect_rratio 0.25))
  (pad 107 smd roundrect (at 12.675 -3.25) (size 1.5 0.3) (layers F.Cu F.Paste F.Mask) (roundrect_rratio 0.25))
  (pad 106 smd roundrect (at 12.675 -2.75) (size 1.5 0.3) (layers F.Cu F.Paste F.Mask) (roundrect_rratio 0.25))
  (pad 105 smd roundrect (at 12.675 -2.25) (size 1.5 0.3) (layers F.Cu F.Paste F.Mask) (roundrect_rratio 0.25))
  (pad 104 smd roundrect (at 12.675 -1.75) (size 1.5 0.3) (layers F.Cu F.Paste F.Mask) (roundrect_rratio 0.25))
  (pad 103 smd roundrect (at 12.675 -1.25) (size 1.5 0.3) (layers F.Cu F.Paste F.Mask) (roundrect_rratio 0.25))
  (pad 102 smd roundrect (at 12.675 -0.75) (size 1.5 0.3) (layers F.Cu F.Paste F.Mask) (roundrect_rratio 0.25))
  (pad 101 smd roundrect (at 12.675 -0.25) (size 1.5 0.3) (layers F.Cu F.Paste F.Mask) (roundrect_rratio 0.25))
  (pad 100 smd roundrect (at 12.675 0.25) (size 1.5 0.3) (layers F.Cu F.Paste F.Mask) (roundrect_rratio 0.25))
  (pad 99 smd roundrect (at 12.675 0.75) (size 1.5 0.3) (layers F.Cu F.Paste F.Mask) (roundrect_rratio 0.25))
  (pad 98 smd roundrect (at 12.675 1.25) (size 1.5 0.3) (layers F.Cu F.Paste F.Mask) (roundrect_rratio 0.25))
  (pad 97 smd roundrect (at 12.675 1.75) (size 1.5 0.3) (layers F.Cu F.Paste F.Mask) (roundrect_rratio 0.25))
  (pad 96 smd roundrect (at 12.675 2.25) (size 1.5 0.3) (layers F.Cu F.Paste F.Mask) (roundrect_rratio 0.25))
  (pad 95 smd roundrect (at 12.675 2.75) (size 1.5 0.3) (layers F.Cu F.Paste F.Mask) (roundrect_rratio 0.25))
  (pad 94 smd roundrect (at 12.675 3.25) (size 1.5 0.3) (layers F.Cu F.Paste F.Mask) (roundrect_rratio 0.25))
  (pad 93 smd roundrect (at 12.675 3.75) (size 1.5 0.3) (layers F.Cu F.Paste F.Mask) (roundrect_rratio 0.25))
  (pad 92 smd roundrect (at 12.675 4.25) (size 1.5 0.3) (layers F.Cu F.Paste F.Mask) (roundrect_rratio 0.25))
  (pad 91 smd roundrect (at 12.675 4.75) (size 1.5 0.3) (layers F.Cu F.Paste F.Mask) (roundrect_rratio 0.25))
  (pad 90 smd roundrect (at 12.675 5.25) (size 1.5 0.3) (layers F.Cu F.Paste F.Mask) (roundrect_rratio 0.25))
  (pad 89 smd roundrect (at 12.675 5.75) (size 1.5 0.3) (layers F.Cu F.Paste F.Mask) (roundrect_rratio 0.25))
  (pad 88 smd roundrect (at 12.675 6.25) (size 1.5 0.3) (layers F.Cu F.Paste F.Mask) (roundrect_rratio 0.25))
  (pad 87 smd roundrect (at 12.675 6.75) (size 1.5 0.3) (layers F.Cu F.Paste F.Mask) (roundrect_rratio 0.25))
  (pad 86 smd roundrect (at 12.675 7.25) (size 1.5 0.3) (layers F.Cu F.Paste F.Mask) (roundrect_rratio 0.25))
  (pad 85 smd roundrect (at 12.675 7.75) (size 1.5 0.3) (layers F.Cu F.Paste F.Mask) (roundrect_rratio 0.25))
  (pad 84 smd roundrect (at 12.675 8.25) (size 1.5 0.3) (layers F.Cu F.Paste F.Mask) (roundrect_rratio 0.25))
  (pad 83 smd roundrect (at 12.675 8.75) (size 1.5 0.3) (layers F.Cu F.Paste F.Mask) (roundrect_rratio 0.25))
  (pad 82 smd roundrect (at 12.675 9.25) (size 1.5 0.3) (layers F.Cu F.Paste F.Mask) (roundrect_rratio 0.25))
  (pad 81 smd roundrect (at 12.675 9.75) (size 1.5 0.3) (layers F.Cu F.Paste F.Mask) (roundrect_rratio 0.25))
  (pad 80 smd roundrect (at 9.75 12.675) (size 0.3 1.5) (layers F.Cu F.Paste F.Mask) (roundrect_rratio 0.25))
  (pad 79 smd roundrect (at 9.25 12.675) (size 0.3 1.5) (layers F.Cu F.Paste F.Mask) (roundrect_rratio 0.25))
  (pad 78 smd roundrect (at 8.75 12.675) (size 0.3 1.5) (layers F.Cu F.Paste F.Mask) (roundrect_rratio 0.25))
  (pad 77 smd roundrect (at 8.25 12.675) (size 0.3 1.5) (layers F.Cu F.Paste F.Mask) (roundrect_rratio 0.25))
  (pad 76 smd roundrect (at 7.75 12.675) (size 0.3 1.5) (layers F.Cu F.Paste F.Mask) (roundrect_rratio 0.25))
  (pad 75 smd roundrect (at 7.25 12.675) (size 0.3 1.5) (layers F.Cu F.Paste F.Mask) (roundrect_rratio 0.25))
  (pad 74 smd roundrect (at 6.75 12.675) (size 0.3 1.5) (layers F.Cu F.Paste F.Mask) (roundrect_rratio 0.25))
  (pad 73 smd roundrect (at 6.25 12.675) (size 0.3 1.5) (layers F.Cu F.Paste F.Mask) (roundrect_rratio 0.25))
  (pad 72 smd roundrect (at 5.75 12.675) (size 0.3 1.5) (layers F.Cu F.Paste F.Mask) (roundrect_rratio 0.25))
  (pad 71 smd roundrect (at 5.25 12.675) (size 0.3 1.5) (layers F.Cu F.Paste F.Mask) (roundrect_rratio 0.25))
  (pad 70 smd roundrect (at 4.75 12.675) (size 0.3 1.5) (layers F.Cu F.Paste F.Mask) (roundrect_rratio 0.25))
  (pad 69 smd roundrect (at 4.25 12.675) (size 0.3 1.5) (layers F.Cu F.Paste F.Mask) (roundrect_rratio 0.25))
  (pad 68 smd roundrect (at 3.75 12.675) (size 0.3 1.5) (layers F.Cu F.Paste F.Mask) (roundrect_rratio 0.25))
  (pad 67 smd roundrect (at 3.25 12.675) (size 0.3 1.5) (layers F.Cu F.Paste F.Mask) (roundrect_rratio 0.25))
  (pad 66 smd roundrect (at 2.75 12.675) (size 0.3 1.5) (layers F.Cu F.Paste F.Mask) (roundrect_rratio 0.25))
  (pad 65 smd roundrect (at 2.25 12.675) (size 0.3 1.5) (layers F.Cu F.Paste F.Mask) (roundrect_rratio 0.25))
  (pad 64 smd roundrect (at 1.75 12.675) (size 0.3 1.5) (layers F.Cu F.Paste F.Mask) (roundrect_rratio 0.25))
  (pad 63 smd roundrect (at 1.25 12.675) (size 0.3 1.5) (layers F.Cu F.Paste F.Mask) (roundrect_rratio 0.25))
  (pad 62 smd roundrect (at 0.75 12.675) (size 0.3 1.5) (layers F.Cu F.Paste F.Mask) (roundrect_rratio 0.25))
  (pad 61 smd roundrect (at 0.25 12.675) (size 0.3 1.5) (layers F.Cu F.Paste F.Mask) (roundrect_rratio 0.25))
  (pad 60 smd roundrect (at -0.25 12.675) (size 0.3 1.5) (layers F.Cu F.Paste F.Mask) (roundrect_rratio 0.25))
  (pad 59 smd roundrect (at -0.75 12.675) (size 0.3 1.5) (layers F.Cu F.Paste F.Mask) (roundrect_rratio 0.25))
  (pad 58 smd roundrect (at -1.25 12.675) (size 0.3 1.5) (layers F.Cu F.Paste F.Mask) (roundrect_rratio 0.25))
  (pad 57 smd roundrect (at -1.75 12.675) (size 0.3 1.5) (layers F.Cu F.Paste F.Mask) (roundrect_rratio 0.25))
  (pad 56 smd roundrect (at -2.25 12.675) (size 0.3 1.5) (layers F.Cu F.Paste F.Mask) (roundrect_rratio 0.25))
  (pad 55 smd roundrect (at -2.75 12.675) (size 0.3 1.5) (layers F.Cu F.Paste F.Mask) (roundrect_rratio 0.25))
  (pad 54 smd roundrect (at -3.25 12.675) (size 0.3 1.5) (layers F.Cu F.Paste F.Mask) (roundrect_rratio 0.25))
  (pad 53 smd roundrect (at -3.75 12.675) (size 0.3 1.5) (layers F.Cu F.Paste F.Mask) (roundrect_rratio 0.25))
  (pad 52 smd roundrect (at -4.25 12.675) (size 0.3 1.5) (layers F.Cu F.Paste F.Mask) (roundrect_rratio 0.25))
  (pad 51 smd roundrect (at -4.75 12.675) (size 0.3 1.5) (layers F.Cu F.Paste F.Mask) (roundrect_rratio 0.25))
  (pad 50 smd roundrect (at -5.25 12.675) (size 0.3 1.5) (layers F.Cu F.Paste F.Mask) (roundrect_rratio 0.25))
  (pad 49 smd roundrect (at -5.75 12.675) (size 0.3 1.5) (layers F.Cu F.Paste F.Mask) (roundrect_rratio 0.25))
  (pad 48 smd roundrect (at -6.25 12.675) (size 0.3 1.5) (layers F.Cu F.Paste F.Mask) (roundrect_rratio 0.25))
  (pad 47 smd roundrect (at -6.75 12.675) (size 0.3 1.5) (layers F.Cu F.Paste F.Mask) (roundrect_rratio 0.25))
  (pad 46 smd roundrect (at -7.25 12.675) (size 0.3 1.5) (layers F.Cu F.Paste F.Mask) (roundrect_rratio 0.25))
  (pad 45 smd roundrect (at -7.75 12.675) (size 0.3 1.5) (layers F.Cu F.Paste F.Mask) (roundrect_rratio 0.25))
  (pad 44 smd roundrect (at -8.25 12.675) (size 0.3 1.5) (layers F.Cu F.Paste F.Mask) (roundrect_rratio 0.25))
  (pad 43 smd roundrect (at -8.75 12.675) (size 0.3 1.5) (layers F.Cu F.Paste F.Mask) (roundrect_rratio 0.25))
  (pad 42 smd roundrect (at -9.25 12.675) (size 0.3 1.5) (layers F.Cu F.Paste F.Mask) (roundrect_rratio 0.25))
  (pad 41 smd roundrect (at -9.75 12.675) (size 0.3 1.5) (layers F.Cu F.Paste F.Mask) (roundrect_rratio 0.25))
  (pad 40 smd roundrect (at -12.675 9.75) (size 1.5 0.3) (layers F.Cu F.Paste F.Mask) (roundrect_rratio 0.25))
  (pad 39 smd roundrect (at -12.675 9.25) (size 1.5 0.3) (layers F.Cu F.Paste F.Mask) (roundrect_rratio 0.25))
  (pad 38 smd roundrect (at -12.675 8.75) (size 1.5 0.3) (layers F.Cu F.Paste F.Mask) (roundrect_rratio 0.25))
  (pad 37 smd roundrect (at -12.675 8.25) (size 1.5 0.3) (layers F.Cu F.Paste F.Mask) (roundrect_rratio 0.25))
  (pad 36 smd roundrect (at -12.675 7.75) (size 1.5 0.3) (layers F.Cu F.Paste F.Mask) (roundrect_rratio 0.25))
  (pad 35 smd roundrect (at -12.675 7.25) (size 1.5 0.3) (layers F.Cu F.Paste F.Mask) (roundrect_rratio 0.25))
  (pad 34 smd roundrect (at -12.675 6.75) (size 1.5 0.3) (layers F.Cu F.Paste F.Mask) (roundrect_rratio 0.25))
  (pad 33 smd roundrect (at -12.675 6.25) (size 1.5 0.3) (layers F.Cu F.Paste F.Mask) (roundrect_rratio 0.25))
  (pad 32 smd roundrect (at -12.675 5.75) (size 1.5 0.3) (layers F.Cu F.Paste F.Mask) (roundrect_rratio 0.25))
  (pad 31 smd roundrect (at -12.675 5.25) (size 1.5 0.3) (layers F.Cu F.Paste F.Mask) (roundrect_rratio 0.25))
  (pad 30 smd roundrect (at -12.675 4.75) (size 1.5 0.3) (layers F.Cu F.Paste F.Mask) (roundrect_rratio 0.25))
  (pad 29 smd roundrect (at -12.675 4.25) (size 1.5 0.3) (layers F.Cu F.Paste F.Mask) (roundrect_rratio 0.25))
  (pad 28 smd roundrect (at -12.675 3.75) (size 1.5 0.3) (layers F.Cu F.Paste F.Mask) (roundrect_rratio 0.25))
  (pad 27 smd roundrect (at -12.675 3.25) (size 1.5 0.3) (layers F.Cu F.Paste F.Mask) (roundrect_rratio 0.25))
  (pad 26 smd roundrect (at -12.675 2.75) (size 1.5 0.3) (layers F.Cu F.Paste F.Mask) (roundrect_rratio 0.25))
  (pad 25 smd roundrect (at -12.675 2.25) (size 1.5 0.3) (layers F.Cu F.Paste F.Mask) (roundrect_rratio 0.25))
  (pad 24 smd roundrect (at -12.675 1.75) (size 1.5 0.3) (layers F.Cu F.Paste F.Mask) (roundrect_rratio 0.25))
  (pad 23 smd roundrect (at -12.675 1.25) (size 1.5 0.3) (layers F.Cu F.Paste F.Mask) (roundrect_rratio 0.25))
  (pad 22 smd roundrect (at -12.675 0.75) (size 1.5 0.3) (layers F.Cu F.Paste F.Mask) (roundrect_rratio 0.25))
  (pad 21 smd roundrect (at -12.675 0.25) (size 1.5 0.3) (layers F.Cu F.Paste F.Mask) (roundrect_rratio 0.25))
  (pad 20 smd roundrect (at -12.675 -0.25) (size 1.5 0.3) (layers F.Cu F.Paste F.Mask) (roundrect_rratio 0.25))
  (pad 19 smd roundrect (at -12.675 -0.75) (size 1.5 0.3) (layers F.Cu F.Paste F.Mask) (roundrect_rratio 0.25))
  (pad 18 smd roundrect (at -12.675 -1.25) (size 1.5 0.3) (layers F.Cu F.Paste F.Mask) (roundrect_rratio 0.25))
  (pad 17 smd roundrect (at -12.675 -1.75) (size 1.5 0.3) (layers F.Cu F.Paste F.Mask) (roundrect_rratio 0.25))
  (pad 16 smd roundrect (at -12.675 -2.25) (size 1.5 0.3) (layers F.Cu F.Paste F.Mask) (roundrect_rratio 0.25))
  (pad 15 smd roundrect (at -12.675 -2.75) (size 1.5 0.3) (layers F.Cu F.Paste F.Mask) (roundrect_rratio 0.25))
  (pad 14 smd roundrect (at -12.675 -3.25) (size 1.5 0.3) (layers F.Cu F.Paste F.Mask) (roundrect_rratio 0.25))
  (pad 13 smd roundrect (at -12.675 -3.75) (size 1.5 0.3) (layers F.Cu F.Paste F.Mask) (roundrect_rratio 0.25))
  (pad 12 smd roundrect (at -12.675 -4.25) (size 1.5 0.3) (layers F.Cu F.Paste F.Mask) (roundrect_rratio 0.25))
  (pad 11 smd roundrect (at -12.675 -4.75) (size 1.5 0.3) (layers F.Cu F.Paste F.Mask) (roundrect_rratio 0.25))
  (pad 10 smd roundrect (at -12.675 -5.25) (size 1.5 0.3) (layers F.Cu F.Paste F.Mask) (roundrect_rratio 0.25))
  (pad 9 smd roundrect (at -12.675 -5.75) (size 1.5 0.3) (layers F.Cu F.Paste F.Mask) (roundrect_rratio 0.25))
  (pad 8 smd roundrect (at -12.675 -6.25) (size 1.5 0.3) (layers F.Cu F.Paste F.Mask) (roundrect_rratio 0.25))
  (pad 7 smd roundrect (at -12.675 -6.75) (size 1.5 0.3) (layers F.Cu F.Paste F.Mask) (roundrect_rratio 0.25))
  (pad 6 smd roundrect (at -12.675 -7.25) (size 1.5 0.3) (layers F.Cu F.Paste F.Mask) (roundrect_rratio 0.25))
  (pad 5 smd roundrect (at -12.675 -7.75) (size 1.5 0.3) (layers F.Cu F.Paste F.Mask) (roundrect_rratio 0.25))
  (pad 4 smd roundrect (at -12.675 -8.25) (size 1.5 0.3) (layers F.Cu F.Paste F.Mask) (roundrect_rratio 0.25))
  (pad 3 smd roundrect (at -12.675 -8.75) (size 1.5 0.3) (layers F.Cu F.Paste F.Mask) (roundrect_rratio 0.25))
  (pad 2 smd roundrect (at -12.675 -9.25) (size 1.5 0.3) (layers F.Cu F.Paste F.Mask) (roundrect_rratio 0.25))
  (pad 1 smd roundrect (at -12.675 -9.75) (size 1.5 0.3) (layers F.Cu F.Paste F.Mask) (roundrect_rratio 0.25))
  (model ${KISYS3DMOD}/Package_QFP.3dshapes/LQFP-160_24x24mm_P0.5mm.wrl
    (at (xyz 0 0 0))
    (scale (xyz 1 1 1))
    (rotate (xyz 0 0 0))
  )
)
