(module LQFP-36_7x7mm_P0.65mm (layer F.Cu) (tedit 607FD3E3)
  (descr "LQFP, 36 Pin (https://www.onsemi.com/pub/Collateral/561AV.PDF), Alternate KiCad Library")
  (tags "LQFP QFP")
  (attr smd)
  (fp_text reference REF** (at 0 -5.9) (layer F.SilkS)
    (effects (font (size 1 1) (thickness 0.15)))
  )
  (fp_text value LQFP-36_7x7mm_P0.65mm (at 0 5.9) (layer F.Fab)
    (effects (font (size 1 1) (thickness 0.15)))
  )
  (fp_line (start -5.207 5.207) (end -5.207 -4.191) (layer F.SilkS) (width 0.12))
  (fp_line (start 5.207 5.207) (end -5.207 5.207) (layer F.SilkS) (width 0.12))
  (fp_line (start 5.207 -5.207) (end 5.207 5.207) (layer F.SilkS) (width 0.12))
  (fp_line (start -4.191 -5.207) (end 5.207 -5.207) (layer F.SilkS) (width 0.12))
  (fp_line (start -5.207 -4.191) (end -4.191 -5.207) (layer F.SilkS) (width 0.12))
  (fp_line (start 5.2 3.05) (end 5.2 0) (layer F.CrtYd) (width 0.05))
  (fp_line (start 3.75 3.05) (end 5.2 3.05) (layer F.CrtYd) (width 0.05))
  (fp_line (start 3.75 3.75) (end 3.75 3.05) (layer F.CrtYd) (width 0.05))
  (fp_line (start 3.05 3.75) (end 3.75 3.75) (layer F.CrtYd) (width 0.05))
  (fp_line (start 3.05 5.2) (end 3.05 3.75) (layer F.CrtYd) (width 0.05))
  (fp_line (start 0 5.2) (end 3.05 5.2) (layer F.CrtYd) (width 0.05))
  (fp_line (start -5.2 3.05) (end -5.2 0) (layer F.CrtYd) (width 0.05))
  (fp_line (start -3.75 3.05) (end -5.2 3.05) (layer F.CrtYd) (width 0.05))
  (fp_line (start -3.75 3.75) (end -3.75 3.05) (layer F.CrtYd) (width 0.05))
  (fp_line (start -3.05 3.75) (end -3.75 3.75) (layer F.CrtYd) (width 0.05))
  (fp_line (start -3.05 5.2) (end -3.05 3.75) (layer F.CrtYd) (width 0.05))
  (fp_line (start 0 5.2) (end -3.05 5.2) (layer F.CrtYd) (width 0.05))
  (fp_line (start 5.2 -3.05) (end 5.2 0) (layer F.CrtYd) (width 0.05))
  (fp_line (start 3.75 -3.05) (end 5.2 -3.05) (layer F.CrtYd) (width 0.05))
  (fp_line (start 3.75 -3.75) (end 3.75 -3.05) (layer F.CrtYd) (width 0.05))
  (fp_line (start 3.05 -3.75) (end 3.75 -3.75) (layer F.CrtYd) (width 0.05))
  (fp_line (start 3.05 -5.2) (end 3.05 -3.75) (layer F.CrtYd) (width 0.05))
  (fp_line (start 0 -5.2) (end 3.05 -5.2) (layer F.CrtYd) (width 0.05))
  (fp_line (start -5.2 -3.05) (end -5.2 0) (layer F.CrtYd) (width 0.05))
  (fp_line (start -3.75 -3.05) (end -5.2 -3.05) (layer F.CrtYd) (width 0.05))
  (fp_line (start -3.75 -3.75) (end -3.75 -3.05) (layer F.CrtYd) (width 0.05))
  (fp_line (start -3.05 -3.75) (end -3.75 -3.75) (layer F.CrtYd) (width 0.05))
  (fp_line (start -3.05 -5.2) (end -3.05 -3.75) (layer F.CrtYd) (width 0.05))
  (fp_line (start 0 -5.2) (end -3.05 -5.2) (layer F.CrtYd) (width 0.05))
  (fp_line (start -3.5 -2.5) (end -2.5 -3.5) (layer F.Fab) (width 0.1))
  (fp_line (start -3.5 3.5) (end -3.5 -2.5) (layer F.Fab) (width 0.1))
  (fp_line (start 3.5 3.5) (end -3.5 3.5) (layer F.Fab) (width 0.1))
  (fp_line (start 3.5 -3.5) (end 3.5 3.5) (layer F.Fab) (width 0.1))
  (fp_line (start -2.5 -3.5) (end 3.5 -3.5) (layer F.Fab) (width 0.1))
  (fp_circle (center -4.318 -4.318) (end -4.191 -4.318) (layer F.SilkS) (width 0.4))
  (fp_text user %R (at 0 0) (layer F.Fab)
    (effects (font (size 1 1) (thickness 0.15)))
  )
  (fp_text user 1 (at -4.318 -3.429 -90 unlocked) (layer F.SilkS)
    (effects (font (size 1 1) (thickness 0.15)))
  )
  (fp_text user 9 (at -4.318 4.445 -90 unlocked) (layer F.SilkS)
    (effects (font (size 1 1) (thickness 0.15)))
  )
  (fp_text user 18 (at 4.191 4.064 -90 unlocked) (layer F.SilkS)
    (effects (font (size 1 1) (thickness 0.15)))
  )
  (fp_text user 27 (at 4.191 -4.064 -90 unlocked) (layer F.SilkS)
    (effects (font (size 1 1) (thickness 0.15)))
  )
  (pad 36 smd roundrect (at -2.6 -4.2125) (size 0.4 1.475) (layers F.Cu F.Paste F.Mask) (roundrect_rratio 0.25))
  (pad 35 smd roundrect (at -1.95 -4.2125) (size 0.4 1.475) (layers F.Cu F.Paste F.Mask) (roundrect_rratio 0.25))
  (pad 34 smd roundrect (at -1.3 -4.2125) (size 0.4 1.475) (layers F.Cu F.Paste F.Mask) (roundrect_rratio 0.25))
  (pad 33 smd roundrect (at -0.65 -4.2125) (size 0.4 1.475) (layers F.Cu F.Paste F.Mask) (roundrect_rratio 0.25))
  (pad 32 smd roundrect (at 0 -4.2125) (size 0.4 1.475) (layers F.Cu F.Paste F.Mask) (roundrect_rratio 0.25))
  (pad 31 smd roundrect (at 0.65 -4.2125) (size 0.4 1.475) (layers F.Cu F.Paste F.Mask) (roundrect_rratio 0.25))
  (pad 30 smd roundrect (at 1.3 -4.2125) (size 0.4 1.475) (layers F.Cu F.Paste F.Mask) (roundrect_rratio 0.25))
  (pad 29 smd roundrect (at 1.95 -4.2125) (size 0.4 1.475) (layers F.Cu F.Paste F.Mask) (roundrect_rratio 0.25))
  (pad 28 smd roundrect (at 2.6 -4.2125) (size 0.4 1.475) (layers F.Cu F.Paste F.Mask) (roundrect_rratio 0.25))
  (pad 27 smd roundrect (at 4.2125 -2.6) (size 1.475 0.4) (layers F.Cu F.Paste F.Mask) (roundrect_rratio 0.25))
  (pad 26 smd roundrect (at 4.2125 -1.95) (size 1.475 0.4) (layers F.Cu F.Paste F.Mask) (roundrect_rratio 0.25))
  (pad 25 smd roundrect (at 4.2125 -1.3) (size 1.475 0.4) (layers F.Cu F.Paste F.Mask) (roundrect_rratio 0.25))
  (pad 24 smd roundrect (at 4.2125 -0.65) (size 1.475 0.4) (layers F.Cu F.Paste F.Mask) (roundrect_rratio 0.25))
  (pad 23 smd roundrect (at 4.2125 0) (size 1.475 0.4) (layers F.Cu F.Paste F.Mask) (roundrect_rratio 0.25))
  (pad 22 smd roundrect (at 4.2125 0.65) (size 1.475 0.4) (layers F.Cu F.Paste F.Mask) (roundrect_rratio 0.25))
  (pad 21 smd roundrect (at 4.2125 1.3) (size 1.475 0.4) (layers F.Cu F.Paste F.Mask) (roundrect_rratio 0.25))
  (pad 20 smd roundrect (at 4.2125 1.95) (size 1.475 0.4) (layers F.Cu F.Paste F.Mask) (roundrect_rratio 0.25))
  (pad 19 smd roundrect (at 4.2125 2.6) (size 1.475 0.4) (layers F.Cu F.Paste F.Mask) (roundrect_rratio 0.25))
  (pad 18 smd roundrect (at 2.6 4.2125) (size 0.4 1.475) (layers F.Cu F.Paste F.Mask) (roundrect_rratio 0.25))
  (pad 17 smd roundrect (at 1.95 4.2125) (size 0.4 1.475) (layers F.Cu F.Paste F.Mask) (roundrect_rratio 0.25))
  (pad 16 smd roundrect (at 1.3 4.2125) (size 0.4 1.475) (layers F.Cu F.Paste F.Mask) (roundrect_rratio 0.25))
  (pad 15 smd roundrect (at 0.65 4.2125) (size 0.4 1.475) (layers F.Cu F.Paste F.Mask) (roundrect_rratio 0.25))
  (pad 14 smd roundrect (at 0 4.2125) (size 0.4 1.475) (layers F.Cu F.Paste F.Mask) (roundrect_rratio 0.25))
  (pad 13 smd roundrect (at -0.65 4.2125) (size 0.4 1.475) (layers F.Cu F.Paste F.Mask) (roundrect_rratio 0.25))
  (pad 12 smd roundrect (at -1.3 4.2125) (size 0.4 1.475) (layers F.Cu F.Paste F.Mask) (roundrect_rratio 0.25))
  (pad 11 smd roundrect (at -1.95 4.2125) (size 0.4 1.475) (layers F.Cu F.Paste F.Mask) (roundrect_rratio 0.25))
  (pad 10 smd roundrect (at -2.6 4.2125) (size 0.4 1.475) (layers F.Cu F.Paste F.Mask) (roundrect_rratio 0.25))
  (pad 9 smd roundrect (at -4.2125 2.6) (size 1.475 0.4) (layers F.Cu F.Paste F.Mask) (roundrect_rratio 0.25))
  (pad 8 smd roundrect (at -4.2125 1.95) (size 1.475 0.4) (layers F.Cu F.Paste F.Mask) (roundrect_rratio 0.25))
  (pad 7 smd roundrect (at -4.2125 1.3) (size 1.475 0.4) (layers F.Cu F.Paste F.Mask) (roundrect_rratio 0.25))
  (pad 6 smd roundrect (at -4.2125 0.65) (size 1.475 0.4) (layers F.Cu F.Paste F.Mask) (roundrect_rratio 0.25))
  (pad 5 smd roundrect (at -4.2125 0) (size 1.475 0.4) (layers F.Cu F.Paste F.Mask) (roundrect_rratio 0.25))
  (pad 4 smd roundrect (at -4.2125 -0.65) (size 1.475 0.4) (layers F.Cu F.Paste F.Mask) (roundrect_rratio 0.25))
  (pad 3 smd roundrect (at -4.2125 -1.3) (size 1.475 0.4) (layers F.Cu F.Paste F.Mask) (roundrect_rratio 0.25))
  (pad 2 smd roundrect (at -4.2125 -1.95) (size 1.475 0.4) (layers F.Cu F.Paste F.Mask) (roundrect_rratio 0.25))
  (pad 1 smd roundrect (at -4.2125 -2.6) (size 1.475 0.4) (layers F.Cu F.Paste F.Mask) (roundrect_rratio 0.25))
  (model ${KISYS3DMOD}/Package_QFP.3dshapes/LQFP-36_7x7mm_P0.65mm.wrl
    (at (xyz 0 0 0))
    (scale (xyz 1 1 1))
    (rotate (xyz 0 0 0))
  )
)
