(module PQFP-160_28x28mm_P0.65mm (layer F.Cu) (tedit 607FD605)
  (descr "PQFP, 160 Pin (http://www.microsemi.com/index.php?option=com_docman&task=doc_download&gid=131095), Alternate KiCad Library")
  (tags "PQFP QFP")
  (attr smd)
  (fp_text reference REF** (at 0 -17.399) (layer F.SilkS)
    (effects (font (size 1 1) (thickness 0.15)))
  )
  (fp_text value PQFP-160_28x28mm_P0.65mm (at 0 16.95) (layer F.Fab)
    (effects (font (size 1 1) (thickness 0.15)))
  )
  (fp_line (start -12.675 -16.256) (end -12.675 -16.637) (layer F.SilkS) (width 0.12))
  (fp_line (start -9.425 -16.256) (end -9.425 -16.51) (layer F.SilkS) (width 0.12))
  (fp_line (start -6.175 -16.256) (end -6.175 -16.637) (layer F.SilkS) (width 0.12))
  (fp_line (start -2.925 -16.256) (end -2.925 -16.51) (layer F.SilkS) (width 0.12))
  (fp_line (start 0.325 -16.256) (end 0.325 -16.637) (layer F.SilkS) (width 0.12))
  (fp_line (start 3.575 -16.256) (end 3.575 -16.51) (layer F.SilkS) (width 0.12))
  (fp_line (start 6.825 -16.256) (end 6.825 -16.637) (layer F.SilkS) (width 0.12))
  (fp_line (start 10.075 -16.256) (end 10.075 -16.51) (layer F.SilkS) (width 0.12))
  (fp_line (start 16.256 -12.675) (end 16.637 -12.675) (layer F.SilkS) (width 0.12))
  (fp_line (start 16.256 -9.425) (end 16.51 -9.425) (layer F.SilkS) (width 0.12))
  (fp_line (start 16.256 -6.175) (end 16.637 -6.175) (layer F.SilkS) (width 0.12))
  (fp_line (start 16.256 -2.925) (end 16.51 -2.925) (layer F.SilkS) (width 0.12))
  (fp_line (start 16.256 0.325) (end 16.637 0.325) (layer F.SilkS) (width 0.12))
  (fp_line (start 16.256 3.575) (end 16.51 3.575) (layer F.SilkS) (width 0.12))
  (fp_line (start 16.256 6.825) (end 16.637 6.825) (layer F.SilkS) (width 0.12))
  (fp_line (start 16.256 10.075) (end 16.51 10.075) (layer F.SilkS) (width 0.12))
  (fp_line (start 12.675 16.256) (end 12.675 16.51) (layer F.SilkS) (width 0.12))
  (fp_line (start 9.425 16.256) (end 9.425 16.51) (layer F.SilkS) (width 0.12))
  (fp_line (start 6.175 16.256) (end 6.175 16.637) (layer F.SilkS) (width 0.12))
  (fp_line (start 2.925 16.256) (end 2.925 16.51) (layer F.SilkS) (width 0.12))
  (fp_line (start -0.325 16.256) (end -0.325 16.637) (layer F.SilkS) (width 0.12))
  (fp_line (start -3.575 16.256) (end -3.575 16.51) (layer F.SilkS) (width 0.12))
  (fp_line (start -6.825 16.637) (end -6.825 16.256) (layer F.SilkS) (width 0.12))
  (fp_line (start -10.075 16.51) (end -10.075 16.256) (layer F.SilkS) (width 0.12))
  (fp_line (start -16.256 12.675) (end -16.637 12.675) (layer F.SilkS) (width 0.12))
  (fp_line (start -16.256 9.425) (end -16.51 9.425) (layer F.SilkS) (width 0.12))
  (fp_line (start -16.256 6.175) (end -16.637 6.175) (layer F.SilkS) (width 0.12))
  (fp_line (start -16.256 2.925) (end -16.51 2.925) (layer F.SilkS) (width 0.12))
  (fp_line (start -16.256 -0.325) (end -16.637 -0.325) (layer F.SilkS) (width 0.12))
  (fp_line (start -16.256 -3.575) (end -16.51 -3.575) (layer F.SilkS) (width 0.12))
  (fp_line (start -16.256 -6.825) (end -16.637 -6.825) (layer F.SilkS) (width 0.12))
  (fp_line (start -16.256 -10.075) (end -16.51 -10.075) (layer F.SilkS) (width 0.12))
  (fp_line (start 16.256 -16.256) (end -15.24 -16.256) (layer F.SilkS) (width 0.12))
  (fp_line (start 16.256 16.256) (end 16.256 -16.256) (layer F.SilkS) (width 0.12))
  (fp_line (start -16.256 16.256) (end 16.256 16.256) (layer F.SilkS) (width 0.12))
  (fp_line (start -16.256 -15.24) (end -16.256 16.256) (layer F.SilkS) (width 0.12))
  (fp_line (start -15.24 -16.256) (end -16.256 -15.24) (layer F.SilkS) (width 0.12))
  (fp_line (start 16.25 13.12) (end 16.25 0) (layer F.CrtYd) (width 0.05))
  (fp_line (start 14.25 13.12) (end 16.25 13.12) (layer F.CrtYd) (width 0.05))
  (fp_line (start 14.25 14.25) (end 14.25 13.12) (layer F.CrtYd) (width 0.05))
  (fp_line (start 13.12 14.25) (end 14.25 14.25) (layer F.CrtYd) (width 0.05))
  (fp_line (start 13.12 16.25) (end 13.12 14.25) (layer F.CrtYd) (width 0.05))
  (fp_line (start 0 16.25) (end 13.12 16.25) (layer F.CrtYd) (width 0.05))
  (fp_line (start -16.25 13.12) (end -16.25 0) (layer F.CrtYd) (width 0.05))
  (fp_line (start -14.25 13.12) (end -16.25 13.12) (layer F.CrtYd) (width 0.05))
  (fp_line (start -14.25 14.25) (end -14.25 13.12) (layer F.CrtYd) (width 0.05))
  (fp_line (start -13.12 14.25) (end -14.25 14.25) (layer F.CrtYd) (width 0.05))
  (fp_line (start -13.12 16.25) (end -13.12 14.25) (layer F.CrtYd) (width 0.05))
  (fp_line (start 0 16.25) (end -13.12 16.25) (layer F.CrtYd) (width 0.05))
  (fp_line (start 16.25 -13.12) (end 16.25 0) (layer F.CrtYd) (width 0.05))
  (fp_line (start 14.25 -13.12) (end 16.25 -13.12) (layer F.CrtYd) (width 0.05))
  (fp_line (start 14.25 -14.25) (end 14.25 -13.12) (layer F.CrtYd) (width 0.05))
  (fp_line (start 13.12 -14.25) (end 14.25 -14.25) (layer F.CrtYd) (width 0.05))
  (fp_line (start 13.12 -16.25) (end 13.12 -14.25) (layer F.CrtYd) (width 0.05))
  (fp_line (start 0 -16.25) (end 13.12 -16.25) (layer F.CrtYd) (width 0.05))
  (fp_line (start -16.25 -13.12) (end -16.25 0) (layer F.CrtYd) (width 0.05))
  (fp_line (start -14.25 -13.12) (end -16.25 -13.12) (layer F.CrtYd) (width 0.05))
  (fp_line (start -14.25 -14.25) (end -14.25 -13.12) (layer F.CrtYd) (width 0.05))
  (fp_line (start -13.12 -14.25) (end -14.25 -14.25) (layer F.CrtYd) (width 0.05))
  (fp_line (start -13.12 -16.25) (end -13.12 -14.25) (layer F.CrtYd) (width 0.05))
  (fp_line (start 0 -16.25) (end -13.12 -16.25) (layer F.CrtYd) (width 0.05))
  (fp_line (start -14 -13) (end -13 -14) (layer F.Fab) (width 0.1))
  (fp_line (start -14 14) (end -14 -13) (layer F.Fab) (width 0.1))
  (fp_line (start 14 14) (end -14 14) (layer F.Fab) (width 0.1))
  (fp_line (start 14 -14) (end 14 14) (layer F.Fab) (width 0.1))
  (fp_line (start -13 -14) (end 14 -14) (layer F.Fab) (width 0.1))
  (fp_circle (center -15.367 -15.367) (end -15.24 -15.367) (layer F.SilkS) (width 0.4))
  (fp_text user %R (at 0 0) (layer F.Fab)
    (effects (font (size 1 1) (thickness 0.15)))
  )
  (fp_text user 1 (at -15.367 -14.478 -90 unlocked) (layer F.SilkS)
    (effects (font (size 1 1) (thickness 0.15)))
  )
  (fp_text user 40 (at -15.367 14.986 -90 unlocked) (layer F.SilkS)
    (effects (font (size 1 1) (thickness 0.15)))
  )
  (fp_text user 80 (at 15.24 14.986 -90 unlocked) (layer F.SilkS)
    (effects (font (size 1 1) (thickness 0.15)))
  )
  (fp_text user 120 (at 15.24 -14.605 -90 unlocked) (layer F.SilkS)
    (effects (font (size 1 1) (thickness 0.15)))
  )
  (pad 160 smd roundrect (at -12.675 -15.125) (size 0.4 1.75) (layers F.Cu F.Paste F.Mask) (roundrect_rratio 0.25))
  (pad 159 smd roundrect (at -12.025 -15.125) (size 0.4 1.75) (layers F.Cu F.Paste F.Mask) (roundrect_rratio 0.25))
  (pad 158 smd roundrect (at -11.375 -15.125) (size 0.4 1.75) (layers F.Cu F.Paste F.Mask) (roundrect_rratio 0.25))
  (pad 157 smd roundrect (at -10.725 -15.125) (size 0.4 1.75) (layers F.Cu F.Paste F.Mask) (roundrect_rratio 0.25))
  (pad 156 smd roundrect (at -10.075 -15.125) (size 0.4 1.75) (layers F.Cu F.Paste F.Mask) (roundrect_rratio 0.25))
  (pad 155 smd roundrect (at -9.425 -15.125) (size 0.4 1.75) (layers F.Cu F.Paste F.Mask) (roundrect_rratio 0.25))
  (pad 154 smd roundrect (at -8.775 -15.125) (size 0.4 1.75) (layers F.Cu F.Paste F.Mask) (roundrect_rratio 0.25))
  (pad 153 smd roundrect (at -8.125 -15.125) (size 0.4 1.75) (layers F.Cu F.Paste F.Mask) (roundrect_rratio 0.25))
  (pad 152 smd roundrect (at -7.475 -15.125) (size 0.4 1.75) (layers F.Cu F.Paste F.Mask) (roundrect_rratio 0.25))
  (pad 151 smd roundrect (at -6.825 -15.125) (size 0.4 1.75) (layers F.Cu F.Paste F.Mask) (roundrect_rratio 0.25))
  (pad 150 smd roundrect (at -6.175 -15.125) (size 0.4 1.75) (layers F.Cu F.Paste F.Mask) (roundrect_rratio 0.25))
  (pad 149 smd roundrect (at -5.525 -15.125) (size 0.4 1.75) (layers F.Cu F.Paste F.Mask) (roundrect_rratio 0.25))
  (pad 148 smd roundrect (at -4.875 -15.125) (size 0.4 1.75) (layers F.Cu F.Paste F.Mask) (roundrect_rratio 0.25))
  (pad 147 smd roundrect (at -4.225 -15.125) (size 0.4 1.75) (layers F.Cu F.Paste F.Mask) (roundrect_rratio 0.25))
  (pad 146 smd roundrect (at -3.575 -15.125) (size 0.4 1.75) (layers F.Cu F.Paste F.Mask) (roundrect_rratio 0.25))
  (pad 145 smd roundrect (at -2.925 -15.125) (size 0.4 1.75) (layers F.Cu F.Paste F.Mask) (roundrect_rratio 0.25))
  (pad 144 smd roundrect (at -2.275 -15.125) (size 0.4 1.75) (layers F.Cu F.Paste F.Mask) (roundrect_rratio 0.25))
  (pad 143 smd roundrect (at -1.625 -15.125) (size 0.4 1.75) (layers F.Cu F.Paste F.Mask) (roundrect_rratio 0.25))
  (pad 142 smd roundrect (at -0.975 -15.125) (size 0.4 1.75) (layers F.Cu F.Paste F.Mask) (roundrect_rratio 0.25))
  (pad 141 smd roundrect (at -0.325 -15.125) (size 0.4 1.75) (layers F.Cu F.Paste F.Mask) (roundrect_rratio 0.25))
  (pad 140 smd roundrect (at 0.325 -15.125) (size 0.4 1.75) (layers F.Cu F.Paste F.Mask) (roundrect_rratio 0.25))
  (pad 139 smd roundrect (at 0.975 -15.125) (size 0.4 1.75) (layers F.Cu F.Paste F.Mask) (roundrect_rratio 0.25))
  (pad 138 smd roundrect (at 1.625 -15.125) (size 0.4 1.75) (layers F.Cu F.Paste F.Mask) (roundrect_rratio 0.25))
  (pad 137 smd roundrect (at 2.275 -15.125) (size 0.4 1.75) (layers F.Cu F.Paste F.Mask) (roundrect_rratio 0.25))
  (pad 136 smd roundrect (at 2.925 -15.125) (size 0.4 1.75) (layers F.Cu F.Paste F.Mask) (roundrect_rratio 0.25))
  (pad 135 smd roundrect (at 3.575 -15.125) (size 0.4 1.75) (layers F.Cu F.Paste F.Mask) (roundrect_rratio 0.25))
  (pad 134 smd roundrect (at 4.225 -15.125) (size 0.4 1.75) (layers F.Cu F.Paste F.Mask) (roundrect_rratio 0.25))
  (pad 133 smd roundrect (at 4.875 -15.125) (size 0.4 1.75) (layers F.Cu F.Paste F.Mask) (roundrect_rratio 0.25))
  (pad 132 smd roundrect (at 5.525 -15.125) (size 0.4 1.75) (layers F.Cu F.Paste F.Mask) (roundrect_rratio 0.25))
  (pad 131 smd roundrect (at 6.175 -15.125) (size 0.4 1.75) (layers F.Cu F.Paste F.Mask) (roundrect_rratio 0.25))
  (pad 130 smd roundrect (at 6.825 -15.125) (size 0.4 1.75) (layers F.Cu F.Paste F.Mask) (roundrect_rratio 0.25))
  (pad 129 smd roundrect (at 7.475 -15.125) (size 0.4 1.75) (layers F.Cu F.Paste F.Mask) (roundrect_rratio 0.25))
  (pad 128 smd roundrect (at 8.125 -15.125) (size 0.4 1.75) (layers F.Cu F.Paste F.Mask) (roundrect_rratio 0.25))
  (pad 127 smd roundrect (at 8.775 -15.125) (size 0.4 1.75) (layers F.Cu F.Paste F.Mask) (roundrect_rratio 0.25))
  (pad 126 smd roundrect (at 9.425 -15.125) (size 0.4 1.75) (layers F.Cu F.Paste F.Mask) (roundrect_rratio 0.25))
  (pad 125 smd roundrect (at 10.075 -15.125) (size 0.4 1.75) (layers F.Cu F.Paste F.Mask) (roundrect_rratio 0.25))
  (pad 124 smd roundrect (at 10.725 -15.125) (size 0.4 1.75) (layers F.Cu F.Paste F.Mask) (roundrect_rratio 0.25))
  (pad 123 smd roundrect (at 11.375 -15.125) (size 0.4 1.75) (layers F.Cu F.Paste F.Mask) (roundrect_rratio 0.25))
  (pad 122 smd roundrect (at 12.025 -15.125) (size 0.4 1.75) (layers F.Cu F.Paste F.Mask) (roundrect_rratio 0.25))
  (pad 121 smd roundrect (at 12.675 -15.125) (size 0.4 1.75) (layers F.Cu F.Paste F.Mask) (roundrect_rratio 0.25))
  (pad 120 smd roundrect (at 15.125 -12.675) (size 1.75 0.4) (layers F.Cu F.Paste F.Mask) (roundrect_rratio 0.25))
  (pad 119 smd roundrect (at 15.125 -12.025) (size 1.75 0.4) (layers F.Cu F.Paste F.Mask) (roundrect_rratio 0.25))
  (pad 118 smd roundrect (at 15.125 -11.375) (size 1.75 0.4) (layers F.Cu F.Paste F.Mask) (roundrect_rratio 0.25))
  (pad 117 smd roundrect (at 15.125 -10.725) (size 1.75 0.4) (layers F.Cu F.Paste F.Mask) (roundrect_rratio 0.25))
  (pad 116 smd roundrect (at 15.125 -10.075) (size 1.75 0.4) (layers F.Cu F.Paste F.Mask) (roundrect_rratio 0.25))
  (pad 115 smd roundrect (at 15.125 -9.425) (size 1.75 0.4) (layers F.Cu F.Paste F.Mask) (roundrect_rratio 0.25))
  (pad 114 smd roundrect (at 15.125 -8.775) (size 1.75 0.4) (layers F.Cu F.Paste F.Mask) (roundrect_rratio 0.25))
  (pad 113 smd roundrect (at 15.125 -8.125) (size 1.75 0.4) (layers F.Cu F.Paste F.Mask) (roundrect_rratio 0.25))
  (pad 112 smd roundrect (at 15.125 -7.475) (size 1.75 0.4) (layers F.Cu F.Paste F.Mask) (roundrect_rratio 0.25))
  (pad 111 smd roundrect (at 15.125 -6.825) (size 1.75 0.4) (layers F.Cu F.Paste F.Mask) (roundrect_rratio 0.25))
  (pad 110 smd roundrect (at 15.125 -6.175) (size 1.75 0.4) (layers F.Cu F.Paste F.Mask) (roundrect_rratio 0.25))
  (pad 109 smd roundrect (at 15.125 -5.525) (size 1.75 0.4) (layers F.Cu F.Paste F.Mask) (roundrect_rratio 0.25))
  (pad 108 smd roundrect (at 15.125 -4.875) (size 1.75 0.4) (layers F.Cu F.Paste F.Mask) (roundrect_rratio 0.25))
  (pad 107 smd roundrect (at 15.125 -4.225) (size 1.75 0.4) (layers F.Cu F.Paste F.Mask) (roundrect_rratio 0.25))
  (pad 106 smd roundrect (at 15.125 -3.575) (size 1.75 0.4) (layers F.Cu F.Paste F.Mask) (roundrect_rratio 0.25))
  (pad 105 smd roundrect (at 15.125 -2.925) (size 1.75 0.4) (layers F.Cu F.Paste F.Mask) (roundrect_rratio 0.25))
  (pad 104 smd roundrect (at 15.125 -2.275) (size 1.75 0.4) (layers F.Cu F.Paste F.Mask) (roundrect_rratio 0.25))
  (pad 103 smd roundrect (at 15.125 -1.625) (size 1.75 0.4) (layers F.Cu F.Paste F.Mask) (roundrect_rratio 0.25))
  (pad 102 smd roundrect (at 15.125 -0.975) (size 1.75 0.4) (layers F.Cu F.Paste F.Mask) (roundrect_rratio 0.25))
  (pad 101 smd roundrect (at 15.125 -0.325) (size 1.75 0.4) (layers F.Cu F.Paste F.Mask) (roundrect_rratio 0.25))
  (pad 100 smd roundrect (at 15.125 0.325) (size 1.75 0.4) (layers F.Cu F.Paste F.Mask) (roundrect_rratio 0.25))
  (pad 99 smd roundrect (at 15.125 0.975) (size 1.75 0.4) (layers F.Cu F.Paste F.Mask) (roundrect_rratio 0.25))
  (pad 98 smd roundrect (at 15.125 1.625) (size 1.75 0.4) (layers F.Cu F.Paste F.Mask) (roundrect_rratio 0.25))
  (pad 97 smd roundrect (at 15.125 2.275) (size 1.75 0.4) (layers F.Cu F.Paste F.Mask) (roundrect_rratio 0.25))
  (pad 96 smd roundrect (at 15.125 2.925) (size 1.75 0.4) (layers F.Cu F.Paste F.Mask) (roundrect_rratio 0.25))
  (pad 95 smd roundrect (at 15.125 3.575) (size 1.75 0.4) (layers F.Cu F.Paste F.Mask) (roundrect_rratio 0.25))
  (pad 94 smd roundrect (at 15.125 4.225) (size 1.75 0.4) (layers F.Cu F.Paste F.Mask) (roundrect_rratio 0.25))
  (pad 93 smd roundrect (at 15.125 4.875) (size 1.75 0.4) (layers F.Cu F.Paste F.Mask) (roundrect_rratio 0.25))
  (pad 92 smd roundrect (at 15.125 5.525) (size 1.75 0.4) (layers F.Cu F.Paste F.Mask) (roundrect_rratio 0.25))
  (pad 91 smd roundrect (at 15.125 6.175) (size 1.75 0.4) (layers F.Cu F.Paste F.Mask) (roundrect_rratio 0.25))
  (pad 90 smd roundrect (at 15.125 6.825) (size 1.75 0.4) (layers F.Cu F.Paste F.Mask) (roundrect_rratio 0.25))
  (pad 89 smd roundrect (at 15.125 7.475) (size 1.75 0.4) (layers F.Cu F.Paste F.Mask) (roundrect_rratio 0.25))
  (pad 88 smd roundrect (at 15.125 8.125) (size 1.75 0.4) (layers F.Cu F.Paste F.Mask) (roundrect_rratio 0.25))
  (pad 87 smd roundrect (at 15.125 8.775) (size 1.75 0.4) (layers F.Cu F.Paste F.Mask) (roundrect_rratio 0.25))
  (pad 86 smd roundrect (at 15.125 9.425) (size 1.75 0.4) (layers F.Cu F.Paste F.Mask) (roundrect_rratio 0.25))
  (pad 85 smd roundrect (at 15.125 10.075) (size 1.75 0.4) (layers F.Cu F.Paste F.Mask) (roundrect_rratio 0.25))
  (pad 84 smd roundrect (at 15.125 10.725) (size 1.75 0.4) (layers F.Cu F.Paste F.Mask) (roundrect_rratio 0.25))
  (pad 83 smd roundrect (at 15.125 11.375) (size 1.75 0.4) (layers F.Cu F.Paste F.Mask) (roundrect_rratio 0.25))
  (pad 82 smd roundrect (at 15.125 12.025) (size 1.75 0.4) (layers F.Cu F.Paste F.Mask) (roundrect_rratio 0.25))
  (pad 81 smd roundrect (at 15.125 12.675) (size 1.75 0.4) (layers F.Cu F.Paste F.Mask) (roundrect_rratio 0.25))
  (pad 80 smd roundrect (at 12.675 15.125) (size 0.4 1.75) (layers F.Cu F.Paste F.Mask) (roundrect_rratio 0.25))
  (pad 79 smd roundrect (at 12.025 15.125) (size 0.4 1.75) (layers F.Cu F.Paste F.Mask) (roundrect_rratio 0.25))
  (pad 78 smd roundrect (at 11.375 15.125) (size 0.4 1.75) (layers F.Cu F.Paste F.Mask) (roundrect_rratio 0.25))
  (pad 77 smd roundrect (at 10.725 15.125) (size 0.4 1.75) (layers F.Cu F.Paste F.Mask) (roundrect_rratio 0.25))
  (pad 76 smd roundrect (at 10.075 15.125) (size 0.4 1.75) (layers F.Cu F.Paste F.Mask) (roundrect_rratio 0.25))
  (pad 75 smd roundrect (at 9.425 15.125) (size 0.4 1.75) (layers F.Cu F.Paste F.Mask) (roundrect_rratio 0.25))
  (pad 74 smd roundrect (at 8.775 15.125) (size 0.4 1.75) (layers F.Cu F.Paste F.Mask) (roundrect_rratio 0.25))
  (pad 73 smd roundrect (at 8.125 15.125) (size 0.4 1.75) (layers F.Cu F.Paste F.Mask) (roundrect_rratio 0.25))
  (pad 72 smd roundrect (at 7.475 15.125) (size 0.4 1.75) (layers F.Cu F.Paste F.Mask) (roundrect_rratio 0.25))
  (pad 71 smd roundrect (at 6.825 15.125) (size 0.4 1.75) (layers F.Cu F.Paste F.Mask) (roundrect_rratio 0.25))
  (pad 70 smd roundrect (at 6.175 15.125) (size 0.4 1.75) (layers F.Cu F.Paste F.Mask) (roundrect_rratio 0.25))
  (pad 69 smd roundrect (at 5.525 15.125) (size 0.4 1.75) (layers F.Cu F.Paste F.Mask) (roundrect_rratio 0.25))
  (pad 68 smd roundrect (at 4.875 15.125) (size 0.4 1.75) (layers F.Cu F.Paste F.Mask) (roundrect_rratio 0.25))
  (pad 67 smd roundrect (at 4.225 15.125) (size 0.4 1.75) (layers F.Cu F.Paste F.Mask) (roundrect_rratio 0.25))
  (pad 66 smd roundrect (at 3.575 15.125) (size 0.4 1.75) (layers F.Cu F.Paste F.Mask) (roundrect_rratio 0.25))
  (pad 65 smd roundrect (at 2.925 15.125) (size 0.4 1.75) (layers F.Cu F.Paste F.Mask) (roundrect_rratio 0.25))
  (pad 64 smd roundrect (at 2.275 15.125) (size 0.4 1.75) (layers F.Cu F.Paste F.Mask) (roundrect_rratio 0.25))
  (pad 63 smd roundrect (at 1.625 15.125) (size 0.4 1.75) (layers F.Cu F.Paste F.Mask) (roundrect_rratio 0.25))
  (pad 62 smd roundrect (at 0.975 15.125) (size 0.4 1.75) (layers F.Cu F.Paste F.Mask) (roundrect_rratio 0.25))
  (pad 61 smd roundrect (at 0.325 15.125) (size 0.4 1.75) (layers F.Cu F.Paste F.Mask) (roundrect_rratio 0.25))
  (pad 60 smd roundrect (at -0.325 15.125) (size 0.4 1.75) (layers F.Cu F.Paste F.Mask) (roundrect_rratio 0.25))
  (pad 59 smd roundrect (at -0.975 15.125) (size 0.4 1.75) (layers F.Cu F.Paste F.Mask) (roundrect_rratio 0.25))
  (pad 58 smd roundrect (at -1.625 15.125) (size 0.4 1.75) (layers F.Cu F.Paste F.Mask) (roundrect_rratio 0.25))
  (pad 57 smd roundrect (at -2.275 15.125) (size 0.4 1.75) (layers F.Cu F.Paste F.Mask) (roundrect_rratio 0.25))
  (pad 56 smd roundrect (at -2.925 15.125) (size 0.4 1.75) (layers F.Cu F.Paste F.Mask) (roundrect_rratio 0.25))
  (pad 55 smd roundrect (at -3.575 15.125) (size 0.4 1.75) (layers F.Cu F.Paste F.Mask) (roundrect_rratio 0.25))
  (pad 54 smd roundrect (at -4.225 15.125) (size 0.4 1.75) (layers F.Cu F.Paste F.Mask) (roundrect_rratio 0.25))
  (pad 53 smd roundrect (at -4.875 15.125) (size 0.4 1.75) (layers F.Cu F.Paste F.Mask) (roundrect_rratio 0.25))
  (pad 52 smd roundrect (at -5.525 15.125) (size 0.4 1.75) (layers F.Cu F.Paste F.Mask) (roundrect_rratio 0.25))
  (pad 51 smd roundrect (at -6.175 15.125) (size 0.4 1.75) (layers F.Cu F.Paste F.Mask) (roundrect_rratio 0.25))
  (pad 50 smd roundrect (at -6.825 15.125) (size 0.4 1.75) (layers F.Cu F.Paste F.Mask) (roundrect_rratio 0.25))
  (pad 49 smd roundrect (at -7.475 15.125) (size 0.4 1.75) (layers F.Cu F.Paste F.Mask) (roundrect_rratio 0.25))
  (pad 48 smd roundrect (at -8.125 15.125) (size 0.4 1.75) (layers F.Cu F.Paste F.Mask) (roundrect_rratio 0.25))
  (pad 47 smd roundrect (at -8.775 15.125) (size 0.4 1.75) (layers F.Cu F.Paste F.Mask) (roundrect_rratio 0.25))
  (pad 46 smd roundrect (at -9.425 15.125) (size 0.4 1.75) (layers F.Cu F.Paste F.Mask) (roundrect_rratio 0.25))
  (pad 45 smd roundrect (at -10.075 15.125) (size 0.4 1.75) (layers F.Cu F.Paste F.Mask) (roundrect_rratio 0.25))
  (pad 44 smd roundrect (at -10.725 15.125) (size 0.4 1.75) (layers F.Cu F.Paste F.Mask) (roundrect_rratio 0.25))
  (pad 43 smd roundrect (at -11.375 15.125) (size 0.4 1.75) (layers F.Cu F.Paste F.Mask) (roundrect_rratio 0.25))
  (pad 42 smd roundrect (at -12.025 15.125) (size 0.4 1.75) (layers F.Cu F.Paste F.Mask) (roundrect_rratio 0.25))
  (pad 41 smd roundrect (at -12.675 15.125) (size 0.4 1.75) (layers F.Cu F.Paste F.Mask) (roundrect_rratio 0.25))
  (pad 40 smd roundrect (at -15.125 12.675) (size 1.75 0.4) (layers F.Cu F.Paste F.Mask) (roundrect_rratio 0.25))
  (pad 39 smd roundrect (at -15.125 12.025) (size 1.75 0.4) (layers F.Cu F.Paste F.Mask) (roundrect_rratio 0.25))
  (pad 38 smd roundrect (at -15.125 11.375) (size 1.75 0.4) (layers F.Cu F.Paste F.Mask) (roundrect_rratio 0.25))
  (pad 37 smd roundrect (at -15.125 10.725) (size 1.75 0.4) (layers F.Cu F.Paste F.Mask) (roundrect_rratio 0.25))
  (pad 36 smd roundrect (at -15.125 10.075) (size 1.75 0.4) (layers F.Cu F.Paste F.Mask) (roundrect_rratio 0.25))
  (pad 35 smd roundrect (at -15.125 9.425) (size 1.75 0.4) (layers F.Cu F.Paste F.Mask) (roundrect_rratio 0.25))
  (pad 34 smd roundrect (at -15.125 8.775) (size 1.75 0.4) (layers F.Cu F.Paste F.Mask) (roundrect_rratio 0.25))
  (pad 33 smd roundrect (at -15.125 8.125) (size 1.75 0.4) (layers F.Cu F.Paste F.Mask) (roundrect_rratio 0.25))
  (pad 32 smd roundrect (at -15.125 7.475) (size 1.75 0.4) (layers F.Cu F.Paste F.Mask) (roundrect_rratio 0.25))
  (pad 31 smd roundrect (at -15.125 6.825) (size 1.75 0.4) (layers F.Cu F.Paste F.Mask) (roundrect_rratio 0.25))
  (pad 30 smd roundrect (at -15.125 6.175) (size 1.75 0.4) (layers F.Cu F.Paste F.Mask) (roundrect_rratio 0.25))
  (pad 29 smd roundrect (at -15.125 5.525) (size 1.75 0.4) (layers F.Cu F.Paste F.Mask) (roundrect_rratio 0.25))
  (pad 28 smd roundrect (at -15.125 4.875) (size 1.75 0.4) (layers F.Cu F.Paste F.Mask) (roundrect_rratio 0.25))
  (pad 27 smd roundrect (at -15.125 4.225) (size 1.75 0.4) (layers F.Cu F.Paste F.Mask) (roundrect_rratio 0.25))
  (pad 26 smd roundrect (at -15.125 3.575) (size 1.75 0.4) (layers F.Cu F.Paste F.Mask) (roundrect_rratio 0.25))
  (pad 25 smd roundrect (at -15.125 2.925) (size 1.75 0.4) (layers F.Cu F.Paste F.Mask) (roundrect_rratio 0.25))
  (pad 24 smd roundrect (at -15.125 2.275) (size 1.75 0.4) (layers F.Cu F.Paste F.Mask) (roundrect_rratio 0.25))
  (pad 23 smd roundrect (at -15.125 1.625) (size 1.75 0.4) (layers F.Cu F.Paste F.Mask) (roundrect_rratio 0.25))
  (pad 22 smd roundrect (at -15.125 0.975) (size 1.75 0.4) (layers F.Cu F.Paste F.Mask) (roundrect_rratio 0.25))
  (pad 21 smd roundrect (at -15.125 0.325) (size 1.75 0.4) (layers F.Cu F.Paste F.Mask) (roundrect_rratio 0.25))
  (pad 20 smd roundrect (at -15.125 -0.325) (size 1.75 0.4) (layers F.Cu F.Paste F.Mask) (roundrect_rratio 0.25))
  (pad 19 smd roundrect (at -15.125 -0.975) (size 1.75 0.4) (layers F.Cu F.Paste F.Mask) (roundrect_rratio 0.25))
  (pad 18 smd roundrect (at -15.125 -1.625) (size 1.75 0.4) (layers F.Cu F.Paste F.Mask) (roundrect_rratio 0.25))
  (pad 17 smd roundrect (at -15.125 -2.275) (size 1.75 0.4) (layers F.Cu F.Paste F.Mask) (roundrect_rratio 0.25))
  (pad 16 smd roundrect (at -15.125 -2.925) (size 1.75 0.4) (layers F.Cu F.Paste F.Mask) (roundrect_rratio 0.25))
  (pad 15 smd roundrect (at -15.125 -3.575) (size 1.75 0.4) (layers F.Cu F.Paste F.Mask) (roundrect_rratio 0.25))
  (pad 14 smd roundrect (at -15.125 -4.225) (size 1.75 0.4) (layers F.Cu F.Paste F.Mask) (roundrect_rratio 0.25))
  (pad 13 smd roundrect (at -15.125 -4.875) (size 1.75 0.4) (layers F.Cu F.Paste F.Mask) (roundrect_rratio 0.25))
  (pad 12 smd roundrect (at -15.125 -5.525) (size 1.75 0.4) (layers F.Cu F.Paste F.Mask) (roundrect_rratio 0.25))
  (pad 11 smd roundrect (at -15.125 -6.175) (size 1.75 0.4) (layers F.Cu F.Paste F.Mask) (roundrect_rratio 0.25))
  (pad 10 smd roundrect (at -15.125 -6.825) (size 1.75 0.4) (layers F.Cu F.Paste F.Mask) (roundrect_rratio 0.25))
  (pad 9 smd roundrect (at -15.125 -7.475) (size 1.75 0.4) (layers F.Cu F.Paste F.Mask) (roundrect_rratio 0.25))
  (pad 8 smd roundrect (at -15.125 -8.125) (size 1.75 0.4) (layers F.Cu F.Paste F.Mask) (roundrect_rratio 0.25))
  (pad 7 smd roundrect (at -15.125 -8.775) (size 1.75 0.4) (layers F.Cu F.Paste F.Mask) (roundrect_rratio 0.25))
  (pad 6 smd roundrect (at -15.125 -9.425) (size 1.75 0.4) (layers F.Cu F.Paste F.Mask) (roundrect_rratio 0.25))
  (pad 5 smd roundrect (at -15.125 -10.075) (size 1.75 0.4) (layers F.Cu F.Paste F.Mask) (roundrect_rratio 0.25))
  (pad 4 smd roundrect (at -15.125 -10.725) (size 1.75 0.4) (layers F.Cu F.Paste F.Mask) (roundrect_rratio 0.25))
  (pad 3 smd roundrect (at -15.125 -11.375) (size 1.75 0.4) (layers F.Cu F.Paste F.Mask) (roundrect_rratio 0.25))
  (pad 2 smd roundrect (at -15.125 -12.025) (size 1.75 0.4) (layers F.Cu F.Paste F.Mask) (roundrect_rratio 0.25))
  (pad 1 smd roundrect (at -15.125 -12.675) (size 1.75 0.4) (layers F.Cu F.Paste F.Mask) (roundrect_rratio 0.25))
  (model ${KISYS3DMOD}/Package_QFP.3dshapes/PQFP-160_28x28mm_P0.65mm.wrl
    (at (xyz 0 0 0))
    (scale (xyz 1 1 1))
    (rotate (xyz 0 0 0))
  )
)
