(module PQFP-100_14x20mm_P0.65mm (layer F.Cu) (tedit 607FD5D1)
  (descr "PQFP, 100 Pin (http://www.microsemi.com/index.php?option=com_docman&task=doc_download&gid=131095), Alternate KiCad Library")
  (tags "PQFP QFP")
  (attr smd)
  (fp_text reference REF** (at 0 -13.462) (layer F.SilkS)
    (effects (font (size 1 1) (thickness 0.15)))
  )
  (fp_text value PQFP-100_14x20mm_P0.65mm (at 0 12.95) (layer F.Fab)
    (effects (font (size 1 1) (thickness 0.15)))
  )
  (fp_line (start -6.175 -12.319) (end -6.175 -12.7) (layer F.SilkS) (width 0.12))
  (fp_line (start -2.925 -12.319) (end -2.925 -12.573) (layer F.SilkS) (width 0.12))
  (fp_line (start 0.325 -12.319) (end 0.325 -12.7) (layer F.SilkS) (width 0.12))
  (fp_line (start 3.575 -12.319) (end 3.575 -12.573) (layer F.SilkS) (width 0.12))
  (fp_line (start 9.271 -9.425) (end 9.652 -9.425) (layer F.SilkS) (width 0.12))
  (fp_line (start 9.271 -6.175) (end 9.525 -6.175) (layer F.SilkS) (width 0.12))
  (fp_line (start 9.271 -2.925) (end 9.652 -2.925) (layer F.SilkS) (width 0.12))
  (fp_line (start 9.271 0.325) (end 9.525 0.325) (layer F.SilkS) (width 0.12))
  (fp_line (start 9.271 3.575) (end 9.652 3.575) (layer F.SilkS) (width 0.12))
  (fp_line (start 9.271 6.825) (end 9.525 6.825) (layer F.SilkS) (width 0.12))
  (fp_line (start 6.175 12.319) (end 6.175 12.7) (layer F.SilkS) (width 0.12))
  (fp_line (start 2.925 12.319) (end 2.925 12.573) (layer F.SilkS) (width 0.12))
  (fp_line (start -0.325 12.319) (end -0.325 12.7) (layer F.SilkS) (width 0.12))
  (fp_line (start -3.575 12.319) (end -3.575 12.573) (layer F.SilkS) (width 0.12))
  (fp_line (start -9.271 9.425) (end -9.652 9.425) (layer F.SilkS) (width 0.12))
  (fp_line (start -9.271 6.175) (end -9.525 6.175) (layer F.SilkS) (width 0.12))
  (fp_line (start -9.271 2.925) (end -9.652 2.925) (layer F.SilkS) (width 0.12))
  (fp_line (start -9.271 -0.325) (end -9.525 -0.325) (layer F.SilkS) (width 0.12))
  (fp_line (start -9.271 -3.575) (end -9.652 -3.575) (layer F.SilkS) (width 0.12))
  (fp_line (start -9.271 -6.825) (end -9.525 -6.825) (layer F.SilkS) (width 0.12))
  (fp_circle (center -8.382 -11.43) (end -8.255 -11.43) (layer F.SilkS) (width 0.4))
  (fp_line (start -6 -10) (end 7 -10) (layer F.Fab) (width 0.1))
  (fp_line (start 7 -10) (end 7 10) (layer F.Fab) (width 0.1))
  (fp_line (start 7 10) (end -7 10) (layer F.Fab) (width 0.1))
  (fp_line (start -7 10) (end -7 -9) (layer F.Fab) (width 0.1))
  (fp_line (start -7 -9) (end -6 -10) (layer F.Fab) (width 0.1))
  (fp_line (start 0 -12.25) (end -6.62 -12.25) (layer F.CrtYd) (width 0.05))
  (fp_line (start -6.62 -12.25) (end -6.62 -10.25) (layer F.CrtYd) (width 0.05))
  (fp_line (start -6.62 -10.25) (end -7.25 -10.25) (layer F.CrtYd) (width 0.05))
  (fp_line (start -7.25 -10.25) (end -7.25 -9.88) (layer F.CrtYd) (width 0.05))
  (fp_line (start -7.25 -9.88) (end -9.25 -9.88) (layer F.CrtYd) (width 0.05))
  (fp_line (start -9.25 -9.88) (end -9.25 0) (layer F.CrtYd) (width 0.05))
  (fp_line (start 0 -12.25) (end 6.62 -12.25) (layer F.CrtYd) (width 0.05))
  (fp_line (start 6.62 -12.25) (end 6.62 -10.25) (layer F.CrtYd) (width 0.05))
  (fp_line (start 6.62 -10.25) (end 7.25 -10.25) (layer F.CrtYd) (width 0.05))
  (fp_line (start 7.25 -10.25) (end 7.25 -9.88) (layer F.CrtYd) (width 0.05))
  (fp_line (start 7.25 -9.88) (end 9.25 -9.88) (layer F.CrtYd) (width 0.05))
  (fp_line (start 9.25 -9.88) (end 9.25 0) (layer F.CrtYd) (width 0.05))
  (fp_line (start 0 12.25) (end -6.62 12.25) (layer F.CrtYd) (width 0.05))
  (fp_line (start -6.62 12.25) (end -6.62 10.25) (layer F.CrtYd) (width 0.05))
  (fp_line (start -6.62 10.25) (end -7.25 10.25) (layer F.CrtYd) (width 0.05))
  (fp_line (start -7.25 10.25) (end -7.25 9.88) (layer F.CrtYd) (width 0.05))
  (fp_line (start -7.25 9.88) (end -9.25 9.88) (layer F.CrtYd) (width 0.05))
  (fp_line (start -9.25 9.88) (end -9.25 0) (layer F.CrtYd) (width 0.05))
  (fp_line (start 0 12.25) (end 6.62 12.25) (layer F.CrtYd) (width 0.05))
  (fp_line (start 6.62 12.25) (end 6.62 10.25) (layer F.CrtYd) (width 0.05))
  (fp_line (start 6.62 10.25) (end 7.25 10.25) (layer F.CrtYd) (width 0.05))
  (fp_line (start 7.25 10.25) (end 7.25 9.88) (layer F.CrtYd) (width 0.05))
  (fp_line (start 7.25 9.88) (end 9.25 9.88) (layer F.CrtYd) (width 0.05))
  (fp_line (start 9.25 9.88) (end 9.25 0) (layer F.CrtYd) (width 0.05))
  (fp_line (start -8.255 -12.319) (end -9.271 -11.303) (layer F.SilkS) (width 0.12))
  (fp_line (start -9.271 -11.303) (end -9.271 12.319) (layer F.SilkS) (width 0.12))
  (fp_line (start -9.271 12.319) (end 9.271 12.319) (layer F.SilkS) (width 0.12))
  (fp_line (start 9.271 12.319) (end 9.271 -12.319) (layer F.SilkS) (width 0.12))
  (fp_line (start 9.271 -12.319) (end -8.255 -12.319) (layer F.SilkS) (width 0.12))
  (fp_text user %R (at 0 0) (layer F.Fab)
    (effects (font (size 1 1) (thickness 0.15)))
  )
  (fp_text user 1 (at -8.3185 -10.541 -90 unlocked) (layer F.SilkS)
    (effects (font (size 1 1) (thickness 0.15)))
  )
  (fp_text user 30 (at -8.382 11.176 -90 unlocked) (layer F.SilkS)
    (effects (font (size 1 1) (thickness 0.15)))
  )
  (fp_text user 50 (at 8.255 11.176 -90 unlocked) (layer F.SilkS)
    (effects (font (size 1 1) (thickness 0.15)))
  )
  (fp_text user 80 (at 8.255 -11.176 -90 unlocked) (layer F.SilkS)
    (effects (font (size 1 1) (thickness 0.15)))
  )
  (pad 100 smd roundrect (at -6.175 -11.125) (size 0.4 1.75) (layers F.Cu F.Paste F.Mask) (roundrect_rratio 0.25))
  (pad 99 smd roundrect (at -5.525 -11.125) (size 0.4 1.75) (layers F.Cu F.Paste F.Mask) (roundrect_rratio 0.25))
  (pad 98 smd roundrect (at -4.875 -11.125) (size 0.4 1.75) (layers F.Cu F.Paste F.Mask) (roundrect_rratio 0.25))
  (pad 97 smd roundrect (at -4.225 -11.125) (size 0.4 1.75) (layers F.Cu F.Paste F.Mask) (roundrect_rratio 0.25))
  (pad 96 smd roundrect (at -3.575 -11.125) (size 0.4 1.75) (layers F.Cu F.Paste F.Mask) (roundrect_rratio 0.25))
  (pad 95 smd roundrect (at -2.925 -11.125) (size 0.4 1.75) (layers F.Cu F.Paste F.Mask) (roundrect_rratio 0.25))
  (pad 94 smd roundrect (at -2.275 -11.125) (size 0.4 1.75) (layers F.Cu F.Paste F.Mask) (roundrect_rratio 0.25))
  (pad 93 smd roundrect (at -1.625 -11.125) (size 0.4 1.75) (layers F.Cu F.Paste F.Mask) (roundrect_rratio 0.25))
  (pad 92 smd roundrect (at -0.975 -11.125) (size 0.4 1.75) (layers F.Cu F.Paste F.Mask) (roundrect_rratio 0.25))
  (pad 91 smd roundrect (at -0.325 -11.125) (size 0.4 1.75) (layers F.Cu F.Paste F.Mask) (roundrect_rratio 0.25))
  (pad 90 smd roundrect (at 0.325 -11.125) (size 0.4 1.75) (layers F.Cu F.Paste F.Mask) (roundrect_rratio 0.25))
  (pad 89 smd roundrect (at 0.975 -11.125) (size 0.4 1.75) (layers F.Cu F.Paste F.Mask) (roundrect_rratio 0.25))
  (pad 88 smd roundrect (at 1.625 -11.125) (size 0.4 1.75) (layers F.Cu F.Paste F.Mask) (roundrect_rratio 0.25))
  (pad 87 smd roundrect (at 2.275 -11.125) (size 0.4 1.75) (layers F.Cu F.Paste F.Mask) (roundrect_rratio 0.25))
  (pad 86 smd roundrect (at 2.925 -11.125) (size 0.4 1.75) (layers F.Cu F.Paste F.Mask) (roundrect_rratio 0.25))
  (pad 85 smd roundrect (at 3.575 -11.125) (size 0.4 1.75) (layers F.Cu F.Paste F.Mask) (roundrect_rratio 0.25))
  (pad 84 smd roundrect (at 4.225 -11.125) (size 0.4 1.75) (layers F.Cu F.Paste F.Mask) (roundrect_rratio 0.25))
  (pad 83 smd roundrect (at 4.875 -11.125) (size 0.4 1.75) (layers F.Cu F.Paste F.Mask) (roundrect_rratio 0.25))
  (pad 82 smd roundrect (at 5.525 -11.125) (size 0.4 1.75) (layers F.Cu F.Paste F.Mask) (roundrect_rratio 0.25))
  (pad 81 smd roundrect (at 6.175 -11.125) (size 0.4 1.75) (layers F.Cu F.Paste F.Mask) (roundrect_rratio 0.25))
  (pad 80 smd roundrect (at 8.125 -9.425) (size 1.75 0.4) (layers F.Cu F.Paste F.Mask) (roundrect_rratio 0.25))
  (pad 79 smd roundrect (at 8.125 -8.775) (size 1.75 0.4) (layers F.Cu F.Paste F.Mask) (roundrect_rratio 0.25))
  (pad 78 smd roundrect (at 8.125 -8.125) (size 1.75 0.4) (layers F.Cu F.Paste F.Mask) (roundrect_rratio 0.25))
  (pad 77 smd roundrect (at 8.125 -7.475) (size 1.75 0.4) (layers F.Cu F.Paste F.Mask) (roundrect_rratio 0.25))
  (pad 76 smd roundrect (at 8.125 -6.825) (size 1.75 0.4) (layers F.Cu F.Paste F.Mask) (roundrect_rratio 0.25))
  (pad 75 smd roundrect (at 8.125 -6.175) (size 1.75 0.4) (layers F.Cu F.Paste F.Mask) (roundrect_rratio 0.25))
  (pad 74 smd roundrect (at 8.125 -5.525) (size 1.75 0.4) (layers F.Cu F.Paste F.Mask) (roundrect_rratio 0.25))
  (pad 73 smd roundrect (at 8.125 -4.875) (size 1.75 0.4) (layers F.Cu F.Paste F.Mask) (roundrect_rratio 0.25))
  (pad 72 smd roundrect (at 8.125 -4.225) (size 1.75 0.4) (layers F.Cu F.Paste F.Mask) (roundrect_rratio 0.25))
  (pad 71 smd roundrect (at 8.125 -3.575) (size 1.75 0.4) (layers F.Cu F.Paste F.Mask) (roundrect_rratio 0.25))
  (pad 70 smd roundrect (at 8.125 -2.925) (size 1.75 0.4) (layers F.Cu F.Paste F.Mask) (roundrect_rratio 0.25))
  (pad 69 smd roundrect (at 8.125 -2.275) (size 1.75 0.4) (layers F.Cu F.Paste F.Mask) (roundrect_rratio 0.25))
  (pad 68 smd roundrect (at 8.125 -1.625) (size 1.75 0.4) (layers F.Cu F.Paste F.Mask) (roundrect_rratio 0.25))
  (pad 67 smd roundrect (at 8.125 -0.975) (size 1.75 0.4) (layers F.Cu F.Paste F.Mask) (roundrect_rratio 0.25))
  (pad 66 smd roundrect (at 8.125 -0.325) (size 1.75 0.4) (layers F.Cu F.Paste F.Mask) (roundrect_rratio 0.25))
  (pad 65 smd roundrect (at 8.125 0.325) (size 1.75 0.4) (layers F.Cu F.Paste F.Mask) (roundrect_rratio 0.25))
  (pad 64 smd roundrect (at 8.125 0.975) (size 1.75 0.4) (layers F.Cu F.Paste F.Mask) (roundrect_rratio 0.25))
  (pad 63 smd roundrect (at 8.125 1.625) (size 1.75 0.4) (layers F.Cu F.Paste F.Mask) (roundrect_rratio 0.25))
  (pad 62 smd roundrect (at 8.125 2.275) (size 1.75 0.4) (layers F.Cu F.Paste F.Mask) (roundrect_rratio 0.25))
  (pad 61 smd roundrect (at 8.125 2.925) (size 1.75 0.4) (layers F.Cu F.Paste F.Mask) (roundrect_rratio 0.25))
  (pad 60 smd roundrect (at 8.125 3.575) (size 1.75 0.4) (layers F.Cu F.Paste F.Mask) (roundrect_rratio 0.25))
  (pad 59 smd roundrect (at 8.125 4.225) (size 1.75 0.4) (layers F.Cu F.Paste F.Mask) (roundrect_rratio 0.25))
  (pad 58 smd roundrect (at 8.125 4.875) (size 1.75 0.4) (layers F.Cu F.Paste F.Mask) (roundrect_rratio 0.25))
  (pad 57 smd roundrect (at 8.125 5.525) (size 1.75 0.4) (layers F.Cu F.Paste F.Mask) (roundrect_rratio 0.25))
  (pad 56 smd roundrect (at 8.125 6.175) (size 1.75 0.4) (layers F.Cu F.Paste F.Mask) (roundrect_rratio 0.25))
  (pad 55 smd roundrect (at 8.125 6.825) (size 1.75 0.4) (layers F.Cu F.Paste F.Mask) (roundrect_rratio 0.25))
  (pad 54 smd roundrect (at 8.125 7.475) (size 1.75 0.4) (layers F.Cu F.Paste F.Mask) (roundrect_rratio 0.25))
  (pad 53 smd roundrect (at 8.125 8.125) (size 1.75 0.4) (layers F.Cu F.Paste F.Mask) (roundrect_rratio 0.25))
  (pad 52 smd roundrect (at 8.125 8.775) (size 1.75 0.4) (layers F.Cu F.Paste F.Mask) (roundrect_rratio 0.25))
  (pad 51 smd roundrect (at 8.125 9.425) (size 1.75 0.4) (layers F.Cu F.Paste F.Mask) (roundrect_rratio 0.25))
  (pad 50 smd roundrect (at 6.175 11.125) (size 0.4 1.75) (layers F.Cu F.Paste F.Mask) (roundrect_rratio 0.25))
  (pad 49 smd roundrect (at 5.525 11.125) (size 0.4 1.75) (layers F.Cu F.Paste F.Mask) (roundrect_rratio 0.25))
  (pad 48 smd roundrect (at 4.875 11.125) (size 0.4 1.75) (layers F.Cu F.Paste F.Mask) (roundrect_rratio 0.25))
  (pad 47 smd roundrect (at 4.225 11.125) (size 0.4 1.75) (layers F.Cu F.Paste F.Mask) (roundrect_rratio 0.25))
  (pad 46 smd roundrect (at 3.575 11.125) (size 0.4 1.75) (layers F.Cu F.Paste F.Mask) (roundrect_rratio 0.25))
  (pad 45 smd roundrect (at 2.925 11.125) (size 0.4 1.75) (layers F.Cu F.Paste F.Mask) (roundrect_rratio 0.25))
  (pad 44 smd roundrect (at 2.275 11.125) (size 0.4 1.75) (layers F.Cu F.Paste F.Mask) (roundrect_rratio 0.25))
  (pad 43 smd roundrect (at 1.625 11.125) (size 0.4 1.75) (layers F.Cu F.Paste F.Mask) (roundrect_rratio 0.25))
  (pad 42 smd roundrect (at 0.975 11.125) (size 0.4 1.75) (layers F.Cu F.Paste F.Mask) (roundrect_rratio 0.25))
  (pad 41 smd roundrect (at 0.325 11.125) (size 0.4 1.75) (layers F.Cu F.Paste F.Mask) (roundrect_rratio 0.25))
  (pad 40 smd roundrect (at -0.325 11.125) (size 0.4 1.75) (layers F.Cu F.Paste F.Mask) (roundrect_rratio 0.25))
  (pad 39 smd roundrect (at -0.975 11.125) (size 0.4 1.75) (layers F.Cu F.Paste F.Mask) (roundrect_rratio 0.25))
  (pad 38 smd roundrect (at -1.625 11.125) (size 0.4 1.75) (layers F.Cu F.Paste F.Mask) (roundrect_rratio 0.25))
  (pad 37 smd roundrect (at -2.275 11.125) (size 0.4 1.75) (layers F.Cu F.Paste F.Mask) (roundrect_rratio 0.25))
  (pad 36 smd roundrect (at -2.925 11.125) (size 0.4 1.75) (layers F.Cu F.Paste F.Mask) (roundrect_rratio 0.25))
  (pad 35 smd roundrect (at -3.575 11.125) (size 0.4 1.75) (layers F.Cu F.Paste F.Mask) (roundrect_rratio 0.25))
  (pad 34 smd roundrect (at -4.225 11.125) (size 0.4 1.75) (layers F.Cu F.Paste F.Mask) (roundrect_rratio 0.25))
  (pad 33 smd roundrect (at -4.875 11.125) (size 0.4 1.75) (layers F.Cu F.Paste F.Mask) (roundrect_rratio 0.25))
  (pad 32 smd roundrect (at -5.525 11.125) (size 0.4 1.75) (layers F.Cu F.Paste F.Mask) (roundrect_rratio 0.25))
  (pad 31 smd roundrect (at -6.175 11.125) (size 0.4 1.75) (layers F.Cu F.Paste F.Mask) (roundrect_rratio 0.25))
  (pad 30 smd roundrect (at -8.125 9.425) (size 1.75 0.4) (layers F.Cu F.Paste F.Mask) (roundrect_rratio 0.25))
  (pad 29 smd roundrect (at -8.125 8.775) (size 1.75 0.4) (layers F.Cu F.Paste F.Mask) (roundrect_rratio 0.25))
  (pad 28 smd roundrect (at -8.125 8.125) (size 1.75 0.4) (layers F.Cu F.Paste F.Mask) (roundrect_rratio 0.25))
  (pad 27 smd roundrect (at -8.125 7.475) (size 1.75 0.4) (layers F.Cu F.Paste F.Mask) (roundrect_rratio 0.25))
  (pad 26 smd roundrect (at -8.125 6.825) (size 1.75 0.4) (layers F.Cu F.Paste F.Mask) (roundrect_rratio 0.25))
  (pad 25 smd roundrect (at -8.125 6.175) (size 1.75 0.4) (layers F.Cu F.Paste F.Mask) (roundrect_rratio 0.25))
  (pad 24 smd roundrect (at -8.125 5.525) (size 1.75 0.4) (layers F.Cu F.Paste F.Mask) (roundrect_rratio 0.25))
  (pad 23 smd roundrect (at -8.125 4.875) (size 1.75 0.4) (layers F.Cu F.Paste F.Mask) (roundrect_rratio 0.25))
  (pad 22 smd roundrect (at -8.125 4.225) (size 1.75 0.4) (layers F.Cu F.Paste F.Mask) (roundrect_rratio 0.25))
  (pad 21 smd roundrect (at -8.125 3.575) (size 1.75 0.4) (layers F.Cu F.Paste F.Mask) (roundrect_rratio 0.25))
  (pad 20 smd roundrect (at -8.125 2.925) (size 1.75 0.4) (layers F.Cu F.Paste F.Mask) (roundrect_rratio 0.25))
  (pad 19 smd roundrect (at -8.125 2.275) (size 1.75 0.4) (layers F.Cu F.Paste F.Mask) (roundrect_rratio 0.25))
  (pad 18 smd roundrect (at -8.125 1.625) (size 1.75 0.4) (layers F.Cu F.Paste F.Mask) (roundrect_rratio 0.25))
  (pad 17 smd roundrect (at -8.125 0.975) (size 1.75 0.4) (layers F.Cu F.Paste F.Mask) (roundrect_rratio 0.25))
  (pad 16 smd roundrect (at -8.125 0.325) (size 1.75 0.4) (layers F.Cu F.Paste F.Mask) (roundrect_rratio 0.25))
  (pad 15 smd roundrect (at -8.125 -0.325) (size 1.75 0.4) (layers F.Cu F.Paste F.Mask) (roundrect_rratio 0.25))
  (pad 14 smd roundrect (at -8.125 -0.975) (size 1.75 0.4) (layers F.Cu F.Paste F.Mask) (roundrect_rratio 0.25))
  (pad 13 smd roundrect (at -8.125 -1.625) (size 1.75 0.4) (layers F.Cu F.Paste F.Mask) (roundrect_rratio 0.25))
  (pad 12 smd roundrect (at -8.125 -2.275) (size 1.75 0.4) (layers F.Cu F.Paste F.Mask) (roundrect_rratio 0.25))
  (pad 11 smd roundrect (at -8.125 -2.925) (size 1.75 0.4) (layers F.Cu F.Paste F.Mask) (roundrect_rratio 0.25))
  (pad 10 smd roundrect (at -8.125 -3.575) (size 1.75 0.4) (layers F.Cu F.Paste F.Mask) (roundrect_rratio 0.25))
  (pad 9 smd roundrect (at -8.125 -4.225) (size 1.75 0.4) (layers F.Cu F.Paste F.Mask) (roundrect_rratio 0.25))
  (pad 8 smd roundrect (at -8.125 -4.875) (size 1.75 0.4) (layers F.Cu F.Paste F.Mask) (roundrect_rratio 0.25))
  (pad 7 smd roundrect (at -8.125 -5.525) (size 1.75 0.4) (layers F.Cu F.Paste F.Mask) (roundrect_rratio 0.25))
  (pad 6 smd roundrect (at -8.125 -6.175) (size 1.75 0.4) (layers F.Cu F.Paste F.Mask) (roundrect_rratio 0.25))
  (pad 5 smd roundrect (at -8.125 -6.825) (size 1.75 0.4) (layers F.Cu F.Paste F.Mask) (roundrect_rratio 0.25))
  (pad 4 smd roundrect (at -8.125 -7.475) (size 1.75 0.4) (layers F.Cu F.Paste F.Mask) (roundrect_rratio 0.25))
  (pad 3 smd roundrect (at -8.125 -8.125) (size 1.75 0.4) (layers F.Cu F.Paste F.Mask) (roundrect_rratio 0.25))
  (pad 2 smd roundrect (at -8.125 -8.775) (size 1.75 0.4) (layers F.Cu F.Paste F.Mask) (roundrect_rratio 0.25))
  (pad 1 smd roundrect (at -8.125 -9.425) (size 1.75 0.4) (layers F.Cu F.Paste F.Mask) (roundrect_rratio 0.25))
  (model ${KISYS3DMOD}/Package_QFP.3dshapes/PQFP-100_14x20mm_P0.65mm.wrl
    (at (xyz 0 0 0))
    (scale (xyz 1 1 1))
    (rotate (xyz 0 0 0))
  )
)
