(module TQFP-64_10x10mm_P0.5mm (layer F.Cu) (tedit 607FD66D)
  (descr "TQFP, 64 Pin (http://www.microsemi.com/index.php?option=com_docman&task=doc_download&gid=131095), Alternate KiCad Library")
  (tags "TQFP QFP")
  (attr smd)
  (fp_text reference REF** (at 0 -7.874) (layer F.SilkS)
    (effects (font (size 1 1) (thickness 0.15)))
  )
  (fp_text value TQFP-64_10x10mm_P0.5mm (at 0 7.35) (layer F.Fab)
    (effects (font (size 1 1) (thickness 0.15)))
  )
  (fp_line (start -6.731 6.731) (end 6.731 6.731) (layer F.SilkS) (width 0.12))
  (fp_line (start -6.731 3.25) (end -6.985 3.25) (layer F.SilkS) (width 0.12))
  (fp_line (start 2.75 7.112) (end 2.75 6.731) (layer F.SilkS) (width 0.12))
  (fp_line (start -5.715 -6.731) (end -6.731 -5.715) (layer F.SilkS) (width 0.12))
  (fp_line (start 6.731 2.75) (end 6.985 2.75) (layer F.SilkS) (width 0.12))
  (fp_line (start -6.731 -5.715) (end -6.731 6.731) (layer F.SilkS) (width 0.12))
  (fp_line (start 6.731 0.25) (end 7.112 0.25) (layer F.SilkS) (width 0.12))
  (fp_line (start -6.731 -1.75) (end -6.985 -1.75) (layer F.SilkS) (width 0.12))
  (fp_line (start -6.731 0.75) (end -7.112 0.75) (layer F.SilkS) (width 0.12))
  (fp_line (start 6.731 -6.731) (end -5.715 -6.731) (layer F.SilkS) (width 0.12))
  (fp_line (start 6.731 6.731) (end 6.731 -6.731) (layer F.SilkS) (width 0.12))
  (fp_line (start 3.25 -6.731) (end 3.25 -7.112) (layer F.SilkS) (width 0.12))
  (fp_line (start 0.75 -6.731) (end 0.75 -6.985) (layer F.SilkS) (width 0.12))
  (fp_line (start -2.25 6.731) (end -2.25 7.112) (layer F.SilkS) (width 0.12))
  (fp_line (start -1.75 -6.731) (end -1.75 -7.112) (layer F.SilkS) (width 0.12))
  (fp_circle (center -5.842 -5.842) (end -5.715 -5.842) (layer F.SilkS) (width 0.4))
  (fp_line (start 6.731 -2.25) (end 6.985 -2.25) (layer F.SilkS) (width 0.12))
  (fp_line (start 0.25 6.731) (end 0.25 6.985) (layer F.SilkS) (width 0.12))
  (fp_line (start 6.65 4.15) (end 6.65 0) (layer F.CrtYd) (width 0.05))
  (fp_line (start 5.25 4.15) (end 6.65 4.15) (layer F.CrtYd) (width 0.05))
  (fp_line (start 5.25 5.25) (end 5.25 4.15) (layer F.CrtYd) (width 0.05))
  (fp_line (start 4.15 5.25) (end 5.25 5.25) (layer F.CrtYd) (width 0.05))
  (fp_line (start 4.15 6.65) (end 4.15 5.25) (layer F.CrtYd) (width 0.05))
  (fp_line (start 0 6.65) (end 4.15 6.65) (layer F.CrtYd) (width 0.05))
  (fp_line (start -6.65 4.15) (end -6.65 0) (layer F.CrtYd) (width 0.05))
  (fp_line (start -5.25 4.15) (end -6.65 4.15) (layer F.CrtYd) (width 0.05))
  (fp_line (start -5.25 5.25) (end -5.25 4.15) (layer F.CrtYd) (width 0.05))
  (fp_line (start -4.15 5.25) (end -5.25 5.25) (layer F.CrtYd) (width 0.05))
  (fp_line (start -4.15 6.65) (end -4.15 5.25) (layer F.CrtYd) (width 0.05))
  (fp_line (start 0 6.65) (end -4.15 6.65) (layer F.CrtYd) (width 0.05))
  (fp_line (start 6.65 -4.15) (end 6.65 0) (layer F.CrtYd) (width 0.05))
  (fp_line (start 5.25 -4.15) (end 6.65 -4.15) (layer F.CrtYd) (width 0.05))
  (fp_line (start 5.25 -5.25) (end 5.25 -4.15) (layer F.CrtYd) (width 0.05))
  (fp_line (start 4.15 -5.25) (end 5.25 -5.25) (layer F.CrtYd) (width 0.05))
  (fp_line (start 4.15 -6.65) (end 4.15 -5.25) (layer F.CrtYd) (width 0.05))
  (fp_line (start 0 -6.65) (end 4.15 -6.65) (layer F.CrtYd) (width 0.05))
  (fp_line (start -6.65 -4.15) (end -6.65 0) (layer F.CrtYd) (width 0.05))
  (fp_line (start -5.25 -4.15) (end -6.65 -4.15) (layer F.CrtYd) (width 0.05))
  (fp_line (start -5.25 -5.25) (end -5.25 -4.15) (layer F.CrtYd) (width 0.05))
  (fp_line (start -4.15 -5.25) (end -5.25 -5.25) (layer F.CrtYd) (width 0.05))
  (fp_line (start -4.15 -6.65) (end -4.15 -5.25) (layer F.CrtYd) (width 0.05))
  (fp_line (start 0 -6.65) (end -4.15 -6.65) (layer F.CrtYd) (width 0.05))
  (fp_line (start -5 -4) (end -4 -5) (layer F.Fab) (width 0.1))
  (fp_line (start -5 5) (end -5 -4) (layer F.Fab) (width 0.1))
  (fp_line (start 5 5) (end -5 5) (layer F.Fab) (width 0.1))
  (fp_line (start 5 -5) (end 5 5) (layer F.Fab) (width 0.1))
  (fp_line (start -4 -5) (end 5 -5) (layer F.Fab) (width 0.1))
  (fp_text user %R (at 0 0) (layer F.Fab)
    (effects (font (size 1 1) (thickness 0.15)))
  )
  (fp_text user 32 (at 5.715 5.588 -90 unlocked) (layer F.SilkS)
    (effects (font (size 1 1) (thickness 0.15)))
  )
  (fp_text user 1 (at -5.842 -4.953 -90 unlocked) (layer F.SilkS)
    (effects (font (size 1 1) (thickness 0.15)))
  )
  (fp_text user 16 (at -5.842 5.588 -90 unlocked) (layer F.SilkS)
    (effects (font (size 1 1) (thickness 0.15)))
  )
  (fp_text user 48 (at 5.715 -5.588 -90 unlocked) (layer F.SilkS)
    (effects (font (size 1 1) (thickness 0.15)))
  )
  (pad 64 smd roundrect (at -3.75 -5.6625) (size 0.3 1.475) (layers F.Cu F.Paste F.Mask) (roundrect_rratio 0.25))
  (pad 63 smd roundrect (at -3.25 -5.6625) (size 0.3 1.475) (layers F.Cu F.Paste F.Mask) (roundrect_rratio 0.25))
  (pad 62 smd roundrect (at -2.75 -5.6625) (size 0.3 1.475) (layers F.Cu F.Paste F.Mask) (roundrect_rratio 0.25))
  (pad 61 smd roundrect (at -2.25 -5.6625) (size 0.3 1.475) (layers F.Cu F.Paste F.Mask) (roundrect_rratio 0.25))
  (pad 60 smd roundrect (at -1.75 -5.6625) (size 0.3 1.475) (layers F.Cu F.Paste F.Mask) (roundrect_rratio 0.25))
  (pad 59 smd roundrect (at -1.25 -5.6625) (size 0.3 1.475) (layers F.Cu F.Paste F.Mask) (roundrect_rratio 0.25))
  (pad 58 smd roundrect (at -0.75 -5.6625) (size 0.3 1.475) (layers F.Cu F.Paste F.Mask) (roundrect_rratio 0.25))
  (pad 57 smd roundrect (at -0.25 -5.6625) (size 0.3 1.475) (layers F.Cu F.Paste F.Mask) (roundrect_rratio 0.25))
  (pad 56 smd roundrect (at 0.25 -5.6625) (size 0.3 1.475) (layers F.Cu F.Paste F.Mask) (roundrect_rratio 0.25))
  (pad 55 smd roundrect (at 0.75 -5.6625) (size 0.3 1.475) (layers F.Cu F.Paste F.Mask) (roundrect_rratio 0.25))
  (pad 54 smd roundrect (at 1.25 -5.6625) (size 0.3 1.475) (layers F.Cu F.Paste F.Mask) (roundrect_rratio 0.25))
  (pad 53 smd roundrect (at 1.75 -5.6625) (size 0.3 1.475) (layers F.Cu F.Paste F.Mask) (roundrect_rratio 0.25))
  (pad 52 smd roundrect (at 2.25 -5.6625) (size 0.3 1.475) (layers F.Cu F.Paste F.Mask) (roundrect_rratio 0.25))
  (pad 51 smd roundrect (at 2.75 -5.6625) (size 0.3 1.475) (layers F.Cu F.Paste F.Mask) (roundrect_rratio 0.25))
  (pad 50 smd roundrect (at 3.25 -5.6625) (size 0.3 1.475) (layers F.Cu F.Paste F.Mask) (roundrect_rratio 0.25))
  (pad 49 smd roundrect (at 3.75 -5.6625) (size 0.3 1.475) (layers F.Cu F.Paste F.Mask) (roundrect_rratio 0.25))
  (pad 48 smd roundrect (at 5.6625 -3.75) (size 1.475 0.3) (layers F.Cu F.Paste F.Mask) (roundrect_rratio 0.25))
  (pad 47 smd roundrect (at 5.6625 -3.25) (size 1.475 0.3) (layers F.Cu F.Paste F.Mask) (roundrect_rratio 0.25))
  (pad 46 smd roundrect (at 5.6625 -2.75) (size 1.475 0.3) (layers F.Cu F.Paste F.Mask) (roundrect_rratio 0.25))
  (pad 45 smd roundrect (at 5.6625 -2.25) (size 1.475 0.3) (layers F.Cu F.Paste F.Mask) (roundrect_rratio 0.25))
  (pad 44 smd roundrect (at 5.6625 -1.75) (size 1.475 0.3) (layers F.Cu F.Paste F.Mask) (roundrect_rratio 0.25))
  (pad 43 smd roundrect (at 5.6625 -1.25) (size 1.475 0.3) (layers F.Cu F.Paste F.Mask) (roundrect_rratio 0.25))
  (pad 42 smd roundrect (at 5.6625 -0.75) (size 1.475 0.3) (layers F.Cu F.Paste F.Mask) (roundrect_rratio 0.25))
  (pad 41 smd roundrect (at 5.6625 -0.25) (size 1.475 0.3) (layers F.Cu F.Paste F.Mask) (roundrect_rratio 0.25))
  (pad 40 smd roundrect (at 5.6625 0.25) (size 1.475 0.3) (layers F.Cu F.Paste F.Mask) (roundrect_rratio 0.25))
  (pad 39 smd roundrect (at 5.6625 0.75) (size 1.475 0.3) (layers F.Cu F.Paste F.Mask) (roundrect_rratio 0.25))
  (pad 38 smd roundrect (at 5.6625 1.25) (size 1.475 0.3) (layers F.Cu F.Paste F.Mask) (roundrect_rratio 0.25))
  (pad 37 smd roundrect (at 5.6625 1.75) (size 1.475 0.3) (layers F.Cu F.Paste F.Mask) (roundrect_rratio 0.25))
  (pad 36 smd roundrect (at 5.6625 2.25) (size 1.475 0.3) (layers F.Cu F.Paste F.Mask) (roundrect_rratio 0.25))
  (pad 35 smd roundrect (at 5.6625 2.75) (size 1.475 0.3) (layers F.Cu F.Paste F.Mask) (roundrect_rratio 0.25))
  (pad 34 smd roundrect (at 5.6625 3.25) (size 1.475 0.3) (layers F.Cu F.Paste F.Mask) (roundrect_rratio 0.25))
  (pad 33 smd roundrect (at 5.6625 3.75) (size 1.475 0.3) (layers F.Cu F.Paste F.Mask) (roundrect_rratio 0.25))
  (pad 32 smd roundrect (at 3.75 5.6625) (size 0.3 1.475) (layers F.Cu F.Paste F.Mask) (roundrect_rratio 0.25))
  (pad 31 smd roundrect (at 3.25 5.6625) (size 0.3 1.475) (layers F.Cu F.Paste F.Mask) (roundrect_rratio 0.25))
  (pad 30 smd roundrect (at 2.75 5.6625) (size 0.3 1.475) (layers F.Cu F.Paste F.Mask) (roundrect_rratio 0.25))
  (pad 29 smd roundrect (at 2.25 5.6625) (size 0.3 1.475) (layers F.Cu F.Paste F.Mask) (roundrect_rratio 0.25))
  (pad 28 smd roundrect (at 1.75 5.6625) (size 0.3 1.475) (layers F.Cu F.Paste F.Mask) (roundrect_rratio 0.25))
  (pad 27 smd roundrect (at 1.25 5.6625) (size 0.3 1.475) (layers F.Cu F.Paste F.Mask) (roundrect_rratio 0.25))
  (pad 26 smd roundrect (at 0.75 5.6625) (size 0.3 1.475) (layers F.Cu F.Paste F.Mask) (roundrect_rratio 0.25))
  (pad 25 smd roundrect (at 0.25 5.6625) (size 0.3 1.475) (layers F.Cu F.Paste F.Mask) (roundrect_rratio 0.25))
  (pad 24 smd roundrect (at -0.25 5.6625) (size 0.3 1.475) (layers F.Cu F.Paste F.Mask) (roundrect_rratio 0.25))
  (pad 23 smd roundrect (at -0.75 5.6625) (size 0.3 1.475) (layers F.Cu F.Paste F.Mask) (roundrect_rratio 0.25))
  (pad 22 smd roundrect (at -1.25 5.6625) (size 0.3 1.475) (layers F.Cu F.Paste F.Mask) (roundrect_rratio 0.25))
  (pad 21 smd roundrect (at -1.75 5.6625) (size 0.3 1.475) (layers F.Cu F.Paste F.Mask) (roundrect_rratio 0.25))
  (pad 20 smd roundrect (at -2.25 5.6625) (size 0.3 1.475) (layers F.Cu F.Paste F.Mask) (roundrect_rratio 0.25))
  (pad 19 smd roundrect (at -2.75 5.6625) (size 0.3 1.475) (layers F.Cu F.Paste F.Mask) (roundrect_rratio 0.25))
  (pad 18 smd roundrect (at -3.25 5.6625) (size 0.3 1.475) (layers F.Cu F.Paste F.Mask) (roundrect_rratio 0.25))
  (pad 17 smd roundrect (at -3.75 5.6625) (size 0.3 1.475) (layers F.Cu F.Paste F.Mask) (roundrect_rratio 0.25))
  (pad 16 smd roundrect (at -5.6625 3.75) (size 1.475 0.3) (layers F.Cu F.Paste F.Mask) (roundrect_rratio 0.25))
  (pad 15 smd roundrect (at -5.6625 3.25) (size 1.475 0.3) (layers F.Cu F.Paste F.Mask) (roundrect_rratio 0.25))
  (pad 14 smd roundrect (at -5.6625 2.75) (size 1.475 0.3) (layers F.Cu F.Paste F.Mask) (roundrect_rratio 0.25))
  (pad 13 smd roundrect (at -5.6625 2.25) (size 1.475 0.3) (layers F.Cu F.Paste F.Mask) (roundrect_rratio 0.25))
  (pad 12 smd roundrect (at -5.6625 1.75) (size 1.475 0.3) (layers F.Cu F.Paste F.Mask) (roundrect_rratio 0.25))
  (pad 11 smd roundrect (at -5.6625 1.25) (size 1.475 0.3) (layers F.Cu F.Paste F.Mask) (roundrect_rratio 0.25))
  (pad 10 smd roundrect (at -5.6625 0.75) (size 1.475 0.3) (layers F.Cu F.Paste F.Mask) (roundrect_rratio 0.25))
  (pad 9 smd roundrect (at -5.6625 0.25) (size 1.475 0.3) (layers F.Cu F.Paste F.Mask) (roundrect_rratio 0.25))
  (pad 8 smd roundrect (at -5.6625 -0.25) (size 1.475 0.3) (layers F.Cu F.Paste F.Mask) (roundrect_rratio 0.25))
  (pad 7 smd roundrect (at -5.6625 -0.75) (size 1.475 0.3) (layers F.Cu F.Paste F.Mask) (roundrect_rratio 0.25))
  (pad 6 smd roundrect (at -5.6625 -1.25) (size 1.475 0.3) (layers F.Cu F.Paste F.Mask) (roundrect_rratio 0.25))
  (pad 5 smd roundrect (at -5.6625 -1.75) (size 1.475 0.3) (layers F.Cu F.Paste F.Mask) (roundrect_rratio 0.25))
  (pad 4 smd roundrect (at -5.6625 -2.25) (size 1.475 0.3) (layers F.Cu F.Paste F.Mask) (roundrect_rratio 0.25))
  (pad 3 smd roundrect (at -5.6625 -2.75) (size 1.475 0.3) (layers F.Cu F.Paste F.Mask) (roundrect_rratio 0.25))
  (pad 2 smd roundrect (at -5.6625 -3.25) (size 1.475 0.3) (layers F.Cu F.Paste F.Mask) (roundrect_rratio 0.25))
  (pad 1 smd roundrect (at -5.6625 -3.75) (size 1.475 0.3) (layers F.Cu F.Paste F.Mask) (roundrect_rratio 0.25))
  (model ${KISYS3DMOD}/Package_QFP.3dshapes/TQFP-64_10x10mm_P0.5mm.wrl
    (at (xyz 0 0 0))
    (scale (xyz 1 1 1))
    (rotate (xyz 0 0 0))
  )
)
