(module VQFP-80_14x14mm_P0.65mm (layer F.Cu) (tedit 607FD6CB)
  (descr "VQFP, 80 Pin (http://www.microsemi.com/index.php?option=com_docman&task=doc_download&gid=131095), Alternate KiCad Library")
  (tags "VQFP QFP")
  (attr smd)
  (fp_text reference REF** (at 0 -9.906) (layer F.SilkS)
    (effects (font (size 1 1) (thickness 0.15)))
  )
  (fp_text value VQFP-80_14x14mm_P0.65mm (at 0 9.35) (layer F.Fab)
    (effects (font (size 1 1) (thickness 0.15)))
  )
  (fp_line (start -8.763 8.763) (end 8.763 8.763) (layer F.SilkS) (width 0.12))
  (fp_line (start -8.763 -3.575) (end -9.017 -3.575) (layer F.SilkS) (width 0.12))
  (fp_line (start -8.763 2.925) (end -9.017 2.925) (layer F.SilkS) (width 0.12))
  (fp_line (start -6.175 -8.763) (end -6.175 -9.144) (layer F.SilkS) (width 0.12))
  (fp_line (start 6.175 8.763) (end 6.175 9.144) (layer F.SilkS) (width 0.12))
  (fp_line (start 0.325 -8.763) (end 0.325 -9.144) (layer F.SilkS) (width 0.12))
  (fp_circle (center -7.874 -7.874) (end -7.747 -7.874) (layer F.SilkS) (width 0.4))
  (fp_line (start -0.325 8.763) (end -0.325 9.144) (layer F.SilkS) (width 0.12))
  (fp_line (start -7.747 -8.763) (end -8.763 -7.747) (layer F.SilkS) (width 0.12))
  (fp_line (start 8.763 -8.763) (end -7.747 -8.763) (layer F.SilkS) (width 0.12))
  (fp_line (start 8.763 3.575) (end 9.017 3.575) (layer F.SilkS) (width 0.12))
  (fp_line (start 8.763 -6.175) (end 9.144 -6.175) (layer F.SilkS) (width 0.12))
  (fp_line (start -2.925 -8.763) (end -2.925 -9.017) (layer F.SilkS) (width 0.12))
  (fp_line (start 2.925 8.763) (end 2.925 9.017) (layer F.SilkS) (width 0.12))
  (fp_line (start -3.575 8.763) (end -3.575 9.017) (layer F.SilkS) (width 0.12))
  (fp_line (start -8.763 -0.325) (end -9.144 -0.325) (layer F.SilkS) (width 0.12))
  (fp_line (start -8.763 6.175) (end -9.144 6.175) (layer F.SilkS) (width 0.12))
  (fp_line (start 8.763 -2.925) (end 9.017 -2.925) (layer F.SilkS) (width 0.12))
  (fp_line (start 3.575 -8.763) (end 3.575 -9.017) (layer F.SilkS) (width 0.12))
  (fp_line (start 8.763 8.763) (end 8.763 -8.763) (layer F.SilkS) (width 0.12))
  (fp_line (start 8.763 0.325) (end 9.144 0.325) (layer F.SilkS) (width 0.12))
  (fp_line (start -8.763 -7.747) (end -8.763 8.763) (layer F.SilkS) (width 0.12))
  (fp_line (start -6 -7) (end 7 -7) (layer F.Fab) (width 0.1))
  (fp_line (start 7 -7) (end 7 7) (layer F.Fab) (width 0.1))
  (fp_line (start 7 7) (end -7 7) (layer F.Fab) (width 0.1))
  (fp_line (start -7 7) (end -7 -6) (layer F.Fab) (width 0.1))
  (fp_line (start -7 -6) (end -6 -7) (layer F.Fab) (width 0.1))
  (fp_line (start 0 -8.65) (end -6.65 -8.65) (layer F.CrtYd) (width 0.05))
  (fp_line (start -6.65 -8.65) (end -6.65 -7.25) (layer F.CrtYd) (width 0.05))
  (fp_line (start -6.65 -7.25) (end -7.25 -7.25) (layer F.CrtYd) (width 0.05))
  (fp_line (start -7.25 -7.25) (end -7.25 -6.65) (layer F.CrtYd) (width 0.05))
  (fp_line (start -7.25 -6.65) (end -8.65 -6.65) (layer F.CrtYd) (width 0.05))
  (fp_line (start -8.65 -6.65) (end -8.65 0) (layer F.CrtYd) (width 0.05))
  (fp_line (start 0 -8.65) (end 6.65 -8.65) (layer F.CrtYd) (width 0.05))
  (fp_line (start 6.65 -8.65) (end 6.65 -7.25) (layer F.CrtYd) (width 0.05))
  (fp_line (start 6.65 -7.25) (end 7.25 -7.25) (layer F.CrtYd) (width 0.05))
  (fp_line (start 7.25 -7.25) (end 7.25 -6.65) (layer F.CrtYd) (width 0.05))
  (fp_line (start 7.25 -6.65) (end 8.65 -6.65) (layer F.CrtYd) (width 0.05))
  (fp_line (start 8.65 -6.65) (end 8.65 0) (layer F.CrtYd) (width 0.05))
  (fp_line (start 0 8.65) (end -6.65 8.65) (layer F.CrtYd) (width 0.05))
  (fp_line (start -6.65 8.65) (end -6.65 7.25) (layer F.CrtYd) (width 0.05))
  (fp_line (start -6.65 7.25) (end -7.25 7.25) (layer F.CrtYd) (width 0.05))
  (fp_line (start -7.25 7.25) (end -7.25 6.65) (layer F.CrtYd) (width 0.05))
  (fp_line (start -7.25 6.65) (end -8.65 6.65) (layer F.CrtYd) (width 0.05))
  (fp_line (start -8.65 6.65) (end -8.65 0) (layer F.CrtYd) (width 0.05))
  (fp_line (start 0 8.65) (end 6.65 8.65) (layer F.CrtYd) (width 0.05))
  (fp_line (start 6.65 8.65) (end 6.65 7.25) (layer F.CrtYd) (width 0.05))
  (fp_line (start 6.65 7.25) (end 7.25 7.25) (layer F.CrtYd) (width 0.05))
  (fp_line (start 7.25 7.25) (end 7.25 6.65) (layer F.CrtYd) (width 0.05))
  (fp_line (start 7.25 6.65) (end 8.65 6.65) (layer F.CrtYd) (width 0.05))
  (fp_line (start 8.65 6.65) (end 8.65 0) (layer F.CrtYd) (width 0.05))
  (fp_text user %R (at 0 0) (layer F.Fab)
    (effects (font (size 1 1) (thickness 0.15)))
  )
  (fp_text user 20 (at -7.874 7.62 -90 unlocked) (layer F.SilkS)
    (effects (font (size 1 1) (thickness 0.15)))
  )
  (fp_text user 60 (at 7.747 -7.62 -90 unlocked) (layer F.SilkS)
    (effects (font (size 1 1) (thickness 0.15)))
  )
  (fp_text user 40 (at 7.747 7.62 -90 unlocked) (layer F.SilkS)
    (effects (font (size 1 1) (thickness 0.15)))
  )
  (fp_text user 1 (at -7.874 -7.112 -90 unlocked) (layer F.SilkS)
    (effects (font (size 1 1) (thickness 0.15)))
  )
  (pad 80 smd roundrect (at -6.175 -7.6625) (size 0.45 1.475) (layers F.Cu F.Paste F.Mask) (roundrect_rratio 0.25))
  (pad 79 smd roundrect (at -5.525 -7.6625) (size 0.45 1.475) (layers F.Cu F.Paste F.Mask) (roundrect_rratio 0.25))
  (pad 78 smd roundrect (at -4.875 -7.6625) (size 0.45 1.475) (layers F.Cu F.Paste F.Mask) (roundrect_rratio 0.25))
  (pad 77 smd roundrect (at -4.225 -7.6625) (size 0.45 1.475) (layers F.Cu F.Paste F.Mask) (roundrect_rratio 0.25))
  (pad 76 smd roundrect (at -3.575 -7.6625) (size 0.45 1.475) (layers F.Cu F.Paste F.Mask) (roundrect_rratio 0.25))
  (pad 75 smd roundrect (at -2.925 -7.6625) (size 0.45 1.475) (layers F.Cu F.Paste F.Mask) (roundrect_rratio 0.25))
  (pad 74 smd roundrect (at -2.275 -7.6625) (size 0.45 1.475) (layers F.Cu F.Paste F.Mask) (roundrect_rratio 0.25))
  (pad 73 smd roundrect (at -1.625 -7.6625) (size 0.45 1.475) (layers F.Cu F.Paste F.Mask) (roundrect_rratio 0.25))
  (pad 72 smd roundrect (at -0.975 -7.6625) (size 0.45 1.475) (layers F.Cu F.Paste F.Mask) (roundrect_rratio 0.25))
  (pad 71 smd roundrect (at -0.325 -7.6625) (size 0.45 1.475) (layers F.Cu F.Paste F.Mask) (roundrect_rratio 0.25))
  (pad 70 smd roundrect (at 0.325 -7.6625) (size 0.45 1.475) (layers F.Cu F.Paste F.Mask) (roundrect_rratio 0.25))
  (pad 69 smd roundrect (at 0.975 -7.6625) (size 0.45 1.475) (layers F.Cu F.Paste F.Mask) (roundrect_rratio 0.25))
  (pad 68 smd roundrect (at 1.625 -7.6625) (size 0.45 1.475) (layers F.Cu F.Paste F.Mask) (roundrect_rratio 0.25))
  (pad 67 smd roundrect (at 2.275 -7.6625) (size 0.45 1.475) (layers F.Cu F.Paste F.Mask) (roundrect_rratio 0.25))
  (pad 66 smd roundrect (at 2.925 -7.6625) (size 0.45 1.475) (layers F.Cu F.Paste F.Mask) (roundrect_rratio 0.25))
  (pad 65 smd roundrect (at 3.575 -7.6625) (size 0.45 1.475) (layers F.Cu F.Paste F.Mask) (roundrect_rratio 0.25))
  (pad 64 smd roundrect (at 4.225 -7.6625) (size 0.45 1.475) (layers F.Cu F.Paste F.Mask) (roundrect_rratio 0.25))
  (pad 63 smd roundrect (at 4.875 -7.6625) (size 0.45 1.475) (layers F.Cu F.Paste F.Mask) (roundrect_rratio 0.25))
  (pad 62 smd roundrect (at 5.525 -7.6625) (size 0.45 1.475) (layers F.Cu F.Paste F.Mask) (roundrect_rratio 0.25))
  (pad 61 smd roundrect (at 6.175 -7.6625) (size 0.45 1.475) (layers F.Cu F.Paste F.Mask) (roundrect_rratio 0.25))
  (pad 60 smd roundrect (at 7.6625 -6.175) (size 1.475 0.45) (layers F.Cu F.Paste F.Mask) (roundrect_rratio 0.25))
  (pad 59 smd roundrect (at 7.6625 -5.525) (size 1.475 0.45) (layers F.Cu F.Paste F.Mask) (roundrect_rratio 0.25))
  (pad 58 smd roundrect (at 7.6625 -4.875) (size 1.475 0.45) (layers F.Cu F.Paste F.Mask) (roundrect_rratio 0.25))
  (pad 57 smd roundrect (at 7.6625 -4.225) (size 1.475 0.45) (layers F.Cu F.Paste F.Mask) (roundrect_rratio 0.25))
  (pad 56 smd roundrect (at 7.6625 -3.575) (size 1.475 0.45) (layers F.Cu F.Paste F.Mask) (roundrect_rratio 0.25))
  (pad 55 smd roundrect (at 7.6625 -2.925) (size 1.475 0.45) (layers F.Cu F.Paste F.Mask) (roundrect_rratio 0.25))
  (pad 54 smd roundrect (at 7.6625 -2.275) (size 1.475 0.45) (layers F.Cu F.Paste F.Mask) (roundrect_rratio 0.25))
  (pad 53 smd roundrect (at 7.6625 -1.625) (size 1.475 0.45) (layers F.Cu F.Paste F.Mask) (roundrect_rratio 0.25))
  (pad 52 smd roundrect (at 7.6625 -0.975) (size 1.475 0.45) (layers F.Cu F.Paste F.Mask) (roundrect_rratio 0.25))
  (pad 51 smd roundrect (at 7.6625 -0.325) (size 1.475 0.45) (layers F.Cu F.Paste F.Mask) (roundrect_rratio 0.25))
  (pad 50 smd roundrect (at 7.6625 0.325) (size 1.475 0.45) (layers F.Cu F.Paste F.Mask) (roundrect_rratio 0.25))
  (pad 49 smd roundrect (at 7.6625 0.975) (size 1.475 0.45) (layers F.Cu F.Paste F.Mask) (roundrect_rratio 0.25))
  (pad 48 smd roundrect (at 7.6625 1.625) (size 1.475 0.45) (layers F.Cu F.Paste F.Mask) (roundrect_rratio 0.25))
  (pad 47 smd roundrect (at 7.6625 2.275) (size 1.475 0.45) (layers F.Cu F.Paste F.Mask) (roundrect_rratio 0.25))
  (pad 46 smd roundrect (at 7.6625 2.925) (size 1.475 0.45) (layers F.Cu F.Paste F.Mask) (roundrect_rratio 0.25))
  (pad 45 smd roundrect (at 7.6625 3.575) (size 1.475 0.45) (layers F.Cu F.Paste F.Mask) (roundrect_rratio 0.25))
  (pad 44 smd roundrect (at 7.6625 4.225) (size 1.475 0.45) (layers F.Cu F.Paste F.Mask) (roundrect_rratio 0.25))
  (pad 43 smd roundrect (at 7.6625 4.875) (size 1.475 0.45) (layers F.Cu F.Paste F.Mask) (roundrect_rratio 0.25))
  (pad 42 smd roundrect (at 7.6625 5.525) (size 1.475 0.45) (layers F.Cu F.Paste F.Mask) (roundrect_rratio 0.25))
  (pad 41 smd roundrect (at 7.6625 6.175) (size 1.475 0.45) (layers F.Cu F.Paste F.Mask) (roundrect_rratio 0.25))
  (pad 40 smd roundrect (at 6.175 7.6625) (size 0.45 1.475) (layers F.Cu F.Paste F.Mask) (roundrect_rratio 0.25))
  (pad 39 smd roundrect (at 5.525 7.6625) (size 0.45 1.475) (layers F.Cu F.Paste F.Mask) (roundrect_rratio 0.25))
  (pad 38 smd roundrect (at 4.875 7.6625) (size 0.45 1.475) (layers F.Cu F.Paste F.Mask) (roundrect_rratio 0.25))
  (pad 37 smd roundrect (at 4.225 7.6625) (size 0.45 1.475) (layers F.Cu F.Paste F.Mask) (roundrect_rratio 0.25))
  (pad 36 smd roundrect (at 3.575 7.6625) (size 0.45 1.475) (layers F.Cu F.Paste F.Mask) (roundrect_rratio 0.25))
  (pad 35 smd roundrect (at 2.925 7.6625) (size 0.45 1.475) (layers F.Cu F.Paste F.Mask) (roundrect_rratio 0.25))
  (pad 34 smd roundrect (at 2.275 7.6625) (size 0.45 1.475) (layers F.Cu F.Paste F.Mask) (roundrect_rratio 0.25))
  (pad 33 smd roundrect (at 1.625 7.6625) (size 0.45 1.475) (layers F.Cu F.Paste F.Mask) (roundrect_rratio 0.25))
  (pad 32 smd roundrect (at 0.975 7.6625) (size 0.45 1.475) (layers F.Cu F.Paste F.Mask) (roundrect_rratio 0.25))
  (pad 31 smd roundrect (at 0.325 7.6625) (size 0.45 1.475) (layers F.Cu F.Paste F.Mask) (roundrect_rratio 0.25))
  (pad 30 smd roundrect (at -0.325 7.6625) (size 0.45 1.475) (layers F.Cu F.Paste F.Mask) (roundrect_rratio 0.25))
  (pad 29 smd roundrect (at -0.975 7.6625) (size 0.45 1.475) (layers F.Cu F.Paste F.Mask) (roundrect_rratio 0.25))
  (pad 28 smd roundrect (at -1.625 7.6625) (size 0.45 1.475) (layers F.Cu F.Paste F.Mask) (roundrect_rratio 0.25))
  (pad 27 smd roundrect (at -2.275 7.6625) (size 0.45 1.475) (layers F.Cu F.Paste F.Mask) (roundrect_rratio 0.25))
  (pad 26 smd roundrect (at -2.925 7.6625) (size 0.45 1.475) (layers F.Cu F.Paste F.Mask) (roundrect_rratio 0.25))
  (pad 25 smd roundrect (at -3.575 7.6625) (size 0.45 1.475) (layers F.Cu F.Paste F.Mask) (roundrect_rratio 0.25))
  (pad 24 smd roundrect (at -4.225 7.6625) (size 0.45 1.475) (layers F.Cu F.Paste F.Mask) (roundrect_rratio 0.25))
  (pad 23 smd roundrect (at -4.875 7.6625) (size 0.45 1.475) (layers F.Cu F.Paste F.Mask) (roundrect_rratio 0.25))
  (pad 22 smd roundrect (at -5.525 7.6625) (size 0.45 1.475) (layers F.Cu F.Paste F.Mask) (roundrect_rratio 0.25))
  (pad 21 smd roundrect (at -6.175 7.6625) (size 0.45 1.475) (layers F.Cu F.Paste F.Mask) (roundrect_rratio 0.25))
  (pad 20 smd roundrect (at -7.6625 6.175) (size 1.475 0.45) (layers F.Cu F.Paste F.Mask) (roundrect_rratio 0.25))
  (pad 19 smd roundrect (at -7.6625 5.525) (size 1.475 0.45) (layers F.Cu F.Paste F.Mask) (roundrect_rratio 0.25))
  (pad 18 smd roundrect (at -7.6625 4.875) (size 1.475 0.45) (layers F.Cu F.Paste F.Mask) (roundrect_rratio 0.25))
  (pad 17 smd roundrect (at -7.6625 4.225) (size 1.475 0.45) (layers F.Cu F.Paste F.Mask) (roundrect_rratio 0.25))
  (pad 16 smd roundrect (at -7.6625 3.575) (size 1.475 0.45) (layers F.Cu F.Paste F.Mask) (roundrect_rratio 0.25))
  (pad 15 smd roundrect (at -7.6625 2.925) (size 1.475 0.45) (layers F.Cu F.Paste F.Mask) (roundrect_rratio 0.25))
  (pad 14 smd roundrect (at -7.6625 2.275) (size 1.475 0.45) (layers F.Cu F.Paste F.Mask) (roundrect_rratio 0.25))
  (pad 13 smd roundrect (at -7.6625 1.625) (size 1.475 0.45) (layers F.Cu F.Paste F.Mask) (roundrect_rratio 0.25))
  (pad 12 smd roundrect (at -7.6625 0.975) (size 1.475 0.45) (layers F.Cu F.Paste F.Mask) (roundrect_rratio 0.25))
  (pad 11 smd roundrect (at -7.6625 0.325) (size 1.475 0.45) (layers F.Cu F.Paste F.Mask) (roundrect_rratio 0.25))
  (pad 10 smd roundrect (at -7.6625 -0.325) (size 1.475 0.45) (layers F.Cu F.Paste F.Mask) (roundrect_rratio 0.25))
  (pad 9 smd roundrect (at -7.6625 -0.975) (size 1.475 0.45) (layers F.Cu F.Paste F.Mask) (roundrect_rratio 0.25))
  (pad 8 smd roundrect (at -7.6625 -1.625) (size 1.475 0.45) (layers F.Cu F.Paste F.Mask) (roundrect_rratio 0.25))
  (pad 7 smd roundrect (at -7.6625 -2.275) (size 1.475 0.45) (layers F.Cu F.Paste F.Mask) (roundrect_rratio 0.25))
  (pad 6 smd roundrect (at -7.6625 -2.925) (size 1.475 0.45) (layers F.Cu F.Paste F.Mask) (roundrect_rratio 0.25))
  (pad 5 smd roundrect (at -7.6625 -3.575) (size 1.475 0.45) (layers F.Cu F.Paste F.Mask) (roundrect_rratio 0.25))
  (pad 4 smd roundrect (at -7.6625 -4.225) (size 1.475 0.45) (layers F.Cu F.Paste F.Mask) (roundrect_rratio 0.25))
  (pad 3 smd roundrect (at -7.6625 -4.875) (size 1.475 0.45) (layers F.Cu F.Paste F.Mask) (roundrect_rratio 0.25))
  (pad 2 smd roundrect (at -7.6625 -5.525) (size 1.475 0.45) (layers F.Cu F.Paste F.Mask) (roundrect_rratio 0.25))
  (pad 1 smd roundrect (at -7.6625 -6.175) (size 1.475 0.45) (layers F.Cu F.Paste F.Mask) (roundrect_rratio 0.25))
  (model ${KISYS3DMOD}/Package_QFP.3dshapes/VQFP-80_14x14mm_P0.65mm.wrl
    (at (xyz 0 0 0))
    (scale (xyz 1 1 1))
    (rotate (xyz 0 0 0))
  )
)
