(module DIP-64_W24.13mm_SMDSocket_LongPads (layer F.Cu) (tedit 5F5C6699)
  (descr "64-lead though-hole mounted DIP package, row spacing 24.13 mm (950 mils), SMDSocket, LongPads")
  (tags "THT DIP DIL PDIP 2.54mm 24.13mm 950mil SMDSocket LongPads")
  (attr smd)
  (fp_text reference REF** (at 0 -41.7) (layer F.SilkS)
    (effects (font (size 1 1) (thickness 0.15)))
  )
  (fp_text value DIP-64_W24.13mm_SMDSocket_LongPads (at 0 41.7) (layer F.Fab)
    (effects (font (size 1 1) (thickness 0.15)))
  )
  (fp_line (start 13.9 -40.95) (end -13.9 -40.95) (layer F.CrtYd) (width 0.05))
  (fp_line (start 13.9 40.95) (end 13.9 -40.95) (layer F.CrtYd) (width 0.05))
  (fp_line (start -13.9 40.95) (end 13.9 40.95) (layer F.CrtYd) (width 0.05))
  (fp_line (start -13.9 -40.95) (end -13.9 40.95) (layer F.CrtYd) (width 0.05))
  (fp_line (start 13.855 -40.76) (end -13.855 -40.76) (layer F.SilkS) (width 0.12))
  (fp_line (start 13.855 40.76) (end 13.855 -40.76) (layer F.SilkS) (width 0.12))
  (fp_line (start -13.855 40.76) (end 13.855 40.76) (layer F.SilkS) (width 0.12))
  (fp_line (start -13.855 -40.76) (end -13.855 40.76) (layer F.SilkS) (width 0.12))
  (fp_line (start 10.155 -40.7) (end 1 -40.7) (layer F.SilkS) (width 0.12))
  (fp_line (start 10.155 40.7) (end 10.155 -40.7) (layer F.SilkS) (width 0.12))
  (fp_line (start -10.155 40.7) (end 10.155 40.7) (layer F.SilkS) (width 0.12))
  (fp_line (start -10.155 -40.7) (end -10.155 40.7) (layer F.SilkS) (width 0.12))
  (fp_line (start -1 -40.7) (end -10.155 -40.7) (layer F.SilkS) (width 0.12))
  (fp_line (start 12.7 -40.7) (end -12.7 -40.7) (layer F.Fab) (width 0.1))
  (fp_line (start 12.7 40.7) (end 12.7 -40.7) (layer F.Fab) (width 0.1))
  (fp_line (start -12.7 40.7) (end 12.7 40.7) (layer F.Fab) (width 0.1))
  (fp_line (start -12.7 -40.7) (end -12.7 40.7) (layer F.Fab) (width 0.1))
  (fp_line (start -11.175 -39.64) (end -10.175 -40.64) (layer F.Fab) (width 0.1))
  (fp_line (start -11.175 40.64) (end -11.175 -39.64) (layer F.Fab) (width 0.1))
  (fp_line (start 11.175 40.64) (end -11.175 40.64) (layer F.Fab) (width 0.1))
  (fp_line (start 11.175 -40.64) (end 11.175 40.64) (layer F.Fab) (width 0.1))
  (fp_line (start -10.175 -40.64) (end 11.175 -40.64) (layer F.Fab) (width 0.1))
  (fp_text user %R (at 0 0) (layer F.Fab)
    (effects (font (size 1 1) (thickness 0.15)))
  )
  (fp_arc (start 0 -40.7) (end -1 -40.7) (angle -180) (layer F.SilkS) (width 0.12))
  (fp_circle (center -9.525 -40.132) (end -9.4 -40.132) (layer F.SilkS) (width 0.12))
  (fp_circle (center -9.525 -40.132) (end -9.475 -40.132) (layer F.SilkS) (width 0.12))
  (fp_circle (center -9.525 -40.132) (end -9.325 -40.132) (layer F.SilkS) (width 0.12))
  (pad 64 smd rect (at 12.065 -39.37) (size 3.1 1.6) (layers F.Cu F.Paste F.Mask))
  (pad 32 smd rect (at -12.065 39.37) (size 3.1 1.6) (layers F.Cu F.Paste F.Mask))
  (pad 63 smd rect (at 12.065 -36.83) (size 3.1 1.6) (layers F.Cu F.Paste F.Mask))
  (pad 31 smd rect (at -12.065 36.83) (size 3.1 1.6) (layers F.Cu F.Paste F.Mask))
  (pad 62 smd rect (at 12.065 -34.29) (size 3.1 1.6) (layers F.Cu F.Paste F.Mask))
  (pad 30 smd rect (at -12.065 34.29) (size 3.1 1.6) (layers F.Cu F.Paste F.Mask))
  (pad 61 smd rect (at 12.065 -31.75) (size 3.1 1.6) (layers F.Cu F.Paste F.Mask))
  (pad 29 smd rect (at -12.065 31.75) (size 3.1 1.6) (layers F.Cu F.Paste F.Mask))
  (pad 60 smd rect (at 12.065 -29.21) (size 3.1 1.6) (layers F.Cu F.Paste F.Mask))
  (pad 28 smd rect (at -12.065 29.21) (size 3.1 1.6) (layers F.Cu F.Paste F.Mask))
  (pad 59 smd rect (at 12.065 -26.67) (size 3.1 1.6) (layers F.Cu F.Paste F.Mask))
  (pad 27 smd rect (at -12.065 26.67) (size 3.1 1.6) (layers F.Cu F.Paste F.Mask))
  (pad 58 smd rect (at 12.065 -24.13) (size 3.1 1.6) (layers F.Cu F.Paste F.Mask))
  (pad 26 smd rect (at -12.065 24.13) (size 3.1 1.6) (layers F.Cu F.Paste F.Mask))
  (pad 57 smd rect (at 12.065 -21.59) (size 3.1 1.6) (layers F.Cu F.Paste F.Mask))
  (pad 25 smd rect (at -12.065 21.59) (size 3.1 1.6) (layers F.Cu F.Paste F.Mask))
  (pad 56 smd rect (at 12.065 -19.05) (size 3.1 1.6) (layers F.Cu F.Paste F.Mask))
  (pad 24 smd rect (at -12.065 19.05) (size 3.1 1.6) (layers F.Cu F.Paste F.Mask))
  (pad 55 smd rect (at 12.065 -16.51) (size 3.1 1.6) (layers F.Cu F.Paste F.Mask))
  (pad 23 smd rect (at -12.065 16.51) (size 3.1 1.6) (layers F.Cu F.Paste F.Mask))
  (pad 54 smd rect (at 12.065 -13.97) (size 3.1 1.6) (layers F.Cu F.Paste F.Mask))
  (pad 22 smd rect (at -12.065 13.97) (size 3.1 1.6) (layers F.Cu F.Paste F.Mask))
  (pad 53 smd rect (at 12.065 -11.43) (size 3.1 1.6) (layers F.Cu F.Paste F.Mask))
  (pad 21 smd rect (at -12.065 11.43) (size 3.1 1.6) (layers F.Cu F.Paste F.Mask))
  (pad 52 smd rect (at 12.065 -8.89) (size 3.1 1.6) (layers F.Cu F.Paste F.Mask))
  (pad 20 smd rect (at -12.065 8.89) (size 3.1 1.6) (layers F.Cu F.Paste F.Mask))
  (pad 51 smd rect (at 12.065 -6.35) (size 3.1 1.6) (layers F.Cu F.Paste F.Mask))
  (pad 19 smd rect (at -12.065 6.35) (size 3.1 1.6) (layers F.Cu F.Paste F.Mask))
  (pad 50 smd rect (at 12.065 -3.81) (size 3.1 1.6) (layers F.Cu F.Paste F.Mask))
  (pad 18 smd rect (at -12.065 3.81) (size 3.1 1.6) (layers F.Cu F.Paste F.Mask))
  (pad 49 smd rect (at 12.065 -1.27) (size 3.1 1.6) (layers F.Cu F.Paste F.Mask))
  (pad 17 smd rect (at -12.065 1.27) (size 3.1 1.6) (layers F.Cu F.Paste F.Mask))
  (pad 48 smd rect (at 12.065 1.27) (size 3.1 1.6) (layers F.Cu F.Paste F.Mask))
  (pad 16 smd rect (at -12.065 -1.27) (size 3.1 1.6) (layers F.Cu F.Paste F.Mask))
  (pad 47 smd rect (at 12.065 3.81) (size 3.1 1.6) (layers F.Cu F.Paste F.Mask))
  (pad 15 smd rect (at -12.065 -3.81) (size 3.1 1.6) (layers F.Cu F.Paste F.Mask))
  (pad 46 smd rect (at 12.065 6.35) (size 3.1 1.6) (layers F.Cu F.Paste F.Mask))
  (pad 14 smd rect (at -12.065 -6.35) (size 3.1 1.6) (layers F.Cu F.Paste F.Mask))
  (pad 45 smd rect (at 12.065 8.89) (size 3.1 1.6) (layers F.Cu F.Paste F.Mask))
  (pad 13 smd rect (at -12.065 -8.89) (size 3.1 1.6) (layers F.Cu F.Paste F.Mask))
  (pad 44 smd rect (at 12.065 11.43) (size 3.1 1.6) (layers F.Cu F.Paste F.Mask))
  (pad 12 smd rect (at -12.065 -11.43) (size 3.1 1.6) (layers F.Cu F.Paste F.Mask))
  (pad 43 smd rect (at 12.065 13.97) (size 3.1 1.6) (layers F.Cu F.Paste F.Mask))
  (pad 11 smd rect (at -12.065 -13.97) (size 3.1 1.6) (layers F.Cu F.Paste F.Mask))
  (pad 42 smd rect (at 12.065 16.51) (size 3.1 1.6) (layers F.Cu F.Paste F.Mask))
  (pad 10 smd rect (at -12.065 -16.51) (size 3.1 1.6) (layers F.Cu F.Paste F.Mask))
  (pad 41 smd rect (at 12.065 19.05) (size 3.1 1.6) (layers F.Cu F.Paste F.Mask))
  (pad 9 smd rect (at -12.065 -19.05) (size 3.1 1.6) (layers F.Cu F.Paste F.Mask))
  (pad 40 smd rect (at 12.065 21.59) (size 3.1 1.6) (layers F.Cu F.Paste F.Mask))
  (pad 8 smd rect (at -12.065 -21.59) (size 3.1 1.6) (layers F.Cu F.Paste F.Mask))
  (pad 39 smd rect (at 12.065 24.13) (size 3.1 1.6) (layers F.Cu F.Paste F.Mask))
  (pad 7 smd rect (at -12.065 -24.13) (size 3.1 1.6) (layers F.Cu F.Paste F.Mask))
  (pad 38 smd rect (at 12.065 26.67) (size 3.1 1.6) (layers F.Cu F.Paste F.Mask))
  (pad 6 smd rect (at -12.065 -26.67) (size 3.1 1.6) (layers F.Cu F.Paste F.Mask))
  (pad 37 smd rect (at 12.065 29.21) (size 3.1 1.6) (layers F.Cu F.Paste F.Mask))
  (pad 5 smd rect (at -12.065 -29.21) (size 3.1 1.6) (layers F.Cu F.Paste F.Mask))
  (pad 36 smd rect (at 12.065 31.75) (size 3.1 1.6) (layers F.Cu F.Paste F.Mask))
  (pad 4 smd rect (at -12.065 -31.75) (size 3.1 1.6) (layers F.Cu F.Paste F.Mask))
  (pad 35 smd rect (at 12.065 34.29) (size 3.1 1.6) (layers F.Cu F.Paste F.Mask))
  (pad 3 smd rect (at -12.065 -34.29) (size 3.1 1.6) (layers F.Cu F.Paste F.Mask))
  (pad 34 smd rect (at 12.065 36.83) (size 3.1 1.6) (layers F.Cu F.Paste F.Mask))
  (pad 2 smd rect (at -12.065 -36.83) (size 3.1 1.6) (layers F.Cu F.Paste F.Mask))
  (pad 33 smd rect (at 12.065 39.37) (size 3.1 1.6) (layers F.Cu F.Paste F.Mask))
  (pad 1 smd rect (at -12.065 -39.37) (size 3.1 1.6) (layers F.Cu F.Paste F.Mask))
  (model ${KISYS3DMOD}/Package_DIP.3dshapes/DIP-64_W24.13mm_SMDSocket.wrl
    (at (xyz 0 0 0))
    (scale (xyz 1 1 1))
    (rotate (xyz 0 0 0))
  )
)
