(module DIP-24_W7.62mm_Socket (layer F.Cu) (tedit 5F5C6427)
  (descr "24-lead though-hole mounted DIP package, row spacing 7.62 mm (300 mils), Socket")
  (tags "THT DIP DIL PDIP 2.54mm 7.62mm 300mil Socket")
  (fp_text reference REF** (at 3.81 -2.33) (layer F.SilkS)
    (effects (font (size 1 1) (thickness 0.15)))
  )
  (fp_text value DIP-24_W7.62mm_Socket (at 3.81 30.27) (layer F.Fab)
    (effects (font (size 1 1) (thickness 0.15)))
  )
  (fp_line (start 9.15 -1.6) (end -1.55 -1.6) (layer F.CrtYd) (width 0.05))
  (fp_line (start 9.15 29.55) (end 9.15 -1.6) (layer F.CrtYd) (width 0.05))
  (fp_line (start -1.55 29.55) (end 9.15 29.55) (layer F.CrtYd) (width 0.05))
  (fp_line (start -1.55 -1.6) (end -1.55 29.55) (layer F.CrtYd) (width 0.05))
  (fp_line (start 8.95 -1.39) (end -1.33 -1.39) (layer F.SilkS) (width 0.12))
  (fp_line (start 8.95 29.33) (end 8.95 -1.39) (layer F.SilkS) (width 0.12))
  (fp_line (start -1.33 29.33) (end 8.95 29.33) (layer F.SilkS) (width 0.12))
  (fp_line (start -1.33 -1.39) (end -1.33 29.33) (layer F.SilkS) (width 0.12))
  (fp_line (start 6.46 -1.33) (end 4.81 -1.33) (layer F.SilkS) (width 0.12))
  (fp_line (start 6.46 29.27) (end 6.46 -1.33) (layer F.SilkS) (width 0.12))
  (fp_line (start 1.16 29.27) (end 6.46 29.27) (layer F.SilkS) (width 0.12))
  (fp_line (start 1.16 -1.33) (end 1.16 29.27) (layer F.SilkS) (width 0.12))
  (fp_line (start 2.81 -1.33) (end 1.16 -1.33) (layer F.SilkS) (width 0.12))
  (fp_line (start 8.89 -1.33) (end -1.27 -1.33) (layer F.Fab) (width 0.1))
  (fp_line (start 8.89 29.27) (end 8.89 -1.33) (layer F.Fab) (width 0.1))
  (fp_line (start -1.27 29.27) (end 8.89 29.27) (layer F.Fab) (width 0.1))
  (fp_line (start -1.27 -1.33) (end -1.27 29.27) (layer F.Fab) (width 0.1))
  (fp_line (start 0.635 -0.27) (end 1.635 -1.27) (layer F.Fab) (width 0.1))
  (fp_line (start 0.635 29.21) (end 0.635 -0.27) (layer F.Fab) (width 0.1))
  (fp_line (start 6.985 29.21) (end 0.635 29.21) (layer F.Fab) (width 0.1))
  (fp_line (start 6.985 -1.27) (end 6.985 29.21) (layer F.Fab) (width 0.1))
  (fp_line (start 1.635 -1.27) (end 6.985 -1.27) (layer F.Fab) (width 0.1))
  (fp_text user %R (at 3.81 13.97) (layer F.Fab)
    (effects (font (size 1 1) (thickness 0.15)))
  )
  (fp_arc (start 3.81 -1.33) (end 2.81 -1.33) (angle -180) (layer F.SilkS) (width 0.12))
  (fp_circle (center 1.778 -0.635) (end 1.903 -0.635) (layer F.SilkS) (width 0.12))
  (fp_circle (center 1.778 -0.635) (end 1.828 -0.635) (layer F.SilkS) (width 0.12))
  (fp_circle (center 1.778 -0.635) (end 1.978 -0.635) (layer F.SilkS) (width 0.12))
  (pad 24 thru_hole oval (at 7.62 0) (size 1.6 1.6) (drill 0.8) (layers *.Cu *.Mask))
  (pad 12 thru_hole oval (at 0 27.94) (size 1.6 1.6) (drill 0.8) (layers *.Cu *.Mask))
  (pad 23 thru_hole oval (at 7.62 2.54) (size 1.6 1.6) (drill 0.8) (layers *.Cu *.Mask))
  (pad 11 thru_hole oval (at 0 25.4) (size 1.6 1.6) (drill 0.8) (layers *.Cu *.Mask))
  (pad 22 thru_hole oval (at 7.62 5.08) (size 1.6 1.6) (drill 0.8) (layers *.Cu *.Mask))
  (pad 10 thru_hole oval (at 0 22.86) (size 1.6 1.6) (drill 0.8) (layers *.Cu *.Mask))
  (pad 21 thru_hole oval (at 7.62 7.62) (size 1.6 1.6) (drill 0.8) (layers *.Cu *.Mask))
  (pad 9 thru_hole oval (at 0 20.32) (size 1.6 1.6) (drill 0.8) (layers *.Cu *.Mask))
  (pad 20 thru_hole oval (at 7.62 10.16) (size 1.6 1.6) (drill 0.8) (layers *.Cu *.Mask))
  (pad 8 thru_hole oval (at 0 17.78) (size 1.6 1.6) (drill 0.8) (layers *.Cu *.Mask))
  (pad 19 thru_hole oval (at 7.62 12.7) (size 1.6 1.6) (drill 0.8) (layers *.Cu *.Mask))
  (pad 7 thru_hole oval (at 0 15.24) (size 1.6 1.6) (drill 0.8) (layers *.Cu *.Mask))
  (pad 18 thru_hole oval (at 7.62 15.24) (size 1.6 1.6) (drill 0.8) (layers *.Cu *.Mask))
  (pad 6 thru_hole oval (at 0 12.7) (size 1.6 1.6) (drill 0.8) (layers *.Cu *.Mask))
  (pad 17 thru_hole oval (at 7.62 17.78) (size 1.6 1.6) (drill 0.8) (layers *.Cu *.Mask))
  (pad 5 thru_hole oval (at 0 10.16) (size 1.6 1.6) (drill 0.8) (layers *.Cu *.Mask))
  (pad 16 thru_hole oval (at 7.62 20.32) (size 1.6 1.6) (drill 0.8) (layers *.Cu *.Mask))
  (pad 4 thru_hole oval (at 0 7.62) (size 1.6 1.6) (drill 0.8) (layers *.Cu *.Mask))
  (pad 15 thru_hole oval (at 7.62 22.86) (size 1.6 1.6) (drill 0.8) (layers *.Cu *.Mask))
  (pad 3 thru_hole oval (at 0 5.08) (size 1.6 1.6) (drill 0.8) (layers *.Cu *.Mask))
  (pad 14 thru_hole oval (at 7.62 25.4) (size 1.6 1.6) (drill 0.8) (layers *.Cu *.Mask))
  (pad 2 thru_hole oval (at 0 2.54) (size 1.6 1.6) (drill 0.8) (layers *.Cu *.Mask))
  (pad 13 thru_hole oval (at 7.62 27.94) (size 1.6 1.6) (drill 0.8) (layers *.Cu *.Mask))
  (pad 1 thru_hole rect (at 0 0) (size 1.6 1.6) (drill 0.8) (layers *.Cu *.Mask))
  (model ${KISYS3DMOD}/Package_DIP.3dshapes/DIP-24_W7.62mm_Socket.wrl
    (at (xyz 0 0 0))
    (scale (xyz 1 1 1))
    (rotate (xyz 0 0 0))
  )
)
