(module DIP-64_W15.24mm (layer F.Cu) (tedit 5F5C6624)
  (descr "64-lead though-hole mounted DIP package, row spacing 15.24 mm (600 mils)")
  (tags "THT DIP DIL PDIP 2.54mm 15.24mm 600mil")
  (fp_text reference REF** (at 7.62 -2.33) (layer F.SilkS)
    (effects (font (size 1 1) (thickness 0.15)))
  )
  (fp_text value DIP-64_W15.24mm (at 7.62 81.07) (layer F.Fab)
    (effects (font (size 1 1) (thickness 0.15)))
  )
  (fp_line (start 16.3 -1.55) (end -1.05 -1.55) (layer F.CrtYd) (width 0.05))
  (fp_line (start 16.3 80.3) (end 16.3 -1.55) (layer F.CrtYd) (width 0.05))
  (fp_line (start -1.05 80.3) (end 16.3 80.3) (layer F.CrtYd) (width 0.05))
  (fp_line (start -1.05 -1.55) (end -1.05 80.3) (layer F.CrtYd) (width 0.05))
  (fp_line (start 14.08 -1.33) (end 8.62 -1.33) (layer F.SilkS) (width 0.12))
  (fp_line (start 14.08 80.07) (end 14.08 -1.33) (layer F.SilkS) (width 0.12))
  (fp_line (start 1.16 80.07) (end 14.08 80.07) (layer F.SilkS) (width 0.12))
  (fp_line (start 1.16 -1.33) (end 1.16 80.07) (layer F.SilkS) (width 0.12))
  (fp_line (start 6.62 -1.33) (end 1.16 -1.33) (layer F.SilkS) (width 0.12))
  (fp_line (start 0.255 -0.27) (end 1.255 -1.27) (layer F.Fab) (width 0.1))
  (fp_line (start 0.255 80.01) (end 0.255 -0.27) (layer F.Fab) (width 0.1))
  (fp_line (start 14.985 80.01) (end 0.255 80.01) (layer F.Fab) (width 0.1))
  (fp_line (start 14.985 -1.27) (end 14.985 80.01) (layer F.Fab) (width 0.1))
  (fp_line (start 1.255 -1.27) (end 14.985 -1.27) (layer F.Fab) (width 0.1))
  (fp_text user %R (at 7.62 39.37) (layer F.Fab)
    (effects (font (size 1 1) (thickness 0.15)))
  )
  (fp_arc (start 7.62 -1.33) (end 6.62 -1.33) (angle -180) (layer F.SilkS) (width 0.12))
  (fp_circle (center 1.778 -0.762) (end 1.903 -0.762) (layer F.SilkS) (width 0.12))
  (fp_circle (center 1.778 -0.762) (end 1.828 -0.762) (layer F.SilkS) (width 0.12))
  (fp_circle (center 1.778 -0.762) (end 1.978 -0.762) (layer F.SilkS) (width 0.12))
  (pad 64 thru_hole oval (at 15.24 0) (size 1.6 1.6) (drill 0.8) (layers *.Cu *.Mask))
  (pad 32 thru_hole oval (at 0 78.74) (size 1.6 1.6) (drill 0.8) (layers *.Cu *.Mask))
  (pad 63 thru_hole oval (at 15.24 2.54) (size 1.6 1.6) (drill 0.8) (layers *.Cu *.Mask))
  (pad 31 thru_hole oval (at 0 76.2) (size 1.6 1.6) (drill 0.8) (layers *.Cu *.Mask))
  (pad 62 thru_hole oval (at 15.24 5.08) (size 1.6 1.6) (drill 0.8) (layers *.Cu *.Mask))
  (pad 30 thru_hole oval (at 0 73.66) (size 1.6 1.6) (drill 0.8) (layers *.Cu *.Mask))
  (pad 61 thru_hole oval (at 15.24 7.62) (size 1.6 1.6) (drill 0.8) (layers *.Cu *.Mask))
  (pad 29 thru_hole oval (at 0 71.12) (size 1.6 1.6) (drill 0.8) (layers *.Cu *.Mask))
  (pad 60 thru_hole oval (at 15.24 10.16) (size 1.6 1.6) (drill 0.8) (layers *.Cu *.Mask))
  (pad 28 thru_hole oval (at 0 68.58) (size 1.6 1.6) (drill 0.8) (layers *.Cu *.Mask))
  (pad 59 thru_hole oval (at 15.24 12.7) (size 1.6 1.6) (drill 0.8) (layers *.Cu *.Mask))
  (pad 27 thru_hole oval (at 0 66.04) (size 1.6 1.6) (drill 0.8) (layers *.Cu *.Mask))
  (pad 58 thru_hole oval (at 15.24 15.24) (size 1.6 1.6) (drill 0.8) (layers *.Cu *.Mask))
  (pad 26 thru_hole oval (at 0 63.5) (size 1.6 1.6) (drill 0.8) (layers *.Cu *.Mask))
  (pad 57 thru_hole oval (at 15.24 17.78) (size 1.6 1.6) (drill 0.8) (layers *.Cu *.Mask))
  (pad 25 thru_hole oval (at 0 60.96) (size 1.6 1.6) (drill 0.8) (layers *.Cu *.Mask))
  (pad 56 thru_hole oval (at 15.24 20.32) (size 1.6 1.6) (drill 0.8) (layers *.Cu *.Mask))
  (pad 24 thru_hole oval (at 0 58.42) (size 1.6 1.6) (drill 0.8) (layers *.Cu *.Mask))
  (pad 55 thru_hole oval (at 15.24 22.86) (size 1.6 1.6) (drill 0.8) (layers *.Cu *.Mask))
  (pad 23 thru_hole oval (at 0 55.88) (size 1.6 1.6) (drill 0.8) (layers *.Cu *.Mask))
  (pad 54 thru_hole oval (at 15.24 25.4) (size 1.6 1.6) (drill 0.8) (layers *.Cu *.Mask))
  (pad 22 thru_hole oval (at 0 53.34) (size 1.6 1.6) (drill 0.8) (layers *.Cu *.Mask))
  (pad 53 thru_hole oval (at 15.24 27.94) (size 1.6 1.6) (drill 0.8) (layers *.Cu *.Mask))
  (pad 21 thru_hole oval (at 0 50.8) (size 1.6 1.6) (drill 0.8) (layers *.Cu *.Mask))
  (pad 52 thru_hole oval (at 15.24 30.48) (size 1.6 1.6) (drill 0.8) (layers *.Cu *.Mask))
  (pad 20 thru_hole oval (at 0 48.26) (size 1.6 1.6) (drill 0.8) (layers *.Cu *.Mask))
  (pad 51 thru_hole oval (at 15.24 33.02) (size 1.6 1.6) (drill 0.8) (layers *.Cu *.Mask))
  (pad 19 thru_hole oval (at 0 45.72) (size 1.6 1.6) (drill 0.8) (layers *.Cu *.Mask))
  (pad 50 thru_hole oval (at 15.24 35.56) (size 1.6 1.6) (drill 0.8) (layers *.Cu *.Mask))
  (pad 18 thru_hole oval (at 0 43.18) (size 1.6 1.6) (drill 0.8) (layers *.Cu *.Mask))
  (pad 49 thru_hole oval (at 15.24 38.1) (size 1.6 1.6) (drill 0.8) (layers *.Cu *.Mask))
  (pad 17 thru_hole oval (at 0 40.64) (size 1.6 1.6) (drill 0.8) (layers *.Cu *.Mask))
  (pad 48 thru_hole oval (at 15.24 40.64) (size 1.6 1.6) (drill 0.8) (layers *.Cu *.Mask))
  (pad 16 thru_hole oval (at 0 38.1) (size 1.6 1.6) (drill 0.8) (layers *.Cu *.Mask))
  (pad 47 thru_hole oval (at 15.24 43.18) (size 1.6 1.6) (drill 0.8) (layers *.Cu *.Mask))
  (pad 15 thru_hole oval (at 0 35.56) (size 1.6 1.6) (drill 0.8) (layers *.Cu *.Mask))
  (pad 46 thru_hole oval (at 15.24 45.72) (size 1.6 1.6) (drill 0.8) (layers *.Cu *.Mask))
  (pad 14 thru_hole oval (at 0 33.02) (size 1.6 1.6) (drill 0.8) (layers *.Cu *.Mask))
  (pad 45 thru_hole oval (at 15.24 48.26) (size 1.6 1.6) (drill 0.8) (layers *.Cu *.Mask))
  (pad 13 thru_hole oval (at 0 30.48) (size 1.6 1.6) (drill 0.8) (layers *.Cu *.Mask))
  (pad 44 thru_hole oval (at 15.24 50.8) (size 1.6 1.6) (drill 0.8) (layers *.Cu *.Mask))
  (pad 12 thru_hole oval (at 0 27.94) (size 1.6 1.6) (drill 0.8) (layers *.Cu *.Mask))
  (pad 43 thru_hole oval (at 15.24 53.34) (size 1.6 1.6) (drill 0.8) (layers *.Cu *.Mask))
  (pad 11 thru_hole oval (at 0 25.4) (size 1.6 1.6) (drill 0.8) (layers *.Cu *.Mask))
  (pad 42 thru_hole oval (at 15.24 55.88) (size 1.6 1.6) (drill 0.8) (layers *.Cu *.Mask))
  (pad 10 thru_hole oval (at 0 22.86) (size 1.6 1.6) (drill 0.8) (layers *.Cu *.Mask))
  (pad 41 thru_hole oval (at 15.24 58.42) (size 1.6 1.6) (drill 0.8) (layers *.Cu *.Mask))
  (pad 9 thru_hole oval (at 0 20.32) (size 1.6 1.6) (drill 0.8) (layers *.Cu *.Mask))
  (pad 40 thru_hole oval (at 15.24 60.96) (size 1.6 1.6) (drill 0.8) (layers *.Cu *.Mask))
  (pad 8 thru_hole oval (at 0 17.78) (size 1.6 1.6) (drill 0.8) (layers *.Cu *.Mask))
  (pad 39 thru_hole oval (at 15.24 63.5) (size 1.6 1.6) (drill 0.8) (layers *.Cu *.Mask))
  (pad 7 thru_hole oval (at 0 15.24) (size 1.6 1.6) (drill 0.8) (layers *.Cu *.Mask))
  (pad 38 thru_hole oval (at 15.24 66.04) (size 1.6 1.6) (drill 0.8) (layers *.Cu *.Mask))
  (pad 6 thru_hole oval (at 0 12.7) (size 1.6 1.6) (drill 0.8) (layers *.Cu *.Mask))
  (pad 37 thru_hole oval (at 15.24 68.58) (size 1.6 1.6) (drill 0.8) (layers *.Cu *.Mask))
  (pad 5 thru_hole oval (at 0 10.16) (size 1.6 1.6) (drill 0.8) (layers *.Cu *.Mask))
  (pad 36 thru_hole oval (at 15.24 71.12) (size 1.6 1.6) (drill 0.8) (layers *.Cu *.Mask))
  (pad 4 thru_hole oval (at 0 7.62) (size 1.6 1.6) (drill 0.8) (layers *.Cu *.Mask))
  (pad 35 thru_hole oval (at 15.24 73.66) (size 1.6 1.6) (drill 0.8) (layers *.Cu *.Mask))
  (pad 3 thru_hole oval (at 0 5.08) (size 1.6 1.6) (drill 0.8) (layers *.Cu *.Mask))
  (pad 34 thru_hole oval (at 15.24 76.2) (size 1.6 1.6) (drill 0.8) (layers *.Cu *.Mask))
  (pad 2 thru_hole oval (at 0 2.54) (size 1.6 1.6) (drill 0.8) (layers *.Cu *.Mask))
  (pad 33 thru_hole oval (at 15.24 78.74) (size 1.6 1.6) (drill 0.8) (layers *.Cu *.Mask))
  (pad 1 thru_hole rect (at 0 0) (size 1.6 1.6) (drill 0.8) (layers *.Cu *.Mask))
  (model ${KISYS3DMOD}/Package_DIP.3dshapes/DIP-64_W15.24mm.wrl
    (at (xyz 0 0 0))
    (scale (xyz 1 1 1))
    (rotate (xyz 0 0 0))
  )
)
