(module DIP-20_W7.62mm_SMDSocket_SmallPads (layer F.Cu) (tedit 5F5C632C)
  (descr "20-lead though-hole mounted DIP package, row spacing 7.62 mm (300 mils), SMDSocket, SmallPads")
  (tags "THT DIP DIL PDIP 2.54mm 7.62mm 300mil SMDSocket SmallPads")
  (attr smd)
  (fp_text reference REF** (at 0 -13.76) (layer F.SilkS)
    (effects (font (size 1 1) (thickness 0.15)))
  )
  (fp_text value DIP-20_W7.62mm_SMDSocket_SmallPads (at 0 13.76) (layer F.Fab)
    (effects (font (size 1 1) (thickness 0.15)))
  )
  (fp_line (start 5.35 -13.05) (end -5.35 -13.05) (layer F.CrtYd) (width 0.05))
  (fp_line (start 5.35 13.05) (end 5.35 -13.05) (layer F.CrtYd) (width 0.05))
  (fp_line (start -5.35 13.05) (end 5.35 13.05) (layer F.CrtYd) (width 0.05))
  (fp_line (start -5.35 -13.05) (end -5.35 13.05) (layer F.CrtYd) (width 0.05))
  (fp_line (start 5.14 -12.82) (end -5.14 -12.82) (layer F.SilkS) (width 0.12))
  (fp_line (start 5.14 12.82) (end 5.14 -12.82) (layer F.SilkS) (width 0.12))
  (fp_line (start -5.14 12.82) (end 5.14 12.82) (layer F.SilkS) (width 0.12))
  (fp_line (start -5.14 -12.82) (end -5.14 12.82) (layer F.SilkS) (width 0.12))
  (fp_line (start 2.65 -12.76) (end 1 -12.76) (layer F.SilkS) (width 0.12))
  (fp_line (start 2.65 12.76) (end 2.65 -12.76) (layer F.SilkS) (width 0.12))
  (fp_line (start -2.65 12.76) (end 2.65 12.76) (layer F.SilkS) (width 0.12))
  (fp_line (start -2.65 -12.76) (end -2.65 12.76) (layer F.SilkS) (width 0.12))
  (fp_line (start -1 -12.76) (end -2.65 -12.76) (layer F.SilkS) (width 0.12))
  (fp_line (start 5.08 -12.76) (end -5.08 -12.76) (layer F.Fab) (width 0.1))
  (fp_line (start 5.08 12.76) (end 5.08 -12.76) (layer F.Fab) (width 0.1))
  (fp_line (start -5.08 12.76) (end 5.08 12.76) (layer F.Fab) (width 0.1))
  (fp_line (start -5.08 -12.76) (end -5.08 12.76) (layer F.Fab) (width 0.1))
  (fp_line (start -3.175 -11.7) (end -2.175 -12.7) (layer F.Fab) (width 0.1))
  (fp_line (start -3.175 12.7) (end -3.175 -11.7) (layer F.Fab) (width 0.1))
  (fp_line (start 3.175 12.7) (end -3.175 12.7) (layer F.Fab) (width 0.1))
  (fp_line (start 3.175 -12.7) (end 3.175 12.7) (layer F.Fab) (width 0.1))
  (fp_line (start -2.175 -12.7) (end 3.175 -12.7) (layer F.Fab) (width 0.1))
  (fp_text user %R (at 0 0) (layer F.Fab)
    (effects (font (size 1 1) (thickness 0.15)))
  )
  (fp_arc (start 0 -12.76) (end -1 -12.76) (angle -180) (layer F.SilkS) (width 0.12))
  (fp_circle (center -2.032 -12.192) (end -1.907 -12.192) (layer F.SilkS) (width 0.12))
  (fp_circle (center -2.032 -12.192) (end -1.982 -12.192) (layer F.SilkS) (width 0.12))
  (fp_circle (center -2.032 -12.192) (end -1.832 -12.192) (layer F.SilkS) (width 0.12))
  (pad 20 smd rect (at 3.81 -11.43) (size 1.6 1.6) (layers F.Cu F.Paste F.Mask))
  (pad 10 smd rect (at -3.81 11.43) (size 1.6 1.6) (layers F.Cu F.Paste F.Mask))
  (pad 19 smd rect (at 3.81 -8.89) (size 1.6 1.6) (layers F.Cu F.Paste F.Mask))
  (pad 9 smd rect (at -3.81 8.89) (size 1.6 1.6) (layers F.Cu F.Paste F.Mask))
  (pad 18 smd rect (at 3.81 -6.35) (size 1.6 1.6) (layers F.Cu F.Paste F.Mask))
  (pad 8 smd rect (at -3.81 6.35) (size 1.6 1.6) (layers F.Cu F.Paste F.Mask))
  (pad 17 smd rect (at 3.81 -3.81) (size 1.6 1.6) (layers F.Cu F.Paste F.Mask))
  (pad 7 smd rect (at -3.81 3.81) (size 1.6 1.6) (layers F.Cu F.Paste F.Mask))
  (pad 16 smd rect (at 3.81 -1.27) (size 1.6 1.6) (layers F.Cu F.Paste F.Mask))
  (pad 6 smd rect (at -3.81 1.27) (size 1.6 1.6) (layers F.Cu F.Paste F.Mask))
  (pad 15 smd rect (at 3.81 1.27) (size 1.6 1.6) (layers F.Cu F.Paste F.Mask))
  (pad 5 smd rect (at -3.81 -1.27) (size 1.6 1.6) (layers F.Cu F.Paste F.Mask))
  (pad 14 smd rect (at 3.81 3.81) (size 1.6 1.6) (layers F.Cu F.Paste F.Mask))
  (pad 4 smd rect (at -3.81 -3.81) (size 1.6 1.6) (layers F.Cu F.Paste F.Mask))
  (pad 13 smd rect (at 3.81 6.35) (size 1.6 1.6) (layers F.Cu F.Paste F.Mask))
  (pad 3 smd rect (at -3.81 -6.35) (size 1.6 1.6) (layers F.Cu F.Paste F.Mask))
  (pad 12 smd rect (at 3.81 8.89) (size 1.6 1.6) (layers F.Cu F.Paste F.Mask))
  (pad 2 smd rect (at -3.81 -8.89) (size 1.6 1.6) (layers F.Cu F.Paste F.Mask))
  (pad 11 smd rect (at 3.81 11.43) (size 1.6 1.6) (layers F.Cu F.Paste F.Mask))
  (pad 1 smd rect (at -3.81 -11.43) (size 1.6 1.6) (layers F.Cu F.Paste F.Mask))
  (model ${KISYS3DMOD}/Package_DIP.3dshapes/DIP-20_W7.62mm_SMDSocket.wrl
    (at (xyz 0 0 0))
    (scale (xyz 1 1 1))
    (rotate (xyz 0 0 0))
  )
)
