(module DIP-24_W10.16mm_Socket (layer F.Cu) (tedit 5F5C6468)
  (descr "24-lead though-hole mounted DIP package, row spacing 10.16 mm (400 mils), Socket")
  (tags "THT DIP DIL PDIP 2.54mm 10.16mm 400mil Socket")
  (fp_text reference REF** (at 5.08 -2.33) (layer F.SilkS)
    (effects (font (size 1 1) (thickness 0.15)))
  )
  (fp_text value DIP-24_W10.16mm_Socket (at 5.08 30.27) (layer F.Fab)
    (effects (font (size 1 1) (thickness 0.15)))
  )
  (fp_line (start 11.7 -1.6) (end -1.55 -1.6) (layer F.CrtYd) (width 0.05))
  (fp_line (start 11.7 29.55) (end 11.7 -1.6) (layer F.CrtYd) (width 0.05))
  (fp_line (start -1.55 29.55) (end 11.7 29.55) (layer F.CrtYd) (width 0.05))
  (fp_line (start -1.55 -1.6) (end -1.55 29.55) (layer F.CrtYd) (width 0.05))
  (fp_line (start 11.49 -1.39) (end -1.33 -1.39) (layer F.SilkS) (width 0.12))
  (fp_line (start 11.49 29.33) (end 11.49 -1.39) (layer F.SilkS) (width 0.12))
  (fp_line (start -1.33 29.33) (end 11.49 29.33) (layer F.SilkS) (width 0.12))
  (fp_line (start -1.33 -1.39) (end -1.33 29.33) (layer F.SilkS) (width 0.12))
  (fp_line (start 9 -1.33) (end 6.08 -1.33) (layer F.SilkS) (width 0.12))
  (fp_line (start 9 29.27) (end 9 -1.33) (layer F.SilkS) (width 0.12))
  (fp_line (start 1.16 29.27) (end 9 29.27) (layer F.SilkS) (width 0.12))
  (fp_line (start 1.16 -1.33) (end 1.16 29.27) (layer F.SilkS) (width 0.12))
  (fp_line (start 4.08 -1.33) (end 1.16 -1.33) (layer F.SilkS) (width 0.12))
  (fp_line (start 11.43 -1.33) (end -1.27 -1.33) (layer F.Fab) (width 0.1))
  (fp_line (start 11.43 29.27) (end 11.43 -1.33) (layer F.Fab) (width 0.1))
  (fp_line (start -1.27 29.27) (end 11.43 29.27) (layer F.Fab) (width 0.1))
  (fp_line (start -1.27 -1.33) (end -1.27 29.27) (layer F.Fab) (width 0.1))
  (fp_line (start 0.51 -0.27) (end 1.51 -1.27) (layer F.Fab) (width 0.1))
  (fp_line (start 0.51 29.21) (end 0.51 -0.27) (layer F.Fab) (width 0.1))
  (fp_line (start 9.65 29.21) (end 0.51 29.21) (layer F.Fab) (width 0.1))
  (fp_line (start 9.65 -1.27) (end 9.65 29.21) (layer F.Fab) (width 0.1))
  (fp_line (start 1.51 -1.27) (end 9.65 -1.27) (layer F.Fab) (width 0.1))
  (fp_text user %R (at 5.08 13.97) (layer F.Fab)
    (effects (font (size 1 1) (thickness 0.15)))
  )
  (fp_arc (start 5.08 -1.33) (end 4.08 -1.33) (angle -180) (layer F.SilkS) (width 0.12))
  (fp_circle (center 1.778 -0.635) (end 1.903 -0.635) (layer F.SilkS) (width 0.12))
  (fp_circle (center 1.778 -0.635) (end 1.828 -0.635) (layer F.SilkS) (width 0.12))
  (fp_circle (center 1.778 -0.635) (end 1.978 -0.635) (layer F.SilkS) (width 0.12))
  (pad 24 thru_hole oval (at 10.16 0) (size 1.6 1.6) (drill 0.8) (layers *.Cu *.Mask))
  (pad 12 thru_hole oval (at 0 27.94) (size 1.6 1.6) (drill 0.8) (layers *.Cu *.Mask))
  (pad 23 thru_hole oval (at 10.16 2.54) (size 1.6 1.6) (drill 0.8) (layers *.Cu *.Mask))
  (pad 11 thru_hole oval (at 0 25.4) (size 1.6 1.6) (drill 0.8) (layers *.Cu *.Mask))
  (pad 22 thru_hole oval (at 10.16 5.08) (size 1.6 1.6) (drill 0.8) (layers *.Cu *.Mask))
  (pad 10 thru_hole oval (at 0 22.86) (size 1.6 1.6) (drill 0.8) (layers *.Cu *.Mask))
  (pad 21 thru_hole oval (at 10.16 7.62) (size 1.6 1.6) (drill 0.8) (layers *.Cu *.Mask))
  (pad 9 thru_hole oval (at 0 20.32) (size 1.6 1.6) (drill 0.8) (layers *.Cu *.Mask))
  (pad 20 thru_hole oval (at 10.16 10.16) (size 1.6 1.6) (drill 0.8) (layers *.Cu *.Mask))
  (pad 8 thru_hole oval (at 0 17.78) (size 1.6 1.6) (drill 0.8) (layers *.Cu *.Mask))
  (pad 19 thru_hole oval (at 10.16 12.7) (size 1.6 1.6) (drill 0.8) (layers *.Cu *.Mask))
  (pad 7 thru_hole oval (at 0 15.24) (size 1.6 1.6) (drill 0.8) (layers *.Cu *.Mask))
  (pad 18 thru_hole oval (at 10.16 15.24) (size 1.6 1.6) (drill 0.8) (layers *.Cu *.Mask))
  (pad 6 thru_hole oval (at 0 12.7) (size 1.6 1.6) (drill 0.8) (layers *.Cu *.Mask))
  (pad 17 thru_hole oval (at 10.16 17.78) (size 1.6 1.6) (drill 0.8) (layers *.Cu *.Mask))
  (pad 5 thru_hole oval (at 0 10.16) (size 1.6 1.6) (drill 0.8) (layers *.Cu *.Mask))
  (pad 16 thru_hole oval (at 10.16 20.32) (size 1.6 1.6) (drill 0.8) (layers *.Cu *.Mask))
  (pad 4 thru_hole oval (at 0 7.62) (size 1.6 1.6) (drill 0.8) (layers *.Cu *.Mask))
  (pad 15 thru_hole oval (at 10.16 22.86) (size 1.6 1.6) (drill 0.8) (layers *.Cu *.Mask))
  (pad 3 thru_hole oval (at 0 5.08) (size 1.6 1.6) (drill 0.8) (layers *.Cu *.Mask))
  (pad 14 thru_hole oval (at 10.16 25.4) (size 1.6 1.6) (drill 0.8) (layers *.Cu *.Mask))
  (pad 2 thru_hole oval (at 0 2.54) (size 1.6 1.6) (drill 0.8) (layers *.Cu *.Mask))
  (pad 13 thru_hole oval (at 10.16 27.94) (size 1.6 1.6) (drill 0.8) (layers *.Cu *.Mask))
  (pad 1 thru_hole rect (at 0 0) (size 1.6 1.6) (drill 0.8) (layers *.Cu *.Mask))
  (model ${KISYS3DMOD}/Package_DIP.3dshapes/DIP-24_W10.16mm_Socket.wrl
    (at (xyz 0 0 0))
    (scale (xyz 1 1 1))
    (rotate (xyz 0 0 0))
  )
)
