(module DIP-24_W15.24mm_SMDSocket_SmallPads (layer F.Cu) (tedit 5F5C6495)
  (descr "24-lead though-hole mounted DIP package, row spacing 15.24 mm (600 mils), SMDSocket, SmallPads")
  (tags "THT DIP DIL PDIP 2.54mm 15.24mm 600mil SMDSocket SmallPads")
  (attr smd)
  (fp_text reference REF** (at 0 -16.3) (layer F.SilkS)
    (effects (font (size 1 1) (thickness 0.15)))
  )
  (fp_text value DIP-24_W15.24mm_SMDSocket_SmallPads (at 0 16.3) (layer F.Fab)
    (effects (font (size 1 1) (thickness 0.15)))
  )
  (fp_line (start 9.15 -15.55) (end -9.15 -15.55) (layer F.CrtYd) (width 0.05))
  (fp_line (start 9.15 15.55) (end 9.15 -15.55) (layer F.CrtYd) (width 0.05))
  (fp_line (start -9.15 15.55) (end 9.15 15.55) (layer F.CrtYd) (width 0.05))
  (fp_line (start -9.15 -15.55) (end -9.15 15.55) (layer F.CrtYd) (width 0.05))
  (fp_line (start 8.95 -15.36) (end -8.95 -15.36) (layer F.SilkS) (width 0.12))
  (fp_line (start 8.95 15.36) (end 8.95 -15.36) (layer F.SilkS) (width 0.12))
  (fp_line (start -8.95 15.36) (end 8.95 15.36) (layer F.SilkS) (width 0.12))
  (fp_line (start -8.95 -15.36) (end -8.95 15.36) (layer F.SilkS) (width 0.12))
  (fp_line (start 6.46 -15.3) (end 1 -15.3) (layer F.SilkS) (width 0.12))
  (fp_line (start 6.46 15.3) (end 6.46 -15.3) (layer F.SilkS) (width 0.12))
  (fp_line (start -6.46 15.3) (end 6.46 15.3) (layer F.SilkS) (width 0.12))
  (fp_line (start -6.46 -15.3) (end -6.46 15.3) (layer F.SilkS) (width 0.12))
  (fp_line (start -1 -15.3) (end -6.46 -15.3) (layer F.SilkS) (width 0.12))
  (fp_line (start 8.89 -15.3) (end -8.89 -15.3) (layer F.Fab) (width 0.1))
  (fp_line (start 8.89 15.3) (end 8.89 -15.3) (layer F.Fab) (width 0.1))
  (fp_line (start -8.89 15.3) (end 8.89 15.3) (layer F.Fab) (width 0.1))
  (fp_line (start -8.89 -15.3) (end -8.89 15.3) (layer F.Fab) (width 0.1))
  (fp_line (start -7.365 -14.24) (end -6.365 -15.24) (layer F.Fab) (width 0.1))
  (fp_line (start -7.365 15.24) (end -7.365 -14.24) (layer F.Fab) (width 0.1))
  (fp_line (start 7.365 15.24) (end -7.365 15.24) (layer F.Fab) (width 0.1))
  (fp_line (start 7.365 -15.24) (end 7.365 15.24) (layer F.Fab) (width 0.1))
  (fp_line (start -6.365 -15.24) (end 7.365 -15.24) (layer F.Fab) (width 0.1))
  (fp_text user %R (at 0 0) (layer F.Fab)
    (effects (font (size 1 1) (thickness 0.15)))
  )
  (fp_arc (start 0 -15.3) (end -1 -15.3) (angle -180) (layer F.SilkS) (width 0.12))
  (fp_circle (center -5.842 -14.605) (end -5.717 -14.605) (layer F.SilkS) (width 0.12))
  (fp_circle (center -5.842 -14.605) (end -5.792 -14.605) (layer F.SilkS) (width 0.12))
  (fp_circle (center -5.842 -14.605) (end -5.642 -14.605) (layer F.SilkS) (width 0.12))
  (pad 24 smd rect (at 7.62 -13.97) (size 1.6 1.6) (layers F.Cu F.Paste F.Mask))
  (pad 12 smd rect (at -7.62 13.97) (size 1.6 1.6) (layers F.Cu F.Paste F.Mask))
  (pad 23 smd rect (at 7.62 -11.43) (size 1.6 1.6) (layers F.Cu F.Paste F.Mask))
  (pad 11 smd rect (at -7.62 11.43) (size 1.6 1.6) (layers F.Cu F.Paste F.Mask))
  (pad 22 smd rect (at 7.62 -8.89) (size 1.6 1.6) (layers F.Cu F.Paste F.Mask))
  (pad 10 smd rect (at -7.62 8.89) (size 1.6 1.6) (layers F.Cu F.Paste F.Mask))
  (pad 21 smd rect (at 7.62 -6.35) (size 1.6 1.6) (layers F.Cu F.Paste F.Mask))
  (pad 9 smd rect (at -7.62 6.35) (size 1.6 1.6) (layers F.Cu F.Paste F.Mask))
  (pad 20 smd rect (at 7.62 -3.81) (size 1.6 1.6) (layers F.Cu F.Paste F.Mask))
  (pad 8 smd rect (at -7.62 3.81) (size 1.6 1.6) (layers F.Cu F.Paste F.Mask))
  (pad 19 smd rect (at 7.62 -1.27) (size 1.6 1.6) (layers F.Cu F.Paste F.Mask))
  (pad 7 smd rect (at -7.62 1.27) (size 1.6 1.6) (layers F.Cu F.Paste F.Mask))
  (pad 18 smd rect (at 7.62 1.27) (size 1.6 1.6) (layers F.Cu F.Paste F.Mask))
  (pad 6 smd rect (at -7.62 -1.27) (size 1.6 1.6) (layers F.Cu F.Paste F.Mask))
  (pad 17 smd rect (at 7.62 3.81) (size 1.6 1.6) (layers F.Cu F.Paste F.Mask))
  (pad 5 smd rect (at -7.62 -3.81) (size 1.6 1.6) (layers F.Cu F.Paste F.Mask))
  (pad 16 smd rect (at 7.62 6.35) (size 1.6 1.6) (layers F.Cu F.Paste F.Mask))
  (pad 4 smd rect (at -7.62 -6.35) (size 1.6 1.6) (layers F.Cu F.Paste F.Mask))
  (pad 15 smd rect (at 7.62 8.89) (size 1.6 1.6) (layers F.Cu F.Paste F.Mask))
  (pad 3 smd rect (at -7.62 -8.89) (size 1.6 1.6) (layers F.Cu F.Paste F.Mask))
  (pad 14 smd rect (at 7.62 11.43) (size 1.6 1.6) (layers F.Cu F.Paste F.Mask))
  (pad 2 smd rect (at -7.62 -11.43) (size 1.6 1.6) (layers F.Cu F.Paste F.Mask))
  (pad 13 smd rect (at 7.62 13.97) (size 1.6 1.6) (layers F.Cu F.Paste F.Mask))
  (pad 1 smd rect (at -7.62 -13.97) (size 1.6 1.6) (layers F.Cu F.Paste F.Mask))
  (model ${KISYS3DMOD}/Package_DIP.3dshapes/DIP-24_W15.24mm_SMDSocket.wrl
    (at (xyz 0 0 0))
    (scale (xyz 1 1 1))
    (rotate (xyz 0 0 0))
  )
)
