(module DIP-64_W15.24mm_SMDSocket_SmallPads (layer F.Cu) (tedit 5F5C6637)
  (descr "64-lead though-hole mounted DIP package, row spacing 15.24 mm (600 mils), SMDSocket, SmallPads")
  (tags "THT DIP DIL PDIP 2.54mm 15.24mm 600mil SMDSocket SmallPads")
  (attr smd)
  (fp_text reference REF** (at 0 -41.7) (layer F.SilkS)
    (effects (font (size 1 1) (thickness 0.15)))
  )
  (fp_text value DIP-64_W15.24mm_SMDSocket_SmallPads (at 0 41.7) (layer F.Fab)
    (effects (font (size 1 1) (thickness 0.15)))
  )
  (fp_line (start 9.15 -40.95) (end -9.15 -40.95) (layer F.CrtYd) (width 0.05))
  (fp_line (start 9.15 40.95) (end 9.15 -40.95) (layer F.CrtYd) (width 0.05))
  (fp_line (start -9.15 40.95) (end 9.15 40.95) (layer F.CrtYd) (width 0.05))
  (fp_line (start -9.15 -40.95) (end -9.15 40.95) (layer F.CrtYd) (width 0.05))
  (fp_line (start 8.95 -40.76) (end -8.95 -40.76) (layer F.SilkS) (width 0.12))
  (fp_line (start 8.95 40.76) (end 8.95 -40.76) (layer F.SilkS) (width 0.12))
  (fp_line (start -8.95 40.76) (end 8.95 40.76) (layer F.SilkS) (width 0.12))
  (fp_line (start -8.95 -40.76) (end -8.95 40.76) (layer F.SilkS) (width 0.12))
  (fp_line (start 6.46 -40.7) (end 1 -40.7) (layer F.SilkS) (width 0.12))
  (fp_line (start 6.46 40.7) (end 6.46 -40.7) (layer F.SilkS) (width 0.12))
  (fp_line (start -6.46 40.7) (end 6.46 40.7) (layer F.SilkS) (width 0.12))
  (fp_line (start -6.46 -40.7) (end -6.46 40.7) (layer F.SilkS) (width 0.12))
  (fp_line (start -1 -40.7) (end -6.46 -40.7) (layer F.SilkS) (width 0.12))
  (fp_line (start 8.89 -40.7) (end -8.89 -40.7) (layer F.Fab) (width 0.1))
  (fp_line (start 8.89 40.7) (end 8.89 -40.7) (layer F.Fab) (width 0.1))
  (fp_line (start -8.89 40.7) (end 8.89 40.7) (layer F.Fab) (width 0.1))
  (fp_line (start -8.89 -40.7) (end -8.89 40.7) (layer F.Fab) (width 0.1))
  (fp_line (start -7.365 -39.64) (end -6.365 -40.64) (layer F.Fab) (width 0.1))
  (fp_line (start -7.365 40.64) (end -7.365 -39.64) (layer F.Fab) (width 0.1))
  (fp_line (start 7.365 40.64) (end -7.365 40.64) (layer F.Fab) (width 0.1))
  (fp_line (start 7.365 -40.64) (end 7.365 40.64) (layer F.Fab) (width 0.1))
  (fp_line (start -6.365 -40.64) (end 7.365 -40.64) (layer F.Fab) (width 0.1))
  (fp_text user %R (at 0 0) (layer F.Fab)
    (effects (font (size 1 1) (thickness 0.15)))
  )
  (fp_arc (start 0 -40.7) (end -1 -40.7) (angle -180) (layer F.SilkS) (width 0.12))
  (fp_circle (center -5.842 -40.132) (end -5.717 -40.132) (layer F.SilkS) (width 0.12))
  (fp_circle (center -5.842 -40.132) (end -5.792 -40.132) (layer F.SilkS) (width 0.12))
  (fp_circle (center -5.842 -40.132) (end -5.642 -40.132) (layer F.SilkS) (width 0.12))
  (pad 64 smd rect (at 7.62 -39.37) (size 1.6 1.6) (layers F.Cu F.Paste F.Mask))
  (pad 32 smd rect (at -7.62 39.37) (size 1.6 1.6) (layers F.Cu F.Paste F.Mask))
  (pad 63 smd rect (at 7.62 -36.83) (size 1.6 1.6) (layers F.Cu F.Paste F.Mask))
  (pad 31 smd rect (at -7.62 36.83) (size 1.6 1.6) (layers F.Cu F.Paste F.Mask))
  (pad 62 smd rect (at 7.62 -34.29) (size 1.6 1.6) (layers F.Cu F.Paste F.Mask))
  (pad 30 smd rect (at -7.62 34.29) (size 1.6 1.6) (layers F.Cu F.Paste F.Mask))
  (pad 61 smd rect (at 7.62 -31.75) (size 1.6 1.6) (layers F.Cu F.Paste F.Mask))
  (pad 29 smd rect (at -7.62 31.75) (size 1.6 1.6) (layers F.Cu F.Paste F.Mask))
  (pad 60 smd rect (at 7.62 -29.21) (size 1.6 1.6) (layers F.Cu F.Paste F.Mask))
  (pad 28 smd rect (at -7.62 29.21) (size 1.6 1.6) (layers F.Cu F.Paste F.Mask))
  (pad 59 smd rect (at 7.62 -26.67) (size 1.6 1.6) (layers F.Cu F.Paste F.Mask))
  (pad 27 smd rect (at -7.62 26.67) (size 1.6 1.6) (layers F.Cu F.Paste F.Mask))
  (pad 58 smd rect (at 7.62 -24.13) (size 1.6 1.6) (layers F.Cu F.Paste F.Mask))
  (pad 26 smd rect (at -7.62 24.13) (size 1.6 1.6) (layers F.Cu F.Paste F.Mask))
  (pad 57 smd rect (at 7.62 -21.59) (size 1.6 1.6) (layers F.Cu F.Paste F.Mask))
  (pad 25 smd rect (at -7.62 21.59) (size 1.6 1.6) (layers F.Cu F.Paste F.Mask))
  (pad 56 smd rect (at 7.62 -19.05) (size 1.6 1.6) (layers F.Cu F.Paste F.Mask))
  (pad 24 smd rect (at -7.62 19.05) (size 1.6 1.6) (layers F.Cu F.Paste F.Mask))
  (pad 55 smd rect (at 7.62 -16.51) (size 1.6 1.6) (layers F.Cu F.Paste F.Mask))
  (pad 23 smd rect (at -7.62 16.51) (size 1.6 1.6) (layers F.Cu F.Paste F.Mask))
  (pad 54 smd rect (at 7.62 -13.97) (size 1.6 1.6) (layers F.Cu F.Paste F.Mask))
  (pad 22 smd rect (at -7.62 13.97) (size 1.6 1.6) (layers F.Cu F.Paste F.Mask))
  (pad 53 smd rect (at 7.62 -11.43) (size 1.6 1.6) (layers F.Cu F.Paste F.Mask))
  (pad 21 smd rect (at -7.62 11.43) (size 1.6 1.6) (layers F.Cu F.Paste F.Mask))
  (pad 52 smd rect (at 7.62 -8.89) (size 1.6 1.6) (layers F.Cu F.Paste F.Mask))
  (pad 20 smd rect (at -7.62 8.89) (size 1.6 1.6) (layers F.Cu F.Paste F.Mask))
  (pad 51 smd rect (at 7.62 -6.35) (size 1.6 1.6) (layers F.Cu F.Paste F.Mask))
  (pad 19 smd rect (at -7.62 6.35) (size 1.6 1.6) (layers F.Cu F.Paste F.Mask))
  (pad 50 smd rect (at 7.62 -3.81) (size 1.6 1.6) (layers F.Cu F.Paste F.Mask))
  (pad 18 smd rect (at -7.62 3.81) (size 1.6 1.6) (layers F.Cu F.Paste F.Mask))
  (pad 49 smd rect (at 7.62 -1.27) (size 1.6 1.6) (layers F.Cu F.Paste F.Mask))
  (pad 17 smd rect (at -7.62 1.27) (size 1.6 1.6) (layers F.Cu F.Paste F.Mask))
  (pad 48 smd rect (at 7.62 1.27) (size 1.6 1.6) (layers F.Cu F.Paste F.Mask))
  (pad 16 smd rect (at -7.62 -1.27) (size 1.6 1.6) (layers F.Cu F.Paste F.Mask))
  (pad 47 smd rect (at 7.62 3.81) (size 1.6 1.6) (layers F.Cu F.Paste F.Mask))
  (pad 15 smd rect (at -7.62 -3.81) (size 1.6 1.6) (layers F.Cu F.Paste F.Mask))
  (pad 46 smd rect (at 7.62 6.35) (size 1.6 1.6) (layers F.Cu F.Paste F.Mask))
  (pad 14 smd rect (at -7.62 -6.35) (size 1.6 1.6) (layers F.Cu F.Paste F.Mask))
  (pad 45 smd rect (at 7.62 8.89) (size 1.6 1.6) (layers F.Cu F.Paste F.Mask))
  (pad 13 smd rect (at -7.62 -8.89) (size 1.6 1.6) (layers F.Cu F.Paste F.Mask))
  (pad 44 smd rect (at 7.62 11.43) (size 1.6 1.6) (layers F.Cu F.Paste F.Mask))
  (pad 12 smd rect (at -7.62 -11.43) (size 1.6 1.6) (layers F.Cu F.Paste F.Mask))
  (pad 43 smd rect (at 7.62 13.97) (size 1.6 1.6) (layers F.Cu F.Paste F.Mask))
  (pad 11 smd rect (at -7.62 -13.97) (size 1.6 1.6) (layers F.Cu F.Paste F.Mask))
  (pad 42 smd rect (at 7.62 16.51) (size 1.6 1.6) (layers F.Cu F.Paste F.Mask))
  (pad 10 smd rect (at -7.62 -16.51) (size 1.6 1.6) (layers F.Cu F.Paste F.Mask))
  (pad 41 smd rect (at 7.62 19.05) (size 1.6 1.6) (layers F.Cu F.Paste F.Mask))
  (pad 9 smd rect (at -7.62 -19.05) (size 1.6 1.6) (layers F.Cu F.Paste F.Mask))
  (pad 40 smd rect (at 7.62 21.59) (size 1.6 1.6) (layers F.Cu F.Paste F.Mask))
  (pad 8 smd rect (at -7.62 -21.59) (size 1.6 1.6) (layers F.Cu F.Paste F.Mask))
  (pad 39 smd rect (at 7.62 24.13) (size 1.6 1.6) (layers F.Cu F.Paste F.Mask))
  (pad 7 smd rect (at -7.62 -24.13) (size 1.6 1.6) (layers F.Cu F.Paste F.Mask))
  (pad 38 smd rect (at 7.62 26.67) (size 1.6 1.6) (layers F.Cu F.Paste F.Mask))
  (pad 6 smd rect (at -7.62 -26.67) (size 1.6 1.6) (layers F.Cu F.Paste F.Mask))
  (pad 37 smd rect (at 7.62 29.21) (size 1.6 1.6) (layers F.Cu F.Paste F.Mask))
  (pad 5 smd rect (at -7.62 -29.21) (size 1.6 1.6) (layers F.Cu F.Paste F.Mask))
  (pad 36 smd rect (at 7.62 31.75) (size 1.6 1.6) (layers F.Cu F.Paste F.Mask))
  (pad 4 smd rect (at -7.62 -31.75) (size 1.6 1.6) (layers F.Cu F.Paste F.Mask))
  (pad 35 smd rect (at 7.62 34.29) (size 1.6 1.6) (layers F.Cu F.Paste F.Mask))
  (pad 3 smd rect (at -7.62 -34.29) (size 1.6 1.6) (layers F.Cu F.Paste F.Mask))
  (pad 34 smd rect (at 7.62 36.83) (size 1.6 1.6) (layers F.Cu F.Paste F.Mask))
  (pad 2 smd rect (at -7.62 -36.83) (size 1.6 1.6) (layers F.Cu F.Paste F.Mask))
  (pad 33 smd rect (at 7.62 39.37) (size 1.6 1.6) (layers F.Cu F.Paste F.Mask))
  (pad 1 smd rect (at -7.62 -39.37) (size 1.6 1.6) (layers F.Cu F.Paste F.Mask))
  (model ${KISYS3DMOD}/Package_DIP.3dshapes/DIP-64_W15.24mm_SMDSocket.wrl
    (at (xyz 0 0 0))
    (scale (xyz 1 1 1))
    (rotate (xyz 0 0 0))
  )
)
