(module DIP-42_W15.24mm_SMDSocket_SmallPads (layer F.Cu) (tedit 5F5C65D7)
  (descr "42-lead though-hole mounted DIP package, row spacing 15.24 mm (600 mils), SMDSocket, SmallPads")
  (tags "THT DIP DIL PDIP 2.54mm 15.24mm 600mil SMDSocket SmallPads")
  (attr smd)
  (fp_text reference REF** (at 0 -27.73) (layer F.SilkS)
    (effects (font (size 1 1) (thickness 0.15)))
  )
  (fp_text value DIP-42_W15.24mm_SMDSocket_SmallPads (at 0 27.73) (layer F.Fab)
    (effects (font (size 1 1) (thickness 0.15)))
  )
  (fp_line (start 9.15 -27) (end -9.15 -27) (layer F.CrtYd) (width 0.05))
  (fp_line (start 9.15 27) (end 9.15 -27) (layer F.CrtYd) (width 0.05))
  (fp_line (start -9.15 27) (end 9.15 27) (layer F.CrtYd) (width 0.05))
  (fp_line (start -9.15 -27) (end -9.15 27) (layer F.CrtYd) (width 0.05))
  (fp_line (start 8.95 -26.79) (end -8.95 -26.79) (layer F.SilkS) (width 0.12))
  (fp_line (start 8.95 26.79) (end 8.95 -26.79) (layer F.SilkS) (width 0.12))
  (fp_line (start -8.95 26.79) (end 8.95 26.79) (layer F.SilkS) (width 0.12))
  (fp_line (start -8.95 -26.79) (end -8.95 26.79) (layer F.SilkS) (width 0.12))
  (fp_line (start 6.46 -26.73) (end 1 -26.73) (layer F.SilkS) (width 0.12))
  (fp_line (start 6.46 26.73) (end 6.46 -26.73) (layer F.SilkS) (width 0.12))
  (fp_line (start -6.46 26.73) (end 6.46 26.73) (layer F.SilkS) (width 0.12))
  (fp_line (start -6.46 -26.73) (end -6.46 26.73) (layer F.SilkS) (width 0.12))
  (fp_line (start -1 -26.73) (end -6.46 -26.73) (layer F.SilkS) (width 0.12))
  (fp_line (start 8.89 -26.73) (end -8.89 -26.73) (layer F.Fab) (width 0.1))
  (fp_line (start 8.89 26.73) (end 8.89 -26.73) (layer F.Fab) (width 0.1))
  (fp_line (start -8.89 26.73) (end 8.89 26.73) (layer F.Fab) (width 0.1))
  (fp_line (start -8.89 -26.73) (end -8.89 26.73) (layer F.Fab) (width 0.1))
  (fp_line (start -7.365 -25.67) (end -6.365 -26.67) (layer F.Fab) (width 0.1))
  (fp_line (start -7.365 26.67) (end -7.365 -25.67) (layer F.Fab) (width 0.1))
  (fp_line (start 7.365 26.67) (end -7.365 26.67) (layer F.Fab) (width 0.1))
  (fp_line (start 7.365 -26.67) (end 7.365 26.67) (layer F.Fab) (width 0.1))
  (fp_line (start -6.365 -26.67) (end 7.365 -26.67) (layer F.Fab) (width 0.1))
  (fp_text user %R (at 0 0) (layer F.Fab)
    (effects (font (size 1 1) (thickness 0.15)))
  )
  (fp_arc (start 0 -26.73) (end -1 -26.73) (angle -180) (layer F.SilkS) (width 0.12))
  (fp_circle (center -5.842 -26.162) (end -5.717 -26.162) (layer F.SilkS) (width 0.12))
  (fp_circle (center -5.842 -26.162) (end -5.792 -26.162) (layer F.SilkS) (width 0.12))
  (fp_circle (center -5.842 -26.162) (end -5.642 -26.162) (layer F.SilkS) (width 0.12))
  (pad 42 smd rect (at 7.62 -25.4) (size 1.6 1.6) (layers F.Cu F.Paste F.Mask))
  (pad 21 smd rect (at -7.62 25.4) (size 1.6 1.6) (layers F.Cu F.Paste F.Mask))
  (pad 41 smd rect (at 7.62 -22.86) (size 1.6 1.6) (layers F.Cu F.Paste F.Mask))
  (pad 20 smd rect (at -7.62 22.86) (size 1.6 1.6) (layers F.Cu F.Paste F.Mask))
  (pad 40 smd rect (at 7.62 -20.32) (size 1.6 1.6) (layers F.Cu F.Paste F.Mask))
  (pad 19 smd rect (at -7.62 20.32) (size 1.6 1.6) (layers F.Cu F.Paste F.Mask))
  (pad 39 smd rect (at 7.62 -17.78) (size 1.6 1.6) (layers F.Cu F.Paste F.Mask))
  (pad 18 smd rect (at -7.62 17.78) (size 1.6 1.6) (layers F.Cu F.Paste F.Mask))
  (pad 38 smd rect (at 7.62 -15.24) (size 1.6 1.6) (layers F.Cu F.Paste F.Mask))
  (pad 17 smd rect (at -7.62 15.24) (size 1.6 1.6) (layers F.Cu F.Paste F.Mask))
  (pad 37 smd rect (at 7.62 -12.7) (size 1.6 1.6) (layers F.Cu F.Paste F.Mask))
  (pad 16 smd rect (at -7.62 12.7) (size 1.6 1.6) (layers F.Cu F.Paste F.Mask))
  (pad 36 smd rect (at 7.62 -10.16) (size 1.6 1.6) (layers F.Cu F.Paste F.Mask))
  (pad 15 smd rect (at -7.62 10.16) (size 1.6 1.6) (layers F.Cu F.Paste F.Mask))
  (pad 35 smd rect (at 7.62 -7.62) (size 1.6 1.6) (layers F.Cu F.Paste F.Mask))
  (pad 14 smd rect (at -7.62 7.62) (size 1.6 1.6) (layers F.Cu F.Paste F.Mask))
  (pad 34 smd rect (at 7.62 -5.08) (size 1.6 1.6) (layers F.Cu F.Paste F.Mask))
  (pad 13 smd rect (at -7.62 5.08) (size 1.6 1.6) (layers F.Cu F.Paste F.Mask))
  (pad 33 smd rect (at 7.62 -2.54) (size 1.6 1.6) (layers F.Cu F.Paste F.Mask))
  (pad 12 smd rect (at -7.62 2.54) (size 1.6 1.6) (layers F.Cu F.Paste F.Mask))
  (pad 32 smd rect (at 7.62 0) (size 1.6 1.6) (layers F.Cu F.Paste F.Mask))
  (pad 11 smd rect (at -7.62 0) (size 1.6 1.6) (layers F.Cu F.Paste F.Mask))
  (pad 31 smd rect (at 7.62 2.54) (size 1.6 1.6) (layers F.Cu F.Paste F.Mask))
  (pad 10 smd rect (at -7.62 -2.54) (size 1.6 1.6) (layers F.Cu F.Paste F.Mask))
  (pad 30 smd rect (at 7.62 5.08) (size 1.6 1.6) (layers F.Cu F.Paste F.Mask))
  (pad 9 smd rect (at -7.62 -5.08) (size 1.6 1.6) (layers F.Cu F.Paste F.Mask))
  (pad 29 smd rect (at 7.62 7.62) (size 1.6 1.6) (layers F.Cu F.Paste F.Mask))
  (pad 8 smd rect (at -7.62 -7.62) (size 1.6 1.6) (layers F.Cu F.Paste F.Mask))
  (pad 28 smd rect (at 7.62 10.16) (size 1.6 1.6) (layers F.Cu F.Paste F.Mask))
  (pad 7 smd rect (at -7.62 -10.16) (size 1.6 1.6) (layers F.Cu F.Paste F.Mask))
  (pad 27 smd rect (at 7.62 12.7) (size 1.6 1.6) (layers F.Cu F.Paste F.Mask))
  (pad 6 smd rect (at -7.62 -12.7) (size 1.6 1.6) (layers F.Cu F.Paste F.Mask))
  (pad 26 smd rect (at 7.62 15.24) (size 1.6 1.6) (layers F.Cu F.Paste F.Mask))
  (pad 5 smd rect (at -7.62 -15.24) (size 1.6 1.6) (layers F.Cu F.Paste F.Mask))
  (pad 25 smd rect (at 7.62 17.78) (size 1.6 1.6) (layers F.Cu F.Paste F.Mask))
  (pad 4 smd rect (at -7.62 -17.78) (size 1.6 1.6) (layers F.Cu F.Paste F.Mask))
  (pad 24 smd rect (at 7.62 20.32) (size 1.6 1.6) (layers F.Cu F.Paste F.Mask))
  (pad 3 smd rect (at -7.62 -20.32) (size 1.6 1.6) (layers F.Cu F.Paste F.Mask))
  (pad 23 smd rect (at 7.62 22.86) (size 1.6 1.6) (layers F.Cu F.Paste F.Mask))
  (pad 2 smd rect (at -7.62 -22.86) (size 1.6 1.6) (layers F.Cu F.Paste F.Mask))
  (pad 22 smd rect (at 7.62 25.4) (size 1.6 1.6) (layers F.Cu F.Paste F.Mask))
  (pad 1 smd rect (at -7.62 -25.4) (size 1.6 1.6) (layers F.Cu F.Paste F.Mask))
  (model ${KISYS3DMOD}/Package_DIP.3dshapes/DIP-42_W15.24mm_SMDSocket.wrl
    (at (xyz 0 0 0))
    (scale (xyz 1 1 1))
    (rotate (xyz 0 0 0))
  )
)
