(module DIP-32_W7.62mm (layer F.Cu) (tedit 5F5C6526)
  (descr "32-lead dip package, row spacing 7.62 mm (300 mils)")
  (tags "DIL DIP PDIP 2.54mm 7.62mm 300mil")
  (fp_text reference REF** (at 3.81 -2.39) (layer F.SilkS)
    (effects (font (size 1 1) (thickness 0.15)))
  )
  (fp_text value DIP-32_W7.62mm (at 3.81 40.49) (layer F.Fab)
    (effects (font (size 1 1) (thickness 0.15)))
  )
  (fp_line (start 8.68 -1.6) (end -1.1 -1.6) (layer F.CrtYd) (width 0.05))
  (fp_line (start 8.68 39.7) (end 8.68 -1.6) (layer F.CrtYd) (width 0.05))
  (fp_line (start -1.1 39.7) (end 8.68 39.7) (layer F.CrtYd) (width 0.05))
  (fp_line (start -1.1 -1.6) (end -1.1 39.7) (layer F.CrtYd) (width 0.05))
  (fp_line (start 6.58 -1.39) (end 4.81 -1.39) (layer F.SilkS) (width 0.12))
  (fp_line (start 6.58 39.49) (end 6.58 -1.39) (layer F.SilkS) (width 0.12))
  (fp_line (start 1.04 39.49) (end 6.58 39.49) (layer F.SilkS) (width 0.12))
  (fp_line (start 1.04 -1.39) (end 1.04 39.49) (layer F.SilkS) (width 0.12))
  (fp_line (start 2.81 -1.39) (end 1.04 -1.39) (layer F.SilkS) (width 0.12))
  (fp_line (start 0.255 -0.27) (end 1.255 -1.27) (layer F.Fab) (width 0.1))
  (fp_line (start 0.255 39.37) (end 0.255 -0.27) (layer F.Fab) (width 0.1))
  (fp_line (start 7.365 39.37) (end 0.255 39.37) (layer F.Fab) (width 0.1))
  (fp_line (start 7.365 -1.27) (end 7.365 39.37) (layer F.Fab) (width 0.1))
  (fp_line (start 1.255 -1.27) (end 7.365 -1.27) (layer F.Fab) (width 0.1))
  (fp_arc (start 3.81 -1.39) (end 2.81 -1.39) (angle -180) (layer F.SilkS) (width 0.12))
  (fp_text user %R (at 3.81 19.05) (layer F.Fab)
    (effects (font (size 1 1) (thickness 0.15)))
  )
  (fp_circle (center 1.651 -0.762) (end 1.776 -0.762) (layer F.SilkS) (width 0.12))
  (fp_circle (center 1.651 -0.762) (end 1.701 -0.762) (layer F.SilkS) (width 0.12))
  (fp_circle (center 1.651 -0.762) (end 1.851 -0.762) (layer F.SilkS) (width 0.12))
  (pad 32 thru_hole oval (at 7.62 0) (size 1.6 1.6) (drill 0.8) (layers *.Cu *.Mask))
  (pad 16 thru_hole oval (at 0 38.1) (size 1.6 1.6) (drill 0.8) (layers *.Cu *.Mask))
  (pad 31 thru_hole oval (at 7.62 2.54) (size 1.6 1.6) (drill 0.8) (layers *.Cu *.Mask))
  (pad 15 thru_hole oval (at 0 35.56) (size 1.6 1.6) (drill 0.8) (layers *.Cu *.Mask))
  (pad 30 thru_hole oval (at 7.62 5.08) (size 1.6 1.6) (drill 0.8) (layers *.Cu *.Mask))
  (pad 14 thru_hole oval (at 0 33.02) (size 1.6 1.6) (drill 0.8) (layers *.Cu *.Mask))
  (pad 29 thru_hole oval (at 7.62 7.62) (size 1.6 1.6) (drill 0.8) (layers *.Cu *.Mask))
  (pad 13 thru_hole oval (at 0 30.48) (size 1.6 1.6) (drill 0.8) (layers *.Cu *.Mask))
  (pad 28 thru_hole oval (at 7.62 10.16) (size 1.6 1.6) (drill 0.8) (layers *.Cu *.Mask))
  (pad 12 thru_hole oval (at 0 27.94) (size 1.6 1.6) (drill 0.8) (layers *.Cu *.Mask))
  (pad 27 thru_hole oval (at 7.62 12.7) (size 1.6 1.6) (drill 0.8) (layers *.Cu *.Mask))
  (pad 11 thru_hole oval (at 0 25.4) (size 1.6 1.6) (drill 0.8) (layers *.Cu *.Mask))
  (pad 26 thru_hole oval (at 7.62 15.24) (size 1.6 1.6) (drill 0.8) (layers *.Cu *.Mask))
  (pad 10 thru_hole oval (at 0 22.86) (size 1.6 1.6) (drill 0.8) (layers *.Cu *.Mask))
  (pad 25 thru_hole oval (at 7.62 17.78) (size 1.6 1.6) (drill 0.8) (layers *.Cu *.Mask))
  (pad 9 thru_hole oval (at 0 20.32) (size 1.6 1.6) (drill 0.8) (layers *.Cu *.Mask))
  (pad 24 thru_hole oval (at 7.62 20.32) (size 1.6 1.6) (drill 0.8) (layers *.Cu *.Mask))
  (pad 8 thru_hole oval (at 0 17.78) (size 1.6 1.6) (drill 0.8) (layers *.Cu *.Mask))
  (pad 23 thru_hole oval (at 7.62 22.86) (size 1.6 1.6) (drill 0.8) (layers *.Cu *.Mask))
  (pad 7 thru_hole oval (at 0 15.24) (size 1.6 1.6) (drill 0.8) (layers *.Cu *.Mask))
  (pad 22 thru_hole oval (at 7.62 25.4) (size 1.6 1.6) (drill 0.8) (layers *.Cu *.Mask))
  (pad 6 thru_hole oval (at 0 12.7) (size 1.6 1.6) (drill 0.8) (layers *.Cu *.Mask))
  (pad 21 thru_hole oval (at 7.62 27.94) (size 1.6 1.6) (drill 0.8) (layers *.Cu *.Mask))
  (pad 5 thru_hole oval (at 0 10.16) (size 1.6 1.6) (drill 0.8) (layers *.Cu *.Mask))
  (pad 20 thru_hole oval (at 7.62 30.48) (size 1.6 1.6) (drill 0.8) (layers *.Cu *.Mask))
  (pad 4 thru_hole oval (at 0 7.62) (size 1.6 1.6) (drill 0.8) (layers *.Cu *.Mask))
  (pad 19 thru_hole oval (at 7.62 33.02) (size 1.6 1.6) (drill 0.8) (layers *.Cu *.Mask))
  (pad 3 thru_hole oval (at 0 5.08) (size 1.6 1.6) (drill 0.8) (layers *.Cu *.Mask))
  (pad 18 thru_hole oval (at 7.62 35.56) (size 1.6 1.6) (drill 0.8) (layers *.Cu *.Mask))
  (pad 2 thru_hole oval (at 0 2.54) (size 1.6 1.6) (drill 0.8) (layers *.Cu *.Mask))
  (pad 17 thru_hole oval (at 7.62 38.1) (size 1.6 1.6) (drill 0.8) (layers *.Cu *.Mask))
  (pad 1 thru_hole rect (at 0 0) (size 1.6 1.6) (drill 0.8) (layers *.Cu *.Mask))
  (model ${KISYS3DMOD}/Package_DIP.3dshapes/DIP-32_W7.62mm.wrl
    (at (xyz 0 0 0))
    (scale (xyz 1 1 1))
    (rotate (xyz 0 0 0))
  )
)
