(module DIP-6_W10.16mm_LongPads (layer F.Cu) (tedit 5F5C607B)
  (descr "6-lead though-hole mounted DIP package, row spacing 10.16 mm (400 mils), LongPads")
  (tags "THT DIP DIL PDIP 2.54mm 10.16mm 400mil LongPads")
  (fp_text reference REF** (at 5.08 -2.33) (layer F.SilkS)
    (effects (font (size 1 1) (thickness 0.15)))
  )
  (fp_text value DIP-6_W10.16mm_LongPads (at 5.08 7.41) (layer F.Fab)
    (effects (font (size 1 1) (thickness 0.15)))
  )
  (fp_line (start 11.65 -1.55) (end -1.5 -1.55) (layer F.CrtYd) (width 0.05))
  (fp_line (start 11.65 6.6) (end 11.65 -1.55) (layer F.CrtYd) (width 0.05))
  (fp_line (start -1.5 6.6) (end 11.65 6.6) (layer F.CrtYd) (width 0.05))
  (fp_line (start -1.5 -1.55) (end -1.5 6.6) (layer F.CrtYd) (width 0.05))
  (fp_line (start 8.315 -1.33) (end 6.08 -1.33) (layer F.SilkS) (width 0.12))
  (fp_line (start 8.315 6.41) (end 8.315 -1.33) (layer F.SilkS) (width 0.12))
  (fp_line (start 1.845 6.41) (end 8.315 6.41) (layer F.SilkS) (width 0.12))
  (fp_line (start 1.845 -1.33) (end 1.845 6.41) (layer F.SilkS) (width 0.12))
  (fp_line (start 4.08 -1.33) (end 1.845 -1.33) (layer F.SilkS) (width 0.12))
  (fp_line (start 1.905 -0.27) (end 2.905 -1.27) (layer F.Fab) (width 0.1))
  (fp_line (start 1.905 6.35) (end 1.905 -0.27) (layer F.Fab) (width 0.1))
  (fp_line (start 8.255 6.35) (end 1.905 6.35) (layer F.Fab) (width 0.1))
  (fp_line (start 8.255 -1.27) (end 8.255 6.35) (layer F.Fab) (width 0.1))
  (fp_line (start 2.905 -1.27) (end 8.255 -1.27) (layer F.Fab) (width 0.1))
  (fp_text user %R (at 5.08 2.54) (layer F.Fab)
    (effects (font (size 1 1) (thickness 0.15)))
  )
  (fp_arc (start 5.08 -1.33) (end 4.08 -1.33) (angle -180) (layer F.SilkS) (width 0.12))
  (fp_circle (center 2.54 -0.635) (end 2.665 -0.635) (layer F.SilkS) (width 0.12))
  (fp_circle (center 2.54 -0.635) (end 2.59 -0.635) (layer F.SilkS) (width 0.12))
  (fp_circle (center 2.54 -0.635) (end 2.74 -0.635) (layer F.SilkS) (width 0.12))
  (pad 6 thru_hole oval (at 10.16 0) (size 2.4 1.6) (drill 0.8) (layers *.Cu *.Mask))
  (pad 3 thru_hole oval (at 0 5.08) (size 2.4 1.6) (drill 0.8) (layers *.Cu *.Mask))
  (pad 5 thru_hole oval (at 10.16 2.54) (size 2.4 1.6) (drill 0.8) (layers *.Cu *.Mask))
  (pad 2 thru_hole oval (at 0 2.54) (size 2.4 1.6) (drill 0.8) (layers *.Cu *.Mask))
  (pad 4 thru_hole oval (at 10.16 5.08) (size 2.4 1.6) (drill 0.8) (layers *.Cu *.Mask))
  (pad 1 thru_hole rect (at 0 0) (size 2.4 1.6) (drill 0.8) (layers *.Cu *.Mask))
  (model ${KISYS3DMOD}/Package_DIP.3dshapes/DIP-6_W10.16mm.wrl
    (at (xyz 0 0 0))
    (scale (xyz 1 1 1))
    (rotate (xyz 0 0 0))
  )
)
