(module DIP-10_W7.62mm (layer F.Cu) (tedit 5F5C610B)
  (descr "10-lead though-hole mounted DIP package, row spacing 7.62 mm (300 mils)")
  (tags "THT DIP DIL PDIP 2.54mm 7.62mm 300mil")
  (fp_text reference REF** (at 3.81 -2.33) (layer F.SilkS)
    (effects (font (size 1 1) (thickness 0.15)))
  )
  (fp_text value DIP-10_W7.62mm (at 3.81 12.49) (layer F.Fab)
    (effects (font (size 1 1) (thickness 0.15)))
  )
  (fp_line (start 8.7 -1.55) (end -1.1 -1.55) (layer F.CrtYd) (width 0.05))
  (fp_line (start 8.7 11.7) (end 8.7 -1.55) (layer F.CrtYd) (width 0.05))
  (fp_line (start -1.1 11.7) (end 8.7 11.7) (layer F.CrtYd) (width 0.05))
  (fp_line (start -1.1 -1.55) (end -1.1 11.7) (layer F.CrtYd) (width 0.05))
  (fp_line (start 6.46 -1.33) (end 4.81 -1.33) (layer F.SilkS) (width 0.12))
  (fp_line (start 6.46 11.49) (end 6.46 -1.33) (layer F.SilkS) (width 0.12))
  (fp_line (start 1.16 11.49) (end 6.46 11.49) (layer F.SilkS) (width 0.12))
  (fp_line (start 1.16 -1.33) (end 1.16 11.49) (layer F.SilkS) (width 0.12))
  (fp_line (start 2.81 -1.33) (end 1.16 -1.33) (layer F.SilkS) (width 0.12))
  (fp_line (start 0.635 -0.27) (end 1.635 -1.27) (layer F.Fab) (width 0.1))
  (fp_line (start 0.635 11.43) (end 0.635 -0.27) (layer F.Fab) (width 0.1))
  (fp_line (start 6.985 11.43) (end 0.635 11.43) (layer F.Fab) (width 0.1))
  (fp_line (start 6.985 -1.27) (end 6.985 11.43) (layer F.Fab) (width 0.1))
  (fp_line (start 1.635 -1.27) (end 6.985 -1.27) (layer F.Fab) (width 0.1))
  (fp_text user %R (at 3.81 5.08) (layer F.Fab)
    (effects (font (size 1 1) (thickness 0.15)))
  )
  (fp_arc (start 3.81 -1.33) (end 2.81 -1.33) (angle -180) (layer F.SilkS) (width 0.12))
  (fp_circle (center 1.905 -0.635) (end 2.03 -0.635) (layer F.SilkS) (width 0.12))
  (fp_circle (center 1.905 -0.635) (end 1.955 -0.635) (layer F.SilkS) (width 0.12))
  (fp_circle (center 1.905 -0.635) (end 2.105 -0.635) (layer F.SilkS) (width 0.12))
  (pad 10 thru_hole oval (at 7.62 0) (size 1.6 1.6) (drill 0.8) (layers *.Cu *.Mask))
  (pad 5 thru_hole oval (at 0 10.16) (size 1.6 1.6) (drill 0.8) (layers *.Cu *.Mask))
  (pad 9 thru_hole oval (at 7.62 2.54) (size 1.6 1.6) (drill 0.8) (layers *.Cu *.Mask))
  (pad 4 thru_hole oval (at 0 7.62) (size 1.6 1.6) (drill 0.8) (layers *.Cu *.Mask))
  (pad 8 thru_hole oval (at 7.62 5.08) (size 1.6 1.6) (drill 0.8) (layers *.Cu *.Mask))
  (pad 3 thru_hole oval (at 0 5.08) (size 1.6 1.6) (drill 0.8) (layers *.Cu *.Mask))
  (pad 7 thru_hole oval (at 7.62 7.62) (size 1.6 1.6) (drill 0.8) (layers *.Cu *.Mask))
  (pad 2 thru_hole oval (at 0 2.54) (size 1.6 1.6) (drill 0.8) (layers *.Cu *.Mask))
  (pad 6 thru_hole oval (at 7.62 10.16) (size 1.6 1.6) (drill 0.8) (layers *.Cu *.Mask))
  (pad 1 thru_hole rect (at 0 0) (size 1.6 1.6) (drill 0.8) (layers *.Cu *.Mask))
  (model ${KISYS3DMOD}/Package_DIP.3dshapes/DIP-10_W7.62mm.wrl
    (at (xyz 0 0 0))
    (scale (xyz 1 1 1))
    (rotate (xyz 0 0 0))
  )
)
