(module DIP-16_W7.62mm_SMDSocket_SmallPads (layer F.Cu) (tedit 5F5C62B4)
  (descr "16-lead though-hole mounted DIP package, row spacing 7.62 mm (300 mils), SMDSocket, SmallPads")
  (tags "THT DIP DIL PDIP 2.54mm 7.62mm 300mil SMDSocket SmallPads")
  (attr smd)
  (fp_text reference REF** (at 0 -11.22) (layer F.SilkS)
    (effects (font (size 1 1) (thickness 0.15)))
  )
  (fp_text value DIP-16_W7.62mm_SMDSocket_SmallPads (at 0 11.22) (layer F.Fab)
    (effects (font (size 1 1) (thickness 0.15)))
  )
  (fp_line (start 5.35 -10.5) (end -5.35 -10.5) (layer F.CrtYd) (width 0.05))
  (fp_line (start 5.35 10.5) (end 5.35 -10.5) (layer F.CrtYd) (width 0.05))
  (fp_line (start -5.35 10.5) (end 5.35 10.5) (layer F.CrtYd) (width 0.05))
  (fp_line (start -5.35 -10.5) (end -5.35 10.5) (layer F.CrtYd) (width 0.05))
  (fp_line (start 5.14 -10.28) (end -5.14 -10.28) (layer F.SilkS) (width 0.12))
  (fp_line (start 5.14 10.28) (end 5.14 -10.28) (layer F.SilkS) (width 0.12))
  (fp_line (start -5.14 10.28) (end 5.14 10.28) (layer F.SilkS) (width 0.12))
  (fp_line (start -5.14 -10.28) (end -5.14 10.28) (layer F.SilkS) (width 0.12))
  (fp_line (start 2.65 -10.22) (end 1 -10.22) (layer F.SilkS) (width 0.12))
  (fp_line (start 2.65 10.22) (end 2.65 -10.22) (layer F.SilkS) (width 0.12))
  (fp_line (start -2.65 10.22) (end 2.65 10.22) (layer F.SilkS) (width 0.12))
  (fp_line (start -2.65 -10.22) (end -2.65 10.22) (layer F.SilkS) (width 0.12))
  (fp_line (start -1 -10.22) (end -2.65 -10.22) (layer F.SilkS) (width 0.12))
  (fp_line (start 5.08 -10.22) (end -5.08 -10.22) (layer F.Fab) (width 0.1))
  (fp_line (start 5.08 10.22) (end 5.08 -10.22) (layer F.Fab) (width 0.1))
  (fp_line (start -5.08 10.22) (end 5.08 10.22) (layer F.Fab) (width 0.1))
  (fp_line (start -5.08 -10.22) (end -5.08 10.22) (layer F.Fab) (width 0.1))
  (fp_line (start -3.175 -9.16) (end -2.175 -10.16) (layer F.Fab) (width 0.1))
  (fp_line (start -3.175 10.16) (end -3.175 -9.16) (layer F.Fab) (width 0.1))
  (fp_line (start 3.175 10.16) (end -3.175 10.16) (layer F.Fab) (width 0.1))
  (fp_line (start 3.175 -10.16) (end 3.175 10.16) (layer F.Fab) (width 0.1))
  (fp_line (start -2.175 -10.16) (end 3.175 -10.16) (layer F.Fab) (width 0.1))
  (fp_text user %R (at 0 0) (layer F.Fab)
    (effects (font (size 1 1) (thickness 0.15)))
  )
  (fp_arc (start 0 -10.22) (end -1 -10.22) (angle -180) (layer F.SilkS) (width 0.12))
  (fp_circle (center -2.032 -9.525) (end -1.907 -9.525) (layer F.SilkS) (width 0.12))
  (fp_circle (center -2.032 -9.525) (end -1.982 -9.525) (layer F.SilkS) (width 0.12))
  (fp_circle (center -2.032 -9.525) (end -1.832 -9.525) (layer F.SilkS) (width 0.12))
  (pad 16 smd rect (at 3.81 -8.89) (size 1.6 1.6) (layers F.Cu F.Paste F.Mask))
  (pad 8 smd rect (at -3.81 8.89) (size 1.6 1.6) (layers F.Cu F.Paste F.Mask))
  (pad 15 smd rect (at 3.81 -6.35) (size 1.6 1.6) (layers F.Cu F.Paste F.Mask))
  (pad 7 smd rect (at -3.81 6.35) (size 1.6 1.6) (layers F.Cu F.Paste F.Mask))
  (pad 14 smd rect (at 3.81 -3.81) (size 1.6 1.6) (layers F.Cu F.Paste F.Mask))
  (pad 6 smd rect (at -3.81 3.81) (size 1.6 1.6) (layers F.Cu F.Paste F.Mask))
  (pad 13 smd rect (at 3.81 -1.27) (size 1.6 1.6) (layers F.Cu F.Paste F.Mask))
  (pad 5 smd rect (at -3.81 1.27) (size 1.6 1.6) (layers F.Cu F.Paste F.Mask))
  (pad 12 smd rect (at 3.81 1.27) (size 1.6 1.6) (layers F.Cu F.Paste F.Mask))
  (pad 4 smd rect (at -3.81 -1.27) (size 1.6 1.6) (layers F.Cu F.Paste F.Mask))
  (pad 11 smd rect (at 3.81 3.81) (size 1.6 1.6) (layers F.Cu F.Paste F.Mask))
  (pad 3 smd rect (at -3.81 -3.81) (size 1.6 1.6) (layers F.Cu F.Paste F.Mask))
  (pad 10 smd rect (at 3.81 6.35) (size 1.6 1.6) (layers F.Cu F.Paste F.Mask))
  (pad 2 smd rect (at -3.81 -6.35) (size 1.6 1.6) (layers F.Cu F.Paste F.Mask))
  (pad 9 smd rect (at 3.81 8.89) (size 1.6 1.6) (layers F.Cu F.Paste F.Mask))
  (pad 1 smd rect (at -3.81 -8.89) (size 1.6 1.6) (layers F.Cu F.Paste F.Mask))
  (model ${KISYS3DMOD}/Package_DIP.3dshapes/DIP-16_W7.62mm_SMDSocket.wrl
    (at (xyz 0 0 0))
    (scale (xyz 1 1 1))
    (rotate (xyz 0 0 0))
  )
)
