(module DIP-8-16_W7.62mm_Socket_LongPads (layer F.Cu) (tedit 5F5C609D)
  (descr "16-lead though-hole mounted DIP package, row spacing 7.62 mm (300 mils), Socket, LongPads")
  (tags "THT DIP DIL PDIP 2.54mm 7.62mm 300mil Socket LongPads")
  (fp_text reference REF** (at 3.81 -2.33) (layer F.SilkS)
    (effects (font (size 1 1) (thickness 0.15)))
  )
  (fp_text value DIP-8-16_W7.62mm_Socket_LongPads (at 3.81 20.11) (layer F.Fab)
    (effects (font (size 1 1) (thickness 0.15)))
  )
  (fp_line (start 9.14 -4.06) (end -1.52 -4.06) (layer F.CrtYd) (width 0.05))
  (fp_line (start 9.14 21.84) (end 9.14 -4.06) (layer F.CrtYd) (width 0.05))
  (fp_line (start -1.52 21.84) (end 9.14 21.84) (layer F.CrtYd) (width 0.05))
  (fp_line (start -1.52 -4.06) (end -1.52 21.84) (layer F.CrtYd) (width 0.05))
  (fp_line (start 9.06 -3.87) (end -1.44 -3.87) (layer F.SilkS) (width 0.12))
  (fp_line (start 9.06 21.65) (end 9.06 -3.87) (layer F.SilkS) (width 0.12))
  (fp_line (start -1.44 21.65) (end 9.06 21.65) (layer F.SilkS) (width 0.12))
  (fp_line (start -1.44 -3.87) (end -1.44 21.65) (layer F.SilkS) (width 0.12))
  (fp_line (start 6.06 -1.33) (end 4.81 -1.33) (layer F.SilkS) (width 0.12))
  (fp_line (start 6.06 19.11) (end 6.06 -1.33) (layer F.SilkS) (width 0.12))
  (fp_line (start 1.56 19.11) (end 6.06 19.11) (layer F.SilkS) (width 0.12))
  (fp_line (start 1.56 -1.33) (end 1.56 19.11) (layer F.SilkS) (width 0.12))
  (fp_line (start 2.81 -1.33) (end 1.56 -1.33) (layer F.SilkS) (width 0.12))
  (fp_line (start 8.89 -3.81) (end -1.27 -3.81) (layer F.Fab) (width 0.1))
  (fp_line (start 8.89 21.59) (end 8.89 -3.81) (layer F.Fab) (width 0.1))
  (fp_line (start -1.27 21.59) (end 8.89 21.59) (layer F.Fab) (width 0.1))
  (fp_line (start -1.27 -3.81) (end -1.27 21.59) (layer F.Fab) (width 0.1))
  (fp_line (start 0.635 -0.27) (end 1.635 -1.27) (layer F.Fab) (width 0.1))
  (fp_line (start 0.635 19.05) (end 0.635 -0.27) (layer F.Fab) (width 0.1))
  (fp_line (start 6.985 19.05) (end 0.635 19.05) (layer F.Fab) (width 0.1))
  (fp_line (start 6.985 -1.27) (end 6.985 19.05) (layer F.Fab) (width 0.1))
  (fp_line (start 1.635 -1.27) (end 6.985 -1.27) (layer F.Fab) (width 0.1))
  (fp_text user %R (at 3.81 8.89) (layer F.Fab)
    (effects (font (size 1 1) (thickness 0.15)))
  )
  (fp_arc (start 3.81 -1.33) (end 2.81 -1.33) (angle -180) (layer F.SilkS) (width 0.12))
  (fp_circle (center 2.286 -0.635) (end 2.411 -0.635) (layer F.SilkS) (width 0.12))
  (fp_circle (center 2.286 -0.635) (end 2.336 -0.635) (layer F.SilkS) (width 0.12))
  (fp_circle (center 2.286 -0.635) (end 2.486 -0.635) (layer F.SilkS) (width 0.12))
  (pad 8 thru_hole oval (at 7.62 0) (size 2.4 1.6) (drill 0.8) (layers *.Cu *.Mask))
  (pad 4 thru_hole oval (at 0 17.78) (size 2.4 1.6) (drill 0.8) (layers *.Cu *.Mask))
  (pad 7 thru_hole oval (at 7.62 2.54) (size 2.4 1.6) (drill 0.8) (layers *.Cu *.Mask))
  (pad 3 thru_hole oval (at 0 15.24) (size 2.4 1.6) (drill 0.8) (layers *.Cu *.Mask))
  (pad 6 thru_hole oval (at 7.62 15.24) (size 2.4 1.6) (drill 0.8) (layers *.Cu *.Mask))
  (pad 2 thru_hole oval (at 0 2.54) (size 2.4 1.6) (drill 0.8) (layers *.Cu *.Mask))
  (pad 5 thru_hole oval (at 7.62 17.78) (size 2.4 1.6) (drill 0.8) (layers *.Cu *.Mask))
  (pad 1 thru_hole rect (at 0 0) (size 2.4 1.6) (drill 0.8) (layers *.Cu *.Mask))
  (model ${KISYS3DMOD}/Package_DIP.3dshapes/DIP-8-16_W7.62mm_Socket_LongPads.wrl
    (at (xyz 0 0 0))
    (scale (xyz 1 1 1))
    (rotate (xyz 0 0 0))
  )
)
