(module DIP-40_W26.67mm_SMDSocket_LongPads (layer F.Cu) (tedit 5F5C65BF)
  (descr "40-lead though-hole mounted DIP package, row spacing 26.67 mm (1050 mils), SMDSocket, LongPads")
  (tags "THT DIP DIL PDIP 2.54mm 26.669999999999998mm 1050mil SMDSocket LongPads")
  (attr smd)
  (fp_text reference REF** (at 0 -26.46) (layer F.SilkS)
    (effects (font (size 1 1) (thickness 0.15)))
  )
  (fp_text value DIP-40_W26.67mm_SMDSocket_LongPads (at 0 26.46) (layer F.Fab)
    (effects (font (size 1 1) (thickness 0.15)))
  )
  (fp_line (start 15.15 -25.75) (end -15.15 -25.75) (layer F.CrtYd) (width 0.05))
  (fp_line (start 15.15 25.75) (end 15.15 -25.75) (layer F.CrtYd) (width 0.05))
  (fp_line (start -15.15 25.75) (end 15.15 25.75) (layer F.CrtYd) (width 0.05))
  (fp_line (start -15.15 -25.75) (end -15.15 25.75) (layer F.CrtYd) (width 0.05))
  (fp_line (start 15.125 -25.52) (end -15.125 -25.52) (layer F.SilkS) (width 0.12))
  (fp_line (start 15.125 25.52) (end 15.125 -25.52) (layer F.SilkS) (width 0.12))
  (fp_line (start -15.125 25.52) (end 15.125 25.52) (layer F.SilkS) (width 0.12))
  (fp_line (start -15.125 -25.52) (end -15.125 25.52) (layer F.SilkS) (width 0.12))
  (fp_line (start 11.425 -25.46) (end 1 -25.46) (layer F.SilkS) (width 0.12))
  (fp_line (start 11.425 25.46) (end 11.425 -25.46) (layer F.SilkS) (width 0.12))
  (fp_line (start -11.425 25.46) (end 11.425 25.46) (layer F.SilkS) (width 0.12))
  (fp_line (start -11.425 -25.46) (end -11.425 25.46) (layer F.SilkS) (width 0.12))
  (fp_line (start -1 -25.46) (end -11.425 -25.46) (layer F.SilkS) (width 0.12))
  (fp_line (start 13.97 -25.46) (end -13.97 -25.46) (layer F.Fab) (width 0.1))
  (fp_line (start 13.97 25.46) (end 13.97 -25.46) (layer F.Fab) (width 0.1))
  (fp_line (start -13.97 25.46) (end 13.97 25.46) (layer F.Fab) (width 0.1))
  (fp_line (start -13.97 -25.46) (end -13.97 25.46) (layer F.Fab) (width 0.1))
  (fp_line (start -12.445 -24.4) (end -11.445 -25.4) (layer F.Fab) (width 0.1))
  (fp_line (start -12.445 25.4) (end -12.445 -24.4) (layer F.Fab) (width 0.1))
  (fp_line (start 12.445 25.4) (end -12.445 25.4) (layer F.Fab) (width 0.1))
  (fp_line (start 12.445 -25.4) (end 12.445 25.4) (layer F.Fab) (width 0.1))
  (fp_line (start -11.445 -25.4) (end 12.445 -25.4) (layer F.Fab) (width 0.1))
  (fp_text user %R (at 0 0) (layer F.Fab)
    (effects (font (size 1 1) (thickness 0.15)))
  )
  (fp_arc (start 0 -25.46) (end -1 -25.46) (angle -180) (layer F.SilkS) (width 0.12))
  (fp_circle (center -10.795 -24.892) (end -10.67 -24.892) (layer F.SilkS) (width 0.12))
  (fp_circle (center -10.795 -24.892) (end -10.745 -24.892) (layer F.SilkS) (width 0.12))
  (fp_circle (center -10.795 -24.892) (end -10.595 -24.892) (layer F.SilkS) (width 0.12))
  (pad 40 smd rect (at 13.335 -24.13) (size 3.1 1.6) (layers F.Cu F.Paste F.Mask))
  (pad 20 smd rect (at -13.335 24.13) (size 3.1 1.6) (layers F.Cu F.Paste F.Mask))
  (pad 39 smd rect (at 13.335 -21.59) (size 3.1 1.6) (layers F.Cu F.Paste F.Mask))
  (pad 19 smd rect (at -13.335 21.59) (size 3.1 1.6) (layers F.Cu F.Paste F.Mask))
  (pad 38 smd rect (at 13.335 -19.05) (size 3.1 1.6) (layers F.Cu F.Paste F.Mask))
  (pad 18 smd rect (at -13.335 19.05) (size 3.1 1.6) (layers F.Cu F.Paste F.Mask))
  (pad 37 smd rect (at 13.335 -16.51) (size 3.1 1.6) (layers F.Cu F.Paste F.Mask))
  (pad 17 smd rect (at -13.335 16.51) (size 3.1 1.6) (layers F.Cu F.Paste F.Mask))
  (pad 36 smd rect (at 13.335 -13.97) (size 3.1 1.6) (layers F.Cu F.Paste F.Mask))
  (pad 16 smd rect (at -13.335 13.97) (size 3.1 1.6) (layers F.Cu F.Paste F.Mask))
  (pad 35 smd rect (at 13.335 -11.43) (size 3.1 1.6) (layers F.Cu F.Paste F.Mask))
  (pad 15 smd rect (at -13.335 11.43) (size 3.1 1.6) (layers F.Cu F.Paste F.Mask))
  (pad 34 smd rect (at 13.335 -8.89) (size 3.1 1.6) (layers F.Cu F.Paste F.Mask))
  (pad 14 smd rect (at -13.335 8.89) (size 3.1 1.6) (layers F.Cu F.Paste F.Mask))
  (pad 33 smd rect (at 13.335 -6.35) (size 3.1 1.6) (layers F.Cu F.Paste F.Mask))
  (pad 13 smd rect (at -13.335 6.35) (size 3.1 1.6) (layers F.Cu F.Paste F.Mask))
  (pad 32 smd rect (at 13.335 -3.81) (size 3.1 1.6) (layers F.Cu F.Paste F.Mask))
  (pad 12 smd rect (at -13.335 3.81) (size 3.1 1.6) (layers F.Cu F.Paste F.Mask))
  (pad 31 smd rect (at 13.335 -1.27) (size 3.1 1.6) (layers F.Cu F.Paste F.Mask))
  (pad 11 smd rect (at -13.335 1.27) (size 3.1 1.6) (layers F.Cu F.Paste F.Mask))
  (pad 30 smd rect (at 13.335 1.27) (size 3.1 1.6) (layers F.Cu F.Paste F.Mask))
  (pad 10 smd rect (at -13.335 -1.27) (size 3.1 1.6) (layers F.Cu F.Paste F.Mask))
  (pad 29 smd rect (at 13.335 3.81) (size 3.1 1.6) (layers F.Cu F.Paste F.Mask))
  (pad 9 smd rect (at -13.335 -3.81) (size 3.1 1.6) (layers F.Cu F.Paste F.Mask))
  (pad 28 smd rect (at 13.335 6.35) (size 3.1 1.6) (layers F.Cu F.Paste F.Mask))
  (pad 8 smd rect (at -13.335 -6.35) (size 3.1 1.6) (layers F.Cu F.Paste F.Mask))
  (pad 27 smd rect (at 13.335 8.89) (size 3.1 1.6) (layers F.Cu F.Paste F.Mask))
  (pad 7 smd rect (at -13.335 -8.89) (size 3.1 1.6) (layers F.Cu F.Paste F.Mask))
  (pad 26 smd rect (at 13.335 11.43) (size 3.1 1.6) (layers F.Cu F.Paste F.Mask))
  (pad 6 smd rect (at -13.335 -11.43) (size 3.1 1.6) (layers F.Cu F.Paste F.Mask))
  (pad 25 smd rect (at 13.335 13.97) (size 3.1 1.6) (layers F.Cu F.Paste F.Mask))
  (pad 5 smd rect (at -13.335 -13.97) (size 3.1 1.6) (layers F.Cu F.Paste F.Mask))
  (pad 24 smd rect (at 13.335 16.51) (size 3.1 1.6) (layers F.Cu F.Paste F.Mask))
  (pad 4 smd rect (at -13.335 -16.51) (size 3.1 1.6) (layers F.Cu F.Paste F.Mask))
  (pad 23 smd rect (at 13.335 19.05) (size 3.1 1.6) (layers F.Cu F.Paste F.Mask))
  (pad 3 smd rect (at -13.335 -19.05) (size 3.1 1.6) (layers F.Cu F.Paste F.Mask))
  (pad 22 smd rect (at 13.335 21.59) (size 3.1 1.6) (layers F.Cu F.Paste F.Mask))
  (pad 2 smd rect (at -13.335 -21.59) (size 3.1 1.6) (layers F.Cu F.Paste F.Mask))
  (pad 21 smd rect (at 13.335 24.13) (size 3.1 1.6) (layers F.Cu F.Paste F.Mask))
  (pad 1 smd rect (at -13.335 -24.13) (size 3.1 1.6) (layers F.Cu F.Paste F.Mask))
  (model ${KISYS3DMOD}/Package_DIP.3dshapes/DIP-40_W26.67mm_SMDSocket.wrl
    (at (xyz 0 0 0))
    (scale (xyz 1 1 1))
    (rotate (xyz 0 0 0))
  )
)
