(module DIP-18_W8.89mm_SMDSocket_LongPads (layer F.Cu) (tedit 5F5C6313)
  (descr "18-lead though-hole mounted DIP package, row spacing 8.89 mm (350 mils), SMDSocket, LongPads")
  (tags "THT DIP DIL PDIP 2.54mm 8.89mm 350mil SMDSocket LongPads")
  (attr smd)
  (fp_text reference REF** (at 0 -12.49) (layer F.SilkS)
    (effects (font (size 1 1) (thickness 0.15)))
  )
  (fp_text value DIP-18_W8.89mm_SMDSocket_LongPads (at 0 12.49) (layer F.Fab)
    (effects (font (size 1 1) (thickness 0.15)))
  )
  (fp_line (start 6.25 -11.75) (end -6.25 -11.75) (layer F.CrtYd) (width 0.05))
  (fp_line (start 6.25 11.75) (end 6.25 -11.75) (layer F.CrtYd) (width 0.05))
  (fp_line (start -6.25 11.75) (end 6.25 11.75) (layer F.CrtYd) (width 0.05))
  (fp_line (start -6.25 -11.75) (end -6.25 11.75) (layer F.CrtYd) (width 0.05))
  (fp_line (start 6.235 -11.55) (end -6.235 -11.55) (layer F.SilkS) (width 0.12))
  (fp_line (start 6.235 11.55) (end 6.235 -11.55) (layer F.SilkS) (width 0.12))
  (fp_line (start -6.235 11.55) (end 6.235 11.55) (layer F.SilkS) (width 0.12))
  (fp_line (start -6.235 -11.55) (end -6.235 11.55) (layer F.SilkS) (width 0.12))
  (fp_line (start 2.535 -11.49) (end 1 -11.49) (layer F.SilkS) (width 0.12))
  (fp_line (start 2.535 11.49) (end 2.535 -11.49) (layer F.SilkS) (width 0.12))
  (fp_line (start -2.535 11.49) (end 2.535 11.49) (layer F.SilkS) (width 0.12))
  (fp_line (start -2.535 -11.49) (end -2.535 11.49) (layer F.SilkS) (width 0.12))
  (fp_line (start -1 -11.49) (end -2.535 -11.49) (layer F.SilkS) (width 0.12))
  (fp_line (start 5.08 -11.49) (end -5.08 -11.49) (layer F.Fab) (width 0.1))
  (fp_line (start 5.08 11.49) (end 5.08 -11.49) (layer F.Fab) (width 0.1))
  (fp_line (start -5.08 11.49) (end 5.08 11.49) (layer F.Fab) (width 0.1))
  (fp_line (start -5.08 -11.49) (end -5.08 11.49) (layer F.Fab) (width 0.1))
  (fp_line (start -3.175 -10.43) (end -2.175 -11.43) (layer F.Fab) (width 0.1))
  (fp_line (start -3.175 11.43) (end -3.175 -10.43) (layer F.Fab) (width 0.1))
  (fp_line (start 3.175 11.43) (end -3.175 11.43) (layer F.Fab) (width 0.1))
  (fp_line (start 3.175 -11.43) (end 3.175 11.43) (layer F.Fab) (width 0.1))
  (fp_line (start -2.175 -11.43) (end 3.175 -11.43) (layer F.Fab) (width 0.1))
  (fp_text user %R (at 0 0) (layer F.Fab)
    (effects (font (size 1 1) (thickness 0.15)))
  )
  (fp_arc (start 0 -11.49) (end -1 -11.49) (angle -180) (layer F.SilkS) (width 0.12))
  (fp_circle (center -1.905 -10.795) (end -1.78 -10.795) (layer F.SilkS) (width 0.12))
  (fp_circle (center -1.905 -10.795) (end -1.855 -10.795) (layer F.SilkS) (width 0.12))
  (fp_circle (center -1.905 -10.795) (end -1.705 -10.795) (layer F.SilkS) (width 0.12))
  (pad 18 smd rect (at 4.445 -10.16) (size 3.1 1.6) (layers F.Cu F.Paste F.Mask))
  (pad 9 smd rect (at -4.445 10.16) (size 3.1 1.6) (layers F.Cu F.Paste F.Mask))
  (pad 17 smd rect (at 4.445 -7.62) (size 3.1 1.6) (layers F.Cu F.Paste F.Mask))
  (pad 8 smd rect (at -4.445 7.62) (size 3.1 1.6) (layers F.Cu F.Paste F.Mask))
  (pad 16 smd rect (at 4.445 -5.08) (size 3.1 1.6) (layers F.Cu F.Paste F.Mask))
  (pad 7 smd rect (at -4.445 5.08) (size 3.1 1.6) (layers F.Cu F.Paste F.Mask))
  (pad 15 smd rect (at 4.445 -2.54) (size 3.1 1.6) (layers F.Cu F.Paste F.Mask))
  (pad 6 smd rect (at -4.445 2.54) (size 3.1 1.6) (layers F.Cu F.Paste F.Mask))
  (pad 14 smd rect (at 4.445 0) (size 3.1 1.6) (layers F.Cu F.Paste F.Mask))
  (pad 5 smd rect (at -4.445 0) (size 3.1 1.6) (layers F.Cu F.Paste F.Mask))
  (pad 13 smd rect (at 4.445 2.54) (size 3.1 1.6) (layers F.Cu F.Paste F.Mask))
  (pad 4 smd rect (at -4.445 -2.54) (size 3.1 1.6) (layers F.Cu F.Paste F.Mask))
  (pad 12 smd rect (at 4.445 5.08) (size 3.1 1.6) (layers F.Cu F.Paste F.Mask))
  (pad 3 smd rect (at -4.445 -5.08) (size 3.1 1.6) (layers F.Cu F.Paste F.Mask))
  (pad 11 smd rect (at 4.445 7.62) (size 3.1 1.6) (layers F.Cu F.Paste F.Mask))
  (pad 2 smd rect (at -4.445 -7.62) (size 3.1 1.6) (layers F.Cu F.Paste F.Mask))
  (pad 10 smd rect (at 4.445 10.16) (size 3.1 1.6) (layers F.Cu F.Paste F.Mask))
  (pad 1 smd rect (at -4.445 -10.16) (size 3.1 1.6) (layers F.Cu F.Paste F.Mask))
  (model ${KISYS3DMOD}/Package_DIP.3dshapes/DIP-18_W8.89mm_SMDSocket.wrl
    (at (xyz 0 0 0))
    (scale (xyz 1 1 1))
    (rotate (xyz 0 0 0))
  )
)
