(module DIP-6_W8.89mm_SMDSocket_LongPads (layer F.Cu) (tedit 5F5C6065)
  (descr "6-lead though-hole mounted DIP package, row spacing 8.89 mm (350 mils), SMDSocket, LongPads")
  (tags "THT DIP DIL PDIP 2.54mm 8.89mm 350mil SMDSocket LongPads")
  (attr smd)
  (fp_text reference REF** (at 0 -4.87) (layer F.SilkS)
    (effects (font (size 1 1) (thickness 0.15)))
  )
  (fp_text value DIP-6_W8.89mm_SMDSocket_LongPads (at 0 4.87) (layer F.Fab)
    (effects (font (size 1 1) (thickness 0.15)))
  )
  (fp_line (start 6.25 -4.15) (end -6.25 -4.15) (layer F.CrtYd) (width 0.05))
  (fp_line (start 6.25 4.15) (end 6.25 -4.15) (layer F.CrtYd) (width 0.05))
  (fp_line (start -6.25 4.15) (end 6.25 4.15) (layer F.CrtYd) (width 0.05))
  (fp_line (start -6.25 -4.15) (end -6.25 4.15) (layer F.CrtYd) (width 0.05))
  (fp_line (start 6.235 -3.93) (end -6.235 -3.93) (layer F.SilkS) (width 0.12))
  (fp_line (start 6.235 3.93) (end 6.235 -3.93) (layer F.SilkS) (width 0.12))
  (fp_line (start -6.235 3.93) (end 6.235 3.93) (layer F.SilkS) (width 0.12))
  (fp_line (start -6.235 -3.93) (end -6.235 3.93) (layer F.SilkS) (width 0.12))
  (fp_line (start 2.535 -3.87) (end 1 -3.87) (layer F.SilkS) (width 0.12))
  (fp_line (start 2.535 3.87) (end 2.535 -3.87) (layer F.SilkS) (width 0.12))
  (fp_line (start -2.535 3.87) (end 2.535 3.87) (layer F.SilkS) (width 0.12))
  (fp_line (start -2.535 -3.87) (end -2.535 3.87) (layer F.SilkS) (width 0.12))
  (fp_line (start -1 -3.87) (end -2.535 -3.87) (layer F.SilkS) (width 0.12))
  (fp_line (start 5.08 -3.87) (end -5.08 -3.87) (layer F.Fab) (width 0.1))
  (fp_line (start 5.08 3.87) (end 5.08 -3.87) (layer F.Fab) (width 0.1))
  (fp_line (start -5.08 3.87) (end 5.08 3.87) (layer F.Fab) (width 0.1))
  (fp_line (start -5.08 -3.87) (end -5.08 3.87) (layer F.Fab) (width 0.1))
  (fp_line (start -3.175 -2.81) (end -2.175 -3.81) (layer F.Fab) (width 0.1))
  (fp_line (start -3.175 3.81) (end -3.175 -2.81) (layer F.Fab) (width 0.1))
  (fp_line (start 3.175 3.81) (end -3.175 3.81) (layer F.Fab) (width 0.1))
  (fp_line (start 3.175 -3.81) (end 3.175 3.81) (layer F.Fab) (width 0.1))
  (fp_line (start -2.175 -3.81) (end 3.175 -3.81) (layer F.Fab) (width 0.1))
  (fp_text user %R (at 0 0) (layer F.Fab)
    (effects (font (size 1 1) (thickness 0.15)))
  )
  (fp_arc (start 0 -3.87) (end -1 -3.87) (angle -180) (layer F.SilkS) (width 0.12))
  (fp_circle (center -1.778 -3.175) (end -1.653 -3.175) (layer F.SilkS) (width 0.12))
  (fp_circle (center -1.778 -3.175) (end -1.728 -3.175) (layer F.SilkS) (width 0.12))
  (fp_circle (center -1.778 -3.175) (end -1.578 -3.175) (layer F.SilkS) (width 0.12))
  (pad 6 smd rect (at 4.445 -2.54) (size 3.1 1.6) (layers F.Cu F.Paste F.Mask))
  (pad 3 smd rect (at -4.445 2.54) (size 3.1 1.6) (layers F.Cu F.Paste F.Mask))
  (pad 5 smd rect (at 4.445 0) (size 3.1 1.6) (layers F.Cu F.Paste F.Mask))
  (pad 2 smd rect (at -4.445 0) (size 3.1 1.6) (layers F.Cu F.Paste F.Mask))
  (pad 4 smd rect (at 4.445 2.54) (size 3.1 1.6) (layers F.Cu F.Paste F.Mask))
  (pad 1 smd rect (at -4.445 -2.54) (size 3.1 1.6) (layers F.Cu F.Paste F.Mask))
  (model ${KISYS3DMOD}/Package_DIP.3dshapes/DIP-6_W8.89mm_SMDSocket.wrl
    (at (xyz 0 0 0))
    (scale (xyz 1 1 1))
    (rotate (xyz 0 0 0))
  )
)
