(module DIP-6_W7.62mm_SMDSocket_SmallPads (layer F.Cu) (tedit 5F5C603C)
  (descr "6-lead though-hole mounted DIP package, row spacing 7.62 mm (300 mils), SMDSocket, SmallPads")
  (tags "THT DIP DIL PDIP 2.54mm 7.62mm 300mil SMDSocket SmallPads")
  (attr smd)
  (fp_text reference REF** (at 0 -4.87) (layer F.SilkS)
    (effects (font (size 1 1) (thickness 0.15)))
  )
  (fp_text value DIP-6_W7.62mm_SMDSocket_SmallPads (at 0 4.87) (layer F.Fab)
    (effects (font (size 1 1) (thickness 0.15)))
  )
  (fp_line (start 5.35 -4.15) (end -5.35 -4.15) (layer F.CrtYd) (width 0.05))
  (fp_line (start 5.35 4.15) (end 5.35 -4.15) (layer F.CrtYd) (width 0.05))
  (fp_line (start -5.35 4.15) (end 5.35 4.15) (layer F.CrtYd) (width 0.05))
  (fp_line (start -5.35 -4.15) (end -5.35 4.15) (layer F.CrtYd) (width 0.05))
  (fp_line (start 5.14 -3.93) (end -5.14 -3.93) (layer F.SilkS) (width 0.12))
  (fp_line (start 5.14 3.93) (end 5.14 -3.93) (layer F.SilkS) (width 0.12))
  (fp_line (start -5.14 3.93) (end 5.14 3.93) (layer F.SilkS) (width 0.12))
  (fp_line (start -5.14 -3.93) (end -5.14 3.93) (layer F.SilkS) (width 0.12))
  (fp_line (start 2.65 -3.87) (end 1 -3.87) (layer F.SilkS) (width 0.12))
  (fp_line (start 2.65 3.87) (end 2.65 -3.87) (layer F.SilkS) (width 0.12))
  (fp_line (start -2.65 3.87) (end 2.65 3.87) (layer F.SilkS) (width 0.12))
  (fp_line (start -2.65 -3.87) (end -2.65 3.87) (layer F.SilkS) (width 0.12))
  (fp_line (start -1 -3.87) (end -2.65 -3.87) (layer F.SilkS) (width 0.12))
  (fp_line (start 5.08 -3.87) (end -5.08 -3.87) (layer F.Fab) (width 0.1))
  (fp_line (start 5.08 3.87) (end 5.08 -3.87) (layer F.Fab) (width 0.1))
  (fp_line (start -5.08 3.87) (end 5.08 3.87) (layer F.Fab) (width 0.1))
  (fp_line (start -5.08 -3.87) (end -5.08 3.87) (layer F.Fab) (width 0.1))
  (fp_line (start -3.175 -2.81) (end -2.175 -3.81) (layer F.Fab) (width 0.1))
  (fp_line (start -3.175 3.81) (end -3.175 -2.81) (layer F.Fab) (width 0.1))
  (fp_line (start 3.175 3.81) (end -3.175 3.81) (layer F.Fab) (width 0.1))
  (fp_line (start 3.175 -3.81) (end 3.175 3.81) (layer F.Fab) (width 0.1))
  (fp_line (start -2.175 -3.81) (end 3.175 -3.81) (layer F.Fab) (width 0.1))
  (fp_text user %R (at 0 0) (layer F.Fab)
    (effects (font (size 1 1) (thickness 0.15)))
  )
  (fp_arc (start 0 -3.87) (end -1 -3.87) (angle -180) (layer F.SilkS) (width 0.12))
  (fp_circle (center -1.905 -3.175) (end -1.78 -3.175) (layer F.SilkS) (width 0.12))
  (fp_circle (center -1.905 -3.175) (end -1.855 -3.175) (layer F.SilkS) (width 0.12))
  (fp_circle (center -1.905 -3.175) (end -1.705 -3.175) (layer F.SilkS) (width 0.12))
  (pad 6 smd rect (at 3.81 -2.54) (size 1.6 1.6) (layers F.Cu F.Paste F.Mask))
  (pad 3 smd rect (at -3.81 2.54) (size 1.6 1.6) (layers F.Cu F.Paste F.Mask))
  (pad 5 smd rect (at 3.81 0) (size 1.6 1.6) (layers F.Cu F.Paste F.Mask))
  (pad 2 smd rect (at -3.81 0) (size 1.6 1.6) (layers F.Cu F.Paste F.Mask))
  (pad 4 smd rect (at 3.81 2.54) (size 1.6 1.6) (layers F.Cu F.Paste F.Mask))
  (pad 1 smd rect (at -3.81 -2.54) (size 1.6 1.6) (layers F.Cu F.Paste F.Mask))
  (model ${KISYS3DMOD}/Package_DIP.3dshapes/DIP-6_W7.62mm_SMDSocket.wrl
    (at (xyz 0 0 0))
    (scale (xyz 1 1 1))
    (rotate (xyz 0 0 0))
  )
)
