(module SMDIP-4_W9.53mm (layer F.Cu) (tedit 5F5C676E)
  (descr "4-lead surface-mounted (SMD) DIP package, row spacing 9.53 mm (375 mils)")
  (tags "SMD DIP DIL PDIP SMDIP 2.54mm 9.53mm 375mil")
  (attr smd)
  (fp_text reference REF** (at 0 -3.6) (layer F.SilkS)
    (effects (font (size 1 1) (thickness 0.15)))
  )
  (fp_text value SMDIP-4_W9.53mm (at 0 3.6) (layer F.Fab)
    (effects (font (size 1 1) (thickness 0.15)))
  )
  (fp_line (start 6.05 -2.8) (end -6.05 -2.8) (layer F.CrtYd) (width 0.05))
  (fp_line (start 6.05 2.8) (end 6.05 -2.8) (layer F.CrtYd) (width 0.05))
  (fp_line (start -6.05 2.8) (end 6.05 2.8) (layer F.CrtYd) (width 0.05))
  (fp_line (start -6.05 -2.8) (end -6.05 2.8) (layer F.CrtYd) (width 0.05))
  (fp_line (start 3.235 -2.6) (end 1 -2.6) (layer F.SilkS) (width 0.12))
  (fp_line (start 3.235 2.6) (end 3.235 -2.6) (layer F.SilkS) (width 0.12))
  (fp_line (start -3.235 2.6) (end 3.235 2.6) (layer F.SilkS) (width 0.12))
  (fp_line (start -3.235 -2.6) (end -3.235 2.6) (layer F.SilkS) (width 0.12))
  (fp_line (start -1 -2.6) (end -3.235 -2.6) (layer F.SilkS) (width 0.12))
  (fp_line (start -3.175 -1.54) (end -2.175 -2.54) (layer F.Fab) (width 0.1))
  (fp_line (start -3.175 2.54) (end -3.175 -1.54) (layer F.Fab) (width 0.1))
  (fp_line (start 3.175 2.54) (end -3.175 2.54) (layer F.Fab) (width 0.1))
  (fp_line (start 3.175 -2.54) (end 3.175 2.54) (layer F.Fab) (width 0.1))
  (fp_line (start -2.175 -2.54) (end 3.175 -2.54) (layer F.Fab) (width 0.1))
  (fp_text user %R (at 0 0) (layer F.Fab)
    (effects (font (size 1 1) (thickness 0.15)))
  )
  (fp_arc (start 0 -2.6) (end -1 -2.6) (angle -180) (layer F.SilkS) (width 0.12))
  (fp_circle (center -2.667 -2.032) (end -2.542 -2.032) (layer F.SilkS) (width 0.12))
  (fp_circle (center -2.667 -2.032) (end -2.617 -2.032) (layer F.SilkS) (width 0.12))
  (fp_circle (center -2.667 -2.032) (end -2.467 -2.032) (layer F.SilkS) (width 0.12))
  (pad 4 smd rect (at 4.765 -1.27) (size 2 1.78) (layers F.Cu F.Paste F.Mask))
  (pad 2 smd rect (at -4.765 1.27) (size 2 1.78) (layers F.Cu F.Paste F.Mask))
  (pad 3 smd rect (at 4.765 1.27) (size 2 1.78) (layers F.Cu F.Paste F.Mask))
  (pad 1 smd rect (at -4.765 -1.27) (size 2 1.78) (layers F.Cu F.Paste F.Mask))
  (model ${KISYS3DMOD}/Package_DIP.3dshapes/SMDIP-4_W9.53mm.wrl
    (at (xyz 0 0 0))
    (scale (xyz 1 1 1))
    (rotate (xyz 0 0 0))
  )
)
