(module SMDIP-24_W9.53mm (layer F.Cu) (tedit 5F5C68F9)
  (descr "24-lead surface-mounted (SMD) DIP package, row spacing 9.53 mm (375 mils)")
  (tags "SMD DIP DIL PDIP SMDIP 2.54mm 9.53mm 375mil")
  (attr smd)
  (fp_text reference REF** (at 0 -16.3) (layer F.SilkS)
    (effects (font (size 1 1) (thickness 0.15)))
  )
  (fp_text value SMDIP-24_W9.53mm (at 0 16.3) (layer F.Fab)
    (effects (font (size 1 1) (thickness 0.15)))
  )
  (fp_line (start 6.05 -15.5) (end -6.05 -15.5) (layer F.CrtYd) (width 0.05))
  (fp_line (start 6.05 15.5) (end 6.05 -15.5) (layer F.CrtYd) (width 0.05))
  (fp_line (start -6.05 15.5) (end 6.05 15.5) (layer F.CrtYd) (width 0.05))
  (fp_line (start -6.05 -15.5) (end -6.05 15.5) (layer F.CrtYd) (width 0.05))
  (fp_line (start 3.235 -15.3) (end 1 -15.3) (layer F.SilkS) (width 0.12))
  (fp_line (start 3.235 15.3) (end 3.235 -15.3) (layer F.SilkS) (width 0.12))
  (fp_line (start -3.235 15.3) (end 3.235 15.3) (layer F.SilkS) (width 0.12))
  (fp_line (start -3.235 -15.3) (end -3.235 15.3) (layer F.SilkS) (width 0.12))
  (fp_line (start -1 -15.3) (end -3.235 -15.3) (layer F.SilkS) (width 0.12))
  (fp_line (start -3.175 -14.24) (end -2.175 -15.24) (layer F.Fab) (width 0.1))
  (fp_line (start -3.175 15.24) (end -3.175 -14.24) (layer F.Fab) (width 0.1))
  (fp_line (start 3.175 15.24) (end -3.175 15.24) (layer F.Fab) (width 0.1))
  (fp_line (start 3.175 -15.24) (end 3.175 15.24) (layer F.Fab) (width 0.1))
  (fp_line (start -2.175 -15.24) (end 3.175 -15.24) (layer F.Fab) (width 0.1))
  (fp_text user %R (at 0 0) (layer F.Fab)
    (effects (font (size 1 1) (thickness 0.15)))
  )
  (fp_arc (start 0 -15.3) (end -1 -15.3) (angle -180) (layer F.SilkS) (width 0.12))
  (fp_circle (center -2.667 -14.732) (end -2.542 -14.732) (layer F.SilkS) (width 0.12))
  (fp_circle (center -2.667 -14.732) (end -2.617 -14.732) (layer F.SilkS) (width 0.12))
  (fp_circle (center -2.667 -14.732) (end -2.467 -14.732) (layer F.SilkS) (width 0.12))
  (pad 24 smd rect (at 4.765 -13.97) (size 2 1.78) (layers F.Cu F.Paste F.Mask))
  (pad 12 smd rect (at -4.765 13.97) (size 2 1.78) (layers F.Cu F.Paste F.Mask))
  (pad 23 smd rect (at 4.765 -11.43) (size 2 1.78) (layers F.Cu F.Paste F.Mask))
  (pad 11 smd rect (at -4.765 11.43) (size 2 1.78) (layers F.Cu F.Paste F.Mask))
  (pad 22 smd rect (at 4.765 -8.89) (size 2 1.78) (layers F.Cu F.Paste F.Mask))
  (pad 10 smd rect (at -4.765 8.89) (size 2 1.78) (layers F.Cu F.Paste F.Mask))
  (pad 21 smd rect (at 4.765 -6.35) (size 2 1.78) (layers F.Cu F.Paste F.Mask))
  (pad 9 smd rect (at -4.765 6.35) (size 2 1.78) (layers F.Cu F.Paste F.Mask))
  (pad 20 smd rect (at 4.765 -3.81) (size 2 1.78) (layers F.Cu F.Paste F.Mask))
  (pad 8 smd rect (at -4.765 3.81) (size 2 1.78) (layers F.Cu F.Paste F.Mask))
  (pad 19 smd rect (at 4.765 -1.27) (size 2 1.78) (layers F.Cu F.Paste F.Mask))
  (pad 7 smd rect (at -4.765 1.27) (size 2 1.78) (layers F.Cu F.Paste F.Mask))
  (pad 18 smd rect (at 4.765 1.27) (size 2 1.78) (layers F.Cu F.Paste F.Mask))
  (pad 6 smd rect (at -4.765 -1.27) (size 2 1.78) (layers F.Cu F.Paste F.Mask))
  (pad 17 smd rect (at 4.765 3.81) (size 2 1.78) (layers F.Cu F.Paste F.Mask))
  (pad 5 smd rect (at -4.765 -3.81) (size 2 1.78) (layers F.Cu F.Paste F.Mask))
  (pad 16 smd rect (at 4.765 6.35) (size 2 1.78) (layers F.Cu F.Paste F.Mask))
  (pad 4 smd rect (at -4.765 -6.35) (size 2 1.78) (layers F.Cu F.Paste F.Mask))
  (pad 15 smd rect (at 4.765 8.89) (size 2 1.78) (layers F.Cu F.Paste F.Mask))
  (pad 3 smd rect (at -4.765 -8.89) (size 2 1.78) (layers F.Cu F.Paste F.Mask))
  (pad 14 smd rect (at 4.765 11.43) (size 2 1.78) (layers F.Cu F.Paste F.Mask))
  (pad 2 smd rect (at -4.765 -11.43) (size 2 1.78) (layers F.Cu F.Paste F.Mask))
  (pad 13 smd rect (at 4.765 13.97) (size 2 1.78) (layers F.Cu F.Paste F.Mask))
  (pad 1 smd rect (at -4.765 -13.97) (size 2 1.78) (layers F.Cu F.Paste F.Mask))
  (model ${KISYS3DMOD}/Package_DIP.3dshapes/SMDIP-24_W9.53mm.wrl
    (at (xyz 0 0 0))
    (scale (xyz 1 1 1))
    (rotate (xyz 0 0 0))
  )
)
