(module SMDIP-18_W7.62mm (layer F.Cu) (tedit 5F5C6888)
  (descr "18-lead surface-mounted (SMD) DIP package, row spacing 7.62 mm (300 mils)")
  (tags "SMD DIP DIL PDIP SMDIP 2.54mm 7.62mm 300mil")
  (attr smd)
  (fp_text reference REF** (at 0 -12.49) (layer F.SilkS)
    (effects (font (size 1 1) (thickness 0.15)))
  )
  (fp_text value SMDIP-18_W7.62mm (at 0 12.49) (layer F.Fab)
    (effects (font (size 1 1) (thickness 0.15)))
  )
  (fp_line (start 5.1 -11.7) (end -5.1 -11.7) (layer F.CrtYd) (width 0.05))
  (fp_line (start 5.1 11.7) (end 5.1 -11.7) (layer F.CrtYd) (width 0.05))
  (fp_line (start -5.1 11.7) (end 5.1 11.7) (layer F.CrtYd) (width 0.05))
  (fp_line (start -5.1 -11.7) (end -5.1 11.7) (layer F.CrtYd) (width 0.05))
  (fp_line (start 2.45 -11.49) (end 1 -11.49) (layer F.SilkS) (width 0.12))
  (fp_line (start 2.45 11.49) (end 2.45 -11.49) (layer F.SilkS) (width 0.12))
  (fp_line (start -2.45 11.49) (end 2.45 11.49) (layer F.SilkS) (width 0.12))
  (fp_line (start -2.45 -11.49) (end -2.45 11.49) (layer F.SilkS) (width 0.12))
  (fp_line (start -1 -11.49) (end -2.45 -11.49) (layer F.SilkS) (width 0.12))
  (fp_line (start -3.175 -10.43) (end -2.175 -11.43) (layer F.Fab) (width 0.1))
  (fp_line (start -3.175 11.43) (end -3.175 -10.43) (layer F.Fab) (width 0.1))
  (fp_line (start 3.175 11.43) (end -3.175 11.43) (layer F.Fab) (width 0.1))
  (fp_line (start 3.175 -11.43) (end 3.175 11.43) (layer F.Fab) (width 0.1))
  (fp_line (start -2.175 -11.43) (end 3.175 -11.43) (layer F.Fab) (width 0.1))
  (fp_text user %R (at 0 0) (layer F.Fab)
    (effects (font (size 1 1) (thickness 0.15)))
  )
  (fp_arc (start 0 -11.49) (end -1 -11.49) (angle -180) (layer F.SilkS) (width 0.12))
  (fp_circle (center -1.905 -10.922) (end -1.78 -10.922) (layer F.SilkS) (width 0.12))
  (fp_circle (center -1.905 -10.922) (end -1.855 -10.922) (layer F.SilkS) (width 0.12))
  (fp_circle (center -1.905 -10.922) (end -1.705 -10.922) (layer F.SilkS) (width 0.12))
  (pad 18 smd rect (at 3.81 -10.16) (size 2 1.78) (layers F.Cu F.Paste F.Mask))
  (pad 9 smd rect (at -3.81 10.16) (size 2 1.78) (layers F.Cu F.Paste F.Mask))
  (pad 17 smd rect (at 3.81 -7.62) (size 2 1.78) (layers F.Cu F.Paste F.Mask))
  (pad 8 smd rect (at -3.81 7.62) (size 2 1.78) (layers F.Cu F.Paste F.Mask))
  (pad 16 smd rect (at 3.81 -5.08) (size 2 1.78) (layers F.Cu F.Paste F.Mask))
  (pad 7 smd rect (at -3.81 5.08) (size 2 1.78) (layers F.Cu F.Paste F.Mask))
  (pad 15 smd rect (at 3.81 -2.54) (size 2 1.78) (layers F.Cu F.Paste F.Mask))
  (pad 6 smd rect (at -3.81 2.54) (size 2 1.78) (layers F.Cu F.Paste F.Mask))
  (pad 14 smd rect (at 3.81 0) (size 2 1.78) (layers F.Cu F.Paste F.Mask))
  (pad 5 smd rect (at -3.81 0) (size 2 1.78) (layers F.Cu F.Paste F.Mask))
  (pad 13 smd rect (at 3.81 2.54) (size 2 1.78) (layers F.Cu F.Paste F.Mask))
  (pad 4 smd rect (at -3.81 -2.54) (size 2 1.78) (layers F.Cu F.Paste F.Mask))
  (pad 12 smd rect (at 3.81 5.08) (size 2 1.78) (layers F.Cu F.Paste F.Mask))
  (pad 3 smd rect (at -3.81 -5.08) (size 2 1.78) (layers F.Cu F.Paste F.Mask))
  (pad 11 smd rect (at 3.81 7.62) (size 2 1.78) (layers F.Cu F.Paste F.Mask))
  (pad 2 smd rect (at -3.81 -7.62) (size 2 1.78) (layers F.Cu F.Paste F.Mask))
  (pad 10 smd rect (at 3.81 10.16) (size 2 1.78) (layers F.Cu F.Paste F.Mask))
  (pad 1 smd rect (at -3.81 -10.16) (size 2 1.78) (layers F.Cu F.Paste F.Mask))
  (model ${KISYS3DMOD}/Package_DIP.3dshapes/SMDIP-18_W7.62mm.wrl
    (at (xyz 0 0 0))
    (scale (xyz 1 1 1))
    (rotate (xyz 0 0 0))
  )
)
