(module SMDIP-32_W11.48mm (layer F.Cu) (tedit 5F5C6A36)
  (descr "32-lead surface-mounted (SMD) DIP package, row spacing 11.48 mm (451 mils)")
  (tags "SMD DIP DIL PDIP SMDIP 2.54mm 11.48mm 451mil")
  (attr smd)
  (fp_text reference REF** (at 0 -21.38) (layer F.SilkS)
    (effects (font (size 1 1) (thickness 0.15)))
  )
  (fp_text value SMDIP-32_W11.48mm (at 0 21.38) (layer F.Fab)
    (effects (font (size 1 1) (thickness 0.15)))
  )
  (fp_line (start 7 -20.6) (end -7 -20.6) (layer F.CrtYd) (width 0.05))
  (fp_line (start 7 20.6) (end 7 -20.6) (layer F.CrtYd) (width 0.05))
  (fp_line (start -7 20.6) (end 7 20.6) (layer F.CrtYd) (width 0.05))
  (fp_line (start -7 -20.6) (end -7 20.6) (layer F.CrtYd) (width 0.05))
  (fp_line (start 3.235 -20.38) (end 1 -20.38) (layer F.SilkS) (width 0.12))
  (fp_line (start 3.235 20.38) (end 3.235 -20.38) (layer F.SilkS) (width 0.12))
  (fp_line (start -3.235 20.38) (end 3.235 20.38) (layer F.SilkS) (width 0.12))
  (fp_line (start -3.235 -20.38) (end -3.235 20.38) (layer F.SilkS) (width 0.12))
  (fp_line (start -1 -20.38) (end -3.235 -20.38) (layer F.SilkS) (width 0.12))
  (fp_line (start -3.175 -19.32) (end -2.175 -20.32) (layer F.Fab) (width 0.1))
  (fp_line (start -3.175 20.32) (end -3.175 -19.32) (layer F.Fab) (width 0.1))
  (fp_line (start 3.175 20.32) (end -3.175 20.32) (layer F.Fab) (width 0.1))
  (fp_line (start 3.175 -20.32) (end 3.175 20.32) (layer F.Fab) (width 0.1))
  (fp_line (start -2.175 -20.32) (end 3.175 -20.32) (layer F.Fab) (width 0.1))
  (fp_text user %R (at 0 0) (layer F.Fab)
    (effects (font (size 1 1) (thickness 0.15)))
  )
  (fp_arc (start 0 -20.38) (end -1 -20.38) (angle -180) (layer F.SilkS) (width 0.12))
  (fp_circle (center -2.667 -19.812) (end -2.542 -19.812) (layer F.SilkS) (width 0.12))
  (fp_circle (center -2.667 -19.812) (end -2.617 -19.812) (layer F.SilkS) (width 0.12))
  (fp_circle (center -2.667 -19.812) (end -2.467 -19.812) (layer F.SilkS) (width 0.12))
  (pad 32 smd rect (at 5.74 -19.05) (size 2 1.78) (layers F.Cu F.Paste F.Mask))
  (pad 16 smd rect (at -5.74 19.05) (size 2 1.78) (layers F.Cu F.Paste F.Mask))
  (pad 31 smd rect (at 5.74 -16.51) (size 2 1.78) (layers F.Cu F.Paste F.Mask))
  (pad 15 smd rect (at -5.74 16.51) (size 2 1.78) (layers F.Cu F.Paste F.Mask))
  (pad 30 smd rect (at 5.74 -13.97) (size 2 1.78) (layers F.Cu F.Paste F.Mask))
  (pad 14 smd rect (at -5.74 13.97) (size 2 1.78) (layers F.Cu F.Paste F.Mask))
  (pad 29 smd rect (at 5.74 -11.43) (size 2 1.78) (layers F.Cu F.Paste F.Mask))
  (pad 13 smd rect (at -5.74 11.43) (size 2 1.78) (layers F.Cu F.Paste F.Mask))
  (pad 28 smd rect (at 5.74 -8.89) (size 2 1.78) (layers F.Cu F.Paste F.Mask))
  (pad 12 smd rect (at -5.74 8.89) (size 2 1.78) (layers F.Cu F.Paste F.Mask))
  (pad 27 smd rect (at 5.74 -6.35) (size 2 1.78) (layers F.Cu F.Paste F.Mask))
  (pad 11 smd rect (at -5.74 6.35) (size 2 1.78) (layers F.Cu F.Paste F.Mask))
  (pad 26 smd rect (at 5.74 -3.81) (size 2 1.78) (layers F.Cu F.Paste F.Mask))
  (pad 10 smd rect (at -5.74 3.81) (size 2 1.78) (layers F.Cu F.Paste F.Mask))
  (pad 25 smd rect (at 5.74 -1.27) (size 2 1.78) (layers F.Cu F.Paste F.Mask))
  (pad 9 smd rect (at -5.74 1.27) (size 2 1.78) (layers F.Cu F.Paste F.Mask))
  (pad 24 smd rect (at 5.74 1.27) (size 2 1.78) (layers F.Cu F.Paste F.Mask))
  (pad 8 smd rect (at -5.74 -1.27) (size 2 1.78) (layers F.Cu F.Paste F.Mask))
  (pad 23 smd rect (at 5.74 3.81) (size 2 1.78) (layers F.Cu F.Paste F.Mask))
  (pad 7 smd rect (at -5.74 -3.81) (size 2 1.78) (layers F.Cu F.Paste F.Mask))
  (pad 22 smd rect (at 5.74 6.35) (size 2 1.78) (layers F.Cu F.Paste F.Mask))
  (pad 6 smd rect (at -5.74 -6.35) (size 2 1.78) (layers F.Cu F.Paste F.Mask))
  (pad 21 smd rect (at 5.74 8.89) (size 2 1.78) (layers F.Cu F.Paste F.Mask))
  (pad 5 smd rect (at -5.74 -8.89) (size 2 1.78) (layers F.Cu F.Paste F.Mask))
  (pad 20 smd rect (at 5.74 11.43) (size 2 1.78) (layers F.Cu F.Paste F.Mask))
  (pad 4 smd rect (at -5.74 -11.43) (size 2 1.78) (layers F.Cu F.Paste F.Mask))
  (pad 19 smd rect (at 5.74 13.97) (size 2 1.78) (layers F.Cu F.Paste F.Mask))
  (pad 3 smd rect (at -5.74 -13.97) (size 2 1.78) (layers F.Cu F.Paste F.Mask))
  (pad 18 smd rect (at 5.74 16.51) (size 2 1.78) (layers F.Cu F.Paste F.Mask))
  (pad 2 smd rect (at -5.74 -16.51) (size 2 1.78) (layers F.Cu F.Paste F.Mask))
  (pad 17 smd rect (at 5.74 19.05) (size 2 1.78) (layers F.Cu F.Paste F.Mask))
  (pad 1 smd rect (at -5.74 -19.05) (size 2 1.78) (layers F.Cu F.Paste F.Mask))
  (model ${KISYS3DMOD}/Package_DIP.3dshapes/SMDIP-32_W11.48mm.wrl
    (at (xyz 0 0 0))
    (scale (xyz 1 1 1))
    (rotate (xyz 0 0 0))
  )
)
