(module SMDIP-28_W15.24mm (layer F.Cu) (tedit 5F5C6918)
  (descr "28-lead surface-mounted (SMD) DIP package, row spacing 15.24 mm (600 mils)")
  (tags "SMD DIP DIL PDIP SMDIP 2.54mm 15.24mm 600mil")
  (attr smd)
  (fp_text reference REF** (at 0 -18.84) (layer F.SilkS)
    (effects (font (size 1 1) (thickness 0.15)))
  )
  (fp_text value SMDIP-28_W15.24mm (at 0 18.84) (layer F.Fab)
    (effects (font (size 1 1) (thickness 0.15)))
  )
  (fp_line (start 8.9 -18.05) (end -8.9 -18.05) (layer F.CrtYd) (width 0.05))
  (fp_line (start 8.9 18.05) (end 8.9 -18.05) (layer F.CrtYd) (width 0.05))
  (fp_line (start -8.9 18.05) (end 8.9 18.05) (layer F.CrtYd) (width 0.05))
  (fp_line (start -8.9 -18.05) (end -8.9 18.05) (layer F.CrtYd) (width 0.05))
  (fp_line (start 6.26 -17.84) (end 1 -17.84) (layer F.SilkS) (width 0.12))
  (fp_line (start 6.26 17.84) (end 6.26 -17.84) (layer F.SilkS) (width 0.12))
  (fp_line (start -6.26 17.84) (end 6.26 17.84) (layer F.SilkS) (width 0.12))
  (fp_line (start -6.26 -17.84) (end -6.26 17.84) (layer F.SilkS) (width 0.12))
  (fp_line (start -1 -17.84) (end -6.26 -17.84) (layer F.SilkS) (width 0.12))
  (fp_line (start -7.365 -16.78) (end -6.365 -17.78) (layer F.Fab) (width 0.1))
  (fp_line (start -7.365 17.78) (end -7.365 -16.78) (layer F.Fab) (width 0.1))
  (fp_line (start 7.365 17.78) (end -7.365 17.78) (layer F.Fab) (width 0.1))
  (fp_line (start 7.365 -17.78) (end 7.365 17.78) (layer F.Fab) (width 0.1))
  (fp_line (start -6.365 -17.78) (end 7.365 -17.78) (layer F.Fab) (width 0.1))
  (fp_text user %R (at 0 0) (layer F.Fab)
    (effects (font (size 1 1) (thickness 0.15)))
  )
  (fp_arc (start 0 -17.84) (end -1 -17.84) (angle -180) (layer F.SilkS) (width 0.12))
  (fp_circle (center -5.715 -17.272) (end -5.59 -17.272) (layer F.SilkS) (width 0.12))
  (fp_circle (center -5.715 -17.272) (end -5.665 -17.272) (layer F.SilkS) (width 0.12))
  (fp_circle (center -5.715 -17.272) (end -5.515 -17.272) (layer F.SilkS) (width 0.12))
  (pad 28 smd rect (at 7.62 -16.51) (size 2 1.78) (layers F.Cu F.Paste F.Mask))
  (pad 14 smd rect (at -7.62 16.51) (size 2 1.78) (layers F.Cu F.Paste F.Mask))
  (pad 27 smd rect (at 7.62 -13.97) (size 2 1.78) (layers F.Cu F.Paste F.Mask))
  (pad 13 smd rect (at -7.62 13.97) (size 2 1.78) (layers F.Cu F.Paste F.Mask))
  (pad 26 smd rect (at 7.62 -11.43) (size 2 1.78) (layers F.Cu F.Paste F.Mask))
  (pad 12 smd rect (at -7.62 11.43) (size 2 1.78) (layers F.Cu F.Paste F.Mask))
  (pad 25 smd rect (at 7.62 -8.89) (size 2 1.78) (layers F.Cu F.Paste F.Mask))
  (pad 11 smd rect (at -7.62 8.89) (size 2 1.78) (layers F.Cu F.Paste F.Mask))
  (pad 24 smd rect (at 7.62 -6.35) (size 2 1.78) (layers F.Cu F.Paste F.Mask))
  (pad 10 smd rect (at -7.62 6.35) (size 2 1.78) (layers F.Cu F.Paste F.Mask))
  (pad 23 smd rect (at 7.62 -3.81) (size 2 1.78) (layers F.Cu F.Paste F.Mask))
  (pad 9 smd rect (at -7.62 3.81) (size 2 1.78) (layers F.Cu F.Paste F.Mask))
  (pad 22 smd rect (at 7.62 -1.27) (size 2 1.78) (layers F.Cu F.Paste F.Mask))
  (pad 8 smd rect (at -7.62 1.27) (size 2 1.78) (layers F.Cu F.Paste F.Mask))
  (pad 21 smd rect (at 7.62 1.27) (size 2 1.78) (layers F.Cu F.Paste F.Mask))
  (pad 7 smd rect (at -7.62 -1.27) (size 2 1.78) (layers F.Cu F.Paste F.Mask))
  (pad 20 smd rect (at 7.62 3.81) (size 2 1.78) (layers F.Cu F.Paste F.Mask))
  (pad 6 smd rect (at -7.62 -3.81) (size 2 1.78) (layers F.Cu F.Paste F.Mask))
  (pad 19 smd rect (at 7.62 6.35) (size 2 1.78) (layers F.Cu F.Paste F.Mask))
  (pad 5 smd rect (at -7.62 -6.35) (size 2 1.78) (layers F.Cu F.Paste F.Mask))
  (pad 18 smd rect (at 7.62 8.89) (size 2 1.78) (layers F.Cu F.Paste F.Mask))
  (pad 4 smd rect (at -7.62 -8.89) (size 2 1.78) (layers F.Cu F.Paste F.Mask))
  (pad 17 smd rect (at 7.62 11.43) (size 2 1.78) (layers F.Cu F.Paste F.Mask))
  (pad 3 smd rect (at -7.62 -11.43) (size 2 1.78) (layers F.Cu F.Paste F.Mask))
  (pad 16 smd rect (at 7.62 13.97) (size 2 1.78) (layers F.Cu F.Paste F.Mask))
  (pad 2 smd rect (at -7.62 -13.97) (size 2 1.78) (layers F.Cu F.Paste F.Mask))
  (pad 15 smd rect (at 7.62 16.51) (size 2 1.78) (layers F.Cu F.Paste F.Mask))
  (pad 1 smd rect (at -7.62 -16.51) (size 2 1.78) (layers F.Cu F.Paste F.Mask))
  (model ${KISYS3DMOD}/Package_DIP.3dshapes/SMDIP-28_W15.24mm.wrl
    (at (xyz 0 0 0))
    (scale (xyz 1 1 1))
    (rotate (xyz 0 0 0))
  )
)
