(module SMDIP-6_W11.48mm (layer F.Cu) (tedit 5F5C67A1)
  (descr "6-lead surface-mounted (SMD) DIP package, row spacing 11.48 mm (451 mils)")
  (tags "SMD DIP DIL PDIP SMDIP 2.54mm 11.48mm 451mil")
  (attr smd)
  (fp_text reference REF** (at 0 -4.87) (layer F.SilkS)
    (effects (font (size 1 1) (thickness 0.15)))
  )
  (fp_text value SMDIP-6_W11.48mm (at 0 4.87) (layer F.Fab)
    (effects (font (size 1 1) (thickness 0.15)))
  )
  (fp_line (start 7 -4.1) (end -7 -4.1) (layer F.CrtYd) (width 0.05))
  (fp_line (start 7 4.1) (end 7 -4.1) (layer F.CrtYd) (width 0.05))
  (fp_line (start -7 4.1) (end 7 4.1) (layer F.CrtYd) (width 0.05))
  (fp_line (start -7 -4.1) (end -7 4.1) (layer F.CrtYd) (width 0.05))
  (fp_line (start 3.235 -3.87) (end 1 -3.87) (layer F.SilkS) (width 0.12))
  (fp_line (start 3.235 3.87) (end 3.235 -3.87) (layer F.SilkS) (width 0.12))
  (fp_line (start -3.235 3.87) (end 3.235 3.87) (layer F.SilkS) (width 0.12))
  (fp_line (start -3.235 -3.87) (end -3.235 3.87) (layer F.SilkS) (width 0.12))
  (fp_line (start -1 -3.87) (end -3.235 -3.87) (layer F.SilkS) (width 0.12))
  (fp_line (start -3.175 -2.81) (end -2.175 -3.81) (layer F.Fab) (width 0.1))
  (fp_line (start -3.175 3.81) (end -3.175 -2.81) (layer F.Fab) (width 0.1))
  (fp_line (start 3.175 3.81) (end -3.175 3.81) (layer F.Fab) (width 0.1))
  (fp_line (start 3.175 -3.81) (end 3.175 3.81) (layer F.Fab) (width 0.1))
  (fp_line (start -2.175 -3.81) (end 3.175 -3.81) (layer F.Fab) (width 0.1))
  (fp_text user %R (at 0 0) (layer F.Fab)
    (effects (font (size 1 1) (thickness 0.15)))
  )
  (fp_arc (start 0 -3.87) (end -1 -3.87) (angle -180) (layer F.SilkS) (width 0.12))
  (fp_circle (center -2.667 -3.302) (end -2.542 -3.302) (layer F.SilkS) (width 0.12))
  (fp_circle (center -2.667 -3.302) (end -2.617 -3.302) (layer F.SilkS) (width 0.12))
  (fp_circle (center -2.667 -3.302) (end -2.467 -3.302) (layer F.SilkS) (width 0.12))
  (pad 6 smd rect (at 5.74 -2.54) (size 2 1.78) (layers F.Cu F.Paste F.Mask))
  (pad 3 smd rect (at -5.74 2.54) (size 2 1.78) (layers F.Cu F.Paste F.Mask))
  (pad 5 smd rect (at 5.74 0) (size 2 1.78) (layers F.Cu F.Paste F.Mask))
  (pad 2 smd rect (at -5.74 0) (size 2 1.78) (layers F.Cu F.Paste F.Mask))
  (pad 4 smd rect (at 5.74 2.54) (size 2 1.78) (layers F.Cu F.Paste F.Mask))
  (pad 1 smd rect (at -5.74 -2.54) (size 2 1.78) (layers F.Cu F.Paste F.Mask))
  (model ${KISYS3DMOD}/Package_DIP.3dshapes/SMDIP-6_W11.48mm.wrl
    (at (xyz 0 0 0))
    (scale (xyz 1 1 1))
    (rotate (xyz 0 0 0))
  )
)
