(module SMDIP-16_W9.53mm_Clearance8mm (layer F.Cu) (tedit 5F5C6876)
  (descr "16-lead surface-mounted (SMD) DIP package, row spacing 9.53 mm (375 mils), Clearance8mm")
  (tags "SMD DIP DIL PDIP SMDIP 2.54mm 9.53mm 375mil Clearance8mm")
  (attr smd)
  (fp_text reference REF** (at 0 -11.22) (layer F.SilkS)
    (effects (font (size 1 1) (thickness 0.15)))
  )
  (fp_text value SMDIP-16_W9.53mm_Clearance8mm (at 0 11.22) (layer F.Fab)
    (effects (font (size 1 1) (thickness 0.15)))
  )
  (fp_line (start 5.8 -10.45) (end -5.8 -10.45) (layer F.CrtYd) (width 0.05))
  (fp_line (start 5.8 10.45) (end 5.8 -10.45) (layer F.CrtYd) (width 0.05))
  (fp_line (start -5.8 10.45) (end 5.8 10.45) (layer F.CrtYd) (width 0.05))
  (fp_line (start -5.8 -10.45) (end -5.8 10.45) (layer F.CrtYd) (width 0.05))
  (fp_line (start 3.235 -10.22) (end 1 -10.22) (layer F.SilkS) (width 0.12))
  (fp_line (start 3.235 10.22) (end 3.235 -10.22) (layer F.SilkS) (width 0.12))
  (fp_line (start -3.235 10.22) (end 3.235 10.22) (layer F.SilkS) (width 0.12))
  (fp_line (start -3.235 -10.22) (end -3.235 10.22) (layer F.SilkS) (width 0.12))
  (fp_line (start -1 -10.22) (end -3.235 -10.22) (layer F.SilkS) (width 0.12))
  (fp_line (start -3.175 -9.16) (end -2.175 -10.16) (layer F.Fab) (width 0.1))
  (fp_line (start -3.175 10.16) (end -3.175 -9.16) (layer F.Fab) (width 0.1))
  (fp_line (start 3.175 10.16) (end -3.175 10.16) (layer F.Fab) (width 0.1))
  (fp_line (start 3.175 -10.16) (end 3.175 10.16) (layer F.Fab) (width 0.1))
  (fp_line (start -2.175 -10.16) (end 3.175 -10.16) (layer F.Fab) (width 0.1))
  (fp_text user %R (at 0 0) (layer F.Fab)
    (effects (font (size 1 1) (thickness 0.15)))
  )
  (fp_arc (start 0 -10.22) (end -1 -10.22) (angle -180) (layer F.SilkS) (width 0.12))
  (fp_circle (center -2.667 -9.652) (end -2.542 -9.652) (layer F.SilkS) (width 0.12))
  (fp_circle (center -2.667 -9.652) (end -2.617 -9.652) (layer F.SilkS) (width 0.12))
  (fp_circle (center -2.667 -9.652) (end -2.467 -9.652) (layer F.SilkS) (width 0.12))
  (pad 16 smd rect (at 4.765 -8.89) (size 1.5 1.78) (layers F.Cu F.Paste F.Mask))
  (pad 8 smd rect (at -4.765 8.89) (size 1.5 1.78) (layers F.Cu F.Paste F.Mask))
  (pad 15 smd rect (at 4.765 -6.35) (size 1.5 1.78) (layers F.Cu F.Paste F.Mask))
  (pad 7 smd rect (at -4.765 6.35) (size 1.5 1.78) (layers F.Cu F.Paste F.Mask))
  (pad 14 smd rect (at 4.765 -3.81) (size 1.5 1.78) (layers F.Cu F.Paste F.Mask))
  (pad 6 smd rect (at -4.765 3.81) (size 1.5 1.78) (layers F.Cu F.Paste F.Mask))
  (pad 13 smd rect (at 4.765 -1.27) (size 1.5 1.78) (layers F.Cu F.Paste F.Mask))
  (pad 5 smd rect (at -4.765 1.27) (size 1.5 1.78) (layers F.Cu F.Paste F.Mask))
  (pad 12 smd rect (at 4.765 1.27) (size 1.5 1.78) (layers F.Cu F.Paste F.Mask))
  (pad 4 smd rect (at -4.765 -1.27) (size 1.5 1.78) (layers F.Cu F.Paste F.Mask))
  (pad 11 smd rect (at 4.765 3.81) (size 1.5 1.78) (layers F.Cu F.Paste F.Mask))
  (pad 3 smd rect (at -4.765 -3.81) (size 1.5 1.78) (layers F.Cu F.Paste F.Mask))
  (pad 10 smd rect (at 4.765 6.35) (size 1.5 1.78) (layers F.Cu F.Paste F.Mask))
  (pad 2 smd rect (at -4.765 -6.35) (size 1.5 1.78) (layers F.Cu F.Paste F.Mask))
  (pad 9 smd rect (at 4.765 8.89) (size 1.5 1.78) (layers F.Cu F.Paste F.Mask))
  (pad 1 smd rect (at -4.765 -8.89) (size 1.5 1.78) (layers F.Cu F.Paste F.Mask))
  (model ${KISYS3DMOD}/Package_DIP.3dshapes/SMDIP-16_W9.53mm.wrl
    (at (xyz 0 0 0))
    (scale (xyz 1 1 1))
    (rotate (xyz 0 0 0))
  )
)
