(module SMDIP-8_W9.53mm (layer F.Cu) (tedit 5F5C67B9)
  (descr "8-lead surface-mounted (SMD) DIP package, row spacing 9.53 mm (375 mils)")
  (tags "SMD DIP DIL PDIP SMDIP 2.54mm 9.53mm 375mil")
  (attr smd)
  (fp_text reference REF** (at 0 -6.14) (layer F.SilkS)
    (effects (font (size 1 1) (thickness 0.15)))
  )
  (fp_text value SMDIP-8_W9.53mm (at 0 6.14) (layer F.Fab)
    (effects (font (size 1 1) (thickness 0.15)))
  )
  (fp_line (start 6.05 -5.35) (end -6.05 -5.35) (layer F.CrtYd) (width 0.05))
  (fp_line (start 6.05 5.35) (end 6.05 -5.35) (layer F.CrtYd) (width 0.05))
  (fp_line (start -6.05 5.35) (end 6.05 5.35) (layer F.CrtYd) (width 0.05))
  (fp_line (start -6.05 -5.35) (end -6.05 5.35) (layer F.CrtYd) (width 0.05))
  (fp_line (start 3.235 -5.14) (end 1 -5.14) (layer F.SilkS) (width 0.12))
  (fp_line (start 3.235 5.14) (end 3.235 -5.14) (layer F.SilkS) (width 0.12))
  (fp_line (start -3.235 5.14) (end 3.235 5.14) (layer F.SilkS) (width 0.12))
  (fp_line (start -3.235 -5.14) (end -3.235 5.14) (layer F.SilkS) (width 0.12))
  (fp_line (start -1 -5.14) (end -3.235 -5.14) (layer F.SilkS) (width 0.12))
  (fp_line (start -3.175 -4.08) (end -2.175 -5.08) (layer F.Fab) (width 0.1))
  (fp_line (start -3.175 5.08) (end -3.175 -4.08) (layer F.Fab) (width 0.1))
  (fp_line (start 3.175 5.08) (end -3.175 5.08) (layer F.Fab) (width 0.1))
  (fp_line (start 3.175 -5.08) (end 3.175 5.08) (layer F.Fab) (width 0.1))
  (fp_line (start -2.175 -5.08) (end 3.175 -5.08) (layer F.Fab) (width 0.1))
  (fp_text user %R (at 0 0) (layer F.Fab)
    (effects (font (size 1 1) (thickness 0.15)))
  )
  (fp_arc (start 0 -5.14) (end -1 -5.14) (angle -180) (layer F.SilkS) (width 0.12))
  (fp_circle (center -2.667 -4.572) (end -2.542 -4.572) (layer F.SilkS) (width 0.12))
  (fp_circle (center -2.667 -4.572) (end -2.617 -4.572) (layer F.SilkS) (width 0.12))
  (fp_circle (center -2.667 -4.572) (end -2.467 -4.572) (layer F.SilkS) (width 0.12))
  (pad 8 smd rect (at 4.765 -3.81) (size 2 1.78) (layers F.Cu F.Paste F.Mask))
  (pad 4 smd rect (at -4.765 3.81) (size 2 1.78) (layers F.Cu F.Paste F.Mask))
  (pad 7 smd rect (at 4.765 -1.27) (size 2 1.78) (layers F.Cu F.Paste F.Mask))
  (pad 3 smd rect (at -4.765 1.27) (size 2 1.78) (layers F.Cu F.Paste F.Mask))
  (pad 6 smd rect (at 4.765 1.27) (size 2 1.78) (layers F.Cu F.Paste F.Mask))
  (pad 2 smd rect (at -4.765 -1.27) (size 2 1.78) (layers F.Cu F.Paste F.Mask))
  (pad 5 smd rect (at 4.765 3.81) (size 2 1.78) (layers F.Cu F.Paste F.Mask))
  (pad 1 smd rect (at -4.765 -3.81) (size 2 1.78) (layers F.Cu F.Paste F.Mask))
  (model ${KISYS3DMOD}/Package_DIP.3dshapes/SMDIP-8_W9.53mm.wrl
    (at (xyz 0 0 0))
    (scale (xyz 1 1 1))
    (rotate (xyz 0 0 0))
  )
)
