(module CP_EIA-7343-15_Kemet-W_Pad2.25x2.55mm (layer F.Cu) (tedit 608D2698)
  (descr "Tantalum Capacitor SMD Kemet-W (7343-15 Metric), IPC_7351 nominal, (Body size from: http://www.kemet.com/Lists/ProductCatalog/Attachments/253/KEM_TC101_STD.pdf), Alternate KiCad Library")
  (tags "capacitor tantalum")
  (attr smd)
  (fp_text reference REF** (at 0 -3.3655) (layer F.SilkS)
    (effects (font (size 1 1) (thickness 0.15)))
  )
  (fp_text value CP_EIA-7343-15_Kemet-W_Pad2.25x2.55mm (at 0 3.1) (layer F.Fab)
    (effects (font (size 1 1) (thickness 0.15)))
  )
  (fp_poly (pts (xy -2.2225 2.667) (xy -3.302 2.667) (xy -3.302 2.3495) (xy -2.2225 2.3495)) (layer F.SilkS) (width 0.1))
  (fp_poly (pts (xy -2.2225 -2.3495) (xy -3.302 -2.3495) (xy -3.302 -2.667) (xy -2.2225 -2.667)) (layer F.SilkS) (width 0.1))
  (fp_line (start 4.572 -2.3495) (end -4.572 -2.3495) (layer F.SilkS) (width 0.12))
  (fp_line (start 4.572 2.3495) (end 4.572 -2.3495) (layer F.SilkS) (width 0.12))
  (fp_line (start -4.572 2.3495) (end 4.572 2.3495) (layer F.SilkS) (width 0.12))
  (fp_line (start -4.572 -2.3495) (end -4.572 2.3495) (layer F.SilkS) (width 0.12))
  (fp_line (start 4.58 2.4) (end -4.58 2.4) (layer F.CrtYd) (width 0.05))
  (fp_line (start 4.58 -2.4) (end 4.58 2.4) (layer F.CrtYd) (width 0.05))
  (fp_line (start -4.58 -2.4) (end 4.58 -2.4) (layer F.CrtYd) (width 0.05))
  (fp_line (start -4.58 2.4) (end -4.58 -2.4) (layer F.CrtYd) (width 0.05))
  (fp_line (start 3.65 2.15) (end 3.65 -2.15) (layer F.Fab) (width 0.1))
  (fp_line (start -3.65 2.15) (end 3.65 2.15) (layer F.Fab) (width 0.1))
  (fp_line (start -3.65 -1.15) (end -3.65 2.15) (layer F.Fab) (width 0.1))
  (fp_line (start -2.65 -2.15) (end -3.65 -1.15) (layer F.Fab) (width 0.1))
  (fp_line (start 3.65 -2.15) (end -2.65 -2.15) (layer F.Fab) (width 0.1))
  (fp_line (start -5.588 1.778) (end -4.826 1.778) (layer F.SilkS) (width 0.12))
  (fp_line (start -5.207 1.397) (end -5.207 2.159) (layer F.SilkS) (width 0.12))
  (fp_line (start -1.778 0) (end -0.8255 0) (layer F.SilkS) (width 0.12))
  (fp_line (start 0.8255 0) (end 1.778 0) (layer F.SilkS) (width 0.12))
  (fp_line (start 0.8255 1.5875) (end 0.8255 0) (layer F.SilkS) (width 0.12))
  (fp_line (start -0.8255 1.5875) (end -0.8255 0) (layer F.SilkS) (width 0.12))
  (fp_line (start 0.3175 -1.524) (end 0.3175 0) (layer F.SilkS) (width 0.12))
  (fp_line (start -0.8255 -1.524) (end -0.8255 0) (layer F.SilkS) (width 0.12))
  (fp_line (start -0.3175 -1.524) (end -0.8255 -1.524) (layer F.SilkS) (width 0.12))
  (fp_line (start 0.8255 -1.524) (end 0.8255 0) (layer F.SilkS) (width 0.12))
  (fp_line (start -0.8255 1.5875) (end -0.3175 1.5875) (layer F.SilkS) (width 0.12))
  (fp_line (start 0.8255 -1.524) (end 0.3175 -1.524) (layer F.SilkS) (width 0.12))
  (fp_line (start -0.3175 -1.524) (end -0.3175 0) (layer F.SilkS) (width 0.12))
  (fp_line (start -0.3175 1.5875) (end -0.3175 0) (layer F.SilkS) (width 0.12))
  (fp_line (start 0.3175 1.5875) (end 0.3175 0) (layer F.SilkS) (width 0.12))
  (fp_poly (pts (xy 0.8255 1.5875) (xy 0.3175 1.5875) (xy 0.3175 -1.524) (xy 0.8255 -1.524)) (layer F.SilkS) (width 0.1))
  (fp_line (start 0.3175 1.5875) (end 0.8255 1.5875) (layer F.SilkS) (width 0.12))
  (fp_text user %R (at 0 0) (layer F.Fab)
    (effects (font (size 1 1) (thickness 0.15)))
  )
  (pad 2 smd roundrect (at 3.2 0) (size 2.25 2.55) (layers F.Cu F.Paste F.Mask) (roundrect_rratio 0.111111))
  (pad 1 smd roundrect (at -3.2 0) (size 2.25 2.55) (layers F.Cu F.Paste F.Mask) (roundrect_rratio 0.111111))
  (model ${KISYS3DMOD}/Capacitor_Tantalum_SMD.3dshapes/CP_EIA-7343-15_Kemet-W.wrl
    (at (xyz 0 0 0))
    (scale (xyz 1 1 1))
    (rotate (xyz 0 0 0))
  )
)
