(module CP_EIA-6032-15_Kemet-U_Pad2.25x2.35mm (layer F.Cu) (tedit 608D260D)
  (descr "Tantalum Capacitor SMD Kemet-U (6032-15 Metric), IPC_7351 nominal, (Body size from: http://www.kemet.com/Lists/ProductCatalog/Attachments/253/KEM_TC101_STD.pdf), Alternate KiCad Library")
  (tags "capacitor tantalum")
  (attr smd)
  (fp_text reference REF** (at 0 -2.9845) (layer F.SilkS)
    (effects (font (size 1 1) (thickness 0.15)))
  )
  (fp_text value CP_EIA-6032-15_Kemet-U_Pad2.25x2.35mm (at 0 2.55) (layer F.Fab)
    (effects (font (size 1 1) (thickness 0.15)))
  )
  (fp_poly (pts (xy -1.524 2.032) (xy -2.413 2.032) (xy -2.413 1.778) (xy -1.524 1.778)) (layer F.SilkS) (width 0.1))
  (fp_poly (pts (xy -1.524 -1.778) (xy -2.413 -1.778) (xy -2.413 -2.032) (xy -1.524 -2.032)) (layer F.SilkS) (width 0.1))
  (fp_line (start 3.937 -1.778) (end -3.937 -1.778) (layer F.SilkS) (width 0.12))
  (fp_line (start 3.937 1.778) (end 3.937 -1.778) (layer F.SilkS) (width 0.12))
  (fp_line (start -3.937 1.778) (end 3.937 1.778) (layer F.SilkS) (width 0.12))
  (fp_line (start -3.937 -1.778) (end -3.937 1.778) (layer F.SilkS) (width 0.12))
  (fp_line (start 3.92 1.85) (end -3.92 1.85) (layer F.CrtYd) (width 0.05))
  (fp_line (start 3.92 -1.85) (end 3.92 1.85) (layer F.CrtYd) (width 0.05))
  (fp_line (start -3.92 -1.85) (end 3.92 -1.85) (layer F.CrtYd) (width 0.05))
  (fp_line (start -3.92 1.85) (end -3.92 -1.85) (layer F.CrtYd) (width 0.05))
  (fp_line (start 3 1.6) (end 3 -1.6) (layer F.Fab) (width 0.1))
  (fp_line (start -3 1.6) (end 3 1.6) (layer F.Fab) (width 0.1))
  (fp_line (start -3 -0.8) (end -3 1.6) (layer F.Fab) (width 0.1))
  (fp_line (start -2.2 -1.6) (end -3 -0.8) (layer F.Fab) (width 0.1))
  (fp_line (start 3 -1.6) (end -2.2 -1.6) (layer F.Fab) (width 0.1))
  (fp_line (start -4.953 1.27) (end -4.191 1.27) (layer F.SilkS) (width 0.12))
  (fp_line (start -4.572 0.889) (end -4.572 1.651) (layer F.SilkS) (width 0.12))
  (fp_line (start -0.762 -1.27) (end -0.762 0) (layer F.SilkS) (width 0.12))
  (fp_line (start -0.3175 1.27) (end -0.762 1.27) (layer F.SilkS) (width 0.12))
  (fp_line (start 0.762 0) (end 1.143 0) (layer F.SilkS) (width 0.12))
  (fp_line (start 0.762 -1.27) (end 0.3175 -1.27) (layer F.SilkS) (width 0.12))
  (fp_line (start -0.762 1.27) (end -0.762 0) (layer F.SilkS) (width 0.12))
  (fp_line (start -0.762 0) (end -1.143 0) (layer F.SilkS) (width 0.12))
  (fp_line (start -0.3175 -1.27) (end -0.762 -1.27) (layer F.SilkS) (width 0.12))
  (fp_line (start 0.762 1.27) (end 0.3175 1.27) (layer F.SilkS) (width 0.12))
  (fp_poly (pts (xy 0.762 1.27) (xy 0.3175 1.27) (xy 0.3175 -1.27) (xy 0.762 -1.27)) (layer F.SilkS) (width 0.1))
  (fp_line (start 0.3175 -1.27) (end 0.3175 0) (layer F.SilkS) (width 0.12))
  (fp_line (start 0.3175 1.27) (end 0.3175 0) (layer F.SilkS) (width 0.12))
  (fp_line (start 0.762 1.27) (end 0.762 0) (layer F.SilkS) (width 0.12))
  (fp_line (start 0.762 -1.27) (end 0.762 0) (layer F.SilkS) (width 0.12))
  (fp_line (start -0.3175 -1.27) (end -0.3175 0) (layer F.SilkS) (width 0.12))
  (fp_line (start -0.3175 1.27) (end -0.3175 0) (layer F.SilkS) (width 0.12))
  (fp_text user %R (at 0 0) (layer F.Fab)
    (effects (font (size 1 1) (thickness 0.15)))
  )
  (pad 2 smd roundrect (at 2.55 0) (size 2.25 2.35) (layers F.Cu F.Paste F.Mask) (roundrect_rratio 0.111111))
  (pad 1 smd roundrect (at -2.55 0) (size 2.25 2.35) (layers F.Cu F.Paste F.Mask) (roundrect_rratio 0.111111))
  (model ${KISYS3DMOD}/Capacitor_Tantalum_SMD.3dshapes/CP_EIA-6032-15_Kemet-U.wrl
    (at (xyz 0 0 0))
    (scale (xyz 1 1 1))
    (rotate (xyz 0 0 0))
  )
)
