(module CP_EIA-2012-12_Kemet-R_Pad1.30x1.05mm (layer F.Cu) (tedit 608D2579)
  (descr "Tantalum Capacitor SMD Kemet-R (2012-12 Metric), IPC_7351 nominal, (Body size from: https://www.vishay.com/docs/40182/tmch.pdf), Alternate KiCad Library")
  (tags "capacitor tantalum")
  (attr smd)
  (fp_text reference REF** (at 0 -1.905) (layer F.SilkS)
    (effects (font (size 1 1) (thickness 0.15)))
  )
  (fp_text value CP_EIA-2012-12_Kemet-R_Pad1.30x1.05mm (at 0 1.58) (layer F.Fab)
    (effects (font (size 1 1) (thickness 0.15)))
  )
  (fp_line (start -2.6035 0) (end -2.6035 0.762) (layer F.SilkS) (width 0.12))
  (fp_line (start -2.9845 0.381) (end -2.2225 0.381) (layer F.SilkS) (width 0.12))
  (fp_line (start 1 -0.625) (end -0.6875 -0.625) (layer F.Fab) (width 0.1))
  (fp_line (start -0.6875 -0.625) (end -1 -0.3125) (layer F.Fab) (width 0.1))
  (fp_line (start -1 -0.3125) (end -1 0.625) (layer F.Fab) (width 0.1))
  (fp_line (start -1 0.625) (end 1 0.625) (layer F.Fab) (width 0.1))
  (fp_line (start 1 0.625) (end 1 -0.625) (layer F.Fab) (width 0.1))
  (fp_line (start -1.88 0.88) (end -1.88 -0.88) (layer F.CrtYd) (width 0.05))
  (fp_line (start -1.88 -0.88) (end 1.88 -0.88) (layer F.CrtYd) (width 0.05))
  (fp_line (start 1.88 -0.88) (end 1.88 0.88) (layer F.CrtYd) (width 0.05))
  (fp_line (start 1.88 0.88) (end -1.88 0.88) (layer F.CrtYd) (width 0.05))
  (fp_line (start -1.905 -0.889) (end -1.905 0.889) (layer F.SilkS) (width 0.12))
  (fp_line (start -1.905 0.889) (end 1.905 0.889) (layer F.SilkS) (width 0.12))
  (fp_line (start 1.905 0.889) (end 1.905 -0.889) (layer F.SilkS) (width 0.12))
  (fp_line (start 1.905 -0.889) (end -1.905 -0.889) (layer F.SilkS) (width 0.12))
  (fp_poly (pts (xy -0.4445 -0.889) (xy -0.9525 -0.889) (xy -0.9525 -1.143) (xy -0.4445 -1.143)) (layer F.SilkS) (width 0.1))
  (fp_poly (pts (xy -0.4445 1.143) (xy -0.9525 1.143) (xy -0.9525 0.889) (xy -0.4445 0.889)) (layer F.SilkS) (width 0.1))
  (fp_text user %R (at 0 0) (layer F.Fab)
    (effects (font (size 0.5 0.5) (thickness 0.08)))
  )
  (pad 2 smd roundrect (at 0.975 0) (size 1.3 1.05) (layers F.Cu F.Paste F.Mask) (roundrect_rratio 0.238095))
  (pad 1 smd roundrect (at -0.975 0) (size 1.3 1.05) (layers F.Cu F.Paste F.Mask) (roundrect_rratio 0.238095))
  (model ${KISYS3DMOD}/Capacitor_Tantalum_SMD.3dshapes/CP_EIA-2012-12_Kemet-R.wrl
    (at (xyz 0 0 0))
    (scale (xyz 1 1 1))
    (rotate (xyz 0 0 0))
  )
)
