(module CP_EIA-3216-10_Kemet-I (layer F.Cu) (tedit 60781967)
  (descr "Tantalum Capacitor SMD Kemet-I (3216-10 Metric), IPC_7351 nominal, (Body size from: http://www.kemet.com/Lists/ProductCatalog/Attachments/253/KEM_TC101_STD.pdf), Alternate KiCad Library")
  (tags "capacitor tantalum")
  (attr smd)
  (fp_text reference REF** (at 0 -2.032) (layer F.SilkS)
    (effects (font (size 1 1) (thickness 0.15)))
  )
  (fp_text value CP_EIA-3216-10_Kemet-I (at 0 1.75) (layer F.Fab)
    (effects (font (size 1 1) (thickness 0.15)))
  )
  (fp_poly (pts (xy 0.3175 0.3175) (xy 0.127 0.3175) (xy 0.127 -0.3175) (xy 0.3175 -0.3175)) (layer F.SilkS) (width 0.1))
  (fp_line (start -0.127 -0.3175) (end -0.3175 -0.3175) (layer F.SilkS) (width 0.12))
  (fp_line (start -0.3175 -0.3175) (end -0.3175 0) (layer F.SilkS) (width 0.12))
  (fp_line (start -0.127 0.3175) (end -0.127 -0.3175) (layer F.SilkS) (width 0.12))
  (fp_line (start -0.3175 0.3175) (end -0.127 0.3175) (layer F.SilkS) (width 0.12))
  (fp_line (start -0.3175 0) (end -0.3175 0.3175) (layer F.SilkS) (width 0.12))
  (fp_line (start -0.381 0) (end -0.3175 0) (layer F.SilkS) (width 0.12))
  (fp_line (start 0.3175 0.3175) (end 0.3175 0) (layer F.SilkS) (width 0.12))
  (fp_line (start 0.127 0.3175) (end 0.3175 0.3175) (layer F.SilkS) (width 0.12))
  (fp_line (start 0.127 -0.3175) (end 0.127 0.3175) (layer F.SilkS) (width 0.12))
  (fp_line (start 0.3175 -0.3175) (end 0.127 -0.3175) (layer F.SilkS) (width 0.12))
  (fp_line (start 0.3175 0) (end 0.3175 -0.3175) (layer F.SilkS) (width 0.12))
  (fp_line (start 0.381 0) (end 0.3175 0) (layer F.SilkS) (width 0.12))
  (fp_line (start -2.9845 0.127) (end -2.9845 0.889) (layer F.SilkS) (width 0.12))
  (fp_line (start -3.3655 0.508) (end -2.6035 0.508) (layer F.SilkS) (width 0.12))
  (fp_line (start 1.6 -0.8) (end -1.2 -0.8) (layer F.Fab) (width 0.1))
  (fp_line (start -1.2 -0.8) (end -1.6 -0.4) (layer F.Fab) (width 0.1))
  (fp_line (start -1.6 -0.4) (end -1.6 0.8) (layer F.Fab) (width 0.1))
  (fp_line (start -1.6 0.8) (end 1.6 0.8) (layer F.Fab) (width 0.1))
  (fp_line (start 1.6 0.8) (end 1.6 -0.8) (layer F.Fab) (width 0.1))
  (fp_line (start -2.3 1.05) (end -2.3 -1.05) (layer F.CrtYd) (width 0.05))
  (fp_line (start -2.3 -1.05) (end 2.3 -1.05) (layer F.CrtYd) (width 0.05))
  (fp_line (start 2.3 -1.05) (end 2.3 1.05) (layer F.CrtYd) (width 0.05))
  (fp_line (start 2.3 1.05) (end -2.3 1.05) (layer F.CrtYd) (width 0.05))
  (fp_line (start -2.286 -1.016) (end -2.286 1.016) (layer F.SilkS) (width 0.12))
  (fp_line (start -2.286 1.016) (end 2.286 1.016) (layer F.SilkS) (width 0.12))
  (fp_line (start 2.286 1.016) (end 2.286 -1.016) (layer F.SilkS) (width 0.12))
  (fp_line (start 2.286 -1.016) (end -2.286 -1.016) (layer F.SilkS) (width 0.12))
  (fp_poly (pts (xy -0.889 -1.016) (xy -1.524 -1.016) (xy -1.524 -1.27) (xy -0.889 -1.27)) (layer F.SilkS) (width 0.1))
  (fp_poly (pts (xy -0.889 1.27) (xy -1.524 1.27) (xy -1.524 1.016) (xy -0.889 1.016)) (layer F.SilkS) (width 0.1))
  (fp_text user %R (at 0 0) (layer F.Fab)
    (effects (font (size 0.8 0.8) (thickness 0.12)))
  )
  (pad 2 smd roundrect (at 1.35 0) (size 1.4 1.35) (layers F.Cu F.Paste F.Mask) (roundrect_rratio 0.185185))
  (pad 1 smd roundrect (at -1.35 0) (size 1.4 1.35) (layers F.Cu F.Paste F.Mask) (roundrect_rratio 0.185185))
  (model ${KISYS3DMOD}/Capacitor_Tantalum_SMD.3dshapes/CP_EIA-3216-10_Kemet-I.wrl
    (at (xyz 0 0 0))
    (scale (xyz 1 1 1))
    (rotate (xyz 0 0 0))
  )
)
