(module CP_EIA-7260-28_AVX-M_Pad2.68x6.30mm (layer F.Cu) (tedit 608D2682)
  (descr "Tantalum Capacitor SMD AVX-M (7260-28 Metric), IPC_7351 nominal, (Body size from: http://datasheets.avx.com/F72-F75.pdf), Alternate KiCad Library")
  (tags "capacitor tantalum")
  (attr smd)
  (fp_text reference REF** (at 0 -4.318) (layer F.SilkS)
    (effects (font (size 1 1) (thickness 0.15)))
  )
  (fp_text value CP_EIA-7260-28_AVX-M_Pad2.68x6.30mm (at 0 4.1) (layer F.Fab)
    (effects (font (size 1 1) (thickness 0.15)))
  )
  (fp_line (start -4.5085 3.429) (end 4.5085 3.429) (layer F.SilkS) (width 0.12))
  (fp_line (start 4.5085 3.429) (end 4.5085 -3.429) (layer F.SilkS) (width 0.12))
  (fp_line (start -4.5085 -3.429) (end -4.5085 -3.3655) (layer F.SilkS) (width 0.12))
  (fp_line (start 4.5085 -3.429) (end -4.5085 -3.429) (layer F.SilkS) (width 0.12))
  (fp_line (start -4.5085 -3.3655) (end -4.5085 3.3655) (layer F.SilkS) (width 0.12))
  (fp_poly (pts (xy -2.159 -3.429) (xy -3.048 -3.429) (xy -3.048 -3.683) (xy -2.159 -3.683)) (layer F.SilkS) (width 0.1))
  (fp_poly (pts (xy -2.159 3.683) (xy -3.048 3.683) (xy -3.048 3.429) (xy -2.159 3.429)) (layer F.SilkS) (width 0.1))
  (fp_line (start -4.5085 3.3655) (end -4.5085 3.429) (layer F.SilkS) (width 0.12))
  (fp_line (start 4.52 3.4) (end -4.52 3.4) (layer F.CrtYd) (width 0.05))
  (fp_line (start 4.52 -3.4) (end 4.52 3.4) (layer F.CrtYd) (width 0.05))
  (fp_line (start -4.52 -3.4) (end 4.52 -3.4) (layer F.CrtYd) (width 0.05))
  (fp_line (start -4.52 3.4) (end -4.52 -3.4) (layer F.CrtYd) (width 0.05))
  (fp_line (start 3.6 3) (end 3.6 -3) (layer F.Fab) (width 0.1))
  (fp_line (start -3.6 3) (end 3.6 3) (layer F.Fab) (width 0.1))
  (fp_line (start -3.6 -2) (end -3.6 3) (layer F.Fab) (width 0.1))
  (fp_line (start -2.6 -3) (end -3.6 -2) (layer F.Fab) (width 0.1))
  (fp_line (start 3.6 -3) (end -2.6 -3) (layer F.Fab) (width 0.1))
  (fp_line (start -5.588 2.921) (end -4.826 2.921) (layer F.SilkS) (width 0.12))
  (fp_line (start -5.207 2.54) (end -5.207 3.302) (layer F.SilkS) (width 0.12))
  (fp_line (start -0.8255 -1.524) (end -0.8255 0) (layer F.SilkS) (width 0.12))
  (fp_line (start -0.8255 1.5875) (end -0.8255 0) (layer F.SilkS) (width 0.12))
  (fp_line (start 0.8255 1.5875) (end 0.8255 0) (layer F.SilkS) (width 0.12))
  (fp_line (start -0.3175 1.5875) (end -0.3175 0) (layer F.SilkS) (width 0.12))
  (fp_line (start -0.3175 -1.524) (end -0.3175 0) (layer F.SilkS) (width 0.12))
  (fp_line (start 0.3175 1.5875) (end 0.3175 0) (layer F.SilkS) (width 0.12))
  (fp_line (start 0.8255 -1.524) (end 0.8255 0) (layer F.SilkS) (width 0.12))
  (fp_line (start 0.3175 -1.524) (end 0.3175 0) (layer F.SilkS) (width 0.12))
  (fp_line (start 0.8255 -1.524) (end 0.3175 -1.524) (layer F.SilkS) (width 0.12))
  (fp_line (start -0.3175 -1.524) (end -0.8255 -1.524) (layer F.SilkS) (width 0.12))
  (fp_line (start -0.8255 1.5875) (end -0.3175 1.5875) (layer F.SilkS) (width 0.12))
  (fp_line (start 0.3175 1.5875) (end 0.8255 1.5875) (layer F.SilkS) (width 0.12))
  (fp_line (start 0.8255 0) (end 1.3335 0) (layer F.SilkS) (width 0.12))
  (fp_line (start -1.3335 0) (end -0.8255 0) (layer F.SilkS) (width 0.12))
  (fp_poly (pts (xy 0.8255 1.5875) (xy 0.3175 1.5875) (xy 0.3175 -1.524) (xy 0.8255 -1.524)) (layer F.SilkS) (width 0.1))
  (fp_text user %R (at 0 0) (layer F.Fab)
    (effects (font (size 1 1) (thickness 0.15)))
  )
  (pad 2 smd roundrect (at 2.9375 0) (size 2.675 6.3) (layers F.Cu F.Paste F.Mask) (roundrect_rratio 0.093458))
  (pad 1 smd roundrect (at -2.9375 0) (size 2.675 6.3) (layers F.Cu F.Paste F.Mask) (roundrect_rratio 0.093458))
  (model ${KISYS3DMOD}/Capacitor_Tantalum_SMD.3dshapes/CP_EIA-7260-28_AVX-M.wrl
    (at (xyz 0 0 0))
    (scale (xyz 1 1 1))
    (rotate (xyz 0 0 0))
  )
)
