(module CP_EIA-7360-38_Kemet-E_Pad2.25x4.25mm (layer F.Cu) (tedit 608D26DE)
  (descr "Tantalum Capacitor SMD Kemet-E (7360-38 Metric), IPC_7351 nominal, (Body size from: http://www.kemet.com/Lists/ProductCatalog/Attachments/253/KEM_TC101_STD.pdf), Alternate KiCad Library")
  (tags "capacitor tantalum")
  (attr smd)
  (fp_text reference REF** (at 0 -3.95) (layer F.SilkS)
    (effects (font (size 1 1) (thickness 0.15)))
  )
  (fp_text value CP_EIA-7360-38_Kemet-E_Pad2.25x4.25mm (at 0 3.95) (layer F.Fab)
    (effects (font (size 1 1) (thickness 0.15)))
  )
  (fp_poly (pts (xy -2.2225 3.4925) (xy -3.302 3.4925) (xy -3.302 3.175) (xy -2.2225 3.175)) (layer F.SilkS) (width 0.1))
  (fp_poly (pts (xy -2.2225 -3.175) (xy -3.302 -3.175) (xy -3.302 -3.4925) (xy -2.2225 -3.4925)) (layer F.SilkS) (width 0.1))
  (fp_line (start 4.572 -3.175) (end -4.572 -3.175) (layer F.SilkS) (width 0.12))
  (fp_line (start 4.572 3.175) (end 4.572 -3.175) (layer F.SilkS) (width 0.12))
  (fp_line (start -4.572 3.175) (end 4.572 3.175) (layer F.SilkS) (width 0.12))
  (fp_line (start -4.572 -3.175) (end -4.572 3.175) (layer F.SilkS) (width 0.12))
  (fp_line (start 4.58 3.25) (end -4.58 3.25) (layer F.CrtYd) (width 0.05))
  (fp_line (start 4.58 -3.25) (end 4.58 3.25) (layer F.CrtYd) (width 0.05))
  (fp_line (start -4.58 -3.25) (end 4.58 -3.25) (layer F.CrtYd) (width 0.05))
  (fp_line (start -4.58 3.25) (end -4.58 -3.25) (layer F.CrtYd) (width 0.05))
  (fp_line (start 3.65 3) (end 3.65 -3) (layer F.Fab) (width 0.1))
  (fp_line (start -3.65 3) (end 3.65 3) (layer F.Fab) (width 0.1))
  (fp_line (start -3.65 -2) (end -3.65 3) (layer F.Fab) (width 0.1))
  (fp_line (start -2.65 -3) (end -3.65 -2) (layer F.Fab) (width 0.1))
  (fp_line (start 3.65 -3) (end -2.65 -3) (layer F.Fab) (width 0.1))
  (fp_line (start -5.588 2.667) (end -4.826 2.667) (layer F.SilkS) (width 0.12))
  (fp_line (start -5.207 2.286) (end -5.207 3.048) (layer F.SilkS) (width 0.12))
  (fp_line (start -1.778 0) (end -0.8255 0) (layer F.SilkS) (width 0.12))
  (fp_line (start 0.8255 0) (end 1.778 0) (layer F.SilkS) (width 0.12))
  (fp_line (start 0.8255 1.5875) (end 0.8255 0) (layer F.SilkS) (width 0.12))
  (fp_line (start -0.8255 1.5875) (end -0.8255 0) (layer F.SilkS) (width 0.12))
  (fp_line (start 0.3175 -1.524) (end 0.3175 0) (layer F.SilkS) (width 0.12))
  (fp_line (start -0.8255 -1.524) (end -0.8255 0) (layer F.SilkS) (width 0.12))
  (fp_line (start -0.3175 -1.524) (end -0.8255 -1.524) (layer F.SilkS) (width 0.12))
  (fp_line (start 0.8255 -1.524) (end 0.8255 0) (layer F.SilkS) (width 0.12))
  (fp_line (start -0.8255 1.5875) (end -0.3175 1.5875) (layer F.SilkS) (width 0.12))
  (fp_line (start 0.8255 -1.524) (end 0.3175 -1.524) (layer F.SilkS) (width 0.12))
  (fp_line (start -0.3175 -1.524) (end -0.3175 0) (layer F.SilkS) (width 0.12))
  (fp_line (start -0.3175 1.5875) (end -0.3175 0) (layer F.SilkS) (width 0.12))
  (fp_line (start 0.3175 1.5875) (end 0.3175 0) (layer F.SilkS) (width 0.12))
  (fp_poly (pts (xy 0.8255 1.5875) (xy 0.3175 1.5875) (xy 0.3175 -1.524) (xy 0.8255 -1.524)) (layer F.SilkS) (width 0.1))
  (fp_line (start 0.3175 1.5875) (end 0.8255 1.5875) (layer F.SilkS) (width 0.12))
  (fp_text user %R (at 0 0) (layer F.Fab)
    (effects (font (size 1 1) (thickness 0.15)))
  )
  (pad 2 smd roundrect (at 3.2 0) (size 2.25 4.25) (layers F.Cu F.Paste F.Mask) (roundrect_rratio 0.111111))
  (pad 1 smd roundrect (at -3.2 0) (size 2.25 4.25) (layers F.Cu F.Paste F.Mask) (roundrect_rratio 0.111111))
  (model ${KISYS3DMOD}/Capacitor_Tantalum_SMD.3dshapes/CP_EIA-7360-38_Kemet-E.wrl
    (at (xyz 0 0 0))
    (scale (xyz 1 1 1))
    (rotate (xyz 0 0 0))
  )
)
