(module CP_EIA-3216-12_Kemet-S_Pad1.58x1.35mm (layer F.Cu) (tedit 608D25BF)
  (descr "Tantalum Capacitor SMD Kemet-S (3216-12 Metric), IPC_7351 nominal, (Body size from: http://www.kemet.com/Lists/ProductCatalog/Attachments/253/KEM_TC101_STD.pdf), Alternate KiCad Library")
  (tags "capacitor tantalum")
  (attr smd)
  (fp_text reference REF** (at 0 -1.9685) (layer F.SilkS)
    (effects (font (size 1 1) (thickness 0.15)))
  )
  (fp_text value CP_EIA-3216-12_Kemet-S_Pad1.58x1.35mm (at 0 1.75) (layer F.Fab)
    (effects (font (size 1 1) (thickness 0.15)))
  )
  (fp_poly (pts (xy -0.889 1.27) (xy -1.524 1.27) (xy -1.524 1.016) (xy -0.889 1.016)) (layer F.SilkS) (width 0.1))
  (fp_poly (pts (xy -0.889 -1.016) (xy -1.524 -1.016) (xy -1.524 -1.27) (xy -0.889 -1.27)) (layer F.SilkS) (width 0.1))
  (fp_line (start 2.4765 -1.016) (end -2.4765 -1.016) (layer F.SilkS) (width 0.12))
  (fp_line (start 2.4765 1.016) (end 2.4765 -1.016) (layer F.SilkS) (width 0.12))
  (fp_line (start -2.4765 1.016) (end 2.4765 1.016) (layer F.SilkS) (width 0.12))
  (fp_line (start -2.4765 -1.016) (end -2.4765 1.016) (layer F.SilkS) (width 0.12))
  (fp_line (start 2.48 1.05) (end -2.48 1.05) (layer F.CrtYd) (width 0.05))
  (fp_line (start 2.48 -1.05) (end 2.48 1.05) (layer F.CrtYd) (width 0.05))
  (fp_line (start -2.48 -1.05) (end 2.48 -1.05) (layer F.CrtYd) (width 0.05))
  (fp_line (start -2.48 1.05) (end -2.48 -1.05) (layer F.CrtYd) (width 0.05))
  (fp_line (start 1.6 0.8) (end 1.6 -0.8) (layer F.Fab) (width 0.1))
  (fp_line (start -1.6 0.8) (end 1.6 0.8) (layer F.Fab) (width 0.1))
  (fp_line (start -1.6 -0.4) (end -1.6 0.8) (layer F.Fab) (width 0.1))
  (fp_line (start -1.2 -0.8) (end -1.6 -0.4) (layer F.Fab) (width 0.1))
  (fp_line (start 1.6 -0.8) (end -1.2 -0.8) (layer F.Fab) (width 0.1))
  (fp_line (start -3.556 0.508) (end -2.794 0.508) (layer F.SilkS) (width 0.12))
  (fp_line (start -3.175 0.127) (end -3.175 0.889) (layer F.SilkS) (width 0.12))
  (fp_line (start 0.381 0) (end 0.3175 0) (layer F.SilkS) (width 0.12))
  (fp_line (start 0.3175 0) (end 0.3175 -0.3175) (layer F.SilkS) (width 0.12))
  (fp_line (start 0.3175 -0.3175) (end 0.127 -0.3175) (layer F.SilkS) (width 0.12))
  (fp_line (start 0.127 -0.3175) (end 0.127 0.3175) (layer F.SilkS) (width 0.12))
  (fp_line (start 0.3175 0.3175) (end 0.3175 0) (layer F.SilkS) (width 0.12))
  (fp_line (start 0.127 0.3175) (end 0.3175 0.3175) (layer F.SilkS) (width 0.12))
  (fp_line (start -0.127 -0.3175) (end -0.3175 -0.3175) (layer F.SilkS) (width 0.12))
  (fp_line (start -0.3175 -0.3175) (end -0.3175 0) (layer F.SilkS) (width 0.12))
  (fp_line (start -0.127 0.3175) (end -0.127 -0.3175) (layer F.SilkS) (width 0.12))
  (fp_line (start -0.3175 0.3175) (end -0.127 0.3175) (layer F.SilkS) (width 0.12))
  (fp_line (start -0.3175 0) (end -0.3175 0.3175) (layer F.SilkS) (width 0.12))
  (fp_line (start -0.381 0) (end -0.3175 0) (layer F.SilkS) (width 0.12))
  (fp_poly (pts (xy 0.3175 0.3175) (xy 0.127 0.3175) (xy 0.127 -0.3175) (xy 0.3175 -0.3175)) (layer F.SilkS) (width 0.1))
  (fp_text user %R (at 0 0) (layer F.Fab)
    (effects (font (size 0.8 0.8) (thickness 0.12)))
  )
  (pad 2 smd roundrect (at 1.4375 0) (size 1.575 1.35) (layers F.Cu F.Paste F.Mask) (roundrect_rratio 0.185185))
  (pad 1 smd roundrect (at -1.4375 0) (size 1.575 1.35) (layers F.Cu F.Paste F.Mask) (roundrect_rratio 0.185185))
  (model ${KISYS3DMOD}/Capacitor_Tantalum_SMD.3dshapes/CP_EIA-3216-12_Kemet-S.wrl
    (at (xyz 0 0 0))
    (scale (xyz 1 1 1))
    (rotate (xyz 0 0 0))
  )
)
