(module CP_EIA-1608-10_AVX-L (layer F.Cu) (tedit 607818A5)
  (descr "Tantalum Capacitor SMD AVX-L (1608-10 Metric), IPC_7351 nominal, (Body size from: https://www.vishay.com/docs/48064/_t58_vmn_pt0471_1601.pdf), Alternate KiCad Library")
  (tags "capacitor tantalum")
  (attr smd)
  (fp_text reference REF** (at 0 -1.8415) (layer F.SilkS)
    (effects (font (size 1 1) (thickness 0.15)))
  )
  (fp_text value CP_EIA-1608-10_AVX-L (at 0 1.48) (layer F.Fab)
    (effects (font (size 1 1) (thickness 0.15)))
  )
  (fp_poly (pts (xy -0.381 0.9525) (xy -0.8255 0.9525) (xy -0.8255 0.762) (xy -0.381 0.762)) (layer F.SilkS) (width 0.1))
  (fp_poly (pts (xy -0.381 -0.762) (xy -0.8255 -0.762) (xy -0.8255 -0.9525) (xy -0.381 -0.9525)) (layer F.SilkS) (width 0.1))
  (fp_line (start 1.524 -0.762) (end -1.524 -0.762) (layer F.SilkS) (width 0.12))
  (fp_line (start 1.524 0.762) (end 1.524 -0.762) (layer F.SilkS) (width 0.12))
  (fp_line (start -1.524 0.762) (end 1.524 0.762) (layer F.SilkS) (width 0.12))
  (fp_line (start -1.524 -0.762) (end -1.524 0.762) (layer F.SilkS) (width 0.12))
  (fp_line (start 1.5 0.78) (end -1.5 0.78) (layer F.CrtYd) (width 0.05))
  (fp_line (start 1.5 -0.78) (end 1.5 0.78) (layer F.CrtYd) (width 0.05))
  (fp_line (start -1.5 -0.78) (end 1.5 -0.78) (layer F.CrtYd) (width 0.05))
  (fp_line (start -1.5 0.78) (end -1.5 -0.78) (layer F.CrtYd) (width 0.05))
  (fp_line (start 0.8 0.425) (end 0.8 -0.425) (layer F.Fab) (width 0.1))
  (fp_line (start -0.8 0.425) (end 0.8 0.425) (layer F.Fab) (width 0.1))
  (fp_line (start -0.8 -0.125) (end -0.8 0.425) (layer F.Fab) (width 0.1))
  (fp_line (start -0.5 -0.425) (end -0.8 -0.125) (layer F.Fab) (width 0.1))
  (fp_line (start 0.8 -0.425) (end -0.5 -0.425) (layer F.Fab) (width 0.1))
  (fp_line (start -2.54 0.381) (end -1.778 0.381) (layer F.SilkS) (width 0.12))
  (fp_line (start -2.159 0) (end -2.159 0.762) (layer F.SilkS) (width 0.12))
  (fp_text user %R (at 0 0) (layer F.Fab)
    (effects (font (size 0.4 0.4) (thickness 0.06)))
  )
  (pad 2 smd roundrect (at 0.7125 0) (size 1.075 1.05) (layers F.Cu F.Paste F.Mask) (roundrect_rratio 0.238095))
  (pad 1 smd roundrect (at -0.7125 0) (size 1.075 1.05) (layers F.Cu F.Paste F.Mask) (roundrect_rratio 0.238095))
  (model ${KISYS3DMOD}/Capacitor_Tantalum_SMD.3dshapes/CP_EIA-1608-10_AVX-L.wrl
    (at (xyz 0 0 0))
    (scale (xyz 1 1 1))
    (rotate (xyz 0 0 0))
  )
)
