(module CP_EIA-7132-28_AVX-C (layer F.Cu) (tedit 60781A18)
  (descr "Tantalum Capacitor SMD AVX-C (7132-28 Metric), IPC_7351 nominal, (Body size from: http://datasheets.avx.com/F72-F75.pdf), Alternate KiCad Library")
  (tags "capacitor tantalum")
  (attr smd)
  (fp_text reference REF** (at 0 -2.9845) (layer F.SilkS)
    (effects (font (size 1 1) (thickness 0.15)))
  )
  (fp_text value CP_EIA-7132-28_AVX-C (at 0 2.7) (layer F.Fab)
    (effects (font (size 1 1) (thickness 0.15)))
  )
  (fp_poly (pts (xy 0.762 1.27) (xy 0.3175 1.27) (xy 0.3175 -1.27) (xy 0.762 -1.27)) (layer F.SilkS) (width 0.1))
  (fp_line (start -0.762 -1.27) (end -0.762 0) (layer F.SilkS) (width 0.12))
  (fp_line (start -0.762 1.27) (end -0.762 0) (layer F.SilkS) (width 0.12))
  (fp_line (start -0.3175 -1.27) (end -0.3175 0) (layer F.SilkS) (width 0.12))
  (fp_line (start 0.762 0) (end 1.2065 0) (layer F.SilkS) (width 0.12))
  (fp_line (start 0.762 1.27) (end 0.3175 1.27) (layer F.SilkS) (width 0.12))
  (fp_line (start 0.762 1.27) (end 0.762 0) (layer F.SilkS) (width 0.12))
  (fp_line (start -0.3175 1.27) (end -0.3175 0) (layer F.SilkS) (width 0.12))
  (fp_line (start -0.3175 1.27) (end -0.762 1.27) (layer F.SilkS) (width 0.12))
  (fp_line (start 0.762 -1.27) (end 0.3175 -1.27) (layer F.SilkS) (width 0.12))
  (fp_line (start 0.3175 1.27) (end 0.3175 0) (layer F.SilkS) (width 0.12))
  (fp_line (start -0.762 0) (end -1.2065 0) (layer F.SilkS) (width 0.12))
  (fp_line (start -0.3175 -1.27) (end -0.762 -1.27) (layer F.SilkS) (width 0.12))
  (fp_line (start 0.3175 -1.27) (end 0.3175 0) (layer F.SilkS) (width 0.12))
  (fp_line (start 0.762 -1.27) (end 0.762 0) (layer F.SilkS) (width 0.12))
  (fp_line (start -4.953 1.143) (end -4.953 1.905) (layer F.SilkS) (width 0.12))
  (fp_line (start -5.334 1.524) (end -4.572 1.524) (layer F.SilkS) (width 0.12))
  (fp_line (start 3.55 -1.6) (end -2.75 -1.6) (layer F.Fab) (width 0.1))
  (fp_line (start -2.75 -1.6) (end -3.55 -0.8) (layer F.Fab) (width 0.1))
  (fp_line (start -3.55 -0.8) (end -3.55 1.6) (layer F.Fab) (width 0.1))
  (fp_line (start -3.55 1.6) (end 3.55 1.6) (layer F.Fab) (width 0.1))
  (fp_line (start 3.55 1.6) (end 3.55 -1.6) (layer F.Fab) (width 0.1))
  (fp_line (start -4.3 2) (end -4.3 -2) (layer F.CrtYd) (width 0.05))
  (fp_line (start -4.3 -2) (end 4.3 -2) (layer F.CrtYd) (width 0.05))
  (fp_line (start 4.3 -2) (end 4.3 2) (layer F.CrtYd) (width 0.05))
  (fp_line (start 4.3 2) (end -4.3 2) (layer F.CrtYd) (width 0.05))
  (fp_line (start -4.318 -2.032) (end -4.318 1.9685) (layer F.SilkS) (width 0.12))
  (fp_line (start -4.318 1.9685) (end -4.318 2.032) (layer F.SilkS) (width 0.12))
  (fp_line (start -4.318 2.032) (end 4.318 2.032) (layer F.SilkS) (width 0.12))
  (fp_line (start 4.318 2.032) (end 4.318 -2.032) (layer F.SilkS) (width 0.12))
  (fp_line (start 4.318 -2.032) (end -4.318 -2.032) (layer F.SilkS) (width 0.12))
  (fp_poly (pts (xy -2.0955 -2.032) (xy -2.9845 -2.032) (xy -2.9845 -2.286) (xy -2.0955 -2.286)) (layer F.SilkS) (width 0.1))
  (fp_poly (pts (xy -2.0955 2.286) (xy -2.9845 2.286) (xy -2.9845 2.032) (xy -2.0955 2.032)) (layer F.SilkS) (width 0.1))
  (fp_text user %R (at 0 0) (layer F.Fab)
    (effects (font (size 1 1) (thickness 0.15)))
  )
  (pad 2 smd roundrect (at 2.775 0) (size 2.55 3.5) (layers F.Cu F.Paste F.Mask) (roundrect_rratio 0.098039))
  (pad 1 smd roundrect (at -2.775 0) (size 2.55 3.5) (layers F.Cu F.Paste F.Mask) (roundrect_rratio 0.098039))
  (model ${KISYS3DMOD}/Capacitor_Tantalum_SMD.3dshapes/CP_EIA-7132-28_AVX-C.wrl
    (at (xyz 0 0 0))
    (scale (xyz 1 1 1))
    (rotate (xyz 0 0 0))
  )
)
