{
    "$schema": "https://gitlab.com/qu1ck/kicad/-/raw/pcm/kicad/pcm/schemas/pcm.v1.schema.json#",
    "name": "Delisted Package",
    "description": "This package should not appear in listing",
    "description_full": "Not in listing because it has no versions",
    "identifier": "delisted-package",
    "type": "plugin",
    "author": {
        "name": "John Doe",
        "contact": {
            "email": "john@doe.com",
            "web": "johndoe.com"
        }
    },
    "maintainer": {
        "name": "John Doe",
        "contact": {
            "email": "john@doe.com",
            "web": "johndoe.com"
        }
    },
    "license": "WTFPL",
    "resources": {
        "Project page": "https://example.com",
        "Github": "https://github.com/example"
    },
    "tags": [
        "dummy",
        "test"
    ],
    "versions": []
}