{
    "$schema": "https://gitlab.com/qu1ck/kicad/-/raw/pcm/kicad/pcm/schemas/pcm.v1.schema.json#",
    "name": "Very Large Package",
    "description": "Test plugin with 256Mb random data file",
    "description_full": "Downloading this should take a while.",
    "identifier": "VeryLargePackage",
    "type": "plugin",
    "author": {
        "name": "John Doe",
        "contact": {
            "email": "john@doe.com",
            "web": "johndoe.com"
        }
    },
    "maintainer": {
        "name": "John Doe",
        "contact": {
            "email": "john@doe.com",
            "web": "johndoe.com"
        }
    },
    "license": "WTFPL",
    "resources": {
        "Project page": "https://example.com",
        "Github": "https://github.com/example"
    },
    "tags": [
        "dummy",
        "test"
    ],
    "versions": [{
        "version": "1.0",
        "status": "stable",
        "kicad_version": "5.99",
        "platforms": ["linux", "macos", "windows"]
    }]
}