(module DFN-10-1EP_3x3mm_P0.5mm_EP1.65x2.38mm_ThermalVias (layer F.Cu) (tedit 607A6D2B)
  (descr "DFN, 10 Pin (https://www.analog.com/media/en/technical-documentation/data-sheets/3471fb.pdf#page=15), Alternate KiCad Library")
  (tags "DFN NoLead")
  (attr smd)
  (fp_text reference REF** (at 0 -2.45) (layer F.SilkS)
    (effects (font (size 1 1) (thickness 0.15)))
  )
  (fp_text value DFN-10-1EP_3x3mm_P0.5mm_EP1.65x2.38mm_ThermalVias (at 0 2.45) (layer F.Fab)
    (effects (font (size 1 1) (thickness 0.15)))
  )
  (fp_line (start -2.0955 1.651) (end -2.0955 -1.143) (layer F.SilkS) (width 0.12))
  (fp_line (start 2.0955 1.651) (end -2.0955 1.651) (layer F.SilkS) (width 0.12))
  (fp_line (start 2.0955 -1.651) (end 2.0955 1.651) (layer F.SilkS) (width 0.12))
  (fp_line (start -1.5875 -1.651) (end 2.0955 -1.651) (layer F.SilkS) (width 0.12))
  (fp_line (start 2.12 -1.75) (end -2.12 -1.75) (layer F.CrtYd) (width 0.05))
  (fp_line (start 2.12 1.75) (end 2.12 -1.75) (layer F.CrtYd) (width 0.05))
  (fp_line (start -2.12 1.75) (end 2.12 1.75) (layer F.CrtYd) (width 0.05))
  (fp_line (start -2.12 -1.75) (end -2.12 1.75) (layer F.CrtYd) (width 0.05))
  (fp_line (start -1.5 -0.75) (end -0.75 -1.5) (layer F.Fab) (width 0.1))
  (fp_line (start -1.5 1.5) (end -1.5 -0.75) (layer F.Fab) (width 0.1))
  (fp_line (start 1.5 1.5) (end -1.5 1.5) (layer F.Fab) (width 0.1))
  (fp_line (start 1.5 -1.5) (end 1.5 1.5) (layer F.Fab) (width 0.1))
  (fp_line (start -0.75 -1.5) (end 1.5 -1.5) (layer F.Fab) (width 0.1))
  (fp_circle (center -1.905 -1.4605) (end -1.8415 -1.4605) (layer F.SilkS) (width 0.2))
  (fp_text user %R (at 0 0) (layer F.Fab)
    (effects (font (size 0.75 0.75) (thickness 0.11)))
  )
  (pad "" smd roundrect (at 0.41 0.595) (size 0.67 0.96) (layers F.Paste) (roundrect_rratio 0.25))
  (pad "" smd roundrect (at 0.41 -0.595) (size 0.67 0.96) (layers F.Paste) (roundrect_rratio 0.25))
  (pad "" smd roundrect (at -0.41 0.595) (size 0.67 0.96) (layers F.Paste) (roundrect_rratio 0.25))
  (pad "" smd roundrect (at -0.41 -0.595) (size 0.67 0.96) (layers F.Paste) (roundrect_rratio 0.25))
  (pad 11 smd rect (at 0 0) (size 1.65 2.38) (layers B.Cu B.Mask))
  (pad 11 thru_hole circle (at 0.575 0.94) (size 0.5 0.5) (drill 0.2) (layers *.Cu))
  (pad 11 thru_hole circle (at -0.575 0.94) (size 0.5 0.5) (drill 0.2) (layers *.Cu))
  (pad 11 thru_hole circle (at 0.575 0) (size 0.5 0.5) (drill 0.2) (layers *.Cu))
  (pad 11 thru_hole circle (at -0.575 0) (size 0.5 0.5) (drill 0.2) (layers *.Cu))
  (pad 11 thru_hole circle (at 0.575 -0.94) (size 0.5 0.5) (drill 0.2) (layers *.Cu))
  (pad 11 thru_hole circle (at -0.575 -0.94) (size 0.5 0.5) (drill 0.2) (layers *.Cu))
  (pad 11 smd rect (at 0 0) (size 1.65 2.38) (layers F.Cu F.Mask))
  (pad 10 smd roundrect (at 1.45 -1) (size 0.85 0.25) (layers F.Cu F.Paste F.Mask) (roundrect_rratio 0.25))
  (pad 9 smd roundrect (at 1.45 -0.5) (size 0.85 0.25) (layers F.Cu F.Paste F.Mask) (roundrect_rratio 0.25))
  (pad 8 smd roundrect (at 1.45 0) (size 0.85 0.25) (layers F.Cu F.Paste F.Mask) (roundrect_rratio 0.25))
  (pad 7 smd roundrect (at 1.45 0.5) (size 0.85 0.25) (layers F.Cu F.Paste F.Mask) (roundrect_rratio 0.25))
  (pad 6 smd roundrect (at 1.45 1) (size 0.85 0.25) (layers F.Cu F.Paste F.Mask) (roundrect_rratio 0.25))
  (pad 5 smd roundrect (at -1.45 1) (size 0.85 0.25) (layers F.Cu F.Paste F.Mask) (roundrect_rratio 0.25))
  (pad 4 smd roundrect (at -1.45 0.5) (size 0.85 0.25) (layers F.Cu F.Paste F.Mask) (roundrect_rratio 0.25))
  (pad 3 smd roundrect (at -1.45 0) (size 0.85 0.25) (layers F.Cu F.Paste F.Mask) (roundrect_rratio 0.25))
  (pad 2 smd roundrect (at -1.45 -0.5) (size 0.85 0.25) (layers F.Cu F.Paste F.Mask) (roundrect_rratio 0.25))
  (pad 1 smd roundrect (at -1.45 -1) (size 0.85 0.25) (layers F.Cu F.Paste F.Mask) (roundrect_rratio 0.25))
  (model ${KISYS3DMOD}/Package_DFN_QFN.3dshapes/DFN-10-1EP_3x3mm_P0.5mm_EP1.65x2.38mm.wrl
    (at (xyz 0 0 0))
    (scale (xyz 1 1 1))
    (rotate (xyz 0 0 0))
  )
)
