(module DFN-8-1EP_2x3mm_P0.5mm_EP0.61x2.2mm (layer F.Cu) (tedit 607A6C68)
  (descr "DDB Package; 8-Lead Plastic DFN (3mm x 2mm) (see Linear Technology DFN_8_05-08-1702.pdf), Alternate KiCad Library")
  (tags "DFN 0.5")
  (attr smd)
  (fp_text reference REF** (at 0 -2.55) (layer F.SilkS)
    (effects (font (size 1 1) (thickness 0.15)))
  )
  (fp_text value DFN-8-1EP_2x3mm_P0.5mm_EP0.61x2.2mm (at 0 2.55) (layer F.Fab)
    (effects (font (size 1 1) (thickness 0.15)))
  )
  (fp_line (start -1.524 1.778) (end -1.524 -1.397) (layer F.SilkS) (width 0.12))
  (fp_line (start -1.4605 1.778) (end -1.524 1.778) (layer F.SilkS) (width 0.12))
  (fp_line (start 1.524 1.778) (end -1.4605 1.778) (layer F.SilkS) (width 0.12))
  (fp_line (start 1.524 -1.778) (end 1.524 1.778) (layer F.SilkS) (width 0.12))
  (fp_line (start -1.143 -1.778) (end 1.524 -1.778) (layer F.SilkS) (width 0.12))
  (fp_line (start -1.55 1.8) (end 1.55 1.8) (layer F.CrtYd) (width 0.05))
  (fp_line (start -1.55 -1.8) (end 1.55 -1.8) (layer F.CrtYd) (width 0.05))
  (fp_line (start 1.55 -1.8) (end 1.55 1.8) (layer F.CrtYd) (width 0.05))
  (fp_line (start -1.55 -1.8) (end -1.55 1.8) (layer F.CrtYd) (width 0.05))
  (fp_line (start -1 -1) (end -0.5 -1.5) (layer F.Fab) (width 0.15))
  (fp_line (start -1 1.5) (end -1 -1) (layer F.Fab) (width 0.15))
  (fp_line (start 1 1.5) (end -1 1.5) (layer F.Fab) (width 0.15))
  (fp_line (start 1 -1.5) (end 1 1.5) (layer F.Fab) (width 0.15))
  (fp_line (start -0.5 -1.5) (end 1 -1.5) (layer F.Fab) (width 0.15))
  (fp_circle (center -1.397 -1.651) (end -1.3335 -1.651) (layer F.SilkS) (width 0.15))
  (fp_text user %R (at 0 0 90) (layer F.Fab)
    (effects (font (size 0.5 0.5) (thickness 0.075)))
  )
  (pad "" smd rect (at 0 0.734) (size 0.5 0.59) (layers F.Paste))
  (pad "" smd rect (at 0 0) (size 0.5 0.59) (layers F.Paste))
  (pad "" smd rect (at 0 -0.734) (size 0.5 0.59) (layers F.Paste))
  (pad 9 smd rect (at 0 0) (size 0.61 2.2) (layers F.Cu F.Mask))
  (pad 8 smd rect (at 0.925 -0.75) (size 0.7 0.25) (layers F.Cu F.Paste F.Mask))
  (pad 7 smd rect (at 0.925 -0.25) (size 0.7 0.25) (layers F.Cu F.Paste F.Mask))
  (pad 6 smd rect (at 0.925 0.25) (size 0.7 0.25) (layers F.Cu F.Paste F.Mask))
  (pad 5 smd rect (at 0.925 0.75) (size 0.7 0.25) (layers F.Cu F.Paste F.Mask))
  (pad 4 smd rect (at -0.925 0.75) (size 0.7 0.25) (layers F.Cu F.Paste F.Mask))
  (pad 3 smd rect (at -0.925 0.25) (size 0.7 0.25) (layers F.Cu F.Paste F.Mask))
  (pad 2 smd rect (at -0.925 -0.25) (size 0.7 0.25) (layers F.Cu F.Paste F.Mask))
  (pad 1 smd rect (at -0.925 -0.75) (size 0.7 0.25) (layers F.Cu F.Paste F.Mask))
  (model ${KISYS3DMOD}/Package_DFN_QFN.3dshapes/DFN-8-1EP_2x3mm_P0.5mm_EP0.61x2.2mm.wrl
    (at (xyz 0 0 0))
    (scale (xyz 1 1 1))
    (rotate (xyz 0 0 0))
  )
)
