(module DFN-8-1EP_2x2mm_P0.5mm_EP0.7x1.3mm (layer F.Cu) (tedit 607A6C43)
  (descr "DFN, 8 Pin (https://www.onsemi.com/pub/Collateral/NUF4401MN-D.PDF#page=6), Alternate KiCad Library")
  (tags "DFN NoLead")
  (attr smd)
  (fp_text reference REF** (at 0 -1.95) (layer F.SilkS)
    (effects (font (size 1 1) (thickness 0.15)))
  )
  (fp_text value DFN-8-1EP_2x2mm_P0.5mm_EP0.7x1.3mm (at 0 1.95) (layer F.Fab)
    (effects (font (size 1 1) (thickness 0.15)))
  )
  (fp_line (start -1.5875 1.2065) (end -1.5875 -0.8255) (layer F.SilkS) (width 0.12))
  (fp_line (start 1.5875 1.2065) (end -1.5875 1.2065) (layer F.SilkS) (width 0.12))
  (fp_line (start 1.5875 -1.2065) (end 1.5875 1.2065) (layer F.SilkS) (width 0.12))
  (fp_line (start -1.2065 -1.2065) (end 1.524 -1.2065) (layer F.SilkS) (width 0.12))
  (fp_line (start 1.6 -1.25) (end -1.6 -1.25) (layer F.CrtYd) (width 0.05))
  (fp_line (start 1.6 1.25) (end 1.6 -1.25) (layer F.CrtYd) (width 0.05))
  (fp_line (start -1.6 1.25) (end 1.6 1.25) (layer F.CrtYd) (width 0.05))
  (fp_line (start -1.6 -1.25) (end -1.6 1.25) (layer F.CrtYd) (width 0.05))
  (fp_line (start -1 -0.5) (end -0.5 -1) (layer F.Fab) (width 0.1))
  (fp_line (start -1 1) (end -1 -0.5) (layer F.Fab) (width 0.1))
  (fp_line (start 1 1) (end -1 1) (layer F.Fab) (width 0.1))
  (fp_line (start 1 -1) (end 1 1) (layer F.Fab) (width 0.1))
  (fp_line (start -0.5 -1) (end 1 -1) (layer F.Fab) (width 0.1))
  (fp_circle (center -1.524 -1.143) (end -1.4605 -1.143) (layer F.SilkS) (width 0.15))
  (fp_text user %R (at 0 0) (layer F.Fab)
    (effects (font (size 0.5 0.5) (thickness 0.08)))
  )
  (pad "" smd roundrect (at 0.175 0.325) (size 0.28 0.52) (layers F.Paste) (roundrect_rratio 0.25))
  (pad "" smd roundrect (at 0.175 -0.325) (size 0.28 0.52) (layers F.Paste) (roundrect_rratio 0.25))
  (pad "" smd roundrect (at -0.175 0.325) (size 0.28 0.52) (layers F.Paste) (roundrect_rratio 0.25))
  (pad "" smd roundrect (at -0.175 -0.325) (size 0.28 0.52) (layers F.Paste) (roundrect_rratio 0.25))
  (pad 9 smd rect (at 0 0) (size 0.7 1.3) (layers F.Cu F.Mask))
  (pad 8 smd roundrect (at 0.9625 -0.75) (size 0.775 0.25) (layers F.Cu F.Paste F.Mask) (roundrect_rratio 0.25))
  (pad 7 smd roundrect (at 0.9625 -0.25) (size 0.775 0.25) (layers F.Cu F.Paste F.Mask) (roundrect_rratio 0.25))
  (pad 6 smd roundrect (at 0.9625 0.25) (size 0.775 0.25) (layers F.Cu F.Paste F.Mask) (roundrect_rratio 0.25))
  (pad 5 smd roundrect (at 0.9625 0.75) (size 0.775 0.25) (layers F.Cu F.Paste F.Mask) (roundrect_rratio 0.25))
  (pad 4 smd roundrect (at -0.9625 0.75) (size 0.775 0.25) (layers F.Cu F.Paste F.Mask) (roundrect_rratio 0.25))
  (pad 3 smd roundrect (at -0.9625 0.25) (size 0.775 0.25) (layers F.Cu F.Paste F.Mask) (roundrect_rratio 0.25))
  (pad 2 smd roundrect (at -0.9625 -0.25) (size 0.775 0.25) (layers F.Cu F.Paste F.Mask) (roundrect_rratio 0.25))
  (pad 1 smd roundrect (at -0.9625 -0.75) (size 0.775 0.25) (layers F.Cu F.Paste F.Mask) (roundrect_rratio 0.25))
  (model ${KISYS3DMOD}/Package_DFN_QFN.3dshapes/DFN-8-1EP_2x2mm_P0.5mm_EP0.7x1.3mm.wrl
    (at (xyz 0 0 0))
    (scale (xyz 1 1 1))
    (rotate (xyz 0 0 0))
  )
)
