(module DFN-12-1EP_3x3mm_P0.5mm_EP2.05x2.86mm (layer F.Cu) (tedit 607A6D43)
  (descr "10-Lead Plastic Dual Flat, No Lead Package (MF) - 3x3x0.9 mm Body [DFN] (see Microchip Packaging Specification 00000049BS.pdf), Alternate KiCad Library")
  (tags "DFN 0.5")
  (attr smd)
  (fp_text reference REF** (at 0 -2.65) (layer F.SilkS)
    (effects (font (size 1 1) (thickness 0.15)))
  )
  (fp_text value DFN-12-1EP_3x3mm_P0.5mm_EP2.05x2.86mm (at 0 2.65) (layer F.Fab)
    (effects (font (size 1 1) (thickness 0.15)))
  )
  (fp_line (start -2.159 1.778) (end -2.159 -1.3335) (layer F.SilkS) (width 0.12))
  (fp_line (start 2.159 1.778) (end -2.159 1.778) (layer F.SilkS) (width 0.12))
  (fp_line (start 2.159 -1.778) (end 2.159 1.778) (layer F.SilkS) (width 0.12))
  (fp_line (start 2.0955 -1.778) (end 2.159 -1.778) (layer F.SilkS) (width 0.12))
  (fp_line (start -1.7145 -1.778) (end 2.0955 -1.778) (layer F.SilkS) (width 0.12))
  (fp_line (start -2.15 1.8) (end 2.15 1.8) (layer F.CrtYd) (width 0.05))
  (fp_line (start -2.15 -1.8) (end 2.15 -1.8) (layer F.CrtYd) (width 0.05))
  (fp_line (start 2.15 -1.8) (end 2.15 1.8) (layer F.CrtYd) (width 0.05))
  (fp_line (start -2.15 -1.8) (end -2.15 1.8) (layer F.CrtYd) (width 0.05))
  (fp_line (start -1.5 -0.5) (end -0.5 -1.5) (layer F.Fab) (width 0.15))
  (fp_line (start -1.5 1.5) (end -1.5 -0.5) (layer F.Fab) (width 0.15))
  (fp_line (start 1.5 1.5) (end -1.5 1.5) (layer F.Fab) (width 0.15))
  (fp_line (start 1.5 -1.5) (end 1.5 1.5) (layer F.Fab) (width 0.15))
  (fp_line (start -0.5 -1.5) (end 1.5 -1.5) (layer F.Fab) (width 0.15))
  (fp_circle (center -2.032 -1.651) (end -1.9685 -1.651) (layer F.SilkS) (width 0.15))
  (fp_text user %R (at 0 0) (layer F.Fab)
    (effects (font (size 0.7 0.7) (thickness 0.105)))
  )
  (pad "" smd rect (at -0.5125 -0.715) (size 0.8 1.2) (layers F.Paste))
  (pad "" smd rect (at 0.5125 -0.715) (size 0.8 1.2) (layers F.Paste))
  (pad "" smd rect (at 0.5125 0.715) (size 0.8 1.2) (layers F.Paste))
  (pad 7 smd rect (at 1.55 1.25) (size 0.65 0.3) (layers F.Cu F.Paste F.Mask))
  (pad 6 smd rect (at -1.55 1.25) (size 0.65 0.3) (layers F.Cu F.Paste F.Mask))
  (pad 13 smd rect (at 0 0) (size 2.05 2.86) (layers F.Cu F.Mask))
  (pad "" smd rect (at -0.5125 0.715) (size 0.8 1.2) (layers F.Paste))
  (pad 12 smd rect (at 1.55 -1.25) (size 0.65 0.3) (layers F.Cu F.Paste F.Mask))
  (pad 11 smd rect (at 1.55 -0.75) (size 0.65 0.3) (layers F.Cu F.Paste F.Mask))
  (pad 10 smd rect (at 1.55 -0.25) (size 0.65 0.3) (layers F.Cu F.Paste F.Mask))
  (pad 9 smd rect (at 1.55 0.25) (size 0.65 0.3) (layers F.Cu F.Paste F.Mask))
  (pad 8 smd rect (at 1.55 0.75) (size 0.65 0.3) (layers F.Cu F.Paste F.Mask))
  (pad 5 smd rect (at -1.55 0.75) (size 0.65 0.3) (layers F.Cu F.Paste F.Mask))
  (pad 4 smd rect (at -1.55 0.25) (size 0.65 0.3) (layers F.Cu F.Paste F.Mask))
  (pad 3 smd rect (at -1.55 -0.25) (size 0.65 0.3) (layers F.Cu F.Paste F.Mask))
  (pad 2 smd rect (at -1.55 -0.75) (size 0.65 0.3) (layers F.Cu F.Paste F.Mask))
  (pad 1 smd rect (at -1.55 -1.25) (size 0.65 0.3) (layers F.Cu F.Paste F.Mask))
  (model ${KISYS3DMOD}/Package_DFN_QFN.3dshapes/DFN-12-1EP_3x3mm_P0.5mm_EP2.05x2.86mm.wrl
    (at (xyz 0 0 0))
    (scale (xyz 1 1 1))
    (rotate (xyz 0 0 0))
  )
)
