(module DFN-14-1EP_3x3mm_P0.4mm_EP1.78x2.35mm (layer F.Cu) (tedit 607A6D62)
  (descr "DD Package; 14-Lead Plastic DFN (3mm x 3mm) (http://pdfserv.maximintegrated.com/land_patterns/90-0063.PDF), Alternate KiCad Library")
  (tags "DFN 0.40")
  (attr smd)
  (fp_text reference REF** (at 0 -2.55) (layer F.SilkS)
    (effects (font (size 1 1) (thickness 0.15)))
  )
  (fp_text value DFN-14-1EP_3x3mm_P0.4mm_EP1.78x2.35mm (at 0 2.55) (layer F.Fab)
    (effects (font (size 1 1) (thickness 0.15)))
  )
  (fp_line (start -2.032 1.778) (end -2.032 -1.3335) (layer F.SilkS) (width 0.12))
  (fp_line (start 2.032 1.778) (end -2.032 1.778) (layer F.SilkS) (width 0.12))
  (fp_line (start 2.032 -1.778) (end 2.032 1.778) (layer F.SilkS) (width 0.12))
  (fp_line (start -1.5875 -1.778) (end 2.032 -1.778) (layer F.SilkS) (width 0.12))
  (fp_line (start -0.5 -1.5) (end 1.5 -1.5) (layer F.Fab) (width 0.15))
  (fp_line (start 1.5 -1.5) (end 1.5 1.5) (layer F.Fab) (width 0.15))
  (fp_line (start 1.5 1.5) (end -1.5 1.5) (layer F.Fab) (width 0.15))
  (fp_line (start -1.5 1.5) (end -1.5 -0.5) (layer F.Fab) (width 0.15))
  (fp_line (start -1.5 -0.5) (end -0.5 -1.5) (layer F.Fab) (width 0.15))
  (fp_line (start -2 -1.8) (end -2 1.8) (layer F.CrtYd) (width 0.05))
  (fp_line (start 2 -1.8) (end 2 1.8) (layer F.CrtYd) (width 0.05))
  (fp_line (start -2 -1.8) (end 2 -1.8) (layer F.CrtYd) (width 0.05))
  (fp_line (start -2 1.8) (end 2 1.8) (layer F.CrtYd) (width 0.05))
  (fp_circle (center -1.905 -1.651) (end -1.8415 -1.651) (layer F.SilkS) (width 0.2))
  (fp_text user %R (at 0.075 0.15) (layer F.Fab)
    (effects (font (size 0.6 0.6) (thickness 0.125)))
  )
  (pad "" smd rect (at -0.445 -0.5875) (size 0.7 0.97) (layers F.Paste))
  (pad "" smd rect (at 0.45 -0.5875) (size 0.7 0.97) (layers F.Paste))
  (pad "" smd rect (at 0.45 0.5875) (size 0.7 0.97) (layers F.Paste))
  (pad "" smd rect (at -0.445 0.5875) (size 0.7 0.97) (layers F.Paste))
  (pad 15 smd rect (at 0 0) (size 1.78 2.35) (layers F.Cu F.Mask))
  (pad 8 smd rect (at 1.475 1.2) (size 0.7 0.25) (layers F.Cu F.Paste F.Mask))
  (pad 7 smd rect (at -1.475 1.2) (size 0.7 0.25) (layers F.Cu F.Paste F.Mask))
  (pad 1 smd rect (at -1.475 -1.2) (size 0.7 0.25) (layers F.Cu F.Paste F.Mask))
  (pad 2 smd rect (at -1.475 -0.8) (size 0.7 0.25) (layers F.Cu F.Paste F.Mask))
  (pad 3 smd rect (at -1.475 -0.4) (size 0.7 0.25) (layers F.Cu F.Paste F.Mask))
  (pad 4 smd rect (at -1.475 0) (size 0.7 0.25) (layers F.Cu F.Paste F.Mask))
  (pad 5 smd rect (at -1.475 0.4) (size 0.7 0.25) (layers F.Cu F.Paste F.Mask))
  (pad 6 smd rect (at -1.475 0.8) (size 0.7 0.25) (layers F.Cu F.Paste F.Mask))
  (pad 9 smd rect (at 1.475 0.8) (size 0.7 0.25) (layers F.Cu F.Paste F.Mask))
  (pad 10 smd rect (at 1.475 0.4) (size 0.7 0.25) (layers F.Cu F.Paste F.Mask))
  (pad 11 smd rect (at 1.475 0) (size 0.7 0.25) (layers F.Cu F.Paste F.Mask))
  (pad 12 smd rect (at 1.475 -0.4) (size 0.7 0.25) (layers F.Cu F.Paste F.Mask))
  (pad 13 smd rect (at 1.475 -0.8) (size 0.7 0.25) (layers F.Cu F.Paste F.Mask))
  (pad 14 smd rect (at 1.475 -1.2) (size 0.7 0.25) (layers F.Cu F.Paste F.Mask))
  (model ${KISYS3DMOD}/Package_DFN_QFN.3dshapes/DFN-14-1EP_3x3mm_P0.4mm_EP1.78x2.35mm.wrl
    (at (xyz 0 0 0))
    (scale (xyz 1 1 1))
    (rotate (xyz 0 0 0))
  )
)
