(module DFN-8-1EP_6x5mm_P1.27mm_EP2x2mm (layer F.Cu) (tedit 607A6CF9)
  (descr "DD Package; 8-Lead Plastic DFN (6mm x 5mm) (see http://www.everspin.com/file/236/download), Alternate KiCad Library")
  (tags "dfn ")
  (attr smd)
  (fp_text reference REF** (at 0 -3.5) (layer F.SilkS)
    (effects (font (size 1 1) (thickness 0.15)))
  )
  (fp_text value DFN-8-1EP_6x5mm_P1.27mm_EP2x2mm (at 0 3.65) (layer F.Fab)
    (effects (font (size 1 1) (thickness 0.15)))
  )
  (fp_circle (center -3.4925 -2.54) (end -3.429 -2.54) (layer F.SilkS) (width 0.2))
  (fp_line (start -2 -2.5) (end -3 -1.5) (layer F.Fab) (width 0.1))
  (fp_line (start -3 2.5) (end -3 -1.5) (layer F.Fab) (width 0.1))
  (fp_line (start 3 2.5) (end -3 2.5) (layer F.Fab) (width 0.1))
  (fp_line (start 3 -2.5) (end 3 2.5) (layer F.Fab) (width 0.1))
  (fp_line (start -2 -2.5) (end 3 -2.5) (layer F.Fab) (width 0.1))
  (fp_line (start -3.7 2.8) (end -3.7 -2.8) (layer F.CrtYd) (width 0.05))
  (fp_line (start 3.7 2.8) (end -3.7 2.8) (layer F.CrtYd) (width 0.05))
  (fp_line (start 3.7 -2.8) (end 3.7 2.8) (layer F.CrtYd) (width 0.05))
  (fp_line (start -3.7 -2.8) (end 3.7 -2.8) (layer F.CrtYd) (width 0.05))
  (fp_line (start -3.683 -2.286) (end -3.683 2.7305) (layer F.SilkS) (width 0.12))
  (fp_line (start -3.683 2.7305) (end 3.683 2.7305) (layer F.SilkS) (width 0.12))
  (fp_line (start 3.683 2.7305) (end 3.683 -2.7305) (layer F.SilkS) (width 0.12))
  (fp_line (start 3.683 -2.7305) (end -3.175 -2.7305) (layer F.SilkS) (width 0.12))
  (fp_text user %R (at 0 0) (layer F.Fab)
    (effects (font (size 1 1) (thickness 0.15)))
  )
  (pad "" smd rect (at 0.5 0.5 270) (size 0.8 0.8) (layers F.Paste))
  (pad "" smd rect (at -0.5 0.5 270) (size 0.8 0.8) (layers F.Paste))
  (pad "" smd rect (at -0.5 -0.5 270) (size 0.8 0.8) (layers F.Paste))
  (pad "" smd rect (at 0.5 -0.5 270) (size 0.8 0.8) (layers F.Paste))
  (pad 8 smd rect (at 2.9 -1.905 270) (size 0.5 1.1) (layers F.Cu F.Paste F.Mask))
  (pad 7 smd rect (at 2.9 -0.635 270) (size 0.5 1.1) (layers F.Cu F.Paste F.Mask))
  (pad 6 smd rect (at 2.9 0.635 270) (size 0.5 1.1) (layers F.Cu F.Paste F.Mask))
  (pad 5 smd rect (at 2.9 1.905 270) (size 0.5 1.1) (layers F.Cu F.Paste F.Mask))
  (pad 4 smd rect (at -2.9 1.905 270) (size 0.5 1.1) (layers F.Cu F.Paste F.Mask))
  (pad 3 smd rect (at -2.9 0.635 270) (size 0.5 1.1) (layers F.Cu F.Paste F.Mask))
  (pad 2 smd rect (at -2.9 -0.635 270) (size 0.5 1.1) (layers F.Cu F.Paste F.Mask))
  (pad 1 smd rect (at -2.9 -1.905 270) (size 0.5 1.1) (layers F.Cu F.Paste F.Mask))
  (pad 9 smd rect (at 0 0 270) (size 2 2) (layers F.Cu F.Mask))
  (model ${KISYS3DMOD}/Package_DFN_QFN.3dshapes/DFN-8-1EP_6x5mm_P1.27mm_EP2x2mm.wrl
    (at (xyz 0 0 0))
    (scale (xyz 1 1 1))
    (rotate (xyz 0 0 0))
  )
)
