(module DFN-8-1EP_3x2mm_P0.5mm_EP1.3x1.5mm (layer F.Cu) (tedit 607A6C6F)
  (descr "8-Lead Plastic Dual Flat, No Lead Package (8MA2) - 2x3x0.6 mm Body [UDFN] (see Atmel-8815-SEEPROM-AT24CS01-02-Datasheet.pdf), Alternate KiCad Library")
  (tags "DFN 0.5")
  (attr smd)
  (fp_text reference REF** (at 0 -2.05) (layer F.SilkS)
    (effects (font (size 1 1) (thickness 0.15)))
  )
  (fp_text value DFN-8-1EP_3x2mm_P0.5mm_EP1.3x1.5mm (at 0 2.05) (layer F.Fab)
    (effects (font (size 1 1) (thickness 0.15)))
  )
  (fp_line (start -2.0955 1.27) (end -2.0955 -0.889) (layer F.SilkS) (width 0.12))
  (fp_line (start 2.0955 1.27) (end -2.0955 1.27) (layer F.SilkS) (width 0.12))
  (fp_line (start 2.0955 -1.27) (end 2.0955 1.27) (layer F.SilkS) (width 0.12))
  (fp_line (start -1.7145 -1.27) (end 2.0955 -1.27) (layer F.SilkS) (width 0.12))
  (fp_line (start -2.1 1.3) (end 2.1 1.3) (layer F.CrtYd) (width 0.05))
  (fp_line (start -2.1 -1.3) (end 2.1 -1.3) (layer F.CrtYd) (width 0.05))
  (fp_line (start 2.1 -1.3) (end 2.1 1.3) (layer F.CrtYd) (width 0.05))
  (fp_line (start -2.1 -1.3) (end -2.1 1.3) (layer F.CrtYd) (width 0.05))
  (fp_line (start -1.5 0) (end -0.5 -1) (layer F.Fab) (width 0.15))
  (fp_line (start -1.5 1) (end -1.5 0) (layer F.Fab) (width 0.15))
  (fp_line (start 1.5 1) (end -1.5 1) (layer F.Fab) (width 0.15))
  (fp_line (start 1.5 -1) (end 1.5 1) (layer F.Fab) (width 0.15))
  (fp_line (start -0.5 -1) (end 1.5 -1) (layer F.Fab) (width 0.15))
  (fp_circle (center -2.032 -1.2065) (end -1.9685 -1.2065) (layer F.SilkS) (width 0.15))
  (fp_text user %R (at 0 0) (layer F.Fab)
    (effects (font (size 0.7 0.7) (thickness 0.105)))
  )
  (pad "" smd rect (at 0.325 0.375) (size 0.5 0.6) (layers F.Paste))
  (pad "" smd rect (at 0.325 -0.375) (size 0.5 0.6) (layers F.Paste))
  (pad "" smd rect (at -0.325 0.375) (size 0.5 0.6) (layers F.Paste))
  (pad "" smd rect (at -0.325 -0.375) (size 0.5 0.6) (layers F.Paste))
  (pad 9 smd rect (at 0 0) (size 1.3 1.5) (layers F.Cu F.Mask))
  (pad 8 smd rect (at 1.45 -0.75) (size 0.75 0.3) (layers F.Cu F.Paste F.Mask))
  (pad 7 smd rect (at 1.45 -0.25) (size 0.75 0.3) (layers F.Cu F.Paste F.Mask))
  (pad 6 smd rect (at 1.45 0.25) (size 0.75 0.3) (layers F.Cu F.Paste F.Mask))
  (pad 5 smd rect (at 1.45 0.75) (size 0.75 0.3) (layers F.Cu F.Paste F.Mask))
  (pad 4 smd rect (at -1.45 0.75) (size 0.75 0.3) (layers F.Cu F.Paste F.Mask))
  (pad 3 smd rect (at -1.45 0.25) (size 0.75 0.3) (layers F.Cu F.Paste F.Mask))
  (pad 2 smd rect (at -1.45 -0.25) (size 0.75 0.3) (layers F.Cu F.Paste F.Mask))
  (pad 1 smd rect (at -1.45 -0.75) (size 0.75 0.3) (layers F.Cu F.Paste F.Mask))
  (model ${KISYS3DMOD}/Package_DFN_QFN.3dshapes/DFN-8-1EP_3x2mm_P0.5mm_EP1.3x1.5mm.wrl
    (at (xyz 0 0 0))
    (scale (xyz 1 1 1))
    (rotate (xyz 0 0 0))
  )
)
