(module DFN-10-1EP_3x3mm_P0.5mm_EP1.55x2.48mm (layer F.Cu) (tedit 607A6D1A)
  (descr "10-Lead Plastic Dual Flat, No Lead Package (MF) - 3x3x0.9 mm Body [DFN] (see Microchip Packaging Specification 00000049BS.pdf), Alternate KiCad Library")
  (tags "DFN 0.5")
  (attr smd)
  (fp_text reference REF** (at 0 -2.575) (layer F.SilkS)
    (effects (font (size 1 1) (thickness 0.15)))
  )
  (fp_text value DFN-10-1EP_3x3mm_P0.5mm_EP1.55x2.48mm (at 0 2.575) (layer F.Fab)
    (effects (font (size 1 1) (thickness 0.15)))
  )
  (fp_line (start -2.0955 1.778) (end -2.0955 -1.27) (layer F.SilkS) (width 0.12))
  (fp_line (start 2.0955 1.778) (end -2.0955 1.778) (layer F.SilkS) (width 0.12))
  (fp_line (start 2.0955 -1.778) (end 2.0955 1.778) (layer F.SilkS) (width 0.12))
  (fp_line (start -1.5875 -1.778) (end 2.0955 -1.778) (layer F.SilkS) (width 0.12))
  (fp_line (start -2.15 1.85) (end 2.15 1.85) (layer F.CrtYd) (width 0.05))
  (fp_line (start -2.15 -1.85) (end 2.15 -1.85) (layer F.CrtYd) (width 0.05))
  (fp_line (start 2.15 -1.85) (end 2.15 1.85) (layer F.CrtYd) (width 0.05))
  (fp_line (start -2.15 -1.85) (end -2.15 1.85) (layer F.CrtYd) (width 0.05))
  (fp_line (start -1.5 -0.5) (end -0.5 -1.5) (layer F.Fab) (width 0.15))
  (fp_line (start -1.5 1.5) (end -1.5 -0.5) (layer F.Fab) (width 0.15))
  (fp_line (start 1.5 1.5) (end -1.5 1.5) (layer F.Fab) (width 0.15))
  (fp_line (start 1.5 -1.5) (end 1.5 1.5) (layer F.Fab) (width 0.15))
  (fp_line (start -0.5 -1.5) (end 1.5 -1.5) (layer F.Fab) (width 0.15))
  (fp_circle (center -1.905 -1.5875) (end -1.8415 -1.5875) (layer F.SilkS) (width 0.2))
  (fp_text user %R (at 0 0) (layer F.Fab)
    (effects (font (size 0.7 0.7) (thickness 0.105)))
  )
  (pad "" smd rect (at 0.3875 0.62) (size 0.6 1.05) (layers F.Paste))
  (pad "" smd rect (at -0.3875 0.62) (size 0.6 1.05) (layers F.Paste))
  (pad "" smd rect (at -0.3875 -0.62) (size 0.6 1.05) (layers F.Paste))
  (pad 11 smd rect (at 0 0) (size 1.55 2.48) (layers F.Cu F.Mask))
  (pad "" smd rect (at 0.3875 -0.62) (size 0.6 1.05) (layers F.Paste))
  (pad 10 smd rect (at 1.55 -1) (size 0.65 0.3) (layers F.Cu F.Paste F.Mask))
  (pad 9 smd rect (at 1.55 -0.5) (size 0.65 0.3) (layers F.Cu F.Paste F.Mask))
  (pad 8 smd rect (at 1.55 0) (size 0.65 0.3) (layers F.Cu F.Paste F.Mask))
  (pad 7 smd rect (at 1.55 0.5) (size 0.65 0.3) (layers F.Cu F.Paste F.Mask))
  (pad 6 smd rect (at 1.55 1) (size 0.65 0.3) (layers F.Cu F.Paste F.Mask))
  (pad 5 smd rect (at -1.55 1) (size 0.65 0.3) (layers F.Cu F.Paste F.Mask))
  (pad 4 smd rect (at -1.55 0.5) (size 0.65 0.3) (layers F.Cu F.Paste F.Mask))
  (pad 3 smd rect (at -1.55 0) (size 0.65 0.3) (layers F.Cu F.Paste F.Mask))
  (pad 2 smd rect (at -1.55 -0.5) (size 0.65 0.3) (layers F.Cu F.Paste F.Mask))
  (pad 1 smd rect (at -1.55 -1) (size 0.65 0.3) (layers F.Cu F.Paste F.Mask))
  (model ${KISYS3DMOD}/Package_DFN_QFN.3dshapes/DFN-10-1EP_3x3mm_P0.5mm_EP1.55x2.48mm.wrl
    (at (xyz 0 0 0))
    (scale (xyz 1 1 1))
    (rotate (xyz 0 0 0))
  )
)
