(module DFN-8-1EP_2x2mm_P0.45mm_EP0.64x1.38mm (layer F.Cu) (tedit 607A6C61)
  (descr "DC8 Package 8-Lead Plastic DFN (2mm x 2mm) (see Linear Technology DFN_8_05-08-1719.pdf), Alternate KiCad Library")
  (tags "DFN 0.45")
  (attr smd)
  (fp_text reference REF** (at 0 -2.05) (layer F.SilkS)
    (effects (font (size 1 1) (thickness 0.15)))
  )
  (fp_text value DFN-8-1EP_2x2mm_P0.45mm_EP0.64x1.38mm (at 0 2.05) (layer F.Fab)
    (effects (font (size 1 1) (thickness 0.15)))
  )
  (fp_line (start -1.524 1.27) (end -1.524 -0.889) (layer F.SilkS) (width 0.12))
  (fp_line (start 1.524 1.27) (end -1.524 1.27) (layer F.SilkS) (width 0.12))
  (fp_line (start 1.524 -1.27) (end 1.524 1.27) (layer F.SilkS) (width 0.12))
  (fp_line (start -1.143 -1.27) (end 1.524 -1.27) (layer F.SilkS) (width 0.12))
  (fp_line (start -1.55 1.3) (end 1.55 1.3) (layer F.CrtYd) (width 0.05))
  (fp_line (start -1.55 -1.3) (end 1.55 -1.3) (layer F.CrtYd) (width 0.05))
  (fp_line (start 1.55 -1.3) (end 1.55 1.3) (layer F.CrtYd) (width 0.05))
  (fp_line (start -1.55 -1.3) (end -1.55 1.3) (layer F.CrtYd) (width 0.05))
  (fp_line (start -1 -0.5) (end -0.5 -1) (layer F.Fab) (width 0.15))
  (fp_line (start -1 1) (end -1 -0.5) (layer F.Fab) (width 0.15))
  (fp_line (start 1 1) (end -1 1) (layer F.Fab) (width 0.15))
  (fp_line (start 1 -1) (end 1 1) (layer F.Fab) (width 0.15))
  (fp_line (start -0.5 -1) (end 1 -1) (layer F.Fab) (width 0.15))
  (fp_circle (center -1.4605 -1.2065) (end -1.397 -1.2065) (layer F.SilkS) (width 0.15))
  (fp_text user %R (at 0 0) (layer F.Fab)
    (effects (font (size 0.5 0.5) (thickness 0.075)))
  )
  (pad "" smd rect (at 0 0.345) (size 0.53 0.54) (layers F.Paste))
  (pad "" smd rect (at 0 -0.345) (size 0.53 0.54) (layers F.Paste))
  (pad 9 smd rect (at 0 0) (size 0.64 1.38) (layers F.Cu F.Mask))
  (pad 8 smd rect (at 0.925 -0.675) (size 0.7 0.25) (layers F.Cu F.Paste F.Mask))
  (pad 7 smd rect (at 0.925 -0.225) (size 0.7 0.25) (layers F.Cu F.Paste F.Mask))
  (pad 6 smd rect (at 0.925 0.225) (size 0.7 0.25) (layers F.Cu F.Paste F.Mask))
  (pad 5 smd rect (at 0.925 0.675) (size 0.7 0.25) (layers F.Cu F.Paste F.Mask))
  (pad 4 smd rect (at -0.925 0.675) (size 0.7 0.25) (layers F.Cu F.Paste F.Mask))
  (pad 3 smd rect (at -0.925 0.225) (size 0.7 0.25) (layers F.Cu F.Paste F.Mask))
  (pad 2 smd rect (at -0.925 -0.225) (size 0.7 0.25) (layers F.Cu F.Paste F.Mask))
  (pad 1 smd rect (at -0.925 -0.675) (size 0.7 0.25) (layers F.Cu F.Paste F.Mask))
  (model ${KISYS3DMOD}/Package_DFN_QFN.3dshapes/DFN-8-1EP_2x2mm_P0.45mm_EP0.64x1.38mm.wrl
    (at (xyz 0 0 0))
    (scale (xyz 1 1 1))
    (rotate (xyz 0 0 0))
  )
)
