(module DFN-8-1EP_3x2mm_P0.45mm_EP1.66x1.36mm (layer F.Cu) (tedit 607A6C83)
  (descr "DCB Package 8-Lead Plastic DFN (2mm x 3mm) (see Linear Technology DFN_8_05-08-1718.pdf), Alternate KiCad Library")
  (tags "DFN 0.45")
  (attr smd)
  (fp_text reference REF** (at 0 -2.05) (layer F.SilkS)
    (effects (font (size 1 1) (thickness 0.15)))
  )
  (fp_text value DFN-8-1EP_3x2mm_P0.45mm_EP1.66x1.36mm (at 0 2.05) (layer F.Fab)
    (effects (font (size 1 1) (thickness 0.15)))
  )
  (fp_line (start -1.9685 1.27) (end -1.9685 -0.889) (layer F.SilkS) (width 0.12))
  (fp_line (start 1.9685 1.27) (end -1.9685 1.27) (layer F.SilkS) (width 0.12))
  (fp_line (start 1.9685 -1.27) (end 1.9685 1.27) (layer F.SilkS) (width 0.12))
  (fp_line (start -1.5875 -1.27) (end 1.9685 -1.27) (layer F.SilkS) (width 0.12))
  (fp_line (start -2 1.3) (end 2 1.3) (layer F.CrtYd) (width 0.05))
  (fp_line (start -2 -1.3) (end 2 -1.3) (layer F.CrtYd) (width 0.05))
  (fp_line (start 2 -1.3) (end 2 1.3) (layer F.CrtYd) (width 0.05))
  (fp_line (start -2 -1.3) (end -2 1.3) (layer F.CrtYd) (width 0.05))
  (fp_line (start -1.5 0) (end -0.5 -1) (layer F.Fab) (width 0.15))
  (fp_line (start -1.5 1) (end -1.5 0) (layer F.Fab) (width 0.15))
  (fp_line (start 1.5 1) (end -1.5 1) (layer F.Fab) (width 0.15))
  (fp_line (start 1.5 -1) (end 1.5 1) (layer F.Fab) (width 0.15))
  (fp_line (start -0.5 -1) (end 1.5 -1) (layer F.Fab) (width 0.15))
  (fp_circle (center -1.905 -1.2065) (end -1.8415 -1.2065) (layer F.SilkS) (width 0.15))
  (fp_text user %R (at 0 0) (layer F.Fab)
    (effects (font (size 0.7 0.7) (thickness 0.105)))
  )
  (pad "" smd rect (at -0.415 -0.34) (size 0.66 0.55) (layers F.Paste))
  (pad "" smd rect (at 0.415 -0.34) (size 0.66 0.55) (layers F.Paste))
  (pad "" smd rect (at 0.415 0.34) (size 0.66 0.55) (layers F.Paste))
  (pad 9 smd rect (at 0 0) (size 1.66 1.36) (layers F.Cu F.Mask))
  (pad "" smd rect (at -0.415 0.34) (size 0.66 0.55) (layers F.Paste))
  (pad 8 smd rect (at 1.4 -0.675) (size 0.7 0.25) (layers F.Cu F.Paste F.Mask))
  (pad 7 smd rect (at 1.4 -0.225) (size 0.7 0.25) (layers F.Cu F.Paste F.Mask))
  (pad 6 smd rect (at 1.4 0.225) (size 0.7 0.25) (layers F.Cu F.Paste F.Mask))
  (pad 5 smd rect (at 1.4 0.675) (size 0.7 0.25) (layers F.Cu F.Paste F.Mask))
  (pad 4 smd rect (at -1.4 0.675) (size 0.7 0.25) (layers F.Cu F.Paste F.Mask))
  (pad 3 smd rect (at -1.4 0.225) (size 0.7 0.25) (layers F.Cu F.Paste F.Mask))
  (pad 2 smd rect (at -1.4 -0.225) (size 0.7 0.25) (layers F.Cu F.Paste F.Mask))
  (pad 1 smd rect (at -1.4 -0.675) (size 0.7 0.25) (layers F.Cu F.Paste F.Mask))
  (model ${KISYS3DMOD}/Package_DFN_QFN.3dshapes/DFN-8-1EP_3x2mm_P0.45mm_EP1.66x1.36mm.wrl
    (at (xyz 0 0 0))
    (scale (xyz 1 1 1))
    (rotate (xyz 0 0 0))
  )
)
