(module DFN-6-1EP_3x2mm_P0.5mm_EP1.65x1.35mm (layer F.Cu) (tedit 607A6C27)
  (descr "DFN, 6 Pin (https://www.analog.com/media/en/package-pcb-resources/package/pkg_pdf/ltc-legacy-dfn/(DCB6)%20DFN%2005-08-1715%20Rev%20A.pdf), Alternate KiCad Library")
  (tags "DFN NoLead")
  (attr smd)
  (fp_text reference REF** (at 0 -1.95) (layer F.SilkS)
    (effects (font (size 1 1) (thickness 0.15)))
  )
  (fp_text value DFN-6-1EP_3x2mm_P0.5mm_EP1.65x1.35mm (at 0 1.95) (layer F.Fab)
    (effects (font (size 1 1) (thickness 0.15)))
  )
  (fp_line (start -2.0955 1.2065) (end -2.0955 -0.8255) (layer F.SilkS) (width 0.12))
  (fp_line (start 2.0955 1.2065) (end -2.0955 1.2065) (layer F.SilkS) (width 0.12))
  (fp_line (start 2.0955 -1.2065) (end 2.0955 1.2065) (layer F.SilkS) (width 0.12))
  (fp_line (start -1.7145 -1.2065) (end 2.0955 -1.2065) (layer F.SilkS) (width 0.12))
  (fp_line (start 2.1 -1.25) (end -2.1 -1.25) (layer F.CrtYd) (width 0.05))
  (fp_line (start 2.1 1.25) (end 2.1 -1.25) (layer F.CrtYd) (width 0.05))
  (fp_line (start -2.1 1.25) (end 2.1 1.25) (layer F.CrtYd) (width 0.05))
  (fp_line (start -2.1 -1.25) (end -2.1 1.25) (layer F.CrtYd) (width 0.05))
  (fp_line (start -1.5 -0.5) (end -1 -1) (layer F.Fab) (width 0.1))
  (fp_line (start -1.5 1) (end -1.5 -0.5) (layer F.Fab) (width 0.1))
  (fp_line (start 1.5 1) (end -1.5 1) (layer F.Fab) (width 0.1))
  (fp_line (start 1.5 -1) (end 1.5 1) (layer F.Fab) (width 0.1))
  (fp_line (start -1 -1) (end 1.5 -1) (layer F.Fab) (width 0.1))
  (fp_circle (center -1.9685 -1.0795) (end -1.905 -1.0795) (layer F.SilkS) (width 0.15))
  (fp_text user %R (at 0 0) (layer F.Fab)
    (effects (font (size 0.75 0.75) (thickness 0.11)))
  )
  (pad "" smd roundrect (at 0.41 0.34) (size 0.67 0.54) (layers F.Paste) (roundrect_rratio 0.25))
  (pad "" smd roundrect (at 0.41 -0.34) (size 0.67 0.54) (layers F.Paste) (roundrect_rratio 0.25))
  (pad "" smd roundrect (at -0.41 0.34) (size 0.67 0.54) (layers F.Paste) (roundrect_rratio 0.25))
  (pad "" smd roundrect (at -0.41 -0.34) (size 0.67 0.54) (layers F.Paste) (roundrect_rratio 0.25))
  (pad 7 smd rect (at 0 0) (size 1.65 1.35) (layers F.Cu F.Mask))
  (pad 6 smd roundrect (at 1.4375 -0.5) (size 0.825 0.25) (layers F.Cu F.Paste F.Mask) (roundrect_rratio 0.25))
  (pad 5 smd roundrect (at 1.4375 0) (size 0.825 0.25) (layers F.Cu F.Paste F.Mask) (roundrect_rratio 0.25))
  (pad 4 smd roundrect (at 1.4375 0.5) (size 0.825 0.25) (layers F.Cu F.Paste F.Mask) (roundrect_rratio 0.25))
  (pad 3 smd roundrect (at -1.4375 0.5) (size 0.825 0.25) (layers F.Cu F.Paste F.Mask) (roundrect_rratio 0.25))
  (pad 2 smd roundrect (at -1.4375 0) (size 0.825 0.25) (layers F.Cu F.Paste F.Mask) (roundrect_rratio 0.25))
  (pad 1 smd roundrect (at -1.4375 -0.5) (size 0.825 0.25) (layers F.Cu F.Paste F.Mask) (roundrect_rratio 0.25))
  (model ${KISYS3DMOD}/Package_DFN_QFN.3dshapes/DFN-6-1EP_3x2mm_P0.5mm_EP1.65x1.35mm.wrl
    (at (xyz 0 0 0))
    (scale (xyz 1 1 1))
    (rotate (xyz 0 0 0))
  )
  (model ${KISYS3DMOD}/Package_DFN_QFN.3dshapes/DFN-6-1EP_3x2mm_Pitch0.5mm.step
    (at (xyz 0 0 0))
    (scale (xyz 1 1 1))
    (rotate (xyz 0 0 0))
  )
)
