(module Diodes_UDFN-10_1.0x2.5mm_P0.5mm (layer F.Cu) (tedit 607A6E02)
  (descr "U-DFN2510-10 package used by Diodes Incorporated (https://www.diodes.com/assets/Package-Files/U-DFN2510-10-Type-CJ.pdf), Alternate KiCad Library")
  (tags "UDFN-10 U-DFN2510-10 Diodes")
  (attr smd)
  (fp_text reference REF** (at 0 -2.54) (layer F.SilkS)
    (effects (font (size 1 1) (thickness 0.15)))
  )
  (fp_text value Diodes_UDFN-10_1.0x2.5mm_P0.5mm (at 0 2.54) (layer F.Fab)
    (effects (font (size 1 1) (thickness 0.15)))
  )
  (fp_line (start -0.9525 1.4605) (end -0.9525 -1.0795) (layer F.SilkS) (width 0.12))
  (fp_line (start 0.9525 1.4605) (end -0.9525 1.4605) (layer F.SilkS) (width 0.12))
  (fp_line (start 0.9525 -1.4605) (end 0.9525 1.4605) (layer F.SilkS) (width 0.12))
  (fp_line (start -0.5715 -1.4605) (end 0.9525 -1.4605) (layer F.SilkS) (width 0.12))
  (fp_line (start -0.5 -1) (end -0.5 1.25) (layer F.Fab) (width 0.1))
  (fp_line (start -0.95 -1.5) (end 0.95 -1.5) (layer F.CrtYd) (width 0.05))
  (fp_line (start 0.95 -1.5) (end 0.95 1.5) (layer F.CrtYd) (width 0.05))
  (fp_line (start -0.25 -1.25) (end -0.5 -1) (layer F.Fab) (width 0.1))
  (fp_line (start -0.5 1.25) (end 0.5 1.25) (layer F.Fab) (width 0.1))
  (fp_line (start 0.95 1.5) (end -0.95 1.5) (layer F.CrtYd) (width 0.05))
  (fp_line (start -0.95 1.5) (end -0.95 -1.5) (layer F.CrtYd) (width 0.05))
  (fp_line (start 0.5 -1.25) (end 0.5 1.25) (layer F.Fab) (width 0.1))
  (fp_line (start 0.5 -1.25) (end -0.25 -1.25) (layer F.Fab) (width 0.1))
  (fp_circle (center -0.889 -1.397) (end -0.8255 -1.397) (layer F.SilkS) (width 0.15))
  (fp_text user %R (at 0 0 90) (layer F.Fab)
    (effects (font (size 0.55 0.55) (thickness 0.1)))
  )
  (pad 2 smd rect (at -0.3875 -0.5 270) (size 0.25 0.625) (layers F.Cu F.Paste F.Mask))
  (pad 3 smd rect (at -0.35 0 270) (size 0.45 0.7) (layers F.Cu F.Paste F.Mask))
  (pad 1 smd rect (at -0.3875 -1 270) (size 0.25 0.625) (layers F.Cu F.Paste F.Mask))
  (pad 4 smd rect (at -0.3875 0.5 270) (size 0.25 0.625) (layers F.Cu F.Paste F.Mask))
  (pad 10 smd rect (at 0.3875 -1 270) (size 0.25 0.625) (layers F.Cu F.Paste F.Mask))
  (pad 9 smd rect (at 0.3875 -0.5 270) (size 0.25 0.625) (layers F.Cu F.Paste F.Mask))
  (pad 5 smd rect (at -0.3875 1 270) (size 0.25 0.625) (layers F.Cu F.Paste F.Mask))
  (pad 8 smd rect (at 0.4125 0 270) (size 0.45 0.575) (layers F.Cu F.Paste F.Mask))
  (pad 6 smd rect (at 0.3875 1 270) (size 0.25 0.625) (layers F.Cu F.Paste F.Mask))
  (pad 7 smd rect (at 0.3875 0.5 270) (size 0.25 0.625) (layers F.Cu F.Paste F.Mask))
  (model ${KISYS3DMOD}/Package_DFN_QFN.3dshapes/Diodes_UDFN-10_1.0x2.5mm_P0.5mm.wrl
    (at (xyz 0 0 0))
    (scale (xyz 1 1 1))
    (rotate (xyz 0 0 0))
  )
)
