(module Infineon_MLPQ-48-1EP_7x7mm_P0.5mm_Pad5.55x5.55mm (layer F.Cu) (tedit 607A6E9A)
  (descr "MLPQ 48 leads, 7x7mm (https://www.infineon.com/dgdl/irs2093mpbf.pdf?fileId=5546d462533600a401535675fb892793), Alternate KiCad Library")
  (tags "mlpq 32 7x7mm")
  (attr smd)
  (fp_text reference REF** (at 0 -4.8895) (layer F.SilkS)
    (effects (font (size 1 1) (thickness 0.15)))
  )
  (fp_text value Infineon_MLPQ-48-1EP_7x7mm_P0.5mm_Pad5.55x5.55mm (at 0 4.7) (layer F.Fab)
    (effects (font (size 1 1) (thickness 0.15)))
  )
  (fp_line (start -4.318 1.75) (end -4.0005 1.75) (layer F.SilkS) (width 0.12))
  (fp_line (start 3.3655 -4.0005) (end -3.4925 -4.0005) (layer F.SilkS) (width 0.12))
  (fp_line (start 4.318 0.25) (end 4.0005 0.25) (layer F.SilkS) (width 0.12))
  (fp_line (start -1.25 -4.191) (end -1.25 -4.0005) (layer F.SilkS) (width 0.12))
  (fp_line (start -4.0005 -2.8575) (end -4.0005 3.048) (layer F.SilkS) (width 0.12))
  (fp_line (start -3.3655 4.0005) (end 3.3655 4.0005) (layer F.SilkS) (width 0.12))
  (fp_line (start 0.75 4.318) (end 0.75 4.0005) (layer F.SilkS) (width 0.12))
  (fp_line (start 4.191 2.75) (end 4.0005 2.75) (layer F.SilkS) (width 0.12))
  (fp_line (start 4.191 -2.25) (end 4.0005 -2.25) (layer F.SilkS) (width 0.12))
  (fp_circle (center -3.7465 -3.7465) (end -3.683 -3.7465) (layer F.SilkS) (width 0.3))
  (fp_line (start -1.75 4.191) (end -1.75 4.0005) (layer F.SilkS) (width 0.12))
  (fp_line (start 1.25 -4.318) (end 1.25 -4.0005) (layer F.SilkS) (width 0.12))
  (fp_line (start -4.191 -0.75) (end -4.0005 -0.75) (layer F.SilkS) (width 0.12))
  (fp_line (start 4.0005 3.048) (end 4.0005 -3.1115) (layer F.SilkS) (width 0.12))
  (fp_line (start -2.5 -3.5) (end -3.5 -2.5) (layer F.Fab) (width 0.1))
  (fp_line (start 3.5 -3.5) (end -2.5 -3.5) (layer F.Fab) (width 0.1))
  (fp_line (start 4 -4) (end -4 -4) (layer F.CrtYd) (width 0.05))
  (fp_line (start 4 4) (end 4 -4) (layer F.CrtYd) (width 0.05))
  (fp_line (start -4 4) (end 4 4) (layer F.CrtYd) (width 0.05))
  (fp_line (start -4 -4) (end -4 4) (layer F.CrtYd) (width 0.05))
  (fp_line (start -3.5 3.5) (end -3.5 -2.5) (layer F.Fab) (width 0.1))
  (fp_line (start 3.5 3.5) (end -3.5 3.5) (layer F.Fab) (width 0.1))
  (fp_line (start 3.5 -3.5) (end 3.5 3.5) (layer F.Fab) (width 0.1))
  (fp_text user %R (at 0 0) (layer F.Fab)
    (effects (font (size 1 1) (thickness 0.15)))
  )
  (fp_text user 36 (at 3.81 -3.683 -90 unlocked) (layer F.SilkS)
    (effects (font (size 0.5 0.5) (thickness 0.12)))
  )
  (fp_text user 1 (at -3.8735 -3.2385 -90 unlocked) (layer F.SilkS)
    (effects (font (size 0.5 0.5) (thickness 0.12)))
  )
  (fp_text user 24 (at 3.81 3.683 -90 unlocked) (layer F.SilkS)
    (effects (font (size 0.5 0.5) (thickness 0.12)))
  )
  (fp_text user 12 (at -3.8735 3.683 -90 unlocked) (layer F.SilkS)
    (effects (font (size 0.5 0.5) (thickness 0.12)))
  )
  (pad 49 smd rect (at -2.407 -2.407 45) (size 0.52 0.52) (layers F.Cu F.Mask))
  (pad 49 smd rect (at 0.184 -2.591) (size 5.182 0.368) (layers F.Cu F.Mask))
  (pad "" smd rect (at -2.3863 -2.3863 45) (size 0.479 0.479) (layers F.Paste))
  (pad "" smd rect (at -2.0055 -2.5555) (size 0.761 0.339) (layers F.Paste))
  (pad "" smd rect (at -2.175 -2.0055) (size 1.1 0.761) (layers F.Paste))
  (pad "" smd rect (at 3.425 2.75) (size 0.55 0.22) (layers F.Paste))
  (pad "" smd rect (at 3.425 2.25) (size 0.55 0.22) (layers F.Paste))
  (pad "" smd rect (at 3.425 1.75) (size 0.55 0.22) (layers F.Paste))
  (pad "" smd rect (at 3.425 1.25) (size 0.55 0.22) (layers F.Paste))
  (pad "" smd rect (at 3.425 0.75) (size 0.55 0.22) (layers F.Paste))
  (pad "" smd rect (at 3.425 0.25) (size 0.55 0.22) (layers F.Paste))
  (pad "" smd rect (at 3.425 -0.25) (size 0.55 0.22) (layers F.Paste))
  (pad "" smd rect (at 3.425 -0.75) (size 0.55 0.22) (layers F.Paste))
  (pad "" smd rect (at 3.425 -1.25) (size 0.55 0.22) (layers F.Paste))
  (pad "" smd rect (at 3.425 -1.75) (size 0.55 0.22) (layers F.Paste))
  (pad "" smd rect (at 3.425 -2.25) (size 0.55 0.22) (layers F.Paste))
  (pad "" smd rect (at 3.425 -2.75) (size 0.55 0.22) (layers F.Paste))
  (pad "" smd rect (at -3.425 2.75) (size 0.55 0.22) (layers F.Paste))
  (pad "" smd rect (at -3.425 2.25) (size 0.55 0.22) (layers F.Paste))
  (pad "" smd rect (at -3.425 1.75) (size 0.55 0.22) (layers F.Paste))
  (pad "" smd rect (at -3.425 1.25) (size 0.55 0.22) (layers F.Paste))
  (pad "" smd rect (at -3.425 0.75) (size 0.55 0.22) (layers F.Paste))
  (pad "" smd rect (at -3.425 0.25) (size 0.55 0.22) (layers F.Paste))
  (pad "" smd rect (at -3.425 -0.25) (size 0.55 0.22) (layers F.Paste))
  (pad "" smd rect (at -3.425 -0.75) (size 0.55 0.22) (layers F.Paste))
  (pad "" smd rect (at -3.425 -1.25) (size 0.55 0.22) (layers F.Paste))
  (pad "" smd rect (at -3.425 -1.75) (size 0.55 0.22) (layers F.Paste))
  (pad "" smd rect (at -3.425 -2.25) (size 0.55 0.22) (layers F.Paste))
  (pad "" smd rect (at 2.75 3.425) (size 0.22 0.55) (layers F.Paste))
  (pad "" smd rect (at 2.25 3.425) (size 0.22 0.55) (layers F.Paste))
  (pad "" smd rect (at 1.75 3.425) (size 0.22 0.55) (layers F.Paste))
  (pad "" smd rect (at 1.25 3.425) (size 0.22 0.55) (layers F.Paste))
  (pad "" smd rect (at 0.75 3.425) (size 0.22 0.55) (layers F.Paste))
  (pad "" smd rect (at 0.25 3.425) (size 0.22 0.55) (layers F.Paste))
  (pad "" smd rect (at -0.25 3.425) (size 0.22 0.55) (layers F.Paste))
  (pad "" smd rect (at -0.75 3.425) (size 0.22 0.55) (layers F.Paste))
  (pad "" smd rect (at -1.25 3.425) (size 0.22 0.55) (layers F.Paste))
  (pad "" smd rect (at -1.75 3.425) (size 0.22 0.55) (layers F.Paste))
  (pad "" smd rect (at -2.25 3.425) (size 0.22 0.55) (layers F.Paste))
  (pad "" smd rect (at -2.75 3.425) (size 0.22 0.55) (layers F.Paste))
  (pad "" smd rect (at -2.75 -3.425) (size 0.22 0.55) (layers F.Paste))
  (pad "" smd rect (at -2.25 -3.425) (size 0.22 0.55) (layers F.Paste))
  (pad "" smd rect (at -1.75 -3.425) (size 0.22 0.55) (layers F.Paste))
  (pad "" smd rect (at -1.25 -3.425) (size 0.22 0.55) (layers F.Paste))
  (pad "" smd rect (at -0.75 -3.425) (size 0.22 0.55) (layers F.Paste))
  (pad "" smd rect (at -0.25 -3.425) (size 0.22 0.55) (layers F.Paste))
  (pad "" smd rect (at 0.25 -3.425) (size 0.22 0.55) (layers F.Paste))
  (pad "" smd rect (at 0.75 -3.425) (size 0.22 0.55) (layers F.Paste))
  (pad "" smd rect (at 1.25 -3.425) (size 0.22 0.55) (layers F.Paste))
  (pad "" smd rect (at 1.75 -3.425) (size 0.22 0.55) (layers F.Paste))
  (pad "" smd rect (at 2.25 -3.425) (size 0.22 0.55) (layers F.Paste))
  (pad "" smd rect (at 2.75 -3.425) (size 0.22 0.55) (layers F.Paste))
  (pad "" smd rect (at -3.425 -2.75) (size 0.55 0.22) (layers F.Paste))
  (pad 48 smd rect (at -2.75 -3.425) (size 0.22 0.65) (layers F.Cu F.Mask))
  (pad 47 smd rect (at -2.25 -3.425) (size 0.22 0.65) (layers F.Cu F.Mask))
  (pad 46 smd rect (at -1.75 -3.425) (size 0.22 0.65) (layers F.Cu F.Mask))
  (pad 45 smd rect (at -1.25 -3.425) (size 0.22 0.65) (layers F.Cu F.Mask))
  (pad 44 smd rect (at -0.75 -3.425) (size 0.22 0.65) (layers F.Cu F.Mask))
  (pad 43 smd rect (at -0.25 -3.425) (size 0.22 0.65) (layers F.Cu F.Mask))
  (pad 42 smd rect (at 0.25 -3.425) (size 0.22 0.65) (layers F.Cu F.Mask))
  (pad 41 smd rect (at 0.75 -3.425) (size 0.22 0.65) (layers F.Cu F.Mask))
  (pad 40 smd rect (at 1.25 -3.425) (size 0.22 0.65) (layers F.Cu F.Mask))
  (pad 39 smd rect (at 1.75 -3.425) (size 0.22 0.65) (layers F.Cu F.Mask))
  (pad 38 smd rect (at 2.25 -3.425) (size 0.22 0.65) (layers F.Cu F.Mask))
  (pad 37 smd rect (at 2.75 -3.425) (size 0.22 0.65) (layers F.Cu F.Mask))
  (pad 24 smd rect (at 2.75 3.425) (size 0.22 0.65) (layers F.Cu F.Mask))
  (pad 23 smd rect (at 2.25 3.425) (size 0.22 0.65) (layers F.Cu F.Mask))
  (pad 22 smd rect (at 1.75 3.425) (size 0.22 0.65) (layers F.Cu F.Mask))
  (pad 21 smd rect (at 1.25 3.425) (size 0.22 0.65) (layers F.Cu F.Mask))
  (pad 20 smd rect (at 0.75 3.425) (size 0.22 0.65) (layers F.Cu F.Mask))
  (pad 19 smd rect (at 0.25 3.425) (size 0.22 0.65) (layers F.Cu F.Mask))
  (pad 18 smd rect (at -0.25 3.425) (size 0.22 0.65) (layers F.Cu F.Mask))
  (pad 17 smd rect (at -0.75 3.425) (size 0.22 0.65) (layers F.Cu F.Mask))
  (pad 16 smd rect (at -1.25 3.425) (size 0.22 0.65) (layers F.Cu F.Mask))
  (pad 15 smd rect (at -1.75 3.425) (size 0.22 0.65) (layers F.Cu F.Mask))
  (pad 14 smd rect (at -2.25 3.425) (size 0.22 0.65) (layers F.Cu F.Mask))
  (pad 13 smd rect (at -2.75 3.425) (size 0.22 0.65) (layers F.Cu F.Mask))
  (pad 36 smd rect (at 3.425 -2.75) (size 0.65 0.22) (layers F.Cu F.Mask))
  (pad 35 smd rect (at 3.425 -2.25) (size 0.65 0.22) (layers F.Cu F.Mask))
  (pad 34 smd rect (at 3.425 -1.75) (size 0.65 0.22) (layers F.Cu F.Mask))
  (pad 33 smd rect (at 3.425 -1.25) (size 0.65 0.22) (layers F.Cu F.Mask))
  (pad 32 smd rect (at 3.425 -0.75) (size 0.65 0.22) (layers F.Cu F.Mask))
  (pad 31 smd rect (at 3.425 -0.25) (size 0.65 0.22) (layers F.Cu F.Mask))
  (pad 30 smd rect (at 3.425 0.25) (size 0.65 0.22) (layers F.Cu F.Mask))
  (pad 29 smd rect (at 3.425 0.75) (size 0.65 0.22) (layers F.Cu F.Mask))
  (pad 28 smd rect (at 3.425 1.25) (size 0.65 0.22) (layers F.Cu F.Mask))
  (pad 27 smd rect (at 3.425 1.75) (size 0.65 0.22) (layers F.Cu F.Mask))
  (pad 26 smd rect (at 3.425 2.25) (size 0.65 0.22) (layers F.Cu F.Mask))
  (pad 25 smd rect (at 3.425 2.75) (size 0.65 0.22) (layers F.Cu F.Mask))
  (pad 12 smd rect (at -3.425 2.75) (size 0.65 0.22) (layers F.Cu F.Mask))
  (pad 11 smd rect (at -3.425 2.25) (size 0.65 0.22) (layers F.Cu F.Mask))
  (pad 10 smd rect (at -3.425 1.75) (size 0.65 0.22) (layers F.Cu F.Mask))
  (pad 9 smd rect (at -3.425 1.25) (size 0.65 0.22) (layers F.Cu F.Mask))
  (pad 8 smd rect (at -3.425 0.75) (size 0.65 0.22) (layers F.Cu F.Mask))
  (pad 7 smd rect (at -3.425 0.25) (size 0.65 0.22) (layers F.Cu F.Mask))
  (pad 6 smd rect (at -3.425 -0.25) (size 0.65 0.22) (layers F.Cu F.Mask))
  (pad 5 smd rect (at -3.425 -0.75) (size 0.65 0.22) (layers F.Cu F.Mask))
  (pad 4 smd rect (at -3.425 -1.25) (size 0.65 0.22) (layers F.Cu F.Mask))
  (pad 3 smd rect (at -3.425 -1.75) (size 0.65 0.22) (layers F.Cu F.Mask))
  (pad 2 smd rect (at -3.425 -2.25) (size 0.65 0.22) (layers F.Cu F.Mask))
  (pad "" smd rect (at -2.175 -0.725) (size 1.1 1.1) (layers F.Paste))
  (pad "" smd rect (at -2.175 0.725) (size 1.1 1.1) (layers F.Paste))
  (pad "" smd rect (at -2.175 2.175) (size 1.1 1.1) (layers F.Paste))
  (pad "" smd rect (at -0.725 -2.175) (size 1.1 1.1) (layers F.Paste))
  (pad "" smd rect (at -0.725 -0.725) (size 1.1 1.1) (layers F.Paste))
  (pad "" smd rect (at -0.725 0.725) (size 1.1 1.1) (layers F.Paste))
  (pad "" smd rect (at -0.725 2.175) (size 1.1 1.1) (layers F.Paste))
  (pad "" smd rect (at 0.725 -2.175) (size 1.1 1.1) (layers F.Paste))
  (pad "" smd rect (at 0.725 -0.725) (size 1.1 1.1) (layers F.Paste))
  (pad "" smd rect (at 0.725 0.725) (size 1.1 1.1) (layers F.Paste))
  (pad "" smd rect (at 0.725 2.175) (size 1.1 1.1) (layers F.Paste))
  (pad "" smd rect (at 2.175 -2.175) (size 1.1 1.1) (layers F.Paste))
  (pad "" smd rect (at 2.175 -0.725) (size 1.1 1.1) (layers F.Paste))
  (pad "" smd rect (at 2.175 0.725) (size 1.1 1.1) (layers F.Paste))
  (pad "" smd rect (at 2.175 2.175) (size 1.1 1.1) (layers F.Paste))
  (pad 49 smd rect (at 0 0.184) (size 5.55 5.182) (layers F.Cu F.Mask))
  (pad 1 smd rect (at -3.425 -2.75) (size 0.65 0.22) (layers F.Cu F.Mask))
  (model ${KISYS3DMOD}/Package_DFN_QFN.3dshapes/Infineon_MLPQ-48-1EP_7x7mm_P0.5mm_Pad5.55x5.55mm.wrl
    (at (xyz 0 0 0))
    (scale (xyz 1 1 1))
    (rotate (xyz 0 0 0))
  )
)
