(module Microchip_8E-16 (layer F.Cu) (tedit 607A6EFF)
  (descr "16-Lead Quad Flat, No Lead Package (8E) - 4x4x0.9 mm Body [UQFN]; (see Microchip Packaging Specification 00000049BS.pdf), Alternate KiCad Library")
  (tags "QFN Microchip 8E 16")
  (solder_mask_margin 0.1)
  (attr smd)
  (fp_text reference REF** (at 0 -3.1) (layer F.SilkS)
    (effects (font (size 1 1) (thickness 0.15)))
  )
  (fp_text value Microchip_8E-16 (at 0 3.1) (layer F.Fab)
    (effects (font (size 1 1) (thickness 0.15)))
  )
  (fp_line (start -1 -2) (end -2 -1) (layer F.Fab) (width 0.1))
  (fp_line (start -2.5 2.5) (end 2.5 2.5) (layer F.CrtYd) (width 0.05))
  (fp_line (start -2.5 -2.5) (end 2.5 -2.5) (layer F.CrtYd) (width 0.05))
  (fp_line (start 2.5 -2.5) (end 2.5 2.5) (layer F.CrtYd) (width 0.05))
  (fp_line (start -2.5 -2.5) (end -2.5 2.5) (layer F.CrtYd) (width 0.05))
  (fp_line (start -1 -2) (end 2 -2) (layer F.Fab) (width 0.1))
  (fp_line (start 2 -2) (end 2 2) (layer F.Fab) (width 0.1))
  (fp_line (start 2 2) (end -2 2) (layer F.Fab) (width 0.1))
  (fp_line (start -2 2) (end -2 -1) (layer F.Fab) (width 0.1))
  (fp_circle (center -2.286 -2.286) (end -2.2225 -2.286) (layer F.SilkS) (width 0.2))
  (fp_line (start -1.9685 -2.413) (end 1.651 -2.413) (layer F.SilkS) (width 0.12))
  (fp_line (start 2.413 -1.3335) (end 2.413 1.9685) (layer F.SilkS) (width 0.12))
  (fp_line (start 1.651 2.413) (end -1.651 2.413) (layer F.SilkS) (width 0.12))
  (fp_line (start -2.413 1.9685) (end -2.413 -1.4605) (layer F.SilkS) (width 0.12))
  (fp_text user %R (at 0 0) (layer F.Fab)
    (effects (font (size 0.8 0.8) (thickness 0.15)))
  )
  (fp_text user 1 (at -2.2225 -1.8415 -90 unlocked) (layer F.SilkS)
    (effects (font (size 0.6 0.6) (thickness 0.12)))
  )
  (fp_text user 4 (at -2.2225 2.3495 -90 unlocked) (layer F.SilkS)
    (effects (font (size 0.6 0.6) (thickness 0.12)))
  )
  (fp_text user 8 (at 2.159 2.3495 -90 unlocked) (layer F.SilkS)
    (effects (font (size 0.6 0.6) (thickness 0.12)))
  )
  (fp_text user 12 (at 2.159 -2.032 -90 unlocked) (layer F.SilkS)
    (effects (font (size 0.6 0.6) (thickness 0.12)))
  )
  (pad 17 smd rect (at -0.5375 -0.5375) (size 1.075 1.075) (layers F.Cu F.Paste F.Mask)
    (solder_paste_margin_ratio -0.2))
  (pad 17 smd rect (at -0.5375 0.5375) (size 1.075 1.075) (layers F.Cu F.Paste F.Mask)
    (solder_paste_margin_ratio -0.2))
  (pad 17 smd rect (at 0.5375 -0.5375) (size 1.075 1.075) (layers F.Cu F.Paste F.Mask)
    (solder_paste_margin_ratio -0.2))
  (pad 17 smd rect (at 0.5375 0.5375) (size 1.075 1.075) (layers F.Cu F.Paste F.Mask)
    (solder_paste_margin_ratio -0.2))
  (pad 16 smd rect (at -0.975 -1.8125 90) (size 0.725 0.3) (layers F.Cu F.Paste F.Mask))
  (pad 15 smd rect (at -0.325 -1.8125 90) (size 0.725 0.3) (layers F.Cu F.Paste F.Mask))
  (pad 14 smd rect (at 0.325 -1.8125 90) (size 0.725 0.3) (layers F.Cu F.Paste F.Mask))
  (pad 13 smd rect (at 0.975 -1.8125 90) (size 0.725 0.3) (layers F.Cu F.Paste F.Mask))
  (pad 12 smd rect (at 1.8125 -0.975) (size 0.725 0.3) (layers F.Cu F.Paste F.Mask))
  (pad 11 smd rect (at 1.8125 -0.325) (size 0.725 0.3) (layers F.Cu F.Paste F.Mask))
  (pad 10 smd rect (at 1.8125 0.325) (size 0.725 0.3) (layers F.Cu F.Paste F.Mask))
  (pad 9 smd rect (at 1.8125 0.975) (size 0.725 0.3) (layers F.Cu F.Paste F.Mask))
  (pad 8 smd rect (at 0.975 1.8125 90) (size 0.725 0.3) (layers F.Cu F.Paste F.Mask))
  (pad 7 smd rect (at 0.325 1.8125 90) (size 0.725 0.3) (layers F.Cu F.Paste F.Mask))
  (pad 6 smd rect (at -0.325 1.8125 90) (size 0.725 0.3) (layers F.Cu F.Paste F.Mask))
  (pad 5 smd rect (at -0.975 1.8125 90) (size 0.725 0.3) (layers F.Cu F.Paste F.Mask))
  (pad 4 smd rect (at -1.8125 0.975) (size 0.725 0.3) (layers F.Cu F.Paste F.Mask))
  (pad 3 smd rect (at -1.8125 0.325) (size 0.725 0.3) (layers F.Cu F.Paste F.Mask))
  (pad 2 smd rect (at -1.8125 -0.325) (size 0.725 0.3) (layers F.Cu F.Paste F.Mask))
  (pad 1 smd rect (at -1.8125 -0.975) (size 0.725 0.3) (layers F.Cu F.Paste F.Mask))
  (model ${KISYS3DMOD}/Package_DFN_QFN.3dshapes/QFN-16-1EP_4x4mm_Pitch0.65mm.wrl
    (at (xyz 0 0 0))
    (scale (xyz 1 1 1))
    (rotate (xyz 0 0 0))
  )
)
