(module MLPQ-16-1EP_4x4mm_P0.65mm_EP2.8x2.8mm (layer F.Cu) (tedit 607A6EED)
  (descr "Micro Leadframe Package, 16 pin with exposed pad, Alternate KiCad Library")
  (tags "MLPQ- 0.65")
  (attr smd)
  (fp_text reference REF** (at 0 -3.4) (layer F.SilkS)
    (effects (font (size 1 1) (thickness 0.15)))
  )
  (fp_text value MLPQ-16-1EP_4x4mm_P0.65mm_EP2.8x2.8mm (at 0 3.4) (layer F.Fab)
    (effects (font (size 1 1) (thickness 0.15)))
  )
  (fp_circle (center -2.3495 -2.3495) (end -2.286 -2.3495) (layer F.SilkS) (width 0.3))
  (fp_line (start -1 -2) (end 2 -2) (layer F.Fab) (width 0.15))
  (fp_line (start 2 -2) (end 2 2) (layer F.Fab) (width 0.15))
  (fp_line (start 2 2) (end -2 2) (layer F.Fab) (width 0.15))
  (fp_line (start -2 2) (end -2 -1) (layer F.Fab) (width 0.15))
  (fp_line (start -2 -1) (end -1 -2) (layer F.Fab) (width 0.15))
  (fp_line (start -2.65 -2.65) (end -2.65 2.65) (layer F.CrtYd) (width 0.05))
  (fp_line (start 2.65 -2.65) (end 2.65 2.65) (layer F.CrtYd) (width 0.05))
  (fp_line (start -2.65 -2.65) (end 2.65 -2.65) (layer F.CrtYd) (width 0.05))
  (fp_line (start -2.65 2.65) (end 2.65 2.65) (layer F.CrtYd) (width 0.05))
  (fp_line (start -2.032 -2.667) (end 1.905 -2.667) (layer F.SilkS) (width 0.12))
  (fp_line (start 2.667 -1.5875) (end 2.667 2.159) (layer F.SilkS) (width 0.12))
  (fp_line (start 1.905 2.667) (end -1.9304 2.667) (layer F.SilkS) (width 0.12))
  (fp_line (start -2.667 2.1844) (end -2.667 -1.4605) (layer F.SilkS) (width 0.12))
  (fp_text user %R (at 0 0) (layer F.Fab)
    (effects (font (size 1 1) (thickness 0.15)))
  )
  (fp_text user 1 (at -2.4765 -1.8415 -90 unlocked) (layer F.SilkS)
    (effects (font (size 0.6 0.6) (thickness 0.12)))
  )
  (fp_text user 4 (at -2.4765 2.54 -90 unlocked) (layer F.SilkS)
    (effects (font (size 0.6 0.6) (thickness 0.12)))
  )
  (fp_text user 8 (at 2.413 2.54 -90 unlocked) (layer F.SilkS)
    (effects (font (size 0.6 0.6) (thickness 0.12)))
  )
  (fp_text user 12 (at 2.413 -2.286 -90 unlocked) (layer F.SilkS)
    (effects (font (size 0.6 0.6) (thickness 0.12)))
  )
  (pad "" smd rect (at -0.7 0.7) (size 1.13 1.13) (layers F.Paste))
  (pad "" smd rect (at -0.7 -0.7) (size 1.13 1.13) (layers F.Paste))
  (pad "" smd rect (at 0.7 -0.7) (size 1.13 1.13) (layers F.Paste))
  (pad 17 smd rect (at 0 0) (size 2.8 2.8) (layers F.Cu F.Mask))
  (pad "" smd rect (at 0.7 0.7) (size 1.13 1.13) (layers F.Paste))
  (pad 16 smd oval (at -0.975 -2 90) (size 0.8 0.35) (layers F.Cu F.Paste F.Mask))
  (pad 15 smd oval (at -0.325 -2 90) (size 0.8 0.35) (layers F.Cu F.Paste F.Mask))
  (pad 14 smd oval (at 0.325 -2 90) (size 0.8 0.35) (layers F.Cu F.Paste F.Mask))
  (pad 13 smd oval (at 0.975 -2 90) (size 0.8 0.35) (layers F.Cu F.Paste F.Mask))
  (pad 12 smd oval (at 2 -0.975) (size 0.8 0.35) (layers F.Cu F.Paste F.Mask))
  (pad 11 smd oval (at 2 -0.325) (size 0.8 0.35) (layers F.Cu F.Paste F.Mask))
  (pad 10 smd oval (at 2 0.325) (size 0.8 0.35) (layers F.Cu F.Paste F.Mask))
  (pad 9 smd oval (at 2 0.975) (size 0.8 0.35) (layers F.Cu F.Paste F.Mask))
  (pad 8 smd oval (at 0.975 2 90) (size 0.8 0.35) (layers F.Cu F.Paste F.Mask))
  (pad 7 smd oval (at 0.325 2 90) (size 0.8 0.35) (layers F.Cu F.Paste F.Mask))
  (pad 6 smd oval (at -0.325 2 90) (size 0.8 0.35) (layers F.Cu F.Paste F.Mask))
  (pad 5 smd oval (at -0.975 2 90) (size 0.8 0.35) (layers F.Cu F.Paste F.Mask))
  (pad 4 smd oval (at -2 0.975) (size 0.8 0.35) (layers F.Cu F.Paste F.Mask))
  (pad 3 smd oval (at -2 0.325) (size 0.8 0.35) (layers F.Cu F.Paste F.Mask))
  (pad 2 smd oval (at -2 -0.325) (size 0.8 0.35) (layers F.Cu F.Paste F.Mask))
  (pad 1 smd oval (at -2 -0.975) (size 0.8 0.35) (layers F.Cu F.Paste F.Mask))
  (model ${KISYS3DMOD}/Package_DFN_QFN.3dshapes/MLPQ-16-1EP_4x4mm_P0.65mm_EP2.8x2.8mm.wrl
    (at (xyz 0 0 0))
    (scale (xyz 1 1 1))
    (rotate (xyz 0 0 0))
  )
)
