(module OnSemi_UDFN-8_1.2x1.8mm_P0.4mm (layer F.Cu) (tedit 607A6F42)
  (descr "8-Lead Plastic Dual Flat, No Lead Package, 1.2x1.8x1.55 mm Body [UDFN] (See http://www.onsemi.com/pub/Collateral/NLSV2T244-D.PDF), Alternate KiCad Library")
  (tags "dfn udfn dual flat")
  (attr smd)
  (fp_text reference REF** (at 0 -1.9685) (layer F.SilkS)
    (effects (font (size 1 1) (thickness 0.15)))
  )
  (fp_text value OnSemi_UDFN-8_1.2x1.8mm_P0.4mm (at 0 1.8) (layer F.Fab)
    (effects (font (size 1 1) (thickness 0.15)))
  )
  (fp_line (start 1.016 -1.143) (end -0.6985 -1.143) (layer F.SilkS) (width 0.12))
  (fp_line (start 1.016 1.143) (end 1.016 -1.143) (layer F.SilkS) (width 0.12))
  (fp_line (start -1.016 1.143) (end 1.016 1.143) (layer F.SilkS) (width 0.12))
  (fp_line (start -1.016 -0.8255) (end -1.016 1.0795) (layer F.SilkS) (width 0.12))
  (fp_line (start -1 -1.15) (end 1 -1.15) (layer F.CrtYd) (width 0.05))
  (fp_line (start -1 1.15) (end -1 -1.15) (layer F.CrtYd) (width 0.05))
  (fp_line (start 1 1.15) (end -1 1.15) (layer F.CrtYd) (width 0.05))
  (fp_line (start 1 -1.15) (end 1 1.15) (layer F.CrtYd) (width 0.05))
  (fp_line (start -0.6 -0.55) (end -0.25 -0.9) (layer F.Fab) (width 0.1))
  (fp_line (start 0.6 -0.9) (end 0.6 0.9) (layer F.Fab) (width 0.1))
  (fp_line (start -0.25 -0.9) (end 0.6 -0.9) (layer F.Fab) (width 0.1))
  (fp_line (start -0.6 0.9) (end -0.6 -0.55) (layer F.Fab) (width 0.1))
  (fp_line (start 0.6 0.9) (end -0.6 0.9) (layer F.Fab) (width 0.1))
  (fp_circle (center -0.9525 -1.0795) (end -0.889 -1.0795) (layer F.SilkS) (width 0.15))
  (fp_text user %R (at 0.05 0 90) (layer F.Fab)
    (effects (font (size 0.3 0.3) (thickness 0.05)))
  )
  (pad 7 smd rect (at 0.42 -0.2) (size 0.66 0.22) (layers F.Cu F.Paste F.Mask))
  (pad 5 smd rect (at 0.42 0.6) (size 0.66 0.22) (layers F.Cu F.Paste F.Mask))
  (pad 6 smd rect (at 0.42 0.2) (size 0.66 0.22) (layers F.Cu F.Paste F.Mask))
  (pad 8 smd rect (at 0.42 -0.6) (size 0.66 0.22) (layers F.Cu F.Paste F.Mask))
  (pad 4 smd rect (at -0.42 0.6) (size 0.66 0.22) (layers F.Cu F.Paste F.Mask))
  (pad 3 smd rect (at -0.42 0.2) (size 0.66 0.22) (layers F.Cu F.Paste F.Mask))
  (pad 2 smd rect (at -0.42 -0.2) (size 0.66 0.22) (layers F.Cu F.Paste F.Mask))
  (pad 1 smd rect (at -0.42 -0.65) (size 0.66 0.32) (layers F.Cu F.Paste F.Mask))
  (model ${KISYS3DMOD}/Package_DFN_QFN.3dshapes/OnSemi_UDFN-8_1.2x1.8mm_P0.4mm.wrl
    (at (xyz 0 0 0))
    (scale (xyz 1 1 1))
    (rotate (xyz 0 0 0))
  )
)
