(module QFN-24-1EP_4x5mm_P0.5mm_EP2.65x3.65mm_ThermalVias (layer F.Cu) (tedit 607A787F)
  (descr "QFN, 24 Pin (https://www.analog.com/media/en/package-pcb-resources/package/pkg_pdf/ltc-legacy-qfn/QFN_24_05-08-1696.pdf), Alternate KiCad Library")
  (tags "QFN NoLead")
  (attr smd)
  (fp_text reference REF** (at 0 -3.82) (layer F.SilkS)
    (effects (font (size 1 1) (thickness 0.15)))
  )
  (fp_text value QFN-24-1EP_4x5mm_P0.5mm_EP2.65x3.65mm_ThermalVias (at 0 3.82) (layer F.Fab)
    (effects (font (size 1 1) (thickness 0.15)))
  )
  (fp_circle (center -2.4765 -2.9845) (end -2.413 -2.9845) (layer F.SilkS) (width 0.3))
  (fp_line (start -2.6035 -2.0955) (end -2.6035 2.7305) (layer F.SilkS) (width 0.12))
  (fp_line (start 2.6035 2.032) (end 2.6035 -2.032) (layer F.SilkS) (width 0.12))
  (fp_line (start 1.905 -3.1115) (end -2.0955 -3.1115) (layer F.SilkS) (width 0.12))
  (fp_line (start -1.905 3.1115) (end 1.905 3.1115) (layer F.SilkS) (width 0.12))
  (fp_line (start 2.62 -3.12) (end -2.62 -3.12) (layer F.CrtYd) (width 0.05))
  (fp_line (start 2.62 3.12) (end 2.62 -3.12) (layer F.CrtYd) (width 0.05))
  (fp_line (start -2.62 3.12) (end 2.62 3.12) (layer F.CrtYd) (width 0.05))
  (fp_line (start -2.62 -3.12) (end -2.62 3.12) (layer F.CrtYd) (width 0.05))
  (fp_line (start -2 -1.5) (end -1 -2.5) (layer F.Fab) (width 0.1))
  (fp_line (start -2 2.5) (end -2 -1.5) (layer F.Fab) (width 0.1))
  (fp_line (start 2 2.5) (end -2 2.5) (layer F.Fab) (width 0.1))
  (fp_line (start 2 -2.5) (end 2 2.5) (layer F.Fab) (width 0.1))
  (fp_line (start -1 -2.5) (end 2 -2.5) (layer F.Fab) (width 0.1))
  (fp_text user %R (at 0 0) (layer F.Fab)
    (effects (font (size 1 1) (thickness 0.15)))
  )
  (fp_text user 12 (at 2.413 2.7305 -90 unlocked) (layer F.SilkS)
    (effects (font (size 0.6 0.6) (thickness 0.12)))
  )
  (fp_text user 7 (at -2.4765 2.9845 -90 unlocked) (layer F.SilkS)
    (effects (font (size 0.6 0.6) (thickness 0.12)))
  )
  (fp_text user 19 (at 2.413 -2.7305 -90 unlocked) (layer F.SilkS)
    (effects (font (size 0.6 0.6) (thickness 0.12)))
  )
  (fp_text user 1 (at -2.4765 -2.4765 -90 unlocked) (layer F.SilkS)
    (effects (font (size 0.6 0.6) (thickness 0.12)))
  )
  (pad "" smd roundrect (at 0.66 1.22) (size 1.15 1.05) (layers F.Paste) (roundrect_rratio 0.238095))
  (pad "" smd roundrect (at 0.66 0) (size 1.15 1.05) (layers F.Paste) (roundrect_rratio 0.238095))
  (pad "" smd roundrect (at 0.66 -1.22) (size 1.15 1.05) (layers F.Paste) (roundrect_rratio 0.238095))
  (pad "" smd roundrect (at -0.66 1.22) (size 1.15 1.05) (layers F.Paste) (roundrect_rratio 0.238095))
  (pad "" smd roundrect (at -0.66 0) (size 1.15 1.05) (layers F.Paste) (roundrect_rratio 0.238095))
  (pad "" smd roundrect (at -0.66 -1.22) (size 1.15 1.05) (layers F.Paste) (roundrect_rratio 0.238095))
  (pad 25 smd rect (at 0 0) (size 2.65 3.65) (layers B.Cu B.Mask))
  (pad 25 thru_hole circle (at 1.075 1.575) (size 0.5 0.5) (drill 0.2) (layers *.Cu))
  (pad 25 thru_hole circle (at 0 1.575) (size 0.5 0.5) (drill 0.2) (layers *.Cu))
  (pad 25 thru_hole circle (at -1.075 1.575) (size 0.5 0.5) (drill 0.2) (layers *.Cu))
  (pad 25 thru_hole circle (at 1.075 0.525) (size 0.5 0.5) (drill 0.2) (layers *.Cu))
  (pad 25 thru_hole circle (at 0 0.525) (size 0.5 0.5) (drill 0.2) (layers *.Cu))
  (pad 25 thru_hole circle (at -1.075 0.525) (size 0.5 0.5) (drill 0.2) (layers *.Cu))
  (pad 25 thru_hole circle (at 1.075 -0.525) (size 0.5 0.5) (drill 0.2) (layers *.Cu))
  (pad 25 thru_hole circle (at 0 -0.525) (size 0.5 0.5) (drill 0.2) (layers *.Cu))
  (pad 25 thru_hole circle (at -1.075 -0.525) (size 0.5 0.5) (drill 0.2) (layers *.Cu))
  (pad 25 thru_hole circle (at 1.075 -1.575) (size 0.5 0.5) (drill 0.2) (layers *.Cu))
  (pad 25 thru_hole circle (at 0 -1.575) (size 0.5 0.5) (drill 0.2) (layers *.Cu))
  (pad 25 thru_hole circle (at -1.075 -1.575) (size 0.5 0.5) (drill 0.2) (layers *.Cu))
  (pad 25 smd rect (at 0 0) (size 2.65 3.65) (layers F.Cu F.Mask))
  (pad 24 smd roundrect (at -1 -2.45) (size 0.25 0.85) (layers F.Cu F.Paste F.Mask) (roundrect_rratio 0.25))
  (pad 23 smd roundrect (at -0.5 -2.45) (size 0.25 0.85) (layers F.Cu F.Paste F.Mask) (roundrect_rratio 0.25))
  (pad 22 smd roundrect (at 0 -2.45) (size 0.25 0.85) (layers F.Cu F.Paste F.Mask) (roundrect_rratio 0.25))
  (pad 21 smd roundrect (at 0.5 -2.45) (size 0.25 0.85) (layers F.Cu F.Paste F.Mask) (roundrect_rratio 0.25))
  (pad 20 smd roundrect (at 1 -2.45) (size 0.25 0.85) (layers F.Cu F.Paste F.Mask) (roundrect_rratio 0.25))
  (pad 19 smd roundrect (at 1.95 -1.5) (size 0.85 0.25) (layers F.Cu F.Paste F.Mask) (roundrect_rratio 0.25))
  (pad 18 smd roundrect (at 1.95 -1) (size 0.85 0.25) (layers F.Cu F.Paste F.Mask) (roundrect_rratio 0.25))
  (pad 17 smd roundrect (at 1.95 -0.5) (size 0.85 0.25) (layers F.Cu F.Paste F.Mask) (roundrect_rratio 0.25))
  (pad 16 smd roundrect (at 1.95 0) (size 0.85 0.25) (layers F.Cu F.Paste F.Mask) (roundrect_rratio 0.25))
  (pad 15 smd roundrect (at 1.95 0.5) (size 0.85 0.25) (layers F.Cu F.Paste F.Mask) (roundrect_rratio 0.25))
  (pad 14 smd roundrect (at 1.95 1) (size 0.85 0.25) (layers F.Cu F.Paste F.Mask) (roundrect_rratio 0.25))
  (pad 13 smd roundrect (at 1.95 1.5) (size 0.85 0.25) (layers F.Cu F.Paste F.Mask) (roundrect_rratio 0.25))
  (pad 12 smd roundrect (at 1 2.45) (size 0.25 0.85) (layers F.Cu F.Paste F.Mask) (roundrect_rratio 0.25))
  (pad 11 smd roundrect (at 0.5 2.45) (size 0.25 0.85) (layers F.Cu F.Paste F.Mask) (roundrect_rratio 0.25))
  (pad 10 smd roundrect (at 0 2.45) (size 0.25 0.85) (layers F.Cu F.Paste F.Mask) (roundrect_rratio 0.25))
  (pad 9 smd roundrect (at -0.5 2.45) (size 0.25 0.85) (layers F.Cu F.Paste F.Mask) (roundrect_rratio 0.25))
  (pad 8 smd roundrect (at -1 2.45) (size 0.25 0.85) (layers F.Cu F.Paste F.Mask) (roundrect_rratio 0.25))
  (pad 7 smd roundrect (at -1.95 1.5) (size 0.85 0.25) (layers F.Cu F.Paste F.Mask) (roundrect_rratio 0.25))
  (pad 6 smd roundrect (at -1.95 1) (size 0.85 0.25) (layers F.Cu F.Paste F.Mask) (roundrect_rratio 0.25))
  (pad 5 smd roundrect (at -1.95 0.5) (size 0.85 0.25) (layers F.Cu F.Paste F.Mask) (roundrect_rratio 0.25))
  (pad 4 smd roundrect (at -1.95 0) (size 0.85 0.25) (layers F.Cu F.Paste F.Mask) (roundrect_rratio 0.25))
  (pad 3 smd roundrect (at -1.95 -0.5) (size 0.85 0.25) (layers F.Cu F.Paste F.Mask) (roundrect_rratio 0.25))
  (pad 2 smd roundrect (at -1.95 -1) (size 0.85 0.25) (layers F.Cu F.Paste F.Mask) (roundrect_rratio 0.25))
  (pad 1 smd roundrect (at -1.95 -1.5) (size 0.85 0.25) (layers F.Cu F.Paste F.Mask) (roundrect_rratio 0.25))
  (model ${KISYS3DMOD}/Package_DFN_QFN.3dshapes/QFN-24-1EP_4x5mm_P0.5mm_EP2.65x3.65mm.wrl
    (at (xyz 0 0 0))
    (scale (xyz 1 1 1))
    (rotate (xyz 0 0 0))
  )
)
