(module QFN-32-1EP_7x7mm_P0.65mm_EP4.65x4.65mm (layer F.Cu) (tedit 607A7AB8)
  (descr "QFN, 32 Pin (http://ww1.microchip.com/downloads/en/DeviceDoc/Atmel-8209-8-bit%20AVR%20ATmega16M1-32M1-64M1_Datasheet.pdf#page=426), Alternate KiCad Library")
  (tags "QFN NoLead")
  (attr smd)
  (fp_text reference REF** (at 0 -4.8) (layer F.SilkS)
    (effects (font (size 1 1) (thickness 0.15)))
  )
  (fp_text value QFN-32-1EP_7x7mm_P0.65mm_EP4.65x4.65mm (at 0 4.8) (layer F.Fab)
    (effects (font (size 1 1) (thickness 0.15)))
  )
  (fp_line (start -3.3655 4.1275) (end 3.3655 4.1275) (layer F.SilkS) (width 0.12))
  (fp_circle (center -4.0005 -4.0005) (end -3.937 -4.0005) (layer F.SilkS) (width 0.3))
  (fp_line (start -4.1275 -3.1115) (end -4.1275 3.556) (layer F.SilkS) (width 0.12))
  (fp_line (start 3.3655 -4.1275) (end -3.6195 -4.1275) (layer F.SilkS) (width 0.12))
  (fp_line (start 4.1275 3.048) (end 4.1275 -3.1115) (layer F.SilkS) (width 0.12))
  (fp_line (start 4.1 -4.1) (end -4.1 -4.1) (layer F.CrtYd) (width 0.05))
  (fp_line (start 4.1 4.1) (end 4.1 -4.1) (layer F.CrtYd) (width 0.05))
  (fp_line (start -4.1 4.1) (end 4.1 4.1) (layer F.CrtYd) (width 0.05))
  (fp_line (start -4.1 -4.1) (end -4.1 4.1) (layer F.CrtYd) (width 0.05))
  (fp_line (start -3.5 -2.5) (end -2.5 -3.5) (layer F.Fab) (width 0.1))
  (fp_line (start -3.5 3.5) (end -3.5 -2.5) (layer F.Fab) (width 0.1))
  (fp_line (start 3.5 3.5) (end -3.5 3.5) (layer F.Fab) (width 0.1))
  (fp_line (start 3.5 -3.5) (end 3.5 3.5) (layer F.Fab) (width 0.1))
  (fp_line (start -2.5 -3.5) (end 3.5 -3.5) (layer F.Fab) (width 0.1))
  (fp_text user %R (at 0 0) (layer F.Fab)
    (effects (font (size 1 1) (thickness 0.15)))
  )
  (fp_text user 24 (at 3.8735 -3.7465 -90 unlocked) (layer F.SilkS)
    (effects (font (size 0.6 0.6) (thickness 0.12)))
  )
  (fp_text user 1 (at -3.937 -3.4925 -90 unlocked) (layer F.SilkS)
    (effects (font (size 0.6 0.6) (thickness 0.12)))
  )
  (fp_text user 16 (at 3.8735 3.7465 -90 unlocked) (layer F.SilkS)
    (effects (font (size 0.6 0.6) (thickness 0.12)))
  )
  (fp_text user 8 (at -3.937 3.937 -90 unlocked) (layer F.SilkS)
    (effects (font (size 0.6 0.6) (thickness 0.12)))
  )
  (pad "" smd roundrect (at 1.74 1.74) (size 0.94 0.94) (layers F.Paste) (roundrect_rratio 0.25))
  (pad "" smd roundrect (at 1.74 0.58) (size 0.94 0.94) (layers F.Paste) (roundrect_rratio 0.25))
  (pad "" smd roundrect (at 1.74 -0.58) (size 0.94 0.94) (layers F.Paste) (roundrect_rratio 0.25))
  (pad "" smd roundrect (at 1.74 -1.74) (size 0.94 0.94) (layers F.Paste) (roundrect_rratio 0.25))
  (pad "" smd roundrect (at 0.58 1.74) (size 0.94 0.94) (layers F.Paste) (roundrect_rratio 0.25))
  (pad "" smd roundrect (at 0.58 0.58) (size 0.94 0.94) (layers F.Paste) (roundrect_rratio 0.25))
  (pad "" smd roundrect (at 0.58 -0.58) (size 0.94 0.94) (layers F.Paste) (roundrect_rratio 0.25))
  (pad "" smd roundrect (at 0.58 -1.74) (size 0.94 0.94) (layers F.Paste) (roundrect_rratio 0.25))
  (pad "" smd roundrect (at -0.58 1.74) (size 0.94 0.94) (layers F.Paste) (roundrect_rratio 0.25))
  (pad "" smd roundrect (at -0.58 0.58) (size 0.94 0.94) (layers F.Paste) (roundrect_rratio 0.25))
  (pad "" smd roundrect (at -0.58 -0.58) (size 0.94 0.94) (layers F.Paste) (roundrect_rratio 0.25))
  (pad "" smd roundrect (at -0.58 -1.74) (size 0.94 0.94) (layers F.Paste) (roundrect_rratio 0.25))
  (pad "" smd roundrect (at -1.74 1.74) (size 0.94 0.94) (layers F.Paste) (roundrect_rratio 0.25))
  (pad "" smd roundrect (at -1.74 0.58) (size 0.94 0.94) (layers F.Paste) (roundrect_rratio 0.25))
  (pad "" smd roundrect (at -1.74 -0.58) (size 0.94 0.94) (layers F.Paste) (roundrect_rratio 0.25))
  (pad "" smd roundrect (at -1.74 -1.74) (size 0.94 0.94) (layers F.Paste) (roundrect_rratio 0.25))
  (pad 33 smd rect (at 0 0) (size 4.65 4.65) (layers F.Cu F.Mask))
  (pad 32 smd roundrect (at -2.275 -3.3375) (size 0.35 1.025) (layers F.Cu F.Paste F.Mask) (roundrect_rratio 0.25))
  (pad 31 smd roundrect (at -1.625 -3.3375) (size 0.35 1.025) (layers F.Cu F.Paste F.Mask) (roundrect_rratio 0.25))
  (pad 30 smd roundrect (at -0.975 -3.3375) (size 0.35 1.025) (layers F.Cu F.Paste F.Mask) (roundrect_rratio 0.25))
  (pad 29 smd roundrect (at -0.325 -3.3375) (size 0.35 1.025) (layers F.Cu F.Paste F.Mask) (roundrect_rratio 0.25))
  (pad 28 smd roundrect (at 0.325 -3.3375) (size 0.35 1.025) (layers F.Cu F.Paste F.Mask) (roundrect_rratio 0.25))
  (pad 27 smd roundrect (at 0.975 -3.3375) (size 0.35 1.025) (layers F.Cu F.Paste F.Mask) (roundrect_rratio 0.25))
  (pad 26 smd roundrect (at 1.625 -3.3375) (size 0.35 1.025) (layers F.Cu F.Paste F.Mask) (roundrect_rratio 0.25))
  (pad 25 smd roundrect (at 2.275 -3.3375) (size 0.35 1.025) (layers F.Cu F.Paste F.Mask) (roundrect_rratio 0.25))
  (pad 24 smd roundrect (at 3.3375 -2.275) (size 1.025 0.35) (layers F.Cu F.Paste F.Mask) (roundrect_rratio 0.25))
  (pad 23 smd roundrect (at 3.3375 -1.625) (size 1.025 0.35) (layers F.Cu F.Paste F.Mask) (roundrect_rratio 0.25))
  (pad 22 smd roundrect (at 3.3375 -0.975) (size 1.025 0.35) (layers F.Cu F.Paste F.Mask) (roundrect_rratio 0.25))
  (pad 21 smd roundrect (at 3.3375 -0.325) (size 1.025 0.35) (layers F.Cu F.Paste F.Mask) (roundrect_rratio 0.25))
  (pad 20 smd roundrect (at 3.3375 0.325) (size 1.025 0.35) (layers F.Cu F.Paste F.Mask) (roundrect_rratio 0.25))
  (pad 19 smd roundrect (at 3.3375 0.975) (size 1.025 0.35) (layers F.Cu F.Paste F.Mask) (roundrect_rratio 0.25))
  (pad 18 smd roundrect (at 3.3375 1.625) (size 1.025 0.35) (layers F.Cu F.Paste F.Mask) (roundrect_rratio 0.25))
  (pad 17 smd roundrect (at 3.3375 2.275) (size 1.025 0.35) (layers F.Cu F.Paste F.Mask) (roundrect_rratio 0.25))
  (pad 16 smd roundrect (at 2.275 3.3375) (size 0.35 1.025) (layers F.Cu F.Paste F.Mask) (roundrect_rratio 0.25))
  (pad 15 smd roundrect (at 1.625 3.3375) (size 0.35 1.025) (layers F.Cu F.Paste F.Mask) (roundrect_rratio 0.25))
  (pad 14 smd roundrect (at 0.975 3.3375) (size 0.35 1.025) (layers F.Cu F.Paste F.Mask) (roundrect_rratio 0.25))
  (pad 13 smd roundrect (at 0.325 3.3375) (size 0.35 1.025) (layers F.Cu F.Paste F.Mask) (roundrect_rratio 0.25))
  (pad 12 smd roundrect (at -0.325 3.3375) (size 0.35 1.025) (layers F.Cu F.Paste F.Mask) (roundrect_rratio 0.25))
  (pad 11 smd roundrect (at -0.975 3.3375) (size 0.35 1.025) (layers F.Cu F.Paste F.Mask) (roundrect_rratio 0.25))
  (pad 10 smd roundrect (at -1.625 3.3375) (size 0.35 1.025) (layers F.Cu F.Paste F.Mask) (roundrect_rratio 0.25))
  (pad 9 smd roundrect (at -2.275 3.3375) (size 0.35 1.025) (layers F.Cu F.Paste F.Mask) (roundrect_rratio 0.25))
  (pad 8 smd roundrect (at -3.3375 2.275) (size 1.025 0.35) (layers F.Cu F.Paste F.Mask) (roundrect_rratio 0.25))
  (pad 7 smd roundrect (at -3.3375 1.625) (size 1.025 0.35) (layers F.Cu F.Paste F.Mask) (roundrect_rratio 0.25))
  (pad 6 smd roundrect (at -3.3375 0.975) (size 1.025 0.35) (layers F.Cu F.Paste F.Mask) (roundrect_rratio 0.25))
  (pad 5 smd roundrect (at -3.3375 0.325) (size 1.025 0.35) (layers F.Cu F.Paste F.Mask) (roundrect_rratio 0.25))
  (pad 4 smd roundrect (at -3.3375 -0.325) (size 1.025 0.35) (layers F.Cu F.Paste F.Mask) (roundrect_rratio 0.25))
  (pad 3 smd roundrect (at -3.3375 -0.975) (size 1.025 0.35) (layers F.Cu F.Paste F.Mask) (roundrect_rratio 0.25))
  (pad 2 smd roundrect (at -3.3375 -1.625) (size 1.025 0.35) (layers F.Cu F.Paste F.Mask) (roundrect_rratio 0.25))
  (pad 1 smd roundrect (at -3.3375 -2.275) (size 1.025 0.35) (layers F.Cu F.Paste F.Mask) (roundrect_rratio 0.25))
  (model ${KISYS3DMOD}/Package_DFN_QFN.3dshapes/QFN-32-1EP_7x7mm_P0.65mm_EP4.65x4.65mm.wrl
    (at (xyz 0 0 0))
    (scale (xyz 1 1 1))
    (rotate (xyz 0 0 0))
  )
)
