(module QFN-20-1EP_4x5mm_P0.5mm_EP2.65x3.65mm_ThermalVias (layer F.Cu) (tedit 607A7752)
  (descr "QFN, 20 Pin (http://www.analog.com/media/en/package-pcb-resources/package/pkg_pdf/ltc-legacy-qfn/QFN_20_05-08-1711.pdf), Alternate KiCad Library")
  (tags "QFN NoLead")
  (attr smd)
  (fp_text reference REF** (at 0 -3.82) (layer F.SilkS)
    (effects (font (size 1 1) (thickness 0.15)))
  )
  (fp_text value QFN-20-1EP_4x5mm_P0.5mm_EP2.65x3.65mm_ThermalVias (at 0 3.82) (layer F.Fab)
    (effects (font (size 1 1) (thickness 0.15)))
  )
  (fp_line (start -1 -2.5) (end 2 -2.5) (layer F.Fab) (width 0.1))
  (fp_line (start 2 -2.5) (end 2 2.5) (layer F.Fab) (width 0.1))
  (fp_line (start 2 2.5) (end -2 2.5) (layer F.Fab) (width 0.1))
  (fp_line (start -2 2.5) (end -2 -1.5) (layer F.Fab) (width 0.1))
  (fp_line (start -2 -1.5) (end -1 -2.5) (layer F.Fab) (width 0.1))
  (fp_line (start -2.62 -3.12) (end -2.62 3.12) (layer F.CrtYd) (width 0.05))
  (fp_line (start -2.62 3.12) (end 2.62 3.12) (layer F.CrtYd) (width 0.05))
  (fp_line (start 2.62 3.12) (end 2.62 -3.12) (layer F.CrtYd) (width 0.05))
  (fp_line (start 2.62 -3.12) (end -2.62 -3.12) (layer F.CrtYd) (width 0.05))
  (fp_line (start 1.8415 -3.1115) (end -2.032 -3.1115) (layer F.SilkS) (width 0.12))
  (fp_line (start -2.6035 -2.032) (end -2.6035 2.6035) (layer F.SilkS) (width 0.12))
  (fp_line (start 2.6035 2.032) (end 2.6035 -2.0955) (layer F.SilkS) (width 0.12))
  (fp_line (start -1.8415 3.1115) (end 1.8415 3.1115) (layer F.SilkS) (width 0.12))
  (fp_circle (center -2.413 -2.921) (end -2.3495 -2.921) (layer F.SilkS) (width 0.3))
  (fp_text user %R (at 0 0) (layer F.Fab)
    (effects (font (size 1 1) (thickness 0.15)))
  )
  (fp_text user 16 (at 2.3495 -2.7305 -90 unlocked) (layer F.SilkS)
    (effects (font (size 0.6 0.6) (thickness 0.12)))
  )
  (fp_text user 10 (at 2.3495 2.7305 -90 unlocked) (layer F.SilkS)
    (effects (font (size 0.6 0.6) (thickness 0.12)))
  )
  (fp_text user 1 (at -2.413 -2.413 -90 unlocked) (layer F.SilkS)
    (effects (font (size 0.6 0.6) (thickness 0.12)))
  )
  (fp_text user 6 (at -2.413 2.9845 -90 unlocked) (layer F.SilkS)
    (effects (font (size 0.6 0.6) (thickness 0.12)))
  )
  (pad "" smd custom (at 0.5375 1.05) (size 0.787174 0.787174) (layers F.Paste)
    (options (clearance outline) (anchor circle))
    (primitives
      (gr_poly (pts
         (xy -0.376193 -0.240646) (xy -0.280817 -0.336022) (xy 0.280817 -0.336022) (xy 0.376193 -0.240646) (xy 0.376193 0.240646)
         (xy 0.280817 0.336022) (xy -0.280817 0.336022) (xy -0.376193 0.240646)) (width 0.230259))
    ))
  (pad "" smd custom (at 0.5375 0) (size 0.787174 0.787174) (layers F.Paste)
    (options (clearance outline) (anchor circle))
    (primitives
      (gr_poly (pts
         (xy -0.376193 -0.240646) (xy -0.280817 -0.336022) (xy 0.280817 -0.336022) (xy 0.376193 -0.240646) (xy 0.376193 0.240646)
         (xy 0.280817 0.336022) (xy -0.280817 0.336022) (xy -0.376193 0.240646)) (width 0.230259))
    ))
  (pad "" smd custom (at 0.5375 -1.05) (size 0.787174 0.787174) (layers F.Paste)
    (options (clearance outline) (anchor circle))
    (primitives
      (gr_poly (pts
         (xy -0.376193 -0.240646) (xy -0.280817 -0.336022) (xy 0.280817 -0.336022) (xy 0.376193 -0.240646) (xy 0.376193 0.240646)
         (xy 0.280817 0.336022) (xy -0.280817 0.336022) (xy -0.376193 0.240646)) (width 0.230259))
    ))
  (pad "" smd custom (at -0.5375 1.05) (size 0.787174 0.787174) (layers F.Paste)
    (options (clearance outline) (anchor circle))
    (primitives
      (gr_poly (pts
         (xy -0.376193 -0.240646) (xy -0.280817 -0.336022) (xy 0.280817 -0.336022) (xy 0.376193 -0.240646) (xy 0.376193 0.240646)
         (xy 0.280817 0.336022) (xy -0.280817 0.336022) (xy -0.376193 0.240646)) (width 0.230259))
    ))
  (pad "" smd custom (at -0.5375 0) (size 0.787174 0.787174) (layers F.Paste)
    (options (clearance outline) (anchor circle))
    (primitives
      (gr_poly (pts
         (xy -0.376193 -0.240646) (xy -0.280817 -0.336022) (xy 0.280817 -0.336022) (xy 0.376193 -0.240646) (xy 0.376193 0.240646)
         (xy 0.280817 0.336022) (xy -0.280817 0.336022) (xy -0.376193 0.240646)) (width 0.230259))
    ))
  (pad "" smd custom (at -0.5375 -1.05) (size 0.787174 0.787174) (layers F.Paste)
    (options (clearance outline) (anchor circle))
    (primitives
      (gr_poly (pts
         (xy -0.376193 -0.240646) (xy -0.280817 -0.336022) (xy 0.280817 -0.336022) (xy 0.376193 -0.240646) (xy 0.376193 0.240646)
         (xy 0.280817 0.336022) (xy -0.280817 0.336022) (xy -0.376193 0.240646)) (width 0.230259))
    ))
  (pad 21 smd rect (at 0 0) (size 2.65 3.65) (layers B.Cu B.Mask))
  (pad 21 thru_hole circle (at 1.075 1.575) (size 0.5 0.5) (drill 0.2) (layers *.Cu))
  (pad 21 thru_hole circle (at 0 1.575) (size 0.5 0.5) (drill 0.2) (layers *.Cu))
  (pad 21 thru_hole circle (at -1.075 1.575) (size 0.5 0.5) (drill 0.2) (layers *.Cu))
  (pad 21 thru_hole circle (at 1.075 0.525) (size 0.5 0.5) (drill 0.2) (layers *.Cu))
  (pad 21 thru_hole circle (at 0 0.525) (size 0.5 0.5) (drill 0.2) (layers *.Cu))
  (pad 21 thru_hole circle (at -1.075 0.525) (size 0.5 0.5) (drill 0.2) (layers *.Cu))
  (pad 21 thru_hole circle (at 1.075 -0.525) (size 0.5 0.5) (drill 0.2) (layers *.Cu))
  (pad 21 thru_hole circle (at 0 -0.525) (size 0.5 0.5) (drill 0.2) (layers *.Cu))
  (pad 21 thru_hole circle (at -1.075 -0.525) (size 0.5 0.5) (drill 0.2) (layers *.Cu))
  (pad 21 thru_hole circle (at 1.075 -1.575) (size 0.5 0.5) (drill 0.2) (layers *.Cu))
  (pad 21 thru_hole circle (at 0 -1.575) (size 0.5 0.5) (drill 0.2) (layers *.Cu))
  (pad 21 thru_hole circle (at -1.075 -1.575) (size 0.5 0.5) (drill 0.2) (layers *.Cu))
  (pad 21 smd rect (at 0 0) (size 2.65 3.65) (layers F.Cu F.Mask))
  (pad 20 smd roundrect (at -0.75 -2.45) (size 0.25 0.85) (layers F.Cu F.Paste F.Mask) (roundrect_rratio 0.25))
  (pad 19 smd roundrect (at -0.25 -2.45) (size 0.25 0.85) (layers F.Cu F.Paste F.Mask) (roundrect_rratio 0.25))
  (pad 18 smd roundrect (at 0.25 -2.45) (size 0.25 0.85) (layers F.Cu F.Paste F.Mask) (roundrect_rratio 0.25))
  (pad 17 smd roundrect (at 0.75 -2.45) (size 0.25 0.85) (layers F.Cu F.Paste F.Mask) (roundrect_rratio 0.25))
  (pad 16 smd roundrect (at 1.95 -1.25) (size 0.85 0.25) (layers F.Cu F.Paste F.Mask) (roundrect_rratio 0.25))
  (pad 15 smd roundrect (at 1.95 -0.75) (size 0.85 0.25) (layers F.Cu F.Paste F.Mask) (roundrect_rratio 0.25))
  (pad 14 smd roundrect (at 1.95 -0.25) (size 0.85 0.25) (layers F.Cu F.Paste F.Mask) (roundrect_rratio 0.25))
  (pad 13 smd roundrect (at 1.95 0.25) (size 0.85 0.25) (layers F.Cu F.Paste F.Mask) (roundrect_rratio 0.25))
  (pad 12 smd roundrect (at 1.95 0.75) (size 0.85 0.25) (layers F.Cu F.Paste F.Mask) (roundrect_rratio 0.25))
  (pad 11 smd roundrect (at 1.95 1.25) (size 0.85 0.25) (layers F.Cu F.Paste F.Mask) (roundrect_rratio 0.25))
  (pad 10 smd roundrect (at 0.75 2.45) (size 0.25 0.85) (layers F.Cu F.Paste F.Mask) (roundrect_rratio 0.25))
  (pad 9 smd roundrect (at 0.25 2.45) (size 0.25 0.85) (layers F.Cu F.Paste F.Mask) (roundrect_rratio 0.25))
  (pad 8 smd roundrect (at -0.25 2.45) (size 0.25 0.85) (layers F.Cu F.Paste F.Mask) (roundrect_rratio 0.25))
  (pad 7 smd roundrect (at -0.75 2.45) (size 0.25 0.85) (layers F.Cu F.Paste F.Mask) (roundrect_rratio 0.25))
  (pad 6 smd roundrect (at -1.95 1.25) (size 0.85 0.25) (layers F.Cu F.Paste F.Mask) (roundrect_rratio 0.25))
  (pad 5 smd roundrect (at -1.95 0.75) (size 0.85 0.25) (layers F.Cu F.Paste F.Mask) (roundrect_rratio 0.25))
  (pad 4 smd roundrect (at -1.95 0.25) (size 0.85 0.25) (layers F.Cu F.Paste F.Mask) (roundrect_rratio 0.25))
  (pad 3 smd roundrect (at -1.95 -0.25) (size 0.85 0.25) (layers F.Cu F.Paste F.Mask) (roundrect_rratio 0.25))
  (pad 2 smd roundrect (at -1.95 -0.75) (size 0.85 0.25) (layers F.Cu F.Paste F.Mask) (roundrect_rratio 0.25))
  (pad 1 smd roundrect (at -1.95 -1.25) (size 0.85 0.25) (layers F.Cu F.Paste F.Mask) (roundrect_rratio 0.25))
  (model ${KISYS3DMOD}/Package_DFN_QFN.3dshapes/QFN-20-1EP_4x5mm_P0.5mm_EP2.65x3.65mm.wrl
    (at (xyz 0 0 0))
    (scale (xyz 1 1 1))
    (rotate (xyz 0 0 0))
  )
)
