(module QFN-38-1EP_4x6mm_P0.4mm_EP2.65x4.65mm_ThermalVias (layer F.Cu) (tedit 607A7B3A)
  (descr "QFN, 38 Pin (http://www.analog.com/media/en/package-pcb-resources/package/pkg_pdf/ltc-legacy-qfn/QFN_38_05-08-1750.pdf), Alternate KiCad Library")
  (tags "QFN NoLead")
  (attr smd)
  (fp_text reference REF** (at 0 -4.572) (layer F.SilkS)
    (effects (font (size 1 1) (thickness 0.15)))
  )
  (fp_text value QFN-38-1EP_4x6mm_P0.4mm_EP2.65x4.65mm_ThermalVias (at 0 4.32) (layer F.Fab)
    (effects (font (size 1 1) (thickness 0.15)))
  )
  (fp_line (start 0 -3.6195) (end 0 -3.81) (layer F.SilkS) (width 0.12))
  (fp_circle (center -2.4765 -3.4925) (end -2.413 -3.4925) (layer F.SilkS) (width 0.3))
  (fp_line (start 2.6035 0.2) (end 2.8 0.2) (layer F.SilkS) (width 0.12))
  (fp_line (start 2.6035 -1.8) (end 2.921 -1.8) (layer F.SilkS) (width 0.12))
  (fp_line (start -0.4 3.81) (end -0.4 3.6195) (layer F.SilkS) (width 0.12))
  (fp_line (start 2.6035 2.2) (end 2.921 2.2) (layer F.SilkS) (width 0.12))
  (fp_line (start -2.921 1.4) (end -2.6035 1.4) (layer F.SilkS) (width 0.12))
  (fp_line (start -2.6035 -0.6) (end -2.794 -0.6) (layer F.SilkS) (width 0.12))
  (fp_line (start 2.6035 2.54) (end 2.6035 -2.667) (layer F.SilkS) (width 0.12))
  (fp_line (start 1.905 -3.6195) (end -2.0955 -3.6195) (layer F.SilkS) (width 0.12))
  (fp_line (start -1.905 3.6195) (end 1.905 3.6195) (layer F.SilkS) (width 0.12))
  (fp_line (start -2.6035 -2.6035) (end -2.6035 2.54) (layer F.SilkS) (width 0.12))
  (fp_line (start 2.62 -3.62) (end -2.62 -3.62) (layer F.CrtYd) (width 0.05))
  (fp_line (start 2.62 3.62) (end 2.62 -3.62) (layer F.CrtYd) (width 0.05))
  (fp_line (start -2.62 3.62) (end 2.62 3.62) (layer F.CrtYd) (width 0.05))
  (fp_line (start -2.62 -3.62) (end -2.62 3.62) (layer F.CrtYd) (width 0.05))
  (fp_line (start -2 -2) (end -1 -3) (layer F.Fab) (width 0.1))
  (fp_line (start -2 3) (end -2 -2) (layer F.Fab) (width 0.1))
  (fp_line (start 2 3) (end -2 3) (layer F.Fab) (width 0.1))
  (fp_line (start 2 -3) (end 2 3) (layer F.Fab) (width 0.1))
  (fp_line (start -1 -3) (end 2 -3) (layer F.Fab) (width 0.1))
  (fp_text user %R (at 0 0) (layer F.Fab)
    (effects (font (size 1 1) (thickness 0.15)))
  )
  (fp_text user 31 (at 2.413 -3.2385 -90 unlocked) (layer F.SilkS)
    (effects (font (size 0.6 0.6) (thickness 0.12)))
  )
  (fp_text user 1 (at -2.4765 -2.9845 -90 unlocked) (layer F.SilkS)
    (effects (font (size 0.6 0.6) (thickness 0.12)))
  )
  (fp_text user 12 (at -2.4765 3.2385 -90 unlocked) (layer F.SilkS)
    (effects (font (size 0.6 0.6) (thickness 0.12)))
  )
  (fp_text user 19 (at 2.413 3.2385 -90 unlocked) (layer F.SilkS)
    (effects (font (size 0.6 0.6) (thickness 0.12)))
  )
  (pad "" smd roundrect (at 0.66 1.74) (size 1.15 1.01) (layers F.Paste) (roundrect_rratio 0.247525))
  (pad "" smd roundrect (at 0.66 0.58) (size 1.15 1.01) (layers F.Paste) (roundrect_rratio 0.247525))
  (pad "" smd roundrect (at 0.66 -0.58) (size 1.15 1.01) (layers F.Paste) (roundrect_rratio 0.247525))
  (pad "" smd roundrect (at 0.66 -1.74) (size 1.15 1.01) (layers F.Paste) (roundrect_rratio 0.247525))
  (pad "" smd roundrect (at -0.66 1.74) (size 1.15 1.01) (layers F.Paste) (roundrect_rratio 0.247525))
  (pad "" smd roundrect (at -0.66 0.58) (size 1.15 1.01) (layers F.Paste) (roundrect_rratio 0.247525))
  (pad "" smd roundrect (at -0.66 -0.58) (size 1.15 1.01) (layers F.Paste) (roundrect_rratio 0.247525))
  (pad "" smd roundrect (at -0.66 -1.74) (size 1.15 1.01) (layers F.Paste) (roundrect_rratio 0.247525))
  (pad 39 smd rect (at 0 0) (size 2.65 4.65) (layers B.Cu B.Mask))
  (pad 39 thru_hole circle (at 1.075 2.075) (size 0.5 0.5) (drill 0.2) (layers *.Cu))
  (pad 39 thru_hole circle (at -1.075 2.075) (size 0.5 0.5) (drill 0.2) (layers *.Cu))
  (pad 39 thru_hole circle (at 1.075 0.691667) (size 0.5 0.5) (drill 0.2) (layers *.Cu))
  (pad 39 thru_hole circle (at -1.075 0.691667) (size 0.5 0.5) (drill 0.2) (layers *.Cu))
  (pad 39 thru_hole circle (at 1.075 -0.691667) (size 0.5 0.5) (drill 0.2) (layers *.Cu))
  (pad 39 thru_hole circle (at -1.075 -0.691667) (size 0.5 0.5) (drill 0.2) (layers *.Cu))
  (pad 39 thru_hole circle (at 1.075 -2.075) (size 0.5 0.5) (drill 0.2) (layers *.Cu))
  (pad 39 thru_hole circle (at -1.075 -2.075) (size 0.5 0.5) (drill 0.2) (layers *.Cu))
  (pad 39 smd rect (at 0 0) (size 2.65 4.65) (layers F.Cu F.Mask))
  (pad 38 smd roundrect (at -1.2 -2.95) (size 0.2 0.85) (layers F.Cu F.Paste F.Mask) (roundrect_rratio 0.25))
  (pad 37 smd roundrect (at -0.8 -2.95) (size 0.2 0.85) (layers F.Cu F.Paste F.Mask) (roundrect_rratio 0.25))
  (pad 36 smd roundrect (at -0.4 -2.95) (size 0.2 0.85) (layers F.Cu F.Paste F.Mask) (roundrect_rratio 0.25))
  (pad 35 smd roundrect (at 0 -2.95) (size 0.2 0.85) (layers F.Cu F.Paste F.Mask) (roundrect_rratio 0.25))
  (pad 34 smd roundrect (at 0.4 -2.95) (size 0.2 0.85) (layers F.Cu F.Paste F.Mask) (roundrect_rratio 0.25))
  (pad 33 smd roundrect (at 0.8 -2.95) (size 0.2 0.85) (layers F.Cu F.Paste F.Mask) (roundrect_rratio 0.25))
  (pad 32 smd roundrect (at 1.2 -2.95) (size 0.2 0.85) (layers F.Cu F.Paste F.Mask) (roundrect_rratio 0.25))
  (pad 31 smd roundrect (at 1.95 -2.2) (size 0.85 0.2) (layers F.Cu F.Paste F.Mask) (roundrect_rratio 0.25))
  (pad 30 smd roundrect (at 1.95 -1.8) (size 0.85 0.2) (layers F.Cu F.Paste F.Mask) (roundrect_rratio 0.25))
  (pad 29 smd roundrect (at 1.95 -1.4) (size 0.85 0.2) (layers F.Cu F.Paste F.Mask) (roundrect_rratio 0.25))
  (pad 28 smd roundrect (at 1.95 -1) (size 0.85 0.2) (layers F.Cu F.Paste F.Mask) (roundrect_rratio 0.25))
  (pad 27 smd roundrect (at 1.95 -0.6) (size 0.85 0.2) (layers F.Cu F.Paste F.Mask) (roundrect_rratio 0.25))
  (pad 26 smd roundrect (at 1.95 -0.2) (size 0.85 0.2) (layers F.Cu F.Paste F.Mask) (roundrect_rratio 0.25))
  (pad 25 smd roundrect (at 1.95 0.2) (size 0.85 0.2) (layers F.Cu F.Paste F.Mask) (roundrect_rratio 0.25))
  (pad 24 smd roundrect (at 1.95 0.6) (size 0.85 0.2) (layers F.Cu F.Paste F.Mask) (roundrect_rratio 0.25))
  (pad 23 smd roundrect (at 1.95 1) (size 0.85 0.2) (layers F.Cu F.Paste F.Mask) (roundrect_rratio 0.25))
  (pad 22 smd roundrect (at 1.95 1.4) (size 0.85 0.2) (layers F.Cu F.Paste F.Mask) (roundrect_rratio 0.25))
  (pad 21 smd roundrect (at 1.95 1.8) (size 0.85 0.2) (layers F.Cu F.Paste F.Mask) (roundrect_rratio 0.25))
  (pad 20 smd roundrect (at 1.95 2.2) (size 0.85 0.2) (layers F.Cu F.Paste F.Mask) (roundrect_rratio 0.25))
  (pad 19 smd roundrect (at 1.2 2.95) (size 0.2 0.85) (layers F.Cu F.Paste F.Mask) (roundrect_rratio 0.25))
  (pad 18 smd roundrect (at 0.8 2.95) (size 0.2 0.85) (layers F.Cu F.Paste F.Mask) (roundrect_rratio 0.25))
  (pad 17 smd roundrect (at 0.4 2.95) (size 0.2 0.85) (layers F.Cu F.Paste F.Mask) (roundrect_rratio 0.25))
  (pad 16 smd roundrect (at 0 2.95) (size 0.2 0.85) (layers F.Cu F.Paste F.Mask) (roundrect_rratio 0.25))
  (pad 15 smd roundrect (at -0.4 2.95) (size 0.2 0.85) (layers F.Cu F.Paste F.Mask) (roundrect_rratio 0.25))
  (pad 14 smd roundrect (at -0.8 2.95) (size 0.2 0.85) (layers F.Cu F.Paste F.Mask) (roundrect_rratio 0.25))
  (pad 13 smd roundrect (at -1.2 2.95) (size 0.2 0.85) (layers F.Cu F.Paste F.Mask) (roundrect_rratio 0.25))
  (pad 12 smd roundrect (at -1.95 2.2) (size 0.85 0.2) (layers F.Cu F.Paste F.Mask) (roundrect_rratio 0.25))
  (pad 11 smd roundrect (at -1.95 1.8) (size 0.85 0.2) (layers F.Cu F.Paste F.Mask) (roundrect_rratio 0.25))
  (pad 10 smd roundrect (at -1.95 1.4) (size 0.85 0.2) (layers F.Cu F.Paste F.Mask) (roundrect_rratio 0.25))
  (pad 9 smd roundrect (at -1.95 1) (size 0.85 0.2) (layers F.Cu F.Paste F.Mask) (roundrect_rratio 0.25))
  (pad 8 smd roundrect (at -1.95 0.6) (size 0.85 0.2) (layers F.Cu F.Paste F.Mask) (roundrect_rratio 0.25))
  (pad 7 smd roundrect (at -1.95 0.2) (size 0.85 0.2) (layers F.Cu F.Paste F.Mask) (roundrect_rratio 0.25))
  (pad 6 smd roundrect (at -1.95 -0.2) (size 0.85 0.2) (layers F.Cu F.Paste F.Mask) (roundrect_rratio 0.25))
  (pad 5 smd roundrect (at -1.95 -0.6) (size 0.85 0.2) (layers F.Cu F.Paste F.Mask) (roundrect_rratio 0.25))
  (pad 4 smd roundrect (at -1.95 -1) (size 0.85 0.2) (layers F.Cu F.Paste F.Mask) (roundrect_rratio 0.25))
  (pad 3 smd roundrect (at -1.95 -1.4) (size 0.85 0.2) (layers F.Cu F.Paste F.Mask) (roundrect_rratio 0.25))
  (pad 2 smd roundrect (at -1.95 -1.8) (size 0.85 0.2) (layers F.Cu F.Paste F.Mask) (roundrect_rratio 0.25))
  (pad 1 smd roundrect (at -1.95 -2.2) (size 0.85 0.2) (layers F.Cu F.Paste F.Mask) (roundrect_rratio 0.25))
  (model ${KISYS3DMOD}/Package_DFN_QFN.3dshapes/QFN-38-1EP_4x6mm_P0.4mm_EP2.65x4.65mm.wrl
    (at (xyz 0 0 0))
    (scale (xyz 1 1 1))
    (rotate (xyz 0 0 0))
  )
)
