(module QFN-64-1EP_9x9mm_P0.5mm_EP7.25x7.25mm (layer F.Cu) (tedit 607A7E59)
  (descr "64-Lead Plastic Quad Flat No-Lead Package, 9x9mm Body (see Atmel Appnote 8826), Alternate KiCad Library")
  (tags "QFN 0.5")
  (attr smd)
  (fp_text reference REF** (at 0 -6.0325) (layer F.SilkS)
    (effects (font (size 1 1) (thickness 0.15)))
  )
  (fp_text value QFN-64-1EP_9x9mm_P0.5mm_EP7.25x7.25mm (at 0 5.875) (layer F.Fab)
    (effects (font (size 1 1) (thickness 0.15)))
  )
  (fp_line (start -4.3815 5.08) (end 4.3815 5.08) (layer F.SilkS) (width 0.12))
  (fp_line (start -5.08 0.75) (end -5.3975 0.75) (layer F.SilkS) (width 0.12))
  (fp_line (start -5.08 3.25) (end -5.2705 3.25) (layer F.SilkS) (width 0.12))
  (fp_line (start 5.08 2.75) (end 5.2705 2.75) (layer F.SilkS) (width 0.12))
  (fp_line (start 5.08 -2.25) (end 5.2705 -2.25) (layer F.SilkS) (width 0.12))
  (fp_line (start 0.25 5.08) (end 0.25 5.2705) (layer F.SilkS) (width 0.12))
  (fp_line (start 5.08 0.25) (end 5.3975 0.25) (layer F.SilkS) (width 0.12))
  (fp_line (start -5.08 -1.75) (end -5.2705 -1.75) (layer F.SilkS) (width 0.12))
  (fp_line (start -5.08 -4.064) (end -5.08 4.064) (layer F.SilkS) (width 0.12))
  (fp_circle (center -4.953 -4.953) (end -4.8895 -4.953) (layer F.SilkS) (width 0.3))
  (fp_line (start -1.75 -5.08) (end -1.75 -5.3975) (layer F.SilkS) (width 0.12))
  (fp_line (start 2.75 5.08) (end 2.75 5.3975) (layer F.SilkS) (width 0.12))
  (fp_line (start -2.25 5.08) (end -2.25 5.3975) (layer F.SilkS) (width 0.12))
  (fp_line (start 5.08 4.064) (end 5.08 -4.064) (layer F.SilkS) (width 0.12))
  (fp_line (start 4.3815 -5.08) (end -4.572 -5.08) (layer F.SilkS) (width 0.12))
  (fp_line (start 0.75 -5.08) (end 0.75 -5.2705) (layer F.SilkS) (width 0.12))
  (fp_line (start 3.25 -5.08) (end 3.25 -5.3975) (layer F.SilkS) (width 0.12))
  (fp_line (start 4.5 4.5) (end -4.5 4.5) (layer F.Fab) (width 0.1))
  (fp_line (start 4.5 -4.5) (end 4.5 4.5) (layer F.Fab) (width 0.1))
  (fp_line (start -3.5 -4.5) (end 4.5 -4.5) (layer F.Fab) (width 0.1))
  (fp_line (start -4.5 4.5) (end -4.5 -3.5) (layer F.Fab) (width 0.1))
  (fp_line (start -4.5 -3.5) (end -3.5 -4.5) (layer F.Fab) (width 0.1))
  (fp_line (start 5.15 -5.15) (end 5.15 5.15) (layer F.CrtYd) (width 0.05))
  (fp_line (start -5.15 5.15) (end 5.15 5.15) (layer F.CrtYd) (width 0.05))
  (fp_line (start -5.15 -5.15) (end 5.15 -5.15) (layer F.CrtYd) (width 0.05))
  (fp_line (start -5.15 -5.15) (end -5.15 5.15) (layer F.CrtYd) (width 0.05))
  (fp_text user %R (at 0 0) (layer F.Fab)
    (effects (font (size 1 1) (thickness 0.15)))
  )
  (fp_text user 16 (at -4.953 4.7625 -90 unlocked) (layer F.SilkS)
    (effects (font (size 0.6 0.6) (thickness 0.12)))
  )
  (fp_text user 1 (at -4.953 -4.445 -90 unlocked) (layer F.SilkS)
    (effects (font (size 0.6 0.6) (thickness 0.12)))
  )
  (fp_text user 32 (at 4.8895 4.7625 -90 unlocked) (layer F.SilkS)
    (effects (font (size 0.6 0.6) (thickness 0.12)))
  )
  (fp_text user 48 (at 4.8895 -4.7625 -90 unlocked) (layer F.SilkS)
    (effects (font (size 0.6 0.6) (thickness 0.12)))
  )
  (pad "" smd rect (at 2.8 2.8) (size 1.19 1.19) (layers F.Paste))
  (pad "" smd rect (at 2.8 1.4) (size 1.19 1.19) (layers F.Paste))
  (pad "" smd rect (at 2.8 0) (size 1.19 1.19) (layers F.Paste))
  (pad "" smd rect (at 2.8 -1.4) (size 1.19 1.19) (layers F.Paste))
  (pad "" smd rect (at 2.8 -2.8) (size 1.19 1.19) (layers F.Paste))
  (pad "" smd rect (at 1.4 2.8) (size 1.19 1.19) (layers F.Paste))
  (pad "" smd rect (at 1.4 1.4) (size 1.19 1.19) (layers F.Paste))
  (pad "" smd rect (at 1.4 0) (size 1.19 1.19) (layers F.Paste))
  (pad "" smd rect (at 1.4 -1.4) (size 1.19 1.19) (layers F.Paste))
  (pad "" smd rect (at 1.4 -2.8) (size 1.19 1.19) (layers F.Paste))
  (pad "" smd rect (at 0 2.8) (size 1.19 1.19) (layers F.Paste))
  (pad "" smd rect (at 0 1.4) (size 1.19 1.19) (layers F.Paste))
  (pad "" smd rect (at 0 0) (size 1.19 1.19) (layers F.Paste))
  (pad "" smd rect (at 0 -1.4) (size 1.19 1.19) (layers F.Paste))
  (pad "" smd rect (at 0 -2.8) (size 1.19 1.19) (layers F.Paste))
  (pad "" smd rect (at -1.4 2.8) (size 1.19 1.19) (layers F.Paste))
  (pad "" smd rect (at -1.4 1.4) (size 1.19 1.19) (layers F.Paste))
  (pad "" smd rect (at -1.4 0) (size 1.19 1.19) (layers F.Paste))
  (pad "" smd rect (at -1.4 -1.4) (size 1.19 1.19) (layers F.Paste))
  (pad "" smd rect (at -1.4 -2.8) (size 1.19 1.19) (layers F.Paste))
  (pad "" smd rect (at -2.8 2.8) (size 1.19 1.19) (layers F.Paste))
  (pad "" smd rect (at -2.8 1.4) (size 1.19 1.19) (layers F.Paste))
  (pad "" smd rect (at -2.8 0) (size 1.19 1.19) (layers F.Paste))
  (pad "" smd rect (at -2.8 -1.4) (size 1.19 1.19) (layers F.Paste))
  (pad "" smd rect (at -2.8 -2.8) (size 1.19 1.19) (layers F.Paste))
  (pad 65 smd rect (at 0 0) (size 7.25 7.25) (layers F.Cu F.Mask))
  (pad 64 smd oval (at -3.75 -4.5 90) (size 0.8 0.3) (layers F.Cu F.Paste F.Mask))
  (pad 63 smd oval (at -3.25 -4.5 90) (size 0.8 0.3) (layers F.Cu F.Paste F.Mask))
  (pad 62 smd oval (at -2.75 -4.5 90) (size 0.8 0.3) (layers F.Cu F.Paste F.Mask))
  (pad 61 smd oval (at -2.25 -4.5 90) (size 0.8 0.3) (layers F.Cu F.Paste F.Mask))
  (pad 60 smd oval (at -1.75 -4.5 90) (size 0.8 0.3) (layers F.Cu F.Paste F.Mask))
  (pad 59 smd oval (at -1.25 -4.5 90) (size 0.8 0.3) (layers F.Cu F.Paste F.Mask))
  (pad 58 smd oval (at -0.75 -4.5 90) (size 0.8 0.3) (layers F.Cu F.Paste F.Mask))
  (pad 57 smd oval (at -0.25 -4.5 90) (size 0.8 0.3) (layers F.Cu F.Paste F.Mask))
  (pad 56 smd oval (at 0.25 -4.5 90) (size 0.8 0.3) (layers F.Cu F.Paste F.Mask))
  (pad 55 smd oval (at 0.75 -4.5 90) (size 0.8 0.3) (layers F.Cu F.Paste F.Mask))
  (pad 54 smd oval (at 1.25 -4.5 90) (size 0.8 0.3) (layers F.Cu F.Paste F.Mask))
  (pad 53 smd oval (at 1.75 -4.5 90) (size 0.8 0.3) (layers F.Cu F.Paste F.Mask))
  (pad 52 smd oval (at 2.25 -4.5 90) (size 0.8 0.3) (layers F.Cu F.Paste F.Mask))
  (pad 51 smd oval (at 2.75 -4.5 90) (size 0.8 0.3) (layers F.Cu F.Paste F.Mask))
  (pad 50 smd oval (at 3.25 -4.5 90) (size 0.8 0.3) (layers F.Cu F.Paste F.Mask))
  (pad 49 smd oval (at 3.75 -4.5 90) (size 0.8 0.3) (layers F.Cu F.Paste F.Mask))
  (pad 48 smd oval (at 4.5 -3.75) (size 0.8 0.3) (layers F.Cu F.Paste F.Mask))
  (pad 47 smd oval (at 4.5 -3.25) (size 0.8 0.3) (layers F.Cu F.Paste F.Mask))
  (pad 46 smd oval (at 4.5 -2.75) (size 0.8 0.3) (layers F.Cu F.Paste F.Mask))
  (pad 45 smd oval (at 4.5 -2.25) (size 0.8 0.3) (layers F.Cu F.Paste F.Mask))
  (pad 44 smd oval (at 4.5 -1.75) (size 0.8 0.3) (layers F.Cu F.Paste F.Mask))
  (pad 43 smd oval (at 4.5 -1.25) (size 0.8 0.3) (layers F.Cu F.Paste F.Mask))
  (pad 42 smd oval (at 4.5 -0.75) (size 0.8 0.3) (layers F.Cu F.Paste F.Mask))
  (pad 41 smd oval (at 4.5 -0.25) (size 0.8 0.3) (layers F.Cu F.Paste F.Mask))
  (pad 40 smd oval (at 4.5 0.25) (size 0.8 0.3) (layers F.Cu F.Paste F.Mask))
  (pad 39 smd oval (at 4.5 0.75) (size 0.8 0.3) (layers F.Cu F.Paste F.Mask))
  (pad 38 smd oval (at 4.5 1.25) (size 0.8 0.3) (layers F.Cu F.Paste F.Mask))
  (pad 37 smd oval (at 4.5 1.75) (size 0.8 0.3) (layers F.Cu F.Paste F.Mask))
  (pad 36 smd oval (at 4.5 2.25) (size 0.8 0.3) (layers F.Cu F.Paste F.Mask))
  (pad 35 smd oval (at 4.5 2.75) (size 0.8 0.3) (layers F.Cu F.Paste F.Mask))
  (pad 34 smd oval (at 4.5 3.25) (size 0.8 0.3) (layers F.Cu F.Paste F.Mask))
  (pad 33 smd oval (at 4.5 3.75) (size 0.8 0.3) (layers F.Cu F.Paste F.Mask))
  (pad 32 smd oval (at 3.75 4.5 90) (size 0.8 0.3) (layers F.Cu F.Paste F.Mask))
  (pad 31 smd oval (at 3.25 4.5 90) (size 0.8 0.3) (layers F.Cu F.Paste F.Mask))
  (pad 30 smd oval (at 2.75 4.5 90) (size 0.8 0.3) (layers F.Cu F.Paste F.Mask))
  (pad 29 smd oval (at 2.25 4.5 90) (size 0.8 0.3) (layers F.Cu F.Paste F.Mask))
  (pad 28 smd oval (at 1.75 4.5 90) (size 0.8 0.3) (layers F.Cu F.Paste F.Mask))
  (pad 27 smd oval (at 1.25 4.5 90) (size 0.8 0.3) (layers F.Cu F.Paste F.Mask))
  (pad 26 smd oval (at 0.75 4.5 90) (size 0.8 0.3) (layers F.Cu F.Paste F.Mask))
  (pad 25 smd oval (at 0.25 4.5 90) (size 0.8 0.3) (layers F.Cu F.Paste F.Mask))
  (pad 24 smd oval (at -0.25 4.5 90) (size 0.8 0.3) (layers F.Cu F.Paste F.Mask))
  (pad 23 smd oval (at -0.75 4.5 90) (size 0.8 0.3) (layers F.Cu F.Paste F.Mask))
  (pad 22 smd oval (at -1.25 4.5 90) (size 0.8 0.3) (layers F.Cu F.Paste F.Mask))
  (pad 21 smd oval (at -1.75 4.5 90) (size 0.8 0.3) (layers F.Cu F.Paste F.Mask))
  (pad 20 smd oval (at -2.25 4.5 90) (size 0.8 0.3) (layers F.Cu F.Paste F.Mask))
  (pad 19 smd oval (at -2.75 4.5 90) (size 0.8 0.3) (layers F.Cu F.Paste F.Mask))
  (pad 18 smd oval (at -3.25 4.5 90) (size 0.8 0.3) (layers F.Cu F.Paste F.Mask))
  (pad 17 smd oval (at -3.75 4.5 90) (size 0.8 0.3) (layers F.Cu F.Paste F.Mask))
  (pad 16 smd oval (at -4.5 3.75) (size 0.8 0.3) (layers F.Cu F.Paste F.Mask))
  (pad 15 smd oval (at -4.5 3.25) (size 0.8 0.3) (layers F.Cu F.Paste F.Mask))
  (pad 14 smd oval (at -4.5 2.75) (size 0.8 0.3) (layers F.Cu F.Paste F.Mask))
  (pad 13 smd oval (at -4.5 2.25) (size 0.8 0.3) (layers F.Cu F.Paste F.Mask))
  (pad 12 smd oval (at -4.5 1.75) (size 0.8 0.3) (layers F.Cu F.Paste F.Mask))
  (pad 11 smd oval (at -4.5 1.25) (size 0.8 0.3) (layers F.Cu F.Paste F.Mask))
  (pad 10 smd oval (at -4.5 0.75) (size 0.8 0.3) (layers F.Cu F.Paste F.Mask))
  (pad 9 smd oval (at -4.5 0.25) (size 0.8 0.3) (layers F.Cu F.Paste F.Mask))
  (pad 8 smd oval (at -4.5 -0.25) (size 0.8 0.3) (layers F.Cu F.Paste F.Mask))
  (pad 7 smd oval (at -4.5 -0.75) (size 0.8 0.3) (layers F.Cu F.Paste F.Mask))
  (pad 6 smd oval (at -4.5 -1.25) (size 0.8 0.3) (layers F.Cu F.Paste F.Mask))
  (pad 5 smd oval (at -4.5 -1.75) (size 0.8 0.3) (layers F.Cu F.Paste F.Mask))
  (pad 4 smd oval (at -4.5 -2.25) (size 0.8 0.3) (layers F.Cu F.Paste F.Mask))
  (pad 3 smd oval (at -4.5 -2.75) (size 0.8 0.3) (layers F.Cu F.Paste F.Mask))
  (pad 2 smd oval (at -4.5 -3.25) (size 0.8 0.3) (layers F.Cu F.Paste F.Mask))
  (pad 1 smd oval (at -4.5 -3.75) (size 0.8 0.3) (layers F.Cu F.Paste F.Mask))
  (model ${KISYS3DMOD}/Package_DFN_QFN.3dshapes/QFN-64-1EP_9x9mm_P0.5mm_EP7.25x7.25mm.wrl
    (at (xyz 0 0 0))
    (scale (xyz 1 1 1))
    (rotate (xyz 0 0 0))
  )
)
