(module QFN-48-1EP_6x6mm_P0.4mm_EP4.2x4.2mm (layer F.Cu) (tedit 607A7C50)
  (descr "QFN, 48 Pin (https://static.dev.sifive.com/SiFive-FE310-G000-datasheet-v1p5.pdf#page=20), Alternate KiCad Library")
  (tags "QFN NoLead")
  (attr smd)
  (fp_text reference REF** (at 0 -4.6355) (layer F.SilkS)
    (effects (font (size 1 1) (thickness 0.15)))
  )
  (fp_text value QFN-48-1EP_6x6mm_P0.4mm_EP4.2x4.2mm (at 0 4.32) (layer F.Fab)
    (effects (font (size 1 1) (thickness 0.15)))
  )
  (fp_line (start -1 -3.6195) (end -1 -3.937) (layer F.SilkS) (width 0.12))
  (fp_line (start 1 -3.6195) (end 1 -3.81) (layer F.SilkS) (width 0.12))
  (fp_line (start 3.6195 -1.8) (end 3.81 -1.8) (layer F.SilkS) (width 0.12))
  (fp_line (start 3.6195 0.2) (end 3.937 0.2) (layer F.SilkS) (width 0.12))
  (fp_line (start 3.6195 2.2) (end 3.81 2.2) (layer F.SilkS) (width 0.12))
  (fp_line (start 0.6 3.6195) (end 0.6 3.937) (layer F.SilkS) (width 0.12))
  (fp_line (start -1.4 3.81) (end -1.4 3.6195) (layer F.SilkS) (width 0.12))
  (fp_line (start -3.6195 1.4) (end -3.937 1.4) (layer F.SilkS) (width 0.12))
  (fp_line (start -3.6195 -0.6) (end -3.81 -0.6) (layer F.SilkS) (width 0.12))
  (fp_line (start 2.921 -3.6195) (end -3.175 -3.6195) (layer F.SilkS) (width 0.12))
  (fp_line (start 3.6195 2.54) (end 3.6195 -2.6035) (layer F.SilkS) (width 0.12))
  (fp_line (start -2.921 3.6195) (end 2.921 3.6195) (layer F.SilkS) (width 0.12))
  (fp_line (start -3.6195 -2.667) (end -3.6195 2.54) (layer F.SilkS) (width 0.12))
  (fp_line (start -2 -3) (end 3 -3) (layer F.Fab) (width 0.1))
  (fp_line (start 3 -3) (end 3 3) (layer F.Fab) (width 0.1))
  (fp_line (start 3 3) (end -3 3) (layer F.Fab) (width 0.1))
  (fp_line (start -3 3) (end -3 -2) (layer F.Fab) (width 0.1))
  (fp_line (start -3 -2) (end -2 -3) (layer F.Fab) (width 0.1))
  (fp_line (start -3.62 -3.62) (end -3.62 3.62) (layer F.CrtYd) (width 0.05))
  (fp_line (start -3.62 3.62) (end 3.62 3.62) (layer F.CrtYd) (width 0.05))
  (fp_line (start 3.62 3.62) (end 3.62 -3.62) (layer F.CrtYd) (width 0.05))
  (fp_line (start 3.62 -3.62) (end -3.62 -3.62) (layer F.CrtYd) (width 0.05))
  (fp_circle (center -3.556 -3.556) (end -3.4925 -3.556) (layer F.SilkS) (width 0.3))
  (fp_text user %R (at 0 0) (layer F.Fab)
    (effects (font (size 1 1) (thickness 0.15)))
  )
  (fp_text user 1 (at -3.4925 -3.048 -90 unlocked) (layer F.SilkS)
    (effects (font (size 0.6 0.6) (thickness 0.12)))
  )
  (fp_text user 12 (at -3.4925 3.2385 -90 unlocked) (layer F.SilkS)
    (effects (font (size 0.6 0.6) (thickness 0.12)))
  )
  (fp_text user 24 (at 3.429 3.2385 -90 unlocked) (layer F.SilkS)
    (effects (font (size 0.6 0.6) (thickness 0.12)))
  )
  (fp_text user 36 (at 3.429 -3.302 -90 unlocked) (layer F.SilkS)
    (effects (font (size 0.6 0.6) (thickness 0.12)))
  )
  (pad "" smd roundrect (at 1.4 1.4) (size 1.13 1.13) (layers F.Paste) (roundrect_rratio 0.221239))
  (pad "" smd roundrect (at 1.4 0) (size 1.13 1.13) (layers F.Paste) (roundrect_rratio 0.221239))
  (pad "" smd roundrect (at 1.4 -1.4) (size 1.13 1.13) (layers F.Paste) (roundrect_rratio 0.221239))
  (pad "" smd roundrect (at 0 1.4) (size 1.13 1.13) (layers F.Paste) (roundrect_rratio 0.221239))
  (pad "" smd roundrect (at 0 0) (size 1.13 1.13) (layers F.Paste) (roundrect_rratio 0.221239))
  (pad "" smd roundrect (at 0 -1.4) (size 1.13 1.13) (layers F.Paste) (roundrect_rratio 0.221239))
  (pad "" smd roundrect (at -1.4 1.4) (size 1.13 1.13) (layers F.Paste) (roundrect_rratio 0.221239))
  (pad "" smd roundrect (at -1.4 0) (size 1.13 1.13) (layers F.Paste) (roundrect_rratio 0.221239))
  (pad "" smd roundrect (at -1.4 -1.4) (size 1.13 1.13) (layers F.Paste) (roundrect_rratio 0.221239))
  (pad 49 smd rect (at 0 0) (size 4.2 4.2) (layers F.Cu F.Mask))
  (pad 48 smd roundrect (at -2.2 -2.95) (size 0.2 0.85) (layers F.Cu F.Paste F.Mask) (roundrect_rratio 0.25))
  (pad 47 smd roundrect (at -1.8 -2.95) (size 0.2 0.85) (layers F.Cu F.Paste F.Mask) (roundrect_rratio 0.25))
  (pad 46 smd roundrect (at -1.4 -2.95) (size 0.2 0.85) (layers F.Cu F.Paste F.Mask) (roundrect_rratio 0.25))
  (pad 45 smd roundrect (at -1 -2.95) (size 0.2 0.85) (layers F.Cu F.Paste F.Mask) (roundrect_rratio 0.25))
  (pad 44 smd roundrect (at -0.6 -2.95) (size 0.2 0.85) (layers F.Cu F.Paste F.Mask) (roundrect_rratio 0.25))
  (pad 43 smd roundrect (at -0.2 -2.95) (size 0.2 0.85) (layers F.Cu F.Paste F.Mask) (roundrect_rratio 0.25))
  (pad 42 smd roundrect (at 0.2 -2.95) (size 0.2 0.85) (layers F.Cu F.Paste F.Mask) (roundrect_rratio 0.25))
  (pad 41 smd roundrect (at 0.6 -2.95) (size 0.2 0.85) (layers F.Cu F.Paste F.Mask) (roundrect_rratio 0.25))
  (pad 40 smd roundrect (at 1 -2.95) (size 0.2 0.85) (layers F.Cu F.Paste F.Mask) (roundrect_rratio 0.25))
  (pad 39 smd roundrect (at 1.4 -2.95) (size 0.2 0.85) (layers F.Cu F.Paste F.Mask) (roundrect_rratio 0.25))
  (pad 38 smd roundrect (at 1.8 -2.95) (size 0.2 0.85) (layers F.Cu F.Paste F.Mask) (roundrect_rratio 0.25))
  (pad 37 smd roundrect (at 2.2 -2.95) (size 0.2 0.85) (layers F.Cu F.Paste F.Mask) (roundrect_rratio 0.25))
  (pad 36 smd roundrect (at 2.95 -2.2) (size 0.85 0.2) (layers F.Cu F.Paste F.Mask) (roundrect_rratio 0.25))
  (pad 35 smd roundrect (at 2.95 -1.8) (size 0.85 0.2) (layers F.Cu F.Paste F.Mask) (roundrect_rratio 0.25))
  (pad 34 smd roundrect (at 2.95 -1.4) (size 0.85 0.2) (layers F.Cu F.Paste F.Mask) (roundrect_rratio 0.25))
  (pad 33 smd roundrect (at 2.95 -1) (size 0.85 0.2) (layers F.Cu F.Paste F.Mask) (roundrect_rratio 0.25))
  (pad 32 smd roundrect (at 2.95 -0.6) (size 0.85 0.2) (layers F.Cu F.Paste F.Mask) (roundrect_rratio 0.25))
  (pad 31 smd roundrect (at 2.95 -0.2) (size 0.85 0.2) (layers F.Cu F.Paste F.Mask) (roundrect_rratio 0.25))
  (pad 30 smd roundrect (at 2.95 0.2) (size 0.85 0.2) (layers F.Cu F.Paste F.Mask) (roundrect_rratio 0.25))
  (pad 29 smd roundrect (at 2.95 0.6) (size 0.85 0.2) (layers F.Cu F.Paste F.Mask) (roundrect_rratio 0.25))
  (pad 28 smd roundrect (at 2.95 1) (size 0.85 0.2) (layers F.Cu F.Paste F.Mask) (roundrect_rratio 0.25))
  (pad 27 smd roundrect (at 2.95 1.4) (size 0.85 0.2) (layers F.Cu F.Paste F.Mask) (roundrect_rratio 0.25))
  (pad 26 smd roundrect (at 2.95 1.8) (size 0.85 0.2) (layers F.Cu F.Paste F.Mask) (roundrect_rratio 0.25))
  (pad 25 smd roundrect (at 2.95 2.2) (size 0.85 0.2) (layers F.Cu F.Paste F.Mask) (roundrect_rratio 0.25))
  (pad 24 smd roundrect (at 2.2 2.95) (size 0.2 0.85) (layers F.Cu F.Paste F.Mask) (roundrect_rratio 0.25))
  (pad 23 smd roundrect (at 1.8 2.95) (size 0.2 0.85) (layers F.Cu F.Paste F.Mask) (roundrect_rratio 0.25))
  (pad 22 smd roundrect (at 1.4 2.95) (size 0.2 0.85) (layers F.Cu F.Paste F.Mask) (roundrect_rratio 0.25))
  (pad 21 smd roundrect (at 1 2.95) (size 0.2 0.85) (layers F.Cu F.Paste F.Mask) (roundrect_rratio 0.25))
  (pad 20 smd roundrect (at 0.6 2.95) (size 0.2 0.85) (layers F.Cu F.Paste F.Mask) (roundrect_rratio 0.25))
  (pad 19 smd roundrect (at 0.2 2.95) (size 0.2 0.85) (layers F.Cu F.Paste F.Mask) (roundrect_rratio 0.25))
  (pad 18 smd roundrect (at -0.2 2.95) (size 0.2 0.85) (layers F.Cu F.Paste F.Mask) (roundrect_rratio 0.25))
  (pad 17 smd roundrect (at -0.6 2.95) (size 0.2 0.85) (layers F.Cu F.Paste F.Mask) (roundrect_rratio 0.25))
  (pad 16 smd roundrect (at -1 2.95) (size 0.2 0.85) (layers F.Cu F.Paste F.Mask) (roundrect_rratio 0.25))
  (pad 15 smd roundrect (at -1.4 2.95) (size 0.2 0.85) (layers F.Cu F.Paste F.Mask) (roundrect_rratio 0.25))
  (pad 14 smd roundrect (at -1.8 2.95) (size 0.2 0.85) (layers F.Cu F.Paste F.Mask) (roundrect_rratio 0.25))
  (pad 13 smd roundrect (at -2.2 2.95) (size 0.2 0.85) (layers F.Cu F.Paste F.Mask) (roundrect_rratio 0.25))
  (pad 12 smd roundrect (at -2.95 2.2) (size 0.85 0.2) (layers F.Cu F.Paste F.Mask) (roundrect_rratio 0.25))
  (pad 11 smd roundrect (at -2.95 1.8) (size 0.85 0.2) (layers F.Cu F.Paste F.Mask) (roundrect_rratio 0.25))
  (pad 10 smd roundrect (at -2.95 1.4) (size 0.85 0.2) (layers F.Cu F.Paste F.Mask) (roundrect_rratio 0.25))
  (pad 9 smd roundrect (at -2.95 1) (size 0.85 0.2) (layers F.Cu F.Paste F.Mask) (roundrect_rratio 0.25))
  (pad 8 smd roundrect (at -2.95 0.6) (size 0.85 0.2) (layers F.Cu F.Paste F.Mask) (roundrect_rratio 0.25))
  (pad 7 smd roundrect (at -2.95 0.2) (size 0.85 0.2) (layers F.Cu F.Paste F.Mask) (roundrect_rratio 0.25))
  (pad 6 smd roundrect (at -2.95 -0.2) (size 0.85 0.2) (layers F.Cu F.Paste F.Mask) (roundrect_rratio 0.25))
  (pad 5 smd roundrect (at -2.95 -0.6) (size 0.85 0.2) (layers F.Cu F.Paste F.Mask) (roundrect_rratio 0.25))
  (pad 4 smd roundrect (at -2.95 -1) (size 0.85 0.2) (layers F.Cu F.Paste F.Mask) (roundrect_rratio 0.25))
  (pad 3 smd roundrect (at -2.95 -1.4) (size 0.85 0.2) (layers F.Cu F.Paste F.Mask) (roundrect_rratio 0.25))
  (pad 2 smd roundrect (at -2.95 -1.8) (size 0.85 0.2) (layers F.Cu F.Paste F.Mask) (roundrect_rratio 0.25))
  (pad 1 smd roundrect (at -2.95 -2.2) (size 0.85 0.2) (layers F.Cu F.Paste F.Mask) (roundrect_rratio 0.25))
  (model ${KISYS3DMOD}/Package_DFN_QFN.3dshapes/QFN-48-1EP_6x6mm_P0.4mm_EP4.2x4.2mm.wrl
    (at (xyz 0 0 0))
    (scale (xyz 1 1 1))
    (rotate (xyz 0 0 0))
  )
)
