(module QFN-28-1EP_6x6mm_P0.65mm_EP4.8x4.8mm (layer F.Cu) (tedit 607A793E)
  (descr "QFN, 28 Pin (https://www.semtech.com/uploads/documents/sx1272.pdf#page=125), Alternate KiCad Library")
  (tags "QFN NoLead")
  (attr smd)
  (fp_text reference REF** (at 0 -4.32) (layer F.SilkS)
    (effects (font (size 1 1) (thickness 0.15)))
  )
  (fp_text value QFN-28-1EP_6x6mm_P0.65mm_EP4.8x4.8mm (at 0 4.32) (layer F.Fab)
    (effects (font (size 1 1) (thickness 0.15)))
  )
  (fp_line (start 2.921 -3.6195) (end -3.1115 -3.6195) (layer F.SilkS) (width 0.12))
  (fp_line (start 3.6195 2.4765) (end 3.6195 -2.667) (layer F.SilkS) (width 0.12))
  (fp_line (start -2.921 3.6195) (end 2.921 3.6195) (layer F.SilkS) (width 0.12))
  (fp_line (start -3.6195 -2.6035) (end -3.6195 3.175) (layer F.SilkS) (width 0.12))
  (fp_circle (center -3.4925 -3.4925) (end -3.429 -3.4925) (layer F.SilkS) (width 0.3))
  (fp_line (start -2 -3) (end 3 -3) (layer F.Fab) (width 0.1))
  (fp_line (start 3 -3) (end 3 3) (layer F.Fab) (width 0.1))
  (fp_line (start 3 3) (end -3 3) (layer F.Fab) (width 0.1))
  (fp_line (start -3 3) (end -3 -2) (layer F.Fab) (width 0.1))
  (fp_line (start -3 -2) (end -2 -3) (layer F.Fab) (width 0.1))
  (fp_line (start -3.62 -3.62) (end -3.62 3.62) (layer F.CrtYd) (width 0.05))
  (fp_line (start -3.62 3.62) (end 3.62 3.62) (layer F.CrtYd) (width 0.05))
  (fp_line (start 3.62 3.62) (end 3.62 -3.62) (layer F.CrtYd) (width 0.05))
  (fp_line (start 3.62 -3.62) (end -3.62 -3.62) (layer F.CrtYd) (width 0.05))
  (fp_text user %R (at 0 0) (layer F.Fab)
    (effects (font (size 1 1) (thickness 0.15)))
  )
  (fp_text user 1 (at -3.4925 -2.9845 -90 unlocked) (layer F.SilkS)
    (effects (font (size 0.6 0.6) (thickness 0.12)))
  )
  (fp_text user 7 (at -3.4925 3.429 -90 unlocked) (layer F.SilkS)
    (effects (font (size 0.6 0.6) (thickness 0.12)))
  )
  (fp_text user 14 (at 3.429 3.175 -90 unlocked) (layer F.SilkS)
    (effects (font (size 0.6 0.6) (thickness 0.12)))
  )
  (fp_text user 21 (at 3.429 -3.2385 -90 unlocked) (layer F.SilkS)
    (effects (font (size 0.6 0.6) (thickness 0.12)))
  )
  (pad "" smd roundrect (at 1.6 1.6) (size 1.29 1.29) (layers F.Paste) (roundrect_rratio 0.193798))
  (pad "" smd roundrect (at 1.6 0) (size 1.29 1.29) (layers F.Paste) (roundrect_rratio 0.193798))
  (pad "" smd roundrect (at 1.6 -1.6) (size 1.29 1.29) (layers F.Paste) (roundrect_rratio 0.193798))
  (pad "" smd roundrect (at 0 1.6) (size 1.29 1.29) (layers F.Paste) (roundrect_rratio 0.193798))
  (pad "" smd roundrect (at 0 0) (size 1.29 1.29) (layers F.Paste) (roundrect_rratio 0.193798))
  (pad "" smd roundrect (at 0 -1.6) (size 1.29 1.29) (layers F.Paste) (roundrect_rratio 0.193798))
  (pad "" smd roundrect (at -1.6 1.6) (size 1.29 1.29) (layers F.Paste) (roundrect_rratio 0.193798))
  (pad "" smd roundrect (at -1.6 0) (size 1.29 1.29) (layers F.Paste) (roundrect_rratio 0.193798))
  (pad "" smd roundrect (at -1.6 -1.6) (size 1.29 1.29) (layers F.Paste) (roundrect_rratio 0.193798))
  (pad 29 smd rect (at 0 0) (size 4.8 4.8) (layers F.Cu F.Mask))
  (pad 28 smd roundrect (at -1.95 -2.9875) (size 0.3 0.775) (layers F.Cu F.Paste F.Mask) (roundrect_rratio 0.25))
  (pad 27 smd roundrect (at -1.3 -2.9875) (size 0.3 0.775) (layers F.Cu F.Paste F.Mask) (roundrect_rratio 0.25))
  (pad 26 smd roundrect (at -0.65 -2.9875) (size 0.3 0.775) (layers F.Cu F.Paste F.Mask) (roundrect_rratio 0.25))
  (pad 25 smd roundrect (at 0 -2.9875) (size 0.3 0.775) (layers F.Cu F.Paste F.Mask) (roundrect_rratio 0.25))
  (pad 24 smd roundrect (at 0.65 -2.9875) (size 0.3 0.775) (layers F.Cu F.Paste F.Mask) (roundrect_rratio 0.25))
  (pad 23 smd roundrect (at 1.3 -2.9875) (size 0.3 0.775) (layers F.Cu F.Paste F.Mask) (roundrect_rratio 0.25))
  (pad 22 smd roundrect (at 1.95 -2.9875) (size 0.3 0.775) (layers F.Cu F.Paste F.Mask) (roundrect_rratio 0.25))
  (pad 21 smd roundrect (at 2.9875 -1.95) (size 0.775 0.3) (layers F.Cu F.Paste F.Mask) (roundrect_rratio 0.25))
  (pad 20 smd roundrect (at 2.9875 -1.3) (size 0.775 0.3) (layers F.Cu F.Paste F.Mask) (roundrect_rratio 0.25))
  (pad 19 smd roundrect (at 2.9875 -0.65) (size 0.775 0.3) (layers F.Cu F.Paste F.Mask) (roundrect_rratio 0.25))
  (pad 18 smd roundrect (at 2.9875 0) (size 0.775 0.3) (layers F.Cu F.Paste F.Mask) (roundrect_rratio 0.25))
  (pad 17 smd roundrect (at 2.9875 0.65) (size 0.775 0.3) (layers F.Cu F.Paste F.Mask) (roundrect_rratio 0.25))
  (pad 16 smd roundrect (at 2.9875 1.3) (size 0.775 0.3) (layers F.Cu F.Paste F.Mask) (roundrect_rratio 0.25))
  (pad 15 smd roundrect (at 2.9875 1.95) (size 0.775 0.3) (layers F.Cu F.Paste F.Mask) (roundrect_rratio 0.25))
  (pad 14 smd roundrect (at 1.95 2.9875) (size 0.3 0.775) (layers F.Cu F.Paste F.Mask) (roundrect_rratio 0.25))
  (pad 13 smd roundrect (at 1.3 2.9875) (size 0.3 0.775) (layers F.Cu F.Paste F.Mask) (roundrect_rratio 0.25))
  (pad 12 smd roundrect (at 0.65 2.9875) (size 0.3 0.775) (layers F.Cu F.Paste F.Mask) (roundrect_rratio 0.25))
  (pad 11 smd roundrect (at 0 2.9875) (size 0.3 0.775) (layers F.Cu F.Paste F.Mask) (roundrect_rratio 0.25))
  (pad 10 smd roundrect (at -0.65 2.9875) (size 0.3 0.775) (layers F.Cu F.Paste F.Mask) (roundrect_rratio 0.25))
  (pad 9 smd roundrect (at -1.3 2.9875) (size 0.3 0.775) (layers F.Cu F.Paste F.Mask) (roundrect_rratio 0.25))
  (pad 8 smd roundrect (at -1.95 2.9875) (size 0.3 0.775) (layers F.Cu F.Paste F.Mask) (roundrect_rratio 0.25))
  (pad 7 smd roundrect (at -2.9875 1.95) (size 0.775 0.3) (layers F.Cu F.Paste F.Mask) (roundrect_rratio 0.25))
  (pad 6 smd roundrect (at -2.9875 1.3) (size 0.775 0.3) (layers F.Cu F.Paste F.Mask) (roundrect_rratio 0.25))
  (pad 5 smd roundrect (at -2.9875 0.65) (size 0.775 0.3) (layers F.Cu F.Paste F.Mask) (roundrect_rratio 0.25))
  (pad 4 smd roundrect (at -2.9875 0) (size 0.775 0.3) (layers F.Cu F.Paste F.Mask) (roundrect_rratio 0.25))
  (pad 3 smd roundrect (at -2.9875 -0.65) (size 0.775 0.3) (layers F.Cu F.Paste F.Mask) (roundrect_rratio 0.25))
  (pad 2 smd roundrect (at -2.9875 -1.3) (size 0.775 0.3) (layers F.Cu F.Paste F.Mask) (roundrect_rratio 0.25))
  (pad 1 smd roundrect (at -2.9875 -1.95) (size 0.775 0.3) (layers F.Cu F.Paste F.Mask) (roundrect_rratio 0.25))
  (model ${KISYS3DMOD}/Package_DFN_QFN.3dshapes/QFN-28-1EP_6x6mm_P0.65mm_EP4.8x4.8mm.wrl
    (at (xyz 0 0 0))
    (scale (xyz 1 1 1))
    (rotate (xyz 0 0 0))
  )
)
