(module QFN-64-1EP_9x9mm_P0.5mm_EP5.45x5.45mm (layer F.Cu) (tedit 607A7E11)
  (descr "QFN, 64 Pin (https://www.infineon.com/dgdl/Infineon-MA12040-DS-v01_00-EN.pdf?fileId=5546d46264a8de7e0164b7467a3d617c#page=81), Alternate KiCad Library")
  (tags "QFN NoLead")
  (attr smd)
  (fp_text reference REF** (at 0 -6.0325) (layer F.SilkS)
    (effects (font (size 1 1) (thickness 0.15)))
  )
  (fp_text value QFN-64-1EP_9x9mm_P0.5mm_EP5.45x5.45mm (at 0 5.82) (layer F.Fab)
    (effects (font (size 1 1) (thickness 0.15)))
  )
  (fp_circle (center -4.953 -4.953) (end -4.8895 -4.953) (layer F.SilkS) (width 0.3))
  (fp_line (start 5.08 2.75) (end 5.2705 2.75) (layer F.SilkS) (width 0.12))
  (fp_line (start 5.08 0.25) (end 5.3975 0.25) (layer F.SilkS) (width 0.12))
  (fp_line (start 5.08 -2.25) (end 5.2705 -2.25) (layer F.SilkS) (width 0.12))
  (fp_line (start 2.75 5.08) (end 2.75 5.3975) (layer F.SilkS) (width 0.12))
  (fp_line (start 0.25 5.08) (end 0.25 5.2705) (layer F.SilkS) (width 0.12))
  (fp_line (start -5.08 3.25) (end -5.2705 3.25) (layer F.SilkS) (width 0.12))
  (fp_line (start -2.25 5.08) (end -2.25 5.3975) (layer F.SilkS) (width 0.12))
  (fp_line (start -5.08 0.75) (end -5.3975 0.75) (layer F.SilkS) (width 0.12))
  (fp_line (start -5.08 -4.064) (end -5.08 4.064) (layer F.SilkS) (width 0.12))
  (fp_line (start -5.08 -1.75) (end -5.2705 -1.75) (layer F.SilkS) (width 0.12))
  (fp_line (start 4.3815 -5.08) (end -4.572 -5.08) (layer F.SilkS) (width 0.12))
  (fp_line (start -4.3815 5.08) (end 4.3815 5.08) (layer F.SilkS) (width 0.12))
  (fp_line (start 5.08 4.064) (end 5.08 -4.064) (layer F.SilkS) (width 0.12))
  (fp_line (start -1.75 -5.08) (end -1.75 -5.3975) (layer F.SilkS) (width 0.12))
  (fp_line (start 3.25 -5.08) (end 3.25 -5.3975) (layer F.SilkS) (width 0.12))
  (fp_line (start 0.75 -5.08) (end 0.75 -5.2705) (layer F.SilkS) (width 0.12))
  (fp_line (start 5.12 -5.12) (end -5.12 -5.12) (layer F.CrtYd) (width 0.05))
  (fp_line (start 5.12 5.12) (end 5.12 -5.12) (layer F.CrtYd) (width 0.05))
  (fp_line (start -5.12 5.12) (end 5.12 5.12) (layer F.CrtYd) (width 0.05))
  (fp_line (start -5.12 -5.12) (end -5.12 5.12) (layer F.CrtYd) (width 0.05))
  (fp_line (start -4.5 -3.5) (end -3.5 -4.5) (layer F.Fab) (width 0.1))
  (fp_line (start -4.5 4.5) (end -4.5 -3.5) (layer F.Fab) (width 0.1))
  (fp_line (start 4.5 4.5) (end -4.5 4.5) (layer F.Fab) (width 0.1))
  (fp_line (start 4.5 -4.5) (end 4.5 4.5) (layer F.Fab) (width 0.1))
  (fp_line (start -3.5 -4.5) (end 4.5 -4.5) (layer F.Fab) (width 0.1))
  (fp_text user %R (at 0 0) (layer F.Fab)
    (effects (font (size 1 1) (thickness 0.15)))
  )
  (fp_text user 32 (at 4.8895 4.7625 -90 unlocked) (layer F.SilkS)
    (effects (font (size 0.6 0.6) (thickness 0.12)))
  )
  (fp_text user 16 (at -4.953 4.7625 -90 unlocked) (layer F.SilkS)
    (effects (font (size 0.6 0.6) (thickness 0.12)))
  )
  (fp_text user 48 (at 4.8895 -4.7625 -90 unlocked) (layer F.SilkS)
    (effects (font (size 0.6 0.6) (thickness 0.12)))
  )
  (fp_text user 1 (at -4.953 -4.445 -90 unlocked) (layer F.SilkS)
    (effects (font (size 0.6 0.6) (thickness 0.12)))
  )
  (pad "" smd roundrect (at 2.04 2.04) (size 1.1 1.1) (layers F.Paste) (roundrect_rratio 0.227273))
  (pad "" smd roundrect (at 2.04 0.68) (size 1.1 1.1) (layers F.Paste) (roundrect_rratio 0.227273))
  (pad "" smd roundrect (at 2.04 -0.68) (size 1.1 1.1) (layers F.Paste) (roundrect_rratio 0.227273))
  (pad "" smd roundrect (at 2.04 -2.04) (size 1.1 1.1) (layers F.Paste) (roundrect_rratio 0.227273))
  (pad "" smd roundrect (at 0.68 2.04) (size 1.1 1.1) (layers F.Paste) (roundrect_rratio 0.227273))
  (pad "" smd roundrect (at 0.68 0.68) (size 1.1 1.1) (layers F.Paste) (roundrect_rratio 0.227273))
  (pad "" smd roundrect (at 0.68 -0.68) (size 1.1 1.1) (layers F.Paste) (roundrect_rratio 0.227273))
  (pad "" smd roundrect (at 0.68 -2.04) (size 1.1 1.1) (layers F.Paste) (roundrect_rratio 0.227273))
  (pad "" smd roundrect (at -0.68 2.04) (size 1.1 1.1) (layers F.Paste) (roundrect_rratio 0.227273))
  (pad "" smd roundrect (at -0.68 0.68) (size 1.1 1.1) (layers F.Paste) (roundrect_rratio 0.227273))
  (pad "" smd roundrect (at -0.68 -0.68) (size 1.1 1.1) (layers F.Paste) (roundrect_rratio 0.227273))
  (pad "" smd roundrect (at -0.68 -2.04) (size 1.1 1.1) (layers F.Paste) (roundrect_rratio 0.227273))
  (pad "" smd roundrect (at -2.04 2.04) (size 1.1 1.1) (layers F.Paste) (roundrect_rratio 0.227273))
  (pad "" smd roundrect (at -2.04 0.68) (size 1.1 1.1) (layers F.Paste) (roundrect_rratio 0.227273))
  (pad "" smd roundrect (at -2.04 -0.68) (size 1.1 1.1) (layers F.Paste) (roundrect_rratio 0.227273))
  (pad "" smd roundrect (at -2.04 -2.04) (size 1.1 1.1) (layers F.Paste) (roundrect_rratio 0.227273))
  (pad 65 smd rect (at 0 0) (size 5.45 5.45) (layers F.Cu F.Mask))
  (pad 64 smd roundrect (at -3.75 -4.4375) (size 0.3 0.875) (layers F.Cu F.Paste F.Mask) (roundrect_rratio 0.25))
  (pad 63 smd roundrect (at -3.25 -4.4375) (size 0.3 0.875) (layers F.Cu F.Paste F.Mask) (roundrect_rratio 0.25))
  (pad 62 smd roundrect (at -2.75 -4.4375) (size 0.3 0.875) (layers F.Cu F.Paste F.Mask) (roundrect_rratio 0.25))
  (pad 61 smd roundrect (at -2.25 -4.4375) (size 0.3 0.875) (layers F.Cu F.Paste F.Mask) (roundrect_rratio 0.25))
  (pad 60 smd roundrect (at -1.75 -4.4375) (size 0.3 0.875) (layers F.Cu F.Paste F.Mask) (roundrect_rratio 0.25))
  (pad 59 smd roundrect (at -1.25 -4.4375) (size 0.3 0.875) (layers F.Cu F.Paste F.Mask) (roundrect_rratio 0.25))
  (pad 58 smd roundrect (at -0.75 -4.4375) (size 0.3 0.875) (layers F.Cu F.Paste F.Mask) (roundrect_rratio 0.25))
  (pad 57 smd roundrect (at -0.25 -4.4375) (size 0.3 0.875) (layers F.Cu F.Paste F.Mask) (roundrect_rratio 0.25))
  (pad 56 smd roundrect (at 0.25 -4.4375) (size 0.3 0.875) (layers F.Cu F.Paste F.Mask) (roundrect_rratio 0.25))
  (pad 55 smd roundrect (at 0.75 -4.4375) (size 0.3 0.875) (layers F.Cu F.Paste F.Mask) (roundrect_rratio 0.25))
  (pad 54 smd roundrect (at 1.25 -4.4375) (size 0.3 0.875) (layers F.Cu F.Paste F.Mask) (roundrect_rratio 0.25))
  (pad 53 smd roundrect (at 1.75 -4.4375) (size 0.3 0.875) (layers F.Cu F.Paste F.Mask) (roundrect_rratio 0.25))
  (pad 52 smd roundrect (at 2.25 -4.4375) (size 0.3 0.875) (layers F.Cu F.Paste F.Mask) (roundrect_rratio 0.25))
  (pad 51 smd roundrect (at 2.75 -4.4375) (size 0.3 0.875) (layers F.Cu F.Paste F.Mask) (roundrect_rratio 0.25))
  (pad 50 smd roundrect (at 3.25 -4.4375) (size 0.3 0.875) (layers F.Cu F.Paste F.Mask) (roundrect_rratio 0.25))
  (pad 49 smd roundrect (at 3.75 -4.4375) (size 0.3 0.875) (layers F.Cu F.Paste F.Mask) (roundrect_rratio 0.25))
  (pad 48 smd roundrect (at 4.4375 -3.75) (size 0.875 0.3) (layers F.Cu F.Paste F.Mask) (roundrect_rratio 0.25))
  (pad 47 smd roundrect (at 4.4375 -3.25) (size 0.875 0.3) (layers F.Cu F.Paste F.Mask) (roundrect_rratio 0.25))
  (pad 46 smd roundrect (at 4.4375 -2.75) (size 0.875 0.3) (layers F.Cu F.Paste F.Mask) (roundrect_rratio 0.25))
  (pad 45 smd roundrect (at 4.4375 -2.25) (size 0.875 0.3) (layers F.Cu F.Paste F.Mask) (roundrect_rratio 0.25))
  (pad 44 smd roundrect (at 4.4375 -1.75) (size 0.875 0.3) (layers F.Cu F.Paste F.Mask) (roundrect_rratio 0.25))
  (pad 43 smd roundrect (at 4.4375 -1.25) (size 0.875 0.3) (layers F.Cu F.Paste F.Mask) (roundrect_rratio 0.25))
  (pad 42 smd roundrect (at 4.4375 -0.75) (size 0.875 0.3) (layers F.Cu F.Paste F.Mask) (roundrect_rratio 0.25))
  (pad 41 smd roundrect (at 4.4375 -0.25) (size 0.875 0.3) (layers F.Cu F.Paste F.Mask) (roundrect_rratio 0.25))
  (pad 40 smd roundrect (at 4.4375 0.25) (size 0.875 0.3) (layers F.Cu F.Paste F.Mask) (roundrect_rratio 0.25))
  (pad 39 smd roundrect (at 4.4375 0.75) (size 0.875 0.3) (layers F.Cu F.Paste F.Mask) (roundrect_rratio 0.25))
  (pad 38 smd roundrect (at 4.4375 1.25) (size 0.875 0.3) (layers F.Cu F.Paste F.Mask) (roundrect_rratio 0.25))
  (pad 37 smd roundrect (at 4.4375 1.75) (size 0.875 0.3) (layers F.Cu F.Paste F.Mask) (roundrect_rratio 0.25))
  (pad 36 smd roundrect (at 4.4375 2.25) (size 0.875 0.3) (layers F.Cu F.Paste F.Mask) (roundrect_rratio 0.25))
  (pad 35 smd roundrect (at 4.4375 2.75) (size 0.875 0.3) (layers F.Cu F.Paste F.Mask) (roundrect_rratio 0.25))
  (pad 34 smd roundrect (at 4.4375 3.25) (size 0.875 0.3) (layers F.Cu F.Paste F.Mask) (roundrect_rratio 0.25))
  (pad 33 smd roundrect (at 4.4375 3.75) (size 0.875 0.3) (layers F.Cu F.Paste F.Mask) (roundrect_rratio 0.25))
  (pad 32 smd roundrect (at 3.75 4.4375) (size 0.3 0.875) (layers F.Cu F.Paste F.Mask) (roundrect_rratio 0.25))
  (pad 31 smd roundrect (at 3.25 4.4375) (size 0.3 0.875) (layers F.Cu F.Paste F.Mask) (roundrect_rratio 0.25))
  (pad 30 smd roundrect (at 2.75 4.4375) (size 0.3 0.875) (layers F.Cu F.Paste F.Mask) (roundrect_rratio 0.25))
  (pad 29 smd roundrect (at 2.25 4.4375) (size 0.3 0.875) (layers F.Cu F.Paste F.Mask) (roundrect_rratio 0.25))
  (pad 28 smd roundrect (at 1.75 4.4375) (size 0.3 0.875) (layers F.Cu F.Paste F.Mask) (roundrect_rratio 0.25))
  (pad 27 smd roundrect (at 1.25 4.4375) (size 0.3 0.875) (layers F.Cu F.Paste F.Mask) (roundrect_rratio 0.25))
  (pad 26 smd roundrect (at 0.75 4.4375) (size 0.3 0.875) (layers F.Cu F.Paste F.Mask) (roundrect_rratio 0.25))
  (pad 25 smd roundrect (at 0.25 4.4375) (size 0.3 0.875) (layers F.Cu F.Paste F.Mask) (roundrect_rratio 0.25))
  (pad 24 smd roundrect (at -0.25 4.4375) (size 0.3 0.875) (layers F.Cu F.Paste F.Mask) (roundrect_rratio 0.25))
  (pad 23 smd roundrect (at -0.75 4.4375) (size 0.3 0.875) (layers F.Cu F.Paste F.Mask) (roundrect_rratio 0.25))
  (pad 22 smd roundrect (at -1.25 4.4375) (size 0.3 0.875) (layers F.Cu F.Paste F.Mask) (roundrect_rratio 0.25))
  (pad 21 smd roundrect (at -1.75 4.4375) (size 0.3 0.875) (layers F.Cu F.Paste F.Mask) (roundrect_rratio 0.25))
  (pad 20 smd roundrect (at -2.25 4.4375) (size 0.3 0.875) (layers F.Cu F.Paste F.Mask) (roundrect_rratio 0.25))
  (pad 19 smd roundrect (at -2.75 4.4375) (size 0.3 0.875) (layers F.Cu F.Paste F.Mask) (roundrect_rratio 0.25))
  (pad 18 smd roundrect (at -3.25 4.4375) (size 0.3 0.875) (layers F.Cu F.Paste F.Mask) (roundrect_rratio 0.25))
  (pad 17 smd roundrect (at -3.75 4.4375) (size 0.3 0.875) (layers F.Cu F.Paste F.Mask) (roundrect_rratio 0.25))
  (pad 16 smd roundrect (at -4.4375 3.75) (size 0.875 0.3) (layers F.Cu F.Paste F.Mask) (roundrect_rratio 0.25))
  (pad 15 smd roundrect (at -4.4375 3.25) (size 0.875 0.3) (layers F.Cu F.Paste F.Mask) (roundrect_rratio 0.25))
  (pad 14 smd roundrect (at -4.4375 2.75) (size 0.875 0.3) (layers F.Cu F.Paste F.Mask) (roundrect_rratio 0.25))
  (pad 13 smd roundrect (at -4.4375 2.25) (size 0.875 0.3) (layers F.Cu F.Paste F.Mask) (roundrect_rratio 0.25))
  (pad 12 smd roundrect (at -4.4375 1.75) (size 0.875 0.3) (layers F.Cu F.Paste F.Mask) (roundrect_rratio 0.25))
  (pad 11 smd roundrect (at -4.4375 1.25) (size 0.875 0.3) (layers F.Cu F.Paste F.Mask) (roundrect_rratio 0.25))
  (pad 10 smd roundrect (at -4.4375 0.75) (size 0.875 0.3) (layers F.Cu F.Paste F.Mask) (roundrect_rratio 0.25))
  (pad 9 smd roundrect (at -4.4375 0.25) (size 0.875 0.3) (layers F.Cu F.Paste F.Mask) (roundrect_rratio 0.25))
  (pad 8 smd roundrect (at -4.4375 -0.25) (size 0.875 0.3) (layers F.Cu F.Paste F.Mask) (roundrect_rratio 0.25))
  (pad 7 smd roundrect (at -4.4375 -0.75) (size 0.875 0.3) (layers F.Cu F.Paste F.Mask) (roundrect_rratio 0.25))
  (pad 6 smd roundrect (at -4.4375 -1.25) (size 0.875 0.3) (layers F.Cu F.Paste F.Mask) (roundrect_rratio 0.25))
  (pad 5 smd roundrect (at -4.4375 -1.75) (size 0.875 0.3) (layers F.Cu F.Paste F.Mask) (roundrect_rratio 0.25))
  (pad 4 smd roundrect (at -4.4375 -2.25) (size 0.875 0.3) (layers F.Cu F.Paste F.Mask) (roundrect_rratio 0.25))
  (pad 3 smd roundrect (at -4.4375 -2.75) (size 0.875 0.3) (layers F.Cu F.Paste F.Mask) (roundrect_rratio 0.25))
  (pad 2 smd roundrect (at -4.4375 -3.25) (size 0.875 0.3) (layers F.Cu F.Paste F.Mask) (roundrect_rratio 0.25))
  (pad 1 smd roundrect (at -4.4375 -3.75) (size 0.875 0.3) (layers F.Cu F.Paste F.Mask) (roundrect_rratio 0.25))
  (model ${KISYS3DMOD}/Package_DFN_QFN.3dshapes/QFN-64-1EP_9x9mm_P0.5mm_EP5.45x5.45mm.wrl
    (at (xyz 0 0 0))
    (scale (xyz 1 1 1))
    (rotate (xyz 0 0 0))
  )
)
