(module QFN-48-1EP_8x8mm_P0.5mm_EP6.2x6.2mm_ThermalVias (layer F.Cu) (tedit 607A7CED)
  (descr "QFN, 48 Pin (https://www.ftdichip.com/Support/Documents/DataSheets/ICs/DS_FT232H.pdf#page=49), Alternate KiCad Library")
  (tags "QFN NoLead")
  (attr smd)
  (fp_text reference REF** (at 0 -5.588) (layer F.SilkS)
    (effects (font (size 1 1) (thickness 0.15)))
  )
  (fp_text value QFN-48-1EP_8x8mm_P0.5mm_EP6.2x6.2mm_ThermalVias (at 0 5.3) (layer F.Fab)
    (effects (font (size 1 1) (thickness 0.15)))
  )
  (fp_line (start -3.937 4.6355) (end 3.937 4.6355) (layer F.SilkS) (width 0.12))
  (fp_line (start 4.6355 3.556) (end 4.6355 -3.683) (layer F.SilkS) (width 0.12))
  (fp_line (start -4.6355 -3.6195) (end -4.6355 3.556) (layer F.SilkS) (width 0.12))
  (fp_line (start 3.937 -4.6355) (end -4.1275 -4.6355) (layer F.SilkS) (width 0.12))
  (fp_circle (center -4.5085 -4.5085) (end -4.445 -4.5085) (layer F.SilkS) (width 0.3))
  (fp_line (start -1.75 4.6355) (end -1.75 4.826) (layer F.SilkS) (width 0.12))
  (fp_line (start -4.6355 1.75) (end -4.953 1.75) (layer F.SilkS) (width 0.12))
  (fp_line (start -4.6355 -0.75) (end -4.826 -0.75) (layer F.SilkS) (width 0.12))
  (fp_line (start -1.25 -4.6355) (end -1.25 -4.826) (layer F.SilkS) (width 0.12))
  (fp_line (start 1.25 -4.6355) (end 1.25 -4.953) (layer F.SilkS) (width 0.12))
  (fp_line (start 4.6355 -2.25) (end 4.826 -2.25) (layer F.SilkS) (width 0.12))
  (fp_line (start 4.6355 0.25) (end 4.953 0.25) (layer F.SilkS) (width 0.12))
  (fp_line (start 4.6355 2.75) (end 4.826 2.75) (layer F.SilkS) (width 0.12))
  (fp_line (start 0.75 4.6355) (end 0.75 4.953) (layer F.SilkS) (width 0.12))
  (fp_line (start 4.6 -4.6) (end -4.6 -4.6) (layer F.CrtYd) (width 0.05))
  (fp_line (start 4.6 4.6) (end 4.6 -4.6) (layer F.CrtYd) (width 0.05))
  (fp_line (start -4.6 4.6) (end 4.6 4.6) (layer F.CrtYd) (width 0.05))
  (fp_line (start -4.6 -4.6) (end -4.6 4.6) (layer F.CrtYd) (width 0.05))
  (fp_line (start -4 -3) (end -3 -4) (layer F.Fab) (width 0.1))
  (fp_line (start -4 4) (end -4 -3) (layer F.Fab) (width 0.1))
  (fp_line (start 4 4) (end -4 4) (layer F.Fab) (width 0.1))
  (fp_line (start 4 -4) (end 4 4) (layer F.Fab) (width 0.1))
  (fp_line (start -3 -4) (end 4 -4) (layer F.Fab) (width 0.1))
  (fp_text user %R (at 0 0) (layer F.Fab)
    (effects (font (size 1 1) (thickness 0.15)))
  )
  (fp_text user 36 (at 4.445 -4.318 -90 unlocked) (layer F.SilkS)
    (effects (font (size 0.6 0.6) (thickness 0.12)))
  )
  (fp_text user 24 (at 4.445 4.2545 -90 unlocked) (layer F.SilkS)
    (effects (font (size 0.6 0.6) (thickness 0.12)))
  )
  (fp_text user 12 (at -4.5085 4.2545 -90 unlocked) (layer F.SilkS)
    (effects (font (size 0.6 0.6) (thickness 0.12)))
  )
  (fp_text user 1 (at -4.5085 -4.0005 -90 unlocked) (layer F.SilkS)
    (effects (font (size 0.6 0.6) (thickness 0.12)))
  )
  (pad "" smd roundrect (at 2.28 2.28) (size 0.9605 0.9605) (layers F.Paste) (roundrect_rratio 0.25))
  (pad "" smd roundrect (at 2.28 1.14) (size 0.9605 0.9605) (layers F.Paste) (roundrect_rratio 0.25))
  (pad "" smd roundrect (at 2.28 0) (size 0.9605 0.9605) (layers F.Paste) (roundrect_rratio 0.25))
  (pad "" smd roundrect (at 2.28 -1.14) (size 0.9605 0.9605) (layers F.Paste) (roundrect_rratio 0.25))
  (pad "" smd roundrect (at 2.28 -2.28) (size 0.9605 0.9605) (layers F.Paste) (roundrect_rratio 0.25))
  (pad "" smd roundrect (at 1.14 2.28) (size 0.9605 0.9605) (layers F.Paste) (roundrect_rratio 0.25))
  (pad "" smd roundrect (at 1.14 1.14) (size 0.9605 0.9605) (layers F.Paste) (roundrect_rratio 0.25))
  (pad "" smd roundrect (at 1.14 0) (size 0.9605 0.9605) (layers F.Paste) (roundrect_rratio 0.25))
  (pad "" smd roundrect (at 1.14 -1.14) (size 0.9605 0.9605) (layers F.Paste) (roundrect_rratio 0.25))
  (pad "" smd roundrect (at 1.14 -2.28) (size 0.9605 0.9605) (layers F.Paste) (roundrect_rratio 0.25))
  (pad "" smd roundrect (at 0 2.28) (size 0.9605 0.9605) (layers F.Paste) (roundrect_rratio 0.25))
  (pad "" smd roundrect (at 0 1.14) (size 0.9605 0.9605) (layers F.Paste) (roundrect_rratio 0.25))
  (pad "" smd roundrect (at 0 0) (size 0.9605 0.9605) (layers F.Paste) (roundrect_rratio 0.25))
  (pad "" smd roundrect (at 0 -1.14) (size 0.9605 0.9605) (layers F.Paste) (roundrect_rratio 0.25))
  (pad "" smd roundrect (at 0 -2.28) (size 0.9605 0.9605) (layers F.Paste) (roundrect_rratio 0.25))
  (pad "" smd roundrect (at -1.14 2.28) (size 0.9605 0.9605) (layers F.Paste) (roundrect_rratio 0.25))
  (pad "" smd roundrect (at -1.14 1.14) (size 0.9605 0.9605) (layers F.Paste) (roundrect_rratio 0.25))
  (pad "" smd roundrect (at -1.14 0) (size 0.9605 0.9605) (layers F.Paste) (roundrect_rratio 0.25))
  (pad "" smd roundrect (at -1.14 -1.14) (size 0.9605 0.9605) (layers F.Paste) (roundrect_rratio 0.25))
  (pad "" smd roundrect (at -1.14 -2.28) (size 0.9605 0.9605) (layers F.Paste) (roundrect_rratio 0.25))
  (pad "" smd roundrect (at -2.28 2.28) (size 0.9605 0.9605) (layers F.Paste) (roundrect_rratio 0.25))
  (pad "" smd roundrect (at -2.28 1.14) (size 0.9605 0.9605) (layers F.Paste) (roundrect_rratio 0.25))
  (pad "" smd roundrect (at -2.28 0) (size 0.9605 0.9605) (layers F.Paste) (roundrect_rratio 0.25))
  (pad "" smd roundrect (at -2.28 -1.14) (size 0.9605 0.9605) (layers F.Paste) (roundrect_rratio 0.25))
  (pad "" smd roundrect (at -2.28 -2.28) (size 0.9605 0.9605) (layers F.Paste) (roundrect_rratio 0.25))
  (pad 49 smd rect (at 0 0) (size 6.2 6.2) (layers B.Cu B.Mask))
  (pad 49 thru_hole circle (at 2.85 2.85) (size 0.5 0.5) (drill 0.2) (layers *.Cu))
  (pad 49 thru_hole circle (at 1.71 2.85) (size 0.5 0.5) (drill 0.2) (layers *.Cu))
  (pad 49 thru_hole circle (at 0.57 2.85) (size 0.5 0.5) (drill 0.2) (layers *.Cu))
  (pad 49 thru_hole circle (at -0.57 2.85) (size 0.5 0.5) (drill 0.2) (layers *.Cu))
  (pad 49 thru_hole circle (at -1.71 2.85) (size 0.5 0.5) (drill 0.2) (layers *.Cu))
  (pad 49 thru_hole circle (at -2.85 2.85) (size 0.5 0.5) (drill 0.2) (layers *.Cu))
  (pad 49 thru_hole circle (at 2.85 1.71) (size 0.5 0.5) (drill 0.2) (layers *.Cu))
  (pad 49 thru_hole circle (at 1.71 1.71) (size 0.5 0.5) (drill 0.2) (layers *.Cu))
  (pad 49 thru_hole circle (at 0.57 1.71) (size 0.5 0.5) (drill 0.2) (layers *.Cu))
  (pad 49 thru_hole circle (at -0.57 1.71) (size 0.5 0.5) (drill 0.2) (layers *.Cu))
  (pad 49 thru_hole circle (at -1.71 1.71) (size 0.5 0.5) (drill 0.2) (layers *.Cu))
  (pad 49 thru_hole circle (at -2.85 1.71) (size 0.5 0.5) (drill 0.2) (layers *.Cu))
  (pad 49 thru_hole circle (at 2.85 0.57) (size 0.5 0.5) (drill 0.2) (layers *.Cu))
  (pad 49 thru_hole circle (at 1.71 0.57) (size 0.5 0.5) (drill 0.2) (layers *.Cu))
  (pad 49 thru_hole circle (at 0.57 0.57) (size 0.5 0.5) (drill 0.2) (layers *.Cu))
  (pad 49 thru_hole circle (at -0.57 0.57) (size 0.5 0.5) (drill 0.2) (layers *.Cu))
  (pad 49 thru_hole circle (at -1.71 0.57) (size 0.5 0.5) (drill 0.2) (layers *.Cu))
  (pad 49 thru_hole circle (at -2.85 0.57) (size 0.5 0.5) (drill 0.2) (layers *.Cu))
  (pad 49 thru_hole circle (at 2.85 -0.57) (size 0.5 0.5) (drill 0.2) (layers *.Cu))
  (pad 49 thru_hole circle (at 1.71 -0.57) (size 0.5 0.5) (drill 0.2) (layers *.Cu))
  (pad 49 thru_hole circle (at 0.57 -0.57) (size 0.5 0.5) (drill 0.2) (layers *.Cu))
  (pad 49 thru_hole circle (at -0.57 -0.57) (size 0.5 0.5) (drill 0.2) (layers *.Cu))
  (pad 49 thru_hole circle (at -1.71 -0.57) (size 0.5 0.5) (drill 0.2) (layers *.Cu))
  (pad 49 thru_hole circle (at -2.85 -0.57) (size 0.5 0.5) (drill 0.2) (layers *.Cu))
  (pad 49 thru_hole circle (at 2.85 -1.71) (size 0.5 0.5) (drill 0.2) (layers *.Cu))
  (pad 49 thru_hole circle (at 1.71 -1.71) (size 0.5 0.5) (drill 0.2) (layers *.Cu))
  (pad 49 thru_hole circle (at 0.57 -1.71) (size 0.5 0.5) (drill 0.2) (layers *.Cu))
  (pad 49 thru_hole circle (at -0.57 -1.71) (size 0.5 0.5) (drill 0.2) (layers *.Cu))
  (pad 49 thru_hole circle (at -1.71 -1.71) (size 0.5 0.5) (drill 0.2) (layers *.Cu))
  (pad 49 thru_hole circle (at -2.85 -1.71) (size 0.5 0.5) (drill 0.2) (layers *.Cu))
  (pad 49 thru_hole circle (at 2.85 -2.85) (size 0.5 0.5) (drill 0.2) (layers *.Cu))
  (pad 49 thru_hole circle (at 1.71 -2.85) (size 0.5 0.5) (drill 0.2) (layers *.Cu))
  (pad 49 thru_hole circle (at 0.57 -2.85) (size 0.5 0.5) (drill 0.2) (layers *.Cu))
  (pad 49 thru_hole circle (at -0.57 -2.85) (size 0.5 0.5) (drill 0.2) (layers *.Cu))
  (pad 49 thru_hole circle (at -1.71 -2.85) (size 0.5 0.5) (drill 0.2) (layers *.Cu))
  (pad 49 thru_hole circle (at -2.85 -2.85) (size 0.5 0.5) (drill 0.2) (layers *.Cu))
  (pad 49 smd rect (at 0 0) (size 6.2 6.2) (layers F.Cu F.Mask))
  (pad 48 smd roundrect (at -2.75 -3.875) (size 0.25 0.95) (layers F.Cu F.Paste F.Mask) (roundrect_rratio 0.25))
  (pad 47 smd roundrect (at -2.25 -3.875) (size 0.25 0.95) (layers F.Cu F.Paste F.Mask) (roundrect_rratio 0.25))
  (pad 46 smd roundrect (at -1.75 -3.875) (size 0.25 0.95) (layers F.Cu F.Paste F.Mask) (roundrect_rratio 0.25))
  (pad 45 smd roundrect (at -1.25 -3.875) (size 0.25 0.95) (layers F.Cu F.Paste F.Mask) (roundrect_rratio 0.25))
  (pad 44 smd roundrect (at -0.75 -3.875) (size 0.25 0.95) (layers F.Cu F.Paste F.Mask) (roundrect_rratio 0.25))
  (pad 43 smd roundrect (at -0.25 -3.875) (size 0.25 0.95) (layers F.Cu F.Paste F.Mask) (roundrect_rratio 0.25))
  (pad 42 smd roundrect (at 0.25 -3.875) (size 0.25 0.95) (layers F.Cu F.Paste F.Mask) (roundrect_rratio 0.25))
  (pad 41 smd roundrect (at 0.75 -3.875) (size 0.25 0.95) (layers F.Cu F.Paste F.Mask) (roundrect_rratio 0.25))
  (pad 40 smd roundrect (at 1.25 -3.875) (size 0.25 0.95) (layers F.Cu F.Paste F.Mask) (roundrect_rratio 0.25))
  (pad 39 smd roundrect (at 1.75 -3.875) (size 0.25 0.95) (layers F.Cu F.Paste F.Mask) (roundrect_rratio 0.25))
  (pad 38 smd roundrect (at 2.25 -3.875) (size 0.25 0.95) (layers F.Cu F.Paste F.Mask) (roundrect_rratio 0.25))
  (pad 37 smd roundrect (at 2.75 -3.875) (size 0.25 0.95) (layers F.Cu F.Paste F.Mask) (roundrect_rratio 0.25))
  (pad 36 smd roundrect (at 3.875 -2.75) (size 0.95 0.25) (layers F.Cu F.Paste F.Mask) (roundrect_rratio 0.25))
  (pad 35 smd roundrect (at 3.875 -2.25) (size 0.95 0.25) (layers F.Cu F.Paste F.Mask) (roundrect_rratio 0.25))
  (pad 34 smd roundrect (at 3.875 -1.75) (size 0.95 0.25) (layers F.Cu F.Paste F.Mask) (roundrect_rratio 0.25))
  (pad 33 smd roundrect (at 3.875 -1.25) (size 0.95 0.25) (layers F.Cu F.Paste F.Mask) (roundrect_rratio 0.25))
  (pad 32 smd roundrect (at 3.875 -0.75) (size 0.95 0.25) (layers F.Cu F.Paste F.Mask) (roundrect_rratio 0.25))
  (pad 31 smd roundrect (at 3.875 -0.25) (size 0.95 0.25) (layers F.Cu F.Paste F.Mask) (roundrect_rratio 0.25))
  (pad 30 smd roundrect (at 3.875 0.25) (size 0.95 0.25) (layers F.Cu F.Paste F.Mask) (roundrect_rratio 0.25))
  (pad 29 smd roundrect (at 3.875 0.75) (size 0.95 0.25) (layers F.Cu F.Paste F.Mask) (roundrect_rratio 0.25))
  (pad 28 smd roundrect (at 3.875 1.25) (size 0.95 0.25) (layers F.Cu F.Paste F.Mask) (roundrect_rratio 0.25))
  (pad 27 smd roundrect (at 3.875 1.75) (size 0.95 0.25) (layers F.Cu F.Paste F.Mask) (roundrect_rratio 0.25))
  (pad 26 smd roundrect (at 3.875 2.25) (size 0.95 0.25) (layers F.Cu F.Paste F.Mask) (roundrect_rratio 0.25))
  (pad 25 smd roundrect (at 3.875 2.75) (size 0.95 0.25) (layers F.Cu F.Paste F.Mask) (roundrect_rratio 0.25))
  (pad 24 smd roundrect (at 2.75 3.875) (size 0.25 0.95) (layers F.Cu F.Paste F.Mask) (roundrect_rratio 0.25))
  (pad 23 smd roundrect (at 2.25 3.875) (size 0.25 0.95) (layers F.Cu F.Paste F.Mask) (roundrect_rratio 0.25))
  (pad 22 smd roundrect (at 1.75 3.875) (size 0.25 0.95) (layers F.Cu F.Paste F.Mask) (roundrect_rratio 0.25))
  (pad 21 smd roundrect (at 1.25 3.875) (size 0.25 0.95) (layers F.Cu F.Paste F.Mask) (roundrect_rratio 0.25))
  (pad 20 smd roundrect (at 0.75 3.875) (size 0.25 0.95) (layers F.Cu F.Paste F.Mask) (roundrect_rratio 0.25))
  (pad 19 smd roundrect (at 0.25 3.875) (size 0.25 0.95) (layers F.Cu F.Paste F.Mask) (roundrect_rratio 0.25))
  (pad 18 smd roundrect (at -0.25 3.875) (size 0.25 0.95) (layers F.Cu F.Paste F.Mask) (roundrect_rratio 0.25))
  (pad 17 smd roundrect (at -0.75 3.875) (size 0.25 0.95) (layers F.Cu F.Paste F.Mask) (roundrect_rratio 0.25))
  (pad 16 smd roundrect (at -1.25 3.875) (size 0.25 0.95) (layers F.Cu F.Paste F.Mask) (roundrect_rratio 0.25))
  (pad 15 smd roundrect (at -1.75 3.875) (size 0.25 0.95) (layers F.Cu F.Paste F.Mask) (roundrect_rratio 0.25))
  (pad 14 smd roundrect (at -2.25 3.875) (size 0.25 0.95) (layers F.Cu F.Paste F.Mask) (roundrect_rratio 0.25))
  (pad 13 smd roundrect (at -2.75 3.875) (size 0.25 0.95) (layers F.Cu F.Paste F.Mask) (roundrect_rratio 0.25))
  (pad 12 smd roundrect (at -3.875 2.75) (size 0.95 0.25) (layers F.Cu F.Paste F.Mask) (roundrect_rratio 0.25))
  (pad 11 smd roundrect (at -3.875 2.25) (size 0.95 0.25) (layers F.Cu F.Paste F.Mask) (roundrect_rratio 0.25))
  (pad 10 smd roundrect (at -3.875 1.75) (size 0.95 0.25) (layers F.Cu F.Paste F.Mask) (roundrect_rratio 0.25))
  (pad 9 smd roundrect (at -3.875 1.25) (size 0.95 0.25) (layers F.Cu F.Paste F.Mask) (roundrect_rratio 0.25))
  (pad 8 smd roundrect (at -3.875 0.75) (size 0.95 0.25) (layers F.Cu F.Paste F.Mask) (roundrect_rratio 0.25))
  (pad 7 smd roundrect (at -3.875 0.25) (size 0.95 0.25) (layers F.Cu F.Paste F.Mask) (roundrect_rratio 0.25))
  (pad 6 smd roundrect (at -3.875 -0.25) (size 0.95 0.25) (layers F.Cu F.Paste F.Mask) (roundrect_rratio 0.25))
  (pad 5 smd roundrect (at -3.875 -0.75) (size 0.95 0.25) (layers F.Cu F.Paste F.Mask) (roundrect_rratio 0.25))
  (pad 4 smd roundrect (at -3.875 -1.25) (size 0.95 0.25) (layers F.Cu F.Paste F.Mask) (roundrect_rratio 0.25))
  (pad 3 smd roundrect (at -3.875 -1.75) (size 0.95 0.25) (layers F.Cu F.Paste F.Mask) (roundrect_rratio 0.25))
  (pad 2 smd roundrect (at -3.875 -2.25) (size 0.95 0.25) (layers F.Cu F.Paste F.Mask) (roundrect_rratio 0.25))
  (pad 1 smd roundrect (at -3.875 -2.75) (size 0.95 0.25) (layers F.Cu F.Paste F.Mask) (roundrect_rratio 0.25))
  (model ${KISYS3DMOD}/Package_DFN_QFN.3dshapes/QFN-48-1EP_8x8mm_P0.5mm_EP6.2x6.2mm.wrl
    (at (xyz 0 0 0))
    (scale (xyz 1 1 1))
    (rotate (xyz 0 0 0))
  )
)
