(module QFN-56-1EP_8x8mm_P0.5mm_EP4.5x5.2mm (layer F.Cu) (tedit 607A7D8F)
  (descr "QFN, 56 Pin (http://www.ti.com/lit/an/scea032/scea032.pdf#page=4), Alternate KiCad Library")
  (tags "QFN NoLead")
  (attr smd)
  (fp_text reference REF** (at 0 -5.588) (layer F.SilkS)
    (effects (font (size 1 1) (thickness 0.15)))
  )
  (fp_text value QFN-56-1EP_8x8mm_P0.5mm_EP4.5x5.2mm (at 0 5.32) (layer F.Fab)
    (effects (font (size 1 1) (thickness 0.15)))
  )
  (fp_line (start -4.6355 -1.25) (end -4.826 -1.25) (layer F.SilkS) (width 0.12))
  (fp_line (start 3.937 -4.6355) (end -4.1275 -4.6355) (layer F.SilkS) (width 0.12))
  (fp_line (start -0.25 -4.6355) (end -0.25 -4.953) (layer F.SilkS) (width 0.12))
  (fp_line (start 2.25 -4.6355) (end 2.25 -4.826) (layer F.SilkS) (width 0.12))
  (fp_line (start 4.6355 0.25) (end 4.826 0.25) (layer F.SilkS) (width 0.12))
  (fp_line (start -0.75 4.953) (end -0.75 4.6355) (layer F.SilkS) (width 0.12))
  (fp_line (start -2.75 -4.6355) (end -2.75 -4.826) (layer F.SilkS) (width 0.12))
  (fp_line (start -4.6355 1.25) (end -4.953 1.25) (layer F.SilkS) (width 0.12))
  (fp_line (start -3.937 4.6355) (end 3.937 4.6355) (layer F.SilkS) (width 0.12))
  (fp_line (start 4.6355 3.556) (end 4.6355 -3.4925) (layer F.SilkS) (width 0.12))
  (fp_line (start 4.6355 2.75) (end 4.953 2.75) (layer F.SilkS) (width 0.12))
  (fp_line (start 4.6355 -2.25) (end 4.953 -2.25) (layer F.SilkS) (width 0.12))
  (fp_line (start -3.25 4.826) (end -3.25 4.6355) (layer F.SilkS) (width 0.12))
  (fp_line (start 1.75 4.826) (end 1.75 4.6355) (layer F.SilkS) (width 0.12))
  (fp_line (start -4.6355 -3.6195) (end -4.6355 3.556) (layer F.SilkS) (width 0.12))
  (fp_circle (center -4.5085 -4.5085) (end -4.445 -4.5085) (layer F.SilkS) (width 0.3))
  (fp_line (start 4.62 -4.62) (end -4.62 -4.62) (layer F.CrtYd) (width 0.05))
  (fp_line (start 4.62 4.62) (end 4.62 -4.62) (layer F.CrtYd) (width 0.05))
  (fp_line (start -4.62 4.62) (end 4.62 4.62) (layer F.CrtYd) (width 0.05))
  (fp_line (start -4.62 -4.62) (end -4.62 4.62) (layer F.CrtYd) (width 0.05))
  (fp_line (start -4 -3) (end -3 -4) (layer F.Fab) (width 0.1))
  (fp_line (start -4 4) (end -4 -3) (layer F.Fab) (width 0.1))
  (fp_line (start 4 4) (end -4 4) (layer F.Fab) (width 0.1))
  (fp_line (start 4 -4) (end 4 4) (layer F.Fab) (width 0.1))
  (fp_line (start -3 -4) (end 4 -4) (layer F.Fab) (width 0.1))
  (fp_text user %R (at 0 0) (layer F.Fab)
    (effects (font (size 1 1) (thickness 0.15)))
  )
  (fp_text user 42 (at 4.445 -4.318 -90 unlocked) (layer F.SilkS)
    (effects (font (size 0.6 0.6) (thickness 0.12)))
  )
  (fp_text user 14 (at -4.5085 4.2545 -90 unlocked) (layer F.SilkS)
    (effects (font (size 0.6 0.6) (thickness 0.12)))
  )
  (fp_text user 28 (at 4.445 4.2545 -90 unlocked) (layer F.SilkS)
    (effects (font (size 0.6 0.6) (thickness 0.12)))
  )
  (fp_text user 1 (at -4.5085 -4.0005 -90 unlocked) (layer F.SilkS)
    (effects (font (size 0.6 0.6) (thickness 0.12)))
  )
  (pad "" smd roundrect (at 1.68 1.95) (size 0.91 1.05) (layers F.Paste) (roundrect_rratio 0.25))
  (pad "" smd roundrect (at 1.68 0.65) (size 0.91 1.05) (layers F.Paste) (roundrect_rratio 0.25))
  (pad "" smd roundrect (at 1.68 -0.65) (size 0.91 1.05) (layers F.Paste) (roundrect_rratio 0.25))
  (pad "" smd roundrect (at 1.68 -1.95) (size 0.91 1.05) (layers F.Paste) (roundrect_rratio 0.25))
  (pad "" smd roundrect (at 0.56 1.95) (size 0.91 1.05) (layers F.Paste) (roundrect_rratio 0.25))
  (pad "" smd roundrect (at 0.56 0.65) (size 0.91 1.05) (layers F.Paste) (roundrect_rratio 0.25))
  (pad "" smd roundrect (at 0.56 -0.65) (size 0.91 1.05) (layers F.Paste) (roundrect_rratio 0.25))
  (pad "" smd roundrect (at 0.56 -1.95) (size 0.91 1.05) (layers F.Paste) (roundrect_rratio 0.25))
  (pad "" smd roundrect (at -0.56 1.95) (size 0.91 1.05) (layers F.Paste) (roundrect_rratio 0.25))
  (pad "" smd roundrect (at -0.56 0.65) (size 0.91 1.05) (layers F.Paste) (roundrect_rratio 0.25))
  (pad "" smd roundrect (at -0.56 -0.65) (size 0.91 1.05) (layers F.Paste) (roundrect_rratio 0.25))
  (pad "" smd roundrect (at -0.56 -1.95) (size 0.91 1.05) (layers F.Paste) (roundrect_rratio 0.25))
  (pad "" smd roundrect (at -1.68 1.95) (size 0.91 1.05) (layers F.Paste) (roundrect_rratio 0.25))
  (pad "" smd roundrect (at -1.68 0.65) (size 0.91 1.05) (layers F.Paste) (roundrect_rratio 0.25))
  (pad "" smd roundrect (at -1.68 -0.65) (size 0.91 1.05) (layers F.Paste) (roundrect_rratio 0.25))
  (pad "" smd roundrect (at -1.68 -1.95) (size 0.91 1.05) (layers F.Paste) (roundrect_rratio 0.25))
  (pad 57 smd rect (at 0 0) (size 4.5 5.2) (layers F.Cu F.Mask))
  (pad 56 smd roundrect (at -3.25 -3.9375) (size 0.25 0.875) (layers F.Cu F.Paste F.Mask) (roundrect_rratio 0.25))
  (pad 55 smd roundrect (at -2.75 -3.9375) (size 0.25 0.875) (layers F.Cu F.Paste F.Mask) (roundrect_rratio 0.25))
  (pad 54 smd roundrect (at -2.25 -3.9375) (size 0.25 0.875) (layers F.Cu F.Paste F.Mask) (roundrect_rratio 0.25))
  (pad 53 smd roundrect (at -1.75 -3.9375) (size 0.25 0.875) (layers F.Cu F.Paste F.Mask) (roundrect_rratio 0.25))
  (pad 52 smd roundrect (at -1.25 -3.9375) (size 0.25 0.875) (layers F.Cu F.Paste F.Mask) (roundrect_rratio 0.25))
  (pad 51 smd roundrect (at -0.75 -3.9375) (size 0.25 0.875) (layers F.Cu F.Paste F.Mask) (roundrect_rratio 0.25))
  (pad 50 smd roundrect (at -0.25 -3.9375) (size 0.25 0.875) (layers F.Cu F.Paste F.Mask) (roundrect_rratio 0.25))
  (pad 49 smd roundrect (at 0.25 -3.9375) (size 0.25 0.875) (layers F.Cu F.Paste F.Mask) (roundrect_rratio 0.25))
  (pad 48 smd roundrect (at 0.75 -3.9375) (size 0.25 0.875) (layers F.Cu F.Paste F.Mask) (roundrect_rratio 0.25))
  (pad 47 smd roundrect (at 1.25 -3.9375) (size 0.25 0.875) (layers F.Cu F.Paste F.Mask) (roundrect_rratio 0.25))
  (pad 46 smd roundrect (at 1.75 -3.9375) (size 0.25 0.875) (layers F.Cu F.Paste F.Mask) (roundrect_rratio 0.25))
  (pad 45 smd roundrect (at 2.25 -3.9375) (size 0.25 0.875) (layers F.Cu F.Paste F.Mask) (roundrect_rratio 0.25))
  (pad 44 smd roundrect (at 2.75 -3.9375) (size 0.25 0.875) (layers F.Cu F.Paste F.Mask) (roundrect_rratio 0.25))
  (pad 43 smd roundrect (at 3.25 -3.9375) (size 0.25 0.875) (layers F.Cu F.Paste F.Mask) (roundrect_rratio 0.25))
  (pad 42 smd roundrect (at 3.9375 -3.25) (size 0.875 0.25) (layers F.Cu F.Paste F.Mask) (roundrect_rratio 0.25))
  (pad 41 smd roundrect (at 3.9375 -2.75) (size 0.875 0.25) (layers F.Cu F.Paste F.Mask) (roundrect_rratio 0.25))
  (pad 40 smd roundrect (at 3.9375 -2.25) (size 0.875 0.25) (layers F.Cu F.Paste F.Mask) (roundrect_rratio 0.25))
  (pad 39 smd roundrect (at 3.9375 -1.75) (size 0.875 0.25) (layers F.Cu F.Paste F.Mask) (roundrect_rratio 0.25))
  (pad 38 smd roundrect (at 3.9375 -1.25) (size 0.875 0.25) (layers F.Cu F.Paste F.Mask) (roundrect_rratio 0.25))
  (pad 37 smd roundrect (at 3.9375 -0.75) (size 0.875 0.25) (layers F.Cu F.Paste F.Mask) (roundrect_rratio 0.25))
  (pad 36 smd roundrect (at 3.9375 -0.25) (size 0.875 0.25) (layers F.Cu F.Paste F.Mask) (roundrect_rratio 0.25))
  (pad 35 smd roundrect (at 3.9375 0.25) (size 0.875 0.25) (layers F.Cu F.Paste F.Mask) (roundrect_rratio 0.25))
  (pad 34 smd roundrect (at 3.9375 0.75) (size 0.875 0.25) (layers F.Cu F.Paste F.Mask) (roundrect_rratio 0.25))
  (pad 33 smd roundrect (at 3.9375 1.25) (size 0.875 0.25) (layers F.Cu F.Paste F.Mask) (roundrect_rratio 0.25))
  (pad 32 smd roundrect (at 3.9375 1.75) (size 0.875 0.25) (layers F.Cu F.Paste F.Mask) (roundrect_rratio 0.25))
  (pad 31 smd roundrect (at 3.9375 2.25) (size 0.875 0.25) (layers F.Cu F.Paste F.Mask) (roundrect_rratio 0.25))
  (pad 30 smd roundrect (at 3.9375 2.75) (size 0.875 0.25) (layers F.Cu F.Paste F.Mask) (roundrect_rratio 0.25))
  (pad 29 smd roundrect (at 3.9375 3.25) (size 0.875 0.25) (layers F.Cu F.Paste F.Mask) (roundrect_rratio 0.25))
  (pad 28 smd roundrect (at 3.25 3.9375) (size 0.25 0.875) (layers F.Cu F.Paste F.Mask) (roundrect_rratio 0.25))
  (pad 27 smd roundrect (at 2.75 3.9375) (size 0.25 0.875) (layers F.Cu F.Paste F.Mask) (roundrect_rratio 0.25))
  (pad 26 smd roundrect (at 2.25 3.9375) (size 0.25 0.875) (layers F.Cu F.Paste F.Mask) (roundrect_rratio 0.25))
  (pad 25 smd roundrect (at 1.75 3.9375) (size 0.25 0.875) (layers F.Cu F.Paste F.Mask) (roundrect_rratio 0.25))
  (pad 24 smd roundrect (at 1.25 3.9375) (size 0.25 0.875) (layers F.Cu F.Paste F.Mask) (roundrect_rratio 0.25))
  (pad 23 smd roundrect (at 0.75 3.9375) (size 0.25 0.875) (layers F.Cu F.Paste F.Mask) (roundrect_rratio 0.25))
  (pad 22 smd roundrect (at 0.25 3.9375) (size 0.25 0.875) (layers F.Cu F.Paste F.Mask) (roundrect_rratio 0.25))
  (pad 21 smd roundrect (at -0.25 3.9375) (size 0.25 0.875) (layers F.Cu F.Paste F.Mask) (roundrect_rratio 0.25))
  (pad 20 smd roundrect (at -0.75 3.9375) (size 0.25 0.875) (layers F.Cu F.Paste F.Mask) (roundrect_rratio 0.25))
  (pad 19 smd roundrect (at -1.25 3.9375) (size 0.25 0.875) (layers F.Cu F.Paste F.Mask) (roundrect_rratio 0.25))
  (pad 18 smd roundrect (at -1.75 3.9375) (size 0.25 0.875) (layers F.Cu F.Paste F.Mask) (roundrect_rratio 0.25))
  (pad 17 smd roundrect (at -2.25 3.9375) (size 0.25 0.875) (layers F.Cu F.Paste F.Mask) (roundrect_rratio 0.25))
  (pad 16 smd roundrect (at -2.75 3.9375) (size 0.25 0.875) (layers F.Cu F.Paste F.Mask) (roundrect_rratio 0.25))
  (pad 15 smd roundrect (at -3.25 3.9375) (size 0.25 0.875) (layers F.Cu F.Paste F.Mask) (roundrect_rratio 0.25))
  (pad 14 smd roundrect (at -3.9375 3.25) (size 0.875 0.25) (layers F.Cu F.Paste F.Mask) (roundrect_rratio 0.25))
  (pad 13 smd roundrect (at -3.9375 2.75) (size 0.875 0.25) (layers F.Cu F.Paste F.Mask) (roundrect_rratio 0.25))
  (pad 12 smd roundrect (at -3.9375 2.25) (size 0.875 0.25) (layers F.Cu F.Paste F.Mask) (roundrect_rratio 0.25))
  (pad 11 smd roundrect (at -3.9375 1.75) (size 0.875 0.25) (layers F.Cu F.Paste F.Mask) (roundrect_rratio 0.25))
  (pad 10 smd roundrect (at -3.9375 1.25) (size 0.875 0.25) (layers F.Cu F.Paste F.Mask) (roundrect_rratio 0.25))
  (pad 9 smd roundrect (at -3.9375 0.75) (size 0.875 0.25) (layers F.Cu F.Paste F.Mask) (roundrect_rratio 0.25))
  (pad 8 smd roundrect (at -3.9375 0.25) (size 0.875 0.25) (layers F.Cu F.Paste F.Mask) (roundrect_rratio 0.25))
  (pad 7 smd roundrect (at -3.9375 -0.25) (size 0.875 0.25) (layers F.Cu F.Paste F.Mask) (roundrect_rratio 0.25))
  (pad 6 smd roundrect (at -3.9375 -0.75) (size 0.875 0.25) (layers F.Cu F.Paste F.Mask) (roundrect_rratio 0.25))
  (pad 5 smd roundrect (at -3.9375 -1.25) (size 0.875 0.25) (layers F.Cu F.Paste F.Mask) (roundrect_rratio 0.25))
  (pad 4 smd roundrect (at -3.9375 -1.75) (size 0.875 0.25) (layers F.Cu F.Paste F.Mask) (roundrect_rratio 0.25))
  (pad 3 smd roundrect (at -3.9375 -2.25) (size 0.875 0.25) (layers F.Cu F.Paste F.Mask) (roundrect_rratio 0.25))
  (pad 2 smd roundrect (at -3.9375 -2.75) (size 0.875 0.25) (layers F.Cu F.Paste F.Mask) (roundrect_rratio 0.25))
  (pad 1 smd roundrect (at -3.9375 -3.25) (size 0.875 0.25) (layers F.Cu F.Paste F.Mask) (roundrect_rratio 0.25))
  (model ${KISYS3DMOD}/Package_DFN_QFN.3dshapes/QFN-56-1EP_8x8mm_P0.5mm_EP4.5x5.2mm.wrl
    (at (xyz 0 0 0))
    (scale (xyz 1 1 1))
    (rotate (xyz 0 0 0))
  )
)
