(module QFN-24-1EP_5x5mm_P0.65mm_EP3.6x3.6mm_ThermalVias (layer F.Cu) (tedit 607A78AC)
  (descr "QFN, 24 Pin (https://www.nxp.com/docs/en/package-information/98ASA00734D.pdf), Alternate KiCad Library")
  (tags "QFN NoLead")
  (attr smd)
  (fp_text reference REF** (at 0 -3.8) (layer F.SilkS)
    (effects (font (size 1 1) (thickness 0.15)))
  )
  (fp_text value QFN-24-1EP_5x5mm_P0.65mm_EP3.6x3.6mm_ThermalVias (at 0 3.8) (layer F.Fab)
    (effects (font (size 1 1) (thickness 0.15)))
  )
  (fp_line (start 3.1115 2.0955) (end 3.1115 -2.0955) (layer F.SilkS) (width 0.12))
  (fp_line (start 2.413 -3.1115) (end -2.6035 -3.1115) (layer F.SilkS) (width 0.12))
  (fp_line (start -3.1115 -2.0955) (end -3.1115 2.6035) (layer F.SilkS) (width 0.12))
  (fp_circle (center -2.9845 -2.9845) (end -2.921 -2.9845) (layer F.SilkS) (width 0.3))
  (fp_line (start -2.413 3.1115) (end 2.413 3.1115) (layer F.SilkS) (width 0.12))
  (fp_line (start 3.1 -3.1) (end -3.1 -3.1) (layer F.CrtYd) (width 0.05))
  (fp_line (start 3.1 3.1) (end 3.1 -3.1) (layer F.CrtYd) (width 0.05))
  (fp_line (start -3.1 3.1) (end 3.1 3.1) (layer F.CrtYd) (width 0.05))
  (fp_line (start -3.1 -3.1) (end -3.1 3.1) (layer F.CrtYd) (width 0.05))
  (fp_line (start -2.5 -1.5) (end -1.5 -2.5) (layer F.Fab) (width 0.1))
  (fp_line (start -2.5 2.5) (end -2.5 -1.5) (layer F.Fab) (width 0.1))
  (fp_line (start 2.5 2.5) (end -2.5 2.5) (layer F.Fab) (width 0.1))
  (fp_line (start 2.5 -2.5) (end 2.5 2.5) (layer F.Fab) (width 0.1))
  (fp_line (start -1.5 -2.5) (end 2.5 -2.5) (layer F.Fab) (width 0.1))
  (fp_text user %R (at 0 0) (layer F.Fab)
    (effects (font (size 1 1) (thickness 0.15)))
  )
  (fp_text user 1 (at -2.9845 -2.4765 -90 unlocked) (layer F.SilkS)
    (effects (font (size 0.6 0.6) (thickness 0.12)))
  )
  (fp_text user 6 (at -2.9845 3.048 -90 unlocked) (layer F.SilkS)
    (effects (font (size 0.6 0.6) (thickness 0.12)))
  )
  (fp_text user 18 (at 2.921 -2.794 -90 unlocked) (layer F.SilkS)
    (effects (font (size 0.6 0.6) (thickness 0.12)))
  )
  (fp_text user 12 (at 2.921 2.794 -90 unlocked) (layer F.SilkS)
    (effects (font (size 0.6 0.6) (thickness 0.12)))
  )
  (pad "" smd custom (at 1.5375 1.5375) (size 0.295204 0.295204) (layers F.Paste)
    (options (clearance outline) (anchor circle))
    (primitives
      (gr_poly (pts
         (xy -0.105817 0.013308) (xy 0.013308 -0.105817) (xy 0.105817 -0.105817) (xy 0.105817 0.105817) (xy -0.105817 0.105817)
) (width 0.211634))
    ))
  (pad "" smd custom (at 1.5375 -1.5375) (size 0.295204 0.295204) (layers F.Paste)
    (options (clearance outline) (anchor circle))
    (primitives
      (gr_poly (pts
         (xy -0.105817 -0.105817) (xy 0.105817 -0.105817) (xy 0.105817 0.105817) (xy 0.013308 0.105817) (xy -0.105817 -0.013308)
) (width 0.211634))
    ))
  (pad "" smd custom (at -1.5375 1.5375) (size 0.295204 0.295204) (layers F.Paste)
    (options (clearance outline) (anchor circle))
    (primitives
      (gr_poly (pts
         (xy -0.105817 -0.105817) (xy -0.013308 -0.105817) (xy 0.105817 0.013308) (xy 0.105817 0.105817) (xy -0.105817 0.105817)
) (width 0.211634))
    ))
  (pad "" smd custom (at -1.5375 -1.5375) (size 0.295204 0.295204) (layers F.Paste)
    (options (clearance outline) (anchor circle))
    (primitives
      (gr_poly (pts
         (xy -0.105817 -0.105817) (xy 0.105817 -0.105817) (xy 0.105817 -0.013308) (xy -0.013308 0.105817) (xy -0.105817 0.105817)
) (width 0.211634))
    ))
  (pad "" smd custom (at 0.85 1.5375) (size 0.317469 0.317469) (layers F.Paste)
    (options (clearance outline) (anchor circle))
    (primitives
      (gr_poly (pts
         (xy -0.236847 -0.018188) (xy -0.149199 -0.105835) (xy 0.149199 -0.105835) (xy 0.236847 -0.018188) (xy 0.236847 0.105835)
         (xy -0.236847 0.105835)) (width 0.211599))
    ))
  (pad "" smd custom (at 0 1.5375) (size 0.317469 0.317469) (layers F.Paste)
    (options (clearance outline) (anchor circle))
    (primitives
      (gr_poly (pts
         (xy -0.236847 -0.018188) (xy -0.149199 -0.105835) (xy 0.149199 -0.105835) (xy 0.236847 -0.018188) (xy 0.236847 0.105835)
         (xy -0.236847 0.105835)) (width 0.211599))
    ))
  (pad "" smd custom (at -0.85 1.5375) (size 0.317469 0.317469) (layers F.Paste)
    (options (clearance outline) (anchor circle))
    (primitives
      (gr_poly (pts
         (xy -0.236847 -0.018188) (xy -0.149199 -0.105835) (xy 0.149199 -0.105835) (xy 0.236847 -0.018188) (xy 0.236847 0.105835)
         (xy -0.236847 0.105835)) (width 0.211599))
    ))
  (pad "" smd custom (at 0.85 -1.5375) (size 0.317469 0.317469) (layers F.Paste)
    (options (clearance outline) (anchor circle))
    (primitives
      (gr_poly (pts
         (xy -0.236847 -0.105835) (xy 0.236847 -0.105835) (xy 0.236847 0.018188) (xy 0.149199 0.105835) (xy -0.149199 0.105835)
         (xy -0.236847 0.018188)) (width 0.211599))
    ))
  (pad "" smd custom (at 0 -1.5375) (size 0.317469 0.317469) (layers F.Paste)
    (options (clearance outline) (anchor circle))
    (primitives
      (gr_poly (pts
         (xy -0.236847 -0.105835) (xy 0.236847 -0.105835) (xy 0.236847 0.018188) (xy 0.149199 0.105835) (xy -0.149199 0.105835)
         (xy -0.236847 0.018188)) (width 0.211599))
    ))
  (pad "" smd custom (at -0.85 -1.5375) (size 0.317469 0.317469) (layers F.Paste)
    (options (clearance outline) (anchor circle))
    (primitives
      (gr_poly (pts
         (xy -0.236847 -0.105835) (xy 0.236847 -0.105835) (xy 0.236847 0.018188) (xy 0.149199 0.105835) (xy -0.149199 0.105835)
         (xy -0.236847 0.018188)) (width 0.211599))
    ))
  (pad "" smd custom (at 1.5375 0.85) (size 0.317469 0.317469) (layers F.Paste)
    (options (clearance outline) (anchor circle))
    (primitives
      (gr_poly (pts
         (xy -0.105835 -0.149199) (xy -0.018188 -0.236847) (xy 0.105835 -0.236847) (xy 0.105835 0.236847) (xy -0.018188 0.236847)
         (xy -0.105835 0.149199)) (width 0.211599))
    ))
  (pad "" smd custom (at 1.5375 0) (size 0.317469 0.317469) (layers F.Paste)
    (options (clearance outline) (anchor circle))
    (primitives
      (gr_poly (pts
         (xy -0.105835 -0.149199) (xy -0.018188 -0.236847) (xy 0.105835 -0.236847) (xy 0.105835 0.236847) (xy -0.018188 0.236847)
         (xy -0.105835 0.149199)) (width 0.211599))
    ))
  (pad "" smd custom (at 1.5375 -0.85) (size 0.317469 0.317469) (layers F.Paste)
    (options (clearance outline) (anchor circle))
    (primitives
      (gr_poly (pts
         (xy -0.105835 -0.149199) (xy -0.018188 -0.236847) (xy 0.105835 -0.236847) (xy 0.105835 0.236847) (xy -0.018188 0.236847)
         (xy -0.105835 0.149199)) (width 0.211599))
    ))
  (pad "" smd custom (at -1.5375 0.85) (size 0.317469 0.317469) (layers F.Paste)
    (options (clearance outline) (anchor circle))
    (primitives
      (gr_poly (pts
         (xy -0.105835 -0.236847) (xy 0.018188 -0.236847) (xy 0.105835 -0.149199) (xy 0.105835 0.149199) (xy 0.018188 0.236847)
         (xy -0.105835 0.236847)) (width 0.211599))
    ))
  (pad "" smd custom (at -1.5375 0) (size 0.317469 0.317469) (layers F.Paste)
    (options (clearance outline) (anchor circle))
    (primitives
      (gr_poly (pts
         (xy -0.105835 -0.236847) (xy 0.018188 -0.236847) (xy 0.105835 -0.149199) (xy 0.105835 0.149199) (xy 0.018188 0.236847)
         (xy -0.105835 0.236847)) (width 0.211599))
    ))
  (pad "" smd custom (at -1.5375 -0.85) (size 0.317469 0.317469) (layers F.Paste)
    (options (clearance outline) (anchor circle))
    (primitives
      (gr_poly (pts
         (xy -0.105835 -0.236847) (xy 0.018188 -0.236847) (xy 0.105835 -0.149199) (xy 0.105835 0.149199) (xy 0.018188 0.236847)
         (xy -0.105835 0.236847)) (width 0.211599))
    ))
  (pad "" smd custom (at 0.85 0.85) (size 0.601758 0.601758) (layers F.Paste)
    (options (clearance outline) (anchor circle))
    (primitives
      (gr_poly (pts
         (xy -0.259112 -0.189911) (xy -0.189911 -0.259112) (xy 0.189911 -0.259112) (xy 0.259112 -0.189911) (xy 0.259112 0.189911)
         (xy 0.189911 0.259112) (xy -0.189911 0.259112) (xy -0.259112 0.189911)) (width 0.167068))
    ))
  (pad "" smd custom (at 0.85 0) (size 0.601758 0.601758) (layers F.Paste)
    (options (clearance outline) (anchor circle))
    (primitives
      (gr_poly (pts
         (xy -0.259112 -0.189911) (xy -0.189911 -0.259112) (xy 0.189911 -0.259112) (xy 0.259112 -0.189911) (xy 0.259112 0.189911)
         (xy 0.189911 0.259112) (xy -0.189911 0.259112) (xy -0.259112 0.189911)) (width 0.167068))
    ))
  (pad "" smd custom (at 0.85 -0.85) (size 0.601758 0.601758) (layers F.Paste)
    (options (clearance outline) (anchor circle))
    (primitives
      (gr_poly (pts
         (xy -0.259112 -0.189911) (xy -0.189911 -0.259112) (xy 0.189911 -0.259112) (xy 0.259112 -0.189911) (xy 0.259112 0.189911)
         (xy 0.189911 0.259112) (xy -0.189911 0.259112) (xy -0.259112 0.189911)) (width 0.167068))
    ))
  (pad "" smd custom (at 0 0.85) (size 0.601758 0.601758) (layers F.Paste)
    (options (clearance outline) (anchor circle))
    (primitives
      (gr_poly (pts
         (xy -0.259112 -0.189911) (xy -0.189911 -0.259112) (xy 0.189911 -0.259112) (xy 0.259112 -0.189911) (xy 0.259112 0.189911)
         (xy 0.189911 0.259112) (xy -0.189911 0.259112) (xy -0.259112 0.189911)) (width 0.167068))
    ))
  (pad "" smd custom (at 0 0) (size 0.601758 0.601758) (layers F.Paste)
    (options (clearance outline) (anchor circle))
    (primitives
      (gr_poly (pts
         (xy -0.259112 -0.189911) (xy -0.189911 -0.259112) (xy 0.189911 -0.259112) (xy 0.259112 -0.189911) (xy 0.259112 0.189911)
         (xy 0.189911 0.259112) (xy -0.189911 0.259112) (xy -0.259112 0.189911)) (width 0.167068))
    ))
  (pad "" smd custom (at 0 -0.85) (size 0.601758 0.601758) (layers F.Paste)
    (options (clearance outline) (anchor circle))
    (primitives
      (gr_poly (pts
         (xy -0.259112 -0.189911) (xy -0.189911 -0.259112) (xy 0.189911 -0.259112) (xy 0.259112 -0.189911) (xy 0.259112 0.189911)
         (xy 0.189911 0.259112) (xy -0.189911 0.259112) (xy -0.259112 0.189911)) (width 0.167068))
    ))
  (pad "" smd custom (at -0.85 0.85) (size 0.601758 0.601758) (layers F.Paste)
    (options (clearance outline) (anchor circle))
    (primitives
      (gr_poly (pts
         (xy -0.259112 -0.189911) (xy -0.189911 -0.259112) (xy 0.189911 -0.259112) (xy 0.259112 -0.189911) (xy 0.259112 0.189911)
         (xy 0.189911 0.259112) (xy -0.189911 0.259112) (xy -0.259112 0.189911)) (width 0.167068))
    ))
  (pad "" smd custom (at -0.85 0) (size 0.601758 0.601758) (layers F.Paste)
    (options (clearance outline) (anchor circle))
    (primitives
      (gr_poly (pts
         (xy -0.259112 -0.189911) (xy -0.189911 -0.259112) (xy 0.189911 -0.259112) (xy 0.259112 -0.189911) (xy 0.259112 0.189911)
         (xy 0.189911 0.259112) (xy -0.189911 0.259112) (xy -0.259112 0.189911)) (width 0.167068))
    ))
  (pad "" smd custom (at -0.85 -0.85) (size 0.601758 0.601758) (layers F.Paste)
    (options (clearance outline) (anchor circle))
    (primitives
      (gr_poly (pts
         (xy -0.259112 -0.189911) (xy -0.189911 -0.259112) (xy 0.189911 -0.259112) (xy 0.259112 -0.189911) (xy 0.259112 0.189911)
         (xy 0.189911 0.259112) (xy -0.189911 0.259112) (xy -0.259112 0.189911)) (width 0.167068))
    ))
  (pad 25 smd rect (at 0 0) (size 3.05 3.05) (layers B.Cu B.Mask))
  (pad 25 thru_hole circle (at 1.275 1.275) (size 0.5 0.5) (drill 0.2) (layers *.Cu))
  (pad 25 thru_hole circle (at 0.425 1.275) (size 0.5 0.5) (drill 0.2) (layers *.Cu))
  (pad 25 thru_hole circle (at -0.425 1.275) (size 0.5 0.5) (drill 0.2) (layers *.Cu))
  (pad 25 thru_hole circle (at -1.275 1.275) (size 0.5 0.5) (drill 0.2) (layers *.Cu))
  (pad 25 thru_hole circle (at 1.275 0.425) (size 0.5 0.5) (drill 0.2) (layers *.Cu))
  (pad 25 thru_hole circle (at 0.425 0.425) (size 0.5 0.5) (drill 0.2) (layers *.Cu))
  (pad 25 thru_hole circle (at -0.425 0.425) (size 0.5 0.5) (drill 0.2) (layers *.Cu))
  (pad 25 thru_hole circle (at -1.275 0.425) (size 0.5 0.5) (drill 0.2) (layers *.Cu))
  (pad 25 thru_hole circle (at 1.275 -0.425) (size 0.5 0.5) (drill 0.2) (layers *.Cu))
  (pad 25 thru_hole circle (at 0.425 -0.425) (size 0.5 0.5) (drill 0.2) (layers *.Cu))
  (pad 25 thru_hole circle (at -0.425 -0.425) (size 0.5 0.5) (drill 0.2) (layers *.Cu))
  (pad 25 thru_hole circle (at -1.275 -0.425) (size 0.5 0.5) (drill 0.2) (layers *.Cu))
  (pad 25 thru_hole circle (at 1.275 -1.275) (size 0.5 0.5) (drill 0.2) (layers *.Cu))
  (pad 25 thru_hole circle (at 0.425 -1.275) (size 0.5 0.5) (drill 0.2) (layers *.Cu))
  (pad 25 thru_hole circle (at -0.425 -1.275) (size 0.5 0.5) (drill 0.2) (layers *.Cu))
  (pad 25 thru_hole circle (at -1.275 -1.275) (size 0.5 0.5) (drill 0.2) (layers *.Cu))
  (pad 25 smd rect (at 0 0) (size 3.6 3.6) (layers F.Cu F.Mask))
  (pad 24 smd roundrect (at -1.625 -2.4375) (size 0.25 0.825) (layers F.Cu F.Paste F.Mask) (roundrect_rratio 0.25))
  (pad 23 smd roundrect (at -0.975 -2.4375) (size 0.25 0.825) (layers F.Cu F.Paste F.Mask) (roundrect_rratio 0.25))
  (pad 22 smd roundrect (at -0.325 -2.4375) (size 0.25 0.825) (layers F.Cu F.Paste F.Mask) (roundrect_rratio 0.25))
  (pad 21 smd roundrect (at 0.325 -2.4375) (size 0.25 0.825) (layers F.Cu F.Paste F.Mask) (roundrect_rratio 0.25))
  (pad 20 smd roundrect (at 0.975 -2.4375) (size 0.25 0.825) (layers F.Cu F.Paste F.Mask) (roundrect_rratio 0.25))
  (pad 19 smd roundrect (at 1.625 -2.4375) (size 0.25 0.825) (layers F.Cu F.Paste F.Mask) (roundrect_rratio 0.25))
  (pad 18 smd roundrect (at 2.4375 -1.625) (size 0.825 0.25) (layers F.Cu F.Paste F.Mask) (roundrect_rratio 0.25))
  (pad 17 smd roundrect (at 2.4375 -0.975) (size 0.825 0.25) (layers F.Cu F.Paste F.Mask) (roundrect_rratio 0.25))
  (pad 16 smd roundrect (at 2.4375 -0.325) (size 0.825 0.25) (layers F.Cu F.Paste F.Mask) (roundrect_rratio 0.25))
  (pad 15 smd roundrect (at 2.4375 0.325) (size 0.825 0.25) (layers F.Cu F.Paste F.Mask) (roundrect_rratio 0.25))
  (pad 14 smd roundrect (at 2.4375 0.975) (size 0.825 0.25) (layers F.Cu F.Paste F.Mask) (roundrect_rratio 0.25))
  (pad 13 smd roundrect (at 2.4375 1.625) (size 0.825 0.25) (layers F.Cu F.Paste F.Mask) (roundrect_rratio 0.25))
  (pad 12 smd roundrect (at 1.625 2.4375) (size 0.25 0.825) (layers F.Cu F.Paste F.Mask) (roundrect_rratio 0.25))
  (pad 11 smd roundrect (at 0.975 2.4375) (size 0.25 0.825) (layers F.Cu F.Paste F.Mask) (roundrect_rratio 0.25))
  (pad 10 smd roundrect (at 0.325 2.4375) (size 0.25 0.825) (layers F.Cu F.Paste F.Mask) (roundrect_rratio 0.25))
  (pad 9 smd roundrect (at -0.325 2.4375) (size 0.25 0.825) (layers F.Cu F.Paste F.Mask) (roundrect_rratio 0.25))
  (pad 8 smd roundrect (at -0.975 2.4375) (size 0.25 0.825) (layers F.Cu F.Paste F.Mask) (roundrect_rratio 0.25))
  (pad 7 smd roundrect (at -1.625 2.4375) (size 0.25 0.825) (layers F.Cu F.Paste F.Mask) (roundrect_rratio 0.25))
  (pad 6 smd roundrect (at -2.4375 1.625) (size 0.825 0.25) (layers F.Cu F.Paste F.Mask) (roundrect_rratio 0.25))
  (pad 5 smd roundrect (at -2.4375 0.975) (size 0.825 0.25) (layers F.Cu F.Paste F.Mask) (roundrect_rratio 0.25))
  (pad 4 smd roundrect (at -2.4375 0.325) (size 0.825 0.25) (layers F.Cu F.Paste F.Mask) (roundrect_rratio 0.25))
  (pad 3 smd roundrect (at -2.4375 -0.325) (size 0.825 0.25) (layers F.Cu F.Paste F.Mask) (roundrect_rratio 0.25))
  (pad 2 smd roundrect (at -2.4375 -0.975) (size 0.825 0.25) (layers F.Cu F.Paste F.Mask) (roundrect_rratio 0.25))
  (pad 1 smd roundrect (at -2.4375 -1.625) (size 0.825 0.25) (layers F.Cu F.Paste F.Mask) (roundrect_rratio 0.25))
  (model ${KISYS3DMOD}/Package_DFN_QFN.3dshapes/QFN-24-1EP_5x5mm_P0.65mm_EP3.6x3.6mm.wrl
    (at (xyz 0 0 0))
    (scale (xyz 1 1 1))
    (rotate (xyz 0 0 0))
  )
)
