(module QFN-24-1EP_3x4mm_P0.4mm_EP1.65x2.65mm_ThermalVias (layer F.Cu) (tedit 607A780D)
  (descr "QFN, 24 Pin (http://www.analog.com/media/en/package-pcb-resources/package/pkg_pdf/ltc-legacy-qfn/QFN_20_05-08-1742.pdf), Alternate KiCad Library")
  (tags "QFN NoLead")
  (attr smd)
  (fp_text reference REF** (at 0 -3.32) (layer F.SilkS)
    (effects (font (size 1 1) (thickness 0.15)))
  )
  (fp_text value QFN-24-1EP_3x4mm_P0.4mm_EP1.65x2.65mm_ThermalVias (at 0 3.32) (layer F.Fab)
    (effects (font (size 1 1) (thickness 0.15)))
  )
  (fp_line (start -2.0955 -1.5875) (end -2.0955 2.2225) (layer F.SilkS) (width 0.12))
  (fp_line (start 1.397 -2.6035) (end -1.5875 -2.6035) (layer F.SilkS) (width 0.12))
  (fp_line (start 2.0955 1.5875) (end 2.0955 -1.5875) (layer F.SilkS) (width 0.12))
  (fp_line (start -1.397 2.6035) (end 1.397 2.6035) (layer F.SilkS) (width 0.12))
  (fp_circle (center -1.9685 -2.4765) (end -1.905 -2.4765) (layer F.SilkS) (width 0.3))
  (fp_line (start 2.12 -2.62) (end -2.12 -2.62) (layer F.CrtYd) (width 0.05))
  (fp_line (start 2.12 2.62) (end 2.12 -2.62) (layer F.CrtYd) (width 0.05))
  (fp_line (start -2.12 2.62) (end 2.12 2.62) (layer F.CrtYd) (width 0.05))
  (fp_line (start -2.12 -2.62) (end -2.12 2.62) (layer F.CrtYd) (width 0.05))
  (fp_line (start -1.5 -1.25) (end -0.75 -2) (layer F.Fab) (width 0.1))
  (fp_line (start -1.5 2) (end -1.5 -1.25) (layer F.Fab) (width 0.1))
  (fp_line (start 1.5 2) (end -1.5 2) (layer F.Fab) (width 0.1))
  (fp_line (start 1.5 -2) (end 1.5 2) (layer F.Fab) (width 0.1))
  (fp_line (start -0.75 -2) (end 1.5 -2) (layer F.Fab) (width 0.1))
  (fp_text user %R (at 0 0) (layer F.Fab)
    (effects (font (size 0.75 0.75) (thickness 0.11)))
  )
  (fp_text user 1 (at -1.9685 -1.9685 -90 unlocked) (layer F.SilkS)
    (effects (font (size 0.6 0.6) (thickness 0.12)))
  )
  (fp_text user 12 (at 1.905 2.286 -90 unlocked) (layer F.SilkS)
    (effects (font (size 0.6 0.6) (thickness 0.12)))
  )
  (fp_text user 19 (at 1.905 -2.286 -90 unlocked) (layer F.SilkS)
    (effects (font (size 0.6 0.6) (thickness 0.12)))
  )
  (fp_text user 7 (at -1.9685 2.4765 -90 unlocked) (layer F.SilkS)
    (effects (font (size 0.6 0.6) (thickness 0.12)))
  )
  (pad "" smd roundrect (at 0.41 0.88) (size 0.71 0.76) (layers F.Paste) (roundrect_rratio 0.25))
  (pad "" smd roundrect (at 0.41 0) (size 0.71 0.76) (layers F.Paste) (roundrect_rratio 0.25))
  (pad "" smd roundrect (at 0.41 -0.88) (size 0.71 0.76) (layers F.Paste) (roundrect_rratio 0.25))
  (pad "" smd roundrect (at -0.41 0.88) (size 0.71 0.76) (layers F.Paste) (roundrect_rratio 0.25))
  (pad "" smd roundrect (at -0.41 0) (size 0.71 0.76) (layers F.Paste) (roundrect_rratio 0.25))
  (pad "" smd roundrect (at -0.41 -0.88) (size 0.71 0.76) (layers F.Paste) (roundrect_rratio 0.25))
  (pad 25 smd rect (at 0 0) (size 1.65 2.65) (layers B.Cu B.Mask))
  (pad 25 thru_hole circle (at 0.575 1.075) (size 0.5 0.5) (drill 0.2) (layers *.Cu))
  (pad 25 thru_hole circle (at -0.575 1.075) (size 0.5 0.5) (drill 0.2) (layers *.Cu))
  (pad 25 thru_hole circle (at 0.575 0) (size 0.5 0.5) (drill 0.2) (layers *.Cu))
  (pad 25 thru_hole circle (at -0.575 0) (size 0.5 0.5) (drill 0.2) (layers *.Cu))
  (pad 25 thru_hole circle (at 0.575 -1.075) (size 0.5 0.5) (drill 0.2) (layers *.Cu))
  (pad 25 thru_hole circle (at -0.575 -1.075) (size 0.5 0.5) (drill 0.2) (layers *.Cu))
  (pad 25 smd rect (at 0 0) (size 1.65 2.65) (layers F.Cu F.Mask))
  (pad 24 smd roundrect (at -0.8 -1.95) (size 0.2 0.85) (layers F.Cu F.Paste F.Mask) (roundrect_rratio 0.25))
  (pad 23 smd roundrect (at -0.4 -1.95) (size 0.2 0.85) (layers F.Cu F.Paste F.Mask) (roundrect_rratio 0.25))
  (pad 22 smd roundrect (at 0 -1.95) (size 0.2 0.85) (layers F.Cu F.Paste F.Mask) (roundrect_rratio 0.25))
  (pad 21 smd roundrect (at 0.4 -1.95) (size 0.2 0.85) (layers F.Cu F.Paste F.Mask) (roundrect_rratio 0.25))
  (pad 20 smd roundrect (at 0.8 -1.95) (size 0.2 0.85) (layers F.Cu F.Paste F.Mask) (roundrect_rratio 0.25))
  (pad 19 smd roundrect (at 1.45 -1.2) (size 0.85 0.2) (layers F.Cu F.Paste F.Mask) (roundrect_rratio 0.25))
  (pad 18 smd roundrect (at 1.45 -0.8) (size 0.85 0.2) (layers F.Cu F.Paste F.Mask) (roundrect_rratio 0.25))
  (pad 17 smd roundrect (at 1.45 -0.4) (size 0.85 0.2) (layers F.Cu F.Paste F.Mask) (roundrect_rratio 0.25))
  (pad 16 smd roundrect (at 1.45 0) (size 0.85 0.2) (layers F.Cu F.Paste F.Mask) (roundrect_rratio 0.25))
  (pad 15 smd roundrect (at 1.45 0.4) (size 0.85 0.2) (layers F.Cu F.Paste F.Mask) (roundrect_rratio 0.25))
  (pad 14 smd roundrect (at 1.45 0.8) (size 0.85 0.2) (layers F.Cu F.Paste F.Mask) (roundrect_rratio 0.25))
  (pad 13 smd roundrect (at 1.45 1.2) (size 0.85 0.2) (layers F.Cu F.Paste F.Mask) (roundrect_rratio 0.25))
  (pad 12 smd roundrect (at 0.8 1.95) (size 0.2 0.85) (layers F.Cu F.Paste F.Mask) (roundrect_rratio 0.25))
  (pad 11 smd roundrect (at 0.4 1.95) (size 0.2 0.85) (layers F.Cu F.Paste F.Mask) (roundrect_rratio 0.25))
  (pad 10 smd roundrect (at 0 1.95) (size 0.2 0.85) (layers F.Cu F.Paste F.Mask) (roundrect_rratio 0.25))
  (pad 9 smd roundrect (at -0.4 1.95) (size 0.2 0.85) (layers F.Cu F.Paste F.Mask) (roundrect_rratio 0.25))
  (pad 8 smd roundrect (at -0.8 1.95) (size 0.2 0.85) (layers F.Cu F.Paste F.Mask) (roundrect_rratio 0.25))
  (pad 7 smd roundrect (at -1.45 1.2) (size 0.85 0.2) (layers F.Cu F.Paste F.Mask) (roundrect_rratio 0.25))
  (pad 6 smd roundrect (at -1.45 0.8) (size 0.85 0.2) (layers F.Cu F.Paste F.Mask) (roundrect_rratio 0.25))
  (pad 5 smd roundrect (at -1.45 0.4) (size 0.85 0.2) (layers F.Cu F.Paste F.Mask) (roundrect_rratio 0.25))
  (pad 4 smd roundrect (at -1.45 0) (size 0.85 0.2) (layers F.Cu F.Paste F.Mask) (roundrect_rratio 0.25))
  (pad 3 smd roundrect (at -1.45 -0.4) (size 0.85 0.2) (layers F.Cu F.Paste F.Mask) (roundrect_rratio 0.25))
  (pad 2 smd roundrect (at -1.45 -0.8) (size 0.85 0.2) (layers F.Cu F.Paste F.Mask) (roundrect_rratio 0.25))
  (pad 1 smd roundrect (at -1.45 -1.2) (size 0.85 0.2) (layers F.Cu F.Paste F.Mask) (roundrect_rratio 0.25))
  (model ${KISYS3DMOD}/Package_DFN_QFN.3dshapes/QFN-24-1EP_3x4mm_P0.4mm_EP1.65x2.65mm.wrl
    (at (xyz 0 0 0))
    (scale (xyz 1 1 1))
    (rotate (xyz 0 0 0))
  )
)
