(module QFN-24-1EP_5x5mm_P0.65mm_EP3.2x3.2mm (layer F.Cu) (tedit 607A7888)
  (descr "QFN, 24 Pin (https://www.analog.com/media/en/package-pcb-resources/package/pkg_pdf/ltc-legacy-qfn/(UH24)%20QFN%2005-08-1747%20Rev%20A.pdf), Alternate KiCad Library")
  (tags "QFN NoLead")
  (attr smd)
  (fp_text reference REF** (at 0 -3.82) (layer F.SilkS)
    (effects (font (size 1 1) (thickness 0.15)))
  )
  (fp_text value QFN-24-1EP_5x5mm_P0.65mm_EP3.2x3.2mm (at 0 3.82) (layer F.Fab)
    (effects (font (size 1 1) (thickness 0.15)))
  )
  (fp_line (start 2.413 -3.1115) (end -2.6035 -3.1115) (layer F.SilkS) (width 0.12))
  (fp_line (start 3.1115 2.0955) (end 3.1115 -2.0955) (layer F.SilkS) (width 0.12))
  (fp_line (start -2.413 3.1115) (end 2.413 3.1115) (layer F.SilkS) (width 0.12))
  (fp_line (start -3.1115 -2.0955) (end -3.1115 2.6035) (layer F.SilkS) (width 0.12))
  (fp_line (start -1.5 -2.5) (end 2.5 -2.5) (layer F.Fab) (width 0.1))
  (fp_line (start 2.5 -2.5) (end 2.5 2.5) (layer F.Fab) (width 0.1))
  (fp_line (start 2.5 2.5) (end -2.5 2.5) (layer F.Fab) (width 0.1))
  (fp_line (start -2.5 2.5) (end -2.5 -1.5) (layer F.Fab) (width 0.1))
  (fp_line (start -2.5 -1.5) (end -1.5 -2.5) (layer F.Fab) (width 0.1))
  (fp_line (start -3.12 -3.12) (end -3.12 3.12) (layer F.CrtYd) (width 0.05))
  (fp_line (start -3.12 3.12) (end 3.12 3.12) (layer F.CrtYd) (width 0.05))
  (fp_line (start 3.12 3.12) (end 3.12 -3.12) (layer F.CrtYd) (width 0.05))
  (fp_line (start 3.12 -3.12) (end -3.12 -3.12) (layer F.CrtYd) (width 0.05))
  (fp_circle (center -2.9845 -2.9845) (end -2.921 -2.9845) (layer F.SilkS) (width 0.3))
  (fp_text user %R (at 0 0) (layer F.Fab)
    (effects (font (size 1 1) (thickness 0.15)))
  )
  (fp_text user 1 (at -2.9845 -2.4765 -90 unlocked) (layer F.SilkS)
    (effects (font (size 0.6 0.6) (thickness 0.12)))
  )
  (fp_text user 6 (at -2.9845 3.048 -90 unlocked) (layer F.SilkS)
    (effects (font (size 0.6 0.6) (thickness 0.12)))
  )
  (fp_text user 12 (at 2.921 2.794 -90 unlocked) (layer F.SilkS)
    (effects (font (size 0.6 0.6) (thickness 0.12)))
  )
  (fp_text user 18 (at 2.921 -2.794 -90 unlocked) (layer F.SilkS)
    (effects (font (size 0.6 0.6) (thickness 0.12)))
  )
  (pad "" smd roundrect (at 0.8 0.8) (size 1.29 1.29) (layers F.Paste) (roundrect_rratio 0.193798))
  (pad "" smd roundrect (at 0.8 -0.8) (size 1.29 1.29) (layers F.Paste) (roundrect_rratio 0.193798))
  (pad "" smd roundrect (at -0.8 0.8) (size 1.29 1.29) (layers F.Paste) (roundrect_rratio 0.193798))
  (pad "" smd roundrect (at -0.8 -0.8) (size 1.29 1.29) (layers F.Paste) (roundrect_rratio 0.193798))
  (pad 25 smd rect (at 0 0) (size 3.2 3.2) (layers F.Cu F.Mask))
  (pad 24 smd custom (at -1.625 -2.3625) (size 0.193934 0.193934) (layers F.Cu F.Paste F.Mask)
    (options (clearance outline) (anchor circle))
    (primitives
      (gr_poly (pts
         (xy -0.075 -0.4375) (xy 0.075 -0.4375) (xy 0.075 0.4375) (xy 0.031066 0.4375) (xy -0.075 0.331434)
) (width 0.15))
    ))
  (pad 23 smd roundrect (at -0.975 -2.3625) (size 0.3 1.025) (layers F.Cu F.Paste F.Mask) (roundrect_rratio 0.25))
  (pad 22 smd roundrect (at -0.325 -2.3625) (size 0.3 1.025) (layers F.Cu F.Paste F.Mask) (roundrect_rratio 0.25))
  (pad 21 smd roundrect (at 0.325 -2.3625) (size 0.3 1.025) (layers F.Cu F.Paste F.Mask) (roundrect_rratio 0.25))
  (pad 20 smd roundrect (at 0.975 -2.3625) (size 0.3 1.025) (layers F.Cu F.Paste F.Mask) (roundrect_rratio 0.25))
  (pad 19 smd custom (at 1.625 -2.3625) (size 0.193934 0.193934) (layers F.Cu F.Paste F.Mask)
    (options (clearance outline) (anchor circle))
    (primitives
      (gr_poly (pts
         (xy -0.075 -0.4375) (xy 0.075 -0.4375) (xy 0.075 0.331434) (xy -0.031066 0.4375) (xy -0.075 0.4375)
) (width 0.15))
    ))
  (pad 18 smd custom (at 2.3625 -1.625) (size 0.193934 0.193934) (layers F.Cu F.Paste F.Mask)
    (options (clearance outline) (anchor circle))
    (primitives
      (gr_poly (pts
         (xy -0.4375 0.031066) (xy -0.331434 -0.075) (xy 0.4375 -0.075) (xy 0.4375 0.075) (xy -0.4375 0.075)
) (width 0.15))
    ))
  (pad 17 smd roundrect (at 2.3625 -0.975) (size 1.025 0.3) (layers F.Cu F.Paste F.Mask) (roundrect_rratio 0.25))
  (pad 16 smd roundrect (at 2.3625 -0.325) (size 1.025 0.3) (layers F.Cu F.Paste F.Mask) (roundrect_rratio 0.25))
  (pad 15 smd roundrect (at 2.3625 0.325) (size 1.025 0.3) (layers F.Cu F.Paste F.Mask) (roundrect_rratio 0.25))
  (pad 14 smd roundrect (at 2.3625 0.975) (size 1.025 0.3) (layers F.Cu F.Paste F.Mask) (roundrect_rratio 0.25))
  (pad 13 smd custom (at 2.3625 1.625) (size 0.193934 0.193934) (layers F.Cu F.Paste F.Mask)
    (options (clearance outline) (anchor circle))
    (primitives
      (gr_poly (pts
         (xy -0.4375 -0.075) (xy 0.4375 -0.075) (xy 0.4375 0.075) (xy -0.331434 0.075) (xy -0.4375 -0.031066)
) (width 0.15))
    ))
  (pad 12 smd custom (at 1.625 2.3625) (size 0.193934 0.193934) (layers F.Cu F.Paste F.Mask)
    (options (clearance outline) (anchor circle))
    (primitives
      (gr_poly (pts
         (xy -0.075 -0.4375) (xy -0.031066 -0.4375) (xy 0.075 -0.331434) (xy 0.075 0.4375) (xy -0.075 0.4375)
) (width 0.15))
    ))
  (pad 11 smd roundrect (at 0.975 2.3625) (size 0.3 1.025) (layers F.Cu F.Paste F.Mask) (roundrect_rratio 0.25))
  (pad 10 smd roundrect (at 0.325 2.3625) (size 0.3 1.025) (layers F.Cu F.Paste F.Mask) (roundrect_rratio 0.25))
  (pad 9 smd roundrect (at -0.325 2.3625) (size 0.3 1.025) (layers F.Cu F.Paste F.Mask) (roundrect_rratio 0.25))
  (pad 8 smd roundrect (at -0.975 2.3625) (size 0.3 1.025) (layers F.Cu F.Paste F.Mask) (roundrect_rratio 0.25))
  (pad 7 smd custom (at -1.625 2.3625) (size 0.193934 0.193934) (layers F.Cu F.Paste F.Mask)
    (options (clearance outline) (anchor circle))
    (primitives
      (gr_poly (pts
         (xy -0.075 -0.331434) (xy 0.031066 -0.4375) (xy 0.075 -0.4375) (xy 0.075 0.4375) (xy -0.075 0.4375)
) (width 0.15))
    ))
  (pad 6 smd custom (at -2.3625 1.625) (size 0.193934 0.193934) (layers F.Cu F.Paste F.Mask)
    (options (clearance outline) (anchor circle))
    (primitives
      (gr_poly (pts
         (xy -0.4375 -0.075) (xy 0.4375 -0.075) (xy 0.4375 -0.031066) (xy 0.331434 0.075) (xy -0.4375 0.075)
) (width 0.15))
    ))
  (pad 5 smd roundrect (at -2.3625 0.975) (size 1.025 0.3) (layers F.Cu F.Paste F.Mask) (roundrect_rratio 0.25))
  (pad 4 smd roundrect (at -2.3625 0.325) (size 1.025 0.3) (layers F.Cu F.Paste F.Mask) (roundrect_rratio 0.25))
  (pad 3 smd roundrect (at -2.3625 -0.325) (size 1.025 0.3) (layers F.Cu F.Paste F.Mask) (roundrect_rratio 0.25))
  (pad 2 smd roundrect (at -2.3625 -0.975) (size 1.025 0.3) (layers F.Cu F.Paste F.Mask) (roundrect_rratio 0.25))
  (pad 1 smd custom (at -2.3625 -1.625) (size 0.193934 0.193934) (layers F.Cu F.Paste F.Mask)
    (options (clearance outline) (anchor circle))
    (primitives
      (gr_poly (pts
         (xy -0.4375 -0.075) (xy 0.331434 -0.075) (xy 0.4375 0.031066) (xy 0.4375 0.075) (xy -0.4375 0.075)
) (width 0.15))
    ))
  (model ${KISYS3DMOD}/Package_DFN_QFN.3dshapes/QFN-24-1EP_5x5mm_P0.65mm_EP3.2x3.2mm.wrl
    (at (xyz 0 0 0))
    (scale (xyz 1 1 1))
    (rotate (xyz 0 0 0))
  )
)
