(module QFN-32-1EP_4x4mm_P0.4mm_EP2.65x2.65mm (layer F.Cu) (tedit 607A7A40)
  (descr "QFN, 32 Pin (https://www.renesas.com/eu/en/package-image/pdf/outdrawing/l32.4x4a.pdf), Alternate KiCad Library")
  (tags "QFN NoLead")
  (attr smd)
  (fp_text reference REF** (at 0 -3.3) (layer F.SilkS)
    (effects (font (size 1 1) (thickness 0.15)))
  )
  (fp_text value QFN-32-1EP_4x4mm_P0.4mm_EP2.65x2.65mm (at 0 3.3) (layer F.Fab)
    (effects (font (size 1 1) (thickness 0.15)))
  )
  (fp_line (start 1.905 -2.6035) (end -2.0955 -2.6035) (layer F.SilkS) (width 0.12))
  (fp_line (start 2.6035 1.5875) (end 2.6035 -1.5875) (layer F.SilkS) (width 0.12))
  (fp_line (start -1.905 2.6035) (end 1.905 2.6035) (layer F.SilkS) (width 0.12))
  (fp_line (start -2.6035 -1.5875) (end -2.6035 2.032) (layer F.SilkS) (width 0.12))
  (fp_circle (center -2.4765 -2.4765) (end -2.413 -2.4765) (layer F.SilkS) (width 0.3))
  (fp_line (start 2.6 -2.6) (end -2.6 -2.6) (layer F.CrtYd) (width 0.05))
  (fp_line (start 2.6 2.6) (end 2.6 -2.6) (layer F.CrtYd) (width 0.05))
  (fp_line (start -2.6 2.6) (end 2.6 2.6) (layer F.CrtYd) (width 0.05))
  (fp_line (start -2.6 -2.6) (end -2.6 2.6) (layer F.CrtYd) (width 0.05))
  (fp_line (start -2 -1) (end -1 -2) (layer F.Fab) (width 0.1))
  (fp_line (start -2 2) (end -2 -1) (layer F.Fab) (width 0.1))
  (fp_line (start 2 2) (end -2 2) (layer F.Fab) (width 0.1))
  (fp_line (start 2 -2) (end 2 2) (layer F.Fab) (width 0.1))
  (fp_line (start -1 -2) (end 2 -2) (layer F.Fab) (width 0.1))
  (fp_text user %R (at 0 0) (layer F.Fab)
    (effects (font (size 1 1) (thickness 0.15)))
  )
  (fp_text user 24 (at 2.413 -2.2225 -90 unlocked) (layer F.SilkS)
    (effects (font (size 0.6 0.6) (thickness 0.12)))
  )
  (fp_text user 16 (at 2.413 2.286 -90 unlocked) (layer F.SilkS)
    (effects (font (size 0.6 0.6) (thickness 0.12)))
  )
  (fp_text user 8 (at -2.4765 2.4765 -90 unlocked) (layer F.SilkS)
    (effects (font (size 0.6 0.6) (thickness 0.12)))
  )
  (fp_text user 1 (at -2.4765 -1.9685 -90 unlocked) (layer F.SilkS)
    (effects (font (size 0.6 0.6) (thickness 0.12)))
  )
  (pad "" smd roundrect (at 0.66 0.66) (size 1.07 1.07) (layers F.Paste) (roundrect_rratio 0.233645))
  (pad "" smd roundrect (at 0.66 -0.66) (size 1.07 1.07) (layers F.Paste) (roundrect_rratio 0.233645))
  (pad "" smd roundrect (at -0.66 0.66) (size 1.07 1.07) (layers F.Paste) (roundrect_rratio 0.233645))
  (pad "" smd roundrect (at -0.66 -0.66) (size 1.07 1.07) (layers F.Paste) (roundrect_rratio 0.233645))
  (pad 33 smd rect (at 0 0) (size 2.65 2.65) (layers F.Cu F.Mask))
  (pad 32 smd custom (at -1.4 -1.95) (size 0.129289 0.129289) (layers F.Cu F.Paste F.Mask)
    (options (clearance outline) (anchor circle))
    (primitives
      (gr_poly (pts
         (xy -0.05 -0.35) (xy 0.05 -0.35) (xy 0.05 0.35) (xy 0.020711 0.35) (xy -0.05 0.279289)
) (width 0.1))
    ))
  (pad 31 smd roundrect (at -1 -1.95) (size 0.2 0.8) (layers F.Cu F.Paste F.Mask) (roundrect_rratio 0.25))
  (pad 30 smd roundrect (at -0.6 -1.95) (size 0.2 0.8) (layers F.Cu F.Paste F.Mask) (roundrect_rratio 0.25))
  (pad 29 smd roundrect (at -0.2 -1.95) (size 0.2 0.8) (layers F.Cu F.Paste F.Mask) (roundrect_rratio 0.25))
  (pad 28 smd roundrect (at 0.2 -1.95) (size 0.2 0.8) (layers F.Cu F.Paste F.Mask) (roundrect_rratio 0.25))
  (pad 27 smd roundrect (at 0.6 -1.95) (size 0.2 0.8) (layers F.Cu F.Paste F.Mask) (roundrect_rratio 0.25))
  (pad 26 smd roundrect (at 1 -1.95) (size 0.2 0.8) (layers F.Cu F.Paste F.Mask) (roundrect_rratio 0.25))
  (pad 25 smd custom (at 1.4 -1.95) (size 0.129289 0.129289) (layers F.Cu F.Paste F.Mask)
    (options (clearance outline) (anchor circle))
    (primitives
      (gr_poly (pts
         (xy -0.05 -0.35) (xy 0.05 -0.35) (xy 0.05 0.279289) (xy -0.020711 0.35) (xy -0.05 0.35)
) (width 0.1))
    ))
  (pad 24 smd custom (at 1.95 -1.4) (size 0.129289 0.129289) (layers F.Cu F.Paste F.Mask)
    (options (clearance outline) (anchor circle))
    (primitives
      (gr_poly (pts
         (xy -0.35 0.020711) (xy -0.279289 -0.05) (xy 0.35 -0.05) (xy 0.35 0.05) (xy -0.35 0.05)
) (width 0.1))
    ))
  (pad 23 smd roundrect (at 1.95 -1) (size 0.8 0.2) (layers F.Cu F.Paste F.Mask) (roundrect_rratio 0.25))
  (pad 22 smd roundrect (at 1.95 -0.6) (size 0.8 0.2) (layers F.Cu F.Paste F.Mask) (roundrect_rratio 0.25))
  (pad 21 smd roundrect (at 1.95 -0.2) (size 0.8 0.2) (layers F.Cu F.Paste F.Mask) (roundrect_rratio 0.25))
  (pad 20 smd roundrect (at 1.95 0.2) (size 0.8 0.2) (layers F.Cu F.Paste F.Mask) (roundrect_rratio 0.25))
  (pad 19 smd roundrect (at 1.95 0.6) (size 0.8 0.2) (layers F.Cu F.Paste F.Mask) (roundrect_rratio 0.25))
  (pad 18 smd roundrect (at 1.95 1) (size 0.8 0.2) (layers F.Cu F.Paste F.Mask) (roundrect_rratio 0.25))
  (pad 17 smd custom (at 1.95 1.4) (size 0.129289 0.129289) (layers F.Cu F.Paste F.Mask)
    (options (clearance outline) (anchor circle))
    (primitives
      (gr_poly (pts
         (xy -0.35 -0.05) (xy 0.35 -0.05) (xy 0.35 0.05) (xy -0.279289 0.05) (xy -0.35 -0.020711)
) (width 0.1))
    ))
  (pad 16 smd custom (at 1.4 1.95) (size 0.129289 0.129289) (layers F.Cu F.Paste F.Mask)
    (options (clearance outline) (anchor circle))
    (primitives
      (gr_poly (pts
         (xy -0.05 -0.35) (xy -0.020711 -0.35) (xy 0.05 -0.279289) (xy 0.05 0.35) (xy -0.05 0.35)
) (width 0.1))
    ))
  (pad 15 smd roundrect (at 1 1.95) (size 0.2 0.8) (layers F.Cu F.Paste F.Mask) (roundrect_rratio 0.25))
  (pad 14 smd roundrect (at 0.6 1.95) (size 0.2 0.8) (layers F.Cu F.Paste F.Mask) (roundrect_rratio 0.25))
  (pad 13 smd roundrect (at 0.2 1.95) (size 0.2 0.8) (layers F.Cu F.Paste F.Mask) (roundrect_rratio 0.25))
  (pad 12 smd roundrect (at -0.2 1.95) (size 0.2 0.8) (layers F.Cu F.Paste F.Mask) (roundrect_rratio 0.25))
  (pad 11 smd roundrect (at -0.6 1.95) (size 0.2 0.8) (layers F.Cu F.Paste F.Mask) (roundrect_rratio 0.25))
  (pad 10 smd roundrect (at -1 1.95) (size 0.2 0.8) (layers F.Cu F.Paste F.Mask) (roundrect_rratio 0.25))
  (pad 9 smd custom (at -1.4 1.95) (size 0.129289 0.129289) (layers F.Cu F.Paste F.Mask)
    (options (clearance outline) (anchor circle))
    (primitives
      (gr_poly (pts
         (xy -0.05 -0.279289) (xy 0.020711 -0.35) (xy 0.05 -0.35) (xy 0.05 0.35) (xy -0.05 0.35)
) (width 0.1))
    ))
  (pad 8 smd custom (at -1.95 1.4) (size 0.129289 0.129289) (layers F.Cu F.Paste F.Mask)
    (options (clearance outline) (anchor circle))
    (primitives
      (gr_poly (pts
         (xy -0.35 -0.05) (xy 0.35 -0.05) (xy 0.35 -0.020711) (xy 0.279289 0.05) (xy -0.35 0.05)
) (width 0.1))
    ))
  (pad 7 smd roundrect (at -1.95 1) (size 0.8 0.2) (layers F.Cu F.Paste F.Mask) (roundrect_rratio 0.25))
  (pad 6 smd roundrect (at -1.95 0.6) (size 0.8 0.2) (layers F.Cu F.Paste F.Mask) (roundrect_rratio 0.25))
  (pad 5 smd roundrect (at -1.95 0.2) (size 0.8 0.2) (layers F.Cu F.Paste F.Mask) (roundrect_rratio 0.25))
  (pad 4 smd roundrect (at -1.95 -0.2) (size 0.8 0.2) (layers F.Cu F.Paste F.Mask) (roundrect_rratio 0.25))
  (pad 3 smd roundrect (at -1.95 -0.6) (size 0.8 0.2) (layers F.Cu F.Paste F.Mask) (roundrect_rratio 0.25))
  (pad 2 smd roundrect (at -1.95 -1) (size 0.8 0.2) (layers F.Cu F.Paste F.Mask) (roundrect_rratio 0.25))
  (pad 1 smd custom (at -1.95 -1.4) (size 0.129289 0.129289) (layers F.Cu F.Paste F.Mask)
    (options (clearance outline) (anchor circle))
    (primitives
      (gr_poly (pts
         (xy -0.35 -0.05) (xy 0.279289 -0.05) (xy 0.35 0.020711) (xy 0.35 0.05) (xy -0.35 0.05)
) (width 0.1))
    ))
  (model ${KISYS3DMOD}/Package_DFN_QFN.3dshapes/QFN-32-1EP_4x4mm_P0.4mm_EP2.65x2.65mm.wrl
    (at (xyz 0 0 0))
    (scale (xyz 1 1 1))
    (rotate (xyz 0 0 0))
  )
)
