(module QFN-16-1EP_5x5mm_P0.8mm_EP2.7x2.7mm (layer F.Cu) (tedit 607A703A)
  (descr "QFN, 16 Pin (http://www.intersil.com/content/dam/Intersil/documents/l16_/l16.5x5.pdf), Alternate KiCad Library")
  (tags "QFN NoLead")
  (attr smd)
  (fp_text reference REF** (at 0 -3.8) (layer F.SilkS)
    (effects (font (size 1 1) (thickness 0.15)))
  )
  (fp_text value QFN-16-1EP_5x5mm_P0.8mm_EP2.7x2.7mm (at 0 3.8) (layer F.Fab)
    (effects (font (size 1 1) (thickness 0.15)))
  )
  (fp_line (start 2.3495 -3.1115) (end -2.54 -3.1115) (layer F.SilkS) (width 0.12))
  (fp_line (start 3.1115 2.6035) (end 3.1115 -2.032) (layer F.SilkS) (width 0.12))
  (fp_line (start -2.3495 3.1115) (end 2.3495 3.1115) (layer F.SilkS) (width 0.12))
  (fp_line (start -3.1115 -1.9685) (end -3.1115 2.6035) (layer F.SilkS) (width 0.12))
  (fp_line (start -1.5 -2.5) (end 2.5 -2.5) (layer F.Fab) (width 0.1))
  (fp_line (start 2.5 -2.5) (end 2.5 2.5) (layer F.Fab) (width 0.1))
  (fp_line (start 2.5 2.5) (end -2.5 2.5) (layer F.Fab) (width 0.1))
  (fp_line (start -2.5 2.5) (end -2.5 -1.5) (layer F.Fab) (width 0.1))
  (fp_line (start -2.5 -1.5) (end -1.5 -2.5) (layer F.Fab) (width 0.1))
  (fp_line (start -3.1 -3.1) (end -3.1 3.1) (layer F.CrtYd) (width 0.05))
  (fp_line (start -3.1 3.1) (end 3.1 3.1) (layer F.CrtYd) (width 0.05))
  (fp_line (start 3.1 3.1) (end 3.1 -3.1) (layer F.CrtYd) (width 0.05))
  (fp_line (start 3.1 -3.1) (end -3.1 -3.1) (layer F.CrtYd) (width 0.05))
  (fp_circle (center -2.8575 -2.8575) (end -2.794 -2.8575) (layer F.SilkS) (width 0.3))
  (fp_text user %R (at 0 0) (layer F.Fab)
    (effects (font (size 1 1) (thickness 0.15)))
  )
  (fp_text user 1 (at -2.921 -2.3495 -90 unlocked) (layer F.SilkS)
    (effects (font (size 0.6 0.6) (thickness 0.12)))
  )
  (fp_text user 4 (at -2.921 2.9845 -90 unlocked) (layer F.SilkS)
    (effects (font (size 0.6 0.6) (thickness 0.12)))
  )
  (fp_text user 8 (at 2.8575 2.9845 -90 unlocked) (layer F.SilkS)
    (effects (font (size 0.6 0.6) (thickness 0.12)))
  )
  (fp_text user 12 (at 2.8575 -2.7305 -90 unlocked) (layer F.SilkS)
    (effects (font (size 0.6 0.6) (thickness 0.12)))
  )
  (pad "" smd roundrect (at 0.675 0.675) (size 1.09 1.09) (layers F.Paste) (roundrect_rratio 0.229358))
  (pad "" smd roundrect (at 0.675 -0.675) (size 1.09 1.09) (layers F.Paste) (roundrect_rratio 0.229358))
  (pad "" smd roundrect (at -0.675 0.675) (size 1.09 1.09) (layers F.Paste) (roundrect_rratio 0.229358))
  (pad "" smd roundrect (at -0.675 -0.675) (size 1.09 1.09) (layers F.Paste) (roundrect_rratio 0.229358))
  (pad 17 smd rect (at 0 0) (size 2.7 2.7) (layers F.Cu F.Mask))
  (pad 16 smd roundrect (at -1.2 -2.325) (size 0.35 1.05) (layers F.Cu F.Paste F.Mask) (roundrect_rratio 0.25))
  (pad 15 smd roundrect (at -0.4 -2.325) (size 0.35 1.05) (layers F.Cu F.Paste F.Mask) (roundrect_rratio 0.25))
  (pad 14 smd roundrect (at 0.4 -2.325) (size 0.35 1.05) (layers F.Cu F.Paste F.Mask) (roundrect_rratio 0.25))
  (pad 13 smd roundrect (at 1.2 -2.325) (size 0.35 1.05) (layers F.Cu F.Paste F.Mask) (roundrect_rratio 0.25))
  (pad 12 smd roundrect (at 2.325 -1.2) (size 1.05 0.35) (layers F.Cu F.Paste F.Mask) (roundrect_rratio 0.25))
  (pad 11 smd roundrect (at 2.325 -0.4) (size 1.05 0.35) (layers F.Cu F.Paste F.Mask) (roundrect_rratio 0.25))
  (pad 10 smd roundrect (at 2.325 0.4) (size 1.05 0.35) (layers F.Cu F.Paste F.Mask) (roundrect_rratio 0.25))
  (pad 9 smd roundrect (at 2.325 1.2) (size 1.05 0.35) (layers F.Cu F.Paste F.Mask) (roundrect_rratio 0.25))
  (pad 8 smd roundrect (at 1.2 2.325) (size 0.35 1.05) (layers F.Cu F.Paste F.Mask) (roundrect_rratio 0.25))
  (pad 7 smd roundrect (at 0.4 2.325) (size 0.35 1.05) (layers F.Cu F.Paste F.Mask) (roundrect_rratio 0.25))
  (pad 6 smd roundrect (at -0.4 2.325) (size 0.35 1.05) (layers F.Cu F.Paste F.Mask) (roundrect_rratio 0.25))
  (pad 5 smd roundrect (at -1.2 2.325) (size 0.35 1.05) (layers F.Cu F.Paste F.Mask) (roundrect_rratio 0.25))
  (pad 4 smd roundrect (at -2.325 1.2) (size 1.05 0.35) (layers F.Cu F.Paste F.Mask) (roundrect_rratio 0.25))
  (pad 3 smd roundrect (at -2.325 0.4) (size 1.05 0.35) (layers F.Cu F.Paste F.Mask) (roundrect_rratio 0.25))
  (pad 2 smd roundrect (at -2.325 -0.4) (size 1.05 0.35) (layers F.Cu F.Paste F.Mask) (roundrect_rratio 0.25))
  (pad 1 smd roundrect (at -2.325 -1.2) (size 1.05 0.35) (layers F.Cu F.Paste F.Mask) (roundrect_rratio 0.25))
  (model ${KISYS3DMOD}/Package_DFN_QFN.3dshapes/QFN-16-1EP_5x5mm_P0.8mm_EP2.7x2.7mm.wrl
    (at (xyz 0 0 0))
    (scale (xyz 1 1 1))
    (rotate (xyz 0 0 0))
  )
)
