(module QFN-68-1EP_8x8mm_P0.4mm_EP5.2x5.2mm_ThermalVias (layer F.Cu) (tedit 607A7E7B)
  (descr "QFN, 68 Pin (https://cdn.microsemi.com/documents/1bf6886f-5919-4508-a50b-b1dbf3fdf0f4/download/#page=98), Alternate KiCad Library")
  (tags "QFN NoLead")
  (attr smd)
  (fp_text reference REF** (at 0 -5.588) (layer F.SilkS)
    (effects (font (size 1 1) (thickness 0.15)))
  )
  (fp_text value QFN-68-1EP_8x8mm_P0.4mm_EP5.2x5.2mm_ThermalVias (at 0 5.3) (layer F.Fab)
    (effects (font (size 1 1) (thickness 0.15)))
  )
  (fp_line (start -0.4 4.572) (end -0.4 4.7625) (layer F.SilkS) (width 0.12))
  (fp_line (start 4.572 3.2) (end 4.7625 3.2) (layer F.SilkS) (width 0.12))
  (fp_line (start 1.6 4.572) (end 1.6 4.8895) (layer F.SilkS) (width 0.12))
  (fp_line (start -4.572 2.4) (end -4.7625 2.4) (layer F.SilkS) (width 0.12))
  (fp_line (start -4.572 -1.6) (end -4.7625 -1.6) (layer F.SilkS) (width 0.12))
  (fp_line (start -2.4 4.572) (end -2.4 4.8895) (layer F.SilkS) (width 0.12))
  (fp_line (start -4.572 0.4) (end -4.8895 0.4) (layer F.SilkS) (width 0.12))
  (fp_line (start -4.572 -3.683) (end -4.572 3.4925) (layer F.SilkS) (width 0.12))
  (fp_line (start 4.572 3.556) (end 4.572 -3.683) (layer F.SilkS) (width 0.12))
  (fp_line (start -3.8735 4.572) (end 3.8735 4.572) (layer F.SilkS) (width 0.12))
  (fp_line (start 3.8735 -4.572) (end -4.1275 -4.572) (layer F.SilkS) (width 0.12))
  (fp_circle (center -4.5085 -4.5085) (end -4.445 -4.5085) (layer F.SilkS) (width 0.3))
  (fp_line (start -2 -4.572) (end -2 -4.7625) (layer F.SilkS) (width 0.12))
  (fp_line (start 4.572 -2.8) (end 4.8895 -2.8) (layer F.SilkS) (width 0.12))
  (fp_line (start 0 -4.572) (end 0 -4.8895) (layer F.SilkS) (width 0.12))
  (fp_line (start 2 -4.572) (end 2 -4.7625) (layer F.SilkS) (width 0.12))
  (fp_line (start 4.572 -0.8) (end 4.7625 -0.8) (layer F.SilkS) (width 0.12))
  (fp_line (start 4.572 1.2) (end 4.8895 1.2) (layer F.SilkS) (width 0.12))
  (fp_line (start 4.6 -4.6) (end -4.6 -4.6) (layer F.CrtYd) (width 0.05))
  (fp_line (start 4.6 4.6) (end 4.6 -4.6) (layer F.CrtYd) (width 0.05))
  (fp_line (start -4.6 4.6) (end 4.6 4.6) (layer F.CrtYd) (width 0.05))
  (fp_line (start -4.6 -4.6) (end -4.6 4.6) (layer F.CrtYd) (width 0.05))
  (fp_line (start -4 -3) (end -3 -4) (layer F.Fab) (width 0.1))
  (fp_line (start -4 4) (end -4 -3) (layer F.Fab) (width 0.1))
  (fp_line (start 4 4) (end -4 4) (layer F.Fab) (width 0.1))
  (fp_line (start 4 -4) (end 4 4) (layer F.Fab) (width 0.1))
  (fp_line (start -3 -4) (end 4 -4) (layer F.Fab) (width 0.1))
  (fp_text user %R (at 0 0) (layer F.Fab)
    (effects (font (size 1 1) (thickness 0.15)))
  )
  (fp_text user 34 (at 4.3815 4.2545 -90 unlocked) (layer F.SilkS)
    (effects (font (size 0.6 0.6) (thickness 0.12)))
  )
  (fp_text user 17 (at -4.445 4.191 -90 unlocked) (layer F.SilkS)
    (effects (font (size 0.6 0.6) (thickness 0.12)))
  )
  (fp_text user 1 (at -4.445 -4.064 -90 unlocked) (layer F.SilkS)
    (effects (font (size 0.6 0.6) (thickness 0.12)))
  )
  (fp_text user 51 (at 4.3815 -4.2545 -90 unlocked) (layer F.SilkS)
    (effects (font (size 0.6 0.6) (thickness 0.12)))
  )
  (pad "" smd roundrect (at 1.7625 1.7625) (size 1.006976 1.006976) (layers F.Paste) (roundrect_rratio 0.248268))
  (pad "" smd roundrect (at 1.7625 0.5875) (size 1.006976 1.006976) (layers F.Paste) (roundrect_rratio 0.248268))
  (pad "" smd roundrect (at 1.7625 -0.5875) (size 1.006976 1.006976) (layers F.Paste) (roundrect_rratio 0.248268))
  (pad "" smd roundrect (at 1.7625 -1.7625) (size 1.006976 1.006976) (layers F.Paste) (roundrect_rratio 0.248268))
  (pad "" smd roundrect (at 0.5875 1.7625) (size 1.006976 1.006976) (layers F.Paste) (roundrect_rratio 0.248268))
  (pad "" smd roundrect (at 0.5875 0.5875) (size 1.006976 1.006976) (layers F.Paste) (roundrect_rratio 0.248268))
  (pad "" smd roundrect (at 0.5875 -0.5875) (size 1.006976 1.006976) (layers F.Paste) (roundrect_rratio 0.248268))
  (pad "" smd roundrect (at 0.5875 -1.7625) (size 1.006976 1.006976) (layers F.Paste) (roundrect_rratio 0.248268))
  (pad "" smd roundrect (at -0.5875 1.7625) (size 1.006976 1.006976) (layers F.Paste) (roundrect_rratio 0.248268))
  (pad "" smd roundrect (at -0.5875 0.5875) (size 1.006976 1.006976) (layers F.Paste) (roundrect_rratio 0.248268))
  (pad "" smd roundrect (at -0.5875 -0.5875) (size 1.006976 1.006976) (layers F.Paste) (roundrect_rratio 0.248268))
  (pad "" smd roundrect (at -0.5875 -1.7625) (size 1.006976 1.006976) (layers F.Paste) (roundrect_rratio 0.248268))
  (pad "" smd roundrect (at -1.7625 1.7625) (size 1.006976 1.006976) (layers F.Paste) (roundrect_rratio 0.248268))
  (pad "" smd roundrect (at -1.7625 0.5875) (size 1.006976 1.006976) (layers F.Paste) (roundrect_rratio 0.248268))
  (pad "" smd roundrect (at -1.7625 -0.5875) (size 1.006976 1.006976) (layers F.Paste) (roundrect_rratio 0.248268))
  (pad "" smd roundrect (at -1.7625 -1.7625) (size 1.006976 1.006976) (layers F.Paste) (roundrect_rratio 0.248268))
  (pad 69 smd rect (at 0 0) (size 5.2 5.2) (layers B.Cu B.Mask))
  (pad 69 thru_hole circle (at 2.35 2.35) (size 0.5 0.5) (drill 0.2) (layers *.Cu))
  (pad 69 thru_hole circle (at 1.175 2.35) (size 0.5 0.5) (drill 0.2) (layers *.Cu))
  (pad 69 thru_hole circle (at 0 2.35) (size 0.5 0.5) (drill 0.2) (layers *.Cu))
  (pad 69 thru_hole circle (at -1.175 2.35) (size 0.5 0.5) (drill 0.2) (layers *.Cu))
  (pad 69 thru_hole circle (at -2.35 2.35) (size 0.5 0.5) (drill 0.2) (layers *.Cu))
  (pad 69 thru_hole circle (at 2.35 1.175) (size 0.5 0.5) (drill 0.2) (layers *.Cu))
  (pad 69 thru_hole circle (at 1.175 1.175) (size 0.5 0.5) (drill 0.2) (layers *.Cu))
  (pad 69 thru_hole circle (at 0 1.175) (size 0.5 0.5) (drill 0.2) (layers *.Cu))
  (pad 69 thru_hole circle (at -1.175 1.175) (size 0.5 0.5) (drill 0.2) (layers *.Cu))
  (pad 69 thru_hole circle (at -2.35 1.175) (size 0.5 0.5) (drill 0.2) (layers *.Cu))
  (pad 69 thru_hole circle (at 2.35 0) (size 0.5 0.5) (drill 0.2) (layers *.Cu))
  (pad 69 thru_hole circle (at 1.175 0) (size 0.5 0.5) (drill 0.2) (layers *.Cu))
  (pad 69 thru_hole circle (at 0 0) (size 0.5 0.5) (drill 0.2) (layers *.Cu))
  (pad 69 thru_hole circle (at -1.175 0) (size 0.5 0.5) (drill 0.2) (layers *.Cu))
  (pad 69 thru_hole circle (at -2.35 0) (size 0.5 0.5) (drill 0.2) (layers *.Cu))
  (pad 69 thru_hole circle (at 2.35 -1.175) (size 0.5 0.5) (drill 0.2) (layers *.Cu))
  (pad 69 thru_hole circle (at 1.175 -1.175) (size 0.5 0.5) (drill 0.2) (layers *.Cu))
  (pad 69 thru_hole circle (at 0 -1.175) (size 0.5 0.5) (drill 0.2) (layers *.Cu))
  (pad 69 thru_hole circle (at -1.175 -1.175) (size 0.5 0.5) (drill 0.2) (layers *.Cu))
  (pad 69 thru_hole circle (at -2.35 -1.175) (size 0.5 0.5) (drill 0.2) (layers *.Cu))
  (pad 69 thru_hole circle (at 2.35 -2.35) (size 0.5 0.5) (drill 0.2) (layers *.Cu))
  (pad 69 thru_hole circle (at 1.175 -2.35) (size 0.5 0.5) (drill 0.2) (layers *.Cu))
  (pad 69 thru_hole circle (at 0 -2.35) (size 0.5 0.5) (drill 0.2) (layers *.Cu))
  (pad 69 thru_hole circle (at -1.175 -2.35) (size 0.5 0.5) (drill 0.2) (layers *.Cu))
  (pad 69 thru_hole circle (at -2.35 -2.35) (size 0.5 0.5) (drill 0.2) (layers *.Cu))
  (pad 69 smd rect (at 0 0) (size 5.2 5.2) (layers F.Cu F.Mask))
  (pad 68 smd roundrect (at -3.2 -3.9375) (size 0.2 0.825) (layers F.Cu F.Paste F.Mask) (roundrect_rratio 0.25))
  (pad 67 smd roundrect (at -2.8 -3.9375) (size 0.2 0.825) (layers F.Cu F.Paste F.Mask) (roundrect_rratio 0.25))
  (pad 66 smd roundrect (at -2.4 -3.9375) (size 0.2 0.825) (layers F.Cu F.Paste F.Mask) (roundrect_rratio 0.25))
  (pad 65 smd roundrect (at -2 -3.9375) (size 0.2 0.825) (layers F.Cu F.Paste F.Mask) (roundrect_rratio 0.25))
  (pad 64 smd roundrect (at -1.6 -3.9375) (size 0.2 0.825) (layers F.Cu F.Paste F.Mask) (roundrect_rratio 0.25))
  (pad 63 smd roundrect (at -1.2 -3.9375) (size 0.2 0.825) (layers F.Cu F.Paste F.Mask) (roundrect_rratio 0.25))
  (pad 62 smd roundrect (at -0.8 -3.9375) (size 0.2 0.825) (layers F.Cu F.Paste F.Mask) (roundrect_rratio 0.25))
  (pad 61 smd roundrect (at -0.4 -3.9375) (size 0.2 0.825) (layers F.Cu F.Paste F.Mask) (roundrect_rratio 0.25))
  (pad 60 smd roundrect (at 0 -3.9375) (size 0.2 0.825) (layers F.Cu F.Paste F.Mask) (roundrect_rratio 0.25))
  (pad 59 smd roundrect (at 0.4 -3.9375) (size 0.2 0.825) (layers F.Cu F.Paste F.Mask) (roundrect_rratio 0.25))
  (pad 58 smd roundrect (at 0.8 -3.9375) (size 0.2 0.825) (layers F.Cu F.Paste F.Mask) (roundrect_rratio 0.25))
  (pad 57 smd roundrect (at 1.2 -3.9375) (size 0.2 0.825) (layers F.Cu F.Paste F.Mask) (roundrect_rratio 0.25))
  (pad 56 smd roundrect (at 1.6 -3.9375) (size 0.2 0.825) (layers F.Cu F.Paste F.Mask) (roundrect_rratio 0.25))
  (pad 55 smd roundrect (at 2 -3.9375) (size 0.2 0.825) (layers F.Cu F.Paste F.Mask) (roundrect_rratio 0.25))
  (pad 54 smd roundrect (at 2.4 -3.9375) (size 0.2 0.825) (layers F.Cu F.Paste F.Mask) (roundrect_rratio 0.25))
  (pad 53 smd roundrect (at 2.8 -3.9375) (size 0.2 0.825) (layers F.Cu F.Paste F.Mask) (roundrect_rratio 0.25))
  (pad 52 smd roundrect (at 3.2 -3.9375) (size 0.2 0.825) (layers F.Cu F.Paste F.Mask) (roundrect_rratio 0.25))
  (pad 51 smd roundrect (at 3.9375 -3.2) (size 0.825 0.2) (layers F.Cu F.Paste F.Mask) (roundrect_rratio 0.25))
  (pad 50 smd roundrect (at 3.9375 -2.8) (size 0.825 0.2) (layers F.Cu F.Paste F.Mask) (roundrect_rratio 0.25))
  (pad 49 smd roundrect (at 3.9375 -2.4) (size 0.825 0.2) (layers F.Cu F.Paste F.Mask) (roundrect_rratio 0.25))
  (pad 48 smd roundrect (at 3.9375 -2) (size 0.825 0.2) (layers F.Cu F.Paste F.Mask) (roundrect_rratio 0.25))
  (pad 47 smd roundrect (at 3.9375 -1.6) (size 0.825 0.2) (layers F.Cu F.Paste F.Mask) (roundrect_rratio 0.25))
  (pad 46 smd roundrect (at 3.9375 -1.2) (size 0.825 0.2) (layers F.Cu F.Paste F.Mask) (roundrect_rratio 0.25))
  (pad 45 smd roundrect (at 3.9375 -0.8) (size 0.825 0.2) (layers F.Cu F.Paste F.Mask) (roundrect_rratio 0.25))
  (pad 44 smd roundrect (at 3.9375 -0.4) (size 0.825 0.2) (layers F.Cu F.Paste F.Mask) (roundrect_rratio 0.25))
  (pad 43 smd roundrect (at 3.9375 0) (size 0.825 0.2) (layers F.Cu F.Paste F.Mask) (roundrect_rratio 0.25))
  (pad 42 smd roundrect (at 3.9375 0.4) (size 0.825 0.2) (layers F.Cu F.Paste F.Mask) (roundrect_rratio 0.25))
  (pad 41 smd roundrect (at 3.9375 0.8) (size 0.825 0.2) (layers F.Cu F.Paste F.Mask) (roundrect_rratio 0.25))
  (pad 40 smd roundrect (at 3.9375 1.2) (size 0.825 0.2) (layers F.Cu F.Paste F.Mask) (roundrect_rratio 0.25))
  (pad 39 smd roundrect (at 3.9375 1.6) (size 0.825 0.2) (layers F.Cu F.Paste F.Mask) (roundrect_rratio 0.25))
  (pad 38 smd roundrect (at 3.9375 2) (size 0.825 0.2) (layers F.Cu F.Paste F.Mask) (roundrect_rratio 0.25))
  (pad 37 smd roundrect (at 3.9375 2.4) (size 0.825 0.2) (layers F.Cu F.Paste F.Mask) (roundrect_rratio 0.25))
  (pad 36 smd roundrect (at 3.9375 2.8) (size 0.825 0.2) (layers F.Cu F.Paste F.Mask) (roundrect_rratio 0.25))
  (pad 35 smd roundrect (at 3.9375 3.2) (size 0.825 0.2) (layers F.Cu F.Paste F.Mask) (roundrect_rratio 0.25))
  (pad 34 smd roundrect (at 3.2 3.9375) (size 0.2 0.825) (layers F.Cu F.Paste F.Mask) (roundrect_rratio 0.25))
  (pad 33 smd roundrect (at 2.8 3.9375) (size 0.2 0.825) (layers F.Cu F.Paste F.Mask) (roundrect_rratio 0.25))
  (pad 32 smd roundrect (at 2.4 3.9375) (size 0.2 0.825) (layers F.Cu F.Paste F.Mask) (roundrect_rratio 0.25))
  (pad 31 smd roundrect (at 2 3.9375) (size 0.2 0.825) (layers F.Cu F.Paste F.Mask) (roundrect_rratio 0.25))
  (pad 30 smd roundrect (at 1.6 3.9375) (size 0.2 0.825) (layers F.Cu F.Paste F.Mask) (roundrect_rratio 0.25))
  (pad 29 smd roundrect (at 1.2 3.9375) (size 0.2 0.825) (layers F.Cu F.Paste F.Mask) (roundrect_rratio 0.25))
  (pad 28 smd roundrect (at 0.8 3.9375) (size 0.2 0.825) (layers F.Cu F.Paste F.Mask) (roundrect_rratio 0.25))
  (pad 27 smd roundrect (at 0.4 3.9375) (size 0.2 0.825) (layers F.Cu F.Paste F.Mask) (roundrect_rratio 0.25))
  (pad 26 smd roundrect (at 0 3.9375) (size 0.2 0.825) (layers F.Cu F.Paste F.Mask) (roundrect_rratio 0.25))
  (pad 25 smd roundrect (at -0.4 3.9375) (size 0.2 0.825) (layers F.Cu F.Paste F.Mask) (roundrect_rratio 0.25))
  (pad 24 smd roundrect (at -0.8 3.9375) (size 0.2 0.825) (layers F.Cu F.Paste F.Mask) (roundrect_rratio 0.25))
  (pad 23 smd roundrect (at -1.2 3.9375) (size 0.2 0.825) (layers F.Cu F.Paste F.Mask) (roundrect_rratio 0.25))
  (pad 22 smd roundrect (at -1.6 3.9375) (size 0.2 0.825) (layers F.Cu F.Paste F.Mask) (roundrect_rratio 0.25))
  (pad 21 smd roundrect (at -2 3.9375) (size 0.2 0.825) (layers F.Cu F.Paste F.Mask) (roundrect_rratio 0.25))
  (pad 20 smd roundrect (at -2.4 3.9375) (size 0.2 0.825) (layers F.Cu F.Paste F.Mask) (roundrect_rratio 0.25))
  (pad 19 smd roundrect (at -2.8 3.9375) (size 0.2 0.825) (layers F.Cu F.Paste F.Mask) (roundrect_rratio 0.25))
  (pad 18 smd roundrect (at -3.2 3.9375) (size 0.2 0.825) (layers F.Cu F.Paste F.Mask) (roundrect_rratio 0.25))
  (pad 17 smd roundrect (at -3.9375 3.2) (size 0.825 0.2) (layers F.Cu F.Paste F.Mask) (roundrect_rratio 0.25))
  (pad 16 smd roundrect (at -3.9375 2.8) (size 0.825 0.2) (layers F.Cu F.Paste F.Mask) (roundrect_rratio 0.25))
  (pad 15 smd roundrect (at -3.9375 2.4) (size 0.825 0.2) (layers F.Cu F.Paste F.Mask) (roundrect_rratio 0.25))
  (pad 14 smd roundrect (at -3.9375 2) (size 0.825 0.2) (layers F.Cu F.Paste F.Mask) (roundrect_rratio 0.25))
  (pad 13 smd roundrect (at -3.9375 1.6) (size 0.825 0.2) (layers F.Cu F.Paste F.Mask) (roundrect_rratio 0.25))
  (pad 12 smd roundrect (at -3.9375 1.2) (size 0.825 0.2) (layers F.Cu F.Paste F.Mask) (roundrect_rratio 0.25))
  (pad 11 smd roundrect (at -3.9375 0.8) (size 0.825 0.2) (layers F.Cu F.Paste F.Mask) (roundrect_rratio 0.25))
  (pad 10 smd roundrect (at -3.9375 0.4) (size 0.825 0.2) (layers F.Cu F.Paste F.Mask) (roundrect_rratio 0.25))
  (pad 9 smd roundrect (at -3.9375 0) (size 0.825 0.2) (layers F.Cu F.Paste F.Mask) (roundrect_rratio 0.25))
  (pad 8 smd roundrect (at -3.9375 -0.4) (size 0.825 0.2) (layers F.Cu F.Paste F.Mask) (roundrect_rratio 0.25))
  (pad 7 smd roundrect (at -3.9375 -0.8) (size 0.825 0.2) (layers F.Cu F.Paste F.Mask) (roundrect_rratio 0.25))
  (pad 6 smd roundrect (at -3.9375 -1.2) (size 0.825 0.2) (layers F.Cu F.Paste F.Mask) (roundrect_rratio 0.25))
  (pad 5 smd roundrect (at -3.9375 -1.6) (size 0.825 0.2) (layers F.Cu F.Paste F.Mask) (roundrect_rratio 0.25))
  (pad 4 smd roundrect (at -3.9375 -2) (size 0.825 0.2) (layers F.Cu F.Paste F.Mask) (roundrect_rratio 0.25))
  (pad 3 smd roundrect (at -3.9375 -2.4) (size 0.825 0.2) (layers F.Cu F.Paste F.Mask) (roundrect_rratio 0.25))
  (pad 2 smd roundrect (at -3.9375 -2.8) (size 0.825 0.2) (layers F.Cu F.Paste F.Mask) (roundrect_rratio 0.25))
  (pad 1 smd roundrect (at -3.9375 -3.2) (size 0.825 0.2) (layers F.Cu F.Paste F.Mask) (roundrect_rratio 0.25))
  (model ${KISYS3DMOD}/Package_DFN_QFN.3dshapes/QFN-68-1EP_8x8mm_P0.4mm_EP5.2x5.2mm.wrl
    (at (xyz 0 0 0))
    (scale (xyz 1 1 1))
    (rotate (xyz 0 0 0))
  )
)
