(module Qorvo_DFN-8-1EP_2x2mm_P0.5mm (layer F.Cu) (tedit 607E8D90)
  (descr "DFN 8 2x2mm, 0.5mm http://www.qorvo.com/products/d/da000896, Alternate KiCad Library")
  (tags "DFN 0.5 Qorvo 2x2mm")
  (solder_mask_margin 0.07)
  (solder_paste_ratio -0.05)
  (attr smd)
  (fp_text reference REF** (at 0 -2) (layer F.SilkS)
    (effects (font (size 1 1) (thickness 0.15)))
  )
  (fp_text value Qorvo_DFN-8-1EP_2x2mm_P0.5mm (at 0 2) (layer F.Fab)
    (effects (font (size 1 1) (thickness 0.15)))
  )
  (fp_line (start 1.397 -1.2065) (end -1.0795 -1.2065) (layer F.SilkS) (width 0.12))
  (fp_line (start 1.397 1.2065) (end 1.397 -1.2065) (layer F.SilkS) (width 0.12))
  (fp_line (start -1.397 1.2065) (end 1.397 1.2065) (layer F.SilkS) (width 0.12))
  (fp_line (start -1.397 -0.889) (end -1.397 1.2065) (layer F.SilkS) (width 0.12))
  (fp_line (start -1.4 1.25) (end 1.4 1.25) (layer F.CrtYd) (width 0.05))
  (fp_line (start -1.4 -1.25) (end 1.4 -1.25) (layer F.CrtYd) (width 0.05))
  (fp_line (start 1.4 -1.25) (end 1.4 1.25) (layer F.CrtYd) (width 0.05))
  (fp_line (start -1.4 -1.25) (end -1.4 1.25) (layer F.CrtYd) (width 0.05))
  (fp_line (start -1 -0.5) (end -0.5 -1) (layer F.Fab) (width 0.1))
  (fp_line (start -1 1) (end -1 -0.5) (layer F.Fab) (width 0.1))
  (fp_line (start 1 1) (end -1 1) (layer F.Fab) (width 0.1))
  (fp_line (start 1 -1) (end 1 1) (layer F.Fab) (width 0.1))
  (fp_line (start -0.5 -1) (end 1 -1) (layer F.Fab) (width 0.1))
  (fp_circle (center -1.3335 -1.143) (end -1.27 -1.143) (layer F.SilkS) (width 0.15))
  (fp_text user %R (at 0 0) (layer F.Fab)
    (effects (font (size 0.4 0.4) (thickness 0.06)))
  )
  (pad 9 smd rect (at 0 0) (size 0.6 1.2) (layers F.Cu F.Paste F.Mask))
  (pad 8 smd rect (at 0.89 -0.75) (size 0.48 0.25) (layers F.Cu F.Paste F.Mask))
  (pad 7 smd rect (at 0.89 -0.25) (size 0.48 0.25) (layers F.Cu F.Paste F.Mask))
  (pad 6 smd rect (at 0.89 0.25) (size 0.48 0.25) (layers F.Cu F.Paste F.Mask))
  (pad 5 smd rect (at 0.89 0.75) (size 0.48 0.25) (layers F.Cu F.Paste F.Mask))
  (pad 4 smd rect (at -0.89 0.75) (size 0.48 0.25) (layers F.Cu F.Paste F.Mask))
  (pad 3 smd rect (at -0.89 0.25) (size 0.48 0.25) (layers F.Cu F.Paste F.Mask))
  (pad 2 smd rect (at -0.89 -0.25) (size 0.48 0.25) (layers F.Cu F.Paste F.Mask))
  (pad 1 smd rect (at -0.89 -0.75) (size 0.48 0.25) (layers F.Cu F.Paste F.Mask))
  (model ${KISYS3DMOD}/Package_DFN_QFN.3dshapes/Qorvo_DFN-8-1EP_2x2mm_P0.5mm.wrl
    (at (xyz 0 0 0))
    (scale (xyz 1 1 1))
    (rotate (xyz 0 0 0))
  )
)
