(module TDFN-6-1EP_2.5x2.5mm_P0.65mm_EP1.3x2mm_ThermalVias (layer F.Cu) (tedit 607E8E03)
  (descr "TDFN, 6 Pin (http://www.nve.com/Downloads/ab3.pdf), Alternate KiCad Library")
  (tags "TDFN NoLead")
  (attr smd)
  (fp_text reference REF** (at 0 -2.2) (layer F.SilkS)
    (effects (font (size 1 1) (thickness 0.15)))
  )
  (fp_text value TDFN-6-1EP_2.5x2.5mm_P0.65mm_EP1.3x2mm_ThermalVias (at 0 2.2) (layer F.Fab)
    (effects (font (size 1 1) (thickness 0.15)))
  )
  (fp_circle (center -1.778 -1.3335) (end -1.7145 -1.3335) (layer F.SilkS) (width 0.2))
  (fp_line (start -1.905 1.4605) (end 1.905 1.4605) (layer F.SilkS) (width 0.12))
  (fp_line (start 1.905 1.4605) (end 1.905 -1.4605) (layer F.SilkS) (width 0.12))
  (fp_line (start 1.905 -1.4605) (end -1.4605 -1.4605) (layer F.SilkS) (width 0.12))
  (fp_line (start -1.905 -1.016) (end -1.905 1.4605) (layer F.SilkS) (width 0.12))
  (fp_line (start -0.625 -1.25) (end 1.25 -1.25) (layer F.Fab) (width 0.1))
  (fp_line (start 1.25 -1.25) (end 1.25 1.25) (layer F.Fab) (width 0.1))
  (fp_line (start 1.25 1.25) (end -1.25 1.25) (layer F.Fab) (width 0.1))
  (fp_line (start -1.25 1.25) (end -1.25 -0.625) (layer F.Fab) (width 0.1))
  (fp_line (start -1.25 -0.625) (end -0.625 -1.25) (layer F.Fab) (width 0.1))
  (fp_line (start -1.88 -1.5) (end -1.88 1.5) (layer F.CrtYd) (width 0.05))
  (fp_line (start -1.88 1.5) (end 1.88 1.5) (layer F.CrtYd) (width 0.05))
  (fp_line (start 1.88 1.5) (end 1.88 -1.5) (layer F.CrtYd) (width 0.05))
  (fp_line (start 1.88 -1.5) (end -1.88 -1.5) (layer F.CrtYd) (width 0.05))
  (fp_text user %R (at 0 0) (layer F.Fab)
    (effects (font (size 0.62 0.62) (thickness 0.09)))
  )
  (pad "" smd roundrect (at 0.325 0.5) (size 0.56 0.87) (layers F.Paste) (roundrect_rratio 0.25))
  (pad "" smd roundrect (at 0.325 -0.5) (size 0.56 0.87) (layers F.Paste) (roundrect_rratio 0.25))
  (pad "" smd roundrect (at -0.325 0.5) (size 0.56 0.87) (layers F.Paste) (roundrect_rratio 0.25))
  (pad "" smd roundrect (at -0.325 -0.5) (size 0.56 0.87) (layers F.Paste) (roundrect_rratio 0.25))
  (pad 7 smd rect (at 0 0) (size 1.3 2) (layers B.Cu B.Mask))
  (pad 7 thru_hole circle (at 0.4 0.75) (size 0.5 0.5) (drill 0.2) (layers *.Cu))
  (pad 7 thru_hole circle (at -0.4 0.75) (size 0.5 0.5) (drill 0.2) (layers *.Cu))
  (pad 7 thru_hole circle (at 0.4 0) (size 0.5 0.5) (drill 0.2) (layers *.Cu))
  (pad 7 thru_hole circle (at -0.4 0) (size 0.5 0.5) (drill 0.2) (layers *.Cu))
  (pad 7 thru_hole circle (at 0.4 -0.75) (size 0.5 0.5) (drill 0.2) (layers *.Cu))
  (pad 7 thru_hole circle (at -0.4 -0.75) (size 0.5 0.5) (drill 0.2) (layers *.Cu))
  (pad 7 smd rect (at 0 0) (size 1.3 2) (layers F.Cu F.Mask))
  (pad 6 smd roundrect (at 1.25 -0.65) (size 0.75 0.3) (layers F.Cu F.Paste F.Mask) (roundrect_rratio 0.25))
  (pad 5 smd roundrect (at 1.25 0) (size 0.75 0.3) (layers F.Cu F.Paste F.Mask) (roundrect_rratio 0.25))
  (pad 4 smd roundrect (at 1.25 0.65) (size 0.75 0.3) (layers F.Cu F.Paste F.Mask) (roundrect_rratio 0.25))
  (pad 3 smd roundrect (at -1.25 0.65) (size 0.75 0.3) (layers F.Cu F.Paste F.Mask) (roundrect_rratio 0.25))
  (pad 2 smd roundrect (at -1.25 0) (size 0.75 0.3) (layers F.Cu F.Paste F.Mask) (roundrect_rratio 0.25))
  (pad 1 smd roundrect (at -1.25 -0.65) (size 0.75 0.3) (layers F.Cu F.Paste F.Mask) (roundrect_rratio 0.25))
  (model ${KISYS3DMOD}/Package_DFN_QFN.3dshapes/TDFN-6-1EP_2.5x2.5mm_P0.65mm_EP1.3x2mm.wrl
    (at (xyz 0 0 0))
    (scale (xyz 1 1 1))
    (rotate (xyz 0 0 0))
  )
)
