(module Texas_S-PVQFN-N36_EP4.4x4.4mm (layer F.Cu) (tedit 607E901F)
  (descr "QFN, 36 Pin (http://www.ti.com/lit/ds/slvsba5d/slvsba5d.pdf#page=35), Alternate KiCad Library")
  (tags "QFN NoLead")
  (attr smd)
  (fp_text reference REF** (at 0 -4.32) (layer F.SilkS)
    (effects (font (size 1 1) (thickness 0.15)))
  )
  (fp_text value Texas_S-PVQFN-N36_EP4.4x4.4mm (at 0 4.32) (layer F.Fab)
    (effects (font (size 1 1) (thickness 0.15)))
  )
  (fp_line (start 2.921 -3.6195) (end -3.175 -3.6195) (layer F.SilkS) (width 0.12))
  (fp_line (start 3.6195 2.6035) (end 3.6195 -2.54) (layer F.SilkS) (width 0.12))
  (fp_line (start -2.921 3.6195) (end 2.921 3.6195) (layer F.SilkS) (width 0.12))
  (fp_line (start -3.6195 -2.7305) (end -3.6195 3.1115) (layer F.SilkS) (width 0.12))
  (fp_circle (center -3.556 -3.556) (end -3.4925 -3.556) (layer F.SilkS) (width 0.3))
  (fp_line (start -2 -3) (end 3 -3) (layer F.Fab) (width 0.1))
  (fp_line (start 3 -3) (end 3 3) (layer F.Fab) (width 0.1))
  (fp_line (start 3 3) (end -3 3) (layer F.Fab) (width 0.1))
  (fp_line (start -3 3) (end -3 -2) (layer F.Fab) (width 0.1))
  (fp_line (start -3 -2) (end -2 -3) (layer F.Fab) (width 0.1))
  (fp_line (start -3.62 -3.62) (end -3.62 3.62) (layer F.CrtYd) (width 0.05))
  (fp_line (start -3.62 3.62) (end 3.62 3.62) (layer F.CrtYd) (width 0.05))
  (fp_line (start 3.62 3.62) (end 3.62 -3.62) (layer F.CrtYd) (width 0.05))
  (fp_line (start 3.62 -3.62) (end -3.62 -3.62) (layer F.CrtYd) (width 0.05))
  (fp_text user %R (at 0 0) (layer F.Fab)
    (effects (font (size 1 1) (thickness 0.15)))
  )
  (fp_text user 1 (at -3.4925 -3.1115 -90 unlocked) (layer F.SilkS)
    (effects (font (size 0.6 0.6) (thickness 0.12)))
  )
  (fp_text user 9 (at -3.4925 3.4925 -90 unlocked) (layer F.SilkS)
    (effects (font (size 0.6 0.6) (thickness 0.12)))
  )
  (fp_text user 18 (at 3.429 3.302 -90 unlocked) (layer F.SilkS)
    (effects (font (size 0.6 0.6) (thickness 0.12)))
  )
  (fp_text user 27 (at 3.429 -3.2385 -90 unlocked) (layer F.SilkS)
    (effects (font (size 0.6 0.6) (thickness 0.12)))
  )
  (pad "" smd roundrect (at 1.47 1.47) (size 1.18 1.18) (layers F.Paste) (roundrect_rratio 0.211864))
  (pad "" smd roundrect (at 1.47 0) (size 1.18 1.18) (layers F.Paste) (roundrect_rratio 0.211864))
  (pad "" smd roundrect (at 1.47 -1.47) (size 1.18 1.18) (layers F.Paste) (roundrect_rratio 0.211864))
  (pad "" smd roundrect (at 0 1.47) (size 1.18 1.18) (layers F.Paste) (roundrect_rratio 0.211864))
  (pad "" smd roundrect (at 0 0) (size 1.18 1.18) (layers F.Paste) (roundrect_rratio 0.211864))
  (pad "" smd roundrect (at 0 -1.47) (size 1.18 1.18) (layers F.Paste) (roundrect_rratio 0.211864))
  (pad "" smd roundrect (at -1.47 1.47) (size 1.18 1.18) (layers F.Paste) (roundrect_rratio 0.211864))
  (pad "" smd roundrect (at -1.47 0) (size 1.18 1.18) (layers F.Paste) (roundrect_rratio 0.211864))
  (pad "" smd roundrect (at -1.47 -1.47) (size 1.18 1.18) (layers F.Paste) (roundrect_rratio 0.211864))
  (pad 37 smd rect (at 0 0) (size 4.4 4.4) (layers F.Cu F.Mask))
  (pad 36 smd roundrect (at -2 -2.8875) (size 0.25 0.975) (layers F.Cu F.Paste F.Mask) (roundrect_rratio 0.25))
  (pad 35 smd roundrect (at -1.5 -2.8875) (size 0.25 0.975) (layers F.Cu F.Paste F.Mask) (roundrect_rratio 0.25))
  (pad 34 smd roundrect (at -1 -2.8875) (size 0.25 0.975) (layers F.Cu F.Paste F.Mask) (roundrect_rratio 0.25))
  (pad 33 smd roundrect (at -0.5 -2.8875) (size 0.25 0.975) (layers F.Cu F.Paste F.Mask) (roundrect_rratio 0.25))
  (pad 32 smd roundrect (at 0 -2.8875) (size 0.25 0.975) (layers F.Cu F.Paste F.Mask) (roundrect_rratio 0.25))
  (pad 31 smd roundrect (at 0.5 -2.8875) (size 0.25 0.975) (layers F.Cu F.Paste F.Mask) (roundrect_rratio 0.25))
  (pad 30 smd roundrect (at 1 -2.8875) (size 0.25 0.975) (layers F.Cu F.Paste F.Mask) (roundrect_rratio 0.25))
  (pad 29 smd roundrect (at 1.5 -2.8875) (size 0.25 0.975) (layers F.Cu F.Paste F.Mask) (roundrect_rratio 0.25))
  (pad 28 smd roundrect (at 2 -2.8875) (size 0.25 0.975) (layers F.Cu F.Paste F.Mask) (roundrect_rratio 0.25))
  (pad 27 smd roundrect (at 2.8875 -2) (size 0.975 0.25) (layers F.Cu F.Paste F.Mask) (roundrect_rratio 0.25))
  (pad 26 smd roundrect (at 2.8875 -1.5) (size 0.975 0.25) (layers F.Cu F.Paste F.Mask) (roundrect_rratio 0.25))
  (pad 25 smd roundrect (at 2.8875 -1) (size 0.975 0.25) (layers F.Cu F.Paste F.Mask) (roundrect_rratio 0.25))
  (pad 24 smd roundrect (at 2.8875 -0.5) (size 0.975 0.25) (layers F.Cu F.Paste F.Mask) (roundrect_rratio 0.25))
  (pad 23 smd roundrect (at 2.8875 0) (size 0.975 0.25) (layers F.Cu F.Paste F.Mask) (roundrect_rratio 0.25))
  (pad 22 smd roundrect (at 2.8875 0.5) (size 0.975 0.25) (layers F.Cu F.Paste F.Mask) (roundrect_rratio 0.25))
  (pad 21 smd roundrect (at 2.8875 1) (size 0.975 0.25) (layers F.Cu F.Paste F.Mask) (roundrect_rratio 0.25))
  (pad 20 smd roundrect (at 2.8875 1.5) (size 0.975 0.25) (layers F.Cu F.Paste F.Mask) (roundrect_rratio 0.25))
  (pad 19 smd roundrect (at 2.8875 2) (size 0.975 0.25) (layers F.Cu F.Paste F.Mask) (roundrect_rratio 0.25))
  (pad 18 smd roundrect (at 2 2.8875) (size 0.25 0.975) (layers F.Cu F.Paste F.Mask) (roundrect_rratio 0.25))
  (pad 17 smd roundrect (at 1.5 2.8875) (size 0.25 0.975) (layers F.Cu F.Paste F.Mask) (roundrect_rratio 0.25))
  (pad 16 smd roundrect (at 1 2.8875) (size 0.25 0.975) (layers F.Cu F.Paste F.Mask) (roundrect_rratio 0.25))
  (pad 15 smd roundrect (at 0.5 2.8875) (size 0.25 0.975) (layers F.Cu F.Paste F.Mask) (roundrect_rratio 0.25))
  (pad 14 smd roundrect (at 0 2.8875) (size 0.25 0.975) (layers F.Cu F.Paste F.Mask) (roundrect_rratio 0.25))
  (pad 13 smd roundrect (at -0.5 2.8875) (size 0.25 0.975) (layers F.Cu F.Paste F.Mask) (roundrect_rratio 0.25))
  (pad 12 smd roundrect (at -1 2.8875) (size 0.25 0.975) (layers F.Cu F.Paste F.Mask) (roundrect_rratio 0.25))
  (pad 11 smd roundrect (at -1.5 2.8875) (size 0.25 0.975) (layers F.Cu F.Paste F.Mask) (roundrect_rratio 0.25))
  (pad 10 smd roundrect (at -2 2.8875) (size 0.25 0.975) (layers F.Cu F.Paste F.Mask) (roundrect_rratio 0.25))
  (pad 9 smd roundrect (at -2.8875 2) (size 0.975 0.25) (layers F.Cu F.Paste F.Mask) (roundrect_rratio 0.25))
  (pad 8 smd roundrect (at -2.8875 1.5) (size 0.975 0.25) (layers F.Cu F.Paste F.Mask) (roundrect_rratio 0.25))
  (pad 7 smd roundrect (at -2.8875 1) (size 0.975 0.25) (layers F.Cu F.Paste F.Mask) (roundrect_rratio 0.25))
  (pad 6 smd roundrect (at -2.8875 0.5) (size 0.975 0.25) (layers F.Cu F.Paste F.Mask) (roundrect_rratio 0.25))
  (pad 5 smd roundrect (at -2.8875 0) (size 0.975 0.25) (layers F.Cu F.Paste F.Mask) (roundrect_rratio 0.25))
  (pad 4 smd roundrect (at -2.8875 -0.5) (size 0.975 0.25) (layers F.Cu F.Paste F.Mask) (roundrect_rratio 0.25))
  (pad 3 smd roundrect (at -2.8875 -1) (size 0.975 0.25) (layers F.Cu F.Paste F.Mask) (roundrect_rratio 0.25))
  (pad 2 smd roundrect (at -2.8875 -1.5) (size 0.975 0.25) (layers F.Cu F.Paste F.Mask) (roundrect_rratio 0.25))
  (pad 1 smd roundrect (at -2.8875 -2) (size 0.975 0.25) (layers F.Cu F.Paste F.Mask) (roundrect_rratio 0.25))
  (model ${KISYS3DMOD}/Package_DFN_QFN.3dshapes/Texas_S-PVQFN-N36_EP4.4x4.4mm.wrl
    (at (xyz 0 0 0))
    (scale (xyz 1 1 1))
    (rotate (xyz 0 0 0))
  )
)
