(module Texas_RUM0016A_EP2.6x2.6mm_ThermalVias (layer F.Cu) (tedit 607E8F91)
  (descr "QFN, 16 Pin (http://www.ti.com/lit/ds/symlink/lmh0074.pdf#page=13), Alternate KiCad Library")
  (tags "QFN NoLead")
  (attr smd)
  (fp_text reference REF** (at 0 -3.32) (layer F.SilkS)
    (effects (font (size 1 1) (thickness 0.15)))
  )
  (fp_text value Texas_RUM0016A_EP2.6x2.6mm_ThermalVias (at 0 3.32) (layer F.Fab)
    (effects (font (size 1 1) (thickness 0.15)))
  )
  (fp_circle (center -2.54 -2.54) (end -2.4765 -2.54) (layer F.SilkS) (width 0.3))
  (fp_line (start -2.6035 -1.7145) (end -2.6035 2.0955) (layer F.SilkS) (width 0.12))
  (fp_line (start 2.6035 2.0955) (end 2.6035 -1.5875) (layer F.SilkS) (width 0.12))
  (fp_line (start 1.905 -2.6035) (end -2.159 -2.6035) (layer F.SilkS) (width 0.12))
  (fp_line (start -1.905 2.6035) (end 1.905 2.6035) (layer F.SilkS) (width 0.12))
  (fp_line (start 2.62 -2.62) (end -2.62 -2.62) (layer F.CrtYd) (width 0.05))
  (fp_line (start 2.62 2.62) (end 2.62 -2.62) (layer F.CrtYd) (width 0.05))
  (fp_line (start -2.62 2.62) (end 2.62 2.62) (layer F.CrtYd) (width 0.05))
  (fp_line (start -2.62 -2.62) (end -2.62 2.62) (layer F.CrtYd) (width 0.05))
  (fp_line (start -2 -1) (end -1 -2) (layer F.Fab) (width 0.1))
  (fp_line (start -2 2) (end -2 -1) (layer F.Fab) (width 0.1))
  (fp_line (start 2 2) (end -2 2) (layer F.Fab) (width 0.1))
  (fp_line (start 2 -2) (end 2 2) (layer F.Fab) (width 0.1))
  (fp_line (start -1 -2) (end 2 -2) (layer F.Fab) (width 0.1))
  (fp_text user %R (at 0 0) (layer F.Fab)
    (effects (font (size 1 1) (thickness 0.15)))
  )
  (fp_text user 12 (at 2.413 -2.286 -90 unlocked) (layer F.SilkS)
    (effects (font (size 0.6 0.6) (thickness 0.12)))
  )
  (fp_text user 8 (at 2.413 2.4765 -90 unlocked) (layer F.SilkS)
    (effects (font (size 0.6 0.6) (thickness 0.12)))
  )
  (fp_text user 1 (at -2.4765 -2.0955 -90 unlocked) (layer F.SilkS)
    (effects (font (size 0.6 0.6) (thickness 0.12)))
  )
  (fp_text user 4 (at -2.4765 2.4765 -90 unlocked) (layer F.SilkS)
    (effects (font (size 0.6 0.6) (thickness 0.12)))
  )
  (pad "" smd roundrect (at 0.65 0.65) (size 1.09 1.09) (layers F.Paste) (roundrect_rratio 0.229358))
  (pad "" smd roundrect (at 0.65 -0.65) (size 1.09 1.09) (layers F.Paste) (roundrect_rratio 0.229358))
  (pad "" smd roundrect (at -0.65 0.65) (size 1.09 1.09) (layers F.Paste) (roundrect_rratio 0.229358))
  (pad "" smd roundrect (at -0.65 -0.65) (size 1.09 1.09) (layers F.Paste) (roundrect_rratio 0.229358))
  (pad 17 smd rect (at 0 0) (size 2.6 2.6) (layers B.Cu B.Mask))
  (pad 17 thru_hole circle (at 1.05 1.05) (size 0.5 0.5) (drill 0.2) (layers *.Cu))
  (pad 17 thru_hole circle (at 0 1.05) (size 0.5 0.5) (drill 0.2) (layers *.Cu))
  (pad 17 thru_hole circle (at -1.05 1.05) (size 0.5 0.5) (drill 0.2) (layers *.Cu))
  (pad 17 thru_hole circle (at 1.05 0) (size 0.5 0.5) (drill 0.2) (layers *.Cu))
  (pad 17 thru_hole circle (at 0 0) (size 0.5 0.5) (drill 0.2) (layers *.Cu))
  (pad 17 thru_hole circle (at -1.05 0) (size 0.5 0.5) (drill 0.2) (layers *.Cu))
  (pad 17 thru_hole circle (at 1.05 -1.05) (size 0.5 0.5) (drill 0.2) (layers *.Cu))
  (pad 17 thru_hole circle (at 0 -1.05) (size 0.5 0.5) (drill 0.2) (layers *.Cu))
  (pad 17 thru_hole circle (at -1.05 -1.05) (size 0.5 0.5) (drill 0.2) (layers *.Cu))
  (pad 17 smd rect (at 0 0) (size 2.6 2.6) (layers F.Cu F.Mask))
  (pad 16 smd roundrect (at -0.975 -1.9375) (size 0.3 0.875) (layers F.Cu F.Paste F.Mask) (roundrect_rratio 0.25))
  (pad 15 smd roundrect (at -0.325 -1.9375) (size 0.3 0.875) (layers F.Cu F.Paste F.Mask) (roundrect_rratio 0.25))
  (pad 14 smd roundrect (at 0.325 -1.9375) (size 0.3 0.875) (layers F.Cu F.Paste F.Mask) (roundrect_rratio 0.25))
  (pad 13 smd roundrect (at 0.975 -1.9375) (size 0.3 0.875) (layers F.Cu F.Paste F.Mask) (roundrect_rratio 0.25))
  (pad 12 smd roundrect (at 1.9375 -0.975) (size 0.875 0.3) (layers F.Cu F.Paste F.Mask) (roundrect_rratio 0.25))
  (pad 11 smd roundrect (at 1.9375 -0.325) (size 0.875 0.3) (layers F.Cu F.Paste F.Mask) (roundrect_rratio 0.25))
  (pad 10 smd roundrect (at 1.9375 0.325) (size 0.875 0.3) (layers F.Cu F.Paste F.Mask) (roundrect_rratio 0.25))
  (pad 9 smd roundrect (at 1.9375 0.975) (size 0.875 0.3) (layers F.Cu F.Paste F.Mask) (roundrect_rratio 0.25))
  (pad 8 smd roundrect (at 0.975 1.9375) (size 0.3 0.875) (layers F.Cu F.Paste F.Mask) (roundrect_rratio 0.25))
  (pad 7 smd roundrect (at 0.325 1.9375) (size 0.3 0.875) (layers F.Cu F.Paste F.Mask) (roundrect_rratio 0.25))
  (pad 6 smd roundrect (at -0.325 1.9375) (size 0.3 0.875) (layers F.Cu F.Paste F.Mask) (roundrect_rratio 0.25))
  (pad 5 smd roundrect (at -0.975 1.9375) (size 0.3 0.875) (layers F.Cu F.Paste F.Mask) (roundrect_rratio 0.25))
  (pad 4 smd roundrect (at -1.9375 0.975) (size 0.875 0.3) (layers F.Cu F.Paste F.Mask) (roundrect_rratio 0.25))
  (pad 3 smd roundrect (at -1.9375 0.325) (size 0.875 0.3) (layers F.Cu F.Paste F.Mask) (roundrect_rratio 0.25))
  (pad 2 smd roundrect (at -1.9375 -0.325) (size 0.875 0.3) (layers F.Cu F.Paste F.Mask) (roundrect_rratio 0.25))
  (pad 1 smd roundrect (at -1.9375 -0.975) (size 0.875 0.3) (layers F.Cu F.Paste F.Mask) (roundrect_rratio 0.25))
  (model ${KISYS3DMOD}/Package_DFN_QFN.3dshapes/Texas_RUM0016A_EP2.6x2.6mm.wrl
    (at (xyz 0 0 0))
    (scale (xyz 1 1 1))
    (rotate (xyz 0 0 0))
  )
)
