(module Texas_S-PWQFN-N24_EP2.7x2.7mm_ThermalVias (layer F.Cu) (tedit 607E90A0)
  (descr "QFN, 24 Pin (http://www.ti.com/lit/ds/symlink/bq25601.pdf#page=54), Alternate KiCad Library")
  (tags "QFN NoLead")
  (attr smd)
  (fp_text reference REF** (at 0 -3.32) (layer F.SilkS)
    (effects (font (size 1 1) (thickness 0.15)))
  )
  (fp_text value Texas_S-PWQFN-N24_EP2.7x2.7mm_ThermalVias (at 0 3.32) (layer F.Fab)
    (effects (font (size 1 1) (thickness 0.15)))
  )
  (fp_line (start 1.905 -2.6035) (end -2.159 -2.6035) (layer F.SilkS) (width 0.12))
  (fp_line (start -1.905 2.6035) (end 1.905 2.6035) (layer F.SilkS) (width 0.12))
  (fp_line (start 2.6035 1.5875) (end 2.6035 -1.5875) (layer F.SilkS) (width 0.12))
  (fp_line (start -2.6035 -1.7145) (end -2.6035 2.032) (layer F.SilkS) (width 0.12))
  (fp_circle (center -2.54 -2.54) (end -2.4765 -2.54) (layer F.SilkS) (width 0.3))
  (fp_line (start 2.62 -2.62) (end -2.62 -2.62) (layer F.CrtYd) (width 0.05))
  (fp_line (start 2.62 2.62) (end 2.62 -2.62) (layer F.CrtYd) (width 0.05))
  (fp_line (start -2.62 2.62) (end 2.62 2.62) (layer F.CrtYd) (width 0.05))
  (fp_line (start -2.62 -2.62) (end -2.62 2.62) (layer F.CrtYd) (width 0.05))
  (fp_line (start -2 -1) (end -1 -2) (layer F.Fab) (width 0.1))
  (fp_line (start -2 2) (end -2 -1) (layer F.Fab) (width 0.1))
  (fp_line (start 2 2) (end -2 2) (layer F.Fab) (width 0.1))
  (fp_line (start 2 -2) (end 2 2) (layer F.Fab) (width 0.1))
  (fp_line (start -1 -2) (end 2 -2) (layer F.Fab) (width 0.1))
  (fp_text user %R (at 0 0) (layer F.Fab)
    (effects (font (size 1 1) (thickness 0.15)))
  )
  (fp_text user 18 (at 2.413 -2.286 -90 unlocked) (layer F.SilkS)
    (effects (font (size 0.6 0.6) (thickness 0.12)))
  )
  (fp_text user 12 (at 2.413 2.286 -90 unlocked) (layer F.SilkS)
    (effects (font (size 0.6 0.6) (thickness 0.12)))
  )
  (fp_text user 6 (at -2.4765 2.4765 -90 unlocked) (layer F.SilkS)
    (effects (font (size 0.6 0.6) (thickness 0.12)))
  )
  (fp_text user 1 (at -2.4765 -2.0955 -90 unlocked) (layer F.SilkS)
    (effects (font (size 0.6 0.6) (thickness 0.12)))
  )
  (pad "" smd roundrect (at 0.675 0.675) (size 1.13 1.13) (layers F.Paste) (roundrect_rratio 0.221239))
  (pad "" smd roundrect (at 0.675 -0.675) (size 1.13 1.13) (layers F.Paste) (roundrect_rratio 0.221239))
  (pad "" smd roundrect (at -0.675 0.675) (size 1.13 1.13) (layers F.Paste) (roundrect_rratio 0.221239))
  (pad "" smd roundrect (at -0.675 -0.675) (size 1.13 1.13) (layers F.Paste) (roundrect_rratio 0.221239))
  (pad 25 smd rect (at 0 0) (size 2.7 2.7) (layers B.Cu B.Mask))
  (pad 25 thru_hole circle (at 1.1 1.1) (size 0.5 0.5) (drill 0.2) (layers *.Cu))
  (pad 25 thru_hole circle (at 0 1.1) (size 0.5 0.5) (drill 0.2) (layers *.Cu))
  (pad 25 thru_hole circle (at -1.1 1.1) (size 0.5 0.5) (drill 0.2) (layers *.Cu))
  (pad 25 thru_hole circle (at 1.1 0) (size 0.5 0.5) (drill 0.2) (layers *.Cu))
  (pad 25 thru_hole circle (at 0 0) (size 0.5 0.5) (drill 0.2) (layers *.Cu))
  (pad 25 thru_hole circle (at -1.1 0) (size 0.5 0.5) (drill 0.2) (layers *.Cu))
  (pad 25 thru_hole circle (at 1.1 -1.1) (size 0.5 0.5) (drill 0.2) (layers *.Cu))
  (pad 25 thru_hole circle (at 0 -1.1) (size 0.5 0.5) (drill 0.2) (layers *.Cu))
  (pad 25 thru_hole circle (at -1.1 -1.1) (size 0.5 0.5) (drill 0.2) (layers *.Cu))
  (pad 25 smd rect (at 0 0) (size 2.7 2.7) (layers F.Cu F.Mask))
  (pad 24 smd roundrect (at -1.25 -1.9625) (size 0.25 0.825) (layers F.Cu F.Paste F.Mask) (roundrect_rratio 0.25))
  (pad 23 smd roundrect (at -0.75 -1.9625) (size 0.25 0.825) (layers F.Cu F.Paste F.Mask) (roundrect_rratio 0.25))
  (pad 22 smd roundrect (at -0.25 -1.9625) (size 0.25 0.825) (layers F.Cu F.Paste F.Mask) (roundrect_rratio 0.25))
  (pad 21 smd roundrect (at 0.25 -1.9625) (size 0.25 0.825) (layers F.Cu F.Paste F.Mask) (roundrect_rratio 0.25))
  (pad 20 smd roundrect (at 0.75 -1.9625) (size 0.25 0.825) (layers F.Cu F.Paste F.Mask) (roundrect_rratio 0.25))
  (pad 19 smd roundrect (at 1.25 -1.9625) (size 0.25 0.825) (layers F.Cu F.Paste F.Mask) (roundrect_rratio 0.25))
  (pad 18 smd roundrect (at 1.9625 -1.25) (size 0.825 0.25) (layers F.Cu F.Paste F.Mask) (roundrect_rratio 0.25))
  (pad 17 smd roundrect (at 1.9625 -0.75) (size 0.825 0.25) (layers F.Cu F.Paste F.Mask) (roundrect_rratio 0.25))
  (pad 16 smd roundrect (at 1.9625 -0.25) (size 0.825 0.25) (layers F.Cu F.Paste F.Mask) (roundrect_rratio 0.25))
  (pad 15 smd roundrect (at 1.9625 0.25) (size 0.825 0.25) (layers F.Cu F.Paste F.Mask) (roundrect_rratio 0.25))
  (pad 14 smd roundrect (at 1.9625 0.75) (size 0.825 0.25) (layers F.Cu F.Paste F.Mask) (roundrect_rratio 0.25))
  (pad 13 smd roundrect (at 1.9625 1.25) (size 0.825 0.25) (layers F.Cu F.Paste F.Mask) (roundrect_rratio 0.25))
  (pad 12 smd roundrect (at 1.25 1.9625) (size 0.25 0.825) (layers F.Cu F.Paste F.Mask) (roundrect_rratio 0.25))
  (pad 11 smd roundrect (at 0.75 1.9625) (size 0.25 0.825) (layers F.Cu F.Paste F.Mask) (roundrect_rratio 0.25))
  (pad 10 smd roundrect (at 0.25 1.9625) (size 0.25 0.825) (layers F.Cu F.Paste F.Mask) (roundrect_rratio 0.25))
  (pad 9 smd roundrect (at -0.25 1.9625) (size 0.25 0.825) (layers F.Cu F.Paste F.Mask) (roundrect_rratio 0.25))
  (pad 8 smd roundrect (at -0.75 1.9625) (size 0.25 0.825) (layers F.Cu F.Paste F.Mask) (roundrect_rratio 0.25))
  (pad 7 smd roundrect (at -1.25 1.9625) (size 0.25 0.825) (layers F.Cu F.Paste F.Mask) (roundrect_rratio 0.25))
  (pad 6 smd roundrect (at -1.9625 1.25) (size 0.825 0.25) (layers F.Cu F.Paste F.Mask) (roundrect_rratio 0.25))
  (pad 5 smd roundrect (at -1.9625 0.75) (size 0.825 0.25) (layers F.Cu F.Paste F.Mask) (roundrect_rratio 0.25))
  (pad 4 smd roundrect (at -1.9625 0.25) (size 0.825 0.25) (layers F.Cu F.Paste F.Mask) (roundrect_rratio 0.25))
  (pad 3 smd roundrect (at -1.9625 -0.25) (size 0.825 0.25) (layers F.Cu F.Paste F.Mask) (roundrect_rratio 0.25))
  (pad 2 smd roundrect (at -1.9625 -0.75) (size 0.825 0.25) (layers F.Cu F.Paste F.Mask) (roundrect_rratio 0.25))
  (pad 1 smd roundrect (at -1.9625 -1.25) (size 0.825 0.25) (layers F.Cu F.Paste F.Mask) (roundrect_rratio 0.25))
  (model ${KISYS3DMOD}/Package_DFN_QFN.3dshapes/Texas_S-PWQFN-N24_EP2.7x2.7mm.wrl
    (at (xyz 0 0 0))
    (scale (xyz 1 1 1))
    (rotate (xyz 0 0 0))
  )
)
