(module Texas_S-PVQFN-N20_EP3.15x3.15mm_ThermalVias (layer F.Cu) (tedit 607E8FFD)
  (descr "QFN, 20 Pin (www.ti.com/lit/ds/symlink/tps7a7200.pdf#page=36), Alternate KiCad Library")
  (tags "QFN NoLead")
  (attr smd)
  (fp_text reference REF** (at 0 -3.82) (layer F.SilkS)
    (effects (font (size 1 1) (thickness 0.15)))
  )
  (fp_text value Texas_S-PVQFN-N20_EP3.15x3.15mm_ThermalVias (at 0 3.82) (layer F.Fab)
    (effects (font (size 1 1) (thickness 0.15)))
  )
  (fp_circle (center -3.048 -3.048) (end -2.9845 -3.048) (layer F.SilkS) (width 0.3))
  (fp_line (start 2.413 -3.1115) (end -2.667 -3.1115) (layer F.SilkS) (width 0.12))
  (fp_line (start -2.413 3.1115) (end 2.413 3.1115) (layer F.SilkS) (width 0.12))
  (fp_line (start 3.1115 2.032) (end 3.1115 -2.159) (layer F.SilkS) (width 0.12))
  (fp_line (start -3.1115 -2.2225) (end -3.1115 2.54) (layer F.SilkS) (width 0.12))
  (fp_line (start 3.12 -3.12) (end -3.12 -3.12) (layer F.CrtYd) (width 0.05))
  (fp_line (start 3.12 3.12) (end 3.12 -3.12) (layer F.CrtYd) (width 0.05))
  (fp_line (start -3.12 3.12) (end 3.12 3.12) (layer F.CrtYd) (width 0.05))
  (fp_line (start -3.12 -3.12) (end -3.12 3.12) (layer F.CrtYd) (width 0.05))
  (fp_line (start -2.5 -1.5) (end -1.5 -2.5) (layer F.Fab) (width 0.1))
  (fp_line (start -2.5 2.5) (end -2.5 -1.5) (layer F.Fab) (width 0.1))
  (fp_line (start 2.5 2.5) (end -2.5 2.5) (layer F.Fab) (width 0.1))
  (fp_line (start 2.5 -2.5) (end 2.5 2.5) (layer F.Fab) (width 0.1))
  (fp_line (start -1.5 -2.5) (end 2.5 -2.5) (layer F.Fab) (width 0.1))
  (fp_text user %R (at 0 0) (layer F.Fab)
    (effects (font (size 1 1) (thickness 0.15)))
  )
  (fp_text user 15 (at 2.921 -2.794 -90 unlocked) (layer F.SilkS)
    (effects (font (size 0.6 0.6) (thickness 0.12)))
  )
  (fp_text user 5 (at -2.9845 2.9845 -90 unlocked) (layer F.SilkS)
    (effects (font (size 0.6 0.6) (thickness 0.12)))
  )
  (fp_text user 10 (at 2.921 2.7305 -90 unlocked) (layer F.SilkS)
    (effects (font (size 0.6 0.6) (thickness 0.12)))
  )
  (fp_text user 1 (at -2.9845 -2.6035 -90 unlocked) (layer F.SilkS)
    (effects (font (size 0.6 0.6) (thickness 0.12)))
  )
  (pad "" smd custom (at 1.2875 1.2875) (size 0.342366 0.342366) (layers F.Paste)
    (options (clearance outline) (anchor circle))
    (primitives
      (gr_poly (pts
         (xy -0.115895 -0.012362) (xy -0.012362 -0.115895) (xy 0.115895 -0.115895) (xy 0.115895 0.115895) (xy -0.115895 0.115895)
) (width 0.23179))
    ))
  (pad "" smd custom (at 1.2875 -1.2875) (size 0.342366 0.342366) (layers F.Paste)
    (options (clearance outline) (anchor circle))
    (primitives
      (gr_poly (pts
         (xy -0.115895 -0.115895) (xy 0.115895 -0.115895) (xy 0.115895 0.115895) (xy -0.012362 0.115895) (xy -0.115895 0.012362)
) (width 0.23179))
    ))
  (pad "" smd custom (at -1.2875 1.2875) (size 0.342366 0.342366) (layers F.Paste)
    (options (clearance outline) (anchor circle))
    (primitives
      (gr_poly (pts
         (xy -0.115895 -0.115895) (xy 0.012362 -0.115895) (xy 0.115895 -0.012362) (xy 0.115895 0.115895) (xy -0.115895 0.115895)
) (width 0.23179))
    ))
  (pad "" smd custom (at -1.2875 -1.2875) (size 0.342366 0.342366) (layers F.Paste)
    (options (clearance outline) (anchor circle))
    (primitives
      (gr_poly (pts
         (xy -0.115895 -0.115895) (xy 0.115895 -0.115895) (xy 0.115895 0.012362) (xy 0.012362 0.115895) (xy -0.115895 0.115895)
) (width 0.23179))
    ))
  (pad "" smd custom (at 0.5 1.2875) (size 0.371482 0.371482) (layers F.Paste)
    (options (clearance outline) (anchor circle))
    (primitives
      (gr_poly (pts
         (xy -0.311015 -0.063396) (xy -0.234719 -0.139692) (xy 0.234719 -0.139692) (xy 0.311015 -0.063396) (xy 0.311015 0.139692)
         (xy -0.311015 0.139692)) (width 0.184195))
    ))
  (pad "" smd custom (at -0.5 1.2875) (size 0.371482 0.371482) (layers F.Paste)
    (options (clearance outline) (anchor circle))
    (primitives
      (gr_poly (pts
         (xy -0.311015 -0.063396) (xy -0.234719 -0.139692) (xy 0.234719 -0.139692) (xy 0.311015 -0.063396) (xy 0.311015 0.139692)
         (xy -0.311015 0.139692)) (width 0.184195))
    ))
  (pad "" smd custom (at 0.5 -1.2875) (size 0.371482 0.371482) (layers F.Paste)
    (options (clearance outline) (anchor circle))
    (primitives
      (gr_poly (pts
         (xy -0.311015 -0.139692) (xy 0.311015 -0.139692) (xy 0.311015 0.063396) (xy 0.234719 0.139692) (xy -0.234719 0.139692)
         (xy -0.311015 0.063396)) (width 0.184195))
    ))
  (pad "" smd custom (at -0.5 -1.2875) (size 0.371482 0.371482) (layers F.Paste)
    (options (clearance outline) (anchor circle))
    (primitives
      (gr_poly (pts
         (xy -0.311015 -0.139692) (xy 0.311015 -0.139692) (xy 0.311015 0.063396) (xy 0.234719 0.139692) (xy -0.234719 0.139692)
         (xy -0.311015 0.063396)) (width 0.184195))
    ))
  (pad "" smd custom (at 1.2875 0.5) (size 0.371482 0.371482) (layers F.Paste)
    (options (clearance outline) (anchor circle))
    (primitives
      (gr_poly (pts
         (xy -0.139692 -0.234719) (xy -0.063396 -0.311015) (xy 0.139692 -0.311015) (xy 0.139692 0.311015) (xy -0.063396 0.311015)
         (xy -0.139692 0.234719)) (width 0.184195))
    ))
  (pad "" smd custom (at 1.2875 -0.5) (size 0.371482 0.371482) (layers F.Paste)
    (options (clearance outline) (anchor circle))
    (primitives
      (gr_poly (pts
         (xy -0.139692 -0.234719) (xy -0.063396 -0.311015) (xy 0.139692 -0.311015) (xy 0.139692 0.311015) (xy -0.063396 0.311015)
         (xy -0.139692 0.234719)) (width 0.184195))
    ))
  (pad "" smd custom (at -1.2875 0.5) (size 0.371482 0.371482) (layers F.Paste)
    (options (clearance outline) (anchor circle))
    (primitives
      (gr_poly (pts
         (xy -0.139692 -0.311015) (xy 0.063396 -0.311015) (xy 0.139692 -0.234719) (xy 0.139692 0.234719) (xy 0.063396 0.311015)
         (xy -0.139692 0.311015)) (width 0.184195))
    ))
  (pad "" smd custom (at -1.2875 -0.5) (size 0.371482 0.371482) (layers F.Paste)
    (options (clearance outline) (anchor circle))
    (primitives
      (gr_poly (pts
         (xy -0.139692 -0.311015) (xy 0.063396 -0.311015) (xy 0.139692 -0.234719) (xy 0.139692 0.234719) (xy 0.063396 0.311015)
         (xy -0.139692 0.311015)) (width 0.184195))
    ))
  (pad "" smd roundrect (at 0.5 0.5) (size 0.806226 0.806226) (layers F.Paste) (roundrect_rratio 0.25))
  (pad "" smd roundrect (at 0.5 -0.5) (size 0.806226 0.806226) (layers F.Paste) (roundrect_rratio 0.25))
  (pad "" smd roundrect (at -0.5 0.5) (size 0.806226 0.806226) (layers F.Paste) (roundrect_rratio 0.25))
  (pad "" smd roundrect (at -0.5 -0.5) (size 0.806226 0.806226) (layers F.Paste) (roundrect_rratio 0.25))
  (pad 21 smd rect (at 0 0) (size 2.5 2.5) (layers B.Cu B.Mask))
  (pad 21 thru_hole circle (at 1 1) (size 0.5 0.5) (drill 0.2) (layers *.Cu))
  (pad 21 thru_hole circle (at 0 1) (size 0.5 0.5) (drill 0.2) (layers *.Cu))
  (pad 21 thru_hole circle (at -1 1) (size 0.5 0.5) (drill 0.2) (layers *.Cu))
  (pad 21 thru_hole circle (at 1 0) (size 0.5 0.5) (drill 0.2) (layers *.Cu))
  (pad 21 thru_hole circle (at 0 0) (size 0.5 0.5) (drill 0.2) (layers *.Cu))
  (pad 21 thru_hole circle (at -1 0) (size 0.5 0.5) (drill 0.2) (layers *.Cu))
  (pad 21 thru_hole circle (at 1 -1) (size 0.5 0.5) (drill 0.2) (layers *.Cu))
  (pad 21 thru_hole circle (at 0 -1) (size 0.5 0.5) (drill 0.2) (layers *.Cu))
  (pad 21 thru_hole circle (at -1 -1) (size 0.5 0.5) (drill 0.2) (layers *.Cu))
  (pad 21 smd rect (at 0 0) (size 3.15 3.15) (layers F.Cu F.Mask))
  (pad 20 smd roundrect (at -1.3 -2.3625) (size 0.35 1.025) (layers F.Cu F.Paste F.Mask) (roundrect_rratio 0.25))
  (pad 19 smd roundrect (at -0.65 -2.3625) (size 0.35 1.025) (layers F.Cu F.Paste F.Mask) (roundrect_rratio 0.25))
  (pad 18 smd roundrect (at 0 -2.3625) (size 0.35 1.025) (layers F.Cu F.Paste F.Mask) (roundrect_rratio 0.25))
  (pad 17 smd roundrect (at 0.65 -2.3625) (size 0.35 1.025) (layers F.Cu F.Paste F.Mask) (roundrect_rratio 0.25))
  (pad 16 smd roundrect (at 1.3 -2.3625) (size 0.35 1.025) (layers F.Cu F.Paste F.Mask) (roundrect_rratio 0.25))
  (pad 15 smd roundrect (at 2.3625 -1.3) (size 1.025 0.35) (layers F.Cu F.Paste F.Mask) (roundrect_rratio 0.25))
  (pad 14 smd roundrect (at 2.3625 -0.65) (size 1.025 0.35) (layers F.Cu F.Paste F.Mask) (roundrect_rratio 0.25))
  (pad 13 smd roundrect (at 2.3625 0) (size 1.025 0.35) (layers F.Cu F.Paste F.Mask) (roundrect_rratio 0.25))
  (pad 12 smd roundrect (at 2.3625 0.65) (size 1.025 0.35) (layers F.Cu F.Paste F.Mask) (roundrect_rratio 0.25))
  (pad 11 smd roundrect (at 2.3625 1.3) (size 1.025 0.35) (layers F.Cu F.Paste F.Mask) (roundrect_rratio 0.25))
  (pad 10 smd roundrect (at 1.3 2.3625) (size 0.35 1.025) (layers F.Cu F.Paste F.Mask) (roundrect_rratio 0.25))
  (pad 9 smd roundrect (at 0.65 2.3625) (size 0.35 1.025) (layers F.Cu F.Paste F.Mask) (roundrect_rratio 0.25))
  (pad 8 smd roundrect (at 0 2.3625) (size 0.35 1.025) (layers F.Cu F.Paste F.Mask) (roundrect_rratio 0.25))
  (pad 7 smd roundrect (at -0.65 2.3625) (size 0.35 1.025) (layers F.Cu F.Paste F.Mask) (roundrect_rratio 0.25))
  (pad 6 smd roundrect (at -1.3 2.3625) (size 0.35 1.025) (layers F.Cu F.Paste F.Mask) (roundrect_rratio 0.25))
  (pad 5 smd roundrect (at -2.3625 1.3) (size 1.025 0.35) (layers F.Cu F.Paste F.Mask) (roundrect_rratio 0.25))
  (pad 4 smd roundrect (at -2.3625 0.65) (size 1.025 0.35) (layers F.Cu F.Paste F.Mask) (roundrect_rratio 0.25))
  (pad 3 smd roundrect (at -2.3625 0) (size 1.025 0.35) (layers F.Cu F.Paste F.Mask) (roundrect_rratio 0.25))
  (pad 2 smd roundrect (at -2.3625 -0.65) (size 1.025 0.35) (layers F.Cu F.Paste F.Mask) (roundrect_rratio 0.25))
  (pad 1 smd roundrect (at -2.3625 -1.3) (size 1.025 0.35) (layers F.Cu F.Paste F.Mask) (roundrect_rratio 0.25))
  (model ${KISYS3DMOD}/Package_DFN_QFN.3dshapes/Texas_S-PVQFN-N20_EP3.15x3.15mm.wrl
    (at (xyz 0 0 0))
    (scale (xyz 1 1 1))
    (rotate (xyz 0 0 0))
  )
)
