(module Texas_S-PVQFN-N14 (layer F.Cu) (tedit 607E8FB4)
  (descr "Texas_S-PVQFN-N14  http://www.ti.com/lit/ds/symlink/txb0104.pdf, Alternate KiCad Library")
  (tags Texas_S-PVQFN-N14_4.3x4.3_Pitch0.5mm_ThermalPad)
  (attr smd)
  (fp_text reference REF** (at 0 -3.1115) (layer F.SilkS)
    (effects (font (size 1 1) (thickness 0.15)))
  )
  (fp_text value Texas_S-PVQFN-N14 (at 0 3.25) (layer F.Fab)
    (effects (font (size 1 1) (thickness 0.15)))
  )
  (fp_circle (center -2.2225 -2.2225) (end -2.159 -2.2225) (layer F.SilkS) (width 0.3))
  (fp_line (start 1.75 -1.75) (end 1.75 1.75) (layer F.Fab) (width 0.1))
  (fp_line (start -1.25 -1.75) (end 1.75 -1.75) (layer F.Fab) (width 0.1))
  (fp_line (start -1.75 1.75) (end -1.75 -1.25) (layer F.Fab) (width 0.1))
  (fp_line (start 1.75 1.75) (end -1.75 1.75) (layer F.Fab) (width 0.1))
  (fp_line (start -1.25 -1.75) (end -1.75 -1.25) (layer F.Fab) (width 0.1))
  (fp_line (start 2.4 -2.4) (end 2.4 2.4) (layer F.CrtYd) (width 0.05))
  (fp_line (start -2.4 -2.4) (end 2.4 -2.4) (layer F.CrtYd) (width 0.05))
  (fp_line (start -2.4 2.4) (end -2.4 -2.4) (layer F.CrtYd) (width 0.05))
  (fp_line (start 2.4 2.4) (end -2.4 2.4) (layer F.CrtYd) (width 0.05))
  (fp_line (start -2.413 -1.8415) (end -2.413 2.413) (layer F.SilkS) (width 0.12))
  (fp_line (start -2.413 2.413) (end 2.413 2.413) (layer F.SilkS) (width 0.12))
  (fp_line (start 2.413 2.413) (end 2.413 -2.413) (layer F.SilkS) (width 0.12))
  (fp_line (start 2.413 -2.413) (end -1.8415 -2.413) (layer F.SilkS) (width 0.12))
  (fp_text user %R (at 0 0) (layer F.Fab)
    (effects (font (size 0.8 0.8) (thickness 0.08)))
  )
  (pad 15 smd rect (at 0 0 270) (size 2.05 2.05) (layers F.Cu F.Mask))
  (pad "" smd rect (at 0.56 -0.56 270) (size 0.82 0.82) (layers F.Paste))
  (pad "" smd rect (at -0.56 -0.56 270) (size 0.82 0.82) (layers F.Paste))
  (pad "" smd rect (at -0.56 0.56 270) (size 0.82 0.82) (layers F.Paste))
  (pad "" smd rect (at 0.56 0.56 270) (size 0.82 0.82) (layers F.Paste))
  (pad 14 smd rect (at 0.75 -1.725 270) (size 0.85 0.28) (layers F.Cu F.Paste F.Mask))
  (pad 13 smd rect (at 1.725 -1 270) (size 0.28 0.85) (layers F.Cu F.Paste F.Mask))
  (pad 12 smd rect (at 1.725 -0.5 270) (size 0.28 0.85) (layers F.Cu F.Paste F.Mask))
  (pad 11 smd rect (at 1.725 0 270) (size 0.28 0.85) (layers F.Cu F.Paste F.Mask))
  (pad 10 smd rect (at 1.725 0.5 270) (size 0.28 0.85) (layers F.Cu F.Paste F.Mask))
  (pad 9 smd rect (at 1.725 1 270) (size 0.28 0.85) (layers F.Cu F.Paste F.Mask))
  (pad 8 smd rect (at 0.75 1.725 270) (size 0.85 0.28) (layers F.Cu F.Paste F.Mask))
  (pad 7 smd rect (at -0.75 1.725 270) (size 0.85 0.28) (layers F.Cu F.Paste F.Mask))
  (pad 6 smd rect (at -1.725 1 270) (size 0.28 0.85) (layers F.Cu F.Paste F.Mask))
  (pad 5 smd rect (at -1.725 0.5 270) (size 0.28 0.85) (layers F.Cu F.Paste F.Mask))
  (pad 4 smd rect (at -1.725 0 270) (size 0.28 0.85) (layers F.Cu F.Paste F.Mask))
  (pad 3 smd rect (at -1.725 -0.5 270) (size 0.28 0.85) (layers F.Cu F.Paste F.Mask))
  (pad 2 smd rect (at -1.725 -1 270) (size 0.28 0.85) (layers F.Cu F.Paste F.Mask))
  (pad 1 smd rect (at -0.75 -1.725 270) (size 0.85 0.28) (layers F.Cu F.Paste F.Mask))
  (model ${KISYS3DMOD}/Package_DFN_QFN.3dshapes/Texas_S-PVQFN-N14.wrl
    (at (xyz 0 0 0))
    (scale (xyz 1 1 1))
    (rotate (xyz 0 0 0))
  )
)
