(module Texas_QFN-41_10x16mm (layer F.Cu) (tedit 607E8F34)
  (descr "QFN, 41 Pin (http://www.ti.com/lit/ml/mpqf506/mpqf506.pdf), Alternate KiCad Library")
  (tags "QFN DFN_QFN")
  (attr smd)
  (fp_text reference REF** (at 0 -9.3) (layer F.SilkS)
    (effects (font (size 1 1) (thickness 0.15)))
  )
  (fp_text value Texas_QFN-41_10x16mm (at 0 9.7) (layer F.Fab)
    (effects (font (size 1 1) (thickness 0.15)))
  )
  (fp_line (start 5.5245 -8.509) (end -5.08 -8.509) (layer F.SilkS) (width 0.12))
  (fp_line (start 5.5245 8.509) (end 5.5245 -8.509) (layer F.SilkS) (width 0.12))
  (fp_line (start -5.5245 8.509) (end 5.5245 8.509) (layer F.SilkS) (width 0.12))
  (fp_line (start -5.5245 -8.0645) (end -5.5245 8.509) (layer F.SilkS) (width 0.12))
  (fp_line (start 5.5 -8.5) (end -5.5 -8.5) (layer F.CrtYd) (width 0.05))
  (fp_line (start 5.5 8.5) (end 5.5 -8.5) (layer F.CrtYd) (width 0.05))
  (fp_line (start -5.5 8.5) (end 5.5 8.5) (layer F.CrtYd) (width 0.05))
  (fp_line (start -5.5 -8.5) (end -5.5 8.5) (layer F.CrtYd) (width 0.05))
  (fp_line (start -5 -7) (end -4 -8) (layer F.Fab) (width 0.1))
  (fp_line (start -5 8) (end 5 8) (layer F.Fab) (width 0.1))
  (fp_line (start -4 -8) (end 5 -8) (layer F.Fab) (width 0.1))
  (fp_line (start -5 -7) (end -5 8) (layer F.Fab) (width 0.1))
  (fp_line (start 5 -8) (end 5 8) (layer F.Fab) (width 0.1))
  (fp_circle (center -5.3975 -8.382) (end -5.334 -8.382) (layer F.SilkS) (width 0.2))
  (fp_text user %R (at 0 0) (layer F.Fab)
    (effects (font (size 1 1) (thickness 0.15)))
  )
  (pad 41 smd roundrect (at 0.335 5.11) (size 1.85 2.02) (layers F.Cu F.Paste F.Mask) (roundrect_rratio 0.05400000000000001)
    (solder_mask_margin -0.05) (solder_paste_margin_ratio -0.08))
  (pad 40 smd roundrect (at 0.335 2.79) (size 1.85 2.02) (layers F.Cu F.Paste F.Mask) (roundrect_rratio 0.05400000000000001)
    (solder_mask_margin -0.05) (solder_paste_margin_ratio -0.08))
  (pad 39 smd roundrect (at 3.55 3.8) (size 1.2 1.1) (layers F.Cu F.Paste F.Mask) (roundrect_rratio 0.091)
    (solder_mask_margin -0.05) (solder_paste_margin_ratio -0.07000000000000001))
  (pad 38 smd roundrect (at 3.55 1.6) (size 1.2 1.1) (layers F.Cu F.Paste F.Mask) (roundrect_rratio 0.091)
    (solder_mask_margin -0.05) (solder_paste_margin_ratio -0.07000000000000001))
  (pad 37 smd roundrect (at 2.4 -2.4) (size 1.1 1.54) (layers F.Cu F.Paste F.Mask) (roundrect_rratio 0.091)
    (solder_mask_margin -0.05) (solder_paste_margin_ratio -0.07000000000000001))
  (pad 36 smd roundrect (at 2.4 -5.6) (size 1.1 1.54) (layers F.Cu F.Paste F.Mask) (roundrect_rratio 0.091)
    (solder_mask_margin -0.05) (solder_paste_margin_ratio -0.07000000000000001))
  (pad 35 smd roundrect (at 0 -2.4) (size 1.1 1.54) (layers F.Cu F.Paste F.Mask) (roundrect_rratio 0.091)
    (solder_mask_margin -0.05) (solder_paste_margin_ratio -0.07000000000000001))
  (pad 34 smd roundrect (at 0 -5.6) (size 1.1 1.54) (layers F.Cu F.Paste F.Mask) (roundrect_rratio 0.091)
    (solder_mask_margin -0.05) (solder_paste_margin_ratio -0.07000000000000001))
  (pad 33 smd roundrect (at -2.4 -2.4) (size 1.1 1.54) (layers F.Cu F.Paste F.Mask) (roundrect_rratio 0.091)
    (solder_mask_margin -0.05) (solder_paste_margin_ratio -0.07000000000000001))
  (pad 32 smd roundrect (at -2.4 -5.6) (size 1.1 1.54) (layers F.Cu F.Paste F.Mask) (roundrect_rratio 0.091)
    (solder_mask_margin -0.05) (solder_paste_margin_ratio -0.07000000000000001))
  (pad 31 smd custom (at -2.4 -7.635 270) (size 0.27 1.6) (layers F.Paste F.Mask)
    (zone_connect 0)
    (options (clearance outline) (anchor rect))
    (primitives
      (gr_poly (pts
         (xy 0.035 -0.1) (xy -0.465 -0.1) (xy -0.465 0.1) (xy 0.035 0.1)) (width 0.2))
      (gr_poly (pts
         (xy 0.035 -0.7) (xy -0.465 -0.7) (xy -0.465 -0.9) (xy 0.035 -0.9)) (width 0.2))
      (gr_arc (start -0.235 -0.3) (end -0.235 -0.1) (angle -90) (width 0.2))
      (gr_arc (start -0.235 -0.5) (end -0.235 -0.7) (angle 90) (width 0.2))
      (gr_poly (pts
         (xy 0.035 0.7) (xy -0.465 0.7) (xy -0.465 0.9) (xy 0.035 0.9)) (width 0.2))
      (gr_arc (start -0.235 0.3) (end -0.235 0.1) (angle 90) (width 0.2))
      (gr_arc (start -0.235 0.5) (end -0.235 0.7) (angle -90) (width 0.2))
    ))
  (pad 31 smd roundrect (at -2.4 -7.85 270) (size 0.8 2.1) (layers F.Cu) (roundrect_rratio 0.125)
    (zone_connect 0))
  (pad 30 smd custom (at 0 -7.635 270) (size 0.27 1.6) (layers F.Paste F.Mask)
    (zone_connect 0)
    (options (clearance outline) (anchor rect))
    (primitives
      (gr_poly (pts
         (xy 0.035 -0.1) (xy -0.465 -0.1) (xy -0.465 0.1) (xy 0.035 0.1)) (width 0.2))
      (gr_poly (pts
         (xy 0.035 -0.7) (xy -0.465 -0.7) (xy -0.465 -0.9) (xy 0.035 -0.9)) (width 0.2))
      (gr_arc (start -0.235 -0.3) (end -0.235 -0.1) (angle -90) (width 0.2))
      (gr_arc (start -0.235 -0.5) (end -0.235 -0.7) (angle 90) (width 0.2))
      (gr_poly (pts
         (xy 0.035 0.7) (xy -0.465 0.7) (xy -0.465 0.9) (xy 0.035 0.9)) (width 0.2))
      (gr_arc (start -0.235 0.3) (end -0.235 0.1) (angle 90) (width 0.2))
      (gr_arc (start -0.235 0.5) (end -0.235 0.7) (angle -90) (width 0.2))
    ))
  (pad 30 smd roundrect (at 0 -7.85 270) (size 0.8 2.1) (layers F.Cu) (roundrect_rratio 0.125)
    (zone_connect 0))
  (pad 29 smd custom (at 2.4 -7.635 270) (size 0.27 1.6) (layers F.Paste F.Mask)
    (zone_connect 0)
    (options (clearance outline) (anchor rect))
    (primitives
      (gr_poly (pts
         (xy 0.035 -0.1) (xy -0.465 -0.1) (xy -0.465 0.1) (xy 0.035 0.1)) (width 0.2))
      (gr_poly (pts
         (xy 0.035 -0.7) (xy -0.465 -0.7) (xy -0.465 -0.9) (xy 0.035 -0.9)) (width 0.2))
      (gr_arc (start -0.235 -0.3) (end -0.235 -0.1) (angle -90) (width 0.2))
      (gr_arc (start -0.235 -0.5) (end -0.235 -0.7) (angle 90) (width 0.2))
      (gr_poly (pts
         (xy 0.035 0.7) (xy -0.465 0.7) (xy -0.465 0.9) (xy 0.035 0.9)) (width 0.2))
      (gr_arc (start -0.235 0.3) (end -0.235 0.1) (angle 90) (width 0.2))
      (gr_arc (start -0.235 0.5) (end -0.235 0.7) (angle -90) (width 0.2))
    ))
  (pad 29 smd roundrect (at 2.4 -7.85 270) (size 0.8 2.1) (layers F.Cu) (roundrect_rratio 0.125)
    (zone_connect 0))
  (pad "" smd custom (at 4.285 -7.185 180) (size 0.87 0.87) (layers F.Paste)
    (zone_connect 0)
    (options (clearance outline) (anchor rect))
    (primitives
      (gr_poly (pts
         (xy -0.81 -0.285) (xy -0.81 -0.485) (xy 0.385 -0.485) (xy 0.385 0.375) (xy -0.385 0.375)
         (xy -0.385 -0.285)) (width 0.2))
      (gr_arc (start -0.585 -0.085) (end -0.585 -0.285) (angle 90) (width 0.2))
    ))
  (pad 28 smd custom (at 4.285 -7.185 180) (size 0.87 1.07) (layers F.Mask)
    (zone_connect 0)
    (options (clearance outline) (anchor rect))
    (primitives
      (gr_poly (pts
         (xy -0.81 -0.285) (xy -0.81 -0.485) (xy 0.385 -0.485) (xy 0.385 0.485) (xy -0.385 0.485)
         (xy -0.385 -0.285)) (width 0.2))
      (gr_arc (start -0.585 -0.085) (end -0.585 -0.285) (angle 90) (width 0.2))
    ))
  (pad 28 smd roundrect (at 4.5 -7.185 180) (size 1.5 1.27) (layers F.Cu) (roundrect_rratio 0.079)
    (zone_connect 0))
  (pad 27 smd custom (at 4.635 -5.6 180) (size 0.27 0.6) (layers F.Paste F.Mask)
    (zone_connect 0)
    (options (clearance outline) (anchor rect))
    (primitives
      (gr_poly (pts
         (xy 0.035 0.3) (xy -0.465 0.3) (xy -0.465 0.5) (xy 0.035 0.5)) (width 0.2))
      (gr_poly (pts
         (xy 0.035 -0.3) (xy -0.465 -0.3) (xy -0.465 -0.5) (xy 0.035 -0.5)) (width 0.2))
      (gr_arc (start -0.235 0.1) (end -0.235 0.3) (angle -90) (width 0.2))
      (gr_arc (start -0.235 -0.1) (end -0.235 -0.3) (angle 90) (width 0.2))
    ))
  (pad 27 smd roundrect (at 4.85 -5.6 180) (size 0.8 1.3) (layers F.Cu) (roundrect_rratio 0.125)
    (zone_connect 0))
  (pad 26 smd custom (at 4.635 -4 180) (size 0.27 0.6) (layers F.Paste F.Mask)
    (zone_connect 0)
    (options (clearance outline) (anchor rect))
    (primitives
      (gr_poly (pts
         (xy 0.035 0.3) (xy -0.465 0.3) (xy -0.465 0.5) (xy 0.035 0.5)) (width 0.2))
      (gr_poly (pts
         (xy 0.035 -0.3) (xy -0.465 -0.3) (xy -0.465 -0.5) (xy 0.035 -0.5)) (width 0.2))
      (gr_arc (start -0.235 0.1) (end -0.235 0.3) (angle -90) (width 0.2))
      (gr_arc (start -0.235 -0.1) (end -0.235 -0.3) (angle 90) (width 0.2))
    ))
  (pad 26 smd roundrect (at 4.85 -4 180) (size 0.8 1.3) (layers F.Cu) (roundrect_rratio 0.125)
    (zone_connect 0))
  (pad 25 smd custom (at 4.635 -2.4 180) (size 0.27 0.6) (layers F.Paste F.Mask)
    (zone_connect 0)
    (options (clearance outline) (anchor rect))
    (primitives
      (gr_poly (pts
         (xy 0.035 0.3) (xy -0.465 0.3) (xy -0.465 0.5) (xy 0.035 0.5)) (width 0.2))
      (gr_poly (pts
         (xy 0.035 -0.3) (xy -0.465 -0.3) (xy -0.465 -0.5) (xy 0.035 -0.5)) (width 0.2))
      (gr_arc (start -0.235 0.1) (end -0.235 0.3) (angle -90) (width 0.2))
      (gr_arc (start -0.235 -0.1) (end -0.235 -0.3) (angle 90) (width 0.2))
    ))
  (pad 25 smd roundrect (at 4.85 -2.4 180) (size 0.8 1.3) (layers F.Cu) (roundrect_rratio 0.125)
    (zone_connect 0))
  (pad 24 smd custom (at 4.635 -0.8 180) (size 0.27 0.6) (layers F.Paste F.Mask)
    (zone_connect 0)
    (options (clearance outline) (anchor rect))
    (primitives
      (gr_poly (pts
         (xy 0.035 0.3) (xy -0.465 0.3) (xy -0.465 0.5) (xy 0.035 0.5)) (width 0.2))
      (gr_poly (pts
         (xy 0.035 -0.3) (xy -0.465 -0.3) (xy -0.465 -0.5) (xy 0.035 -0.5)) (width 0.2))
      (gr_arc (start -0.235 0.1) (end -0.235 0.3) (angle -90) (width 0.2))
      (gr_arc (start -0.235 -0.1) (end -0.235 -0.3) (angle 90) (width 0.2))
    ))
  (pad 24 smd roundrect (at 4.85 -0.8 180) (size 0.8 1.3) (layers F.Cu) (roundrect_rratio 0.125)
    (zone_connect 0))
  (pad 23 smd custom (at 4.635 1.6 180) (size 0.27 1.6) (layers F.Paste F.Mask)
    (zone_connect 0)
    (options (clearance outline) (anchor rect))
    (primitives
      (gr_poly (pts
         (xy 0.035 -0.1) (xy -0.465 -0.1) (xy -0.465 0.1) (xy 0.035 0.1)) (width 0.2))
      (gr_poly (pts
         (xy 0.035 -0.7) (xy -0.465 -0.7) (xy -0.465 -0.9) (xy 0.035 -0.9)) (width 0.2))
      (gr_arc (start -0.235 -0.3) (end -0.235 -0.1) (angle -90) (width 0.2))
      (gr_arc (start -0.235 -0.5) (end -0.235 -0.7) (angle 90) (width 0.2))
      (gr_poly (pts
         (xy 0.035 0.7) (xy -0.465 0.7) (xy -0.465 0.9) (xy 0.035 0.9)) (width 0.2))
      (gr_arc (start -0.235 0.3) (end -0.235 0.1) (angle 90) (width 0.2))
      (gr_arc (start -0.235 0.5) (end -0.235 0.7) (angle -90) (width 0.2))
    ))
  (pad 23 smd roundrect (at 4.85 1.6 180) (size 0.8 2.1) (layers F.Cu) (roundrect_rratio 0.125)
    (zone_connect 0))
  (pad 22 smd custom (at 4.635 3.8 180) (size 0.27 0.6) (layers F.Paste F.Mask)
    (zone_connect 0)
    (options (clearance outline) (anchor rect))
    (primitives
      (gr_poly (pts
         (xy 0.035 0.3) (xy -0.465 0.3) (xy -0.465 0.5) (xy 0.035 0.5)) (width 0.2))
      (gr_poly (pts
         (xy 0.035 -0.3) (xy -0.465 -0.3) (xy -0.465 -0.5) (xy 0.035 -0.5)) (width 0.2))
      (gr_arc (start -0.235 0.1) (end -0.235 0.3) (angle -90) (width 0.2))
      (gr_arc (start -0.235 -0.1) (end -0.235 -0.3) (angle 90) (width 0.2))
    ))
  (pad 22 smd roundrect (at 4.85 3.8 180) (size 0.8 1.3) (layers F.Cu) (roundrect_rratio 0.125)
    (zone_connect 0))
  (pad 21 smd roundrect (at 4.85 5.2) (size 0.8 0.5) (layers F.Cu F.Paste F.Mask) (roundrect_rratio 0.2)
    (solder_mask_margin -0.05) (solder_paste_margin -0.05))
  (pad 20 smd roundrect (at 4.85 6) (size 0.8 0.5) (layers F.Cu F.Paste F.Mask) (roundrect_rratio 0.2)
    (solder_mask_margin -0.05) (solder_paste_margin -0.05))
  (pad "" smd custom (at 4.285 7.185 180) (size 0.87 0.87) (layers F.Paste)
    (zone_connect 0)
    (options (clearance outline) (anchor rect))
    (primitives
      (gr_poly (pts
         (xy -0.81 0.285) (xy -0.81 0.485) (xy 0.385 0.485) (xy 0.385 -0.375) (xy -0.385 -0.375)
         (xy -0.385 0.285)) (width 0.2))
      (gr_arc (start -0.585 0.085) (end -0.585 0.285) (angle -90) (width 0.2))
    ))
  (pad 19 smd custom (at 4.285 7.185 180) (size 0.87 1.07) (layers F.Mask)
    (zone_connect 0)
    (options (clearance outline) (anchor rect))
    (primitives
      (gr_poly (pts
         (xy -0.81 0.285) (xy -0.81 0.485) (xy 0.385 0.485) (xy 0.385 -0.485) (xy -0.385 -0.485)
         (xy -0.385 0.285)) (width 0.2))
      (gr_arc (start -0.585 0.085) (end -0.585 0.285) (angle -90) (width 0.2))
    ))
  (pad 19 smd roundrect (at 4.5 7.185 180) (size 1.5 1.27) (layers F.Cu) (roundrect_rratio 0.079)
    (zone_connect 0))
  (pad 18 smd roundrect (at 3.2 7.85 90) (size 0.8 0.5) (layers F.Cu F.Paste F.Mask) (roundrect_rratio 0.2)
    (solder_mask_margin -0.05) (solder_paste_margin -0.05))
  (pad 17 smd roundrect (at 2.4 7.85 90) (size 0.8 0.5) (layers F.Cu F.Paste F.Mask) (roundrect_rratio 0.2)
    (solder_mask_margin -0.05) (solder_paste_margin -0.05))
  (pad 16 smd custom (at 0.8 7.635 90) (size 0.27 1.6) (layers F.Paste F.Mask)
    (zone_connect 0)
    (options (clearance outline) (anchor rect))
    (primitives
      (gr_poly (pts
         (xy 0.035 -0.1) (xy -0.465 -0.1) (xy -0.465 0.1) (xy 0.035 0.1)) (width 0.2))
      (gr_poly (pts
         (xy 0.035 -0.7) (xy -0.465 -0.7) (xy -0.465 -0.9) (xy 0.035 -0.9)) (width 0.2))
      (gr_arc (start -0.235 -0.3) (end -0.235 -0.1) (angle -90) (width 0.2))
      (gr_arc (start -0.235 -0.5) (end -0.235 -0.7) (angle 90) (width 0.2))
      (gr_poly (pts
         (xy 0.035 0.7) (xy -0.465 0.7) (xy -0.465 0.9) (xy 0.035 0.9)) (width 0.2))
      (gr_arc (start -0.235 0.3) (end -0.235 0.1) (angle 90) (width 0.2))
      (gr_arc (start -0.235 0.5) (end -0.235 0.7) (angle -90) (width 0.2))
    ))
  (pad 16 smd roundrect (at 0.8 7.85 90) (size 0.8 2.1) (layers F.Cu) (roundrect_rratio 0.125)
    (zone_connect 0))
  (pad 15 smd roundrect (at -0.8 7.85 90) (size 0.8 0.5) (layers F.Cu F.Paste F.Mask) (roundrect_rratio 0.2)
    (solder_mask_margin -0.05) (solder_paste_margin -0.05))
  (pad 14 smd roundrect (at -1.6 7.85 90) (size 0.8 0.5) (layers F.Cu F.Paste F.Mask) (roundrect_rratio 0.2)
    (solder_mask_margin -0.05) (solder_paste_margin -0.05))
  (pad 13 smd roundrect (at -2.4 7.85 90) (size 0.8 0.5) (layers F.Cu F.Paste F.Mask) (roundrect_rratio 0.2)
    (solder_mask_margin -0.05) (solder_paste_margin -0.05))
  (pad 12 smd roundrect (at -3.2 7.85 90) (size 0.8 0.5) (layers F.Cu F.Paste F.Mask) (roundrect_rratio 0.2)
    (solder_mask_margin -0.05) (solder_paste_margin -0.05))
  (pad "" smd custom (at -4.285 7.185) (size 0.87 0.87) (layers F.Paste)
    (zone_connect 0)
    (options (clearance outline) (anchor rect))
    (primitives
      (gr_poly (pts
         (xy -0.81 -0.285) (xy -0.81 -0.485) (xy 0.385 -0.485) (xy 0.385 0.375) (xy -0.385 0.375)
         (xy -0.385 -0.285)) (width 0.2))
      (gr_arc (start -0.585 -0.085) (end -0.585 -0.285) (angle 90) (width 0.2))
    ))
  (pad 11 smd custom (at -4.285 7.185) (size 0.87 1.07) (layers F.Mask)
    (zone_connect 0)
    (options (clearance outline) (anchor rect))
    (primitives
      (gr_poly (pts
         (xy -0.81 -0.285) (xy -0.81 -0.485) (xy 0.385 -0.485) (xy 0.385 0.485) (xy -0.385 0.485)
         (xy -0.385 -0.285)) (width 0.2))
      (gr_arc (start -0.585 -0.085) (end -0.585 -0.285) (angle 90) (width 0.2))
    ))
  (pad 11 smd roundrect (at -4.5 7.185) (size 1.5 1.27) (layers F.Cu) (roundrect_rratio 0.079)
    (zone_connect 0))
  (pad 10 smd custom (at -4.635 5.6) (size 0.27 0.6) (layers F.Paste F.Mask)
    (zone_connect 0)
    (options (clearance outline) (anchor rect))
    (primitives
      (gr_poly (pts
         (xy 0.035 0.3) (xy -0.465 0.3) (xy -0.465 0.5) (xy 0.035 0.5)) (width 0.2))
      (gr_poly (pts
         (xy 0.035 -0.3) (xy -0.465 -0.3) (xy -0.465 -0.5) (xy 0.035 -0.5)) (width 0.2))
      (gr_arc (start -0.235 0.1) (end -0.235 0.3) (angle -90) (width 0.2))
      (gr_arc (start -0.235 -0.1) (end -0.235 -0.3) (angle 90) (width 0.2))
    ))
  (pad 10 smd roundrect (at -4.85 5.6) (size 0.8 1.3) (layers F.Cu) (roundrect_rratio 0.125)
    (zone_connect 0))
  (pad 9 smd roundrect (at -4.85 4.2) (size 0.8 0.5) (layers F.Cu F.Paste F.Mask) (roundrect_rratio 0.2)
    (solder_mask_margin -0.05) (solder_paste_margin -0.05))
  (pad 8 smd roundrect (at -4.85 3.4) (size 0.8 0.5) (layers F.Cu F.Paste F.Mask) (roundrect_rratio 0.2)
    (solder_mask_margin -0.05) (solder_paste_margin -0.05))
  (pad 7 smd roundrect (at -4.85 2.4) (size 0.8 0.5) (layers F.Cu F.Paste F.Mask) (roundrect_rratio 0.2)
    (solder_mask_margin -0.05) (solder_paste_margin -0.05))
  (pad 6 smd custom (at -4.635 1.2) (size 0.27 0.6) (layers F.Paste F.Mask)
    (zone_connect 0)
    (options (clearance outline) (anchor rect))
    (primitives
      (gr_poly (pts
         (xy 0.035 0.3) (xy -0.465 0.3) (xy -0.465 0.5) (xy 0.035 0.5)) (width 0.2))
      (gr_poly (pts
         (xy 0.035 -0.3) (xy -0.465 -0.3) (xy -0.465 -0.5) (xy 0.035 -0.5)) (width 0.2))
      (gr_arc (start -0.235 0.1) (end -0.235 0.3) (angle -90) (width 0.2))
      (gr_arc (start -0.235 -0.1) (end -0.235 -0.3) (angle 90) (width 0.2))
    ))
  (pad 6 smd roundrect (at -4.85 1.2) (size 0.8 1.3) (layers F.Cu) (roundrect_rratio 0.125)
    (zone_connect 0))
  (pad 5 smd custom (at -4.635 -0.8) (size 0.27 0.6) (layers F.Paste F.Mask)
    (zone_connect 0)
    (options (clearance outline) (anchor rect))
    (primitives
      (gr_poly (pts
         (xy 0.035 0.3) (xy -0.465 0.3) (xy -0.465 0.5) (xy 0.035 0.5)) (width 0.2))
      (gr_poly (pts
         (xy 0.035 -0.3) (xy -0.465 -0.3) (xy -0.465 -0.5) (xy 0.035 -0.5)) (width 0.2))
      (gr_arc (start -0.235 0.1) (end -0.235 0.3) (angle -90) (width 0.2))
      (gr_arc (start -0.235 -0.1) (end -0.235 -0.3) (angle 90) (width 0.2))
    ))
  (pad 5 smd roundrect (at -4.85 -0.8) (size 0.8 1.3) (layers F.Cu) (roundrect_rratio 0.125)
    (zone_connect 0))
  (pad 4 smd custom (at -4.635 -2.4) (size 0.27 0.6) (layers F.Paste F.Mask)
    (zone_connect 0)
    (options (clearance outline) (anchor rect))
    (primitives
      (gr_poly (pts
         (xy 0.035 0.3) (xy -0.465 0.3) (xy -0.465 0.5) (xy 0.035 0.5)) (width 0.2))
      (gr_poly (pts
         (xy 0.035 -0.3) (xy -0.465 -0.3) (xy -0.465 -0.5) (xy 0.035 -0.5)) (width 0.2))
      (gr_arc (start -0.235 0.1) (end -0.235 0.3) (angle -90) (width 0.2))
      (gr_arc (start -0.235 -0.1) (end -0.235 -0.3) (angle 90) (width 0.2))
    ))
  (pad 4 smd roundrect (at -4.85 -2.4) (size 0.8 1.3) (layers F.Cu) (roundrect_rratio 0.125)
    (zone_connect 0))
  (pad 3 smd custom (at -4.635 -4) (size 0.27 0.6) (layers F.Paste F.Mask)
    (zone_connect 0)
    (options (clearance outline) (anchor rect))
    (primitives
      (gr_poly (pts
         (xy 0.035 0.3) (xy -0.465 0.3) (xy -0.465 0.5) (xy 0.035 0.5)) (width 0.2))
      (gr_poly (pts
         (xy 0.035 -0.3) (xy -0.465 -0.3) (xy -0.465 -0.5) (xy 0.035 -0.5)) (width 0.2))
      (gr_arc (start -0.235 0.1) (end -0.235 0.3) (angle -90) (width 0.2))
      (gr_arc (start -0.235 -0.1) (end -0.235 -0.3) (angle 90) (width 0.2))
    ))
  (pad 3 smd roundrect (at -4.85 -4) (size 0.8 1.3) (layers F.Cu) (roundrect_rratio 0.125)
    (zone_connect 0))
  (pad 2 smd custom (at -4.635 -5.6) (size 0.27 0.6) (layers F.Paste F.Mask)
    (zone_connect 0)
    (options (clearance outline) (anchor rect))
    (primitives
      (gr_poly (pts
         (xy 0.035 0.3) (xy -0.465 0.3) (xy -0.465 0.5) (xy 0.035 0.5)) (width 0.2))
      (gr_poly (pts
         (xy 0.035 -0.3) (xy -0.465 -0.3) (xy -0.465 -0.5) (xy 0.035 -0.5)) (width 0.2))
      (gr_arc (start -0.235 0.1) (end -0.235 0.3) (angle -90) (width 0.2))
      (gr_arc (start -0.235 -0.1) (end -0.235 -0.3) (angle 90) (width 0.2))
    ))
  (pad 2 smd roundrect (at -4.85 -5.6) (size 0.8 1.3) (layers F.Cu) (roundrect_rratio 0.125)
    (zone_connect 0))
  (pad "" smd custom (at -4.285 -7.185) (size 0.87 0.87) (layers F.Paste)
    (zone_connect 0)
    (options (clearance outline) (anchor rect))
    (primitives
      (gr_poly (pts
         (xy -0.81 0.285) (xy -0.81 0.485) (xy 0.385 0.485) (xy 0.385 -0.375) (xy -0.385 -0.375)
         (xy -0.385 0.285)) (width 0.2))
      (gr_arc (start -0.585 0.085) (end -0.585 0.285) (angle -90) (width 0.2))
    ))
  (pad 1 smd custom (at -4.285 -7.185) (size 0.87 1.07) (layers F.Mask)
    (zone_connect 0)
    (options (clearance outline) (anchor rect))
    (primitives
      (gr_poly (pts
         (xy -0.81 0.285) (xy -0.81 0.485) (xy 0.385 0.485) (xy 0.385 -0.485) (xy -0.385 -0.485)
         (xy -0.385 0.285)) (width 0.2))
      (gr_arc (start -0.585 0.085) (end -0.585 0.285) (angle -90) (width 0.2))
    ))
  (pad 1 smd roundrect (at -4.5 -7.185) (size 1.5 1.27) (layers F.Cu) (roundrect_rratio 0.079)
    (zone_connect 0))
  (model ${KISYS3DMOD}/Package_DFN_QFN.3dshapes/Texas_QFN-41_10x16mm.wrl
    (at (xyz 0 0 0))
    (scale (xyz 1 1 1))
    (rotate (xyz 0 0 0))
  )
)
