(module Texas_RWH0032A_ThermalVias (layer F.Cu) (tedit 607E8F9D)
  (descr "Texas Instruments, RWH0032A, 8x8x0.9mm (http://www.ti.com/lit/ds/snosd10c/snosd10c.pdf), Alternate KiCad Library")
  (tags "ti rwh0032a")
  (solder_mask_margin -0.05)
  (attr smd)
  (fp_text reference REF** (at 0 -5.2) (layer F.SilkS)
    (effects (font (size 1 1) (thickness 0.15)))
  )
  (fp_text value Texas_RWH0032A_ThermalVias (at 0 5.2) (layer F.Fab)
    (effects (font (size 1 1) (thickness 0.15)))
  )
  (fp_line (start -4.5085 -4.0005) (end -4.5085 4.5085) (layer F.SilkS) (width 0.12))
  (fp_line (start 4.5085 4.5085) (end 4.5085 -4.5085) (layer F.SilkS) (width 0.12))
  (fp_line (start 4.5085 -4.5085) (end -4.0005 -4.5085) (layer F.SilkS) (width 0.12))
  (fp_line (start -4.5085 4.5085) (end 4.5085 4.5085) (layer F.SilkS) (width 0.12))
  (fp_circle (center -4.318 -4.318) (end -4.2545 -4.318) (layer F.SilkS) (width 0.3))
  (fp_line (start -3 -4) (end 4 -4) (layer F.Fab) (width 0.1))
  (fp_line (start 4 -4) (end 4 4) (layer F.Fab) (width 0.1))
  (fp_line (start 4 4) (end -4 4) (layer F.Fab) (width 0.1))
  (fp_line (start -4 4) (end -4 -3) (layer F.Fab) (width 0.1))
  (fp_line (start -4.45 -4.45) (end 4.45 -4.45) (layer F.CrtYd) (width 0.05))
  (fp_line (start 4.45 -4.45) (end 4.45 4.45) (layer F.CrtYd) (width 0.05))
  (fp_line (start 4.45 4.45) (end -4.45 4.45) (layer F.CrtYd) (width 0.05))
  (fp_line (start -4.45 4.45) (end -4.45 -4.45) (layer F.CrtYd) (width 0.05))
  (fp_line (start -3 -4) (end -4 -3) (layer F.Fab) (width 0.1))
  (fp_text user %R (at 0 0) (layer F.Fab)
    (effects (font (size 1 1) (thickness 0.15)))
  )
  (pad "" smd roundrect (at 2.9 3.8) (size 0.6 0.76) (layers F.Paste) (roundrect_rratio 0.08400000000000001))
  (pad "" smd roundrect (at 0.05 3.8) (size 0.6 0.76) (layers F.Paste) (roundrect_rratio 0.08400000000000001))
  (pad "" smd roundrect (at 2.9 -3.8) (size 0.6 0.76) (layers F.Paste) (roundrect_rratio 0.08400000000000001))
  (pad "" smd roundrect (at 0.05 -3.8) (size 0.6 0.76) (layers F.Paste) (roundrect_rratio 0.08400000000000001))
  (pad "" smd roundrect (at 2.1 3.8) (size 0.4 0.76) (layers F.Paste) (roundrect_rratio 0.125))
  (pad "" smd roundrect (at 1.45 3.8) (size 0.4 0.76) (layers F.Paste) (roundrect_rratio 0.125))
  (pad "" smd roundrect (at 0.8 3.8) (size 0.4 0.76) (layers F.Paste) (roundrect_rratio 0.125))
  (pad "" smd roundrect (at 2.1 -3.8) (size 0.4 0.76) (layers F.Paste) (roundrect_rratio 0.125))
  (pad "" smd roundrect (at 1.45 -3.8) (size 0.4 0.76) (layers F.Paste) (roundrect_rratio 0.125))
  (pad "" smd roundrect (at 0.8 -3.8) (size 0.4 0.76) (layers F.Paste) (roundrect_rratio 0.125))
  (pad "" smd roundrect (at 3.8 2.6) (size 0.76 0.4) (layers F.Paste) (roundrect_rratio 0.125))
  (pad "" smd roundrect (at -3.8 2.6) (size 0.76 0.4) (layers F.Paste) (roundrect_rratio 0.125))
  (pad "" smd roundrect (at 3.8 1.95) (size 0.76 0.4) (layers F.Paste) (roundrect_rratio 0.125))
  (pad "" smd roundrect (at -3.8 1.95) (size 0.76 0.4) (layers F.Paste) (roundrect_rratio 0.125))
  (pad "" smd roundrect (at 3.8 1.3) (size 0.76 0.4) (layers F.Paste) (roundrect_rratio 0.125))
  (pad "" smd roundrect (at -3.8 1.3) (size 0.76 0.4) (layers F.Paste) (roundrect_rratio 0.125))
  (pad "" smd roundrect (at 3.8 0.65) (size 0.76 0.4) (layers F.Paste) (roundrect_rratio 0.125))
  (pad "" smd roundrect (at -3.8 0.65) (size 0.76 0.4) (layers F.Paste) (roundrect_rratio 0.125))
  (pad "" smd roundrect (at 3.8 0) (size 0.76 0.4) (layers F.Paste) (roundrect_rratio 0.125))
  (pad "" smd roundrect (at -3.8 0) (size 0.76 0.4) (layers F.Paste) (roundrect_rratio 0.125))
  (pad "" smd roundrect (at 3.8 -0.65) (size 0.76 0.4) (layers F.Paste) (roundrect_rratio 0.125))
  (pad "" smd roundrect (at -3.8 -0.65) (size 0.76 0.4) (layers F.Paste) (roundrect_rratio 0.125))
  (pad "" smd roundrect (at 3.8 -1.3) (size 0.76 0.4) (layers F.Paste) (roundrect_rratio 0.125))
  (pad "" smd roundrect (at -3.8 -1.3) (size 0.76 0.4) (layers F.Paste) (roundrect_rratio 0.125))
  (pad "" smd roundrect (at 3.8 -1.95) (size 0.76 0.4) (layers F.Paste) (roundrect_rratio 0.125))
  (pad "" smd roundrect (at -3.8 -1.95) (size 0.76 0.4) (layers F.Paste) (roundrect_rratio 0.125))
  (pad "" smd roundrect (at 3.8 -2.6) (size 0.76 0.4) (layers F.Paste) (roundrect_rratio 0.125))
  (pad "" smd roundrect (at -3.8 -2.6) (size 0.76 0.4) (layers F.Paste) (roundrect_rratio 0.125))
  (pad "" smd roundrect (at 0.325 -2.38) (size 1.6 0.99) (layers F.Paste) (roundrect_rratio 0.051))
  (pad "" smd roundrect (at 0.325 -1.19) (size 1.6 0.99) (layers F.Paste) (roundrect_rratio 0.051))
  (pad "" smd roundrect (at 2.125 -2.38) (size 1.6 0.99) (layers F.Paste) (roundrect_rratio 0.051))
  (pad "" smd roundrect (at 2.125 -1.19) (size 1.6 0.99) (layers F.Paste) (roundrect_rratio 0.051))
  (pad "" smd roundrect (at 2.125 2.38) (size 1.6 0.99) (layers F.Paste) (roundrect_rratio 0.051))
  (pad "" smd roundrect (at 2.125 1.19) (size 1.6 0.99) (layers F.Paste) (roundrect_rratio 0.051))
  (pad "" smd roundrect (at 0.325 2.38) (size 1.6 0.99) (layers F.Paste) (roundrect_rratio 0.051))
  (pad "" smd roundrect (at 0.325 1.19) (size 1.6 0.99) (layers F.Paste) (roundrect_rratio 0.051))
  (pad "" smd roundrect (at 2.125 0) (size 1.6 0.99) (layers F.Paste) (roundrect_rratio 0.051))
  (pad "" smd roundrect (at 0.325 0) (size 1.6 0.99) (layers F.Paste) (roundrect_rratio 0.051))
  (pad 33 thru_hole circle (at 1.225 -2.835) (size 0.5 0.5) (drill 0.2) (layers *.Cu))
  (pad 33 thru_hole circle (at 1.225 2.835) (size 0.5 0.5) (drill 0.2) (layers *.Cu))
  (pad 1 smd roundrect (at -3.8 -3.45) (size 0.9 0.9) (layers F.Cu F.Paste F.Mask) (roundrect_rratio 0.055)
    (solder_paste_margin -0.07))
  (pad 11 smd roundrect (at -3.8 3.45) (size 0.9 0.9) (layers F.Cu F.Paste F.Mask) (roundrect_rratio 0.055)
    (solder_paste_margin -0.07))
  (pad 17 smd roundrect (at 3.8 3.45) (size 0.9 0.9) (layers F.Cu F.Paste F.Mask) (roundrect_rratio 0.055)
    (solder_paste_margin -0.07))
  (pad 27 smd roundrect (at 3.8 -3.45) (size 0.9 0.9) (layers F.Cu F.Paste F.Mask) (roundrect_rratio 0.055)
    (solder_paste_margin -0.07))
  (pad 2 smd roundrect (at -3.8 -2.6) (size 0.9 0.5) (layers F.Cu F.Mask) (roundrect_rratio 0.1))
  (pad 3 smd roundrect (at -3.8 -1.95) (size 0.9 0.5) (layers F.Cu F.Mask) (roundrect_rratio 0.1))
  (pad 4 smd roundrect (at -3.8 -1.3) (size 0.9 0.5) (layers F.Cu F.Mask) (roundrect_rratio 0.1))
  (pad 5 smd roundrect (at -3.8 -0.65) (size 0.9 0.5) (layers F.Cu F.Mask) (roundrect_rratio 0.1))
  (pad 6 smd roundrect (at -3.8 0) (size 0.9 0.5) (layers F.Cu F.Mask) (roundrect_rratio 0.1))
  (pad 7 smd roundrect (at -3.8 0.65) (size 0.9 0.5) (layers F.Cu F.Mask) (roundrect_rratio 0.1))
  (pad 8 smd roundrect (at -3.8 1.3) (size 0.9 0.5) (layers F.Cu F.Mask) (roundrect_rratio 0.1))
  (pad 9 smd roundrect (at -3.8 1.95) (size 0.9 0.5) (layers F.Cu F.Mask) (roundrect_rratio 0.1))
  (pad 10 smd roundrect (at -3.8 2.6) (size 0.9 0.5) (layers F.Cu F.Mask) (roundrect_rratio 0.1))
  (pad 18 smd roundrect (at 3.8 2.6) (size 0.9 0.5) (layers F.Cu F.Mask) (roundrect_rratio 0.1))
  (pad 19 smd roundrect (at 3.8 1.95) (size 0.9 0.5) (layers F.Cu F.Mask) (roundrect_rratio 0.1))
  (pad 20 smd roundrect (at 3.8 1.3) (size 0.9 0.5) (layers F.Cu F.Mask) (roundrect_rratio 0.1))
  (pad 21 smd roundrect (at 3.8 0.65) (size 0.9 0.5) (layers F.Cu F.Mask) (roundrect_rratio 0.1))
  (pad 22 smd roundrect (at 3.8 0) (size 0.9 0.5) (layers F.Cu F.Mask) (roundrect_rratio 0.1))
  (pad 23 smd roundrect (at 3.8 -0.65) (size 0.9 0.5) (layers F.Cu F.Mask) (roundrect_rratio 0.1))
  (pad 24 smd roundrect (at 3.8 -1.3) (size 0.9 0.5) (layers F.Cu F.Mask) (roundrect_rratio 0.1))
  (pad 25 smd roundrect (at 3.8 -1.95) (size 0.9 0.5) (layers F.Cu F.Mask) (roundrect_rratio 0.1))
  (pad 26 smd roundrect (at 3.8 -2.6) (size 0.9 0.5) (layers F.Cu F.Mask) (roundrect_rratio 0.1))
  (pad 12 smd roundrect (at 0.05 3.8) (size 0.7 0.9) (layers F.Cu F.Mask) (roundrect_rratio 0.07200000000000001))
  (pad 13 smd roundrect (at 0.8 3.8) (size 0.5 0.9) (layers F.Cu F.Mask) (roundrect_rratio 0.1))
  (pad 14 smd roundrect (at 1.45 3.8) (size 0.5 0.9) (layers F.Cu F.Mask) (roundrect_rratio 0.1))
  (pad 15 smd roundrect (at 2.1 3.8) (size 0.5 0.9) (layers F.Cu F.Mask) (roundrect_rratio 0.1))
  (pad 16 smd roundrect (at 2.9 3.8) (size 0.7 0.9) (layers F.Cu F.Mask) (roundrect_rratio 0.07200000000000001))
  (pad 28 smd roundrect (at 2.9 -3.8) (size 0.7 0.9) (layers F.Cu F.Mask) (roundrect_rratio 0.07200000000000001))
  (pad 29 smd roundrect (at 2.1 -3.8) (size 0.5 0.9) (layers F.Cu F.Mask) (roundrect_rratio 0.1))
  (pad 30 smd roundrect (at 1.45 -3.8) (size 0.5 0.9) (layers F.Cu F.Mask) (roundrect_rratio 0.1))
  (pad 31 smd roundrect (at 0.8 -3.8) (size 0.5 0.9) (layers F.Cu F.Mask) (roundrect_rratio 0.1))
  (pad 32 smd roundrect (at 0.05 -3.8) (size 0.7 0.9) (layers F.Cu F.Mask) (roundrect_rratio 0.07200000000000001))
  (pad 33 smd roundrect (at 1.225 0) (size 3.85 6.3) (layers F.Cu F.Mask) (roundrect_rratio 0.013))
  (pad 33 thru_hole circle (at -0.4 -1.785) (size 0.5 0.5) (drill 0.2) (layers *.Cu))
  (pad 33 smd roundrect (at 1.225 0) (size 3.85 6.3) (layers B.Cu B.Mask) (roundrect_rratio 0.013))
  (pad 33 thru_hole circle (at 0.4 -1.785) (size 0.5 0.5) (drill 0.2) (layers *.Cu))
  (pad 33 thru_hole circle (at 1.225 -1.785) (size 0.5 0.5) (drill 0.2) (layers *.Cu))
  (pad 33 thru_hole circle (at 2.05 -1.785) (size 0.5 0.5) (drill 0.2) (layers *.Cu))
  (pad 33 thru_hole circle (at 2.85 -1.785) (size 0.5 0.5) (drill 0.2) (layers *.Cu))
  (pad 33 thru_hole circle (at -0.4 -0.595) (size 0.5 0.5) (drill 0.2) (layers *.Cu))
  (pad 33 thru_hole circle (at 0.4 -0.595) (size 0.5 0.5) (drill 0.2) (layers *.Cu))
  (pad 33 thru_hole circle (at 1.225 -0.595) (size 0.5 0.5) (drill 0.2) (layers *.Cu))
  (pad 33 thru_hole circle (at 2.05 -0.595) (size 0.5 0.5) (drill 0.2) (layers *.Cu))
  (pad 33 thru_hole circle (at 2.85 -0.595) (size 0.5 0.5) (drill 0.2) (layers *.Cu))
  (pad 33 thru_hole circle (at -0.4 0.595) (size 0.5 0.5) (drill 0.2) (layers *.Cu))
  (pad 33 thru_hole circle (at 0.4 0.595) (size 0.5 0.5) (drill 0.2) (layers *.Cu))
  (pad 33 thru_hole circle (at 1.225 0.595) (size 0.5 0.5) (drill 0.2) (layers *.Cu))
  (pad 33 thru_hole circle (at 2.05 0.595) (size 0.5 0.5) (drill 0.2) (layers *.Cu))
  (pad 33 thru_hole circle (at 2.85 0.595) (size 0.5 0.5) (drill 0.2) (layers *.Cu))
  (pad 33 thru_hole circle (at -0.4 1.785) (size 0.5 0.5) (drill 0.2) (layers *.Cu))
  (pad 33 thru_hole circle (at 0.4 1.785) (size 0.5 0.5) (drill 0.2) (layers *.Cu))
  (pad 33 thru_hole circle (at 1.225 1.785) (size 0.5 0.5) (drill 0.2) (layers *.Cu))
  (pad 33 thru_hole circle (at 2.05 1.785) (size 0.5 0.5) (drill 0.2) (layers *.Cu))
  (pad 33 thru_hole circle (at 2.85 1.785) (size 0.5 0.5) (drill 0.2) (layers *.Cu))
  (model ${KISYS3DMOD}/Package_DFN_QFN.3dshapes/Texas_RWH0032A.wrl
    (at (xyz 0 0 0))
    (scale (xyz 1 1 1))
    (rotate (xyz 0 0 0))
  )
)
