(module Texas_RGY_R-PVQFN-N24_EP2.05x3.1mm (layer F.Cu) (tedit 607E8F76)
  (descr "QFN, 24 Pin (http://www.ti.com/lit/ds/symlink/bq24133.pdf#page=40), Alternate KiCad Library")
  (tags "QFN NoLead")
  (solder_mask_margin 0.07)
  (solder_paste_margin -0.05)
  (attr smd)
  (fp_text reference REF** (at 0 -4.08) (layer F.SilkS)
    (effects (font (size 1 1) (thickness 0.15)))
  )
  (fp_text value Texas_RGY_R-PVQFN-N24_EP2.05x3.1mm (at 0 4.08) (layer F.Fab)
    (effects (font (size 1 1) (thickness 0.15)))
  )
  (fp_line (start 2.38 -3.38) (end -2.38 -3.38) (layer F.CrtYd) (width 0.05))
  (fp_line (start 2.38 3.38) (end 2.38 -3.38) (layer F.CrtYd) (width 0.05))
  (fp_line (start -2.38 3.38) (end 2.38 3.38) (layer F.CrtYd) (width 0.05))
  (fp_line (start -2.38 -3.38) (end -2.38 3.38) (layer F.CrtYd) (width 0.05))
  (fp_line (start -1.75 -1.875) (end -0.875 -2.75) (layer F.Fab) (width 0.1))
  (fp_line (start -1.75 2.75) (end -1.75 -1.875) (layer F.Fab) (width 0.1))
  (fp_line (start 1.75 2.75) (end -1.75 2.75) (layer F.Fab) (width 0.1))
  (fp_line (start 1.75 -2.75) (end 1.75 2.75) (layer F.Fab) (width 0.1))
  (fp_line (start -0.875 -2.75) (end 1.75 -2.75) (layer F.Fab) (width 0.1))
  (fp_circle (center -2.2225 -3.175) (end -2.159 -3.175) (layer F.SilkS) (width 0.3))
  (fp_line (start -2.413 -2.8575) (end -2.413 3.429) (layer F.SilkS) (width 0.12))
  (fp_line (start -2.413 3.429) (end 2.413 3.429) (layer F.SilkS) (width 0.12))
  (fp_line (start 2.413 3.429) (end 2.413 -3.3655) (layer F.SilkS) (width 0.12))
  (fp_line (start 2.413 -3.3655) (end -1.905 -3.3655) (layer F.SilkS) (width 0.12))
  (fp_line (start -2.413 -0.75) (end -2.6035 -0.75) (layer F.SilkS) (width 0.12))
  (fp_line (start -2.413 1.75) (end -2.7305 1.75) (layer F.SilkS) (width 0.12))
  (fp_line (start 2.413 1.75) (end 2.6035 1.75) (layer F.SilkS) (width 0.12))
  (fp_line (start 2.413 -0.75) (end 2.7305 -0.75) (layer F.SilkS) (width 0.12))
  (fp_text user %R (at 0 0) (layer F.Fab)
    (effects (font (size 0.88 0.88) (thickness 0.13)))
  )
  (pad 1 smd custom (at -0.75 -2.795) (size 0.28 0.71) (layers F.Cu F.Paste F.Mask)
    (zone_connect 2)
    (options (clearance outline) (anchor rect))
    (primitives
      (gr_circle (center 0 0.3425) (end 0.14 0.3425) (width 0))
    ))
  (pad 24 smd custom (at 0.75 -2.795) (size 0.28 0.71) (layers F.Cu F.Paste F.Mask)
    (zone_connect 2)
    (options (clearance outline) (anchor rect))
    (primitives
      (gr_circle (center 0 0.3425) (end 0.14 0.3425) (width 0))
    ))
  (pad 23 smd custom (at 1.795 -2.25) (size 0.71 0.28) (layers F.Cu F.Paste F.Mask)
    (zone_connect 2)
    (options (clearance outline) (anchor rect))
    (primitives
      (gr_circle (center -0.3425 0) (end -0.2025 0) (width 0))
    ))
  (pad 22 smd custom (at 1.795 -1.75) (size 0.71 0.28) (layers F.Cu F.Paste F.Mask)
    (zone_connect 2)
    (options (clearance outline) (anchor rect))
    (primitives
      (gr_circle (center -0.3425 0) (end -0.2025 0) (width 0))
    ))
  (pad 21 smd custom (at 1.795 -1.25) (size 0.71 0.28) (layers F.Cu F.Paste F.Mask)
    (zone_connect 2)
    (options (clearance outline) (anchor rect))
    (primitives
      (gr_circle (center -0.3425 0) (end -0.2025 0) (width 0))
    ))
  (pad 20 smd custom (at 1.795 -0.75) (size 0.71 0.28) (layers F.Cu F.Paste F.Mask)
    (zone_connect 2)
    (options (clearance outline) (anchor rect))
    (primitives
      (gr_circle (center -0.3425 0) (end -0.2025 0) (width 0))
    ))
  (pad 19 smd custom (at 1.795 -0.25) (size 0.71 0.28) (layers F.Cu F.Paste F.Mask)
    (zone_connect 2)
    (options (clearance outline) (anchor rect))
    (primitives
      (gr_circle (center -0.3425 0) (end -0.2025 0) (width 0))
    ))
  (pad 18 smd custom (at 1.795 0.25) (size 0.71 0.28) (layers F.Cu F.Paste F.Mask)
    (zone_connect 2)
    (options (clearance outline) (anchor rect))
    (primitives
      (gr_circle (center -0.3425 0) (end -0.2025 0) (width 0))
    ))
  (pad 17 smd custom (at 1.795 0.75) (size 0.71 0.28) (layers F.Cu F.Paste F.Mask)
    (zone_connect 2)
    (options (clearance outline) (anchor rect))
    (primitives
      (gr_circle (center -0.3425 0) (end -0.2025 0) (width 0))
    ))
  (pad 16 smd custom (at 1.795 1.25) (size 0.71 0.28) (layers F.Cu F.Paste F.Mask)
    (zone_connect 2)
    (options (clearance outline) (anchor rect))
    (primitives
      (gr_circle (center -0.3425 0) (end -0.2025 0) (width 0))
    ))
  (pad 15 smd custom (at 1.795 1.75) (size 0.71 0.28) (layers F.Cu F.Paste F.Mask)
    (zone_connect 2)
    (options (clearance outline) (anchor rect))
    (primitives
      (gr_circle (center -0.3425 0) (end -0.2025 0) (width 0))
    ))
  (pad 14 smd custom (at 1.795 2.25) (size 0.71 0.28) (layers F.Cu F.Paste F.Mask)
    (zone_connect 2)
    (options (clearance outline) (anchor rect))
    (primitives
      (gr_circle (center -0.3425 0) (end -0.2025 0) (width 0))
    ))
  (pad 13 smd custom (at 0.75 2.795) (size 0.28 0.71) (layers F.Cu F.Paste F.Mask)
    (zone_connect 2)
    (options (clearance outline) (anchor rect))
    (primitives
      (gr_circle (center 0 -0.3425) (end 0.14 -0.3425) (width 0))
    ))
  (pad 12 smd custom (at -0.75 2.795) (size 0.28 0.71) (layers F.Cu F.Paste F.Mask)
    (zone_connect 2)
    (options (clearance outline) (anchor rect))
    (primitives
      (gr_circle (center 0 -0.3425) (end 0.14 -0.3425) (width 0))
    ))
  (pad 11 smd custom (at -1.795 2.25) (size 0.71 0.28) (layers F.Cu F.Paste F.Mask)
    (zone_connect 2)
    (options (clearance outline) (anchor rect))
    (primitives
      (gr_circle (center 0.3425 0) (end 0.4825 0) (width 0))
    ))
  (pad 10 smd custom (at -1.795 1.75) (size 0.71 0.28) (layers F.Cu F.Paste F.Mask)
    (zone_connect 2)
    (options (clearance outline) (anchor rect))
    (primitives
      (gr_circle (center 0.3425 0) (end 0.4825 0) (width 0))
    ))
  (pad 9 smd custom (at -1.795 1.25) (size 0.71 0.28) (layers F.Cu F.Paste F.Mask)
    (zone_connect 2)
    (options (clearance outline) (anchor rect))
    (primitives
      (gr_circle (center 0.3425 0) (end 0.4825 0) (width 0))
    ))
  (pad 8 smd custom (at -1.795 0.75) (size 0.71 0.28) (layers F.Cu F.Paste F.Mask)
    (zone_connect 2)
    (options (clearance outline) (anchor rect))
    (primitives
      (gr_circle (center 0.3425 0) (end 0.4825 0) (width 0))
    ))
  (pad 7 smd custom (at -1.795 0.25) (size 0.71 0.28) (layers F.Cu F.Paste F.Mask)
    (zone_connect 2)
    (options (clearance outline) (anchor rect))
    (primitives
      (gr_circle (center 0.3425 0) (end 0.4825 0) (width 0))
    ))
  (pad 6 smd custom (at -1.795 -0.25) (size 0.71 0.28) (layers F.Cu F.Paste F.Mask)
    (zone_connect 2)
    (options (clearance outline) (anchor rect))
    (primitives
      (gr_circle (center 0.3425 0) (end 0.4825 0) (width 0))
    ))
  (pad 5 smd custom (at -1.795 -0.75) (size 0.71 0.28) (layers F.Cu F.Paste F.Mask)
    (zone_connect 2)
    (options (clearance outline) (anchor rect))
    (primitives
      (gr_circle (center 0.3425 0) (end 0.4825 0) (width 0))
    ))
  (pad 4 smd custom (at -1.795 -1.25) (size 0.71 0.28) (layers F.Cu F.Paste F.Mask)
    (zone_connect 2)
    (options (clearance outline) (anchor rect))
    (primitives
      (gr_circle (center 0.3425 0) (end 0.4825 0) (width 0))
    ))
  (pad 3 smd custom (at -1.795 -1.75) (size 0.71 0.28) (layers F.Cu F.Paste F.Mask)
    (zone_connect 2)
    (options (clearance outline) (anchor rect))
    (primitives
      (gr_circle (center 0.3425 0) (end 0.4825 0) (width 0))
    ))
  (pad 2 smd custom (at -1.795 -2.25) (size 0.71 0.28) (layers F.Cu F.Paste F.Mask)
    (zone_connect 2)
    (options (clearance outline) (anchor rect))
    (primitives
      (gr_circle (center 0.355 0) (end 0.495 0) (width 0))
    ))
  (pad "" smd rect (at 0.56 0.81) (size 0.82 1.32) (layers F.Paste))
  (pad "" smd rect (at 0.56 -0.81) (size 0.82 1.32) (layers F.Paste))
  (pad "" smd rect (at -0.56 0.81) (size 0.82 1.32) (layers F.Paste))
  (pad "" smd rect (at -0.56 -0.81) (size 0.82 1.32) (layers F.Paste))
  (pad 25 smd rect (at 0 0) (size 2.05 3.1) (layers F.Cu F.Mask))
  (model ${KISYS3DMOD}/Package_DFN_QFN.3dshapes/Texas_RGY_R-PVQFN-N24_EP2.05x3.1mm.wrl
    (at (xyz 0 0 0))
    (scale (xyz 1 1 1))
    (rotate (xyz 0 0 0))
  )
)
