(module Texas_S-PVQFN-N40_EP4.6x4.6mm_ThermalVias (layer F.Cu) (tedit 607E9055)
  (descr "QFN, 40 Pin (http://www.ti.com/lit/ds/symlink/dac7750.pdf#page=54), Alternate KiCad Library")
  (tags "QFN NoLead")
  (attr smd)
  (fp_text reference REF** (at 0 -4.6355) (layer F.SilkS)
    (effects (font (size 1 1) (thickness 0.15)))
  )
  (fp_text value Texas_S-PVQFN-N40_EP4.6x4.6mm_ThermalVias (at 0 4.32) (layer F.Fab)
    (effects (font (size 1 1) (thickness 0.15)))
  )
  (fp_line (start 0.25 -3.6195) (end 0.25 -3.81) (layer F.SilkS) (width 0.12))
  (fp_line (start 3.6195 0.25) (end 3.81 0.25) (layer F.SilkS) (width 0.12))
  (fp_line (start 2.25 3.6195) (end 2.25 3.937) (layer F.SilkS) (width 0.12))
  (fp_line (start -0.25 3.6195) (end -0.25 3.81) (layer F.SilkS) (width 0.12))
  (fp_line (start 2.921 -3.6195) (end -3.175 -3.6195) (layer F.SilkS) (width 0.12))
  (fp_line (start -3.6195 -2.7305) (end -3.6195 2.54) (layer F.SilkS) (width 0.12))
  (fp_line (start 3.6195 -2.25) (end 3.937 -2.25) (layer F.SilkS) (width 0.12))
  (fp_line (start -3.6195 2.25) (end -3.937 2.25) (layer F.SilkS) (width 0.12))
  (fp_circle (center -3.556 -3.556) (end -3.4925 -3.556) (layer F.SilkS) (width 0.3))
  (fp_line (start -2.25 -3.6195) (end -2.25 -3.937) (layer F.SilkS) (width 0.12))
  (fp_line (start -2.921 3.6195) (end 2.921 3.6195) (layer F.SilkS) (width 0.12))
  (fp_line (start -3.6195 -0.25) (end -3.81 -0.25) (layer F.SilkS) (width 0.12))
  (fp_line (start 3.6195 2.54) (end 3.6195 -2.54) (layer F.SilkS) (width 0.12))
  (fp_line (start 3.62 -3.62) (end -3.62 -3.62) (layer F.CrtYd) (width 0.05))
  (fp_line (start 3.62 3.62) (end 3.62 -3.62) (layer F.CrtYd) (width 0.05))
  (fp_line (start -3.62 3.62) (end 3.62 3.62) (layer F.CrtYd) (width 0.05))
  (fp_line (start -3.62 -3.62) (end -3.62 3.62) (layer F.CrtYd) (width 0.05))
  (fp_line (start -3 -2) (end -2 -3) (layer F.Fab) (width 0.1))
  (fp_line (start -3 3) (end -3 -2) (layer F.Fab) (width 0.1))
  (fp_line (start 3 3) (end -3 3) (layer F.Fab) (width 0.1))
  (fp_line (start 3 -3) (end 3 3) (layer F.Fab) (width 0.1))
  (fp_line (start -2 -3) (end 3 -3) (layer F.Fab) (width 0.1))
  (fp_text user %R (at 0 0) (layer F.Fab)
    (effects (font (size 1 1) (thickness 0.15)))
  )
  (fp_text user 10 (at -3.4925 3.2385 -90 unlocked) (layer F.SilkS)
    (effects (font (size 0.6 0.6) (thickness 0.12)))
  )
  (fp_text user 30 (at 3.429 -3.2385 -90 unlocked) (layer F.SilkS)
    (effects (font (size 0.6 0.6) (thickness 0.12)))
  )
  (fp_text user 1 (at -3.4925 -3.1115 -90 unlocked) (layer F.SilkS)
    (effects (font (size 0.6 0.6) (thickness 0.12)))
  )
  (fp_text user 20 (at 3.429 3.2385 -90 unlocked) (layer F.SilkS)
    (effects (font (size 0.6 0.6) (thickness 0.12)))
  )
  (pad "" smd custom (at 2.0125 2.0125) (size 0.342366 0.342366) (layers F.Paste)
    (options (clearance outline) (anchor circle))
    (primitives
      (gr_poly (pts
         (xy -0.115895 -0.012362) (xy -0.012362 -0.115895) (xy 0.115895 -0.115895) (xy 0.115895 0.115895) (xy -0.115895 0.115895)
) (width 0.23179))
    ))
  (pad "" smd custom (at 2.0125 -2.0125) (size 0.342366 0.342366) (layers F.Paste)
    (options (clearance outline) (anchor circle))
    (primitives
      (gr_poly (pts
         (xy -0.115895 -0.115895) (xy 0.115895 -0.115895) (xy 0.115895 0.115895) (xy -0.012362 0.115895) (xy -0.115895 0.012362)
) (width 0.23179))
    ))
  (pad "" smd custom (at -2.0125 2.0125) (size 0.342366 0.342366) (layers F.Paste)
    (options (clearance outline) (anchor circle))
    (primitives
      (gr_poly (pts
         (xy -0.115895 -0.115895) (xy 0.012362 -0.115895) (xy 0.115895 -0.012362) (xy 0.115895 0.115895) (xy -0.115895 0.115895)
) (width 0.23179))
    ))
  (pad "" smd custom (at -2.0125 -2.0125) (size 0.342366 0.342366) (layers F.Paste)
    (options (clearance outline) (anchor circle))
    (primitives
      (gr_poly (pts
         (xy -0.115895 -0.115895) (xy 0.115895 -0.115895) (xy 0.115895 0.012362) (xy 0.012362 0.115895) (xy -0.115895 0.115895)
) (width 0.23179))
    ))
  (pad "" smd custom (at 1.15 2.0125) (size 0.381759 0.381759) (layers F.Paste)
    (options (clearance outline) (anchor circle))
    (primitives
      (gr_poly (pts
         (xy -0.381759 -0.082186) (xy -0.313976 -0.149969) (xy 0.313976 -0.149969) (xy 0.381759 -0.082186) (xy 0.381759 0.149969)
         (xy -0.381759 0.149969)) (width 0.163642))
    ))
  (pad "" smd custom (at 0 2.0125) (size 0.381759 0.381759) (layers F.Paste)
    (options (clearance outline) (anchor circle))
    (primitives
      (gr_poly (pts
         (xy -0.381759 -0.082186) (xy -0.313976 -0.149969) (xy 0.313976 -0.149969) (xy 0.381759 -0.082186) (xy 0.381759 0.149969)
         (xy -0.381759 0.149969)) (width 0.163642))
    ))
  (pad "" smd custom (at -1.15 2.0125) (size 0.381759 0.381759) (layers F.Paste)
    (options (clearance outline) (anchor circle))
    (primitives
      (gr_poly (pts
         (xy -0.381759 -0.082186) (xy -0.313976 -0.149969) (xy 0.313976 -0.149969) (xy 0.381759 -0.082186) (xy 0.381759 0.149969)
         (xy -0.381759 0.149969)) (width 0.163642))
    ))
  (pad "" smd custom (at 1.15 -2.0125) (size 0.381759 0.381759) (layers F.Paste)
    (options (clearance outline) (anchor circle))
    (primitives
      (gr_poly (pts
         (xy -0.381759 -0.149969) (xy 0.381759 -0.149969) (xy 0.381759 0.082186) (xy 0.313976 0.149969) (xy -0.313976 0.149969)
         (xy -0.381759 0.082186)) (width 0.163642))
    ))
  (pad "" smd custom (at 0 -2.0125) (size 0.381759 0.381759) (layers F.Paste)
    (options (clearance outline) (anchor circle))
    (primitives
      (gr_poly (pts
         (xy -0.381759 -0.149969) (xy 0.381759 -0.149969) (xy 0.381759 0.082186) (xy 0.313976 0.149969) (xy -0.313976 0.149969)
         (xy -0.381759 0.082186)) (width 0.163642))
    ))
  (pad "" smd custom (at -1.15 -2.0125) (size 0.381759 0.381759) (layers F.Paste)
    (options (clearance outline) (anchor circle))
    (primitives
      (gr_poly (pts
         (xy -0.381759 -0.149969) (xy 0.381759 -0.149969) (xy 0.381759 0.082186) (xy 0.313976 0.149969) (xy -0.313976 0.149969)
         (xy -0.381759 0.082186)) (width 0.163642))
    ))
  (pad "" smd custom (at 2.0125 1.15) (size 0.381759 0.381759) (layers F.Paste)
    (options (clearance outline) (anchor circle))
    (primitives
      (gr_poly (pts
         (xy -0.149969 -0.313976) (xy -0.082186 -0.381759) (xy 0.149969 -0.381759) (xy 0.149969 0.381759) (xy -0.082186 0.381759)
         (xy -0.149969 0.313976)) (width 0.163642))
    ))
  (pad "" smd custom (at 2.0125 0) (size 0.381759 0.381759) (layers F.Paste)
    (options (clearance outline) (anchor circle))
    (primitives
      (gr_poly (pts
         (xy -0.149969 -0.313976) (xy -0.082186 -0.381759) (xy 0.149969 -0.381759) (xy 0.149969 0.381759) (xy -0.082186 0.381759)
         (xy -0.149969 0.313976)) (width 0.163642))
    ))
  (pad "" smd custom (at 2.0125 -1.15) (size 0.381759 0.381759) (layers F.Paste)
    (options (clearance outline) (anchor circle))
    (primitives
      (gr_poly (pts
         (xy -0.149969 -0.313976) (xy -0.082186 -0.381759) (xy 0.149969 -0.381759) (xy 0.149969 0.381759) (xy -0.082186 0.381759)
         (xy -0.149969 0.313976)) (width 0.163642))
    ))
  (pad "" smd custom (at -2.0125 1.15) (size 0.381759 0.381759) (layers F.Paste)
    (options (clearance outline) (anchor circle))
    (primitives
      (gr_poly (pts
         (xy -0.149969 -0.381759) (xy 0.082186 -0.381759) (xy 0.149969 -0.313976) (xy 0.149969 0.313976) (xy 0.082186 0.381759)
         (xy -0.149969 0.381759)) (width 0.163642))
    ))
  (pad "" smd custom (at -2.0125 0) (size 0.381759 0.381759) (layers F.Paste)
    (options (clearance outline) (anchor circle))
    (primitives
      (gr_poly (pts
         (xy -0.149969 -0.381759) (xy 0.082186 -0.381759) (xy 0.149969 -0.313976) (xy 0.149969 0.313976) (xy 0.082186 0.381759)
         (xy -0.149969 0.381759)) (width 0.163642))
    ))
  (pad "" smd custom (at -2.0125 -1.15) (size 0.381759 0.381759) (layers F.Paste)
    (options (clearance outline) (anchor circle))
    (primitives
      (gr_poly (pts
         (xy -0.149969 -0.381759) (xy 0.082186 -0.381759) (xy 0.149969 -0.313976) (xy 0.149969 0.313976) (xy 0.082186 0.381759)
         (xy -0.149969 0.381759)) (width 0.163642))
    ))
  (pad "" smd roundrect (at 1.15 1.15) (size 0.92716 0.92716) (layers F.Paste) (roundrect_rratio 0.25))
  (pad "" smd roundrect (at 1.15 0) (size 0.92716 0.92716) (layers F.Paste) (roundrect_rratio 0.25))
  (pad "" smd roundrect (at 1.15 -1.15) (size 0.92716 0.92716) (layers F.Paste) (roundrect_rratio 0.25))
  (pad "" smd roundrect (at 0 1.15) (size 0.92716 0.92716) (layers F.Paste) (roundrect_rratio 0.25))
  (pad "" smd roundrect (at 0 0) (size 0.92716 0.92716) (layers F.Paste) (roundrect_rratio 0.25))
  (pad "" smd roundrect (at 0 -1.15) (size 0.92716 0.92716) (layers F.Paste) (roundrect_rratio 0.25))
  (pad "" smd roundrect (at -1.15 1.15) (size 0.92716 0.92716) (layers F.Paste) (roundrect_rratio 0.25))
  (pad "" smd roundrect (at -1.15 0) (size 0.92716 0.92716) (layers F.Paste) (roundrect_rratio 0.25))
  (pad "" smd roundrect (at -1.15 -1.15) (size 0.92716 0.92716) (layers F.Paste) (roundrect_rratio 0.25))
  (pad 41 smd rect (at 0 0) (size 3.95 3.95) (layers B.Cu B.Mask))
  (pad 41 thru_hole circle (at 1.725 1.725) (size 0.5 0.5) (drill 0.2) (layers *.Cu))
  (pad 41 thru_hole circle (at 0.575 1.725) (size 0.5 0.5) (drill 0.2) (layers *.Cu))
  (pad 41 thru_hole circle (at -0.575 1.725) (size 0.5 0.5) (drill 0.2) (layers *.Cu))
  (pad 41 thru_hole circle (at -1.725 1.725) (size 0.5 0.5) (drill 0.2) (layers *.Cu))
  (pad 41 thru_hole circle (at 1.725 0.575) (size 0.5 0.5) (drill 0.2) (layers *.Cu))
  (pad 41 thru_hole circle (at 0.575 0.575) (size 0.5 0.5) (drill 0.2) (layers *.Cu))
  (pad 41 thru_hole circle (at -0.575 0.575) (size 0.5 0.5) (drill 0.2) (layers *.Cu))
  (pad 41 thru_hole circle (at -1.725 0.575) (size 0.5 0.5) (drill 0.2) (layers *.Cu))
  (pad 41 thru_hole circle (at 1.725 -0.575) (size 0.5 0.5) (drill 0.2) (layers *.Cu))
  (pad 41 thru_hole circle (at 0.575 -0.575) (size 0.5 0.5) (drill 0.2) (layers *.Cu))
  (pad 41 thru_hole circle (at -0.575 -0.575) (size 0.5 0.5) (drill 0.2) (layers *.Cu))
  (pad 41 thru_hole circle (at -1.725 -0.575) (size 0.5 0.5) (drill 0.2) (layers *.Cu))
  (pad 41 thru_hole circle (at 1.725 -1.725) (size 0.5 0.5) (drill 0.2) (layers *.Cu))
  (pad 41 thru_hole circle (at 0.575 -1.725) (size 0.5 0.5) (drill 0.2) (layers *.Cu))
  (pad 41 thru_hole circle (at -0.575 -1.725) (size 0.5 0.5) (drill 0.2) (layers *.Cu))
  (pad 41 thru_hole circle (at -1.725 -1.725) (size 0.5 0.5) (drill 0.2) (layers *.Cu))
  (pad 41 smd rect (at 0 0) (size 4.6 4.6) (layers F.Cu F.Mask))
  (pad 40 smd roundrect (at -2.25 -2.9375) (size 0.25 0.875) (layers F.Cu F.Paste F.Mask) (roundrect_rratio 0.25))
  (pad 39 smd roundrect (at -1.75 -2.9375) (size 0.25 0.875) (layers F.Cu F.Paste F.Mask) (roundrect_rratio 0.25))
  (pad 38 smd roundrect (at -1.25 -2.9375) (size 0.25 0.875) (layers F.Cu F.Paste F.Mask) (roundrect_rratio 0.25))
  (pad 37 smd roundrect (at -0.75 -2.9375) (size 0.25 0.875) (layers F.Cu F.Paste F.Mask) (roundrect_rratio 0.25))
  (pad 36 smd roundrect (at -0.25 -2.9375) (size 0.25 0.875) (layers F.Cu F.Paste F.Mask) (roundrect_rratio 0.25))
  (pad 35 smd roundrect (at 0.25 -2.9375) (size 0.25 0.875) (layers F.Cu F.Paste F.Mask) (roundrect_rratio 0.25))
  (pad 34 smd roundrect (at 0.75 -2.9375) (size 0.25 0.875) (layers F.Cu F.Paste F.Mask) (roundrect_rratio 0.25))
  (pad 33 smd roundrect (at 1.25 -2.9375) (size 0.25 0.875) (layers F.Cu F.Paste F.Mask) (roundrect_rratio 0.25))
  (pad 32 smd roundrect (at 1.75 -2.9375) (size 0.25 0.875) (layers F.Cu F.Paste F.Mask) (roundrect_rratio 0.25))
  (pad 31 smd roundrect (at 2.25 -2.9375) (size 0.25 0.875) (layers F.Cu F.Paste F.Mask) (roundrect_rratio 0.25))
  (pad 30 smd roundrect (at 2.9375 -2.25) (size 0.875 0.25) (layers F.Cu F.Paste F.Mask) (roundrect_rratio 0.25))
  (pad 29 smd roundrect (at 2.9375 -1.75) (size 0.875 0.25) (layers F.Cu F.Paste F.Mask) (roundrect_rratio 0.25))
  (pad 28 smd roundrect (at 2.9375 -1.25) (size 0.875 0.25) (layers F.Cu F.Paste F.Mask) (roundrect_rratio 0.25))
  (pad 27 smd roundrect (at 2.9375 -0.75) (size 0.875 0.25) (layers F.Cu F.Paste F.Mask) (roundrect_rratio 0.25))
  (pad 26 smd roundrect (at 2.9375 -0.25) (size 0.875 0.25) (layers F.Cu F.Paste F.Mask) (roundrect_rratio 0.25))
  (pad 25 smd roundrect (at 2.9375 0.25) (size 0.875 0.25) (layers F.Cu F.Paste F.Mask) (roundrect_rratio 0.25))
  (pad 24 smd roundrect (at 2.9375 0.75) (size 0.875 0.25) (layers F.Cu F.Paste F.Mask) (roundrect_rratio 0.25))
  (pad 23 smd roundrect (at 2.9375 1.25) (size 0.875 0.25) (layers F.Cu F.Paste F.Mask) (roundrect_rratio 0.25))
  (pad 22 smd roundrect (at 2.9375 1.75) (size 0.875 0.25) (layers F.Cu F.Paste F.Mask) (roundrect_rratio 0.25))
  (pad 21 smd roundrect (at 2.9375 2.25) (size 0.875 0.25) (layers F.Cu F.Paste F.Mask) (roundrect_rratio 0.25))
  (pad 20 smd roundrect (at 2.25 2.9375) (size 0.25 0.875) (layers F.Cu F.Paste F.Mask) (roundrect_rratio 0.25))
  (pad 19 smd roundrect (at 1.75 2.9375) (size 0.25 0.875) (layers F.Cu F.Paste F.Mask) (roundrect_rratio 0.25))
  (pad 18 smd roundrect (at 1.25 2.9375) (size 0.25 0.875) (layers F.Cu F.Paste F.Mask) (roundrect_rratio 0.25))
  (pad 17 smd roundrect (at 0.75 2.9375) (size 0.25 0.875) (layers F.Cu F.Paste F.Mask) (roundrect_rratio 0.25))
  (pad 16 smd roundrect (at 0.25 2.9375) (size 0.25 0.875) (layers F.Cu F.Paste F.Mask) (roundrect_rratio 0.25))
  (pad 15 smd roundrect (at -0.25 2.9375) (size 0.25 0.875) (layers F.Cu F.Paste F.Mask) (roundrect_rratio 0.25))
  (pad 14 smd roundrect (at -0.75 2.9375) (size 0.25 0.875) (layers F.Cu F.Paste F.Mask) (roundrect_rratio 0.25))
  (pad 13 smd roundrect (at -1.25 2.9375) (size 0.25 0.875) (layers F.Cu F.Paste F.Mask) (roundrect_rratio 0.25))
  (pad 12 smd roundrect (at -1.75 2.9375) (size 0.25 0.875) (layers F.Cu F.Paste F.Mask) (roundrect_rratio 0.25))
  (pad 11 smd roundrect (at -2.25 2.9375) (size 0.25 0.875) (layers F.Cu F.Paste F.Mask) (roundrect_rratio 0.25))
  (pad 10 smd roundrect (at -2.9375 2.25) (size 0.875 0.25) (layers F.Cu F.Paste F.Mask) (roundrect_rratio 0.25))
  (pad 9 smd roundrect (at -2.9375 1.75) (size 0.875 0.25) (layers F.Cu F.Paste F.Mask) (roundrect_rratio 0.25))
  (pad 8 smd roundrect (at -2.9375 1.25) (size 0.875 0.25) (layers F.Cu F.Paste F.Mask) (roundrect_rratio 0.25))
  (pad 7 smd roundrect (at -2.9375 0.75) (size 0.875 0.25) (layers F.Cu F.Paste F.Mask) (roundrect_rratio 0.25))
  (pad 6 smd roundrect (at -2.9375 0.25) (size 0.875 0.25) (layers F.Cu F.Paste F.Mask) (roundrect_rratio 0.25))
  (pad 5 smd roundrect (at -2.9375 -0.25) (size 0.875 0.25) (layers F.Cu F.Paste F.Mask) (roundrect_rratio 0.25))
  (pad 4 smd roundrect (at -2.9375 -0.75) (size 0.875 0.25) (layers F.Cu F.Paste F.Mask) (roundrect_rratio 0.25))
  (pad 3 smd roundrect (at -2.9375 -1.25) (size 0.875 0.25) (layers F.Cu F.Paste F.Mask) (roundrect_rratio 0.25))
  (pad 2 smd roundrect (at -2.9375 -1.75) (size 0.875 0.25) (layers F.Cu F.Paste F.Mask) (roundrect_rratio 0.25))
  (pad 1 smd roundrect (at -2.9375 -2.25) (size 0.875 0.25) (layers F.Cu F.Paste F.Mask) (roundrect_rratio 0.25))
  (model ${KISYS3DMOD}/Package_DFN_QFN.3dshapes/Texas_S-PVQFN-N40_EP4.6x4.6mm.wrl
    (at (xyz 0 0 0))
    (scale (xyz 1 1 1))
    (rotate (xyz 0 0 0))
  )
)
