(module TQFN-32-1EP_5x5mm_P0.5mm_EP3.4x3.4mm_ThermalVias (layer F.Cu) (tedit 607E8F06)
  (descr "TQFN, 32 Pin (https://pdfserv.maximintegrated.com/package_dwgs/21-0140.PDF (T3255-9)), Alternate KiCad Library")
  (tags "TQFN NoLead")
  (attr smd)
  (fp_text reference REF** (at 0 -3.8) (layer F.SilkS)
    (effects (font (size 1 1) (thickness 0.15)))
  )
  (fp_text value TQFN-32-1EP_5x5mm_P0.5mm_EP3.4x3.4mm_ThermalVias (at 0 3.8) (layer F.Fab)
    (effects (font (size 1 1) (thickness 0.15)))
  )
  (fp_circle (center -2.9845 -2.9845) (end -2.921 -2.9845) (layer F.SilkS) (width 0.3))
  (fp_line (start 2.413 -3.1115) (end -2.6035 -3.1115) (layer F.SilkS) (width 0.12))
  (fp_line (start -3.1115 -2.032) (end -3.1115 2.54) (layer F.SilkS) (width 0.12))
  (fp_line (start 3.1115 -2.0955) (end 3.1115 -2.159) (layer F.SilkS) (width 0.12))
  (fp_line (start -2.413 3.1115) (end 2.413 3.1115) (layer F.SilkS) (width 0.12))
  (fp_line (start 3.1115 2.0955) (end 3.1115 -2.0955) (layer F.SilkS) (width 0.12))
  (fp_line (start 3.1 -3.1) (end -3.1 -3.1) (layer F.CrtYd) (width 0.05))
  (fp_line (start 3.1 3.1) (end 3.1 -3.1) (layer F.CrtYd) (width 0.05))
  (fp_line (start -3.1 3.1) (end 3.1 3.1) (layer F.CrtYd) (width 0.05))
  (fp_line (start -3.1 -3.1) (end -3.1 3.1) (layer F.CrtYd) (width 0.05))
  (fp_line (start -2.5 -1.5) (end -1.5 -2.5) (layer F.Fab) (width 0.1))
  (fp_line (start -2.5 2.5) (end -2.5 -1.5) (layer F.Fab) (width 0.1))
  (fp_line (start 2.5 2.5) (end -2.5 2.5) (layer F.Fab) (width 0.1))
  (fp_line (start 2.5 -2.5) (end 2.5 2.5) (layer F.Fab) (width 0.1))
  (fp_line (start -1.5 -2.5) (end 2.5 -2.5) (layer F.Fab) (width 0.1))
  (fp_text user %R (at 0 0) (layer F.Fab)
    (effects (font (size 1 1) (thickness 0.15)))
  )
  (fp_text user 8 (at -2.9845 2.9845 -90 unlocked) (layer F.SilkS)
    (effects (font (size 0.6 0.6) (thickness 0.12)))
  )
  (fp_text user 16 (at 2.921 2.794 -90 unlocked) (layer F.SilkS)
    (effects (font (size 0.6 0.6) (thickness 0.12)))
  )
  (fp_text user 24 (at 2.921 -2.794 -90 unlocked) (layer F.SilkS)
    (effects (font (size 0.6 0.6) (thickness 0.12)))
  )
  (fp_text user 1 (at -2.9845 -2.4765 -90 unlocked) (layer F.SilkS)
    (effects (font (size 0.6 0.6) (thickness 0.12)))
  )
  (pad "" smd roundrect (at 0.85 0.85) (size 1.47 1.47) (layers F.Paste) (roundrect_rratio 0.170068))
  (pad "" smd roundrect (at 0.85 -0.85) (size 1.47 1.47) (layers F.Paste) (roundrect_rratio 0.170068))
  (pad "" smd roundrect (at -0.85 0.85) (size 1.47 1.47) (layers F.Paste) (roundrect_rratio 0.170068))
  (pad "" smd roundrect (at -0.85 -0.85) (size 1.47 1.47) (layers F.Paste) (roundrect_rratio 0.170068))
  (pad 33 smd rect (at 0 0) (size 3.4 3.4) (layers B.Cu B.Mask))
  (pad 33 thru_hole circle (at 1.45 1.45) (size 0.5 0.5) (drill 0.2) (layers *.Cu))
  (pad 33 thru_hole circle (at 0 1.45) (size 0.5 0.5) (drill 0.2) (layers *.Cu))
  (pad 33 thru_hole circle (at -1.45 1.45) (size 0.5 0.5) (drill 0.2) (layers *.Cu))
  (pad 33 thru_hole circle (at 1.45 0) (size 0.5 0.5) (drill 0.2) (layers *.Cu))
  (pad 33 thru_hole circle (at 0 0) (size 0.5 0.5) (drill 0.2) (layers *.Cu))
  (pad 33 thru_hole circle (at -1.45 0) (size 0.5 0.5) (drill 0.2) (layers *.Cu))
  (pad 33 thru_hole circle (at 1.45 -1.45) (size 0.5 0.5) (drill 0.2) (layers *.Cu))
  (pad 33 thru_hole circle (at 0 -1.45) (size 0.5 0.5) (drill 0.2) (layers *.Cu))
  (pad 33 thru_hole circle (at -1.45 -1.45) (size 0.5 0.5) (drill 0.2) (layers *.Cu))
  (pad 33 smd rect (at 0 0) (size 3.4 3.4) (layers F.Cu F.Mask))
  (pad 32 smd custom (at -1.75 -2.4375) (size 0.18636 0.18636) (layers F.Cu F.Paste F.Mask)
    (options (clearance outline) (anchor circle))
    (primitives
      (gr_poly (pts
         (xy -0.0625 -0.35) (xy 0.0625 -0.35) (xy 0.0625 0.35) (xy -0.009112 0.35) (xy -0.0625 0.296612)
) (width 0.125))
    ))
  (pad 31 smd roundrect (at -1.25 -2.4375) (size 0.25 0.825) (layers F.Cu F.Paste F.Mask) (roundrect_rratio 0.25))
  (pad 30 smd roundrect (at -0.75 -2.4375) (size 0.25 0.825) (layers F.Cu F.Paste F.Mask) (roundrect_rratio 0.25))
  (pad 29 smd roundrect (at -0.25 -2.4375) (size 0.25 0.825) (layers F.Cu F.Paste F.Mask) (roundrect_rratio 0.25))
  (pad 28 smd roundrect (at 0.25 -2.4375) (size 0.25 0.825) (layers F.Cu F.Paste F.Mask) (roundrect_rratio 0.25))
  (pad 27 smd roundrect (at 0.75 -2.4375) (size 0.25 0.825) (layers F.Cu F.Paste F.Mask) (roundrect_rratio 0.25))
  (pad 26 smd roundrect (at 1.25 -2.4375) (size 0.25 0.825) (layers F.Cu F.Paste F.Mask) (roundrect_rratio 0.25))
  (pad 25 smd custom (at 1.75 -2.4375) (size 0.18636 0.18636) (layers F.Cu F.Paste F.Mask)
    (options (clearance outline) (anchor circle))
    (primitives
      (gr_poly (pts
         (xy -0.0625 -0.35) (xy 0.0625 -0.35) (xy 0.0625 0.296612) (xy 0.009112 0.35) (xy -0.0625 0.35)
) (width 0.125))
    ))
  (pad 24 smd custom (at 2.4375 -1.75) (size 0.18636 0.18636) (layers F.Cu F.Paste F.Mask)
    (options (clearance outline) (anchor circle))
    (primitives
      (gr_poly (pts
         (xy -0.35 -0.009112) (xy -0.296612 -0.0625) (xy 0.35 -0.0625) (xy 0.35 0.0625) (xy -0.35 0.0625)
) (width 0.125))
    ))
  (pad 23 smd roundrect (at 2.4375 -1.25) (size 0.825 0.25) (layers F.Cu F.Paste F.Mask) (roundrect_rratio 0.25))
  (pad 22 smd roundrect (at 2.4375 -0.75) (size 0.825 0.25) (layers F.Cu F.Paste F.Mask) (roundrect_rratio 0.25))
  (pad 21 smd roundrect (at 2.4375 -0.25) (size 0.825 0.25) (layers F.Cu F.Paste F.Mask) (roundrect_rratio 0.25))
  (pad 20 smd roundrect (at 2.4375 0.25) (size 0.825 0.25) (layers F.Cu F.Paste F.Mask) (roundrect_rratio 0.25))
  (pad 19 smd roundrect (at 2.4375 0.75) (size 0.825 0.25) (layers F.Cu F.Paste F.Mask) (roundrect_rratio 0.25))
  (pad 18 smd roundrect (at 2.4375 1.25) (size 0.825 0.25) (layers F.Cu F.Paste F.Mask) (roundrect_rratio 0.25))
  (pad 17 smd custom (at 2.4375 1.75) (size 0.18636 0.18636) (layers F.Cu F.Paste F.Mask)
    (options (clearance outline) (anchor circle))
    (primitives
      (gr_poly (pts
         (xy -0.35 -0.0625) (xy 0.35 -0.0625) (xy 0.35 0.0625) (xy -0.296612 0.0625) (xy -0.35 0.009112)
) (width 0.125))
    ))
  (pad 16 smd custom (at 1.75 2.4375) (size 0.18636 0.18636) (layers F.Cu F.Paste F.Mask)
    (options (clearance outline) (anchor circle))
    (primitives
      (gr_poly (pts
         (xy -0.0625 -0.35) (xy 0.009112 -0.35) (xy 0.0625 -0.296612) (xy 0.0625 0.35) (xy -0.0625 0.35)
) (width 0.125))
    ))
  (pad 15 smd roundrect (at 1.25 2.4375) (size 0.25 0.825) (layers F.Cu F.Paste F.Mask) (roundrect_rratio 0.25))
  (pad 14 smd roundrect (at 0.75 2.4375) (size 0.25 0.825) (layers F.Cu F.Paste F.Mask) (roundrect_rratio 0.25))
  (pad 13 smd roundrect (at 0.25 2.4375) (size 0.25 0.825) (layers F.Cu F.Paste F.Mask) (roundrect_rratio 0.25))
  (pad 12 smd roundrect (at -0.25 2.4375) (size 0.25 0.825) (layers F.Cu F.Paste F.Mask) (roundrect_rratio 0.25))
  (pad 11 smd roundrect (at -0.75 2.4375) (size 0.25 0.825) (layers F.Cu F.Paste F.Mask) (roundrect_rratio 0.25))
  (pad 10 smd roundrect (at -1.25 2.4375) (size 0.25 0.825) (layers F.Cu F.Paste F.Mask) (roundrect_rratio 0.25))
  (pad 9 smd custom (at -1.75 2.4375) (size 0.18636 0.18636) (layers F.Cu F.Paste F.Mask)
    (options (clearance outline) (anchor circle))
    (primitives
      (gr_poly (pts
         (xy -0.0625 -0.296612) (xy -0.009112 -0.35) (xy 0.0625 -0.35) (xy 0.0625 0.35) (xy -0.0625 0.35)
) (width 0.125))
    ))
  (pad 8 smd custom (at -2.4375 1.75) (size 0.18636 0.18636) (layers F.Cu F.Paste F.Mask)
    (options (clearance outline) (anchor circle))
    (primitives
      (gr_poly (pts
         (xy -0.35 -0.0625) (xy 0.35 -0.0625) (xy 0.35 0.009112) (xy 0.296612 0.0625) (xy -0.35 0.0625)
) (width 0.125))
    ))
  (pad 7 smd roundrect (at -2.4375 1.25) (size 0.825 0.25) (layers F.Cu F.Paste F.Mask) (roundrect_rratio 0.25))
  (pad 6 smd roundrect (at -2.4375 0.75) (size 0.825 0.25) (layers F.Cu F.Paste F.Mask) (roundrect_rratio 0.25))
  (pad 5 smd roundrect (at -2.4375 0.25) (size 0.825 0.25) (layers F.Cu F.Paste F.Mask) (roundrect_rratio 0.25))
  (pad 4 smd roundrect (at -2.4375 -0.25) (size 0.825 0.25) (layers F.Cu F.Paste F.Mask) (roundrect_rratio 0.25))
  (pad 3 smd roundrect (at -2.4375 -0.75) (size 0.825 0.25) (layers F.Cu F.Paste F.Mask) (roundrect_rratio 0.25))
  (pad 2 smd roundrect (at -2.4375 -1.25) (size 0.825 0.25) (layers F.Cu F.Paste F.Mask) (roundrect_rratio 0.25))
  (pad 1 smd custom (at -2.4375 -1.75) (size 0.18636 0.18636) (layers F.Cu F.Paste F.Mask)
    (options (clearance outline) (anchor circle))
    (primitives
      (gr_poly (pts
         (xy -0.35 -0.0625) (xy 0.296612 -0.0625) (xy 0.35 -0.009112) (xy 0.35 0.0625) (xy -0.35 0.0625)
) (width 0.125))
    ))
  (model ${KISYS3DMOD}/Package_DFN_QFN.3dshapes/TQFN-32-1EP_5x5mm_P0.5mm_EP3.4x3.4mm.wrl
    (at (xyz 0 0 0))
    (scale (xyz 1 1 1))
    (rotate (xyz 0 0 0))
  )
)
