(module TQFN-40-1EP_5x5mm_P0.4mm_EP3.5x3.5mm_ThermalVias (layer F.Cu) (tedit 607E8F14)
  (descr "TQFN, 40 Pin (https://pdfserv.maximintegrated.com/package_dwgs/21-0140.PDF (T4055-1)), Alternate KiCad Library")
  (tags "TQFN NoLead")
  (attr smd)
  (fp_text reference REF** (at 0 -4.1275) (layer F.SilkS)
    (effects (font (size 1 1) (thickness 0.15)))
  )
  (fp_text value TQFN-40-1EP_5x5mm_P0.4mm_EP3.5x3.5mm_ThermalVias (at 0 3.8) (layer F.Fab)
    (effects (font (size 1 1) (thickness 0.15)))
  )
  (fp_line (start 3.1115 2.0955) (end 3.1115 -2.032) (layer F.SilkS) (width 0.12))
  (fp_line (start 2.413 -3.1115) (end -2.6035 -3.1115) (layer F.SilkS) (width 0.12))
  (fp_line (start -2.413 3.1115) (end 2.413 3.1115) (layer F.SilkS) (width 0.12))
  (fp_line (start -3.1115 -2.0955) (end -3.1115 2.0955) (layer F.SilkS) (width 0.12))
  (fp_circle (center -2.9845 -2.9845) (end -2.921 -2.9845) (layer F.SilkS) (width 0.3))
  (fp_line (start -3.1115 1.8) (end -3.429 1.8) (layer F.SilkS) (width 0.12))
  (fp_line (start -0.2 3.1115) (end -0.2 3.302) (layer F.SilkS) (width 0.12))
  (fp_line (start 1.8 3.1115) (end 1.8 3.429) (layer F.SilkS) (width 0.12))
  (fp_line (start -3.1115 -0.2) (end -3.302 -0.2) (layer F.SilkS) (width 0.12))
  (fp_line (start -1.8 -3.1115) (end -1.8 -3.429) (layer F.SilkS) (width 0.12))
  (fp_line (start 0.2 -3.1115) (end 0.2 -3.302) (layer F.SilkS) (width 0.12))
  (fp_line (start 3.1115 -1.8) (end 3.429 -1.8) (layer F.SilkS) (width 0.12))
  (fp_line (start 3.1115 0.2) (end 3.302 0.2) (layer F.SilkS) (width 0.12))
  (fp_line (start 3.1 -3.1) (end -3.1 -3.1) (layer F.CrtYd) (width 0.05))
  (fp_line (start 3.1 3.1) (end 3.1 -3.1) (layer F.CrtYd) (width 0.05))
  (fp_line (start -3.1 3.1) (end 3.1 3.1) (layer F.CrtYd) (width 0.05))
  (fp_line (start -3.1 -3.1) (end -3.1 3.1) (layer F.CrtYd) (width 0.05))
  (fp_line (start -2.5 -1.5) (end -1.5 -2.5) (layer F.Fab) (width 0.1))
  (fp_line (start -2.5 2.5) (end -2.5 -1.5) (layer F.Fab) (width 0.1))
  (fp_line (start 2.5 2.5) (end -2.5 2.5) (layer F.Fab) (width 0.1))
  (fp_line (start 2.5 -2.5) (end 2.5 2.5) (layer F.Fab) (width 0.1))
  (fp_line (start -1.5 -2.5) (end 2.5 -2.5) (layer F.Fab) (width 0.1))
  (fp_text user %R (at 0 0) (layer F.Fab)
    (effects (font (size 1 1) (thickness 0.15)))
  )
  (fp_text user 30 (at 2.921 -2.7305 -90 unlocked) (layer F.SilkS)
    (effects (font (size 0.6 0.6) (thickness 0.12)))
  )
  (fp_text user 20 (at 2.921 2.794 -90 unlocked) (layer F.SilkS)
    (effects (font (size 0.6 0.6) (thickness 0.12)))
  )
  (fp_text user 1 (at -2.9845 -2.4765 -90 unlocked) (layer F.SilkS)
    (effects (font (size 0.6 0.6) (thickness 0.12)))
  )
  (fp_text user 10 (at -2.9845 2.794 -90 unlocked) (layer F.SilkS)
    (effects (font (size 0.6 0.6) (thickness 0.12)))
  )
  (pad "" smd roundrect (at 0.875 0.875) (size 1.52 1.52) (layers F.Paste) (roundrect_rratio 0.164474))
  (pad "" smd roundrect (at 0.875 -0.875) (size 1.52 1.52) (layers F.Paste) (roundrect_rratio 0.164474))
  (pad "" smd roundrect (at -0.875 0.875) (size 1.52 1.52) (layers F.Paste) (roundrect_rratio 0.164474))
  (pad "" smd roundrect (at -0.875 -0.875) (size 1.52 1.52) (layers F.Paste) (roundrect_rratio 0.164474))
  (pad 41 smd rect (at 0 0) (size 3.5 3.5) (layers B.Cu B.Mask))
  (pad 41 thru_hole circle (at 1.5 1.5) (size 0.5 0.5) (drill 0.2) (layers *.Cu))
  (pad 41 thru_hole circle (at 0 1.5) (size 0.5 0.5) (drill 0.2) (layers *.Cu))
  (pad 41 thru_hole circle (at -1.5 1.5) (size 0.5 0.5) (drill 0.2) (layers *.Cu))
  (pad 41 thru_hole circle (at 1.5 0) (size 0.5 0.5) (drill 0.2) (layers *.Cu))
  (pad 41 thru_hole circle (at 0 0) (size 0.5 0.5) (drill 0.2) (layers *.Cu))
  (pad 41 thru_hole circle (at -1.5 0) (size 0.5 0.5) (drill 0.2) (layers *.Cu))
  (pad 41 thru_hole circle (at 1.5 -1.5) (size 0.5 0.5) (drill 0.2) (layers *.Cu))
  (pad 41 thru_hole circle (at 0 -1.5) (size 0.5 0.5) (drill 0.2) (layers *.Cu))
  (pad 41 thru_hole circle (at -1.5 -1.5) (size 0.5 0.5) (drill 0.2) (layers *.Cu))
  (pad 41 smd rect (at 0 0) (size 3.5 3.5) (layers F.Cu F.Mask))
  (pad 40 smd custom (at -1.8 -2.4375) (size 0.115147 0.115147) (layers F.Cu F.Paste F.Mask)
    (options (clearance outline) (anchor circle))
    (primitives
      (gr_poly (pts
         (xy -0.06 -0.3725) (xy 0.06 -0.3725) (xy 0.06 0.3725) (xy 0.036569 0.3725) (xy -0.06 0.275931)
) (width 0.08))
    ))
  (pad 39 smd roundrect (at -1.4 -2.4375) (size 0.2 0.825) (layers F.Cu F.Paste F.Mask) (roundrect_rratio 0.25))
  (pad 38 smd roundrect (at -1 -2.4375) (size 0.2 0.825) (layers F.Cu F.Paste F.Mask) (roundrect_rratio 0.25))
  (pad 37 smd roundrect (at -0.6 -2.4375) (size 0.2 0.825) (layers F.Cu F.Paste F.Mask) (roundrect_rratio 0.25))
  (pad 36 smd roundrect (at -0.2 -2.4375) (size 0.2 0.825) (layers F.Cu F.Paste F.Mask) (roundrect_rratio 0.25))
  (pad 35 smd roundrect (at 0.2 -2.4375) (size 0.2 0.825) (layers F.Cu F.Paste F.Mask) (roundrect_rratio 0.25))
  (pad 34 smd roundrect (at 0.6 -2.4375) (size 0.2 0.825) (layers F.Cu F.Paste F.Mask) (roundrect_rratio 0.25))
  (pad 33 smd roundrect (at 1 -2.4375) (size 0.2 0.825) (layers F.Cu F.Paste F.Mask) (roundrect_rratio 0.25))
  (pad 32 smd roundrect (at 1.4 -2.4375) (size 0.2 0.825) (layers F.Cu F.Paste F.Mask) (roundrect_rratio 0.25))
  (pad 31 smd custom (at 1.8 -2.4375) (size 0.115147 0.115147) (layers F.Cu F.Paste F.Mask)
    (options (clearance outline) (anchor circle))
    (primitives
      (gr_poly (pts
         (xy -0.06 -0.3725) (xy 0.06 -0.3725) (xy 0.06 0.275931) (xy -0.036569 0.3725) (xy -0.06 0.3725)
) (width 0.08))
    ))
  (pad 30 smd custom (at 2.4375 -1.8) (size 0.115147 0.115147) (layers F.Cu F.Paste F.Mask)
    (options (clearance outline) (anchor circle))
    (primitives
      (gr_poly (pts
         (xy -0.3725 0.036569) (xy -0.275931 -0.06) (xy 0.3725 -0.06) (xy 0.3725 0.06) (xy -0.3725 0.06)
) (width 0.08))
    ))
  (pad 29 smd roundrect (at 2.4375 -1.4) (size 0.825 0.2) (layers F.Cu F.Paste F.Mask) (roundrect_rratio 0.25))
  (pad 28 smd roundrect (at 2.4375 -1) (size 0.825 0.2) (layers F.Cu F.Paste F.Mask) (roundrect_rratio 0.25))
  (pad 27 smd roundrect (at 2.4375 -0.6) (size 0.825 0.2) (layers F.Cu F.Paste F.Mask) (roundrect_rratio 0.25))
  (pad 26 smd roundrect (at 2.4375 -0.2) (size 0.825 0.2) (layers F.Cu F.Paste F.Mask) (roundrect_rratio 0.25))
  (pad 25 smd roundrect (at 2.4375 0.2) (size 0.825 0.2) (layers F.Cu F.Paste F.Mask) (roundrect_rratio 0.25))
  (pad 24 smd roundrect (at 2.4375 0.6) (size 0.825 0.2) (layers F.Cu F.Paste F.Mask) (roundrect_rratio 0.25))
  (pad 23 smd roundrect (at 2.4375 1) (size 0.825 0.2) (layers F.Cu F.Paste F.Mask) (roundrect_rratio 0.25))
  (pad 22 smd roundrect (at 2.4375 1.4) (size 0.825 0.2) (layers F.Cu F.Paste F.Mask) (roundrect_rratio 0.25))
  (pad 21 smd custom (at 2.4375 1.8) (size 0.115147 0.115147) (layers F.Cu F.Paste F.Mask)
    (options (clearance outline) (anchor circle))
    (primitives
      (gr_poly (pts
         (xy -0.3725 -0.06) (xy 0.3725 -0.06) (xy 0.3725 0.06) (xy -0.275931 0.06) (xy -0.3725 -0.036569)
) (width 0.08))
    ))
  (pad 20 smd custom (at 1.8 2.4375) (size 0.115147 0.115147) (layers F.Cu F.Paste F.Mask)
    (options (clearance outline) (anchor circle))
    (primitives
      (gr_poly (pts
         (xy -0.06 -0.3725) (xy -0.036569 -0.3725) (xy 0.06 -0.275931) (xy 0.06 0.3725) (xy -0.06 0.3725)
) (width 0.08))
    ))
  (pad 19 smd roundrect (at 1.4 2.4375) (size 0.2 0.825) (layers F.Cu F.Paste F.Mask) (roundrect_rratio 0.25))
  (pad 18 smd roundrect (at 1 2.4375) (size 0.2 0.825) (layers F.Cu F.Paste F.Mask) (roundrect_rratio 0.25))
  (pad 17 smd roundrect (at 0.6 2.4375) (size 0.2 0.825) (layers F.Cu F.Paste F.Mask) (roundrect_rratio 0.25))
  (pad 16 smd roundrect (at 0.2 2.4375) (size 0.2 0.825) (layers F.Cu F.Paste F.Mask) (roundrect_rratio 0.25))
  (pad 15 smd roundrect (at -0.2 2.4375) (size 0.2 0.825) (layers F.Cu F.Paste F.Mask) (roundrect_rratio 0.25))
  (pad 14 smd roundrect (at -0.6 2.4375) (size 0.2 0.825) (layers F.Cu F.Paste F.Mask) (roundrect_rratio 0.25))
  (pad 13 smd roundrect (at -1 2.4375) (size 0.2 0.825) (layers F.Cu F.Paste F.Mask) (roundrect_rratio 0.25))
  (pad 12 smd roundrect (at -1.4 2.4375) (size 0.2 0.825) (layers F.Cu F.Paste F.Mask) (roundrect_rratio 0.25))
  (pad 11 smd custom (at -1.8 2.4375) (size 0.115147 0.115147) (layers F.Cu F.Paste F.Mask)
    (options (clearance outline) (anchor circle))
    (primitives
      (gr_poly (pts
         (xy -0.06 -0.275931) (xy 0.036569 -0.3725) (xy 0.06 -0.3725) (xy 0.06 0.3725) (xy -0.06 0.3725)
) (width 0.08))
    ))
  (pad 10 smd custom (at -2.4375 1.8) (size 0.115147 0.115147) (layers F.Cu F.Paste F.Mask)
    (options (clearance outline) (anchor circle))
    (primitives
      (gr_poly (pts
         (xy -0.3725 -0.06) (xy 0.3725 -0.06) (xy 0.3725 -0.036569) (xy 0.275931 0.06) (xy -0.3725 0.06)
) (width 0.08))
    ))
  (pad 9 smd roundrect (at -2.4375 1.4) (size 0.825 0.2) (layers F.Cu F.Paste F.Mask) (roundrect_rratio 0.25))
  (pad 8 smd roundrect (at -2.4375 1) (size 0.825 0.2) (layers F.Cu F.Paste F.Mask) (roundrect_rratio 0.25))
  (pad 7 smd roundrect (at -2.4375 0.6) (size 0.825 0.2) (layers F.Cu F.Paste F.Mask) (roundrect_rratio 0.25))
  (pad 6 smd roundrect (at -2.4375 0.2) (size 0.825 0.2) (layers F.Cu F.Paste F.Mask) (roundrect_rratio 0.25))
  (pad 5 smd roundrect (at -2.4375 -0.2) (size 0.825 0.2) (layers F.Cu F.Paste F.Mask) (roundrect_rratio 0.25))
  (pad 4 smd roundrect (at -2.4375 -0.6) (size 0.825 0.2) (layers F.Cu F.Paste F.Mask) (roundrect_rratio 0.25))
  (pad 3 smd roundrect (at -2.4375 -1) (size 0.825 0.2) (layers F.Cu F.Paste F.Mask) (roundrect_rratio 0.25))
  (pad 2 smd roundrect (at -2.4375 -1.4) (size 0.825 0.2) (layers F.Cu F.Paste F.Mask) (roundrect_rratio 0.25))
  (pad 1 smd custom (at -2.4375 -1.8) (size 0.115147 0.115147) (layers F.Cu F.Paste F.Mask)
    (options (clearance outline) (anchor circle))
    (primitives
      (gr_poly (pts
         (xy -0.3725 -0.06) (xy 0.275931 -0.06) (xy 0.3725 0.036569) (xy 0.3725 0.06) (xy -0.3725 0.06)
) (width 0.08))
    ))
  (model ${KISYS3DMOD}/Package_DFN_QFN.3dshapes/TQFN-40-1EP_5x5mm_P0.4mm_EP3.5x3.5mm.wrl
    (at (xyz 0 0 0))
    (scale (xyz 1 1 1))
    (rotate (xyz 0 0 0))
  )
)
