(module TQFN-16-1EP_5x5mm_P0.8mm_EP3.1x3.1mm (layer F.Cu) (tedit 607E8E54)
  (descr "TQFN, 16 Pin (https://pdfserv.maximintegrated.com/package_dwgs/21-0140.PDF (T1655-2)), Alternate KiCad Library")
  (tags "TQFN NoLead")
  (attr smd)
  (fp_text reference REF** (at 0 -3.8) (layer F.SilkS)
    (effects (font (size 1 1) (thickness 0.15)))
  )
  (fp_text value TQFN-16-1EP_5x5mm_P0.8mm_EP3.1x3.1mm (at 0 3.8) (layer F.Fab)
    (effects (font (size 1 1) (thickness 0.15)))
  )
  (fp_circle (center -2.9845 -2.9845) (end -2.921 -2.9845) (layer F.SilkS) (width 0.3))
  (fp_line (start -3.1115 -2.0955) (end -3.1115 2.54) (layer F.SilkS) (width 0.12))
  (fp_line (start -2.413 3.1115) (end 2.413 3.1115) (layer F.SilkS) (width 0.12))
  (fp_line (start 2.413 -3.1115) (end -2.6035 -3.1115) (layer F.SilkS) (width 0.12))
  (fp_line (start 3.1115 2.54) (end 3.1115 -2.032) (layer F.SilkS) (width 0.12))
  (fp_line (start 3.1 -3.1) (end -3.1 -3.1) (layer F.CrtYd) (width 0.05))
  (fp_line (start 3.1 3.1) (end 3.1 -3.1) (layer F.CrtYd) (width 0.05))
  (fp_line (start -3.1 3.1) (end 3.1 3.1) (layer F.CrtYd) (width 0.05))
  (fp_line (start -3.1 -3.1) (end -3.1 3.1) (layer F.CrtYd) (width 0.05))
  (fp_line (start -2.5 -1.5) (end -1.5 -2.5) (layer F.Fab) (width 0.1))
  (fp_line (start -2.5 2.5) (end -2.5 -1.5) (layer F.Fab) (width 0.1))
  (fp_line (start 2.5 2.5) (end -2.5 2.5) (layer F.Fab) (width 0.1))
  (fp_line (start 2.5 -2.5) (end 2.5 2.5) (layer F.Fab) (width 0.1))
  (fp_line (start -1.5 -2.5) (end 2.5 -2.5) (layer F.Fab) (width 0.1))
  (fp_text user %R (at 0 0) (layer F.Fab)
    (effects (font (size 1 1) (thickness 0.15)))
  )
  (fp_text user 12 (at 2.921 -2.7305 -90 unlocked) (layer F.SilkS)
    (effects (font (size 0.6 0.6) (thickness 0.12)))
  )
  (fp_text user 4 (at -2.9845 2.9845 -90 unlocked) (layer F.SilkS)
    (effects (font (size 0.6 0.6) (thickness 0.12)))
  )
  (fp_text user 8 (at 2.921 2.9845 -90 unlocked) (layer F.SilkS)
    (effects (font (size 0.6 0.6) (thickness 0.12)))
  )
  (fp_text user 1 (at -2.9845 -2.4765 -90 unlocked) (layer F.SilkS)
    (effects (font (size 0.6 0.6) (thickness 0.12)))
  )
  (pad "" smd roundrect (at 0.775 0.775) (size 1.25 1.25) (layers F.Paste) (roundrect_rratio 0.2))
  (pad "" smd roundrect (at 0.775 -0.775) (size 1.25 1.25) (layers F.Paste) (roundrect_rratio 0.2))
  (pad "" smd roundrect (at -0.775 0.775) (size 1.25 1.25) (layers F.Paste) (roundrect_rratio 0.2))
  (pad "" smd roundrect (at -0.775 -0.775) (size 1.25 1.25) (layers F.Paste) (roundrect_rratio 0.2))
  (pad 17 smd rect (at 0 0) (size 3.1 3.1) (layers F.Cu F.Mask))
  (pad 16 smd roundrect (at -1.2 -2.4375) (size 0.3 0.825) (layers F.Cu F.Paste F.Mask) (roundrect_rratio 0.25))
  (pad 15 smd roundrect (at -0.4 -2.4375) (size 0.3 0.825) (layers F.Cu F.Paste F.Mask) (roundrect_rratio 0.25))
  (pad 14 smd roundrect (at 0.4 -2.4375) (size 0.3 0.825) (layers F.Cu F.Paste F.Mask) (roundrect_rratio 0.25))
  (pad 13 smd roundrect (at 1.2 -2.4375) (size 0.3 0.825) (layers F.Cu F.Paste F.Mask) (roundrect_rratio 0.25))
  (pad 12 smd roundrect (at 2.4375 -1.2) (size 0.825 0.3) (layers F.Cu F.Paste F.Mask) (roundrect_rratio 0.25))
  (pad 11 smd roundrect (at 2.4375 -0.4) (size 0.825 0.3) (layers F.Cu F.Paste F.Mask) (roundrect_rratio 0.25))
  (pad 10 smd roundrect (at 2.4375 0.4) (size 0.825 0.3) (layers F.Cu F.Paste F.Mask) (roundrect_rratio 0.25))
  (pad 9 smd roundrect (at 2.4375 1.2) (size 0.825 0.3) (layers F.Cu F.Paste F.Mask) (roundrect_rratio 0.25))
  (pad 8 smd roundrect (at 1.2 2.4375) (size 0.3 0.825) (layers F.Cu F.Paste F.Mask) (roundrect_rratio 0.25))
  (pad 7 smd roundrect (at 0.4 2.4375) (size 0.3 0.825) (layers F.Cu F.Paste F.Mask) (roundrect_rratio 0.25))
  (pad 6 smd roundrect (at -0.4 2.4375) (size 0.3 0.825) (layers F.Cu F.Paste F.Mask) (roundrect_rratio 0.25))
  (pad 5 smd roundrect (at -1.2 2.4375) (size 0.3 0.825) (layers F.Cu F.Paste F.Mask) (roundrect_rratio 0.25))
  (pad 4 smd roundrect (at -2.4375 1.2) (size 0.825 0.3) (layers F.Cu F.Paste F.Mask) (roundrect_rratio 0.25))
  (pad 3 smd roundrect (at -2.4375 0.4) (size 0.825 0.3) (layers F.Cu F.Paste F.Mask) (roundrect_rratio 0.25))
  (pad 2 smd roundrect (at -2.4375 -0.4) (size 0.825 0.3) (layers F.Cu F.Paste F.Mask) (roundrect_rratio 0.25))
  (pad 1 smd roundrect (at -2.4375 -1.2) (size 0.825 0.3) (layers F.Cu F.Paste F.Mask) (roundrect_rratio 0.25))
  (model ${KISYS3DMOD}/Package_DFN_QFN.3dshapes/TQFN-16-1EP_5x5mm_P0.8mm_EP3.1x3.1mm.wrl
    (at (xyz 0 0 0))
    (scale (xyz 1 1 1))
    (rotate (xyz 0 0 0))
  )
)
