(module TQFN-28-1EP_5x5mm_P0.5mm_EP2.7x2.7mm_ThermalVias (layer F.Cu) (tedit 607E8EC8)
  (descr "TQFN, 28 Pin (https://pdfserv.maximintegrated.com/package_dwgs/21-0140.PDF (T2855-4)), Alternate KiCad Library")
  (tags "TQFN NoLead")
  (attr smd)
  (fp_text reference REF** (at 0 -3.8) (layer F.SilkS)
    (effects (font (size 1 1) (thickness 0.15)))
  )
  (fp_text value TQFN-28-1EP_5x5mm_P0.5mm_EP2.7x2.7mm_ThermalVias (at 0 3.8) (layer F.Fab)
    (effects (font (size 1 1) (thickness 0.15)))
  )
  (fp_line (start 2.413 -3.1115) (end -2.6035 -3.1115) (layer F.SilkS) (width 0.12))
  (fp_circle (center -2.9845 -2.9845) (end -2.921 -2.9845) (layer F.SilkS) (width 0.3))
  (fp_line (start 3.1115 2.0955) (end 3.1115 -2.2225) (layer F.SilkS) (width 0.12))
  (fp_line (start -3.1115 -2.0955) (end -3.1115 2.6035) (layer F.SilkS) (width 0.12))
  (fp_line (start -2.413 3.1115) (end 2.413 3.1115) (layer F.SilkS) (width 0.12))
  (fp_line (start 3.1 -3.1) (end -3.1 -3.1) (layer F.CrtYd) (width 0.05))
  (fp_line (start 3.1 3.1) (end 3.1 -3.1) (layer F.CrtYd) (width 0.05))
  (fp_line (start -3.1 3.1) (end 3.1 3.1) (layer F.CrtYd) (width 0.05))
  (fp_line (start -3.1 -3.1) (end -3.1 3.1) (layer F.CrtYd) (width 0.05))
  (fp_line (start -2.5 -1.5) (end -1.5 -2.5) (layer F.Fab) (width 0.1))
  (fp_line (start -2.5 2.5) (end -2.5 -1.5) (layer F.Fab) (width 0.1))
  (fp_line (start 2.5 2.5) (end -2.5 2.5) (layer F.Fab) (width 0.1))
  (fp_line (start 2.5 -2.5) (end 2.5 2.5) (layer F.Fab) (width 0.1))
  (fp_line (start -1.5 -2.5) (end 2.5 -2.5) (layer F.Fab) (width 0.1))
  (fp_text user %R (at 0 0) (layer F.Fab)
    (effects (font (size 1 1) (thickness 0.15)))
  )
  (fp_text user 21 (at 2.921 -2.794 -90 unlocked) (layer F.SilkS)
    (effects (font (size 0.6 0.6) (thickness 0.12)))
  )
  (fp_text user 14 (at 2.921 2.794 -90 unlocked) (layer F.SilkS)
    (effects (font (size 0.6 0.6) (thickness 0.12)))
  )
  (fp_text user 7 (at -2.9845 2.921 -90 unlocked) (layer F.SilkS)
    (effects (font (size 0.6 0.6) (thickness 0.12)))
  )
  (fp_text user 1 (at -2.9845 -2.4765 -90 unlocked) (layer F.SilkS)
    (effects (font (size 0.6 0.6) (thickness 0.12)))
  )
  (pad "" smd roundrect (at 0.675 0.675) (size 1.17 1.17) (layers F.Paste) (roundrect_rratio 0.213675))
  (pad "" smd roundrect (at 0.675 -0.675) (size 1.17 1.17) (layers F.Paste) (roundrect_rratio 0.213675))
  (pad "" smd roundrect (at -0.675 0.675) (size 1.17 1.17) (layers F.Paste) (roundrect_rratio 0.213675))
  (pad "" smd roundrect (at -0.675 -0.675) (size 1.17 1.17) (layers F.Paste) (roundrect_rratio 0.213675))
  (pad 29 smd rect (at 0 0) (size 2.7 2.7) (layers B.Cu B.Mask))
  (pad 29 thru_hole circle (at 1.1 1.1) (size 0.5 0.5) (drill 0.2) (layers *.Cu))
  (pad 29 thru_hole circle (at -1.1 1.1) (size 0.5 0.5) (drill 0.2) (layers *.Cu))
  (pad 29 thru_hole circle (at 1.1 -1.1) (size 0.5 0.5) (drill 0.2) (layers *.Cu))
  (pad 29 thru_hole circle (at -1.1 -1.1) (size 0.5 0.5) (drill 0.2) (layers *.Cu))
  (pad 29 smd rect (at 0 0) (size 2.7 2.7) (layers F.Cu F.Mask))
  (pad 28 smd roundrect (at -1.5 -2.3625) (size 0.25 0.975) (layers F.Cu F.Paste F.Mask) (roundrect_rratio 0.25))
  (pad 27 smd roundrect (at -1 -2.3625) (size 0.25 0.975) (layers F.Cu F.Paste F.Mask) (roundrect_rratio 0.25))
  (pad 26 smd roundrect (at -0.5 -2.3625) (size 0.25 0.975) (layers F.Cu F.Paste F.Mask) (roundrect_rratio 0.25))
  (pad 25 smd roundrect (at 0 -2.3625) (size 0.25 0.975) (layers F.Cu F.Paste F.Mask) (roundrect_rratio 0.25))
  (pad 24 smd roundrect (at 0.5 -2.3625) (size 0.25 0.975) (layers F.Cu F.Paste F.Mask) (roundrect_rratio 0.25))
  (pad 23 smd roundrect (at 1 -2.3625) (size 0.25 0.975) (layers F.Cu F.Paste F.Mask) (roundrect_rratio 0.25))
  (pad 22 smd roundrect (at 1.5 -2.3625) (size 0.25 0.975) (layers F.Cu F.Paste F.Mask) (roundrect_rratio 0.25))
  (pad 21 smd roundrect (at 2.3625 -1.5) (size 0.975 0.25) (layers F.Cu F.Paste F.Mask) (roundrect_rratio 0.25))
  (pad 20 smd roundrect (at 2.3625 -1) (size 0.975 0.25) (layers F.Cu F.Paste F.Mask) (roundrect_rratio 0.25))
  (pad 19 smd roundrect (at 2.3625 -0.5) (size 0.975 0.25) (layers F.Cu F.Paste F.Mask) (roundrect_rratio 0.25))
  (pad 18 smd roundrect (at 2.3625 0) (size 0.975 0.25) (layers F.Cu F.Paste F.Mask) (roundrect_rratio 0.25))
  (pad 17 smd roundrect (at 2.3625 0.5) (size 0.975 0.25) (layers F.Cu F.Paste F.Mask) (roundrect_rratio 0.25))
  (pad 16 smd roundrect (at 2.3625 1) (size 0.975 0.25) (layers F.Cu F.Paste F.Mask) (roundrect_rratio 0.25))
  (pad 15 smd roundrect (at 2.3625 1.5) (size 0.975 0.25) (layers F.Cu F.Paste F.Mask) (roundrect_rratio 0.25))
  (pad 14 smd roundrect (at 1.5 2.3625) (size 0.25 0.975) (layers F.Cu F.Paste F.Mask) (roundrect_rratio 0.25))
  (pad 13 smd roundrect (at 1 2.3625) (size 0.25 0.975) (layers F.Cu F.Paste F.Mask) (roundrect_rratio 0.25))
  (pad 12 smd roundrect (at 0.5 2.3625) (size 0.25 0.975) (layers F.Cu F.Paste F.Mask) (roundrect_rratio 0.25))
  (pad 11 smd roundrect (at 0 2.3625) (size 0.25 0.975) (layers F.Cu F.Paste F.Mask) (roundrect_rratio 0.25))
  (pad 10 smd roundrect (at -0.5 2.3625) (size 0.25 0.975) (layers F.Cu F.Paste F.Mask) (roundrect_rratio 0.25))
  (pad 9 smd roundrect (at -1 2.3625) (size 0.25 0.975) (layers F.Cu F.Paste F.Mask) (roundrect_rratio 0.25))
  (pad 8 smd roundrect (at -1.5 2.3625) (size 0.25 0.975) (layers F.Cu F.Paste F.Mask) (roundrect_rratio 0.25))
  (pad 7 smd roundrect (at -2.3625 1.5) (size 0.975 0.25) (layers F.Cu F.Paste F.Mask) (roundrect_rratio 0.25))
  (pad 6 smd roundrect (at -2.3625 1) (size 0.975 0.25) (layers F.Cu F.Paste F.Mask) (roundrect_rratio 0.25))
  (pad 5 smd roundrect (at -2.3625 0.5) (size 0.975 0.25) (layers F.Cu F.Paste F.Mask) (roundrect_rratio 0.25))
  (pad 4 smd roundrect (at -2.3625 0) (size 0.975 0.25) (layers F.Cu F.Paste F.Mask) (roundrect_rratio 0.25))
  (pad 3 smd roundrect (at -2.3625 -0.5) (size 0.975 0.25) (layers F.Cu F.Paste F.Mask) (roundrect_rratio 0.25))
  (pad 2 smd roundrect (at -2.3625 -1) (size 0.975 0.25) (layers F.Cu F.Paste F.Mask) (roundrect_rratio 0.25))
  (pad 1 smd roundrect (at -2.3625 -1.5) (size 0.975 0.25) (layers F.Cu F.Paste F.Mask) (roundrect_rratio 0.25))
  (model ${KISYS3DMOD}/Package_DFN_QFN.3dshapes/TQFN-28-1EP_5x5mm_P0.5mm_EP2.7x2.7mm.wrl
    (at (xyz 0 0 0))
    (scale (xyz 1 1 1))
    (rotate (xyz 0 0 0))
  )
)
