(module UQFN-16-1EP_4x4mm_P0.65mm_EP2.6x2.6mm_ThermalVias (layer F.Cu) (tedit 607E913E)
  (descr "UQFN, 16 Pin (http://ww1.microchip.com/downloads/en/DeviceDoc/16L_UQFN_4x4x0_5mm_JQ_C04257A.pdf), Alternate KiCad Library")
  (tags "UQFN NoLead")
  (attr smd)
  (fp_text reference REF** (at 0 -3.3) (layer F.SilkS)
    (effects (font (size 1 1) (thickness 0.15)))
  )
  (fp_text value UQFN-16-1EP_4x4mm_P0.65mm_EP2.6x2.6mm_ThermalVias (at 0 3.3) (layer F.Fab)
    (effects (font (size 1 1) (thickness 0.15)))
  )
  (fp_line (start -2.6035 -1.651) (end -2.6035 2.0955) (layer F.SilkS) (width 0.12))
  (fp_line (start 2.6035 2.0955) (end 2.6035 -1.524) (layer F.SilkS) (width 0.12))
  (fp_circle (center -2.4765 -2.4765) (end -2.413 -2.4765) (layer F.SilkS) (width 0.3))
  (fp_line (start -1.8415 2.6035) (end 1.8415 2.6035) (layer F.SilkS) (width 0.12))
  (fp_line (start 1.8415 -2.6035) (end -2.0955 -2.6035) (layer F.SilkS) (width 0.12))
  (fp_line (start 2.6 -2.6) (end -2.6 -2.6) (layer F.CrtYd) (width 0.05))
  (fp_line (start 2.6 2.6) (end 2.6 -2.6) (layer F.CrtYd) (width 0.05))
  (fp_line (start -2.6 2.6) (end 2.6 2.6) (layer F.CrtYd) (width 0.05))
  (fp_line (start -2.6 -2.6) (end -2.6 2.6) (layer F.CrtYd) (width 0.05))
  (fp_line (start -2 -1) (end -1 -2) (layer F.Fab) (width 0.1))
  (fp_line (start -2 2) (end -2 -1) (layer F.Fab) (width 0.1))
  (fp_line (start 2 2) (end -2 2) (layer F.Fab) (width 0.1))
  (fp_line (start 2 -2) (end 2 2) (layer F.Fab) (width 0.1))
  (fp_line (start -1 -2) (end 2 -2) (layer F.Fab) (width 0.1))
  (fp_text user %R (at 0 0) (layer F.Fab)
    (effects (font (size 1 1) (thickness 0.15)))
  )
  (fp_text user 4 (at -2.4765 2.54 -90 unlocked) (layer F.SilkS)
    (effects (font (size 0.6 0.6) (thickness 0.12)))
  )
  (fp_text user 1 (at -2.4765 -2.032 -90 unlocked) (layer F.SilkS)
    (effects (font (size 0.6 0.6) (thickness 0.12)))
  )
  (fp_text user 8 (at 2.413 2.54 -90 unlocked) (layer F.SilkS)
    (effects (font (size 0.6 0.6) (thickness 0.12)))
  )
  (fp_text user 12 (at 2.413 -2.286 -90 unlocked) (layer F.SilkS)
    (effects (font (size 0.6 0.6) (thickness 0.12)))
  )
  (pad "" smd roundrect (at 0.65 0.65) (size 1.13 1.13) (layers F.Paste) (roundrect_rratio 0.221239))
  (pad "" smd roundrect (at 0.65 -0.65) (size 1.13 1.13) (layers F.Paste) (roundrect_rratio 0.221239))
  (pad "" smd roundrect (at -0.65 0.65) (size 1.13 1.13) (layers F.Paste) (roundrect_rratio 0.221239))
  (pad "" smd roundrect (at -0.65 -0.65) (size 1.13 1.13) (layers F.Paste) (roundrect_rratio 0.221239))
  (pad 17 smd rect (at 0 0) (size 2.6 2.6) (layers B.Cu B.Mask))
  (pad 17 thru_hole circle (at 1.05 1.05) (size 0.5 0.5) (drill 0.2) (layers *.Cu))
  (pad 17 thru_hole circle (at 0 1.05) (size 0.5 0.5) (drill 0.2) (layers *.Cu))
  (pad 17 thru_hole circle (at -1.05 1.05) (size 0.5 0.5) (drill 0.2) (layers *.Cu))
  (pad 17 thru_hole circle (at 1.05 0) (size 0.5 0.5) (drill 0.2) (layers *.Cu))
  (pad 17 thru_hole circle (at 0 0) (size 0.5 0.5) (drill 0.2) (layers *.Cu))
  (pad 17 thru_hole circle (at -1.05 0) (size 0.5 0.5) (drill 0.2) (layers *.Cu))
  (pad 17 thru_hole circle (at 1.05 -1.05) (size 0.5 0.5) (drill 0.2) (layers *.Cu))
  (pad 17 thru_hole circle (at 0 -1.05) (size 0.5 0.5) (drill 0.2) (layers *.Cu))
  (pad 17 thru_hole circle (at -1.05 -1.05) (size 0.5 0.5) (drill 0.2) (layers *.Cu))
  (pad 17 smd rect (at 0 0) (size 2.6 2.6) (layers F.Cu F.Mask))
  (pad 16 smd roundrect (at -0.975 -1.9375) (size 0.3 0.825) (layers F.Cu F.Paste F.Mask) (roundrect_rratio 0.25))
  (pad 15 smd roundrect (at -0.325 -1.9375) (size 0.3 0.825) (layers F.Cu F.Paste F.Mask) (roundrect_rratio 0.25))
  (pad 14 smd roundrect (at 0.325 -1.9375) (size 0.3 0.825) (layers F.Cu F.Paste F.Mask) (roundrect_rratio 0.25))
  (pad 13 smd roundrect (at 0.975 -1.9375) (size 0.3 0.825) (layers F.Cu F.Paste F.Mask) (roundrect_rratio 0.25))
  (pad 12 smd roundrect (at 1.9375 -0.975) (size 0.825 0.3) (layers F.Cu F.Paste F.Mask) (roundrect_rratio 0.25))
  (pad 11 smd roundrect (at 1.9375 -0.325) (size 0.825 0.3) (layers F.Cu F.Paste F.Mask) (roundrect_rratio 0.25))
  (pad 10 smd roundrect (at 1.9375 0.325) (size 0.825 0.3) (layers F.Cu F.Paste F.Mask) (roundrect_rratio 0.25))
  (pad 9 smd roundrect (at 1.9375 0.975) (size 0.825 0.3) (layers F.Cu F.Paste F.Mask) (roundrect_rratio 0.25))
  (pad 8 smd roundrect (at 0.975 1.9375) (size 0.3 0.825) (layers F.Cu F.Paste F.Mask) (roundrect_rratio 0.25))
  (pad 7 smd roundrect (at 0.325 1.9375) (size 0.3 0.825) (layers F.Cu F.Paste F.Mask) (roundrect_rratio 0.25))
  (pad 6 smd roundrect (at -0.325 1.9375) (size 0.3 0.825) (layers F.Cu F.Paste F.Mask) (roundrect_rratio 0.25))
  (pad 5 smd roundrect (at -0.975 1.9375) (size 0.3 0.825) (layers F.Cu F.Paste F.Mask) (roundrect_rratio 0.25))
  (pad 4 smd roundrect (at -1.9375 0.975) (size 0.825 0.3) (layers F.Cu F.Paste F.Mask) (roundrect_rratio 0.25))
  (pad 3 smd roundrect (at -1.9375 0.325) (size 0.825 0.3) (layers F.Cu F.Paste F.Mask) (roundrect_rratio 0.25))
  (pad 2 smd roundrect (at -1.9375 -0.325) (size 0.825 0.3) (layers F.Cu F.Paste F.Mask) (roundrect_rratio 0.25))
  (pad 1 smd roundrect (at -1.9375 -0.975) (size 0.825 0.3) (layers F.Cu F.Paste F.Mask) (roundrect_rratio 0.25))
  (model ${KISYS3DMOD}/Package_DFN_QFN.3dshapes/UQFN-16-1EP_4x4mm_P0.65mm_EP2.6x2.6mm.wrl
    (at (xyz 0 0 0))
    (scale (xyz 1 1 1))
    (rotate (xyz 0 0 0))
  )
)
