(module UQFN-16-1EP_3x3mm_P0.5mm_EP1.75x1.75mm (layer F.Cu) (tedit 607E9130)
  (descr "16-Lead Ultra Thin Quad Flat, No Lead Package (UC) - 3x3x0.5 mm Body [UQFN]; (see Microchip Packaging Specification 00000049BS.pdf), Alternate KiCad Library")
  (tags "QFN 0.5")
  (attr smd)
  (fp_text reference REF** (at 0 -2.9) (layer F.SilkS)
    (effects (font (size 1 1) (thickness 0.15)))
  )
  (fp_text value UQFN-16-1EP_3x3mm_P0.5mm_EP1.75x1.75mm (at 0 2.9) (layer F.Fab)
    (effects (font (size 1 1) (thickness 0.15)))
  )
  (fp_line (start -1.5875 -2.0955) (end 1.27 -2.0955) (layer F.SilkS) (width 0.12))
  (fp_line (start 1.3335 2.0955) (end -1.3335 2.0955) (layer F.SilkS) (width 0.12))
  (fp_circle (center -1.9685 -1.9685) (end -1.905 -1.9685) (layer F.SilkS) (width 0.3))
  (fp_line (start 2.0955 -1.016) (end 2.0955 1.5875) (layer F.SilkS) (width 0.12))
  (fp_line (start -2.0955 1.5875) (end -2.0955 -1.143) (layer F.SilkS) (width 0.12))
  (fp_line (start -2.15 2.15) (end 2.15 2.15) (layer F.CrtYd) (width 0.05))
  (fp_line (start -2.15 -2.15) (end 2.15 -2.15) (layer F.CrtYd) (width 0.05))
  (fp_line (start 2.15 -2.15) (end 2.15 2.15) (layer F.CrtYd) (width 0.05))
  (fp_line (start -2.15 -2.15) (end -2.15 2.15) (layer F.CrtYd) (width 0.05))
  (fp_line (start -1.5 -0.5) (end -0.5 -1.5) (layer F.Fab) (width 0.15))
  (fp_line (start -1.5 1.5) (end -1.5 -0.5) (layer F.Fab) (width 0.15))
  (fp_line (start 1.5 1.5) (end -1.5 1.5) (layer F.Fab) (width 0.15))
  (fp_line (start 1.5 -1.5) (end 1.5 1.5) (layer F.Fab) (width 0.15))
  (fp_line (start -0.5 -1.5) (end 1.5 -1.5) (layer F.Fab) (width 0.15))
  (fp_text user %R (at 0 0) (layer F.Fab)
    (effects (font (size 0.7 0.7) (thickness 0.105)))
  )
  (fp_text user 12 (at 1.905 -1.778 -90 unlocked) (layer F.SilkS)
    (effects (font (size 0.6 0.6) (thickness 0.12)))
  )
  (fp_text user 8 (at 1.905 2.032 -90 unlocked) (layer F.SilkS)
    (effects (font (size 0.6 0.6) (thickness 0.12)))
  )
  (fp_text user 4 (at -1.9685 2.032 -90 unlocked) (layer F.SilkS)
    (effects (font (size 0.6 0.6) (thickness 0.12)))
  )
  (fp_text user 1 (at -1.9685 -1.524 -90 unlocked) (layer F.SilkS)
    (effects (font (size 0.6 0.6) (thickness 0.12)))
  )
  (pad "" smd rect (at 0.4375 -0.4375) (size 0.7 0.7) (layers F.Paste))
  (pad "" smd rect (at -0.4375 -0.4375) (size 0.7 0.7) (layers F.Paste))
  (pad "" smd rect (at -0.4375 0.4375) (size 0.7 0.7) (layers F.Paste))
  (pad 17 smd rect (at 0 0) (size 1.75 1.75) (layers F.Cu F.Mask))
  (pad "" smd rect (at 0.4375 0.4375) (size 0.7 0.7) (layers F.Paste))
  (pad 16 smd oval (at -0.75 -1.5 90) (size 0.8 0.3) (layers F.Cu F.Paste F.Mask))
  (pad 15 smd oval (at -0.25 -1.5 90) (size 0.8 0.3) (layers F.Cu F.Paste F.Mask))
  (pad 14 smd oval (at 0.25 -1.5 90) (size 0.8 0.3) (layers F.Cu F.Paste F.Mask))
  (pad 13 smd oval (at 0.75 -1.5 90) (size 0.8 0.3) (layers F.Cu F.Paste F.Mask))
  (pad 12 smd oval (at 1.5 -0.75) (size 0.8 0.3) (layers F.Cu F.Paste F.Mask))
  (pad 11 smd oval (at 1.5 -0.25) (size 0.8 0.3) (layers F.Cu F.Paste F.Mask))
  (pad 10 smd oval (at 1.5 0.25) (size 0.8 0.3) (layers F.Cu F.Paste F.Mask))
  (pad 9 smd oval (at 1.5 0.75) (size 0.8 0.3) (layers F.Cu F.Paste F.Mask))
  (pad 8 smd oval (at 0.75 1.5 90) (size 0.8 0.3) (layers F.Cu F.Paste F.Mask))
  (pad 7 smd oval (at 0.25 1.5 90) (size 0.8 0.3) (layers F.Cu F.Paste F.Mask))
  (pad 6 smd oval (at -0.25 1.5 90) (size 0.8 0.3) (layers F.Cu F.Paste F.Mask))
  (pad 5 smd oval (at -0.75 1.5 90) (size 0.8 0.3) (layers F.Cu F.Paste F.Mask))
  (pad 4 smd oval (at -1.5 0.75) (size 0.8 0.3) (layers F.Cu F.Paste F.Mask))
  (pad 3 smd oval (at -1.5 0.25) (size 0.8 0.3) (layers F.Cu F.Paste F.Mask))
  (pad 2 smd oval (at -1.5 -0.25) (size 0.8 0.3) (layers F.Cu F.Paste F.Mask))
  (pad 1 smd oval (at -1.5 -0.75) (size 0.8 0.3) (layers F.Cu F.Paste F.Mask))
  (model ${KISYS3DMOD}/Package_DFN_QFN.3dshapes/UQFN-16-1EP_3x3mm_P0.5mm_EP1.75x1.75mm.wrl
    (at (xyz 0 0 0))
    (scale (xyz 1 1 1))
    (rotate (xyz 0 0 0))
  )
)
