(module UQFN-16-1EP_4x4mm_P0.65mm_EP2.7x2.7mm (layer F.Cu) (tedit 607E9145)
  (descr "16-Lead Ultra Thin Plastic Quad Flat, No Lead Package (JQ) - 4x4x0.5 mm Body [UQFN]; (see Microchip Packaging Specification 00000049BS.pdf), Alternate KiCad Library")
  (tags "QFN 0.65")
  (attr smd)
  (fp_text reference REF** (at 0 -3.4) (layer F.SilkS)
    (effects (font (size 1 1) (thickness 0.15)))
  )
  (fp_text value UQFN-16-1EP_4x4mm_P0.65mm_EP2.7x2.7mm (at 0 3.4) (layer F.Fab)
    (effects (font (size 1 1) (thickness 0.15)))
  )
  (fp_line (start -2.6035 -1.651) (end -2.6035 2.0955) (layer F.SilkS) (width 0.12))
  (fp_line (start 2.6035 2.0955) (end 2.6035 -1.524) (layer F.SilkS) (width 0.12))
  (fp_circle (center -2.4765 -2.4765) (end -2.413 -2.4765) (layer F.SilkS) (width 0.3))
  (fp_line (start -1.8415 2.6035) (end 1.8415 2.6035) (layer F.SilkS) (width 0.12))
  (fp_line (start 1.8415 -2.6035) (end -2.0955 -2.6035) (layer F.SilkS) (width 0.12))
  (fp_line (start -2.65 2.65) (end 2.65 2.65) (layer F.CrtYd) (width 0.05))
  (fp_line (start -2.65 -2.65) (end 2.65 -2.65) (layer F.CrtYd) (width 0.05))
  (fp_line (start 2.65 -2.65) (end 2.65 2.65) (layer F.CrtYd) (width 0.05))
  (fp_line (start -2.65 -2.65) (end -2.65 2.65) (layer F.CrtYd) (width 0.05))
  (fp_line (start -2 -1) (end -1 -2) (layer F.Fab) (width 0.15))
  (fp_line (start -2 2) (end -2 -1) (layer F.Fab) (width 0.15))
  (fp_line (start 2 2) (end -2 2) (layer F.Fab) (width 0.15))
  (fp_line (start 2 -2) (end 2 2) (layer F.Fab) (width 0.15))
  (fp_line (start -1 -2) (end 2 -2) (layer F.Fab) (width 0.15))
  (fp_text user %R (at 0 0) (layer F.Fab)
    (effects (font (size 1 1) (thickness 0.15)))
  )
  (fp_text user 4 (at -2.4765 2.54 -90 unlocked) (layer F.SilkS)
    (effects (font (size 0.6 0.6) (thickness 0.12)))
  )
  (fp_text user 1 (at -2.4765 -2.032 -90 unlocked) (layer F.SilkS)
    (effects (font (size 0.6 0.6) (thickness 0.12)))
  )
  (fp_text user 8 (at 2.413 2.54 -90 unlocked) (layer F.SilkS)
    (effects (font (size 0.6 0.6) (thickness 0.12)))
  )
  (fp_text user 12 (at 2.413 -2.286 -90 unlocked) (layer F.SilkS)
    (effects (font (size 0.6 0.6) (thickness 0.12)))
  )
  (pad "" smd rect (at 0.675 -0.675) (size 1.09 1.09) (layers F.Paste))
  (pad "" smd rect (at -0.675 -0.675) (size 1.09 1.09) (layers F.Paste))
  (pad "" smd rect (at -0.675 0.675) (size 1.09 1.09) (layers F.Paste))
  (pad 17 smd rect (at 0 0) (size 2.7 2.7) (layers F.Cu F.Mask))
  (pad "" smd rect (at 0.675 0.675) (size 1.09 1.09) (layers F.Paste))
  (pad 16 smd oval (at -0.975 -2 90) (size 0.8 0.35) (layers F.Cu F.Paste F.Mask))
  (pad 15 smd oval (at -0.325 -2 90) (size 0.8 0.35) (layers F.Cu F.Paste F.Mask))
  (pad 14 smd oval (at 0.325 -2 90) (size 0.8 0.35) (layers F.Cu F.Paste F.Mask))
  (pad 13 smd oval (at 0.975 -2 90) (size 0.8 0.35) (layers F.Cu F.Paste F.Mask))
  (pad 12 smd oval (at 2 -0.975) (size 0.8 0.35) (layers F.Cu F.Paste F.Mask))
  (pad 11 smd oval (at 2 -0.325) (size 0.8 0.35) (layers F.Cu F.Paste F.Mask))
  (pad 10 smd oval (at 2 0.325) (size 0.8 0.35) (layers F.Cu F.Paste F.Mask))
  (pad 9 smd oval (at 2 0.975) (size 0.8 0.35) (layers F.Cu F.Paste F.Mask))
  (pad 8 smd oval (at 0.975 2 90) (size 0.8 0.35) (layers F.Cu F.Paste F.Mask))
  (pad 7 smd oval (at 0.325 2 90) (size 0.8 0.35) (layers F.Cu F.Paste F.Mask))
  (pad 6 smd oval (at -0.325 2 90) (size 0.8 0.35) (layers F.Cu F.Paste F.Mask))
  (pad 5 smd oval (at -0.975 2 90) (size 0.8 0.35) (layers F.Cu F.Paste F.Mask))
  (pad 4 smd oval (at -2 0.975) (size 0.8 0.35) (layers F.Cu F.Paste F.Mask))
  (pad 3 smd oval (at -2 0.325) (size 0.8 0.35) (layers F.Cu F.Paste F.Mask))
  (pad 2 smd oval (at -2 -0.325) (size 0.8 0.35) (layers F.Cu F.Paste F.Mask))
  (pad 1 smd oval (at -2 -0.975) (size 0.8 0.35) (layers F.Cu F.Paste F.Mask))
  (model ${KISYS3DMOD}/Package_DFN_QFN.3dshapes/UQFN-16-1EP_4x4mm_P0.65mm_EP2.7x2.7mm.wrl
    (at (xyz 0 0 0))
    (scale (xyz 1 1 1))
    (rotate (xyz 0 0 0))
  )
)
