(module UQFN-40-1EP_5x5mm_P0.4mm_EP3.8x3.8mm (layer F.Cu) (tedit 607E91ED)
  (descr "UQFN, 40 Pin (http://ww1.microchip.com/downloads/en/PackagingSpec/00000049BQ.pdf#page=345), Alternate KiCad Library")
  (tags "UQFN NoLead")
  (attr smd)
  (fp_text reference REF** (at 0 -4.1275) (layer F.SilkS)
    (effects (font (size 1 1) (thickness 0.15)))
  )
  (fp_text value UQFN-40-1EP_5x5mm_P0.4mm_EP3.8x3.8mm (at 0 3.8) (layer F.Fab)
    (effects (font (size 1 1) (thickness 0.15)))
  )
  (fp_line (start -1.8 -3.1115) (end -1.8 -3.429) (layer F.SilkS) (width 0.12))
  (fp_line (start -3.1115 1.8) (end -3.429 1.8) (layer F.SilkS) (width 0.12))
  (fp_line (start -2.3495 3.1115) (end 2.413 3.1115) (layer F.SilkS) (width 0.12))
  (fp_circle (center -2.9845 -2.9845) (end -2.921 -2.9845) (layer F.SilkS) (width 0.3))
  (fp_line (start -3.1115 -2.0955) (end -3.1115 2.032) (layer F.SilkS) (width 0.12))
  (fp_line (start 0.2 -3.1115) (end 0.2 -3.302) (layer F.SilkS) (width 0.12))
  (fp_line (start 3.1115 0.2) (end 3.302 0.2) (layer F.SilkS) (width 0.12))
  (fp_line (start 1.8 3.1115) (end 1.8 3.429) (layer F.SilkS) (width 0.12))
  (fp_line (start 3.1115 -1.8) (end 3.429 -1.8) (layer F.SilkS) (width 0.12))
  (fp_line (start -0.2 3.1115) (end -0.2 3.302) (layer F.SilkS) (width 0.12))
  (fp_line (start 2.413 -3.1115) (end -2.6035 -3.1115) (layer F.SilkS) (width 0.12))
  (fp_line (start 3.1115 2.032) (end 3.1115 -2.032) (layer F.SilkS) (width 0.12))
  (fp_line (start -3.1115 -0.2) (end -3.302 -0.2) (layer F.SilkS) (width 0.12))
  (fp_line (start 3.1 -3.1) (end -3.1 -3.1) (layer F.CrtYd) (width 0.05))
  (fp_line (start 3.1 3.1) (end 3.1 -3.1) (layer F.CrtYd) (width 0.05))
  (fp_line (start -3.1 3.1) (end 3.1 3.1) (layer F.CrtYd) (width 0.05))
  (fp_line (start -3.1 -3.1) (end -3.1 3.1) (layer F.CrtYd) (width 0.05))
  (fp_line (start -2.5 -1.5) (end -1.5 -2.5) (layer F.Fab) (width 0.1))
  (fp_line (start -2.5 2.5) (end -2.5 -1.5) (layer F.Fab) (width 0.1))
  (fp_line (start 2.5 2.5) (end -2.5 2.5) (layer F.Fab) (width 0.1))
  (fp_line (start 2.5 -2.5) (end 2.5 2.5) (layer F.Fab) (width 0.1))
  (fp_line (start -1.5 -2.5) (end 2.5 -2.5) (layer F.Fab) (width 0.1))
  (fp_text user %R (at 0 0) (layer F.Fab)
    (effects (font (size 1 1) (thickness 0.15)))
  )
  (fp_text user 1 (at -2.9845 -2.4765 -90 unlocked) (layer F.SilkS)
    (effects (font (size 0.6 0.6) (thickness 0.12)))
  )
  (fp_text user 30 (at 2.921 -2.7305 -90 unlocked) (layer F.SilkS)
    (effects (font (size 0.6 0.6) (thickness 0.12)))
  )
  (fp_text user 20 (at 2.921 2.7305 -90 unlocked) (layer F.SilkS)
    (effects (font (size 0.6 0.6) (thickness 0.12)))
  )
  (fp_text user 10 (at -2.9845 2.7305 -90 unlocked) (layer F.SilkS)
    (effects (font (size 0.6 0.6) (thickness 0.12)))
  )
  (pad "" smd roundrect (at 1.27 1.27) (size 1.02 1.02) (layers F.Paste) (roundrect_rratio 0.245098))
  (pad "" smd roundrect (at 1.27 0) (size 1.02 1.02) (layers F.Paste) (roundrect_rratio 0.245098))
  (pad "" smd roundrect (at 1.27 -1.27) (size 1.02 1.02) (layers F.Paste) (roundrect_rratio 0.245098))
  (pad "" smd roundrect (at 0 1.27) (size 1.02 1.02) (layers F.Paste) (roundrect_rratio 0.245098))
  (pad "" smd roundrect (at 0 0) (size 1.02 1.02) (layers F.Paste) (roundrect_rratio 0.245098))
  (pad "" smd roundrect (at 0 -1.27) (size 1.02 1.02) (layers F.Paste) (roundrect_rratio 0.245098))
  (pad "" smd roundrect (at -1.27 1.27) (size 1.02 1.02) (layers F.Paste) (roundrect_rratio 0.245098))
  (pad "" smd roundrect (at -1.27 0) (size 1.02 1.02) (layers F.Paste) (roundrect_rratio 0.245098))
  (pad "" smd roundrect (at -1.27 -1.27) (size 1.02 1.02) (layers F.Paste) (roundrect_rratio 0.245098))
  (pad 41 smd rect (at 0 0) (size 3.8 3.8) (layers F.Cu F.Mask))
  (pad 40 smd roundrect (at -1.8 -2.475) (size 0.2 0.75) (layers F.Cu F.Paste F.Mask) (roundrect_rratio 0.25))
  (pad 39 smd roundrect (at -1.4 -2.475) (size 0.2 0.75) (layers F.Cu F.Paste F.Mask) (roundrect_rratio 0.25))
  (pad 38 smd roundrect (at -1 -2.475) (size 0.2 0.75) (layers F.Cu F.Paste F.Mask) (roundrect_rratio 0.25))
  (pad 37 smd roundrect (at -0.6 -2.475) (size 0.2 0.75) (layers F.Cu F.Paste F.Mask) (roundrect_rratio 0.25))
  (pad 36 smd roundrect (at -0.2 -2.475) (size 0.2 0.75) (layers F.Cu F.Paste F.Mask) (roundrect_rratio 0.25))
  (pad 35 smd roundrect (at 0.2 -2.475) (size 0.2 0.75) (layers F.Cu F.Paste F.Mask) (roundrect_rratio 0.25))
  (pad 34 smd roundrect (at 0.6 -2.475) (size 0.2 0.75) (layers F.Cu F.Paste F.Mask) (roundrect_rratio 0.25))
  (pad 33 smd roundrect (at 1 -2.475) (size 0.2 0.75) (layers F.Cu F.Paste F.Mask) (roundrect_rratio 0.25))
  (pad 32 smd roundrect (at 1.4 -2.475) (size 0.2 0.75) (layers F.Cu F.Paste F.Mask) (roundrect_rratio 0.25))
  (pad 31 smd roundrect (at 1.8 -2.475) (size 0.2 0.75) (layers F.Cu F.Paste F.Mask) (roundrect_rratio 0.25))
  (pad 30 smd roundrect (at 2.475 -1.8) (size 0.75 0.2) (layers F.Cu F.Paste F.Mask) (roundrect_rratio 0.25))
  (pad 29 smd roundrect (at 2.475 -1.4) (size 0.75 0.2) (layers F.Cu F.Paste F.Mask) (roundrect_rratio 0.25))
  (pad 28 smd roundrect (at 2.475 -1) (size 0.75 0.2) (layers F.Cu F.Paste F.Mask) (roundrect_rratio 0.25))
  (pad 27 smd roundrect (at 2.475 -0.6) (size 0.75 0.2) (layers F.Cu F.Paste F.Mask) (roundrect_rratio 0.25))
  (pad 26 smd roundrect (at 2.475 -0.2) (size 0.75 0.2) (layers F.Cu F.Paste F.Mask) (roundrect_rratio 0.25))
  (pad 25 smd roundrect (at 2.475 0.2) (size 0.75 0.2) (layers F.Cu F.Paste F.Mask) (roundrect_rratio 0.25))
  (pad 24 smd roundrect (at 2.475 0.6) (size 0.75 0.2) (layers F.Cu F.Paste F.Mask) (roundrect_rratio 0.25))
  (pad 23 smd roundrect (at 2.475 1) (size 0.75 0.2) (layers F.Cu F.Paste F.Mask) (roundrect_rratio 0.25))
  (pad 22 smd roundrect (at 2.475 1.4) (size 0.75 0.2) (layers F.Cu F.Paste F.Mask) (roundrect_rratio 0.25))
  (pad 21 smd roundrect (at 2.475 1.8) (size 0.75 0.2) (layers F.Cu F.Paste F.Mask) (roundrect_rratio 0.25))
  (pad 20 smd roundrect (at 1.8 2.475) (size 0.2 0.75) (layers F.Cu F.Paste F.Mask) (roundrect_rratio 0.25))
  (pad 19 smd roundrect (at 1.4 2.475) (size 0.2 0.75) (layers F.Cu F.Paste F.Mask) (roundrect_rratio 0.25))
  (pad 18 smd roundrect (at 1 2.475) (size 0.2 0.75) (layers F.Cu F.Paste F.Mask) (roundrect_rratio 0.25))
  (pad 17 smd roundrect (at 0.6 2.475) (size 0.2 0.75) (layers F.Cu F.Paste F.Mask) (roundrect_rratio 0.25))
  (pad 16 smd roundrect (at 0.2 2.475) (size 0.2 0.75) (layers F.Cu F.Paste F.Mask) (roundrect_rratio 0.25))
  (pad 15 smd roundrect (at -0.2 2.475) (size 0.2 0.75) (layers F.Cu F.Paste F.Mask) (roundrect_rratio 0.25))
  (pad 14 smd roundrect (at -0.6 2.475) (size 0.2 0.75) (layers F.Cu F.Paste F.Mask) (roundrect_rratio 0.25))
  (pad 13 smd roundrect (at -1 2.475) (size 0.2 0.75) (layers F.Cu F.Paste F.Mask) (roundrect_rratio 0.25))
  (pad 12 smd roundrect (at -1.4 2.475) (size 0.2 0.75) (layers F.Cu F.Paste F.Mask) (roundrect_rratio 0.25))
  (pad 11 smd roundrect (at -1.8 2.475) (size 0.2 0.75) (layers F.Cu F.Paste F.Mask) (roundrect_rratio 0.25))
  (pad 10 smd roundrect (at -2.475 1.8) (size 0.75 0.2) (layers F.Cu F.Paste F.Mask) (roundrect_rratio 0.25))
  (pad 9 smd roundrect (at -2.475 1.4) (size 0.75 0.2) (layers F.Cu F.Paste F.Mask) (roundrect_rratio 0.25))
  (pad 8 smd roundrect (at -2.475 1) (size 0.75 0.2) (layers F.Cu F.Paste F.Mask) (roundrect_rratio 0.25))
  (pad 7 smd roundrect (at -2.475 0.6) (size 0.75 0.2) (layers F.Cu F.Paste F.Mask) (roundrect_rratio 0.25))
  (pad 6 smd roundrect (at -2.475 0.2) (size 0.75 0.2) (layers F.Cu F.Paste F.Mask) (roundrect_rratio 0.25))
  (pad 5 smd roundrect (at -2.475 -0.2) (size 0.75 0.2) (layers F.Cu F.Paste F.Mask) (roundrect_rratio 0.25))
  (pad 4 smd roundrect (at -2.475 -0.6) (size 0.75 0.2) (layers F.Cu F.Paste F.Mask) (roundrect_rratio 0.25))
  (pad 3 smd roundrect (at -2.475 -1) (size 0.75 0.2) (layers F.Cu F.Paste F.Mask) (roundrect_rratio 0.25))
  (pad 2 smd roundrect (at -2.475 -1.4) (size 0.75 0.2) (layers F.Cu F.Paste F.Mask) (roundrect_rratio 0.25))
  (pad 1 smd roundrect (at -2.475 -1.8) (size 0.75 0.2) (layers F.Cu F.Paste F.Mask) (roundrect_rratio 0.25))
  (model ${KISYS3DMOD}/Package_DFN_QFN.3dshapes/UQFN-40-1EP_5x5mm_P0.4mm_EP3.8x3.8mm.wrl
    (at (xyz 0 0 0))
    (scale (xyz 1 1 1))
    (rotate (xyz 0 0 0))
  )
)
