(module VDFN-8-1EP_2x2mm_P0.5mm_EP0.9x1.7mm (layer F.Cu) (tedit 607E9222)
  (descr "8-Lead Very Thin Dual Flatpack No-Lead (LZ) - 2x3x0.9 mm Body [VDFN] (see Microchip Packaging Specification 00000049BS.pdf), Alternate KiCad Library")
  (tags "DFN 0.5")
  (attr smd)
  (fp_text reference REF** (at 0 -2.05) (layer F.SilkS)
    (effects (font (size 1 1) (thickness 0.15)))
  )
  (fp_text value VDFN-8-1EP_2x2mm_P0.5mm_EP0.9x1.7mm (at 0 2.05) (layer F.Fab)
    (effects (font (size 1 1) (thickness 0.15)))
  )
  (fp_line (start -1.5875 1.27) (end -1.5875 -0.889) (layer F.SilkS) (width 0.12))
  (fp_line (start 1.5875 1.27) (end -1.5875 1.27) (layer F.SilkS) (width 0.12))
  (fp_line (start 1.5875 -1.27) (end 1.5875 1.27) (layer F.SilkS) (width 0.12))
  (fp_line (start -1.2065 -1.27) (end 1.5875 -1.27) (layer F.SilkS) (width 0.12))
  (fp_line (start -1.6 1.3) (end 1.6 1.3) (layer F.CrtYd) (width 0.05))
  (fp_line (start -1.6 -1.3) (end 1.6 -1.3) (layer F.CrtYd) (width 0.05))
  (fp_line (start 1.6 -1.3) (end 1.6 1.3) (layer F.CrtYd) (width 0.05))
  (fp_line (start -1.6 -1.3) (end -1.6 1.3) (layer F.CrtYd) (width 0.05))
  (fp_line (start -1 -0.5) (end -0.5 -1) (layer F.Fab) (width 0.15))
  (fp_line (start -1 1) (end -1 -0.5) (layer F.Fab) (width 0.15))
  (fp_line (start 1 1) (end -1 1) (layer F.Fab) (width 0.15))
  (fp_line (start 1 -1) (end 1 1) (layer F.Fab) (width 0.15))
  (fp_line (start -0.5 -1) (end 1 -1) (layer F.Fab) (width 0.15))
  (fp_circle (center -1.524 -1.2065) (end -1.4605 -1.2065) (layer F.SilkS) (width 0.2))
  (fp_text user %R (at 0 0) (layer F.Fab)
    (effects (font (size 0.5 0.5) (thickness 0.075)))
  )
  (pad "" smd rect (at 0 0.425) (size 0.72 0.69) (layers F.Paste))
  (pad "" smd rect (at 0 -0.425) (size 0.72 0.69) (layers F.Paste))
  (pad 9 smd rect (at 0 0) (size 0.9 1.7) (layers F.Cu F.Mask))
  (pad 8 smd rect (at 1 -0.75) (size 0.65 0.35) (layers F.Cu F.Paste F.Mask))
  (pad 7 smd rect (at 1 -0.25) (size 0.65 0.35) (layers F.Cu F.Paste F.Mask))
  (pad 6 smd rect (at 1 0.25) (size 0.65 0.35) (layers F.Cu F.Paste F.Mask))
  (pad 5 smd rect (at 1 0.75) (size 0.65 0.35) (layers F.Cu F.Paste F.Mask))
  (pad 4 smd rect (at -1 0.75) (size 0.65 0.35) (layers F.Cu F.Paste F.Mask))
  (pad 3 smd rect (at -1 0.25) (size 0.65 0.35) (layers F.Cu F.Paste F.Mask))
  (pad 2 smd rect (at -1 -0.25) (size 0.65 0.35) (layers F.Cu F.Paste F.Mask))
  (pad 1 smd rect (at -1 -0.75) (size 0.65 0.35) (layers F.Cu F.Paste F.Mask))
  (model ${KISYS3DMOD}/Package_DFN_QFN.3dshapes/VDFN-8-1EP_2x2mm_P0.5mm_EP0.9x1.7mm.wrl
    (at (xyz 0 0 0))
    (scale (xyz 1 1 1))
    (rotate (xyz 0 0 0))
  )
)
