(module VQFN-46-1EP_5x6mm_P0.4mm_EP2.8x3.8mm_ThermalVias (layer F.Cu) (tedit 607E92E0)
  (descr "VQFN, 46 Pin (http://www.ti.com/lit/ds/symlink/lp5036.pdf#page=59), Alternate KiCad Library")
  (tags "VQFN NoLead")
  (attr smd)
  (fp_text reference REF** (at 0 -4.6355) (layer F.SilkS)
    (effects (font (size 1 1) (thickness 0.15)))
  )
  (fp_text value VQFN-46-1EP_5x6mm_P0.4mm_EP2.8x3.8mm_ThermalVias (at 0 4.32) (layer F.Fab)
    (effects (font (size 1 1) (thickness 0.15)))
  )
  (fp_line (start -1.5 -3) (end 2.5 -3) (layer F.Fab) (width 0.1))
  (fp_line (start 2.5 -3) (end 2.5 3) (layer F.Fab) (width 0.1))
  (fp_line (start 2.5 3) (end -2.5 3) (layer F.Fab) (width 0.1))
  (fp_line (start -2.5 3) (end -2.5 -2) (layer F.Fab) (width 0.1))
  (fp_line (start -2.5 -2) (end -1.5 -3) (layer F.Fab) (width 0.1))
  (fp_line (start -3.12 -3.62) (end -3.12 3.62) (layer F.CrtYd) (width 0.05))
  (fp_line (start -3.12 3.62) (end 3.12 3.62) (layer F.CrtYd) (width 0.05))
  (fp_line (start 3.12 3.62) (end 3.12 -3.62) (layer F.CrtYd) (width 0.05))
  (fp_line (start 3.12 -3.62) (end -3.12 -3.62) (layer F.CrtYd) (width 0.05))
  (fp_circle (center -2.9845 -3.4925) (end -2.921 -3.4925) (layer F.SilkS) (width 0.3))
  (fp_line (start 2.413 -3.6195) (end -2.6035 -3.6195) (layer F.SilkS) (width 0.12))
  (fp_line (start 3.1115 2.6035) (end 3.1115 -2.6035) (layer F.SilkS) (width 0.12))
  (fp_line (start -3.1115 -2.6035) (end -3.1115 2.6035) (layer F.SilkS) (width 0.12))
  (fp_line (start -2.413 3.6195) (end 2.413 3.6195) (layer F.SilkS) (width 0.12))
  (fp_line (start 3.1115 0) (end 3.429 0) (layer F.SilkS) (width 0.12))
  (fp_line (start 3.1115 2) (end 3.302 2) (layer F.SilkS) (width 0.12))
  (fp_line (start 3.1115 -2) (end 3.302 -2) (layer F.SilkS) (width 0.12))
  (fp_line (start -1.4 -3.6195) (end -1.4 -3.81) (layer F.SilkS) (width 0.12))
  (fp_line (start 0.6 -3.6195) (end 0.6 -3.937) (layer F.SilkS) (width 0.12))
  (fp_line (start -3.1115 1.2) (end -3.429 1.2) (layer F.SilkS) (width 0.12))
  (fp_line (start -1.4 3.6195) (end -1.4 3.81) (layer F.SilkS) (width 0.12))
  (fp_line (start 0.6 3.6195) (end 0.6 3.937) (layer F.SilkS) (width 0.12))
  (fp_line (start -3.1115 -0.8) (end -3.302 -0.8) (layer F.SilkS) (width 0.12))
  (fp_text user %R (at 0 0) (layer F.Fab)
    (effects (font (size 1 1) (thickness 0.15)))
  )
  (fp_text user 36 (at 2.921 -3.302 -90 unlocked) (layer F.SilkS)
    (effects (font (size 0.6 0.6) (thickness 0.12)))
  )
  (fp_text user 23 (at 2.921 3.302 -90 unlocked) (layer F.SilkS)
    (effects (font (size 0.6 0.6) (thickness 0.12)))
  )
  (fp_text user 1 (at -2.9845 -2.9845 -90 unlocked) (layer F.SilkS)
    (effects (font (size 0.6 0.6) (thickness 0.12)))
  )
  (fp_text user 13 (at -2.9845 3.302 -90 unlocked) (layer F.SilkS)
    (effects (font (size 0.6 0.6) (thickness 0.12)))
  )
  (pad 46 smd roundrect (at -1.8 -2.9625) (size 0.2 0.825) (layers F.Cu F.Paste F.Mask) (roundrect_rratio 0.25))
  (pad 45 smd roundrect (at -1.4 -2.9625) (size 0.2 0.825) (layers F.Cu F.Paste F.Mask) (roundrect_rratio 0.25))
  (pad 44 smd roundrect (at -1 -2.9625) (size 0.2 0.825) (layers F.Cu F.Paste F.Mask) (roundrect_rratio 0.25))
  (pad 43 smd roundrect (at -0.6 -2.9625) (size 0.2 0.825) (layers F.Cu F.Paste F.Mask) (roundrect_rratio 0.25))
  (pad 42 smd roundrect (at -0.2 -2.9625) (size 0.2 0.825) (layers F.Cu F.Paste F.Mask) (roundrect_rratio 0.25))
  (pad 41 smd roundrect (at 0.2 -2.9625) (size 0.2 0.825) (layers F.Cu F.Paste F.Mask) (roundrect_rratio 0.25))
  (pad 40 smd roundrect (at 0.6 -2.9625) (size 0.2 0.825) (layers F.Cu F.Paste F.Mask) (roundrect_rratio 0.25))
  (pad 39 smd roundrect (at 1 -2.9625) (size 0.2 0.825) (layers F.Cu F.Paste F.Mask) (roundrect_rratio 0.25))
  (pad 38 smd roundrect (at 1.4 -2.9625) (size 0.2 0.825) (layers F.Cu F.Paste F.Mask) (roundrect_rratio 0.25))
  (pad 37 smd roundrect (at 1.8 -2.9625) (size 0.2 0.825) (layers F.Cu F.Paste F.Mask) (roundrect_rratio 0.25))
  (pad 36 smd roundrect (at 2.4625 -2.4) (size 0.825 0.2) (layers F.Cu F.Paste F.Mask) (roundrect_rratio 0.25))
  (pad 35 smd roundrect (at 2.4625 -2) (size 0.825 0.2) (layers F.Cu F.Paste F.Mask) (roundrect_rratio 0.25))
  (pad 34 smd roundrect (at 2.4625 -1.6) (size 0.825 0.2) (layers F.Cu F.Paste F.Mask) (roundrect_rratio 0.25))
  (pad 33 smd roundrect (at 2.4625 -1.2) (size 0.825 0.2) (layers F.Cu F.Paste F.Mask) (roundrect_rratio 0.25))
  (pad 32 smd roundrect (at 2.4625 -0.8) (size 0.825 0.2) (layers F.Cu F.Paste F.Mask) (roundrect_rratio 0.25))
  (pad 31 smd roundrect (at 2.4625 -0.4) (size 0.825 0.2) (layers F.Cu F.Paste F.Mask) (roundrect_rratio 0.25))
  (pad 30 smd roundrect (at 2.4625 0) (size 0.825 0.2) (layers F.Cu F.Paste F.Mask) (roundrect_rratio 0.25))
  (pad 29 smd roundrect (at 2.4625 0.4) (size 0.825 0.2) (layers F.Cu F.Paste F.Mask) (roundrect_rratio 0.25))
  (pad 28 smd roundrect (at 2.4625 0.8) (size 0.825 0.2) (layers F.Cu F.Paste F.Mask) (roundrect_rratio 0.25))
  (pad 27 smd roundrect (at 2.4625 1.2) (size 0.825 0.2) (layers F.Cu F.Paste F.Mask) (roundrect_rratio 0.25))
  (pad 26 smd roundrect (at 2.4625 1.6) (size 0.825 0.2) (layers F.Cu F.Paste F.Mask) (roundrect_rratio 0.25))
  (pad 25 smd roundrect (at 2.4625 2) (size 0.825 0.2) (layers F.Cu F.Paste F.Mask) (roundrect_rratio 0.25))
  (pad 24 smd roundrect (at 2.4625 2.4) (size 0.825 0.2) (layers F.Cu F.Paste F.Mask) (roundrect_rratio 0.25))
  (pad 23 smd roundrect (at 1.8 2.9625) (size 0.2 0.825) (layers F.Cu F.Paste F.Mask) (roundrect_rratio 0.25))
  (pad 22 smd roundrect (at 1.4 2.9625) (size 0.2 0.825) (layers F.Cu F.Paste F.Mask) (roundrect_rratio 0.25))
  (pad 21 smd roundrect (at 1 2.9625) (size 0.2 0.825) (layers F.Cu F.Paste F.Mask) (roundrect_rratio 0.25))
  (pad 20 smd roundrect (at 0.6 2.9625) (size 0.2 0.825) (layers F.Cu F.Paste F.Mask) (roundrect_rratio 0.25))
  (pad 19 smd roundrect (at 0.2 2.9625) (size 0.2 0.825) (layers F.Cu F.Paste F.Mask) (roundrect_rratio 0.25))
  (pad 18 smd roundrect (at -0.2 2.9625) (size 0.2 0.825) (layers F.Cu F.Paste F.Mask) (roundrect_rratio 0.25))
  (pad 17 smd roundrect (at -0.6 2.9625) (size 0.2 0.825) (layers F.Cu F.Paste F.Mask) (roundrect_rratio 0.25))
  (pad 16 smd roundrect (at -1 2.9625) (size 0.2 0.825) (layers F.Cu F.Paste F.Mask) (roundrect_rratio 0.25))
  (pad 15 smd roundrect (at -1.4 2.9625) (size 0.2 0.825) (layers F.Cu F.Paste F.Mask) (roundrect_rratio 0.25))
  (pad 14 smd roundrect (at -1.8 2.9625) (size 0.2 0.825) (layers F.Cu F.Paste F.Mask) (roundrect_rratio 0.25))
  (pad 13 smd roundrect (at -2.4625 2.4) (size 0.825 0.2) (layers F.Cu F.Paste F.Mask) (roundrect_rratio 0.25))
  (pad 12 smd roundrect (at -2.4625 2) (size 0.825 0.2) (layers F.Cu F.Paste F.Mask) (roundrect_rratio 0.25))
  (pad 11 smd roundrect (at -2.4625 1.6) (size 0.825 0.2) (layers F.Cu F.Paste F.Mask) (roundrect_rratio 0.25))
  (pad 10 smd roundrect (at -2.4625 1.2) (size 0.825 0.2) (layers F.Cu F.Paste F.Mask) (roundrect_rratio 0.25))
  (pad 9 smd roundrect (at -2.4625 0.8) (size 0.825 0.2) (layers F.Cu F.Paste F.Mask) (roundrect_rratio 0.25))
  (pad 8 smd roundrect (at -2.4625 0.4) (size 0.825 0.2) (layers F.Cu F.Paste F.Mask) (roundrect_rratio 0.25))
  (pad 7 smd roundrect (at -2.4625 0) (size 0.825 0.2) (layers F.Cu F.Paste F.Mask) (roundrect_rratio 0.25))
  (pad 6 smd roundrect (at -2.4625 -0.4) (size 0.825 0.2) (layers F.Cu F.Paste F.Mask) (roundrect_rratio 0.25))
  (pad 5 smd roundrect (at -2.4625 -0.8) (size 0.825 0.2) (layers F.Cu F.Paste F.Mask) (roundrect_rratio 0.25))
  (pad 4 smd roundrect (at -2.4625 -1.2) (size 0.825 0.2) (layers F.Cu F.Paste F.Mask) (roundrect_rratio 0.25))
  (pad 3 smd roundrect (at -2.4625 -1.6) (size 0.825 0.2) (layers F.Cu F.Paste F.Mask) (roundrect_rratio 0.25))
  (pad 2 smd roundrect (at -2.4625 -2) (size 0.825 0.2) (layers F.Cu F.Paste F.Mask) (roundrect_rratio 0.25))
  (pad 1 smd roundrect (at -2.4625 -2.4) (size 0.825 0.2) (layers F.Cu F.Paste F.Mask) (roundrect_rratio 0.25))
  (pad "" smd roundrect (at 0.7 1.27) (size 1.21 1.1) (layers F.Paste) (roundrect_rratio 0.227273))
  (pad "" smd roundrect (at 0.7 0) (size 1.21 1.1) (layers F.Paste) (roundrect_rratio 0.227273))
  (pad "" smd roundrect (at 0.7 -1.27) (size 1.21 1.1) (layers F.Paste) (roundrect_rratio 0.227273))
  (pad "" smd roundrect (at -0.7 1.27) (size 1.21 1.1) (layers F.Paste) (roundrect_rratio 0.227273))
  (pad "" smd roundrect (at -0.7 0) (size 1.21 1.1) (layers F.Paste) (roundrect_rratio 0.227273))
  (pad "" smd roundrect (at -0.7 -1.27) (size 1.21 1.1) (layers F.Paste) (roundrect_rratio 0.227273))
  (pad 47 smd roundrect (at 0 0) (size 2.8 3.8) (layers B.Cu B.Mask) (roundrect_rratio 0.08900000000000001))
  (pad 47 thru_hole circle (at 1.15 1.65) (size 0.5 0.5) (drill 0.2) (layers *.Cu))
  (pad 47 thru_hole circle (at 0 1.65) (size 0.5 0.5) (drill 0.2) (layers *.Cu))
  (pad 47 thru_hole circle (at -1.15 1.65) (size 0.5 0.5) (drill 0.2) (layers *.Cu))
  (pad 47 thru_hole circle (at 1.15 0.55) (size 0.5 0.5) (drill 0.2) (layers *.Cu))
  (pad 47 thru_hole circle (at 0 0.55) (size 0.5 0.5) (drill 0.2) (layers *.Cu))
  (pad 47 thru_hole circle (at -1.15 0.55) (size 0.5 0.5) (drill 0.2) (layers *.Cu))
  (pad 47 thru_hole circle (at 1.15 -0.55) (size 0.5 0.5) (drill 0.2) (layers *.Cu))
  (pad 47 thru_hole circle (at 0 -0.55) (size 0.5 0.5) (drill 0.2) (layers *.Cu))
  (pad 47 thru_hole circle (at -1.15 -0.55) (size 0.5 0.5) (drill 0.2) (layers *.Cu))
  (pad 47 thru_hole circle (at 1.15 -1.65) (size 0.5 0.5) (drill 0.2) (layers *.Cu))
  (pad 47 thru_hole circle (at 0 -1.65) (size 0.5 0.5) (drill 0.2) (layers *.Cu))
  (pad 47 thru_hole circle (at -1.15 -1.65) (size 0.5 0.5) (drill 0.2) (layers *.Cu))
  (pad 47 smd roundrect (at 0 0) (size 2.8 3.8) (layers F.Cu F.Mask) (roundrect_rratio 0.089286))
  (model ${KISYS3DMOD}/Package_DFN_QFN.3dshapes/VQFN-46-1EP_5x6mm_P0.4mm_EP2.8x3.8mm.wrl
    (at (xyz 0 0 0))
    (scale (xyz 1 1 1))
    (rotate (xyz 0 0 0))
  )
)
