(module VQFN-28-1EP_4x4mm_P0.45mm_EP2.4x2.4mm_ThermalVias (layer F.Cu) (tedit 607E9291)
  (descr "VQFN, 28 Pin (http://ww1.microchip.com/downloads/en/DeviceDoc/Atmel-9505-AT42-QTouch-BSW-AT42QT1060_Datasheet.pdf#page=28), Alternate KiCad Library")
  (tags "VQFN NoLead")
  (attr smd)
  (fp_text reference REF** (at 0 -3.3) (layer F.SilkS)
    (effects (font (size 1 1) (thickness 0.15)))
  )
  (fp_text value VQFN-28-1EP_4x4mm_P0.45mm_EP2.4x2.4mm_ThermalVias (at 0 3.3) (layer F.Fab)
    (effects (font (size 1 1) (thickness 0.15)))
  )
  (fp_line (start 1.905 -2.6035) (end -2.0955 -2.6035) (layer F.SilkS) (width 0.12))
  (fp_line (start -2.6035 -1.5875) (end -2.6035 2.2225) (layer F.SilkS) (width 0.12))
  (fp_line (start -1.905 2.6035) (end 1.905 2.6035) (layer F.SilkS) (width 0.12))
  (fp_circle (center -2.4765 -2.4765) (end -2.413 -2.4765) (layer F.SilkS) (width 0.3))
  (fp_line (start 2.6035 1.5875) (end 2.6035 -1.651) (layer F.SilkS) (width 0.12))
  (fp_line (start 2.6 -2.6) (end -2.6 -2.6) (layer F.CrtYd) (width 0.05))
  (fp_line (start 2.6 2.6) (end 2.6 -2.6) (layer F.CrtYd) (width 0.05))
  (fp_line (start -2.6 2.6) (end 2.6 2.6) (layer F.CrtYd) (width 0.05))
  (fp_line (start -2.6 -2.6) (end -2.6 2.6) (layer F.CrtYd) (width 0.05))
  (fp_line (start -2 -1) (end -1 -2) (layer F.Fab) (width 0.1))
  (fp_line (start -2 2) (end -2 -1) (layer F.Fab) (width 0.1))
  (fp_line (start 2 2) (end -2 2) (layer F.Fab) (width 0.1))
  (fp_line (start 2 -2) (end 2 2) (layer F.Fab) (width 0.1))
  (fp_line (start -1 -2) (end 2 -2) (layer F.Fab) (width 0.1))
  (fp_text user %R (at 0 0) (layer F.Fab)
    (effects (font (size 1 1) (thickness 0.15)))
  )
  (fp_text user 7 (at -2.4765 2.4765 -90 unlocked) (layer F.SilkS)
    (effects (font (size 0.6 0.6) (thickness 0.12)))
  )
  (fp_text user 14 (at 2.413 2.286 -90 unlocked) (layer F.SilkS)
    (effects (font (size 0.6 0.6) (thickness 0.12)))
  )
  (fp_text user 21 (at 2.413 -2.2225 -90 unlocked) (layer F.SilkS)
    (effects (font (size 0.6 0.6) (thickness 0.12)))
  )
  (fp_text user 1 (at -2.4765 -1.9685 -90 unlocked) (layer F.SilkS)
    (effects (font (size 0.6 0.6) (thickness 0.12)))
  )
  (pad "" smd roundrect (at 0.6 0.6) (size 1 1) (layers F.Paste) (roundrect_rratio 0.25))
  (pad "" smd roundrect (at 0.6 -0.6) (size 1 1) (layers F.Paste) (roundrect_rratio 0.25))
  (pad "" smd roundrect (at -0.6 0.6) (size 1 1) (layers F.Paste) (roundrect_rratio 0.25))
  (pad "" smd roundrect (at -0.6 -0.6) (size 1 1) (layers F.Paste) (roundrect_rratio 0.25))
  (pad 29 smd rect (at 0 0) (size 2.4 2.4) (layers B.Cu B.Mask))
  (pad 29 thru_hole circle (at 0.9 0.9) (size 0.6 0.6) (drill 0.3) (layers *.Cu))
  (pad 29 thru_hole circle (at 0 0.9) (size 0.6 0.6) (drill 0.3) (layers *.Cu))
  (pad 29 thru_hole circle (at -0.9 0.9) (size 0.6 0.6) (drill 0.3) (layers *.Cu))
  (pad 29 thru_hole circle (at 0.9 0) (size 0.6 0.6) (drill 0.3) (layers *.Cu))
  (pad 29 thru_hole circle (at 0 0) (size 0.6 0.6) (drill 0.3) (layers *.Cu))
  (pad 29 thru_hole circle (at -0.9 0) (size 0.6 0.6) (drill 0.3) (layers *.Cu))
  (pad 29 thru_hole circle (at 0.9 -0.9) (size 0.6 0.6) (drill 0.3) (layers *.Cu))
  (pad 29 thru_hole circle (at 0 -0.9) (size 0.6 0.6) (drill 0.3) (layers *.Cu))
  (pad 29 thru_hole circle (at -0.9 -0.9) (size 0.6 0.6) (drill 0.3) (layers *.Cu))
  (pad 29 smd rect (at 0 0) (size 2.4 2.4) (layers F.Cu F.Mask))
  (pad 28 smd roundrect (at -1.35 -1.95) (size 0.25 0.8) (layers F.Cu F.Paste F.Mask) (roundrect_rratio 0.25))
  (pad 27 smd roundrect (at -0.9 -1.95) (size 0.25 0.8) (layers F.Cu F.Paste F.Mask) (roundrect_rratio 0.25))
  (pad 26 smd roundrect (at -0.45 -1.95) (size 0.25 0.8) (layers F.Cu F.Paste F.Mask) (roundrect_rratio 0.25))
  (pad 25 smd roundrect (at 0 -1.95) (size 0.25 0.8) (layers F.Cu F.Paste F.Mask) (roundrect_rratio 0.25))
  (pad 24 smd roundrect (at 0.45 -1.95) (size 0.25 0.8) (layers F.Cu F.Paste F.Mask) (roundrect_rratio 0.25))
  (pad 23 smd roundrect (at 0.9 -1.95) (size 0.25 0.8) (layers F.Cu F.Paste F.Mask) (roundrect_rratio 0.25))
  (pad 22 smd roundrect (at 1.35 -1.95) (size 0.25 0.8) (layers F.Cu F.Paste F.Mask) (roundrect_rratio 0.25))
  (pad 21 smd roundrect (at 1.95 -1.35) (size 0.8 0.25) (layers F.Cu F.Paste F.Mask) (roundrect_rratio 0.25))
  (pad 20 smd roundrect (at 1.95 -0.9) (size 0.8 0.25) (layers F.Cu F.Paste F.Mask) (roundrect_rratio 0.25))
  (pad 19 smd roundrect (at 1.95 -0.45) (size 0.8 0.25) (layers F.Cu F.Paste F.Mask) (roundrect_rratio 0.25))
  (pad 18 smd roundrect (at 1.95 0) (size 0.8 0.25) (layers F.Cu F.Paste F.Mask) (roundrect_rratio 0.25))
  (pad 17 smd roundrect (at 1.95 0.45) (size 0.8 0.25) (layers F.Cu F.Paste F.Mask) (roundrect_rratio 0.25))
  (pad 16 smd roundrect (at 1.95 0.9) (size 0.8 0.25) (layers F.Cu F.Paste F.Mask) (roundrect_rratio 0.25))
  (pad 15 smd roundrect (at 1.95 1.35) (size 0.8 0.25) (layers F.Cu F.Paste F.Mask) (roundrect_rratio 0.25))
  (pad 14 smd roundrect (at 1.35 1.95) (size 0.25 0.8) (layers F.Cu F.Paste F.Mask) (roundrect_rratio 0.25))
  (pad 13 smd roundrect (at 0.9 1.95) (size 0.25 0.8) (layers F.Cu F.Paste F.Mask) (roundrect_rratio 0.25))
  (pad 12 smd roundrect (at 0.45 1.95) (size 0.25 0.8) (layers F.Cu F.Paste F.Mask) (roundrect_rratio 0.25))
  (pad 11 smd roundrect (at 0 1.95) (size 0.25 0.8) (layers F.Cu F.Paste F.Mask) (roundrect_rratio 0.25))
  (pad 10 smd roundrect (at -0.45 1.95) (size 0.25 0.8) (layers F.Cu F.Paste F.Mask) (roundrect_rratio 0.25))
  (pad 9 smd roundrect (at -0.9 1.95) (size 0.25 0.8) (layers F.Cu F.Paste F.Mask) (roundrect_rratio 0.25))
  (pad 8 smd roundrect (at -1.35 1.95) (size 0.25 0.8) (layers F.Cu F.Paste F.Mask) (roundrect_rratio 0.25))
  (pad 7 smd roundrect (at -1.95 1.35) (size 0.8 0.25) (layers F.Cu F.Paste F.Mask) (roundrect_rratio 0.25))
  (pad 6 smd roundrect (at -1.95 0.9) (size 0.8 0.25) (layers F.Cu F.Paste F.Mask) (roundrect_rratio 0.25))
  (pad 5 smd roundrect (at -1.95 0.45) (size 0.8 0.25) (layers F.Cu F.Paste F.Mask) (roundrect_rratio 0.25))
  (pad 4 smd roundrect (at -1.95 0) (size 0.8 0.25) (layers F.Cu F.Paste F.Mask) (roundrect_rratio 0.25))
  (pad 3 smd roundrect (at -1.95 -0.45) (size 0.8 0.25) (layers F.Cu F.Paste F.Mask) (roundrect_rratio 0.25))
  (pad 2 smd roundrect (at -1.95 -0.9) (size 0.8 0.25) (layers F.Cu F.Paste F.Mask) (roundrect_rratio 0.25))
  (pad 1 smd roundrect (at -1.95 -1.35) (size 0.8 0.25) (layers F.Cu F.Paste F.Mask) (roundrect_rratio 0.25))
  (model ${KISYS3DMOD}/Package_DFN_QFN.3dshapes/VQFN-28-1EP_4x4mm_P0.45mm_EP2.4x2.4mm.wrl
    (at (xyz 0 0 0))
    (scale (xyz 1 1 1))
    (rotate (xyz 0 0 0))
  )
)
