(module VQFN-48-1EP_7x7mm_P0.5mm_EP5.15x5.15mm_ThermalVias (layer F.Cu) (tedit 607E92EF)
  (descr "VQFN, 48 Pin (http://www.ti.com/lit/ds/symlink/cc1312r.pdf#page=48), Alternate KiCad Library")
  (tags "VQFN NoLead")
  (attr smd)
  (fp_text reference REF** (at 0 -5.08) (layer F.SilkS)
    (effects (font (size 1 1) (thickness 0.15)))
  )
  (fp_text value VQFN-48-1EP_7x7mm_P0.5mm_EP5.15x5.15mm_ThermalVias (at 0 4.82) (layer F.Fab)
    (effects (font (size 1 1) (thickness 0.15)))
  )
  (fp_line (start -1.75 4.1275) (end -1.75 4.318) (layer F.SilkS) (width 0.12))
  (fp_line (start 4.1275 2.75) (end 4.318 2.75) (layer F.SilkS) (width 0.12))
  (fp_line (start 1.25 -4.1275) (end 1.25 -4.445) (layer F.SilkS) (width 0.12))
  (fp_line (start 4.1275 0.25) (end 4.445 0.25) (layer F.SilkS) (width 0.12))
  (fp_line (start 4.1275 3.048) (end 4.1275 -3.1115) (layer F.SilkS) (width 0.12))
  (fp_line (start -3.429 4.1275) (end 3.429 4.1275) (layer F.SilkS) (width 0.12))
  (fp_line (start 3.429 -4.1275) (end -3.6195 -4.1275) (layer F.SilkS) (width 0.12))
  (fp_circle (center -4.0005 -4.0005) (end -3.937 -4.0005) (layer F.SilkS) (width 0.3))
  (fp_line (start -1.25 -4.1275) (end -1.25 -4.318) (layer F.SilkS) (width 0.12))
  (fp_line (start 0.75 4.1275) (end 0.75 4.445) (layer F.SilkS) (width 0.12))
  (fp_line (start -4.1275 -0.75) (end -4.318 -0.75) (layer F.SilkS) (width 0.12))
  (fp_line (start -4.1275 -3.1115) (end -4.1275 3.048) (layer F.SilkS) (width 0.12))
  (fp_line (start 4.1275 -2.25) (end 4.318 -2.25) (layer F.SilkS) (width 0.12))
  (fp_line (start -4.1275 1.75) (end -4.445 1.75) (layer F.SilkS) (width 0.12))
  (fp_line (start 4.12 -4.12) (end -4.12 -4.12) (layer F.CrtYd) (width 0.05))
  (fp_line (start 4.12 4.12) (end 4.12 -4.12) (layer F.CrtYd) (width 0.05))
  (fp_line (start -4.12 4.12) (end 4.12 4.12) (layer F.CrtYd) (width 0.05))
  (fp_line (start -4.12 -4.12) (end -4.12 4.12) (layer F.CrtYd) (width 0.05))
  (fp_line (start -3.5 -2.5) (end -2.5 -3.5) (layer F.Fab) (width 0.1))
  (fp_line (start -3.5 3.5) (end -3.5 -2.5) (layer F.Fab) (width 0.1))
  (fp_line (start 3.5 3.5) (end -3.5 3.5) (layer F.Fab) (width 0.1))
  (fp_line (start 3.5 -3.5) (end 3.5 3.5) (layer F.Fab) (width 0.1))
  (fp_line (start -2.5 -3.5) (end 3.5 -3.5) (layer F.Fab) (width 0.1))
  (fp_text user %R (at 0 0) (layer F.Fab)
    (effects (font (size 1 1) (thickness 0.15)))
  )
  (fp_text user 12 (at -4.0005 3.7465 -90 unlocked) (layer F.SilkS)
    (effects (font (size 0.6 0.6) (thickness 0.12)))
  )
  (fp_text user 24 (at 3.937 3.7465 -90 unlocked) (layer F.SilkS)
    (effects (font (size 0.6 0.6) (thickness 0.12)))
  )
  (fp_text user 1 (at -4.0005 -3.4925 -90 unlocked) (layer F.SilkS)
    (effects (font (size 0.6 0.6) (thickness 0.12)))
  )
  (fp_text user 36 (at 3.937 -3.7465 -90 unlocked) (layer F.SilkS)
    (effects (font (size 0.6 0.6) (thickness 0.12)))
  )
  (pad 48 smd roundrect (at -2.75 -3.4375) (size 0.25 0.875) (layers F.Cu F.Paste F.Mask) (roundrect_rratio 0.25))
  (pad 47 smd roundrect (at -2.25 -3.4375) (size 0.25 0.875) (layers F.Cu F.Paste F.Mask) (roundrect_rratio 0.25))
  (pad 46 smd roundrect (at -1.75 -3.4375) (size 0.25 0.875) (layers F.Cu F.Paste F.Mask) (roundrect_rratio 0.25))
  (pad 45 smd roundrect (at -1.25 -3.4375) (size 0.25 0.875) (layers F.Cu F.Paste F.Mask) (roundrect_rratio 0.25))
  (pad 44 smd roundrect (at -0.75 -3.4375) (size 0.25 0.875) (layers F.Cu F.Paste F.Mask) (roundrect_rratio 0.25))
  (pad 43 smd roundrect (at -0.25 -3.4375) (size 0.25 0.875) (layers F.Cu F.Paste F.Mask) (roundrect_rratio 0.25))
  (pad 42 smd roundrect (at 0.25 -3.4375) (size 0.25 0.875) (layers F.Cu F.Paste F.Mask) (roundrect_rratio 0.25))
  (pad 41 smd roundrect (at 0.75 -3.4375) (size 0.25 0.875) (layers F.Cu F.Paste F.Mask) (roundrect_rratio 0.25))
  (pad 40 smd roundrect (at 1.25 -3.4375) (size 0.25 0.875) (layers F.Cu F.Paste F.Mask) (roundrect_rratio 0.25))
  (pad 39 smd roundrect (at 1.75 -3.4375) (size 0.25 0.875) (layers F.Cu F.Paste F.Mask) (roundrect_rratio 0.25))
  (pad 38 smd roundrect (at 2.25 -3.4375) (size 0.25 0.875) (layers F.Cu F.Paste F.Mask) (roundrect_rratio 0.25))
  (pad 37 smd roundrect (at 2.75 -3.4375) (size 0.25 0.875) (layers F.Cu F.Paste F.Mask) (roundrect_rratio 0.25))
  (pad 36 smd roundrect (at 3.4375 -2.75) (size 0.875 0.25) (layers F.Cu F.Paste F.Mask) (roundrect_rratio 0.25))
  (pad 35 smd roundrect (at 3.4375 -2.25) (size 0.875 0.25) (layers F.Cu F.Paste F.Mask) (roundrect_rratio 0.25))
  (pad 34 smd roundrect (at 3.4375 -1.75) (size 0.875 0.25) (layers F.Cu F.Paste F.Mask) (roundrect_rratio 0.25))
  (pad 33 smd roundrect (at 3.4375 -1.25) (size 0.875 0.25) (layers F.Cu F.Paste F.Mask) (roundrect_rratio 0.25))
  (pad 32 smd roundrect (at 3.4375 -0.75) (size 0.875 0.25) (layers F.Cu F.Paste F.Mask) (roundrect_rratio 0.25))
  (pad 31 smd roundrect (at 3.4375 -0.25) (size 0.875 0.25) (layers F.Cu F.Paste F.Mask) (roundrect_rratio 0.25))
  (pad 30 smd roundrect (at 3.4375 0.25) (size 0.875 0.25) (layers F.Cu F.Paste F.Mask) (roundrect_rratio 0.25))
  (pad 29 smd roundrect (at 3.4375 0.75) (size 0.875 0.25) (layers F.Cu F.Paste F.Mask) (roundrect_rratio 0.25))
  (pad 28 smd roundrect (at 3.4375 1.25) (size 0.875 0.25) (layers F.Cu F.Paste F.Mask) (roundrect_rratio 0.25))
  (pad 27 smd roundrect (at 3.4375 1.75) (size 0.875 0.25) (layers F.Cu F.Paste F.Mask) (roundrect_rratio 0.25))
  (pad 26 smd roundrect (at 3.4375 2.25) (size 0.875 0.25) (layers F.Cu F.Paste F.Mask) (roundrect_rratio 0.25))
  (pad 25 smd roundrect (at 3.4375 2.75) (size 0.875 0.25) (layers F.Cu F.Paste F.Mask) (roundrect_rratio 0.25))
  (pad 24 smd roundrect (at 2.75 3.4375) (size 0.25 0.875) (layers F.Cu F.Paste F.Mask) (roundrect_rratio 0.25))
  (pad 23 smd roundrect (at 2.25 3.4375) (size 0.25 0.875) (layers F.Cu F.Paste F.Mask) (roundrect_rratio 0.25))
  (pad 22 smd roundrect (at 1.75 3.4375) (size 0.25 0.875) (layers F.Cu F.Paste F.Mask) (roundrect_rratio 0.25))
  (pad 21 smd roundrect (at 1.25 3.4375) (size 0.25 0.875) (layers F.Cu F.Paste F.Mask) (roundrect_rratio 0.25))
  (pad 20 smd roundrect (at 0.75 3.4375) (size 0.25 0.875) (layers F.Cu F.Paste F.Mask) (roundrect_rratio 0.25))
  (pad 19 smd roundrect (at 0.25 3.4375) (size 0.25 0.875) (layers F.Cu F.Paste F.Mask) (roundrect_rratio 0.25))
  (pad 18 smd roundrect (at -0.25 3.4375) (size 0.25 0.875) (layers F.Cu F.Paste F.Mask) (roundrect_rratio 0.25))
  (pad 17 smd roundrect (at -0.75 3.4375) (size 0.25 0.875) (layers F.Cu F.Paste F.Mask) (roundrect_rratio 0.25))
  (pad 16 smd roundrect (at -1.25 3.4375) (size 0.25 0.875) (layers F.Cu F.Paste F.Mask) (roundrect_rratio 0.25))
  (pad 15 smd roundrect (at -1.75 3.4375) (size 0.25 0.875) (layers F.Cu F.Paste F.Mask) (roundrect_rratio 0.25))
  (pad 14 smd roundrect (at -2.25 3.4375) (size 0.25 0.875) (layers F.Cu F.Paste F.Mask) (roundrect_rratio 0.25))
  (pad 13 smd roundrect (at -2.75 3.4375) (size 0.25 0.875) (layers F.Cu F.Paste F.Mask) (roundrect_rratio 0.25))
  (pad 12 smd roundrect (at -3.4375 2.75) (size 0.875 0.25) (layers F.Cu F.Paste F.Mask) (roundrect_rratio 0.25))
  (pad 11 smd roundrect (at -3.4375 2.25) (size 0.875 0.25) (layers F.Cu F.Paste F.Mask) (roundrect_rratio 0.25))
  (pad 10 smd roundrect (at -3.4375 1.75) (size 0.875 0.25) (layers F.Cu F.Paste F.Mask) (roundrect_rratio 0.25))
  (pad 9 smd roundrect (at -3.4375 1.25) (size 0.875 0.25) (layers F.Cu F.Paste F.Mask) (roundrect_rratio 0.25))
  (pad 8 smd roundrect (at -3.4375 0.75) (size 0.875 0.25) (layers F.Cu F.Paste F.Mask) (roundrect_rratio 0.25))
  (pad 7 smd roundrect (at -3.4375 0.25) (size 0.875 0.25) (layers F.Cu F.Paste F.Mask) (roundrect_rratio 0.25))
  (pad 6 smd roundrect (at -3.4375 -0.25) (size 0.875 0.25) (layers F.Cu F.Paste F.Mask) (roundrect_rratio 0.25))
  (pad 5 smd roundrect (at -3.4375 -0.75) (size 0.875 0.25) (layers F.Cu F.Paste F.Mask) (roundrect_rratio 0.25))
  (pad 4 smd roundrect (at -3.4375 -1.25) (size 0.875 0.25) (layers F.Cu F.Paste F.Mask) (roundrect_rratio 0.25))
  (pad 3 smd roundrect (at -3.4375 -1.75) (size 0.875 0.25) (layers F.Cu F.Paste F.Mask) (roundrect_rratio 0.25))
  (pad 2 smd roundrect (at -3.4375 -2.25) (size 0.875 0.25) (layers F.Cu F.Paste F.Mask) (roundrect_rratio 0.25))
  (pad 1 smd roundrect (at -3.4375 -2.75) (size 0.875 0.25) (layers F.Cu F.Paste F.Mask) (roundrect_rratio 0.25))
  (pad "" smd roundrect (at 1.29 1.29) (size 2.08 2.08) (layers F.Paste) (roundrect_rratio 0.120192))
  (pad "" smd roundrect (at 1.29 -1.29) (size 2.08 2.08) (layers F.Paste) (roundrect_rratio 0.120192))
  (pad "" smd roundrect (at -1.29 1.29) (size 2.08 2.08) (layers F.Paste) (roundrect_rratio 0.120192))
  (pad "" smd roundrect (at -1.29 -1.29) (size 2.08 2.08) (layers F.Paste) (roundrect_rratio 0.120192))
  (pad 49 smd roundrect (at 0 0) (size 5.15 5.15) (layers B.Cu B.Mask) (roundrect_rratio 0.049))
  (pad 49 thru_hole circle (at 2.325 2.325) (size 0.5 0.5) (drill 0.2) (layers *.Cu))
  (pad 49 thru_hole circle (at 1.1625 2.325) (size 0.5 0.5) (drill 0.2) (layers *.Cu))
  (pad 49 thru_hole circle (at 0 2.325) (size 0.5 0.5) (drill 0.2) (layers *.Cu))
  (pad 49 thru_hole circle (at -1.1625 2.325) (size 0.5 0.5) (drill 0.2) (layers *.Cu))
  (pad 49 thru_hole circle (at -2.325 2.325) (size 0.5 0.5) (drill 0.2) (layers *.Cu))
  (pad 49 thru_hole circle (at 2.325 1.1625) (size 0.5 0.5) (drill 0.2) (layers *.Cu))
  (pad 49 thru_hole circle (at 1.1625 1.1625) (size 0.5 0.5) (drill 0.2) (layers *.Cu))
  (pad 49 thru_hole circle (at 0 1.1625) (size 0.5 0.5) (drill 0.2) (layers *.Cu))
  (pad 49 thru_hole circle (at -1.1625 1.1625) (size 0.5 0.5) (drill 0.2) (layers *.Cu))
  (pad 49 thru_hole circle (at -2.325 1.1625) (size 0.5 0.5) (drill 0.2) (layers *.Cu))
  (pad 49 thru_hole circle (at 2.325 0) (size 0.5 0.5) (drill 0.2) (layers *.Cu))
  (pad 49 thru_hole circle (at 1.1625 0) (size 0.5 0.5) (drill 0.2) (layers *.Cu))
  (pad 49 thru_hole circle (at 0 0) (size 0.5 0.5) (drill 0.2) (layers *.Cu))
  (pad 49 thru_hole circle (at -1.1625 0) (size 0.5 0.5) (drill 0.2) (layers *.Cu))
  (pad 49 thru_hole circle (at -2.325 0) (size 0.5 0.5) (drill 0.2) (layers *.Cu))
  (pad 49 thru_hole circle (at 2.325 -1.1625) (size 0.5 0.5) (drill 0.2) (layers *.Cu))
  (pad 49 thru_hole circle (at 1.1625 -1.1625) (size 0.5 0.5) (drill 0.2) (layers *.Cu))
  (pad 49 thru_hole circle (at 0 -1.1625) (size 0.5 0.5) (drill 0.2) (layers *.Cu))
  (pad 49 thru_hole circle (at -1.1625 -1.1625) (size 0.5 0.5) (drill 0.2) (layers *.Cu))
  (pad 49 thru_hole circle (at -2.325 -1.1625) (size 0.5 0.5) (drill 0.2) (layers *.Cu))
  (pad 49 thru_hole circle (at 2.325 -2.325) (size 0.5 0.5) (drill 0.2) (layers *.Cu))
  (pad 49 thru_hole circle (at 1.1625 -2.325) (size 0.5 0.5) (drill 0.2) (layers *.Cu))
  (pad 49 thru_hole circle (at 0 -2.325) (size 0.5 0.5) (drill 0.2) (layers *.Cu))
  (pad 49 thru_hole circle (at -1.1625 -2.325) (size 0.5 0.5) (drill 0.2) (layers *.Cu))
  (pad 49 thru_hole circle (at -2.325 -2.325) (size 0.5 0.5) (drill 0.2) (layers *.Cu))
  (pad 49 smd roundrect (at 0 0) (size 5.15 5.15) (layers F.Cu F.Mask) (roundrect_rratio 0.048544))
  (model ${KISYS3DMOD}/Package_DFN_QFN.3dshapes/VQFN-48-1EP_7x7mm_P0.5mm_EP5.15x5.15mm.wrl
    (at (xyz 0 0 0))
    (scale (xyz 1 1 1))
    (rotate (xyz 0 0 0))
  )
)
