(module VQFN-20-1EP_3x3mm_P0.4mm_EP1.7x1.7mm (layer F.Cu) (tedit 607E9260)
  (descr "VQFN, 20 Pin (http://ww1.microchip.com/downloads/en/DeviceDoc/20%20Lead%20VQFN%203x3x0_9mm_1_7EP%20U2B%20C04-21496a.pdf), Alternate KiCad Library")
  (tags "VQFN NoLead")
  (attr smd)
  (fp_text reference REF** (at 0 -2.8) (layer F.SilkS)
    (effects (font (size 1 1) (thickness 0.15)))
  )
  (fp_text value VQFN-20-1EP_3x3mm_P0.4mm_EP1.7x1.7mm (at 0 2.8) (layer F.Fab)
    (effects (font (size 1 1) (thickness 0.15)))
  )
  (fp_line (start 2.159 1.016) (end 2.159 -1.0795) (layer F.SilkS) (width 0.12))
  (fp_line (start 1.397 -2.159) (end -1.651 -2.159) (layer F.SilkS) (width 0.12))
  (fp_line (start -2.159 -1.2065) (end -2.159 1.651) (layer F.SilkS) (width 0.12))
  (fp_line (start -1.397 2.159) (end 1.4605 2.159) (layer F.SilkS) (width 0.12))
  (fp_circle (center -2.032 -2.032) (end -1.9685 -2.032) (layer F.SilkS) (width 0.3))
  (fp_line (start 2.1 -2.1) (end -2.1 -2.1) (layer F.CrtYd) (width 0.05))
  (fp_line (start 2.1 2.1) (end 2.1 -2.1) (layer F.CrtYd) (width 0.05))
  (fp_line (start -2.1 2.1) (end 2.1 2.1) (layer F.CrtYd) (width 0.05))
  (fp_line (start -2.1 -2.1) (end -2.1 2.1) (layer F.CrtYd) (width 0.05))
  (fp_line (start -1.5 -0.75) (end -0.75 -1.5) (layer F.Fab) (width 0.1))
  (fp_line (start -1.5 1.5) (end -1.5 -0.75) (layer F.Fab) (width 0.1))
  (fp_line (start 1.5 1.5) (end -1.5 1.5) (layer F.Fab) (width 0.1))
  (fp_line (start 1.5 -1.5) (end 1.5 1.5) (layer F.Fab) (width 0.1))
  (fp_line (start -0.75 -1.5) (end 1.5 -1.5) (layer F.Fab) (width 0.1))
  (fp_text user %R (at 0 0) (layer F.Fab)
    (effects (font (size 0.75 0.75) (thickness 0.11)))
  )
  (fp_text user 5 (at -1.9685 2.032 -90 unlocked) (layer F.SilkS)
    (effects (font (size 0.6 0.6) (thickness 0.12)))
  )
  (fp_text user 15 (at 1.905 -1.778 -90 unlocked) (layer F.SilkS)
    (effects (font (size 0.6 0.6) (thickness 0.12)))
  )
  (fp_text user 1 (at -1.9685 -1.5875 -90 unlocked) (layer F.SilkS)
    (effects (font (size 0.6 0.6) (thickness 0.12)))
  )
  (fp_text user 10 (at 1.905 1.7145 -90 unlocked) (layer F.SilkS)
    (effects (font (size 0.6 0.6) (thickness 0.12)))
  )
  (pad "" smd roundrect (at 0.425 0.425) (size 0.69 0.69) (layers F.Paste) (roundrect_rratio 0.25))
  (pad "" smd roundrect (at 0.425 -0.425) (size 0.69 0.69) (layers F.Paste) (roundrect_rratio 0.25))
  (pad "" smd roundrect (at -0.425 0.425) (size 0.69 0.69) (layers F.Paste) (roundrect_rratio 0.25))
  (pad "" smd roundrect (at -0.425 -0.425) (size 0.69 0.69) (layers F.Paste) (roundrect_rratio 0.25))
  (pad 21 smd rect (at 0 0) (size 1.7 1.7) (layers F.Cu F.Mask))
  (pad 20 smd custom (at -0.8 -1.45) (size 0.143431 0.143431) (layers F.Cu F.Paste F.Mask)
    (options (clearance outline) (anchor circle))
    (primitives
      (gr_poly (pts
         (xy -0.05 -0.35) (xy 0.05 -0.35) (xy 0.05 0.35) (xy 0.000711 0.35) (xy -0.05 0.299289)
) (width 0.1))
    ))
  (pad 19 smd roundrect (at -0.4 -1.45) (size 0.2 0.8) (layers F.Cu F.Paste F.Mask) (roundrect_rratio 0.25))
  (pad 18 smd roundrect (at 0 -1.45) (size 0.2 0.8) (layers F.Cu F.Paste F.Mask) (roundrect_rratio 0.25))
  (pad 17 smd roundrect (at 0.4 -1.45) (size 0.2 0.8) (layers F.Cu F.Paste F.Mask) (roundrect_rratio 0.25))
  (pad 16 smd custom (at 0.8 -1.45) (size 0.143431 0.143431) (layers F.Cu F.Paste F.Mask)
    (options (clearance outline) (anchor circle))
    (primitives
      (gr_poly (pts
         (xy -0.05 -0.35) (xy 0.05 -0.35) (xy 0.05 0.299289) (xy -0.000711 0.35) (xy -0.05 0.35)
) (width 0.1))
    ))
  (pad 15 smd custom (at 1.45 -0.8) (size 0.143431 0.143431) (layers F.Cu F.Paste F.Mask)
    (options (clearance outline) (anchor circle))
    (primitives
      (gr_poly (pts
         (xy -0.35 0.000711) (xy -0.299289 -0.05) (xy 0.35 -0.05) (xy 0.35 0.05) (xy -0.35 0.05)
) (width 0.1))
    ))
  (pad 14 smd roundrect (at 1.45 -0.4) (size 0.8 0.2) (layers F.Cu F.Paste F.Mask) (roundrect_rratio 0.25))
  (pad 13 smd roundrect (at 1.45 0) (size 0.8 0.2) (layers F.Cu F.Paste F.Mask) (roundrect_rratio 0.25))
  (pad 12 smd roundrect (at 1.45 0.4) (size 0.8 0.2) (layers F.Cu F.Paste F.Mask) (roundrect_rratio 0.25))
  (pad 11 smd custom (at 1.45 0.8) (size 0.143431 0.143431) (layers F.Cu F.Paste F.Mask)
    (options (clearance outline) (anchor circle))
    (primitives
      (gr_poly (pts
         (xy -0.35 -0.05) (xy 0.35 -0.05) (xy 0.35 0.05) (xy -0.299289 0.05) (xy -0.35 -0.000711)
) (width 0.1))
    ))
  (pad 10 smd custom (at 0.8 1.45) (size 0.143431 0.143431) (layers F.Cu F.Paste F.Mask)
    (options (clearance outline) (anchor circle))
    (primitives
      (gr_poly (pts
         (xy -0.05 -0.35) (xy -0.000711 -0.35) (xy 0.05 -0.299289) (xy 0.05 0.35) (xy -0.05 0.35)
) (width 0.1))
    ))
  (pad 9 smd roundrect (at 0.4 1.45) (size 0.2 0.8) (layers F.Cu F.Paste F.Mask) (roundrect_rratio 0.25))
  (pad 8 smd roundrect (at 0 1.45) (size 0.2 0.8) (layers F.Cu F.Paste F.Mask) (roundrect_rratio 0.25))
  (pad 7 smd roundrect (at -0.4 1.45) (size 0.2 0.8) (layers F.Cu F.Paste F.Mask) (roundrect_rratio 0.25))
  (pad 6 smd custom (at -0.8 1.45) (size 0.143431 0.143431) (layers F.Cu F.Paste F.Mask)
    (options (clearance outline) (anchor circle))
    (primitives
      (gr_poly (pts
         (xy -0.05 -0.299289) (xy 0.000711 -0.35) (xy 0.05 -0.35) (xy 0.05 0.35) (xy -0.05 0.35)
) (width 0.1))
    ))
  (pad 5 smd custom (at -1.45 0.8) (size 0.143431 0.143431) (layers F.Cu F.Paste F.Mask)
    (options (clearance outline) (anchor circle))
    (primitives
      (gr_poly (pts
         (xy -0.35 -0.05) (xy 0.35 -0.05) (xy 0.35 -0.000711) (xy 0.299289 0.05) (xy -0.35 0.05)
) (width 0.1))
    ))
  (pad 4 smd roundrect (at -1.45 0.4) (size 0.8 0.2) (layers F.Cu F.Paste F.Mask) (roundrect_rratio 0.25))
  (pad 3 smd roundrect (at -1.45 0) (size 0.8 0.2) (layers F.Cu F.Paste F.Mask) (roundrect_rratio 0.25))
  (pad 2 smd roundrect (at -1.45 -0.4) (size 0.8 0.2) (layers F.Cu F.Paste F.Mask) (roundrect_rratio 0.25))
  (pad 1 smd custom (at -1.45 -0.8) (size 0.143431 0.143431) (layers F.Cu F.Paste F.Mask)
    (options (clearance outline) (anchor circle))
    (primitives
      (gr_poly (pts
         (xy -0.35 -0.05) (xy 0.299289 -0.05) (xy 0.35 0.000711) (xy 0.35 0.05) (xy -0.35 0.05)
) (width 0.1))
    ))
  (model ${KISYS3DMOD}/Package_DFN_QFN.3dshapes/VQFN-20-1EP_3x3mm_P0.4mm_EP1.7x1.7mm.wrl
    (at (xyz 0 0 0))
    (scale (xyz 1 1 1))
    (rotate (xyz 0 0 0))
  )
)
