(module VQFN-24-1EP_4x4mm_P0.5mm_EP2.45x2.45mm (layer F.Cu) (tedit 607E927C)
  (descr "VQFN, 24 Pin (http://www.ti.com/lit/ds/symlink/msp430f1101a.pdf), Alternate KiCad Library")
  (tags "VQFN NoLead")
  (attr smd)
  (fp_text reference REF** (at 0 -3.32) (layer F.SilkS)
    (effects (font (size 1 1) (thickness 0.15)))
  )
  (fp_text value VQFN-24-1EP_4x4mm_P0.5mm_EP2.45x2.45mm (at 0 3.32) (layer F.Fab)
    (effects (font (size 1 1) (thickness 0.15)))
  )
  (fp_line (start 2.6035 1.5875) (end 2.6035 -1.5875) (layer F.SilkS) (width 0.12))
  (fp_line (start 1.905 -2.6035) (end -2.0955 -2.6035) (layer F.SilkS) (width 0.12))
  (fp_line (start -2.6035 -1.5875) (end -2.6035 2.0955) (layer F.SilkS) (width 0.12))
  (fp_circle (center -2.4765 -2.4765) (end -2.413 -2.4765) (layer F.SilkS) (width 0.3))
  (fp_line (start -1.905 2.6035) (end 1.905 2.6035) (layer F.SilkS) (width 0.12))
  (fp_line (start 2.62 -2.62) (end -2.62 -2.62) (layer F.CrtYd) (width 0.05))
  (fp_line (start 2.62 2.62) (end 2.62 -2.62) (layer F.CrtYd) (width 0.05))
  (fp_line (start -2.62 2.62) (end 2.62 2.62) (layer F.CrtYd) (width 0.05))
  (fp_line (start -2.62 -2.62) (end -2.62 2.62) (layer F.CrtYd) (width 0.05))
  (fp_line (start -2 -1) (end -1 -2) (layer F.Fab) (width 0.1))
  (fp_line (start -2 2) (end -2 -1) (layer F.Fab) (width 0.1))
  (fp_line (start 2 2) (end -2 2) (layer F.Fab) (width 0.1))
  (fp_line (start 2 -2) (end 2 2) (layer F.Fab) (width 0.1))
  (fp_line (start -1 -2) (end 2 -2) (layer F.Fab) (width 0.1))
  (fp_text user %R (at 0 0) (layer F.Fab)
    (effects (font (size 1 1) (thickness 0.15)))
  )
  (fp_text user 12 (at 2.413 2.286 -90 unlocked) (layer F.SilkS)
    (effects (font (size 0.6 0.6) (thickness 0.12)))
  )
  (fp_text user 6 (at -2.4765 2.54 -90 unlocked) (layer F.SilkS)
    (effects (font (size 0.6 0.6) (thickness 0.12)))
  )
  (fp_text user 18 (at 2.413 -2.286 -90 unlocked) (layer F.SilkS)
    (effects (font (size 0.6 0.6) (thickness 0.12)))
  )
  (fp_text user 1 (at -2.4765 -1.9685 -90 unlocked) (layer F.SilkS)
    (effects (font (size 0.6 0.6) (thickness 0.12)))
  )
  (pad "" smd roundrect (at 0.82 0.82) (size 0.66 0.66) (layers F.Paste) (roundrect_rratio 0.25))
  (pad "" smd roundrect (at 0.82 0) (size 0.66 0.66) (layers F.Paste) (roundrect_rratio 0.25))
  (pad "" smd roundrect (at 0.82 -0.82) (size 0.66 0.66) (layers F.Paste) (roundrect_rratio 0.25))
  (pad "" smd roundrect (at 0 0.82) (size 0.66 0.66) (layers F.Paste) (roundrect_rratio 0.25))
  (pad "" smd roundrect (at 0 0) (size 0.66 0.66) (layers F.Paste) (roundrect_rratio 0.25))
  (pad "" smd roundrect (at 0 -0.82) (size 0.66 0.66) (layers F.Paste) (roundrect_rratio 0.25))
  (pad "" smd roundrect (at -0.82 0.82) (size 0.66 0.66) (layers F.Paste) (roundrect_rratio 0.25))
  (pad "" smd roundrect (at -0.82 0) (size 0.66 0.66) (layers F.Paste) (roundrect_rratio 0.25))
  (pad "" smd roundrect (at -0.82 -0.82) (size 0.66 0.66) (layers F.Paste) (roundrect_rratio 0.25))
  (pad 25 smd rect (at 0 0) (size 2.45 2.45) (layers F.Cu F.Mask))
  (pad 24 smd roundrect (at -1.25 -1.9875) (size 0.25 0.775) (layers F.Cu F.Paste F.Mask) (roundrect_rratio 0.25))
  (pad 23 smd roundrect (at -0.75 -1.9875) (size 0.25 0.775) (layers F.Cu F.Paste F.Mask) (roundrect_rratio 0.25))
  (pad 22 smd roundrect (at -0.25 -1.9875) (size 0.25 0.775) (layers F.Cu F.Paste F.Mask) (roundrect_rratio 0.25))
  (pad 21 smd roundrect (at 0.25 -1.9875) (size 0.25 0.775) (layers F.Cu F.Paste F.Mask) (roundrect_rratio 0.25))
  (pad 20 smd roundrect (at 0.75 -1.9875) (size 0.25 0.775) (layers F.Cu F.Paste F.Mask) (roundrect_rratio 0.25))
  (pad 19 smd roundrect (at 1.25 -1.9875) (size 0.25 0.775) (layers F.Cu F.Paste F.Mask) (roundrect_rratio 0.25))
  (pad 18 smd roundrect (at 1.9875 -1.25) (size 0.775 0.25) (layers F.Cu F.Paste F.Mask) (roundrect_rratio 0.25))
  (pad 17 smd roundrect (at 1.9875 -0.75) (size 0.775 0.25) (layers F.Cu F.Paste F.Mask) (roundrect_rratio 0.25))
  (pad 16 smd roundrect (at 1.9875 -0.25) (size 0.775 0.25) (layers F.Cu F.Paste F.Mask) (roundrect_rratio 0.25))
  (pad 15 smd roundrect (at 1.9875 0.25) (size 0.775 0.25) (layers F.Cu F.Paste F.Mask) (roundrect_rratio 0.25))
  (pad 14 smd roundrect (at 1.9875 0.75) (size 0.775 0.25) (layers F.Cu F.Paste F.Mask) (roundrect_rratio 0.25))
  (pad 13 smd roundrect (at 1.9875 1.25) (size 0.775 0.25) (layers F.Cu F.Paste F.Mask) (roundrect_rratio 0.25))
  (pad 12 smd roundrect (at 1.25 1.9875) (size 0.25 0.775) (layers F.Cu F.Paste F.Mask) (roundrect_rratio 0.25))
  (pad 11 smd roundrect (at 0.75 1.9875) (size 0.25 0.775) (layers F.Cu F.Paste F.Mask) (roundrect_rratio 0.25))
  (pad 10 smd roundrect (at 0.25 1.9875) (size 0.25 0.775) (layers F.Cu F.Paste F.Mask) (roundrect_rratio 0.25))
  (pad 9 smd roundrect (at -0.25 1.9875) (size 0.25 0.775) (layers F.Cu F.Paste F.Mask) (roundrect_rratio 0.25))
  (pad 8 smd roundrect (at -0.75 1.9875) (size 0.25 0.775) (layers F.Cu F.Paste F.Mask) (roundrect_rratio 0.25))
  (pad 7 smd roundrect (at -1.25 1.9875) (size 0.25 0.775) (layers F.Cu F.Paste F.Mask) (roundrect_rratio 0.25))
  (pad 6 smd roundrect (at -1.9875 1.25) (size 0.775 0.25) (layers F.Cu F.Paste F.Mask) (roundrect_rratio 0.25))
  (pad 5 smd roundrect (at -1.9875 0.75) (size 0.775 0.25) (layers F.Cu F.Paste F.Mask) (roundrect_rratio 0.25))
  (pad 4 smd roundrect (at -1.9875 0.25) (size 0.775 0.25) (layers F.Cu F.Paste F.Mask) (roundrect_rratio 0.25))
  (pad 3 smd roundrect (at -1.9875 -0.25) (size 0.775 0.25) (layers F.Cu F.Paste F.Mask) (roundrect_rratio 0.25))
  (pad 2 smd roundrect (at -1.9875 -0.75) (size 0.775 0.25) (layers F.Cu F.Paste F.Mask) (roundrect_rratio 0.25))
  (pad 1 smd roundrect (at -1.9875 -1.25) (size 0.775 0.25) (layers F.Cu F.Paste F.Mask) (roundrect_rratio 0.25))
  (model ${KISYS3DMOD}/Package_DFN_QFN.3dshapes/VQFN-24-1EP_4x4mm_P0.5mm_EP2.45x2.45mm.wrl
    (at (xyz 0 0 0))
    (scale (xyz 1 1 1))
    (rotate (xyz 0 0 0))
  )
)
