(module WDFN-8-1EP_2x2.2mm_P0.5mm_EP0.80x0.54 (layer F.Cu) (tedit 607E92F5)
  (descr "https://www.onsemi.com/pub/Collateral/511BN.PDF, Alternate KiCad Library")
  (tags "WDFN-8 1EP 2.2X2.0 0.5P")
  (attr smd)
  (fp_text reference REF** (at 0 -2.0955) (layer F.SilkS)
    (effects (font (size 1 1) (thickness 0.15)))
  )
  (fp_text value WDFN-8-1EP_2x2.2mm_P0.5mm_EP0.80x0.54 (at 0 2.05) (layer F.Fab)
    (effects (font (size 1 1) (thickness 0.15)))
  )
  (fp_line (start -1.397 1.3335) (end -1.397 -1.016) (layer F.SilkS) (width 0.12))
  (fp_line (start 1.397 1.3335) (end -1.397 1.3335) (layer F.SilkS) (width 0.12))
  (fp_line (start 1.397 -1.3335) (end 1.397 1.3335) (layer F.SilkS) (width 0.12))
  (fp_line (start -1.0795 -1.3335) (end 1.397 -1.3335) (layer F.SilkS) (width 0.12))
  (fp_line (start -1.25 1.35) (end 1.25 1.35) (layer F.CrtYd) (width 0.05))
  (fp_line (start -1.25 -1.35) (end 1.25 -1.35) (layer F.CrtYd) (width 0.05))
  (fp_line (start 1.25 -1.35) (end 1.25 1.35) (layer F.CrtYd) (width 0.05))
  (fp_line (start -1.25 -1.35) (end -1.25 1.35) (layer F.CrtYd) (width 0.05))
  (fp_line (start -1 -0.6) (end -0.5 -1.1) (layer F.Fab) (width 0.1))
  (fp_line (start -1 1.1) (end -1 -0.6) (layer F.Fab) (width 0.1))
  (fp_line (start 1 1.1) (end -1 1.1) (layer F.Fab) (width 0.1))
  (fp_line (start 1 -1.1) (end 1 1.1) (layer F.Fab) (width 0.1))
  (fp_line (start -0.5 -1.1) (end 1 -1.1) (layer F.Fab) (width 0.1))
  (fp_circle (center -1.3335 -1.27) (end -1.27 -1.27) (layer F.SilkS) (width 0.15))
  (fp_text user %R (at 0 0) (layer F.Fab)
    (effects (font (size 0.5 0.5) (thickness 0.1)))
  )
  (pad 9 smd rect (at 0 0.63) (size 0.8 0.54) (layers F.Cu F.Paste F.Mask))
  (pad 8 smd rect (at 0.65 -0.75) (size 1 0.3) (layers F.Cu F.Paste F.Mask))
  (pad 7 smd rect (at 0.65 -0.25) (size 1 0.3) (layers F.Cu F.Paste F.Mask))
  (pad 6 smd rect (at 0.85 0.25) (size 0.6 0.3) (layers F.Cu F.Paste F.Mask))
  (pad 5 smd rect (at 0.85 0.75) (size 0.6 0.3) (layers F.Cu F.Paste F.Mask))
  (pad 4 smd rect (at -0.85 0.75) (size 0.6 0.3) (layers F.Cu F.Paste F.Mask))
  (pad 3 smd rect (at -0.85 0.25) (size 0.6 0.3) (layers F.Cu F.Paste F.Mask))
  (pad 2 smd rect (at -0.65 -0.25) (size 1 0.3) (layers F.Cu F.Paste F.Mask))
  (pad 1 smd rect (at -0.65 -0.8) (size 1 0.4) (layers F.Cu F.Paste F.Mask))
  (model ${KISYS3DMOD}/Package_DFN_QFN.3dshapes/WDFN-8_2.2x2mm_P0.5mm_1EP.wrl
    (at (xyz 0 0 0))
    (scale (xyz 1 1 1))
    (rotate (xyz 0 0 0))
  )
)
