(module WDFN-12-1EP_3x3mm_P0.45mm_EP1.7x2.5mm (layer F.Cu) (tedit 607E9304)
  (descr "WDFN, 12 Pin (https://www.diodes.com/assets/Datasheets/PAM2306.pdf), Alternate KiCad Library")
  (tags "WDFN NoLead")
  (attr smd)
  (fp_text reference REF** (at 0 -2.45) (layer F.SilkS)
    (effects (font (size 1 1) (thickness 0.15)))
  )
  (fp_text value WDFN-12-1EP_3x3mm_P0.45mm_EP1.7x2.5mm (at 0 2.45) (layer F.Fab)
    (effects (font (size 1 1) (thickness 0.15)))
  )
  (fp_line (start 2.0955 -1.7145) (end -1.651 -1.7145) (layer F.SilkS) (width 0.12))
  (fp_line (start 2.0955 1.7145) (end 2.0955 -1.7145) (layer F.SilkS) (width 0.12))
  (fp_line (start -2.0955 1.7145) (end 2.0955 1.7145) (layer F.SilkS) (width 0.12))
  (fp_line (start -2.0955 -1.27) (end -2.0955 1.7145) (layer F.SilkS) (width 0.12))
  (fp_line (start 2.1 -1.75) (end -2.1 -1.75) (layer F.CrtYd) (width 0.05))
  (fp_line (start 2.1 1.75) (end 2.1 -1.75) (layer F.CrtYd) (width 0.05))
  (fp_line (start -2.1 1.75) (end 2.1 1.75) (layer F.CrtYd) (width 0.05))
  (fp_line (start -2.1 -1.75) (end -2.1 1.75) (layer F.CrtYd) (width 0.05))
  (fp_line (start -1.5 -0.75) (end -0.75 -1.5) (layer F.Fab) (width 0.1))
  (fp_line (start -1.5 1.5) (end -1.5 -0.75) (layer F.Fab) (width 0.1))
  (fp_line (start 1.5 1.5) (end -1.5 1.5) (layer F.Fab) (width 0.1))
  (fp_line (start 1.5 -1.5) (end 1.5 1.5) (layer F.Fab) (width 0.1))
  (fp_line (start -0.75 -1.5) (end 1.5 -1.5) (layer F.Fab) (width 0.1))
  (fp_circle (center -1.9685 -1.5875) (end -1.905 -1.5875) (layer F.SilkS) (width 0.2))
  (fp_text user %R (at 0 0) (layer F.Fab)
    (effects (font (size 0.75 0.75) (thickness 0.11)))
  )
  (pad "" smd roundrect (at 0.425 0.625) (size 0.69 1.01) (layers F.Paste) (roundrect_rratio 0.25))
  (pad "" smd roundrect (at 0.425 -0.625) (size 0.69 1.01) (layers F.Paste) (roundrect_rratio 0.25))
  (pad "" smd roundrect (at -0.425 0.625) (size 0.69 1.01) (layers F.Paste) (roundrect_rratio 0.25))
  (pad "" smd roundrect (at -0.425 -0.625) (size 0.69 1.01) (layers F.Paste) (roundrect_rratio 0.25))
  (pad 13 smd rect (at 0 0) (size 1.7 2.5) (layers F.Cu F.Mask))
  (pad 12 smd roundrect (at 1.45 -1.125) (size 0.8 0.2) (layers F.Cu F.Paste F.Mask) (roundrect_rratio 0.25))
  (pad 11 smd roundrect (at 1.45 -0.675) (size 0.8 0.2) (layers F.Cu F.Paste F.Mask) (roundrect_rratio 0.25))
  (pad 10 smd roundrect (at 1.45 -0.225) (size 0.8 0.2) (layers F.Cu F.Paste F.Mask) (roundrect_rratio 0.25))
  (pad 9 smd roundrect (at 1.45 0.225) (size 0.8 0.2) (layers F.Cu F.Paste F.Mask) (roundrect_rratio 0.25))
  (pad 8 smd roundrect (at 1.45 0.675) (size 0.8 0.2) (layers F.Cu F.Paste F.Mask) (roundrect_rratio 0.25))
  (pad 7 smd roundrect (at 1.45 1.125) (size 0.8 0.2) (layers F.Cu F.Paste F.Mask) (roundrect_rratio 0.25))
  (pad 6 smd roundrect (at -1.45 1.125) (size 0.8 0.2) (layers F.Cu F.Paste F.Mask) (roundrect_rratio 0.25))
  (pad 5 smd roundrect (at -1.45 0.675) (size 0.8 0.2) (layers F.Cu F.Paste F.Mask) (roundrect_rratio 0.25))
  (pad 4 smd roundrect (at -1.45 0.225) (size 0.8 0.2) (layers F.Cu F.Paste F.Mask) (roundrect_rratio 0.25))
  (pad 3 smd roundrect (at -1.45 -0.225) (size 0.8 0.2) (layers F.Cu F.Paste F.Mask) (roundrect_rratio 0.25))
  (pad 2 smd roundrect (at -1.45 -0.675) (size 0.8 0.2) (layers F.Cu F.Paste F.Mask) (roundrect_rratio 0.25))
  (pad 1 smd roundrect (at -1.45 -1.125) (size 0.8 0.2) (layers F.Cu F.Paste F.Mask) (roundrect_rratio 0.25))
  (model ${KISYS3DMOD}/Package_DFN_QFN.3dshapes/WDFN-12-1EP_3x3mm_P0.45mm_EP1.7x2.5mm.wrl
    (at (xyz 0 0 0))
    (scale (xyz 1 1 1))
    (rotate (xyz 0 0 0))
  )
)
