{
    "$schema": "https://gitlab.com/qu1ck/kicad/-/raw/pcm/kicad/pcm/schemas/pcm.v1.schema.json#",
    "name": "Dummy Plugin 1",
    "description": "Test plugin with a custom icon",
    "description_full": "Test plugin description. Lorem ipsum and quick puppies jumping over lazy foxes.",
    "identifier": "dummy-plugin-1",
    "type": "plugin",
    "author": {
        "name": "John Doe",
        "contact": {
            "email": "john@doe.com",
            "web": "johndoe.com"
        }
    },
    "maintainer": {
        "name": "John Doe",
        "contact": {
            "email": "john@doe.com",
            "web": "johndoe.com"
        }
    },
    "license": "WTFPL",
    "resources": {
        "Project page": "https://example.com",
        "Github": "https://github.com/example"
    },
    "tags": [
        "dummy",
        "test"
    ],
    "versions": [{
        "version": "1.0",
        "status": "stable",
        "kicad_version": "5.99",
        "platforms": ["linux", "macos", "windows"]
    }]
}