(module C_Axial_L5.1mm_D3.1mm_P7.50mm_Horizontal (layer F.Cu) (tedit 60782E23)
  (descr "C, Axial series, Axial, Horizontal, pin pitch=7.5mm, , length*diameter=5.1*3.1mm^2, http://www.vishay.com/docs/45231/arseries.pdf, Alternate KiCad Library")
  (tags "C Axial series Axial Horizontal pin pitch 7.5mm  length 5.1mm diameter 3.1mm")
  (fp_text reference REF** (at 3.75 -2.67) (layer F.SilkS)
    (effects (font (size 1 1) (thickness 0.15)))
  )
  (fp_text value C_Axial_L5.1mm_D3.1mm_P7.50mm_Horizontal (at 3.75 2.67) (layer F.Fab)
    (effects (font (size 1 1) (thickness 0.15)))
  )
  (fp_line (start 8.55 -1.8) (end -1.05 -1.8) (layer F.CrtYd) (width 0.05))
  (fp_line (start 8.55 1.8) (end 8.55 -1.8) (layer F.CrtYd) (width 0.05))
  (fp_line (start -1.05 1.8) (end 8.55 1.8) (layer F.CrtYd) (width 0.05))
  (fp_line (start -1.05 -1.8) (end -1.05 1.8) (layer F.CrtYd) (width 0.05))
  (fp_line (start 6.46 0) (end 6.42 0) (layer F.SilkS) (width 0.12))
  (fp_line (start 1.04 0) (end 1.08 0) (layer F.SilkS) (width 0.12))
  (fp_line (start 6.42 -1.67) (end 1.08 -1.67) (layer F.SilkS) (width 0.12))
  (fp_line (start 6.42 1.67) (end 6.42 -1.67) (layer F.SilkS) (width 0.12))
  (fp_line (start 1.08 1.67) (end 6.42 1.67) (layer F.SilkS) (width 0.12))
  (fp_line (start 1.08 -1.67) (end 1.08 1.67) (layer F.SilkS) (width 0.12))
  (fp_line (start 7.5 0) (end 6.3 0) (layer F.Fab) (width 0.1))
  (fp_line (start 0 0) (end 1.2 0) (layer F.Fab) (width 0.1))
  (fp_line (start 6.3 -1.55) (end 1.2 -1.55) (layer F.Fab) (width 0.1))
  (fp_line (start 6.3 1.55) (end 6.3 -1.55) (layer F.Fab) (width 0.1))
  (fp_line (start 1.2 1.55) (end 6.3 1.55) (layer F.Fab) (width 0.1))
  (fp_line (start 1.2 -1.55) (end 1.2 1.55) (layer F.Fab) (width 0.1))
  (fp_line (start 1.08 0) (end 3.302 0) (layer F.SilkS) (width 0.12))
  (fp_line (start 3.302 0) (end 3.302 1.27) (layer F.SilkS) (width 0.16))
  (fp_line (start 3.302 0) (end 3.302 -1.27) (layer F.SilkS) (width 0.16))
  (fp_line (start 4.191 0) (end 4.191 -1.27) (layer F.SilkS) (width 0.16))
  (fp_line (start 6.46 0) (end 4.191 0) (layer F.SilkS) (width 0.12))
  (fp_line (start 4.191 0) (end 4.191 1.27) (layer F.SilkS) (width 0.16))
  (fp_text user %R (at 3.75 0) (layer F.Fab)
    (effects (font (size 1 1) (thickness 0.15)))
  )
  (pad 2 thru_hole oval (at 7.5 0) (size 1.6 1.6) (drill 0.8) (layers *.Cu *.Mask))
  (pad 1 thru_hole circle (at 0 0) (size 1.6 1.6) (drill 0.8) (layers *.Cu *.Mask))
  (model ${KISYS3DMOD}/Capacitor_THT.3dshapes/C_Axial_L5.1mm_D3.1mm_P7.50mm_Horizontal.wrl
    (at (xyz 0 0 0))
    (scale (xyz 1 1 1))
    (rotate (xyz 0 0 0))
  )
)
