(module C_Axial_L3.0mm_D2.3mm_P10.00mm_Horizontal (layer F.Cu) (tedit 60782DAA)
  (descr "C, Axial series, Axial, Horizontal, pin pitch=7.5mm, , length*diameter=3.8*2.6mm^2, http://www.vishay.com/docs/45231/arseries.pdf, Alternate KiCad Library")
  (tags "C Axial series Axial Horizontal pin pitch 7.5mm  length 3.8mm diameter 2.6mm")
  (fp_text reference REF** (at 5 -2.42) (layer F.SilkS)
    (effects (font (size 1 1) (thickness 0.15)))
  )
  (fp_text value C_Axial_L3.0mm_D2.3mm_P10.00mm_Horizontal (at 5 2.42) (layer F.Fab)
    (effects (font (size 1 1) (thickness 0.15)))
  )
  (fp_line (start 6.711 0) (end 5.314 0) (layer F.SilkS) (width 0.12))
  (fp_line (start 5.314 0) (end 5.314 0.95) (layer F.SilkS) (width 0.12))
  (fp_line (start 5.314 0) (end 5.314 -0.95) (layer F.SilkS) (width 0.12))
  (fp_line (start 4.679 0) (end 4.679 0.95) (layer F.SilkS) (width 0.12))
  (fp_line (start 4.679 0) (end 4.679 -0.95) (layer F.SilkS) (width 0.12))
  (fp_line (start 2.98 0) (end 4.679 0) (layer F.SilkS) (width 0.12))
  (fp_line (start 0 0) (end 3.5 0) (layer F.Fab) (width 0.1))
  (fp_line (start 10 0) (end 6.5 0) (layer F.Fab) (width 0.1))
  (fp_line (start 1.1 0) (end 2.98 0) (layer F.SilkS) (width 0.12))
  (fp_line (start 8.9 0) (end 6.711 0) (layer F.SilkS) (width 0.12))
  (fp_line (start -1.05 -1.55) (end -1.05 1.55) (layer F.CrtYd) (width 0.05))
  (fp_line (start -1.05 1.55) (end 11.05 1.55) (layer F.CrtYd) (width 0.05))
  (fp_line (start 11.05 1.55) (end 11.05 -1.55) (layer F.CrtYd) (width 0.05))
  (fp_line (start 11.05 -1.55) (end -1.05 -1.55) (layer F.CrtYd) (width 0.05))
  (fp_line (start 6.5 0) (end 6.5 1.15) (layer F.Fab) (width 0.12))
  (fp_line (start 6.5 1.15) (end 3.5 1.15) (layer F.Fab) (width 0.12))
  (fp_line (start 3.5 1.15) (end 3.5 0) (layer F.Fab) (width 0.12))
  (fp_line (start 3.5 0) (end 3.5 -1.15) (layer F.Fab) (width 0.12))
  (fp_line (start 3.5 -1.15) (end 6.5 -1.15) (layer F.Fab) (width 0.12))
  (fp_line (start 6.5 -1.15) (end 6.5 0) (layer F.Fab) (width 0.12))
  (fp_line (start 6.65 0) (end 6.65 1.3) (layer F.SilkS) (width 0.12))
  (fp_line (start 6.65 1.3) (end 3.4 1.3) (layer F.SilkS) (width 0.12))
  (fp_line (start 3.4 1.3) (end 3.35 1.3) (layer F.SilkS) (width 0.12))
  (fp_line (start 3.35 1.3) (end 3.35 -1.3) (layer F.SilkS) (width 0.12))
  (fp_line (start 3.35 -1.3) (end 6.65 -1.3) (layer F.SilkS) (width 0.12))
  (fp_line (start 6.65 -1.3) (end 6.65 0) (layer F.SilkS) (width 0.12))
  (fp_text user %R (at 5 0) (layer F.Fab)
    (effects (font (size 0.76 0.76) (thickness 0.114)))
  )
  (pad 2 thru_hole oval (at 10 0) (size 1.6 1.6) (drill 0.8) (layers *.Cu *.Mask))
  (pad 1 thru_hole circle (at 0 0) (size 1.6 1.6) (drill 0.8) (layers *.Cu *.Mask))
  (model ${KISYS3DMOD}/Capacitor_THT.3dshapes/C_Axial_L3.8mm_D2.6mm_P7.50mm_Horizontal.wrl
    (at (xyz 0 0 0))
    (scale (xyz 1 1 1))
    (rotate (xyz 0 0 0))
  )
)
