(module C_Axial_L3.8mm_D2.6mm_P30.00mm_Horizontal (layer F.Cu) (tedit 60782E09)
  (descr "C, Axial series, Axial, Horizontal, pin pitch=15mm, , length*diameter=3.8*2.6mm^2, http://www.vishay.com/docs/45231/arseries.pdf, Alternate KiCad Library")
  (tags "C Axial series Axial Horizontal pin pitch 15mm  length 3.8mm diameter 2.6mm")
  (fp_text reference REF** (at 15 -2.42) (layer F.SilkS)
    (effects (font (size 1 1) (thickness 0.15)))
  )
  (fp_text value C_Axial_L3.8mm_D2.6mm_P30.00mm_Horizontal (at 15 2.42) (layer F.Fab)
    (effects (font (size 1 1) (thickness 0.15)))
  )
  (fp_line (start 31.05 -1.55) (end -1.05 -1.55) (layer F.CrtYd) (width 0.05))
  (fp_line (start 31.05 1.55) (end 31.05 -1.55) (layer F.CrtYd) (width 0.05))
  (fp_line (start -1.05 1.55) (end 31.05 1.55) (layer F.CrtYd) (width 0.05))
  (fp_line (start -1.05 -1.55) (end -1.05 1.55) (layer F.CrtYd) (width 0.05))
  (fp_line (start 28.9 0) (end 17.02 0) (layer F.SilkS) (width 0.12))
  (fp_line (start 1.1 0) (end 12.98 0) (layer F.SilkS) (width 0.12))
  (fp_line (start 17.02 -1.42) (end 12.98 -1.42) (layer F.SilkS) (width 0.12))
  (fp_line (start 17.02 1.42) (end 17.02 -1.42) (layer F.SilkS) (width 0.12))
  (fp_line (start 12.98 1.42) (end 17.02 1.42) (layer F.SilkS) (width 0.12))
  (fp_line (start 12.98 -1.42) (end 12.98 1.42) (layer F.SilkS) (width 0.12))
  (fp_line (start 30 0) (end 16.9 0) (layer F.Fab) (width 0.1))
  (fp_line (start 0 0) (end 13.1 0) (layer F.Fab) (width 0.1))
  (fp_line (start 16.9 -1.3) (end 13.1 -1.3) (layer F.Fab) (width 0.1))
  (fp_line (start 16.9 1.3) (end 16.9 -1.3) (layer F.Fab) (width 0.1))
  (fp_line (start 13.1 1.3) (end 16.9 1.3) (layer F.Fab) (width 0.1))
  (fp_line (start 13.1 -1.3) (end 13.1 1.3) (layer F.Fab) (width 0.1))
  (fp_line (start 14.6882 0) (end 14.6882 1.016) (layer F.SilkS) (width 0.12))
  (fp_line (start 17.018 0) (end 15.3232 0) (layer F.SilkS) (width 0.12))
  (fp_line (start 15.3232 0) (end 15.3232 1.016) (layer F.SilkS) (width 0.12))
  (fp_line (start 15.3232 0) (end 15.3232 -1.016) (layer F.SilkS) (width 0.12))
  (fp_line (start 14.6882 0) (end 14.6882 -1.016) (layer F.SilkS) (width 0.12))
  (fp_line (start 12.98 0) (end 14.6882 0) (layer F.SilkS) (width 0.12))
  (fp_text user %R (at 15 0) (layer F.Fab)
    (effects (font (size 0.76 0.76) (thickness 0.114)))
  )
  (pad 2 thru_hole oval (at 30 0) (size 1.6 1.6) (drill 0.8) (layers *.Cu *.Mask))
  (pad 1 thru_hole circle (at 0 0) (size 1.6 1.6) (drill 0.8) (layers *.Cu *.Mask))
  (model ${KISYS3DMOD}/Capacitor_THT.3dshapes/C_Axial_L3.8mm_D2.6mm_P15.00mm_Horizontal.wrl
    (at (xyz 0 0 0))
    (scale (xyz 1 1 1))
    (rotate (xyz 0 0 0))
  )
)
