(module C_Axial_L3.8mm_D2.6mm_P25.00mm_Horizontal (layer F.Cu) (tedit 60782E04)
  (descr "C, Axial series, Axial, Horizontal, pin pitch=15mm, , length*diameter=3.8*2.6mm^2, http://www.vishay.com/docs/45231/arseries.pdf, Alternate KiCad Library")
  (tags "C Axial series Axial Horizontal pin pitch 15mm  length 3.8mm diameter 2.6mm")
  (fp_text reference REF** (at 12.5 -2.42) (layer F.SilkS)
    (effects (font (size 1 1) (thickness 0.15)))
  )
  (fp_text value C_Axial_L3.8mm_D2.6mm_P25.00mm_Horizontal (at 12.5 2.42) (layer F.Fab)
    (effects (font (size 1 1) (thickness 0.15)))
  )
  (fp_line (start 26.05 -1.55) (end -1.05 -1.55) (layer F.CrtYd) (width 0.05))
  (fp_line (start 26.05 1.55) (end 26.05 -1.55) (layer F.CrtYd) (width 0.05))
  (fp_line (start -1.05 1.55) (end 26.05 1.55) (layer F.CrtYd) (width 0.05))
  (fp_line (start -1.05 -1.55) (end -1.05 1.55) (layer F.CrtYd) (width 0.05))
  (fp_line (start 23.9 0) (end 14.52 0) (layer F.SilkS) (width 0.12))
  (fp_line (start 1.1 0) (end 10.48 0) (layer F.SilkS) (width 0.12))
  (fp_line (start 14.52 -1.42) (end 10.48 -1.42) (layer F.SilkS) (width 0.12))
  (fp_line (start 14.52 1.42) (end 14.52 -1.42) (layer F.SilkS) (width 0.12))
  (fp_line (start 10.48 1.42) (end 14.52 1.42) (layer F.SilkS) (width 0.12))
  (fp_line (start 10.48 -1.42) (end 10.48 1.42) (layer F.SilkS) (width 0.12))
  (fp_line (start 25 0) (end 14.4 0) (layer F.Fab) (width 0.1))
  (fp_line (start 0 0) (end 10.6 0) (layer F.Fab) (width 0.1))
  (fp_line (start 14.4 -1.3) (end 10.6 -1.3) (layer F.Fab) (width 0.1))
  (fp_line (start 14.4 1.3) (end 14.4 -1.3) (layer F.Fab) (width 0.1))
  (fp_line (start 10.6 1.3) (end 14.4 1.3) (layer F.Fab) (width 0.1))
  (fp_line (start 10.6 -1.3) (end 10.6 1.3) (layer F.Fab) (width 0.1))
  (fp_line (start 12.1882 0) (end 12.1882 1.016) (layer F.SilkS) (width 0.12))
  (fp_line (start 14.52 0) (end 12.8232 0) (layer F.SilkS) (width 0.12))
  (fp_line (start 12.8232 0) (end 12.8232 1.016) (layer F.SilkS) (width 0.12))
  (fp_line (start 12.8232 0) (end 12.8232 -1.016) (layer F.SilkS) (width 0.12))
  (fp_line (start 12.1882 0) (end 12.1882 -1.016) (layer F.SilkS) (width 0.12))
  (fp_line (start 10.48 0) (end 12.1882 0) (layer F.SilkS) (width 0.12))
  (fp_text user %R (at 12.5 0) (layer F.Fab)
    (effects (font (size 0.76 0.76) (thickness 0.114)))
  )
  (pad 2 thru_hole oval (at 25 0) (size 1.6 1.6) (drill 0.8) (layers *.Cu *.Mask))
  (pad 1 thru_hole circle (at 0 0) (size 1.6 1.6) (drill 0.8) (layers *.Cu *.Mask))
  (model ${KISYS3DMOD}/Capacitor_THT.3dshapes/C_Axial_L3.8mm_D2.6mm_P15.00mm_Horizontal.wrl
    (at (xyz 0 0 0))
    (scale (xyz 1 1 1))
    (rotate (xyz 0 0 0))
  )
)
