(module C_Axial_L19.0mm_D7.5mm_P25.00mm_Horizontal (layer F.Cu) (tedit 60782F22)
  (descr "C, Axial series, Axial, Horizontal, pin pitch=25mm, , length*diameter=19*7.5mm^2, http://cdn-reichelt.de/documents/datenblatt/B300/STYROFLEX.pdf, Alternate KiCad Library")
  (tags "C Axial series Axial Horizontal pin pitch 25mm  length 19mm diameter 7.5mm")
  (fp_text reference REF** (at 12.5 -4.87) (layer F.SilkS)
    (effects (font (size 1 1) (thickness 0.15)))
  )
  (fp_text value C_Axial_L19.0mm_D7.5mm_P25.00mm_Horizontal (at 12.5 4.87) (layer F.Fab)
    (effects (font (size 1 1) (thickness 0.15)))
  )
  (fp_line (start 26.05 -4) (end -1.05 -4) (layer F.CrtYd) (width 0.05))
  (fp_line (start 26.05 4) (end 26.05 -4) (layer F.CrtYd) (width 0.05))
  (fp_line (start -1.05 4) (end 26.05 4) (layer F.CrtYd) (width 0.05))
  (fp_line (start -1.05 -4) (end -1.05 4) (layer F.CrtYd) (width 0.05))
  (fp_line (start 23.96 0) (end 22.12 0) (layer F.SilkS) (width 0.12))
  (fp_line (start 1.04 0) (end 2.88 0) (layer F.SilkS) (width 0.12))
  (fp_line (start 22.12 -3.87) (end 2.88 -3.87) (layer F.SilkS) (width 0.12))
  (fp_line (start 22.12 3.87) (end 22.12 -3.87) (layer F.SilkS) (width 0.12))
  (fp_line (start 2.88 3.87) (end 22.12 3.87) (layer F.SilkS) (width 0.12))
  (fp_line (start 2.88 -3.87) (end 2.88 3.87) (layer F.SilkS) (width 0.12))
  (fp_line (start 25 0) (end 22 0) (layer F.Fab) (width 0.1))
  (fp_line (start 0 0) (end 3 0) (layer F.Fab) (width 0.1))
  (fp_line (start 22 -3.75) (end 3 -3.75) (layer F.Fab) (width 0.1))
  (fp_line (start 22 3.75) (end 22 -3.75) (layer F.Fab) (width 0.1))
  (fp_line (start 3 3.75) (end 22 3.75) (layer F.Fab) (width 0.1))
  (fp_line (start 3 -3.75) (end 3 3.75) (layer F.Fab) (width 0.1))
  (fp_line (start 2.88 0) (end 11.684 0) (layer F.SilkS) (width 0.12))
  (fp_line (start 11.684 -2.794) (end 11.684 2.794) (layer F.SilkS) (width 0.24))
  (fp_line (start 22.12 0) (end 13.208 0) (layer F.SilkS) (width 0.12))
  (fp_line (start 13.208 2.794) (end 13.208 -2.794) (layer F.SilkS) (width 0.24))
  (fp_text user %R (at 12.5 0) (layer F.Fab)
    (effects (font (size 1 1) (thickness 0.15)))
  )
  (pad 2 thru_hole oval (at 25 0) (size 1.6 1.6) (drill 0.8) (layers *.Cu *.Mask))
  (pad 1 thru_hole circle (at 0 0) (size 1.6 1.6) (drill 0.8) (layers *.Cu *.Mask))
  (model ${KISYS3DMOD}/Capacitor_THT.3dshapes/C_Axial_L19.0mm_D7.5mm_P25.00mm_Horizontal.wrl
    (at (xyz 0 0 0))
    (scale (xyz 1 1 1))
    (rotate (xyz 0 0 0))
  )
)
