(module C_Disc_D10.5mm_W5.0mm_P10.00mm (layer F.Cu) (tedit 60783086)
  (descr "C, Disc series, Radial, pin pitch=10.00mm, , diameter*width=10.5*5.0mm^2, Capacitor, http://www.vishay.com/docs/28535/vy2series.pdf, Alternate KiCad Library")
  (tags "C Disc series Radial pin pitch 10.00mm  diameter 10.5mm width 5.0mm Capacitor")
  (fp_text reference REF** (at 5 -3.75) (layer F.SilkS)
    (effects (font (size 1 1) (thickness 0.15)))
  )
  (fp_text value C_Disc_D10.5mm_W5.0mm_P10.00mm (at 5 3.75) (layer F.Fab)
    (effects (font (size 1 1) (thickness 0.15)))
  )
  (fp_line (start 5.715 0) (end 5.715 -2.286) (layer F.SilkS) (width 0.2))
  (fp_line (start 5.715 0) (end 8.763 0) (layer F.SilkS) (width 0.12))
  (fp_line (start 4.318 0) (end 4.318 2.286) (layer F.SilkS) (width 0.2))
  (fp_line (start 5.715 0) (end 5.715 2.286) (layer F.SilkS) (width 0.2))
  (fp_line (start 1.27 0) (end 4.318 0) (layer F.SilkS) (width 0.12))
  (fp_line (start 4.318 0) (end 4.318 -2.286) (layer F.SilkS) (width 0.2))
  (fp_line (start -0.25 -2.5) (end -0.25 2.5) (layer F.Fab) (width 0.1))
  (fp_line (start -0.25 2.5) (end 10.25 2.5) (layer F.Fab) (width 0.1))
  (fp_line (start 10.25 2.5) (end 10.25 -2.5) (layer F.Fab) (width 0.1))
  (fp_line (start 10.25 -2.5) (end -0.25 -2.5) (layer F.Fab) (width 0.1))
  (fp_line (start -1.25 -2.75) (end -1.25 2.75) (layer F.CrtYd) (width 0.05))
  (fp_line (start -1.25 2.75) (end 11.25 2.75) (layer F.CrtYd) (width 0.05))
  (fp_line (start 11.25 2.75) (end 11.25 -2.75) (layer F.CrtYd) (width 0.05))
  (fp_line (start 11.25 -2.75) (end -1.25 -2.75) (layer F.CrtYd) (width 0.05))
  (fp_text user %R (at 5 0) (layer F.Fab)
    (effects (font (size 1 1) (thickness 0.15)))
  )
  (fp_arc (start 5.080001 11.429999) (end 10.3505 -1.651) (angle -44.65956429) (layer F.SilkS) (width 0.12))
  (fp_arc (start 4.889499 -11.429999) (end -0.381 1.651) (angle -44.65956429) (layer F.SilkS) (width 0.12))
  (pad 2 thru_hole circle (at 10 0) (size 2 2) (drill 1) (layers *.Cu *.Mask))
  (pad 1 thru_hole circle (at 0 0) (size 2 2) (drill 1) (layers *.Cu *.Mask))
  (model ${KISYS3DMOD}/Capacitor_THT.3dshapes/C_Disc_D10.5mm_W5.0mm_P10.00mm.wrl
    (at (xyz 0 0 0))
    (scale (xyz 1 1 1))
    (rotate (xyz 0 0 0))
  )
)
