(module C_Disc_D3.0mm_W2.0mm_P2.50mm (layer F.Cu) (tedit 60782F64)
  (descr "C, Disc series, Radial, pin pitch=2.50mm, , diameter*width=3*2mm^2, Capacitor, Alternate KiCad Library")
  (tags "C Disc series Radial pin pitch 2.50mm  diameter 3mm width 2mm Capacitor")
  (fp_text reference REF** (at 1.25 -2.25) (layer F.SilkS)
    (effects (font (size 1 1) (thickness 0.15)))
  )
  (fp_text value C_Disc_D3.0mm_W2.0mm_P2.50mm (at 1.25 2.25) (layer F.Fab)
    (effects (font (size 1 1) (thickness 0.15)))
  )
  (fp_line (start 1.0795 0) (end 1.0795 0.635) (layer F.SilkS) (width 0.12))
  (fp_line (start 1.0795 0) (end 1.0795 -0.635) (layer F.SilkS) (width 0.12))
  (fp_line (start 0.889 0) (end 1.0795 0) (layer F.SilkS) (width 0.12))
  (fp_line (start 1.397 0) (end 1.397 -0.635) (layer F.SilkS) (width 0.12))
  (fp_line (start 1.397 0) (end 1.397 0.635) (layer F.SilkS) (width 0.12))
  (fp_line (start 1.5875 0) (end 1.397 0) (layer F.SilkS) (width 0.12))
  (fp_line (start -0.25 -1) (end -0.25 1) (layer F.Fab) (width 0.1))
  (fp_line (start -0.25 1) (end 2.75 1) (layer F.Fab) (width 0.1))
  (fp_line (start 2.75 1) (end 2.75 -1) (layer F.Fab) (width 0.1))
  (fp_line (start 2.75 -1) (end -0.25 -1) (layer F.Fab) (width 0.1))
  (fp_line (start -1.05 -1.25) (end -1.05 1.25) (layer F.CrtYd) (width 0.05))
  (fp_line (start -1.05 1.25) (end 3.55 1.25) (layer F.CrtYd) (width 0.05))
  (fp_line (start 3.55 1.25) (end 3.55 -1.25) (layer F.CrtYd) (width 0.05))
  (fp_line (start 3.55 -1.25) (end -1.05 -1.25) (layer F.CrtYd) (width 0.05))
  (fp_text user %R (at 1.25 0) (layer F.Fab)
    (effects (font (size 0.6 0.6) (thickness 0.09)))
  )
  (fp_arc (start 1.27393 1.285716) (end 2.2225 -0.889) (angle -47.30557337) (layer F.SilkS) (width 0.12))
  (fp_arc (start 1.26607 -1.285716) (end 0.3175 0.889) (angle -47.30557337) (layer F.SilkS) (width 0.12))
  (pad 2 thru_hole circle (at 2.5 0) (size 1.6 1.6) (drill 0.8) (layers *.Cu *.Mask))
  (pad 1 thru_hole circle (at 0 0) (size 1.6 1.6) (drill 0.8) (layers *.Cu *.Mask))
  (model ${KISYS3DMOD}/Capacitor_THT.3dshapes/C_Disc_D3.0mm_W2.0mm_P2.50mm.wrl
    (at (xyz 0 0 0))
    (scale (xyz 1 1 1))
    (rotate (xyz 0 0 0))
  )
)
