(module C_Disc_D11.0mm_W5.0mm_P5.00mm (layer F.Cu) (tedit 6078308C)
  (descr "C, Disc series, Radial, pin pitch=5.00mm, , diameter*width=11*5.0mm^2, Capacitor, http://www.vishay.com/docs/28535/vy2series.pdf, Alternate KiCad Library")
  (tags "C Disc series Radial pin pitch 5.00mm  diameter 11mm width 5.0mm Capacitor")
  (fp_text reference REF** (at 2.5 -3.75) (layer F.SilkS)
    (effects (font (size 1 1) (thickness 0.15)))
  )
  (fp_text value C_Disc_D11.0mm_W5.0mm_P5.00mm (at 2.5 3.75) (layer F.Fab)
    (effects (font (size 1 1) (thickness 0.15)))
  )
  (fp_line (start 8.128 1.4605) (end 8.122681 1.511004) (layer F.SilkS) (width 0.12))
  (fp_line (start 8.128 -1.5875) (end 8.128 1.4605) (layer F.SilkS) (width 0.12))
  (fp_line (start -3.1115 -1.4605) (end -3.106181 -1.511004) (layer F.SilkS) (width 0.12))
  (fp_line (start -3.1115 1.5875) (end -3.1115 -1.4605) (layer F.SilkS) (width 0.12))
  (fp_line (start 8.25 -2.75) (end -3.25 -2.75) (layer F.CrtYd) (width 0.05))
  (fp_line (start 8.25 2.75) (end 8.25 -2.75) (layer F.CrtYd) (width 0.05))
  (fp_line (start -3.25 2.75) (end 8.25 2.75) (layer F.CrtYd) (width 0.05))
  (fp_line (start -3.25 -2.75) (end -3.25 2.75) (layer F.CrtYd) (width 0.05))
  (fp_line (start 8 -2.5) (end -3 -2.5) (layer F.Fab) (width 0.1))
  (fp_line (start 8 2.5) (end 8 -2.5) (layer F.Fab) (width 0.1))
  (fp_line (start -3 2.5) (end 8 2.5) (layer F.Fab) (width 0.1))
  (fp_line (start -3 -2.5) (end -3 2.5) (layer F.Fab) (width 0.1))
  (fp_line (start 2.159 0) (end 2.159 -1.016) (layer F.SilkS) (width 0.12))
  (fp_line (start 2.8575 -1.016) (end 2.8575 1.016) (layer F.SilkS) (width 0.12))
  (fp_line (start 2.159 0) (end 2.159 1.016) (layer F.SilkS) (width 0.12))
  (fp_line (start 2.8575 0) (end 3.8735 0) (layer F.SilkS) (width 0.12))
  (fp_line (start 1.143 0) (end 2.159 0) (layer F.SilkS) (width 0.12))
  (fp_text user %R (at 2.5 0) (layer F.Fab)
    (effects (font (size 1 1) (thickness 0.15)))
  )
  (fp_arc (start 2.606206 12.445999) (end 8.128 -1.5875) (angle -43.7367981) (layer F.SilkS) (width 0.12))
  (fp_arc (start 2.410294 -12.445999) (end -3.1115 1.5875) (angle -43.7367981) (layer F.SilkS) (width 0.12))
  (pad 2 thru_hole circle (at 5 0) (size 2 2) (drill 1) (layers *.Cu *.Mask))
  (pad 1 thru_hole circle (at 0 0) (size 2 2) (drill 1) (layers *.Cu *.Mask))
  (model ${KISYS3DMOD}/Capacitor_THT.3dshapes/C_Disc_D11.0mm_W5.0mm_P5.00mm.wrl
    (at (xyz 0 0 0))
    (scale (xyz 1 1 1))
    (rotate (xyz 0 0 0))
  )
)
