(module C_Disc_D7.5mm_W2.5mm_P5.00mm (layer F.Cu) (tedit 60782FAB)
  (descr "C, Disc series, Radial, pin pitch=5.00mm, , diameter*width=7.5*2.5mm^2, Capacitor, http://www.vishay.com/docs/28535/vy2series.pdf, Alternate KiCad Library")
  (tags "C Disc series Radial pin pitch 5.00mm  diameter 7.5mm width 2.5mm Capacitor")
  (fp_text reference REF** (at 2.5 -2.5) (layer F.SilkS)
    (effects (font (size 1 1) (thickness 0.15)))
  )
  (fp_text value C_Disc_D7.5mm_W2.5mm_P5.00mm (at 2.5 2.5) (layer F.Fab)
    (effects (font (size 1 1) (thickness 0.15)))
  )
  (fp_line (start 6.2484 0.762) (end 6.2484 -0.8128) (layer F.SilkS) (width 0.12))
  (fp_line (start -1.27 0.8255) (end -1.269301 -0.804129) (layer F.SilkS) (width 0.12))
  (fp_line (start 2.159 0) (end 2.159 -1.016) (layer F.SilkS) (width 0.12))
  (fp_line (start 2.794 -1.016) (end 2.794 1.016) (layer F.SilkS) (width 0.12))
  (fp_line (start 2.794 0) (end 3.81 0) (layer F.SilkS) (width 0.12))
  (fp_line (start 2.159 0) (end 2.159 1.016) (layer F.SilkS) (width 0.12))
  (fp_line (start 1.143 0) (end 2.159 0) (layer F.SilkS) (width 0.12))
  (fp_line (start -1.25 -1.25) (end -1.25 1.25) (layer F.Fab) (width 0.1))
  (fp_line (start -1.25 1.25) (end 6.25 1.25) (layer F.Fab) (width 0.1))
  (fp_line (start 6.25 1.25) (end 6.25 -1.25) (layer F.Fab) (width 0.1))
  (fp_line (start 6.25 -1.25) (end -1.25 -1.25) (layer F.Fab) (width 0.1))
  (fp_line (start -1.5 -1.5) (end -1.5 1.5) (layer F.CrtYd) (width 0.05))
  (fp_line (start -1.5 1.5) (end 6.5 1.5) (layer F.CrtYd) (width 0.05))
  (fp_line (start 6.5 1.5) (end 6.5 -1.5) (layer F.CrtYd) (width 0.05))
  (fp_line (start 6.5 -1.5) (end -1.5 -1.5) (layer F.CrtYd) (width 0.05))
  (fp_text user %R (at 2.5 0) (layer F.Fab)
    (effects (font (size 1 1) (thickness 0.15)))
  )
  (fp_arc (start 2.54 10.286999) (end 6.2484 -0.8255) (angle -37.40987019) (layer F.SilkS) (width 0.12))
  (fp_arc (start 2.413 -10.286999) (end -1.27 0.8255) (angle -37.47991426) (layer F.SilkS) (width 0.12))
  (pad 2 thru_hole circle (at 5 0) (size 2 2) (drill 1) (layers *.Cu *.Mask))
  (pad 1 thru_hole circle (at 0 0) (size 2 2) (drill 1) (layers *.Cu *.Mask))
  (model ${KISYS3DMOD}/Capacitor_THT.3dshapes/C_Disc_D7.5mm_W2.5mm_P5.00mm.wrl
    (at (xyz 0 0 0))
    (scale (xyz 1 1 1))
    (rotate (xyz 0 0 0))
  )
)
