(module C_Disc_D3.8mm_W2.6mm_P2.50mm (layer F.Cu) (tedit 60782F79)
  (descr "C, Disc series, Radial, pin pitch=2.50mm, , diameter*width=3.8*2.6mm^2, Capacitor, http://www.vishay.com/docs/45233/krseries.pdf, Alternate KiCad Library")
  (tags "C Disc series Radial pin pitch 2.50mm  diameter 3.8mm width 2.6mm Capacitor")
  (fp_text reference REF** (at 1.25 -2.55) (layer F.SilkS)
    (effects (font (size 1 1) (thickness 0.15)))
  )
  (fp_text value C_Disc_D3.8mm_W2.6mm_P2.50mm (at 1.25 2.55) (layer F.Fab)
    (effects (font (size 1 1) (thickness 0.15)))
  )
  (fp_line (start 1.0795 0) (end 1.0795 0.635) (layer F.SilkS) (width 0.12))
  (fp_line (start 1.0795 0) (end 1.0795 -0.635) (layer F.SilkS) (width 0.12))
  (fp_line (start 0.889 0) (end 1.0795 0) (layer F.SilkS) (width 0.12))
  (fp_line (start 1.397 0) (end 1.397 -0.635) (layer F.SilkS) (width 0.12))
  (fp_line (start 1.397 0) (end 1.397 0.635) (layer F.SilkS) (width 0.12))
  (fp_line (start 1.5875 0) (end 1.397 0) (layer F.SilkS) (width 0.12))
  (fp_line (start -0.65 -1.3) (end -0.65 1.3) (layer F.Fab) (width 0.1))
  (fp_line (start -0.65 1.3) (end 3.15 1.3) (layer F.Fab) (width 0.1))
  (fp_line (start 3.15 1.3) (end 3.15 -1.3) (layer F.Fab) (width 0.1))
  (fp_line (start 3.15 -1.3) (end -0.65 -1.3) (layer F.Fab) (width 0.1))
  (fp_line (start -1.05 -1.55) (end -1.05 1.55) (layer F.CrtYd) (width 0.05))
  (fp_line (start -1.05 1.55) (end 3.55 1.55) (layer F.CrtYd) (width 0.05))
  (fp_line (start 3.55 1.55) (end 3.55 -1.55) (layer F.CrtYd) (width 0.05))
  (fp_line (start 3.55 -1.55) (end -1.05 -1.55) (layer F.CrtYd) (width 0.05))
  (fp_text user %R (at 1.25 0) (layer F.Fab)
    (effects (font (size 0.76 0.76) (thickness 0.114)))
  )
  (fp_arc (start 1.27 1.3335) (end 2.6035 -0.9525) (angle -60.95615215) (layer F.SilkS) (width 0.12))
  (fp_arc (start 1.26607 -1.02883) (end -0.0635 0.9525) (angle -67.88354744) (layer F.SilkS) (width 0.12))
  (pad 2 thru_hole circle (at 2.5 0) (size 1.6 1.6) (drill 0.8) (layers *.Cu *.Mask))
  (pad 1 thru_hole circle (at 0 0) (size 1.6 1.6) (drill 0.8) (layers *.Cu *.Mask))
  (model ${KISYS3DMOD}/Capacitor_THT.3dshapes/C_Disc_D3.8mm_W2.6mm_P2.50mm.wrl
    (at (xyz 0 0 0))
    (scale (xyz 1 1 1))
    (rotate (xyz 0 0 0))
  )
)
