(module C_Disc_D7.5mm_W5.0mm_P7.50mm (layer F.Cu) (tedit 60782FBE)
  (descr "C, Disc series, Radial, pin pitch=7.50mm, , diameter*width=7.5*5.0mm^2, Capacitor, http://www.vishay.com/docs/28535/vy2series.pdf, Alternate KiCad Library")
  (tags "C Disc series Radial pin pitch 7.50mm  diameter 7.5mm width 5.0mm Capacitor")
  (fp_text reference REF** (at 3.75 -3.75) (layer F.SilkS)
    (effects (font (size 1 1) (thickness 0.15)))
  )
  (fp_text value C_Disc_D7.5mm_W5.0mm_P7.50mm (at 3.75 3.75) (layer F.Fab)
    (effects (font (size 1 1) (thickness 0.15)))
  )
  (fp_line (start 4.445 0) (end 4.445 2.286) (layer F.SilkS) (width 0.2))
  (fp_line (start 4.445 0) (end 4.445 -2.286) (layer F.SilkS) (width 0.2))
  (fp_line (start 4.445 0) (end 6.223 0) (layer F.SilkS) (width 0.12))
  (fp_line (start 3.048 0) (end 3.048 2.286) (layer F.SilkS) (width 0.2))
  (fp_line (start 3.048 0) (end 3.048 -2.286) (layer F.SilkS) (width 0.2))
  (fp_line (start 1.27 0) (end 3.048 0) (layer F.SilkS) (width 0.12))
  (fp_line (start 0 -2.5) (end 0 2.5) (layer F.Fab) (width 0.1))
  (fp_line (start 0 2.5) (end 7.5 2.5) (layer F.Fab) (width 0.1))
  (fp_line (start 7.5 2.5) (end 7.5 -2.5) (layer F.Fab) (width 0.1))
  (fp_line (start 7.5 -2.5) (end 0 -2.5) (layer F.Fab) (width 0.1))
  (fp_line (start -1.25 -2.75) (end -1.25 2.75) (layer F.CrtYd) (width 0.05))
  (fp_line (start -1.25 2.75) (end 8.75 2.75) (layer F.CrtYd) (width 0.05))
  (fp_line (start 8.75 2.75) (end 8.75 -2.75) (layer F.CrtYd) (width 0.05))
  (fp_line (start 8.75 -2.75) (end -1.25 -2.75) (layer F.CrtYd) (width 0.05))
  (fp_text user %R (at 3.75 0) (layer F.Fab)
    (effects (font (size 1 1) (thickness 0.15)))
  )
  (fp_arc (start 3.777893 6.61329) (end 7.493 -1.841237) (angle -47.43945139) (layer F.SilkS) (width 0.12))
  (fp_arc (start 3.714991 -6.61329) (end -0.000116 1.841237) (angle -47.43945139) (layer F.SilkS) (width 0.12))
  (pad 2 thru_hole circle (at 7.5 0) (size 2 2) (drill 1) (layers *.Cu *.Mask))
  (pad 1 thru_hole circle (at 0 0) (size 2 2) (drill 1) (layers *.Cu *.Mask))
  (model ${KISYS3DMOD}/Capacitor_THT.3dshapes/C_Disc_D7.5mm_W5.0mm_P7.50mm.wrl
    (at (xyz 0 0 0))
    (scale (xyz 1 1 1))
    (rotate (xyz 0 0 0))
  )
)
