(module C_Disc_D10.0mm_W2.5mm_P5.00mm (layer F.Cu) (tedit 60783074)
  (descr "C, Disc series, Radial, pin pitch=5.00mm, , diameter*width=10*2.5mm^2, Capacitor, http://cdn-reichelt.de/documents/datenblatt/B300/DS_KERKO_TC.pdf, Alternate KiCad Library")
  (tags "C Disc series Radial pin pitch 5.00mm  diameter 10mm width 2.5mm Capacitor")
  (fp_text reference REF** (at 2.5 -2.5) (layer F.SilkS)
    (effects (font (size 1 1) (thickness 0.15)))
  )
  (fp_text value C_Disc_D10.0mm_W2.5mm_P5.00mm (at 2.5 2.5) (layer F.Fab)
    (effects (font (size 1 1) (thickness 0.15)))
  )
  (fp_line (start -2.6035 0.3175) (end -2.606206 0.374987) (layer F.SilkS) (width 0.12))
  (fp_line (start -2.6035 -0.3175) (end -2.6035 0.3175) (layer F.SilkS) (width 0.12))
  (fp_line (start 7.5565 -0.3175) (end 7.559206 -0.374987) (layer F.SilkS) (width 0.12))
  (fp_line (start 7.5565 0.3175) (end 7.5565 -0.3175) (layer F.SilkS) (width 0.12))
  (fp_line (start 2.8575 0) (end 3.8735 0) (layer F.SilkS) (width 0.12))
  (fp_line (start 2.159 0) (end 2.159 1.016) (layer F.SilkS) (width 0.12))
  (fp_line (start 1.143 0) (end 2.159 0) (layer F.SilkS) (width 0.12))
  (fp_line (start 2.8575 -1.016) (end 2.8575 1.016) (layer F.SilkS) (width 0.12))
  (fp_line (start 2.159 0) (end 2.159 -1.016) (layer F.SilkS) (width 0.12))
  (fp_line (start -2.5 -1.25) (end -2.5 1.25) (layer F.Fab) (width 0.1))
  (fp_line (start -2.5 1.25) (end 7.5 1.25) (layer F.Fab) (width 0.1))
  (fp_line (start 7.5 1.25) (end 7.5 -1.25) (layer F.Fab) (width 0.1))
  (fp_line (start 7.5 -1.25) (end -2.5 -1.25) (layer F.Fab) (width 0.1))
  (fp_line (start -2.75 -1.5) (end -2.75 1.5) (layer F.CrtYd) (width 0.05))
  (fp_line (start -2.75 1.5) (end 7.75 1.5) (layer F.CrtYd) (width 0.05))
  (fp_line (start 7.75 1.5) (end 7.75 -1.5) (layer F.CrtYd) (width 0.05))
  (fp_line (start 7.75 -1.5) (end -2.75 -1.5) (layer F.CrtYd) (width 0.05))
  (fp_text user %R (at 2.5 0) (layer F.Fab)
    (effects (font (size 1 1) (thickness 0.15)))
  )
  (fp_arc (start 2.542706 11.118512) (end 7.559206 -0.374987) (angle -47.8072899) (layer F.SilkS) (width 0.12))
  (fp_arc (start 2.410294 -11.118512) (end -2.606206 0.374987) (angle -47.8072899) (layer F.SilkS) (width 0.12))
  (pad 2 thru_hole circle (at 5 0) (size 1.6 1.6) (drill 0.8) (layers *.Cu *.Mask))
  (pad 1 thru_hole circle (at 0 0) (size 1.6 1.6) (drill 0.8) (layers *.Cu *.Mask))
  (model ${KISYS3DMOD}/Capacitor_THT.3dshapes/C_Disc_D10.0mm_W2.5mm_P5.00mm.wrl
    (at (xyz 0 0 0))
    (scale (xyz 1 1 1))
    (rotate (xyz 0 0 0))
  )
)
