(module C_Disc_D9.0mm_W5.0mm_P5.00mm (layer F.Cu) (tedit 60783063)
  (descr "C, Disc series, Radial, pin pitch=5.00mm, , diameter*width=9*5.0mm^2, Capacitor, http://www.vishay.com/docs/28535/vy2series.pdf, Alternate KiCad Library")
  (tags "C Disc series Radial pin pitch 5.00mm  diameter 9mm width 5.0mm Capacitor")
  (fp_text reference REF** (at 2.5 -3.75) (layer F.SilkS)
    (effects (font (size 1 1) (thickness 0.15)))
  )
  (fp_text value C_Disc_D9.0mm_W5.0mm_P5.00mm (at 2.5 3.75) (layer F.Fab)
    (effects (font (size 1 1) (thickness 0.15)))
  )
  (fp_line (start 2.794 0) (end 3.81 0) (layer F.SilkS) (width 0.12))
  (fp_line (start 2.159 0) (end 2.159 1.016) (layer F.SilkS) (width 0.12))
  (fp_line (start 1.143 0) (end 2.159 0) (layer F.SilkS) (width 0.12))
  (fp_line (start 2.159 0) (end 2.159 -1.016) (layer F.SilkS) (width 0.12))
  (fp_line (start 2.794 -1.016) (end 2.794 1.016) (layer F.SilkS) (width 0.12))
  (fp_line (start -2.038083 -1.882417) (end -2.032 1.9685) (layer F.SilkS) (width 0.12))
  (fp_line (start -2.038083 -1.882417) (end -2.032 -1.905) (layer F.SilkS) (width 0.12))
  (fp_line (start 6.985 0.0635) (end 6.985 -1.945917) (layer F.SilkS) (width 0.12))
  (fp_line (start 6.985 1.905) (end 6.985 0.0635) (layer F.SilkS) (width 0.12))
  (fp_line (start 6.985 0.5715) (end 6.985 0.508) (layer F.SilkS) (width 0.12))
  (fp_line (start 6.985 0.0635) (end 6.985 0.5715) (layer F.SilkS) (width 0.12))
  (fp_line (start -2 -2.5) (end -2 2.5) (layer F.Fab) (width 0.1))
  (fp_line (start -2 2.5) (end 7 2.5) (layer F.Fab) (width 0.1))
  (fp_line (start 7 2.5) (end 7 -2.5) (layer F.Fab) (width 0.1))
  (fp_line (start 7 -2.5) (end -2 -2.5) (layer F.Fab) (width 0.1))
  (fp_line (start -2.25 -2.75) (end -2.25 2.75) (layer F.CrtYd) (width 0.05))
  (fp_line (start -2.25 2.75) (end 7.25 2.75) (layer F.CrtYd) (width 0.05))
  (fp_line (start 7.25 2.75) (end 7.25 -2.75) (layer F.CrtYd) (width 0.05))
  (fp_line (start 7.25 -2.75) (end -2.25 -2.75) (layer F.CrtYd) (width 0.05))
  (fp_text user %R (at 2.5 0) (layer F.Fab)
    (effects (font (size 1 1) (thickness 0.15)))
  )
  (fp_arc (start 2.54 11.389082) (end 6.985 -1.945917) (angle -37.39023302) (layer F.SilkS) (width 0.12))
  (fp_arc (start 2.413 -11.366499) (end -2.032 1.9685) (angle -37.39023302) (layer F.SilkS) (width 0.12))
  (pad 2 thru_hole circle (at 5 0) (size 2 2) (drill 1) (layers *.Cu *.Mask))
  (pad 1 thru_hole circle (at 0 0) (size 2 2) (drill 1) (layers *.Cu *.Mask))
  (model ${KISYS3DMOD}/Capacitor_THT.3dshapes/C_Disc_D9.0mm_W5.0mm_P5.00mm.wrl
    (at (xyz 0 0 0))
    (scale (xyz 1 1 1))
    (rotate (xyz 0 0 0))
  )
)
