(module C_Radial_D5.0mm_H5.0mm_P2.00mm (layer F.Cu) (tedit 5BC5C9B9)
  (descr "C, Radial series, Radial, pin pitch=2.00mm, diameter=5mm, height=5mm, Non-Polar Electrolytic Capacitor")
  (tags "C Radial series Radial pin pitch 2.00mm diameter 5mm height 5mm Non-Polar Electrolytic Capacitor")
  (fp_text reference REF** (at 1 -3.75) (layer F.SilkS)
    (effects (font (size 1 1) (thickness 0.15)))
  )
  (fp_text value C_Radial_D5.0mm_H5.0mm_P2.00mm (at 1 3.75) (layer F.Fab)
    (effects (font (size 1 1) (thickness 0.15)))
  )
  (fp_text user %R (at 1 0) (layer F.Fab)
    (effects (font (size 1 1) (thickness 0.15)))
  )
  (fp_circle (center 1 0) (end 3.5 0) (layer F.Fab) (width 0.1))
  (fp_circle (center 1 0) (end 3.62 0) (layer F.SilkS) (width 0.12))
  (fp_circle (center 1 0) (end 3.75 0) (layer F.CrtYd) (width 0.05))
  (pad 2 thru_hole circle (at 2 0) (size 1.2 1.2) (drill 0.6) (layers *.Cu *.Mask))
  (pad 1 thru_hole circle (at 0 0) (size 1.2 1.2) (drill 0.6) (layers *.Cu *.Mask))
  (model ${KISYS3DMOD}/Capacitor_THT.3dshapes/C_Radial_D5.0mm_H5.0mm_P2.00mm.wrl
    (at (xyz 0 0 0))
    (scale (xyz 1 1 1))
    (rotate (xyz 0 0 0))
  )
)
