(module C_Rect_L7.2mm_W7.2mm_P5.00mm_FKS2_FKP2_MKS2_MKP2 (layer F.Cu) (tedit 6078376D)
  (descr "C, Rect series, Radial, pin pitch=5.00mm, , length*width=7.2*7.2mm^2, Capacitor, http://www.wima.com/EN/WIMA_FKS_2.pdf, Alternate KiCad Library")
  (tags "C Rect series Radial pin pitch 5.00mm  length 7.2mm width 7.2mm Capacitor")
  (fp_text reference REF** (at 2.5 -4.85) (layer F.SilkS)
    (effects (font (size 1 1) (thickness 0.15)))
  )
  (fp_text value C_Rect_L7.2mm_W7.2mm_P5.00mm_FKS2_FKP2_MKS2_MKP2 (at 2.5 4.85) (layer F.Fab)
    (effects (font (size 1 1) (thickness 0.15)))
  )
  (fp_line (start 2.2 -0.9) (end 2.2 0.9) (layer F.SilkS) (width 0.12))
  (fp_line (start 4 0) (end 2.8 0) (layer F.SilkS) (width 0.12))
  (fp_line (start 2.8 -0.9) (end 2.8 0.9) (layer F.SilkS) (width 0.12))
  (fp_line (start 1 0) (end 2.2 0) (layer F.SilkS) (width 0.12))
  (fp_line (start -1.1 -3.6) (end -1.1 3.6) (layer F.Fab) (width 0.1))
  (fp_line (start -1.1 3.6) (end 6.1 3.6) (layer F.Fab) (width 0.1))
  (fp_line (start 6.1 3.6) (end 6.1 -3.6) (layer F.Fab) (width 0.1))
  (fp_line (start 6.1 -3.6) (end -1.1 -3.6) (layer F.Fab) (width 0.1))
  (fp_line (start -1.22 -3.72) (end 6.22 -3.72) (layer F.SilkS) (width 0.12))
  (fp_line (start -1.22 3.72) (end 6.22 3.72) (layer F.SilkS) (width 0.12))
  (fp_line (start -1.22 -3.72) (end -1.22 3.72) (layer F.SilkS) (width 0.12))
  (fp_line (start 6.22 -3.72) (end 6.22 3.72) (layer F.SilkS) (width 0.12))
  (fp_line (start -1.35 -3.85) (end -1.35 3.85) (layer F.CrtYd) (width 0.05))
  (fp_line (start -1.35 3.85) (end 6.35 3.85) (layer F.CrtYd) (width 0.05))
  (fp_line (start 6.35 3.85) (end 6.35 -3.85) (layer F.CrtYd) (width 0.05))
  (fp_line (start 6.35 -3.85) (end -1.35 -3.85) (layer F.CrtYd) (width 0.05))
  (fp_text user %R (at 2.5 0) (layer F.Fab)
    (effects (font (size 1 1) (thickness 0.15)))
  )
  (pad 2 thru_hole circle (at 5 0) (size 1.6 1.6) (drill 0.8) (layers *.Cu *.Mask))
  (pad 1 thru_hole circle (at 0 0) (size 1.6 1.6) (drill 0.8) (layers *.Cu *.Mask))
  (model ${KISYS3DMOD}/Capacitor_THT.3dshapes/C_Rect_L7.2mm_W7.2mm_P5.00mm_FKS2_FKP2_MKS2_MKP2.wrl
    (at (xyz 0 0 0))
    (scale (xyz 1 1 1))
    (rotate (xyz 0 0 0))
  )
)
