(module C_Rect_L4.6mm_W4.6mm_P2.50mm_MKS02_FKP02 (layer F.Cu) (tedit 60783700)
  (descr "C, Rect series, Radial, pin pitch=2.50mm, , length*width=4.6*4.6mm^2, Capacitor, http://www.wima.de/DE/WIMA_MKS_02.pdf, Alternate KiCad Library")
  (tags "C Rect series Radial pin pitch 2.50mm  length 4.6mm width 4.6mm Capacitor")
  (fp_text reference REF** (at 1.25 -3.55) (layer F.SilkS)
    (effects (font (size 1 1) (thickness 0.15)))
  )
  (fp_text value C_Rect_L4.6mm_W4.6mm_P2.50mm_MKS02_FKP02 (at 1.25 3.55) (layer F.Fab)
    (effects (font (size 1 1) (thickness 0.15)))
  )
  (fp_line (start 1.1176 0) (end 1.1176 -0.8255) (layer F.SilkS) (width 0.12))
  (fp_line (start 1.3843 0) (end 1.3843 -0.8255) (layer F.SilkS) (width 0.12))
  (fp_line (start 1.3843 0.8255) (end 1.3843 0) (layer F.SilkS) (width 0.12))
  (fp_line (start 1.0541 0) (end 1.1176 0) (layer F.SilkS) (width 0.12))
  (fp_line (start 1.5113 0) (end 1.4478 0) (layer F.SilkS) (width 0.12))
  (fp_line (start 1.1176 0.8255) (end 1.1176 0) (layer F.SilkS) (width 0.12))
  (fp_line (start 1.4478 0) (end 1.3843 0) (layer F.SilkS) (width 0.12))
  (fp_line (start 0.9906 0) (end 1.0541 0) (layer F.SilkS) (width 0.12))
  (fp_line (start -1.05 -2.3) (end -1.05 2.3) (layer F.Fab) (width 0.1))
  (fp_line (start -1.05 2.3) (end 3.55 2.3) (layer F.Fab) (width 0.1))
  (fp_line (start 3.55 2.3) (end 3.55 -2.3) (layer F.Fab) (width 0.1))
  (fp_line (start 3.55 -2.3) (end -1.05 -2.3) (layer F.Fab) (width 0.1))
  (fp_line (start -1.17 -2.42) (end 3.67 -2.42) (layer F.SilkS) (width 0.12))
  (fp_line (start -1.17 2.42) (end 3.67 2.42) (layer F.SilkS) (width 0.12))
  (fp_line (start -1.17 -2.42) (end -1.17 2.42) (layer F.SilkS) (width 0.12))
  (fp_line (start 3.67 -2.42) (end 3.67 2.42) (layer F.SilkS) (width 0.12))
  (fp_line (start -1.3 -2.55) (end -1.3 2.55) (layer F.CrtYd) (width 0.05))
  (fp_line (start -1.3 2.55) (end 3.8 2.55) (layer F.CrtYd) (width 0.05))
  (fp_line (start 3.8 2.55) (end 3.8 -2.55) (layer F.CrtYd) (width 0.05))
  (fp_line (start 3.8 -2.55) (end -1.3 -2.55) (layer F.CrtYd) (width 0.05))
  (fp_text user %R (at 1.25 0) (layer F.Fab)
    (effects (font (size 0.92 0.92) (thickness 0.138)))
  )
  (pad 2 thru_hole circle (at 2.5 0) (size 1.4 1.4) (drill 0.7) (layers *.Cu *.Mask))
  (pad 1 thru_hole circle (at 0 0) (size 1.4 1.4) (drill 0.7) (layers *.Cu *.Mask))
  (model ${KISYS3DMOD}/Capacitor_THT.3dshapes/C_Rect_L4.6mm_W4.6mm_P2.50mm_MKS02_FKP02.wrl
    (at (xyz 0 0 0))
    (scale (xyz 1 1 1))
    (rotate (xyz 0 0 0))
  )
)
