(module C_Rect_L13.5mm_W5.0mm_P10.00mm_FKS3_FKP3_MKS4 (layer F.Cu) (tedit 607839D3)
  (descr "C, Rect series, Radial, pin pitch=10.00mm, , length*width=13.5*5mm^2, Capacitor, http://www.wima.com/EN/WIMA_FKS_3.pdf, http://www.wima.com/EN/WIMA_MKS_4.pdf, Alternate KiCad Library")
  (tags "C Rect series Radial pin pitch 10.00mm  length 13.5mm width 5mm Capacitor")
  (fp_text reference REF** (at 5 -3.75) (layer F.SilkS)
    (effects (font (size 1 1) (thickness 0.15)))
  )
  (fp_text value C_Rect_L13.5mm_W5.0mm_P10.00mm_FKS3_FKP3_MKS4 (at 5 3.75) (layer F.Fab)
    (effects (font (size 1 1) (thickness 0.15)))
  )
  (fp_line (start 8.7 0) (end 5.6 0) (layer F.SilkS) (width 0.12))
  (fp_line (start 5.6 2) (end 5.6 -2) (layer F.SilkS) (width 0.25))
  (fp_line (start 4.4 2) (end 4.4 -2) (layer F.SilkS) (width 0.25))
  (fp_line (start 1.3 0) (end 4.4 0) (layer F.SilkS) (width 0.12))
  (fp_line (start -1.75 -2.5) (end -1.75 2.5) (layer F.Fab) (width 0.1))
  (fp_line (start -1.75 2.5) (end 11.75 2.5) (layer F.Fab) (width 0.1))
  (fp_line (start 11.75 2.5) (end 11.75 -2.5) (layer F.Fab) (width 0.1))
  (fp_line (start 11.75 -2.5) (end -1.75 -2.5) (layer F.Fab) (width 0.1))
  (fp_line (start -1.87 -2.62) (end 11.87 -2.62) (layer F.SilkS) (width 0.12))
  (fp_line (start -1.87 2.62) (end 11.87 2.62) (layer F.SilkS) (width 0.12))
  (fp_line (start -1.87 -2.62) (end -1.87 2.62) (layer F.SilkS) (width 0.12))
  (fp_line (start 11.87 -2.62) (end 11.87 2.62) (layer F.SilkS) (width 0.12))
  (fp_line (start -2 -2.75) (end -2 2.75) (layer F.CrtYd) (width 0.05))
  (fp_line (start -2 2.75) (end 12 2.75) (layer F.CrtYd) (width 0.05))
  (fp_line (start 12 2.75) (end 12 -2.75) (layer F.CrtYd) (width 0.05))
  (fp_line (start 12 -2.75) (end -2 -2.75) (layer F.CrtYd) (width 0.05))
  (fp_text user %R (at 5 0) (layer F.Fab)
    (effects (font (size 1 1) (thickness 0.15)))
  )
  (pad 2 thru_hole circle (at 10 0) (size 2 2) (drill 1) (layers *.Cu *.Mask))
  (pad 1 thru_hole circle (at 0 0) (size 2 2) (drill 1) (layers *.Cu *.Mask))
  (model ${KISYS3DMOD}/Capacitor_THT.3dshapes/C_Rect_L13.5mm_W5.0mm_P10.00mm_FKS3_FKP3_MKS4.wrl
    (at (xyz 0 0 0))
    (scale (xyz 1 1 1))
    (rotate (xyz 0 0 0))
  )
)
