(module C_Rect_L26.5mm_W5.0mm_P22.50mm_MKS4 (layer F.Cu) (tedit 60783ABC)
  (descr "C, Rect series, Radial, pin pitch=22.50mm, , length*width=26.5*5mm^2, Capacitor, http://www.wima.com/EN/WIMA_MKS_4.pdf, Alternate KiCad Library")
  (tags "C Rect series Radial pin pitch 22.50mm  length 26.5mm width 5mm Capacitor")
  (fp_text reference REF** (at 11.25 -3.75) (layer F.SilkS)
    (effects (font (size 1 1) (thickness 0.15)))
  )
  (fp_text value C_Rect_L26.5mm_W5.0mm_P22.50mm_MKS4 (at 11.25 3.75) (layer F.Fab)
    (effects (font (size 1 1) (thickness 0.15)))
  )
  (fp_line (start 12.5 0) (end 20.5 0) (layer F.SilkS) (width 0.12))
  (fp_line (start 12.5 -2.25) (end 12.5 2.25) (layer F.SilkS) (width 0.2))
  (fp_line (start 2 0) (end 10 0) (layer F.SilkS) (width 0.12))
  (fp_line (start 10 -2.25) (end 10 2.25) (layer F.SilkS) (width 0.2))
  (fp_line (start -2 -2.5) (end -2 2.5) (layer F.Fab) (width 0.1))
  (fp_line (start -2 2.5) (end 24.5 2.5) (layer F.Fab) (width 0.1))
  (fp_line (start 24.5 2.5) (end 24.5 -2.5) (layer F.Fab) (width 0.1))
  (fp_line (start 24.5 -2.5) (end -2 -2.5) (layer F.Fab) (width 0.1))
  (fp_line (start -2.12 -2.62) (end 24.62 -2.62) (layer F.SilkS) (width 0.12))
  (fp_line (start -2.12 2.62) (end 24.62 2.62) (layer F.SilkS) (width 0.12))
  (fp_line (start -2.12 -2.62) (end -2.12 2.62) (layer F.SilkS) (width 0.12))
  (fp_line (start 24.62 -2.62) (end 24.62 2.62) (layer F.SilkS) (width 0.12))
  (fp_line (start -2.25 -2.75) (end -2.25 2.75) (layer F.CrtYd) (width 0.05))
  (fp_line (start -2.25 2.75) (end 24.75 2.75) (layer F.CrtYd) (width 0.05))
  (fp_line (start 24.75 2.75) (end 24.75 -2.75) (layer F.CrtYd) (width 0.05))
  (fp_line (start 24.75 -2.75) (end -2.25 -2.75) (layer F.CrtYd) (width 0.05))
  (fp_text user %R (at 11.25 0) (layer F.Fab)
    (effects (font (size 1 1) (thickness 0.15)))
  )
  (pad 2 thru_hole circle (at 22.5 0) (size 2.4 2.4) (drill 1.2) (layers *.Cu *.Mask))
  (pad 1 thru_hole circle (at 0 0) (size 2.4 2.4) (drill 1.2) (layers *.Cu *.Mask))
  (model ${KISYS3DMOD}/Capacitor_THT.3dshapes/C_Rect_L26.5mm_W5.0mm_P22.50mm_MKS4.wrl
    (at (xyz 0 0 0))
    (scale (xyz 1 1 1))
    (rotate (xyz 0 0 0))
  )
)
