(module C_Rect_L31.5mm_W17.0mm_P27.50mm_MKS4 (layer F.Cu) (tedit 60783B58)
  (descr "C, Rect series, Radial, pin pitch=27.50mm, , length*width=31.5*17mm^2, Capacitor, http://www.wima.com/EN/WIMA_MKS_4.pdf, Alternate KiCad Library")
  (tags "C Rect series Radial pin pitch 27.50mm  length 31.5mm width 17mm Capacitor")
  (fp_text reference REF** (at 13.75 -9.75) (layer F.SilkS)
    (effects (font (size 1 1) (thickness 0.15)))
  )
  (fp_text value C_Rect_L31.5mm_W17.0mm_P27.50mm_MKS4 (at 13.75 9.75) (layer F.Fab)
    (effects (font (size 1 1) (thickness 0.15)))
  )
  (fp_line (start 15 -3.5) (end 15 3.5) (layer F.SilkS) (width 0.4))
  (fp_line (start 12.5 -3.5) (end 12.5 3.5) (layer F.SilkS) (width 0.4))
  (fp_line (start 2 0) (end 12.5 0) (layer F.SilkS) (width 0.12))
  (fp_line (start 15 0) (end 25.5 0) (layer F.SilkS) (width 0.12))
  (fp_line (start -2 -8.5) (end -2 8.5) (layer F.Fab) (width 0.1))
  (fp_line (start -2 8.5) (end 29.5 8.5) (layer F.Fab) (width 0.1))
  (fp_line (start 29.5 8.5) (end 29.5 -8.5) (layer F.Fab) (width 0.1))
  (fp_line (start 29.5 -8.5) (end -2 -8.5) (layer F.Fab) (width 0.1))
  (fp_line (start -2.12 -8.62) (end 29.62 -8.62) (layer F.SilkS) (width 0.12))
  (fp_line (start -2.12 8.62) (end 29.62 8.62) (layer F.SilkS) (width 0.12))
  (fp_line (start -2.12 -8.62) (end -2.12 8.62) (layer F.SilkS) (width 0.12))
  (fp_line (start 29.62 -8.62) (end 29.62 8.62) (layer F.SilkS) (width 0.12))
  (fp_line (start -2.25 -8.75) (end -2.25 8.75) (layer F.CrtYd) (width 0.05))
  (fp_line (start -2.25 8.75) (end 29.75 8.75) (layer F.CrtYd) (width 0.05))
  (fp_line (start 29.75 8.75) (end 29.75 -8.75) (layer F.CrtYd) (width 0.05))
  (fp_line (start 29.75 -8.75) (end -2.25 -8.75) (layer F.CrtYd) (width 0.05))
  (fp_text user %R (at 13.75 0) (layer F.Fab)
    (effects (font (size 1 1) (thickness 0.15)))
  )
  (pad 2 thru_hole circle (at 27.5 0) (size 2.4 2.4) (drill 1.2) (layers *.Cu *.Mask))
  (pad 1 thru_hole circle (at 0 0) (size 2.4 2.4) (drill 1.2) (layers *.Cu *.Mask))
  (model ${KISYS3DMOD}/Capacitor_THT.3dshapes/C_Rect_L31.5mm_W17.0mm_P27.50mm_MKS4.wrl
    (at (xyz 0 0 0))
    (scale (xyz 1 1 1))
    (rotate (xyz 0 0 0))
  )
)
