(module C_Rect_L13.0mm_W6.0mm_P10.00mm_FKS3_FKP3_MKS4 (layer F.Cu) (tedit 607839BD)
  (descr "C, Rect series, Radial, pin pitch=10.00mm, , length*width=13*6mm^2, Capacitor, http://www.wima.com/EN/WIMA_FKS_3.pdf, http://www.wima.com/EN/WIMA_MKS_4.pdf, Alternate KiCad Library")
  (tags "C Rect series Radial pin pitch 10.00mm  length 13mm width 6mm Capacitor")
  (fp_text reference REF** (at 5 -4.25) (layer F.SilkS)
    (effects (font (size 1 1) (thickness 0.15)))
  )
  (fp_text value C_Rect_L13.0mm_W6.0mm_P10.00mm_FKS3_FKP3_MKS4 (at 5 4.25) (layer F.Fab)
    (effects (font (size 1 1) (thickness 0.15)))
  )
  (fp_line (start 8.7 0) (end 5.6 0) (layer F.SilkS) (width 0.12))
  (fp_line (start 5.6 2) (end 5.6 -2) (layer F.SilkS) (width 0.25))
  (fp_line (start 4.4 2) (end 4.4 -2) (layer F.SilkS) (width 0.25))
  (fp_line (start 1.3 0) (end 4.4 0) (layer F.SilkS) (width 0.12))
  (fp_line (start -1.5 -3) (end -1.5 3) (layer F.Fab) (width 0.1))
  (fp_line (start -1.5 3) (end 11.5 3) (layer F.Fab) (width 0.1))
  (fp_line (start 11.5 3) (end 11.5 -3) (layer F.Fab) (width 0.1))
  (fp_line (start 11.5 -3) (end -1.5 -3) (layer F.Fab) (width 0.1))
  (fp_line (start -1.62 -3.12) (end 11.62 -3.12) (layer F.SilkS) (width 0.12))
  (fp_line (start -1.62 3.12) (end 11.62 3.12) (layer F.SilkS) (width 0.12))
  (fp_line (start -1.62 -3.12) (end -1.62 3.12) (layer F.SilkS) (width 0.12))
  (fp_line (start 11.62 -3.12) (end 11.62 3.12) (layer F.SilkS) (width 0.12))
  (fp_line (start -1.75 -3.25) (end -1.75 3.25) (layer F.CrtYd) (width 0.05))
  (fp_line (start -1.75 3.25) (end 11.75 3.25) (layer F.CrtYd) (width 0.05))
  (fp_line (start 11.75 3.25) (end 11.75 -3.25) (layer F.CrtYd) (width 0.05))
  (fp_line (start 11.75 -3.25) (end -1.75 -3.25) (layer F.CrtYd) (width 0.05))
  (fp_text user %R (at 5 0) (layer F.Fab)
    (effects (font (size 1 1) (thickness 0.15)))
  )
  (pad 2 thru_hole circle (at 10 0) (size 2 2) (drill 1) (layers *.Cu *.Mask))
  (pad 1 thru_hole circle (at 0 0) (size 2 2) (drill 1) (layers *.Cu *.Mask))
  (model ${KISYS3DMOD}/Capacitor_THT.3dshapes/C_Rect_L13.0mm_W6.0mm_P10.00mm_FKS3_FKP3_MKS4.wrl
    (at (xyz 0 0 0))
    (scale (xyz 1 1 1))
    (rotate (xyz 0 0 0))
  )
)
