(module C_Rect_L29.0mm_W16.0mm_P27.50mm_MKT (layer F.Cu) (tedit 60783B37)
  (descr "C, Rect series, Radial, pin pitch=27.50mm, , length*width=29*16mm^2, Capacitor, https://en.tdk.eu/inf/20/20/db/fc_2009/MKT_B32560_564.pdf, Alternate KiCad Library")
  (tags "C Rect series Radial pin pitch 27.50mm  length 29mm width 16mm Capacitor")
  (fp_text reference REF** (at 13.75 -9.25) (layer F.SilkS)
    (effects (font (size 1 1) (thickness 0.15)))
  )
  (fp_text value C_Rect_L29.0mm_W16.0mm_P27.50mm_MKT (at 13.75 9.25) (layer F.Fab)
    (effects (font (size 1 1) (thickness 0.15)))
  )
  (fp_line (start 15 -3.5) (end 15 3.5) (layer F.SilkS) (width 0.4))
  (fp_line (start 12.5 -3.5) (end 12.5 3.5) (layer F.SilkS) (width 0.4))
  (fp_line (start 2 0) (end 12.5 0) (layer F.SilkS) (width 0.12))
  (fp_line (start 15 0) (end 25.5 0) (layer F.SilkS) (width 0.12))
  (fp_line (start -0.75 -8) (end -0.75 8) (layer F.Fab) (width 0.1))
  (fp_line (start -0.75 8) (end 28.25 8) (layer F.Fab) (width 0.1))
  (fp_line (start 28.25 8) (end 28.25 -8) (layer F.Fab) (width 0.1))
  (fp_line (start 28.25 -8) (end -0.75 -8) (layer F.Fab) (width 0.1))
  (fp_line (start -0.87 -8.12) (end 28.37 -8.12) (layer F.SilkS) (width 0.12))
  (fp_line (start -0.87 8.12) (end 28.37 8.12) (layer F.SilkS) (width 0.12))
  (fp_line (start -0.87 -8.12) (end -0.87 -1.185) (layer F.SilkS) (width 0.12))
  (fp_line (start -0.87 1.185) (end -0.87 8.12) (layer F.SilkS) (width 0.12))
  (fp_line (start 28.37 -8.12) (end 28.37 -1.185) (layer F.SilkS) (width 0.12))
  (fp_line (start 28.37 1.185) (end 28.37 8.12) (layer F.SilkS) (width 0.12))
  (fp_line (start -1.45 -8.25) (end -1.45 8.25) (layer F.CrtYd) (width 0.05))
  (fp_line (start -1.45 8.25) (end 28.95 8.25) (layer F.CrtYd) (width 0.05))
  (fp_line (start 28.95 8.25) (end 28.95 -8.25) (layer F.CrtYd) (width 0.05))
  (fp_line (start 28.95 -8.25) (end -1.45 -8.25) (layer F.CrtYd) (width 0.05))
  (fp_text user %R (at 13.75 0) (layer F.Fab)
    (effects (font (size 1 1) (thickness 0.15)))
  )
  (pad 2 thru_hole circle (at 27.5 0) (size 2.4 2.4) (drill 1.2) (layers *.Cu *.Mask))
  (pad 1 thru_hole circle (at 0 0) (size 2.4 2.4) (drill 1.2) (layers *.Cu *.Mask))
  (model ${KISYS3DMOD}/Capacitor_THT.3dshapes/C_Rect_L29.0mm_W16.0mm_P27.50mm_MKT.wrl
    (at (xyz 0 0 0))
    (scale (xyz 1 1 1))
    (rotate (xyz 0 0 0))
  )
)
