(module C_Rect_L7.2mm_W11.0mm_P5.00mm_FKS2_FKP2_MKS2_MKP2 (layer F.Cu) (tedit 60783779)
  (descr "C, Rect series, Radial, pin pitch=5.00mm, , length*width=7.2*11mm^2, Capacitor, http://www.wima.com/EN/WIMA_FKS_2.pdf, Alternate KiCad Library")
  (tags "C Rect series Radial pin pitch 5.00mm  length 7.2mm width 11mm Capacitor")
  (fp_text reference REF** (at 2.5 -6.75) (layer F.SilkS)
    (effects (font (size 1 1) (thickness 0.15)))
  )
  (fp_text value C_Rect_L7.2mm_W11.0mm_P5.00mm_FKS2_FKP2_MKS2_MKP2 (at 2.5 6.75) (layer F.Fab)
    (effects (font (size 1 1) (thickness 0.15)))
  )
  (fp_line (start 2.2 -0.9) (end 2.2 0.9) (layer F.SilkS) (width 0.12))
  (fp_line (start 4 0) (end 2.8 0) (layer F.SilkS) (width 0.12))
  (fp_line (start 2.8 -0.9) (end 2.8 0.9) (layer F.SilkS) (width 0.12))
  (fp_line (start 1 0) (end 2.2 0) (layer F.SilkS) (width 0.12))
  (fp_line (start -1.1 -5.5) (end -1.1 5.5) (layer F.Fab) (width 0.1))
  (fp_line (start -1.1 5.5) (end 6.1 5.5) (layer F.Fab) (width 0.1))
  (fp_line (start 6.1 5.5) (end 6.1 -5.5) (layer F.Fab) (width 0.1))
  (fp_line (start 6.1 -5.5) (end -1.1 -5.5) (layer F.Fab) (width 0.1))
  (fp_line (start -1.22 -5.62) (end 6.22 -5.62) (layer F.SilkS) (width 0.12))
  (fp_line (start -1.22 5.62) (end 6.22 5.62) (layer F.SilkS) (width 0.12))
  (fp_line (start -1.22 -5.62) (end -1.22 5.62) (layer F.SilkS) (width 0.12))
  (fp_line (start 6.22 -5.62) (end 6.22 5.62) (layer F.SilkS) (width 0.12))
  (fp_line (start -1.35 -5.75) (end -1.35 5.75) (layer F.CrtYd) (width 0.05))
  (fp_line (start -1.35 5.75) (end 6.35 5.75) (layer F.CrtYd) (width 0.05))
  (fp_line (start 6.35 5.75) (end 6.35 -5.75) (layer F.CrtYd) (width 0.05))
  (fp_line (start 6.35 -5.75) (end -1.35 -5.75) (layer F.CrtYd) (width 0.05))
  (fp_text user %R (at 2.5 0) (layer F.Fab)
    (effects (font (size 1 1) (thickness 0.15)))
  )
  (pad 2 thru_hole circle (at 5 0) (size 1.6 1.6) (drill 0.8) (layers *.Cu *.Mask))
  (pad 1 thru_hole circle (at 0 0) (size 1.6 1.6) (drill 0.8) (layers *.Cu *.Mask))
  (model ${KISYS3DMOD}/Capacitor_THT.3dshapes/C_Rect_L7.2mm_W11.0mm_P5.00mm_FKS2_FKP2_MKS2_MKP2.wrl
    (at (xyz 0 0 0))
    (scale (xyz 1 1 1))
    (rotate (xyz 0 0 0))
  )
)
