(module C_Rect_L11.0mm_W6.3mm_P10.00mm_MKT (layer F.Cu) (tedit 6078388D)
  (descr "C, Rect series, Radial, pin pitch=10.00mm, , length*width=11.0*6.3mm^2, Capacitor, https://en.tdk.eu/inf/20/20/db/fc_2009/MKT_B32560_564.pdf, Alternate KiCad Library")
  (tags "C Rect series Radial pin pitch 10.00mm  length 11.0mm width 6.3mm Capacitor")
  (fp_text reference REF** (at 5 -4.4) (layer F.SilkS)
    (effects (font (size 1 1) (thickness 0.15)))
  )
  (fp_text value C_Rect_L11.0mm_W6.3mm_P10.00mm_MKT (at 5 4.4) (layer F.Fab)
    (effects (font (size 1 1) (thickness 0.15)))
  )
  (fp_line (start 8.9 0) (end 5.6 0) (layer F.SilkS) (width 0.12))
  (fp_line (start 5.6 2) (end 5.6 -2) (layer F.SilkS) (width 0.25))
  (fp_line (start 1.1 0) (end 4.4 0) (layer F.SilkS) (width 0.12))
  (fp_line (start 4.4 2) (end 4.4 -2) (layer F.SilkS) (width 0.25))
  (fp_line (start -0.5 -3.15) (end -0.5 3.15) (layer F.Fab) (width 0.1))
  (fp_line (start -0.5 3.15) (end 10.5 3.15) (layer F.Fab) (width 0.1))
  (fp_line (start 10.5 3.15) (end 10.5 -3.15) (layer F.Fab) (width 0.1))
  (fp_line (start 10.5 -3.15) (end -0.5 -3.15) (layer F.Fab) (width 0.1))
  (fp_line (start -0.62 -3.27) (end 10.62 -3.27) (layer F.SilkS) (width 0.12))
  (fp_line (start -0.62 3.27) (end 10.62 3.27) (layer F.SilkS) (width 0.12))
  (fp_line (start -0.62 -3.27) (end -0.62 -0.925) (layer F.SilkS) (width 0.12))
  (fp_line (start -0.62 0.925) (end -0.62 3.27) (layer F.SilkS) (width 0.12))
  (fp_line (start 10.62 -3.27) (end 10.62 -0.925) (layer F.SilkS) (width 0.12))
  (fp_line (start 10.62 0.925) (end 10.62 3.27) (layer F.SilkS) (width 0.12))
  (fp_line (start -1.05 -3.4) (end -1.05 3.4) (layer F.CrtYd) (width 0.05))
  (fp_line (start -1.05 3.4) (end 11.05 3.4) (layer F.CrtYd) (width 0.05))
  (fp_line (start 11.05 3.4) (end 11.05 -3.4) (layer F.CrtYd) (width 0.05))
  (fp_line (start 11.05 -3.4) (end -1.05 -3.4) (layer F.CrtYd) (width 0.05))
  (fp_text user %R (at 5 0) (layer F.Fab)
    (effects (font (size 1 1) (thickness 0.15)))
  )
  (pad 2 thru_hole circle (at 10 0) (size 1.6 1.6) (drill 0.8) (layers *.Cu *.Mask))
  (pad 1 thru_hole circle (at 0 0) (size 1.6 1.6) (drill 0.8) (layers *.Cu *.Mask))
  (model ${KISYS3DMOD}/Capacitor_THT.3dshapes/C_Rect_L11.0mm_W6.3mm_P10.00mm_MKT.wrl
    (at (xyz 0 0 0))
    (scale (xyz 1 1 1))
    (rotate (xyz 0 0 0))
  )
)
