(module C_Rect_L27.0mm_W11.0mm_P22.00mm (layer F.Cu) (tedit 60783AEA)
  (descr "C, Rect series, Radial, pin pitch=22.00mm, , length*width=27*11mm^2, Capacitor, Alternate KiCad Library")
  (tags "C Rect series Radial pin pitch 22.00mm  length 27mm width 11mm Capacitor")
  (fp_text reference REF** (at 11 -6.75) (layer F.SilkS)
    (effects (font (size 1 1) (thickness 0.15)))
  )
  (fp_text value C_Rect_L27.0mm_W11.0mm_P22.00mm (at 11 6.75) (layer F.Fab)
    (effects (font (size 1 1) (thickness 0.15)))
  )
  (fp_line (start 12.25 0) (end 20.25 0) (layer F.SilkS) (width 0.12))
  (fp_line (start 12.25 -3.25) (end 12.25 3.25) (layer F.SilkS) (width 0.4))
  (fp_line (start 1.75 0) (end 9.75 0) (layer F.SilkS) (width 0.12))
  (fp_line (start 9.75 -3.25) (end 9.75 3.25) (layer F.SilkS) (width 0.4))
  (fp_line (start -2.5 -5.5) (end -2.5 5.5) (layer F.Fab) (width 0.1))
  (fp_line (start -2.5 5.5) (end 24.5 5.5) (layer F.Fab) (width 0.1))
  (fp_line (start 24.5 5.5) (end 24.5 -5.5) (layer F.Fab) (width 0.1))
  (fp_line (start 24.5 -5.5) (end -2.5 -5.5) (layer F.Fab) (width 0.1))
  (fp_line (start -2.62 -5.62) (end 24.62 -5.62) (layer F.SilkS) (width 0.12))
  (fp_line (start -2.62 5.62) (end 24.62 5.62) (layer F.SilkS) (width 0.12))
  (fp_line (start -2.62 -5.62) (end -2.62 5.62) (layer F.SilkS) (width 0.12))
  (fp_line (start 24.62 -5.62) (end 24.62 5.62) (layer F.SilkS) (width 0.12))
  (fp_line (start -2.75 -5.75) (end -2.75 5.75) (layer F.CrtYd) (width 0.05))
  (fp_line (start -2.75 5.75) (end 24.75 5.75) (layer F.CrtYd) (width 0.05))
  (fp_line (start 24.75 5.75) (end 24.75 -5.75) (layer F.CrtYd) (width 0.05))
  (fp_line (start 24.75 -5.75) (end -2.75 -5.75) (layer F.CrtYd) (width 0.05))
  (fp_text user %R (at 11 0) (layer F.Fab)
    (effects (font (size 1 1) (thickness 0.15)))
  )
  (pad 2 thru_hole circle (at 22 0) (size 2.2 2.2) (drill 1.1) (layers *.Cu *.Mask))
  (pad 1 thru_hole circle (at 0 0) (size 2.2 2.2) (drill 1.1) (layers *.Cu *.Mask))
  (model ${KISYS3DMOD}/Capacitor_THT.3dshapes/C_Rect_L27.0mm_W11.0mm_P22.00mm.wrl
    (at (xyz 0 0 0))
    (scale (xyz 1 1 1))
    (rotate (xyz 0 0 0))
  )
)
