(module C_Rect_L26.5mm_W11.5mm_P22.50mm_MKS4 (layer F.Cu) (tedit 60783AD8)
  (descr "C, Rect series, Radial, pin pitch=22.50mm, , length*width=26.5*11.5mm^2, Capacitor, http://www.wima.com/EN/WIMA_MKS_4.pdf, Alternate KiCad Library")
  (tags "C Rect series Radial pin pitch 22.50mm  length 26.5mm width 11.5mm Capacitor")
  (fp_text reference REF** (at 11.25 -7) (layer F.SilkS)
    (effects (font (size 1 1) (thickness 0.15)))
  )
  (fp_text value C_Rect_L26.5mm_W11.5mm_P22.50mm_MKS4 (at 11.25 7) (layer F.Fab)
    (effects (font (size 1 1) (thickness 0.15)))
  )
  (fp_line (start 12.5 0) (end 20.5 0) (layer F.SilkS) (width 0.12))
  (fp_line (start 12.5 -3.25) (end 12.5 3.25) (layer F.SilkS) (width 0.4))
  (fp_line (start 2 0) (end 10 0) (layer F.SilkS) (width 0.12))
  (fp_line (start 10 -3.25) (end 10 3.25) (layer F.SilkS) (width 0.4))
  (fp_line (start -2 -5.75) (end -2 5.75) (layer F.Fab) (width 0.1))
  (fp_line (start -2 5.75) (end 24.5 5.75) (layer F.Fab) (width 0.1))
  (fp_line (start 24.5 5.75) (end 24.5 -5.75) (layer F.Fab) (width 0.1))
  (fp_line (start 24.5 -5.75) (end -2 -5.75) (layer F.Fab) (width 0.1))
  (fp_line (start -2.12 -5.87) (end 24.62 -5.87) (layer F.SilkS) (width 0.12))
  (fp_line (start -2.12 5.87) (end 24.62 5.87) (layer F.SilkS) (width 0.12))
  (fp_line (start -2.12 -5.87) (end -2.12 5.87) (layer F.SilkS) (width 0.12))
  (fp_line (start 24.62 -5.87) (end 24.62 5.87) (layer F.SilkS) (width 0.12))
  (fp_line (start -2.25 -6) (end -2.25 6) (layer F.CrtYd) (width 0.05))
  (fp_line (start -2.25 6) (end 24.75 6) (layer F.CrtYd) (width 0.05))
  (fp_line (start 24.75 6) (end 24.75 -6) (layer F.CrtYd) (width 0.05))
  (fp_line (start 24.75 -6) (end -2.25 -6) (layer F.CrtYd) (width 0.05))
  (fp_text user %R (at 11.25 0) (layer F.Fab)
    (effects (font (size 1 1) (thickness 0.15)))
  )
  (pad 2 thru_hole circle (at 22.5 0) (size 2.4 2.4) (drill 1.2) (layers *.Cu *.Mask))
  (pad 1 thru_hole circle (at 0 0) (size 2.4 2.4) (drill 1.2) (layers *.Cu *.Mask))
  (model ${KISYS3DMOD}/Capacitor_THT.3dshapes/C_Rect_L26.5mm_W11.5mm_P22.50mm_MKS4.wrl
    (at (xyz 0 0 0))
    (scale (xyz 1 1 1))
    (rotate (xyz 0 0 0))
  )
)
