(module C_Rect_L19.0mm_W5.0mm_P15.00mm_MKS4 (layer F.Cu) (tedit 60783A5D)
  (descr "C, Rect series, Radial, pin pitch=15.00mm, , length*width=19*5mm^2, Capacitor, http://www.wima.com/EN/WIMA_MKS_4.pdf, Alternate KiCad Library")
  (tags "C Rect series Radial pin pitch 15.00mm  length 19mm width 5mm Capacitor")
  (fp_text reference REF** (at 7.5 -3.75) (layer F.SilkS)
    (effects (font (size 1 1) (thickness 0.15)))
  )
  (fp_text value C_Rect_L19.0mm_W5.0mm_P15.00mm_MKS4 (at 7.5 3.75) (layer F.Fab)
    (effects (font (size 1 1) (thickness 0.15)))
  )
  (fp_line (start 6.4 -2.2) (end 6.4 2.2) (layer F.SilkS) (width 0.3))
  (fp_line (start 8.6 0) (end 13.4 0) (layer F.SilkS) (width 0.12))
  (fp_line (start 1.6 0) (end 6.4 0) (layer F.SilkS) (width 0.12))
  (fp_line (start 8.6 -2.2) (end 8.6 2.2) (layer F.SilkS) (width 0.3))
  (fp_line (start -2 -2.5) (end -2 2.5) (layer F.Fab) (width 0.1))
  (fp_line (start -2 2.5) (end 17 2.5) (layer F.Fab) (width 0.1))
  (fp_line (start 17 2.5) (end 17 -2.5) (layer F.Fab) (width 0.1))
  (fp_line (start 17 -2.5) (end -2 -2.5) (layer F.Fab) (width 0.1))
  (fp_line (start -2.12 -2.62) (end 17.12 -2.62) (layer F.SilkS) (width 0.12))
  (fp_line (start -2.12 2.62) (end 17.12 2.62) (layer F.SilkS) (width 0.12))
  (fp_line (start -2.12 -2.62) (end -2.12 2.62) (layer F.SilkS) (width 0.12))
  (fp_line (start 17.12 -2.62) (end 17.12 2.62) (layer F.SilkS) (width 0.12))
  (fp_line (start -2.25 -2.75) (end -2.25 2.75) (layer F.CrtYd) (width 0.05))
  (fp_line (start -2.25 2.75) (end 17.25 2.75) (layer F.CrtYd) (width 0.05))
  (fp_line (start 17.25 2.75) (end 17.25 -2.75) (layer F.CrtYd) (width 0.05))
  (fp_line (start 17.25 -2.75) (end -2.25 -2.75) (layer F.CrtYd) (width 0.05))
  (fp_text user %R (at 7.5 0) (layer F.Fab)
    (effects (font (size 1 1) (thickness 0.15)))
  )
  (pad 2 thru_hole circle (at 15 0) (size 2.4 2.4) (drill 1.2) (layers *.Cu *.Mask))
  (pad 1 thru_hole circle (at 0 0) (size 2.4 2.4) (drill 1.2) (layers *.Cu *.Mask))
  (model ${KISYS3DMOD}/Capacitor_THT.3dshapes/C_Rect_L19.0mm_W5.0mm_P15.00mm_MKS4.wrl
    (at (xyz 0 0 0))
    (scale (xyz 1 1 1))
    (rotate (xyz 0 0 0))
  )
)
