(module C_Rect_L33.0mm_W20.0mm_P27.50mm_MKS4 (layer F.Cu) (tedit 60783B74)
  (descr "C, Rect series, Radial, pin pitch=27.50mm, , length*width=33*20mm^2, Capacitor, http://www.wima.com/EN/WIMA_MKS_4.pdf, Alternate KiCad Library")
  (tags "C Rect series Radial pin pitch 27.50mm  length 33mm width 20mm Capacitor")
  (fp_text reference REF** (at 13.75 -11.25) (layer F.SilkS)
    (effects (font (size 1 1) (thickness 0.15)))
  )
  (fp_text value C_Rect_L33.0mm_W20.0mm_P27.50mm_MKS4 (at 13.75 11.25) (layer F.Fab)
    (effects (font (size 1 1) (thickness 0.15)))
  )
  (fp_line (start 15 -3.5) (end 15 3.5) (layer F.SilkS) (width 0.4))
  (fp_line (start 12.5 -3.5) (end 12.5 3.5) (layer F.SilkS) (width 0.4))
  (fp_line (start 2 0) (end 12.5 0) (layer F.SilkS) (width 0.12))
  (fp_line (start 15 0) (end 25.5 0) (layer F.SilkS) (width 0.12))
  (fp_line (start -2.75 -10) (end -2.75 10) (layer F.Fab) (width 0.1))
  (fp_line (start -2.75 10) (end 30.25 10) (layer F.Fab) (width 0.1))
  (fp_line (start 30.25 10) (end 30.25 -10) (layer F.Fab) (width 0.1))
  (fp_line (start 30.25 -10) (end -2.75 -10) (layer F.Fab) (width 0.1))
  (fp_line (start -2.87 -10.12) (end 30.37 -10.12) (layer F.SilkS) (width 0.12))
  (fp_line (start -2.87 10.12) (end 30.37 10.12) (layer F.SilkS) (width 0.12))
  (fp_line (start -2.87 -10.12) (end -2.87 10.12) (layer F.SilkS) (width 0.12))
  (fp_line (start 30.37 -10.12) (end 30.37 10.12) (layer F.SilkS) (width 0.12))
  (fp_line (start -3 -10.25) (end -3 10.25) (layer F.CrtYd) (width 0.05))
  (fp_line (start -3 10.25) (end 30.5 10.25) (layer F.CrtYd) (width 0.05))
  (fp_line (start 30.5 10.25) (end 30.5 -10.25) (layer F.CrtYd) (width 0.05))
  (fp_line (start 30.5 -10.25) (end -3 -10.25) (layer F.CrtYd) (width 0.05))
  (fp_text user %R (at 13.75 0) (layer F.Fab)
    (effects (font (size 1 1) (thickness 0.15)))
  )
  (pad 2 thru_hole circle (at 27.5 0) (size 2.4 2.4) (drill 1.2) (layers *.Cu *.Mask))
  (pad 1 thru_hole circle (at 0 0) (size 2.4 2.4) (drill 1.2) (layers *.Cu *.Mask))
  (model ${KISYS3DMOD}/Capacitor_THT.3dshapes/C_Rect_L33.0mm_W20.0mm_P27.50mm_MKS4.wrl
    (at (xyz 0 0 0))
    (scale (xyz 1 1 1))
    (rotate (xyz 0 0 0))
  )
)
