(module C_Rect_L10.0mm_W3.0mm_P7.50mm_MKS4 (layer F.Cu) (tedit 6078380A)
  (descr "C, Rect series, Radial, pin pitch=7.50mm, , length*width=10*3.0mm^2, Capacitor, http://www.wima.com/EN/WIMA_MKS_4.pdf, Alternate KiCad Library")
  (tags "C Rect series Radial pin pitch 7.50mm  length 10mm width 3.0mm Capacitor")
  (fp_text reference REF** (at 3.75 -2.75) (layer F.SilkS)
    (effects (font (size 1 1) (thickness 0.15)))
  )
  (fp_text value C_Rect_L10.0mm_W3.0mm_P7.50mm_MKS4 (at 3.75 2.75) (layer F.Fab)
    (effects (font (size 1 1) (thickness 0.15)))
  )
  (fp_line (start 3.4 -1.1) (end 3.4 1.1) (layer F.SilkS) (width 0.12))
  (fp_line (start 1.3 0) (end 3.4 0) (layer F.SilkS) (width 0.12))
  (fp_line (start 4.1 0) (end 6.2 0) (layer F.SilkS) (width 0.12))
  (fp_line (start 4.1 -1.1) (end 4.1 1.1) (layer F.SilkS) (width 0.12))
  (fp_line (start -1.25 -1.5) (end -1.25 1.5) (layer F.Fab) (width 0.1))
  (fp_line (start -1.25 1.5) (end 8.75 1.5) (layer F.Fab) (width 0.1))
  (fp_line (start 8.75 1.5) (end 8.75 -1.5) (layer F.Fab) (width 0.1))
  (fp_line (start 8.75 -1.5) (end -1.25 -1.5) (layer F.Fab) (width 0.1))
  (fp_line (start -1.37 -1.62) (end 8.87 -1.62) (layer F.SilkS) (width 0.12))
  (fp_line (start -1.37 1.62) (end 8.87 1.62) (layer F.SilkS) (width 0.12))
  (fp_line (start -1.37 -1.62) (end -1.37 1.62) (layer F.SilkS) (width 0.12))
  (fp_line (start 8.87 -1.62) (end 8.87 1.62) (layer F.SilkS) (width 0.12))
  (fp_line (start -1.5 -1.75) (end -1.5 1.75) (layer F.CrtYd) (width 0.05))
  (fp_line (start -1.5 1.75) (end 9 1.75) (layer F.CrtYd) (width 0.05))
  (fp_line (start 9 1.75) (end 9 -1.75) (layer F.CrtYd) (width 0.05))
  (fp_line (start 9 -1.75) (end -1.5 -1.75) (layer F.CrtYd) (width 0.05))
  (fp_text user %R (at 3.75 0) (layer F.Fab)
    (effects (font (size 1 1) (thickness 0.15)))
  )
  (pad 2 thru_hole circle (at 7.5 0) (size 2 2) (drill 1) (layers *.Cu *.Mask))
  (pad 1 thru_hole circle (at 0 0) (size 2 2) (drill 1) (layers *.Cu *.Mask))
  (model ${KISYS3DMOD}/Capacitor_THT.3dshapes/C_Rect_L10.0mm_W3.0mm_P7.50mm_MKS4.wrl
    (at (xyz 0 0 0))
    (scale (xyz 1 1 1))
    (rotate (xyz 0 0 0))
  )
)
