(module CP_Axial_L38.0mm_D21.0mm_P44.00mm_Horizontal_Supported (layer F.Cu) (tedit 60781C01)
  (descr "CP, Axial series, Axial, Horizontal, Additional holes for supports, pin pitch=44mm, , length*diameter=38*21mm^2, Electrolytic Capacitor, , http://www.vishay.com/docs/28325/021asm.pdf, Alternate KiCad Library")
  (tags "CP Axial series Axial Horizontal pin pitch 44mm  length 38mm diameter 21mm Electrolytic Capacitor Support")
  (fp_text reference REF** (at 22 -12.87) (layer F.SilkS)
    (effects (font (size 1 1) (thickness 0.15)))
  )
  (fp_text value CP_Axial_L38.0mm_D21.0mm_P44.00mm_Horizontal_Supported (at 22 11.62) (layer F.Fab)
    (effects (font (size 1 1) (thickness 0.15)))
  )
  (fp_line (start 42.56 0) (end 41.12 0) (layer F.SilkS) (width 0.12))
  (fp_line (start 1.44 0) (end 2.88 0) (layer F.SilkS) (width 0.12))
  (fp_line (start 6.48 10.62) (end 21.25 10.62) (layer F.SilkS) (width 0.12))
  (fp_line (start 5.58 9.72) (end 6.48 10.62) (layer F.SilkS) (width 0.12))
  (fp_line (start 4.68 10.62) (end 5.58 9.72) (layer F.SilkS) (width 0.12))
  (fp_line (start 2.88 10.62) (end 4.68 10.62) (layer F.SilkS) (width 0.12))
  (fp_line (start 6.48 -10.62) (end 21.25 -10.62) (layer F.SilkS) (width 0.12))
  (fp_line (start 5.58 -9.72) (end 6.48 -10.62) (layer F.SilkS) (width 0.12))
  (fp_line (start 4.68 -10.62) (end 5.58 -9.72) (layer F.SilkS) (width 0.12))
  (fp_line (start 2.88 -10.62) (end 4.68 -10.62) (layer F.SilkS) (width 0.12))
  (fp_line (start 41.12 -10.62) (end 41.12 10.62) (layer F.SilkS) (width 0.12))
  (fp_line (start 2.88 -10.62) (end 2.88 10.62) (layer F.SilkS) (width 0.12))
  (fp_line (start 1.68 -3.5) (end 1.68 -1.7) (layer F.SilkS) (width 0.12))
  (fp_line (start 0.78 -2.6) (end 2.58 -2.6) (layer F.SilkS) (width 0.12))
  (fp_line (start 21 -3.75) (end 21 3.75) (layer F.SilkS) (width 0.12))
  (fp_line (start 21 3.75) (end 19.75 3.75) (layer F.SilkS) (width 0.12))
  (fp_line (start 19.75 0) (end 19.75 -3.75) (layer F.SilkS) (width 0.12))
  (fp_line (start 19.75 -3.75) (end 21 -3.75) (layer F.SilkS) (width 0.12))
  (fp_line (start 2.88 0) (end 19.75 0) (layer F.SilkS) (width 0.12))
  (fp_poly (pts (xy 24.25 3.75) (xy 23 3.75) (xy 23 -3.75) (xy 24.25 -3.75)) (layer F.SilkS) (width 0.1))
  (fp_line (start 19.75 3.75) (end 19.75 0) (layer F.SilkS) (width 0.12))
  (fp_line (start 24.25 0) (end 41.12 0) (layer F.SilkS) (width 0.12))
  (fp_line (start 45.45 -10.75) (end -1.45 -10.75) (layer F.CrtYd) (width 0.05))
  (fp_line (start 45.45 10.75) (end 45.45 -10.75) (layer F.CrtYd) (width 0.05))
  (fp_line (start -1.45 10.75) (end 45.45 10.75) (layer F.CrtYd) (width 0.05))
  (fp_line (start -1.45 -10.75) (end -1.45 10.75) (layer F.CrtYd) (width 0.05))
  (fp_line (start 5.6 -0.9) (end 5.6 0.9) (layer F.Fab) (width 0.1))
  (fp_line (start 4.7 0) (end 6.5 0) (layer F.Fab) (width 0.1))
  (fp_line (start 44 0) (end 41 0) (layer F.Fab) (width 0.1))
  (fp_line (start 0 0) (end 3 0) (layer F.Fab) (width 0.1))
  (fp_line (start 6.48 10.5) (end 41 10.5) (layer F.Fab) (width 0.1))
  (fp_line (start 5.58 9.6) (end 6.48 10.5) (layer F.Fab) (width 0.1))
  (fp_line (start 4.68 10.5) (end 5.58 9.6) (layer F.Fab) (width 0.1))
  (fp_line (start 3 10.5) (end 4.68 10.5) (layer F.Fab) (width 0.1))
  (fp_line (start 6.48 -10.5) (end 41 -10.5) (layer F.Fab) (width 0.1))
  (fp_line (start 5.58 -9.6) (end 6.48 -10.5) (layer F.Fab) (width 0.1))
  (fp_line (start 4.68 -10.5) (end 5.58 -9.6) (layer F.Fab) (width 0.1))
  (fp_line (start 3 -10.5) (end 4.68 -10.5) (layer F.Fab) (width 0.1))
  (fp_line (start 41 -10.5) (end 41 10.5) (layer F.Fab) (width 0.1))
  (fp_line (start 3 -10.5) (end 3 10.5) (layer F.Fab) (width 0.1))
  (fp_line (start 22.75 10.62) (end 41.12 10.62) (layer F.SilkS) (width 0.12))
  (fp_line (start 22.75 -10.62) (end 41.12 -10.62) (layer F.SilkS) (width 0.12))
  (fp_text user %R (at 22 0) (layer F.Fab)
    (effects (font (size 1 1) (thickness 0.15)))
  )
  (pad 3 thru_hole circle (at 22 11.25) (size 1.524 1.524) (drill 0.762) (layers *.Cu *.Mask))
  (pad ~ thru_hole circle (at 22 -11.25) (size 1.524 1.524) (drill 0.762) (layers *.Cu *.Mask))
  (pad 2 thru_hole oval (at 44 0) (size 2.4 2.4) (drill 1.2) (layers *.Cu *.Mask))
  (pad 1 thru_hole rect (at 0 0) (size 2.4 2.4) (drill 1.2) (layers *.Cu *.Mask))
  (model ${KISYS3DMOD}/Capacitor_THT.3dshapes/CP_Axial_L38.0mm_D21.0mm_P44.00mm_Horizontal.wrl
    (at (xyz 0 0 0))
    (scale (xyz 1 1 1))
    (rotate (xyz 0 0 0))
  )
)
