(module CP_Axial_L67.0mm_D26.0mm_P75.00mm_Horizontal (layer F.Cu) (tedit 60781CE4)
  (descr "CP, Axial series, Axial, Horizontal, pin pitch=75mm, , length*diameter=67*26mm^2, Electrolytic Capacitor, , http://www.vishay.com/docs/42037/53d.pdf, Alternate KiCad Library")
  (tags "CP Axial series Axial Horizontal pin pitch 75mm  length 67mm diameter 26mm Electrolytic Capacitor")
  (fp_text reference REF** (at 37.5 -14.12) (layer F.SilkS)
    (effects (font (size 1 1) (thickness 0.15)))
  )
  (fp_text value CP_Axial_L67.0mm_D26.0mm_P75.00mm_Horizontal (at 37.5 14.12) (layer F.Fab)
    (effects (font (size 1 1) (thickness 0.15)))
  )
  (fp_line (start 76.45 -13.25) (end -1.45 -13.25) (layer F.CrtYd) (width 0.05))
  (fp_line (start 76.45 13.25) (end 76.45 -13.25) (layer F.CrtYd) (width 0.05))
  (fp_line (start -1.45 13.25) (end 76.45 13.25) (layer F.CrtYd) (width 0.05))
  (fp_line (start -1.45 -13.25) (end -1.45 13.25) (layer F.CrtYd) (width 0.05))
  (fp_line (start 73.56 0) (end 71.12 0) (layer F.SilkS) (width 0.12))
  (fp_line (start 1.44 0) (end 3.88 0) (layer F.SilkS) (width 0.12))
  (fp_line (start 7.48 13.12) (end 71.12 13.12) (layer F.SilkS) (width 0.12))
  (fp_line (start 6.58 12.22) (end 7.48 13.12) (layer F.SilkS) (width 0.12))
  (fp_line (start 5.68 13.12) (end 6.58 12.22) (layer F.SilkS) (width 0.12))
  (fp_line (start 3.88 13.12) (end 5.68 13.12) (layer F.SilkS) (width 0.12))
  (fp_line (start 7.48 -13.12) (end 71.12 -13.12) (layer F.SilkS) (width 0.12))
  (fp_line (start 6.58 -12.22) (end 7.48 -13.12) (layer F.SilkS) (width 0.12))
  (fp_line (start 5.68 -13.12) (end 6.58 -12.22) (layer F.SilkS) (width 0.12))
  (fp_line (start 3.88 -13.12) (end 5.68 -13.12) (layer F.SilkS) (width 0.12))
  (fp_line (start 71.12 -13.12) (end 71.12 13.12) (layer F.SilkS) (width 0.12))
  (fp_line (start 3.88 -13.12) (end 3.88 13.12) (layer F.SilkS) (width 0.12))
  (fp_line (start 2.68 -3.5) (end 2.68 -1.7) (layer F.SilkS) (width 0.12))
  (fp_line (start 1.78 -2.6) (end 3.58 -2.6) (layer F.SilkS) (width 0.12))
  (fp_line (start 6.6 -0.9) (end 6.6 0.9) (layer F.Fab) (width 0.1))
  (fp_line (start 5.7 0) (end 7.5 0) (layer F.Fab) (width 0.1))
  (fp_line (start 75 0) (end 71 0) (layer F.Fab) (width 0.1))
  (fp_line (start 0 0) (end 4 0) (layer F.Fab) (width 0.1))
  (fp_line (start 7.48 13) (end 71 13) (layer F.Fab) (width 0.1))
  (fp_line (start 6.58 12.1) (end 7.48 13) (layer F.Fab) (width 0.1))
  (fp_line (start 5.68 13) (end 6.58 12.1) (layer F.Fab) (width 0.1))
  (fp_line (start 4 13) (end 5.68 13) (layer F.Fab) (width 0.1))
  (fp_line (start 7.48 -13) (end 71 -13) (layer F.Fab) (width 0.1))
  (fp_line (start 6.58 -12.1) (end 7.48 -13) (layer F.Fab) (width 0.1))
  (fp_line (start 5.68 -13) (end 6.58 -12.1) (layer F.Fab) (width 0.1))
  (fp_line (start 4 -13) (end 5.68 -13) (layer F.Fab) (width 0.1))
  (fp_line (start 71 -13) (end 71 13) (layer F.Fab) (width 0.1))
  (fp_line (start 4 -13) (end 4 13) (layer F.Fab) (width 0.1))
  (fp_line (start 32 9) (end 32 -9) (layer F.SilkS) (width 0.12))
  (fp_line (start 32 -9) (end 36 -9) (layer F.SilkS) (width 0.12))
  (fp_line (start 36 -9) (end 36 9) (layer F.SilkS) (width 0.12))
  (fp_line (start 36 9) (end 32 9) (layer F.SilkS) (width 0.12))
  (fp_line (start 42 0) (end 71.12 0) (layer F.SilkS) (width 0.12))
  (fp_line (start 3.88 0) (end 32 0) (layer F.SilkS) (width 0.12))
  (fp_poly (pts (xy 42 9) (xy 38 9) (xy 38 -9) (xy 42 -9)) (layer F.SilkS) (width 0.1))
  (fp_text user %R (at 37.5 0) (layer F.Fab)
    (effects (font (size 1 1) (thickness 0.15)))
  )
  (pad 2 thru_hole oval (at 75 0) (size 2.4 2.4) (drill 1.2) (layers *.Cu *.Mask))
  (pad 1 thru_hole rect (at 0 0) (size 2.4 2.4) (drill 1.2) (layers *.Cu *.Mask))
  (model ${KISYS3DMOD}/Capacitor_THT.3dshapes/CP_Axial_L67.0mm_D26.0mm_P75.00mm_Horizontal.wrl
    (at (xyz 0 0 0))
    (scale (xyz 1 1 1))
    (rotate (xyz 0 0 0))
  )
)
