(module CP_Axial_L93.0mm_D32.0mm_P100.00mm_Horizontal (layer F.Cu) (tedit 60781D76)
  (descr "CP, Axial series, Axial, Horizontal, pin pitch=100mm, , length*diameter=93*32.0mm^2, Electrolytic Capacitor, , http://www.vishay.com/docs/42037/53d.pdf, Alternate KiCad Library")
  (tags "CP Axial series Axial Horizontal pin pitch 100mm  length 93mm diameter 32.0mm Electrolytic Capacitor")
  (fp_text reference REF** (at 50 -17.12) (layer F.SilkS)
    (effects (font (size 1 1) (thickness 0.15)))
  )
  (fp_text value CP_Axial_L93.0mm_D32.0mm_P100.00mm_Horizontal (at 50 17.12) (layer F.Fab)
    (effects (font (size 1 1) (thickness 0.15)))
  )
  (fp_line (start 101.45 -16.25) (end -1.45 -16.25) (layer F.CrtYd) (width 0.05))
  (fp_line (start 101.45 16.25) (end 101.45 -16.25) (layer F.CrtYd) (width 0.05))
  (fp_line (start -1.45 16.25) (end 101.45 16.25) (layer F.CrtYd) (width 0.05))
  (fp_line (start -1.45 -16.25) (end -1.45 16.25) (layer F.CrtYd) (width 0.05))
  (fp_line (start 98.56 0) (end 96.62 0) (layer F.SilkS) (width 0.12))
  (fp_line (start 1.44 0) (end 3.38 0) (layer F.SilkS) (width 0.12))
  (fp_line (start 6.98 16.12) (end 96.62 16.12) (layer F.SilkS) (width 0.12))
  (fp_line (start 6.08 15.22) (end 6.98 16.12) (layer F.SilkS) (width 0.12))
  (fp_line (start 5.18 16.12) (end 6.08 15.22) (layer F.SilkS) (width 0.12))
  (fp_line (start 3.38 16.12) (end 5.18 16.12) (layer F.SilkS) (width 0.12))
  (fp_line (start 6.98 -16.12) (end 96.62 -16.12) (layer F.SilkS) (width 0.12))
  (fp_line (start 6.08 -15.22) (end 6.98 -16.12) (layer F.SilkS) (width 0.12))
  (fp_line (start 5.18 -16.12) (end 6.08 -15.22) (layer F.SilkS) (width 0.12))
  (fp_line (start 3.38 -16.12) (end 5.18 -16.12) (layer F.SilkS) (width 0.12))
  (fp_line (start 96.62 -16.12) (end 96.62 16.12) (layer F.SilkS) (width 0.12))
  (fp_line (start 3.38 -16.12) (end 3.38 16.12) (layer F.SilkS) (width 0.12))
  (fp_line (start 2.18 -3.5) (end 2.18 -1.7) (layer F.SilkS) (width 0.12))
  (fp_line (start 1.28 -2.6) (end 3.08 -2.6) (layer F.SilkS) (width 0.12))
  (fp_line (start 6.1 -0.9) (end 6.1 0.9) (layer F.Fab) (width 0.1))
  (fp_line (start 5.2 0) (end 7 0) (layer F.Fab) (width 0.1))
  (fp_line (start 100 0) (end 96.5 0) (layer F.Fab) (width 0.1))
  (fp_line (start 0 0) (end 3.5 0) (layer F.Fab) (width 0.1))
  (fp_line (start 6.98 16) (end 96.5 16) (layer F.Fab) (width 0.1))
  (fp_line (start 6.08 15.1) (end 6.98 16) (layer F.Fab) (width 0.1))
  (fp_line (start 5.18 16) (end 6.08 15.1) (layer F.Fab) (width 0.1))
  (fp_line (start 3.5 16) (end 5.18 16) (layer F.Fab) (width 0.1))
  (fp_line (start 6.98 -16) (end 96.5 -16) (layer F.Fab) (width 0.1))
  (fp_line (start 6.08 -15.1) (end 6.98 -16) (layer F.Fab) (width 0.1))
  (fp_line (start 5.18 -16) (end 6.08 -15.1) (layer F.Fab) (width 0.1))
  (fp_line (start 3.5 -16) (end 5.18 -16) (layer F.Fab) (width 0.1))
  (fp_line (start 96.5 -16) (end 96.5 16) (layer F.Fab) (width 0.1))
  (fp_line (start 3.5 -16) (end 3.5 16) (layer F.Fab) (width 0.1))
  (fp_line (start 3.38 0) (end 44.5 0) (layer F.SilkS) (width 0.12))
  (fp_poly (pts (xy 54.5 9) (xy 50.5 9) (xy 50.5 -9) (xy 54.5 -9)) (layer F.SilkS) (width 0.1))
  (fp_line (start 44.5 9) (end 44.5 -9) (layer F.SilkS) (width 0.12))
  (fp_line (start 48.5 -9) (end 48.5 9) (layer F.SilkS) (width 0.12))
  (fp_line (start 44.5 -9) (end 48.5 -9) (layer F.SilkS) (width 0.12))
  (fp_line (start 54.5 0) (end 96.62 0) (layer F.SilkS) (width 0.12))
  (fp_line (start 48.5 9) (end 44.5 9) (layer F.SilkS) (width 0.12))
  (fp_text user %R (at 50 0) (layer F.Fab)
    (effects (font (size 1 1) (thickness 0.15)))
  )
  (pad 2 thru_hole oval (at 100 0) (size 2.4 2.4) (drill 1.2) (layers *.Cu *.Mask))
  (pad 1 thru_hole rect (at 0 0) (size 2.4 2.4) (drill 1.2) (layers *.Cu *.Mask))
  (model ${KISYS3DMOD}/Capacitor_THT.3dshapes/CP_Axial_L93.0mm_D32.0mm_P100.00mm_Horizontal.wrl
    (at (xyz 0 0 0))
    (scale (xyz 1 1 1))
    (rotate (xyz 0 0 0))
  )
)
