(module CP_Axial_L37.0mm_D20.0mm_P43.00mm_Horizontal (layer F.Cu) (tedit 60781BDF)
  (descr "CP, Axial series, Axial, Horizontal, pin pitch=43mm, , length*diameter=37*20mm^2, Electrolytic Capacitor, , http://www.kemet.com/Lists/ProductCatalog/Attachments/424/KEM_AC102.pdf, Alternate KiCad Library")
  (tags "CP Axial series Axial Horizontal pin pitch 43mm  length 37mm diameter 20mm Electrolytic Capacitor")
  (fp_text reference REF** (at 21.5 -11.12) (layer F.SilkS)
    (effects (font (size 1 1) (thickness 0.15)))
  )
  (fp_text value CP_Axial_L37.0mm_D20.0mm_P43.00mm_Horizontal (at 21.5 11.12) (layer F.Fab)
    (effects (font (size 1 1) (thickness 0.15)))
  )
  (fp_line (start 44.65 -10.25) (end -1.65 -10.25) (layer F.CrtYd) (width 0.05))
  (fp_line (start 44.65 10.25) (end 44.65 -10.25) (layer F.CrtYd) (width 0.05))
  (fp_line (start -1.65 10.25) (end 44.65 10.25) (layer F.CrtYd) (width 0.05))
  (fp_line (start -1.65 -10.25) (end -1.65 10.25) (layer F.CrtYd) (width 0.05))
  (fp_line (start 41.36 0) (end 40.12 0) (layer F.SilkS) (width 0.12))
  (fp_line (start 1.64 0) (end 2.88 0) (layer F.SilkS) (width 0.12))
  (fp_line (start 7.08 10.12) (end 40.12 10.12) (layer F.SilkS) (width 0.12))
  (fp_line (start 6.03 9.07) (end 7.08 10.12) (layer F.SilkS) (width 0.12))
  (fp_line (start 4.98 10.12) (end 6.03 9.07) (layer F.SilkS) (width 0.12))
  (fp_line (start 2.88 10.12) (end 4.98 10.12) (layer F.SilkS) (width 0.12))
  (fp_line (start 7.08 -10.12) (end 40.12 -10.12) (layer F.SilkS) (width 0.12))
  (fp_line (start 6.03 -9.07) (end 7.08 -10.12) (layer F.SilkS) (width 0.12))
  (fp_line (start 4.98 -10.12) (end 6.03 -9.07) (layer F.SilkS) (width 0.12))
  (fp_line (start 2.88 -10.12) (end 4.98 -10.12) (layer F.SilkS) (width 0.12))
  (fp_line (start 40.12 -10.12) (end 40.12 10.12) (layer F.SilkS) (width 0.12))
  (fp_line (start 2.88 -10.12) (end 2.88 10.12) (layer F.SilkS) (width 0.12))
  (fp_line (start 1.48 -4.05) (end 1.48 -1.95) (layer F.SilkS) (width 0.12))
  (fp_line (start 0.43 -3) (end 2.53 -3) (layer F.SilkS) (width 0.12))
  (fp_line (start 6.05 -1.05) (end 6.05 1.05) (layer F.Fab) (width 0.1))
  (fp_line (start 5 0) (end 7.1 0) (layer F.Fab) (width 0.1))
  (fp_line (start 43 0) (end 40 0) (layer F.Fab) (width 0.1))
  (fp_line (start 0 0) (end 3 0) (layer F.Fab) (width 0.1))
  (fp_line (start 7.08 10) (end 40 10) (layer F.Fab) (width 0.1))
  (fp_line (start 6.03 8.95) (end 7.08 10) (layer F.Fab) (width 0.1))
  (fp_line (start 4.98 10) (end 6.03 8.95) (layer F.Fab) (width 0.1))
  (fp_line (start 3 10) (end 4.98 10) (layer F.Fab) (width 0.1))
  (fp_line (start 7.08 -10) (end 40 -10) (layer F.Fab) (width 0.1))
  (fp_line (start 6.03 -8.95) (end 7.08 -10) (layer F.Fab) (width 0.1))
  (fp_line (start 4.98 -10) (end 6.03 -8.95) (layer F.Fab) (width 0.1))
  (fp_line (start 3 -10) (end 4.98 -10) (layer F.Fab) (width 0.1))
  (fp_line (start 40 -10) (end 40 10) (layer F.Fab) (width 0.1))
  (fp_line (start 3 -10) (end 3 10) (layer F.Fab) (width 0.1))
  (fp_line (start 19.25 0) (end 19.25 -3.75) (layer F.SilkS) (width 0.12))
  (fp_poly (pts (xy 23.75 3.75) (xy 22.5 3.75) (xy 22.5 -3.75) (xy 23.75 -3.75)) (layer F.SilkS) (width 0.1))
  (fp_line (start 19.25 3.75) (end 19.25 0) (layer F.SilkS) (width 0.12))
  (fp_line (start 19.25 -3.75) (end 20.5 -3.75) (layer F.SilkS) (width 0.12))
  (fp_line (start 23.75 0) (end 40.132 0) (layer F.SilkS) (width 0.12))
  (fp_line (start 2.88 0) (end 19.25 0) (layer F.SilkS) (width 0.12))
  (fp_line (start 20.5 -3.75) (end 20.5 3.75) (layer F.SilkS) (width 0.12))
  (fp_line (start 20.5 3.75) (end 19.25 3.75) (layer F.SilkS) (width 0.12))
  (fp_text user %R (at 21.5 0) (layer F.Fab)
    (effects (font (size 1 1) (thickness 0.15)))
  )
  (pad 2 thru_hole oval (at 43 0) (size 2.8 2.8) (drill 1.4) (layers *.Cu *.Mask))
  (pad 1 thru_hole rect (at 0 0) (size 2.8 2.8) (drill 1.4) (layers *.Cu *.Mask))
  (model ${KISYS3DMOD}/Capacitor_THT.3dshapes/CP_Axial_L37.0mm_D20.0mm_P43.00mm_Horizontal.wrl
    (at (xyz 0 0 0))
    (scale (xyz 1 1 1))
    (rotate (xyz 0 0 0))
  )
)
