(module CP_Axial_L80.0mm_D23.0mm_P85.00mm_Horizontal_Supported (layer F.Cu) (tedit 60781D21)
  (descr "CP, Axial series, Axial, Horizontal, Additional holes for supports, pin pitch=85mm, , length*diameter=80*23.0mm^2, Electrolytic Capacitor, , http://www.vishay.com/docs/42037/53d.pdf, Alternate KiCad Library")
  (tags "CP Axial series Axial Horizontal pin pitch 85mm  length 80mm diameter 23.0mm Electrolytic Capacitor Support")
  (fp_text reference REF** (at 42.5 -13.87) (layer F.SilkS)
    (effects (font (size 1 1) (thickness 0.15)))
  )
  (fp_text value CP_Axial_L80.0mm_D23.0mm_P85.00mm_Horizontal_Supported (at 42.5 12.62) (layer F.Fab)
    (effects (font (size 1 1) (thickness 0.15)))
  )
  (fp_line (start 83.56 0) (end 82.62 0) (layer F.SilkS) (width 0.12))
  (fp_line (start 1.44 0) (end 2.38 0) (layer F.SilkS) (width 0.12))
  (fp_line (start 5.98 11.62) (end 21.75 11.62) (layer F.SilkS) (width 0.12))
  (fp_line (start 5.08 10.72) (end 5.98 11.62) (layer F.SilkS) (width 0.12))
  (fp_line (start 4.18 11.62) (end 5.08 10.72) (layer F.SilkS) (width 0.12))
  (fp_line (start 2.38 11.62) (end 4.18 11.62) (layer F.SilkS) (width 0.12))
  (fp_line (start 5.98 -11.62) (end 21.75 -11.62) (layer F.SilkS) (width 0.12))
  (fp_line (start 5.08 -10.72) (end 5.98 -11.62) (layer F.SilkS) (width 0.12))
  (fp_line (start 4.18 -11.62) (end 5.08 -10.72) (layer F.SilkS) (width 0.12))
  (fp_line (start 2.38 -11.62) (end 4.18 -11.62) (layer F.SilkS) (width 0.12))
  (fp_line (start 82.62 -11.62) (end 82.62 11.62) (layer F.SilkS) (width 0.12))
  (fp_line (start 2.38 -11.62) (end 2.38 11.62) (layer F.SilkS) (width 0.12))
  (fp_line (start 1.18 -3.5) (end 1.18 -1.7) (layer F.SilkS) (width 0.12))
  (fp_line (start 0.28 -2.6) (end 2.08 -2.6) (layer F.SilkS) (width 0.12))
  (fp_line (start 37.5 9) (end 37.5 -9) (layer F.SilkS) (width 0.12))
  (fp_line (start 37.5 -9) (end 41.5 -9) (layer F.SilkS) (width 0.12))
  (fp_line (start 41.5 -9) (end 41.5 9) (layer F.SilkS) (width 0.12))
  (fp_line (start 41.5 9) (end 37.5 9) (layer F.SilkS) (width 0.12))
  (fp_line (start 47 0) (end 82.62 0) (layer F.SilkS) (width 0.12))
  (fp_line (start 2.38 0) (end 37.5 0) (layer F.SilkS) (width 0.12))
  (fp_poly (pts (xy 47.5 9) (xy 43.5 9) (xy 43.5 -9) (xy 47.5 -9)) (layer F.SilkS) (width 0.1))
  (fp_line (start 86.45 -11.75) (end -1.45 -11.75) (layer F.CrtYd) (width 0.05))
  (fp_line (start 86.45 11.75) (end 86.45 -11.75) (layer F.CrtYd) (width 0.05))
  (fp_line (start -1.45 11.75) (end 86.45 11.75) (layer F.CrtYd) (width 0.05))
  (fp_line (start -1.45 -11.75) (end -1.45 11.75) (layer F.CrtYd) (width 0.05))
  (fp_line (start 5.1 -0.9) (end 5.1 0.9) (layer F.Fab) (width 0.1))
  (fp_line (start 4.2 0) (end 6 0) (layer F.Fab) (width 0.1))
  (fp_line (start 85 0) (end 82.5 0) (layer F.Fab) (width 0.1))
  (fp_line (start 0 0) (end 2.5 0) (layer F.Fab) (width 0.1))
  (fp_line (start 5.98 11.5) (end 82.5 11.5) (layer F.Fab) (width 0.1))
  (fp_line (start 5.08 10.6) (end 5.98 11.5) (layer F.Fab) (width 0.1))
  (fp_line (start 4.18 11.5) (end 5.08 10.6) (layer F.Fab) (width 0.1))
  (fp_line (start 2.5 11.5) (end 4.18 11.5) (layer F.Fab) (width 0.1))
  (fp_line (start 5.98 -11.5) (end 82.5 -11.5) (layer F.Fab) (width 0.1))
  (fp_line (start 5.08 -10.6) (end 5.98 -11.5) (layer F.Fab) (width 0.1))
  (fp_line (start 4.18 -11.5) (end 5.08 -10.6) (layer F.Fab) (width 0.1))
  (fp_line (start 2.5 -11.5) (end 4.18 -11.5) (layer F.Fab) (width 0.1))
  (fp_line (start 82.5 -11.5) (end 82.5 11.5) (layer F.Fab) (width 0.1))
  (fp_line (start 2.5 -11.5) (end 2.5 11.5) (layer F.Fab) (width 0.1))
  (fp_line (start 23.25 -11.62) (end 41.75 -11.62) (layer F.SilkS) (width 0.12))
  (fp_line (start 43.25 -11.62) (end 61.75 -11.62) (layer F.SilkS) (width 0.12))
  (fp_line (start 63.25 -11.62) (end 82.62 -11.62) (layer F.SilkS) (width 0.12))
  (fp_line (start 23.25 11.62) (end 41.75 11.62) (layer F.SilkS) (width 0.12))
  (fp_line (start 43.25 11.62) (end 61.75 11.62) (layer F.SilkS) (width 0.12))
  (fp_line (start 63.25 11.62) (end 82.62 11.62) (layer F.SilkS) (width 0.12))
  (fp_text user %R (at 43 0) (layer F.Fab)
    (effects (font (size 1 1) (thickness 0.15)))
  )
  (pad ~ thru_hole circle (at 62.5 -12.25) (size 1.524 1.524) (drill 0.762) (layers *.Cu *.Mask))
  (pad ~ thru_hole circle (at 62.5 12.25) (size 1.524 1.524) (drill 0.762) (layers *.Cu *.Mask))
  (pad ~ thru_hole circle (at 42.5 12.25) (size 1.524 1.524) (drill 0.762) (layers *.Cu *.Mask))
  (pad ~ thru_hole circle (at 22.5 12.25) (size 1.524 1.524) (drill 0.762) (layers *.Cu *.Mask))
  (pad ~ thru_hole circle (at 22.5 -12.25) (size 1.524 1.524) (drill 0.762) (layers *.Cu *.Mask))
  (pad ~ thru_hole circle (at 42.5 -12.25) (size 1.524 1.524) (drill 0.762) (layers *.Cu *.Mask))
  (pad 2 thru_hole oval (at 85 0) (size 2.4 2.4) (drill 1.2) (layers *.Cu *.Mask))
  (pad 1 thru_hole rect (at 0 0) (size 2.4 2.4) (drill 1.2) (layers *.Cu *.Mask))
  (model ${KISYS3DMOD}/Capacitor_THT.3dshapes/CP_Axial_L80.0mm_D23.0mm_P85.00mm_Horizontal.wrl
    (at (xyz 0 0 0))
    (scale (xyz 1 1 1))
    (rotate (xyz 0 0 0))
  )
)
