(module CP_Axial_L37.0mm_D13.0mm_P43.00mm_Horizontal_Supported (layer F.Cu) (tedit 60781BCD)
  (descr "CP, Axial series, Axial, Horizontal, Additional holes for supports, pin pitch=43mm, , length*diameter=37*13mm^2, Electrolytic Capacitor, , http://www.kemet.com/Lists/ProductCatalog/Attachments/424/KEM_AC102.pdf, Alternate KiCad Library")
  (tags "CP Axial series Axial Horizontal pin pitch 43mm  length 37mm diameter 13mm Electrolytic Capacitor Support")
  (fp_text reference REF** (at 21.5 -8.87) (layer F.SilkS)
    (effects (font (size 1 1) (thickness 0.15)))
  )
  (fp_text value CP_Axial_L37.0mm_D13.0mm_P43.00mm_Horizontal_Supported (at 21.5 7.62) (layer F.Fab)
    (effects (font (size 1 1) (thickness 0.15)))
  )
  (fp_line (start 22.25 6.62) (end 40.12 6.62) (layer F.SilkS) (width 0.12))
  (fp_line (start 22.25 -6.62) (end 40.12 -6.62) (layer F.SilkS) (width 0.12))
  (fp_line (start 3 -6.5) (end 3 6.5) (layer F.Fab) (width 0.1))
  (fp_line (start 40 -6.5) (end 40 6.5) (layer F.Fab) (width 0.1))
  (fp_line (start 3 -6.5) (end 4.68 -6.5) (layer F.Fab) (width 0.1))
  (fp_line (start 4.68 -6.5) (end 5.58 -5.6) (layer F.Fab) (width 0.1))
  (fp_line (start 5.58 -5.6) (end 6.48 -6.5) (layer F.Fab) (width 0.1))
  (fp_line (start 6.48 -6.5) (end 40 -6.5) (layer F.Fab) (width 0.1))
  (fp_line (start 3 6.5) (end 4.68 6.5) (layer F.Fab) (width 0.1))
  (fp_line (start 4.68 6.5) (end 5.58 5.6) (layer F.Fab) (width 0.1))
  (fp_line (start 5.58 5.6) (end 6.48 6.5) (layer F.Fab) (width 0.1))
  (fp_line (start 6.48 6.5) (end 40 6.5) (layer F.Fab) (width 0.1))
  (fp_line (start 0 0) (end 3 0) (layer F.Fab) (width 0.1))
  (fp_line (start 43 0) (end 40 0) (layer F.Fab) (width 0.1))
  (fp_line (start 4.7 0) (end 6.5 0) (layer F.Fab) (width 0.1))
  (fp_line (start 5.6 -0.9) (end 5.6 0.9) (layer F.Fab) (width 0.1))
  (fp_line (start -1.45 -6.75) (end -1.45 6.75) (layer F.CrtYd) (width 0.05))
  (fp_line (start -1.45 6.75) (end 44.45 6.75) (layer F.CrtYd) (width 0.05))
  (fp_line (start 44.45 6.75) (end 44.45 -6.75) (layer F.CrtYd) (width 0.05))
  (fp_line (start 44.45 -6.75) (end -1.45 -6.75) (layer F.CrtYd) (width 0.05))
  (fp_poly (pts (xy 23.75 3.75) (xy 22.5 3.75) (xy 22.5 -3.75) (xy 23.75 -3.75)) (layer F.SilkS) (width 0.1))
  (fp_line (start 20.5 -3.75) (end 20.5 3.75) (layer F.SilkS) (width 0.12))
  (fp_line (start 20.5 3.75) (end 19.25 3.75) (layer F.SilkS) (width 0.12))
  (fp_line (start 19.25 3.75) (end 19.25 0) (layer F.SilkS) (width 0.12))
  (fp_line (start 2.88 0) (end 19.25 0) (layer F.SilkS) (width 0.12))
  (fp_line (start 19.25 -3.75) (end 20.5 -3.75) (layer F.SilkS) (width 0.12))
  (fp_line (start 19.25 0) (end 19.25 -3.75) (layer F.SilkS) (width 0.12))
  (fp_line (start 23.75 0) (end 40.132 0) (layer F.SilkS) (width 0.12))
  (fp_line (start 0.78 -2.6) (end 2.58 -2.6) (layer F.SilkS) (width 0.12))
  (fp_line (start 1.68 -3.5) (end 1.68 -1.7) (layer F.SilkS) (width 0.12))
  (fp_line (start 2.88 -6.62) (end 2.88 6.62) (layer F.SilkS) (width 0.12))
  (fp_line (start 40.12 -6.62) (end 40.12 6.62) (layer F.SilkS) (width 0.12))
  (fp_line (start 2.88 -6.62) (end 4.68 -6.62) (layer F.SilkS) (width 0.12))
  (fp_line (start 4.68 -6.62) (end 5.58 -5.72) (layer F.SilkS) (width 0.12))
  (fp_line (start 5.58 -5.72) (end 6.48 -6.62) (layer F.SilkS) (width 0.12))
  (fp_line (start 6.48 -6.62) (end 20.75 -6.62) (layer F.SilkS) (width 0.12))
  (fp_line (start 2.88 6.62) (end 4.68 6.62) (layer F.SilkS) (width 0.12))
  (fp_line (start 4.68 6.62) (end 5.58 5.72) (layer F.SilkS) (width 0.12))
  (fp_line (start 5.58 5.72) (end 6.48 6.62) (layer F.SilkS) (width 0.12))
  (fp_line (start 6.48 6.62) (end 20.75 6.62) (layer F.SilkS) (width 0.12))
  (fp_line (start 1.44 0) (end 2.88 0) (layer F.SilkS) (width 0.12))
  (fp_line (start 41.56 0) (end 40.12 0) (layer F.SilkS) (width 0.12))
  (fp_text user %R (at 21.5 0) (layer F.Fab)
    (effects (font (size 1 1) (thickness 0.15)))
  )
  (pad ~ thru_hole circle (at 21.5 7.25) (size 1.524 1.524) (drill 0.762) (layers *.Cu *.Mask))
  (pad ~ thru_hole circle (at 21.5 -7.25) (size 1.524 1.524) (drill 0.762) (layers *.Cu *.Mask))
  (pad 2 thru_hole oval (at 43 0) (size 2.4 2.4) (drill 1.2) (layers *.Cu *.Mask))
  (pad 1 thru_hole rect (at 0 0) (size 2.4 2.4) (drill 1.2) (layers *.Cu *.Mask))
  (model ${KISYS3DMOD}/Capacitor_THT.3dshapes/CP_Axial_L37.0mm_D13.0mm_P43.00mm_Horizontal.wrl
    (at (xyz 0 0 0))
    (scale (xyz 1 1 1))
    (rotate (xyz 0 0 0))
  )
)
