(module CP_Axial_L34.5mm_D20.0mm_P41.00mm_Horizontal (layer F.Cu) (tedit 60781BBC)
  (descr "CP, Axial series, Axial, Horizontal, pin pitch=41mm, , length*diameter=34.5*20mm^2, Electrolytic Capacitor, , http://www.kemet.com/Lists/ProductCatalog/Attachments/424/KEM_AC102.pdf, Alternate KiCad Library")
  (tags "CP Axial series Axial Horizontal pin pitch 41mm  length 34.5mm diameter 20mm Electrolytic Capacitor")
  (fp_text reference REF** (at 20.5 -11.12) (layer F.SilkS)
    (effects (font (size 1 1) (thickness 0.15)))
  )
  (fp_text value CP_Axial_L34.5mm_D20.0mm_P41.00mm_Horizontal (at 20.5 11.12) (layer F.Fab)
    (effects (font (size 1 1) (thickness 0.15)))
  )
  (fp_line (start 42.65 -10.25) (end -1.65 -10.25) (layer F.CrtYd) (width 0.05))
  (fp_line (start 42.65 10.25) (end 42.65 -10.25) (layer F.CrtYd) (width 0.05))
  (fp_line (start -1.65 10.25) (end 42.65 10.25) (layer F.CrtYd) (width 0.05))
  (fp_line (start -1.65 -10.25) (end -1.65 10.25) (layer F.CrtYd) (width 0.05))
  (fp_line (start 39.36 0) (end 37.87 0) (layer F.SilkS) (width 0.12))
  (fp_line (start 1.64 0) (end 3.13 0) (layer F.SilkS) (width 0.12))
  (fp_line (start 7.33 10.12) (end 37.87 10.12) (layer F.SilkS) (width 0.12))
  (fp_line (start 6.28 9.07) (end 7.33 10.12) (layer F.SilkS) (width 0.12))
  (fp_line (start 5.23 10.12) (end 6.28 9.07) (layer F.SilkS) (width 0.12))
  (fp_line (start 3.13 10.12) (end 5.23 10.12) (layer F.SilkS) (width 0.12))
  (fp_line (start 7.33 -10.12) (end 37.87 -10.12) (layer F.SilkS) (width 0.12))
  (fp_line (start 6.28 -9.07) (end 7.33 -10.12) (layer F.SilkS) (width 0.12))
  (fp_line (start 5.23 -10.12) (end 6.28 -9.07) (layer F.SilkS) (width 0.12))
  (fp_line (start 3.13 -10.12) (end 5.23 -10.12) (layer F.SilkS) (width 0.12))
  (fp_line (start 37.87 -10.12) (end 37.87 10.12) (layer F.SilkS) (width 0.12))
  (fp_line (start 3.13 -10.12) (end 3.13 10.12) (layer F.SilkS) (width 0.12))
  (fp_line (start 1.73 -4.05) (end 1.73 -1.95) (layer F.SilkS) (width 0.12))
  (fp_line (start 0.68 -3) (end 2.78 -3) (layer F.SilkS) (width 0.12))
  (fp_line (start 6.3 -1.05) (end 6.3 1.05) (layer F.Fab) (width 0.1))
  (fp_line (start 5.25 0) (end 7.35 0) (layer F.Fab) (width 0.1))
  (fp_line (start 41 0) (end 37.75 0) (layer F.Fab) (width 0.1))
  (fp_line (start 0 0) (end 3.25 0) (layer F.Fab) (width 0.1))
  (fp_line (start 7.33 10) (end 37.75 10) (layer F.Fab) (width 0.1))
  (fp_line (start 6.28 8.95) (end 7.33 10) (layer F.Fab) (width 0.1))
  (fp_line (start 5.23 10) (end 6.28 8.95) (layer F.Fab) (width 0.1))
  (fp_line (start 3.25 10) (end 5.23 10) (layer F.Fab) (width 0.1))
  (fp_line (start 7.33 -10) (end 37.75 -10) (layer F.Fab) (width 0.1))
  (fp_line (start 6.28 -8.95) (end 7.33 -10) (layer F.Fab) (width 0.1))
  (fp_line (start 5.23 -10) (end 6.28 -8.95) (layer F.Fab) (width 0.1))
  (fp_line (start 3.25 -10) (end 5.23 -10) (layer F.Fab) (width 0.1))
  (fp_line (start 37.75 -10) (end 37.75 10) (layer F.Fab) (width 0.1))
  (fp_line (start 3.25 -10) (end 3.25 10) (layer F.Fab) (width 0.1))
  (fp_line (start 18.25 -3.75) (end 19.5 -3.75) (layer F.SilkS) (width 0.12))
  (fp_line (start 18.25 0) (end 18.25 -3.75) (layer F.SilkS) (width 0.12))
  (fp_poly (pts (xy 22.75 3.75) (xy 21.5 3.75) (xy 21.5 -3.75) (xy 22.75 -3.75)) (layer F.SilkS) (width 0.1))
  (fp_line (start 22.75 0) (end 37.87 0) (layer F.SilkS) (width 0.12))
  (fp_line (start 3.1115 0) (end 18.25 0) (layer F.SilkS) (width 0.12))
  (fp_line (start 18.25 3.75) (end 18.25 0) (layer F.SilkS) (width 0.12))
  (fp_line (start 19.5 3.75) (end 18.25 3.75) (layer F.SilkS) (width 0.12))
  (fp_line (start 19.5 -3.75) (end 19.5 3.75) (layer F.SilkS) (width 0.12))
  (fp_text user %R (at 20.5 0) (layer F.Fab)
    (effects (font (size 1 1) (thickness 0.15)))
  )
  (pad 2 thru_hole oval (at 41 0) (size 2.8 2.8) (drill 1.4) (layers *.Cu *.Mask))
  (pad 1 thru_hole rect (at 0 0) (size 2.8 2.8) (drill 1.4) (layers *.Cu *.Mask))
  (model ${KISYS3DMOD}/Capacitor_THT.3dshapes/CP_Axial_L34.5mm_D20.0mm_P41.00mm_Horizontal.wrl
    (at (xyz 0 0 0))
    (scale (xyz 1 1 1))
    (rotate (xyz 0 0 0))
  )
)
