(module CP_Axial_L55.0mm_D35.0mm_P60.00mm_Horizontal (layer F.Cu) (tedit 60781CCC)
  (descr "CP, Axial series, Axial, Horizontal, pin pitch=60mm, , length*diameter=55*35.0mm^2, Electrolytic Capacitor, , http://www.vishay.com/docs/42037/53d.pdf, Alternate KiCad Library")
  (tags "CP Axial series Axial Horizontal pin pitch 60mm  length 55mm diameter 35.0mm Electrolytic Capacitor")
  (fp_text reference REF** (at 30 -18.62) (layer F.SilkS)
    (effects (font (size 1 1) (thickness 0.15)))
  )
  (fp_text value CP_Axial_L55.0mm_D35.0mm_P60.00mm_Horizontal (at 30 18.62) (layer F.Fab)
    (effects (font (size 1 1) (thickness 0.15)))
  )
  (fp_line (start 61.45 -17.75) (end -1.45 -17.75) (layer F.CrtYd) (width 0.05))
  (fp_line (start 61.45 17.75) (end 61.45 -17.75) (layer F.CrtYd) (width 0.05))
  (fp_line (start -1.45 17.75) (end 61.45 17.75) (layer F.CrtYd) (width 0.05))
  (fp_line (start -1.45 -17.75) (end -1.45 17.75) (layer F.CrtYd) (width 0.05))
  (fp_line (start 58.56 0) (end 57.62 0) (layer F.SilkS) (width 0.12))
  (fp_line (start 1.44 0) (end 2.38 0) (layer F.SilkS) (width 0.12))
  (fp_line (start 5.98 17.62) (end 57.62 17.62) (layer F.SilkS) (width 0.12))
  (fp_line (start 5.08 16.72) (end 5.98 17.62) (layer F.SilkS) (width 0.12))
  (fp_line (start 4.18 17.62) (end 5.08 16.72) (layer F.SilkS) (width 0.12))
  (fp_line (start 2.38 17.62) (end 4.18 17.62) (layer F.SilkS) (width 0.12))
  (fp_line (start 5.98 -17.62) (end 57.62 -17.62) (layer F.SilkS) (width 0.12))
  (fp_line (start 5.08 -16.72) (end 5.98 -17.62) (layer F.SilkS) (width 0.12))
  (fp_line (start 4.18 -17.62) (end 5.08 -16.72) (layer F.SilkS) (width 0.12))
  (fp_line (start 2.38 -17.62) (end 4.18 -17.62) (layer F.SilkS) (width 0.12))
  (fp_line (start 57.62 -17.62) (end 57.62 17.62) (layer F.SilkS) (width 0.12))
  (fp_line (start 2.38 -17.62) (end 2.38 17.62) (layer F.SilkS) (width 0.12))
  (fp_line (start 1.18 -3.5) (end 1.18 -1.7) (layer F.SilkS) (width 0.12))
  (fp_line (start 0.28 -2.6) (end 2.08 -2.6) (layer F.SilkS) (width 0.12))
  (fp_line (start 5.1 -0.9) (end 5.1 0.9) (layer F.Fab) (width 0.1))
  (fp_line (start 4.2 0) (end 6 0) (layer F.Fab) (width 0.1))
  (fp_line (start 60 0) (end 57.5 0) (layer F.Fab) (width 0.1))
  (fp_line (start 0 0) (end 2.5 0) (layer F.Fab) (width 0.1))
  (fp_line (start 5.98 17.5) (end 57.5 17.5) (layer F.Fab) (width 0.1))
  (fp_line (start 5.08 16.6) (end 5.98 17.5) (layer F.Fab) (width 0.1))
  (fp_line (start 4.18 17.5) (end 5.08 16.6) (layer F.Fab) (width 0.1))
  (fp_line (start 2.5 17.5) (end 4.18 17.5) (layer F.Fab) (width 0.1))
  (fp_line (start 5.98 -17.5) (end 57.5 -17.5) (layer F.Fab) (width 0.1))
  (fp_line (start 5.08 -16.6) (end 5.98 -17.5) (layer F.Fab) (width 0.1))
  (fp_line (start 4.18 -17.5) (end 5.08 -16.6) (layer F.Fab) (width 0.1))
  (fp_line (start 2.5 -17.5) (end 4.18 -17.5) (layer F.Fab) (width 0.1))
  (fp_line (start 57.5 -17.5) (end 57.5 17.5) (layer F.Fab) (width 0.1))
  (fp_line (start 2.5 -17.5) (end 2.5 17.5) (layer F.Fab) (width 0.1))
  (fp_line (start 2.38 0) (end 27.25 0) (layer F.SilkS) (width 0.12))
  (fp_line (start 31.75 0) (end 57.62 0) (layer F.SilkS) (width 0.12))
  (fp_line (start 28.5 -3.75) (end 28.5 3.75) (layer F.SilkS) (width 0.12))
  (fp_line (start 27.25 -3.75) (end 28.5 -3.75) (layer F.SilkS) (width 0.12))
  (fp_line (start 27.25 3.75) (end 27.25 0) (layer F.SilkS) (width 0.12))
  (fp_poly (pts (xy 31.75 3.75) (xy 30.5 3.75) (xy 30.5 -3.75) (xy 31.75 -3.75)) (layer F.SilkS) (width 0.1))
  (fp_line (start 28.5 3.75) (end 27.25 3.75) (layer F.SilkS) (width 0.12))
  (fp_line (start 27.25 0) (end 27.25 -3.75) (layer F.SilkS) (width 0.12))
  (fp_text user %R (at 30 0) (layer F.Fab)
    (effects (font (size 1 1) (thickness 0.15)))
  )
  (pad 2 thru_hole oval (at 60 0) (size 2.4 2.4) (drill 1.2) (layers *.Cu *.Mask))
  (pad 1 thru_hole rect (at 0 0) (size 2.4 2.4) (drill 1.2) (layers *.Cu *.Mask))
  (model ${KISYS3DMOD}/Capacitor_THT.3dshapes/CP_Axial_L55.0mm_D35.0mm_P60.00mm_Horizontal.wrl
    (at (xyz 0 0 0))
    (scale (xyz 1 1 1))
    (rotate (xyz 0 0 0))
  )
)
