(module CP_Axial_L11.0mm_D6.0mm_P18.00mm_Horizontal (layer F.Cu) (tedit 60781B07)
  (descr "CP, Axial series, Axial, Horizontal, pin pitch=18mm, , length*diameter=11*6mm^2, Electrolytic Capacitor, Alternate KiCad Library")
  (tags "CP Axial series Axial Horizontal pin pitch 18mm  length 11mm diameter 6mm Electrolytic Capacitor")
  (fp_text reference REF** (at 9 -4.12) (layer F.SilkS)
    (effects (font (size 1 1) (thickness 0.15)))
  )
  (fp_text value CP_Axial_L11.0mm_D6.0mm_P18.00mm_Horizontal (at 9 4.12) (layer F.Fab)
    (effects (font (size 1 1) (thickness 0.15)))
  )
  (fp_line (start 19.45 -3.25) (end -1.45 -3.25) (layer F.CrtYd) (width 0.05))
  (fp_line (start 19.45 3.25) (end 19.45 -3.25) (layer F.CrtYd) (width 0.05))
  (fp_line (start -1.45 3.25) (end 19.45 3.25) (layer F.CrtYd) (width 0.05))
  (fp_line (start -1.45 -3.25) (end -1.45 3.25) (layer F.CrtYd) (width 0.05))
  (fp_line (start 16.56 0) (end 14.62 0) (layer F.SilkS) (width 0.12))
  (fp_line (start 1.44 0) (end 3.38 0) (layer F.SilkS) (width 0.12))
  (fp_line (start 6.98 3.12) (end 14.62 3.12) (layer F.SilkS) (width 0.12))
  (fp_line (start 6.08 2.22) (end 6.98 3.12) (layer F.SilkS) (width 0.12))
  (fp_line (start 5.18 3.12) (end 6.08 2.22) (layer F.SilkS) (width 0.12))
  (fp_line (start 3.38 3.12) (end 5.18 3.12) (layer F.SilkS) (width 0.12))
  (fp_line (start 6.98 -3.12) (end 14.62 -3.12) (layer F.SilkS) (width 0.12))
  (fp_line (start 6.08 -2.22) (end 6.98 -3.12) (layer F.SilkS) (width 0.12))
  (fp_line (start 5.18 -3.12) (end 6.08 -2.22) (layer F.SilkS) (width 0.12))
  (fp_line (start 3.38 -3.12) (end 5.18 -3.12) (layer F.SilkS) (width 0.12))
  (fp_line (start 14.62 -3.12) (end 14.62 3.12) (layer F.SilkS) (width 0.12))
  (fp_line (start 3.38 -3.12) (end 3.38 3.12) (layer F.SilkS) (width 0.12))
  (fp_line (start 2.18 -3.5) (end 2.18 -1.7) (layer F.SilkS) (width 0.12))
  (fp_line (start 1.28 -2.6) (end 3.08 -2.6) (layer F.SilkS) (width 0.12))
  (fp_line (start 6.1 -0.9) (end 6.1 0.9) (layer F.Fab) (width 0.1))
  (fp_line (start 5.2 0) (end 7 0) (layer F.Fab) (width 0.1))
  (fp_line (start 18 0) (end 14.5 0) (layer F.Fab) (width 0.1))
  (fp_line (start 0 0) (end 3.5 0) (layer F.Fab) (width 0.1))
  (fp_line (start 6.98 3) (end 14.5 3) (layer F.Fab) (width 0.1))
  (fp_line (start 6.08 2.1) (end 6.98 3) (layer F.Fab) (width 0.1))
  (fp_line (start 5.18 3) (end 6.08 2.1) (layer F.Fab) (width 0.1))
  (fp_line (start 3.5 3) (end 5.18 3) (layer F.Fab) (width 0.1))
  (fp_line (start 6.98 -3) (end 14.5 -3) (layer F.Fab) (width 0.1))
  (fp_line (start 6.08 -2.1) (end 6.98 -3) (layer F.Fab) (width 0.1))
  (fp_line (start 5.18 -3) (end 6.08 -2.1) (layer F.Fab) (width 0.1))
  (fp_line (start 3.5 -3) (end 5.18 -3) (layer F.Fab) (width 0.1))
  (fp_line (start 14.5 -3) (end 14.5 3) (layer F.Fab) (width 0.1))
  (fp_line (start 3.5 -3) (end 3.5 3) (layer F.Fab) (width 0.1))
  (fp_line (start 8.44 1.75) (end 7.69 1.75) (layer F.SilkS) (width 0.12))
  (fp_line (start 3.38 0) (end 7.69 0) (layer F.SilkS) (width 0.12))
  (fp_line (start 10.19 0) (end 14.62 0) (layer F.SilkS) (width 0.12))
  (fp_line (start 8.44 -1.75) (end 8.44 1.75) (layer F.SilkS) (width 0.12))
  (fp_poly (pts (xy 10.19 1.75) (xy 9.44 1.75) (xy 9.44 -1.75) (xy 10.19 -1.75)) (layer F.SilkS) (width 0.1))
  (fp_line (start 7.69 -1.75) (end 8.44 -1.75) (layer F.SilkS) (width 0.12))
  (fp_line (start 7.69 -1.75) (end 7.69 1.75) (layer F.SilkS) (width 0.12))
  (fp_text user %R (at 9 0) (layer F.Fab)
    (effects (font (size 1 1) (thickness 0.15)))
  )
  (fp_text user %R (at 8.94 0) (layer F.Fab)
    (effects (font (size 1 1) (thickness 0.15)))
  )
  (fp_text user %R (at 9 0) (layer F.Fab)
    (effects (font (size 1 1) (thickness 0.15)))
  )
  (pad 2 thru_hole oval (at 18 0) (size 2.4 2.4) (drill 1.2) (layers *.Cu *.Mask))
  (pad 1 thru_hole rect (at 0 0) (size 2.4 2.4) (drill 1.2) (layers *.Cu *.Mask))
  (model ${KISYS3DMOD}/Capacitor_THT.3dshapes/CP_Axial_L11.0mm_D6.0mm_P18.00mm_Horizontal.wrl
    (at (xyz 0 0 0))
    (scale (xyz 1 1 1))
    (rotate (xyz 0 0 0))
  )
)
