(module CP_Axial_L30.0mm_D10.0mm_P35.00mm_Horizontal (layer F.Cu) (tedit 60781B8B)
  (descr "CP, Axial series, Axial, Horizontal, pin pitch=35mm, , length*diameter=30*10mm^2, Electrolytic Capacitor, , http://www.vishay.com/docs/28325/021asm.pdf, Alternate KiCad Library")
  (tags "CP Axial series Axial Horizontal pin pitch 35mm  length 30mm diameter 10mm Electrolytic Capacitor")
  (fp_text reference REF** (at 17.5 -6.12) (layer F.SilkS)
    (effects (font (size 1 1) (thickness 0.15)))
  )
  (fp_text value CP_Axial_L30.0mm_D10.0mm_P35.00mm_Horizontal (at 17.5 6.12) (layer F.Fab)
    (effects (font (size 1 1) (thickness 0.15)))
  )
  (fp_line (start 36.45 -5.25) (end -1.45 -5.25) (layer F.CrtYd) (width 0.05))
  (fp_line (start 36.45 5.25) (end 36.45 -5.25) (layer F.CrtYd) (width 0.05))
  (fp_line (start -1.45 5.25) (end 36.45 5.25) (layer F.CrtYd) (width 0.05))
  (fp_line (start -1.45 -5.25) (end -1.45 5.25) (layer F.CrtYd) (width 0.05))
  (fp_line (start 33.56 0) (end 32.62 0) (layer F.SilkS) (width 0.12))
  (fp_line (start 1.44 0) (end 2.38 0) (layer F.SilkS) (width 0.12))
  (fp_line (start 5.98 5.12) (end 32.62 5.12) (layer F.SilkS) (width 0.12))
  (fp_line (start 5.08 4.22) (end 5.98 5.12) (layer F.SilkS) (width 0.12))
  (fp_line (start 4.18 5.12) (end 5.08 4.22) (layer F.SilkS) (width 0.12))
  (fp_line (start 2.38 5.12) (end 4.18 5.12) (layer F.SilkS) (width 0.12))
  (fp_line (start 5.98 -5.12) (end 32.62 -5.12) (layer F.SilkS) (width 0.12))
  (fp_line (start 5.08 -4.22) (end 5.98 -5.12) (layer F.SilkS) (width 0.12))
  (fp_line (start 4.18 -5.12) (end 5.08 -4.22) (layer F.SilkS) (width 0.12))
  (fp_line (start 2.38 -5.12) (end 4.18 -5.12) (layer F.SilkS) (width 0.12))
  (fp_line (start 32.62 -5.12) (end 32.62 5.12) (layer F.SilkS) (width 0.12))
  (fp_line (start 2.38 -5.12) (end 2.38 5.12) (layer F.SilkS) (width 0.12))
  (fp_line (start 1.18 -3.5) (end 1.18 -1.7) (layer F.SilkS) (width 0.12))
  (fp_line (start 0.28 -2.6) (end 2.08 -2.6) (layer F.SilkS) (width 0.12))
  (fp_line (start 5.1 -0.9) (end 5.1 0.9) (layer F.Fab) (width 0.1))
  (fp_line (start 4.2 0) (end 6 0) (layer F.Fab) (width 0.1))
  (fp_line (start 35 0) (end 32.5 0) (layer F.Fab) (width 0.1))
  (fp_line (start 0 0) (end 2.5 0) (layer F.Fab) (width 0.1))
  (fp_line (start 5.98 5) (end 32.5 5) (layer F.Fab) (width 0.1))
  (fp_line (start 5.08 4.1) (end 5.98 5) (layer F.Fab) (width 0.1))
  (fp_line (start 4.18 5) (end 5.08 4.1) (layer F.Fab) (width 0.1))
  (fp_line (start 2.5 5) (end 4.18 5) (layer F.Fab) (width 0.1))
  (fp_line (start 5.98 -5) (end 32.5 -5) (layer F.Fab) (width 0.1))
  (fp_line (start 5.08 -4.1) (end 5.98 -5) (layer F.Fab) (width 0.1))
  (fp_line (start 4.18 -5) (end 5.08 -4.1) (layer F.Fab) (width 0.1))
  (fp_line (start 2.5 -5) (end 4.18 -5) (layer F.Fab) (width 0.1))
  (fp_line (start 32.5 -5) (end 32.5 5) (layer F.Fab) (width 0.1))
  (fp_line (start 2.5 -5) (end 2.5 5) (layer F.Fab) (width 0.1))
  (fp_line (start 15.25 -3.75) (end 16.5 -3.75) (layer F.SilkS) (width 0.12))
  (fp_line (start 15.25 0) (end 15.25 -3.75) (layer F.SilkS) (width 0.12))
  (fp_poly (pts (xy 19.75 3.75) (xy 18.5 3.75) (xy 18.5 -3.75) (xy 19.75 -3.75)) (layer F.SilkS) (width 0.1))
  (fp_line (start 19.75 0) (end 32.62 0) (layer F.SilkS) (width 0.12))
  (fp_line (start 2.38 0) (end 15.25 0) (layer F.SilkS) (width 0.12))
  (fp_line (start 15.25 3.75) (end 15.25 0) (layer F.SilkS) (width 0.12))
  (fp_line (start 16.5 3.75) (end 15.25 3.75) (layer F.SilkS) (width 0.12))
  (fp_line (start 16.5 -3.75) (end 16.5 3.75) (layer F.SilkS) (width 0.12))
  (fp_text user %R (at 17.5 0) (layer F.Fab)
    (effects (font (size 1 1) (thickness 0.15)))
  )
  (pad 2 thru_hole oval (at 35 0) (size 2.4 2.4) (drill 1.2) (layers *.Cu *.Mask))
  (pad 1 thru_hole rect (at 0 0) (size 2.4 2.4) (drill 1.2) (layers *.Cu *.Mask))
  (model ${KISYS3DMOD}/Capacitor_THT.3dshapes/CP_Axial_L30.0mm_D10.0mm_P35.00mm_Horizontal.wrl
    (at (xyz 0 0 0))
    (scale (xyz 1 1 1))
    (rotate (xyz 0 0 0))
  )
)
