(module CP_Radial_D40.0mm_P10.00mm_SnapIn (layer F.Cu) (tedit 5AE50EF1)
  (descr "CP, Radial series, Radial, pin pitch=10.00mm, , diameter=40mm, Electrolytic Capacitor, , http://www.vishay.com/docs/28342/058059pll-si.pdf")
  (tags "CP Radial series Radial pin pitch 10.00mm  diameter 40mm Electrolytic Capacitor")
  (fp_text reference REF** (at 5 -21.25) (layer F.SilkS)
    (effects (font (size 1 1) (thickness 0.15)))
  )
  (fp_text value CP_Radial_D40.0mm_P10.00mm_SnapIn (at 5 21.25) (layer F.Fab)
    (effects (font (size 1 1) (thickness 0.15)))
  )
  (fp_text user %R (at 5 0) (layer F.Fab)
    (effects (font (size 1 1) (thickness 0.15)))
  )
  (fp_circle (center 5 0) (end 25 0) (layer F.Fab) (width 0.1))
  (fp_circle (center 5 0) (end 25.12 0) (layer F.SilkS) (width 0.12))
  (fp_circle (center 5 0) (end 25.25 0) (layer F.CrtYd) (width 0.05))
  (fp_line (start -12.220396 -8.7875) (end -8.220396 -8.7875) (layer F.Fab) (width 0.1))
  (fp_line (start -10.220396 -10.7875) (end -10.220396 -6.7875) (layer F.Fab) (width 0.1))
  (fp_line (start 5 -20.08) (end 5 20.08) (layer F.SilkS) (width 0.12))
  (fp_line (start 5.04 -20.08) (end 5.04 20.08) (layer F.SilkS) (width 0.12))
  (fp_line (start 5.08 -20.08) (end 5.08 20.08) (layer F.SilkS) (width 0.12))
  (fp_line (start 5.12 -20.08) (end 5.12 20.08) (layer F.SilkS) (width 0.12))
  (fp_line (start 5.16 -20.08) (end 5.16 20.08) (layer F.SilkS) (width 0.12))
  (fp_line (start 5.2 -20.08) (end 5.2 20.08) (layer F.SilkS) (width 0.12))
  (fp_line (start 5.24 -20.079) (end 5.24 20.079) (layer F.SilkS) (width 0.12))
  (fp_line (start 5.28 -20.079) (end 5.28 20.079) (layer F.SilkS) (width 0.12))
  (fp_line (start 5.32 -20.078) (end 5.32 20.078) (layer F.SilkS) (width 0.12))
  (fp_line (start 5.36 -20.077) (end 5.36 20.077) (layer F.SilkS) (width 0.12))
  (fp_line (start 5.4 -20.077) (end 5.4 20.077) (layer F.SilkS) (width 0.12))
  (fp_line (start 5.44 -20.076) (end 5.44 20.076) (layer F.SilkS) (width 0.12))
  (fp_line (start 5.48 -20.075) (end 5.48 20.075) (layer F.SilkS) (width 0.12))
  (fp_line (start 5.52 -20.074) (end 5.52 20.074) (layer F.SilkS) (width 0.12))
  (fp_line (start 5.56 -20.073) (end 5.56 20.073) (layer F.SilkS) (width 0.12))
  (fp_line (start 5.6 -20.072) (end 5.6 20.072) (layer F.SilkS) (width 0.12))
  (fp_line (start 5.64 -20.07) (end 5.64 20.07) (layer F.SilkS) (width 0.12))
  (fp_line (start 5.68 -20.069) (end 5.68 20.069) (layer F.SilkS) (width 0.12))
  (fp_line (start 5.721 -20.068) (end 5.721 20.068) (layer F.SilkS) (width 0.12))
  (fp_line (start 5.761 -20.066) (end 5.761 20.066) (layer F.SilkS) (width 0.12))
  (fp_line (start 5.801 -20.065) (end 5.801 20.065) (layer F.SilkS) (width 0.12))
  (fp_line (start 5.841 -20.063) (end 5.841 20.063) (layer F.SilkS) (width 0.12))
  (fp_line (start 5.881 -20.061) (end 5.881 20.061) (layer F.SilkS) (width 0.12))
  (fp_line (start 5.921 -20.059) (end 5.921 20.059) (layer F.SilkS) (width 0.12))
  (fp_line (start 5.961 -20.058) (end 5.961 20.058) (layer F.SilkS) (width 0.12))
  (fp_line (start 6.001 -20.056) (end 6.001 20.056) (layer F.SilkS) (width 0.12))
  (fp_line (start 6.041 -20.054) (end 6.041 20.054) (layer F.SilkS) (width 0.12))
  (fp_line (start 6.081 -20.051) (end 6.081 20.051) (layer F.SilkS) (width 0.12))
  (fp_line (start 6.121 -20.049) (end 6.121 20.049) (layer F.SilkS) (width 0.12))
  (fp_line (start 6.161 -20.047) (end 6.161 20.047) (layer F.SilkS) (width 0.12))
  (fp_line (start 6.201 -20.045) (end 6.201 20.045) (layer F.SilkS) (width 0.12))
  (fp_line (start 6.241 -20.042) (end 6.241 20.042) (layer F.SilkS) (width 0.12))
  (fp_line (start 6.281 -20.04) (end 6.281 20.04) (layer F.SilkS) (width 0.12))
  (fp_line (start 6.321 -20.037) (end 6.321 20.037) (layer F.SilkS) (width 0.12))
  (fp_line (start 6.361 -20.034) (end 6.361 20.034) (layer F.SilkS) (width 0.12))
  (fp_line (start 6.401 -20.032) (end 6.401 20.032) (layer F.SilkS) (width 0.12))
  (fp_line (start 6.441 -20.029) (end 6.441 20.029) (layer F.SilkS) (width 0.12))
  (fp_line (start 6.481 -20.026) (end 6.481 20.026) (layer F.SilkS) (width 0.12))
  (fp_line (start 6.521 -20.023) (end 6.521 20.023) (layer F.SilkS) (width 0.12))
  (fp_line (start 6.561 -20.02) (end 6.561 20.02) (layer F.SilkS) (width 0.12))
  (fp_line (start 6.601 -20.017) (end 6.601 20.017) (layer F.SilkS) (width 0.12))
  (fp_line (start 6.641 -20.014) (end 6.641 20.014) (layer F.SilkS) (width 0.12))
  (fp_line (start 6.681 -20.01) (end 6.681 20.01) (layer F.SilkS) (width 0.12))
  (fp_line (start 6.721 -20.007) (end 6.721 20.007) (layer F.SilkS) (width 0.12))
  (fp_line (start 6.761 -20.003) (end 6.761 20.003) (layer F.SilkS) (width 0.12))
  (fp_line (start 6.801 -20) (end 6.801 20) (layer F.SilkS) (width 0.12))
  (fp_line (start 6.841 -19.996) (end 6.841 19.996) (layer F.SilkS) (width 0.12))
  (fp_line (start 6.881 -19.992) (end 6.881 19.992) (layer F.SilkS) (width 0.12))
  (fp_line (start 6.921 -19.989) (end 6.921 19.989) (layer F.SilkS) (width 0.12))
  (fp_line (start 6.961 -19.985) (end 6.961 19.985) (layer F.SilkS) (width 0.12))
  (fp_line (start 7.001 -19.981) (end 7.001 19.981) (layer F.SilkS) (width 0.12))
  (fp_line (start 7.041 -19.977) (end 7.041 19.977) (layer F.SilkS) (width 0.12))
  (fp_line (start 7.081 -19.973) (end 7.081 19.973) (layer F.SilkS) (width 0.12))
  (fp_line (start 7.121 -19.968) (end 7.121 19.968) (layer F.SilkS) (width 0.12))
  (fp_line (start 7.161 -19.964) (end 7.161 19.964) (layer F.SilkS) (width 0.12))
  (fp_line (start 7.201 -19.96) (end 7.201 19.96) (layer F.SilkS) (width 0.12))
  (fp_line (start 7.241 -19.955) (end 7.241 19.955) (layer F.SilkS) (width 0.12))
  (fp_line (start 7.281 -19.951) (end 7.281 19.951) (layer F.SilkS) (width 0.12))
  (fp_line (start 7.321 -19.946) (end 7.321 19.946) (layer F.SilkS) (width 0.12))
  (fp_line (start 7.361 -19.942) (end 7.361 19.942) (layer F.SilkS) (width 0.12))
  (fp_line (start 7.401 -19.937) (end 7.401 19.937) (layer F.SilkS) (width 0.12))
  (fp_line (start 7.441 -19.932) (end 7.441 19.932) (layer F.SilkS) (width 0.12))
  (fp_line (start 7.481 -19.927) (end 7.481 19.927) (layer F.SilkS) (width 0.12))
  (fp_line (start 7.521 -19.922) (end 7.521 19.922) (layer F.SilkS) (width 0.12))
  (fp_line (start 7.561 -19.917) (end 7.561 19.917) (layer F.SilkS) (width 0.12))
  (fp_line (start 7.601 -19.912) (end 7.601 19.912) (layer F.SilkS) (width 0.12))
  (fp_line (start 7.641 -19.907) (end 7.641 19.907) (layer F.SilkS) (width 0.12))
  (fp_line (start 7.681 -19.901) (end 7.681 19.901) (layer F.SilkS) (width 0.12))
  (fp_line (start 7.721 -19.896) (end 7.721 19.896) (layer F.SilkS) (width 0.12))
  (fp_line (start 7.761 -19.89) (end 7.761 -2.24) (layer F.SilkS) (width 0.12))
  (fp_line (start 7.761 2.24) (end 7.761 19.89) (layer F.SilkS) (width 0.12))
  (fp_line (start 7.801 -19.885) (end 7.801 -2.24) (layer F.SilkS) (width 0.12))
  (fp_line (start 7.801 2.24) (end 7.801 19.885) (layer F.SilkS) (width 0.12))
  (fp_line (start 7.841 -19.879) (end 7.841 -2.24) (layer F.SilkS) (width 0.12))
  (fp_line (start 7.841 2.24) (end 7.841 19.879) (layer F.SilkS) (width 0.12))
  (fp_line (start 7.881 -19.873) (end 7.881 -2.24) (layer F.SilkS) (width 0.12))
  (fp_line (start 7.881 2.24) (end 7.881 19.873) (layer F.SilkS) (width 0.12))
  (fp_line (start 7.921 -19.867) (end 7.921 -2.24) (layer F.SilkS) (width 0.12))
  (fp_line (start 7.921 2.24) (end 7.921 19.867) (layer F.SilkS) (width 0.12))
  (fp_line (start 7.961 -19.862) (end 7.961 -2.24) (layer F.SilkS) (width 0.12))
  (fp_line (start 7.961 2.24) (end 7.961 19.862) (layer F.SilkS) (width 0.12))
  (fp_line (start 8.001 -19.856) (end 8.001 -2.24) (layer F.SilkS) (width 0.12))
  (fp_line (start 8.001 2.24) (end 8.001 19.856) (layer F.SilkS) (width 0.12))
  (fp_line (start 8.041 -19.85) (end 8.041 -2.24) (layer F.SilkS) (width 0.12))
  (fp_line (start 8.041 2.24) (end 8.041 19.85) (layer F.SilkS) (width 0.12))
  (fp_line (start 8.081 -19.843) (end 8.081 -2.24) (layer F.SilkS) (width 0.12))
  (fp_line (start 8.081 2.24) (end 8.081 19.843) (layer F.SilkS) (width 0.12))
  (fp_line (start 8.121 -19.837) (end 8.121 -2.24) (layer F.SilkS) (width 0.12))
  (fp_line (start 8.121 2.24) (end 8.121 19.837) (layer F.SilkS) (width 0.12))
  (fp_line (start 8.161 -19.831) (end 8.161 -2.24) (layer F.SilkS) (width 0.12))
  (fp_line (start 8.161 2.24) (end 8.161 19.831) (layer F.SilkS) (width 0.12))
  (fp_line (start 8.201 -19.824) (end 8.201 -2.24) (layer F.SilkS) (width 0.12))
  (fp_line (start 8.201 2.24) (end 8.201 19.824) (layer F.SilkS) (width 0.12))
  (fp_line (start 8.241 -19.818) (end 8.241 -2.24) (layer F.SilkS) (width 0.12))
  (fp_line (start 8.241 2.24) (end 8.241 19.818) (layer F.SilkS) (width 0.12))
  (fp_line (start 8.281 -19.811) (end 8.281 -2.24) (layer F.SilkS) (width 0.12))
  (fp_line (start 8.281 2.24) (end 8.281 19.811) (layer F.SilkS) (width 0.12))
  (fp_line (start 8.321 -19.805) (end 8.321 -2.24) (layer F.SilkS) (width 0.12))
  (fp_line (start 8.321 2.24) (end 8.321 19.805) (layer F.SilkS) (width 0.12))
  (fp_line (start 8.361 -19.798) (end 8.361 -2.24) (layer F.SilkS) (width 0.12))
  (fp_line (start 8.361 2.24) (end 8.361 19.798) (layer F.SilkS) (width 0.12))
  (fp_line (start 8.401 -19.791) (end 8.401 -2.24) (layer F.SilkS) (width 0.12))
  (fp_line (start 8.401 2.24) (end 8.401 19.791) (layer F.SilkS) (width 0.12))
  (fp_line (start 8.441 -19.784) (end 8.441 -2.24) (layer F.SilkS) (width 0.12))
  (fp_line (start 8.441 2.24) (end 8.441 19.784) (layer F.SilkS) (width 0.12))
  (fp_line (start 8.481 -19.777) (end 8.481 -2.24) (layer F.SilkS) (width 0.12))
  (fp_line (start 8.481 2.24) (end 8.481 19.777) (layer F.SilkS) (width 0.12))
  (fp_line (start 8.521 -19.77) (end 8.521 -2.24) (layer F.SilkS) (width 0.12))
  (fp_line (start 8.521 2.24) (end 8.521 19.77) (layer F.SilkS) (width 0.12))
  (fp_line (start 8.561 -19.763) (end 8.561 -2.24) (layer F.SilkS) (width 0.12))
  (fp_line (start 8.561 2.24) (end 8.561 19.763) (layer F.SilkS) (width 0.12))
  (fp_line (start 8.601 -19.756) (end 8.601 -2.24) (layer F.SilkS) (width 0.12))
  (fp_line (start 8.601 2.24) (end 8.601 19.756) (layer F.SilkS) (width 0.12))
  (fp_line (start 8.641 -19.748) (end 8.641 -2.24) (layer F.SilkS) (width 0.12))
  (fp_line (start 8.641 2.24) (end 8.641 19.748) (layer F.SilkS) (width 0.12))
  (fp_line (start 8.681 -19.741) (end 8.681 -2.24) (layer F.SilkS) (width 0.12))
  (fp_line (start 8.681 2.24) (end 8.681 19.741) (layer F.SilkS) (width 0.12))
  (fp_line (start 8.721 -19.734) (end 8.721 -2.24) (layer F.SilkS) (width 0.12))
  (fp_line (start 8.721 2.24) (end 8.721 19.734) (layer F.SilkS) (width 0.12))
  (fp_line (start 8.761 -19.726) (end 8.761 -2.24) (layer F.SilkS) (width 0.12))
  (fp_line (start 8.761 2.24) (end 8.761 19.726) (layer F.SilkS) (width 0.12))
  (fp_line (start 8.801 -19.718) (end 8.801 -2.24) (layer F.SilkS) (width 0.12))
  (fp_line (start 8.801 2.24) (end 8.801 19.718) (layer F.SilkS) (width 0.12))
  (fp_line (start 8.841 -19.711) (end 8.841 -2.24) (layer F.SilkS) (width 0.12))
  (fp_line (start 8.841 2.24) (end 8.841 19.711) (layer F.SilkS) (width 0.12))
  (fp_line (start 8.881 -19.703) (end 8.881 -2.24) (layer F.SilkS) (width 0.12))
  (fp_line (start 8.881 2.24) (end 8.881 19.703) (layer F.SilkS) (width 0.12))
  (fp_line (start 8.921 -19.695) (end 8.921 -2.24) (layer F.SilkS) (width 0.12))
  (fp_line (start 8.921 2.24) (end 8.921 19.695) (layer F.SilkS) (width 0.12))
  (fp_line (start 8.961 -19.687) (end 8.961 -2.24) (layer F.SilkS) (width 0.12))
  (fp_line (start 8.961 2.24) (end 8.961 19.687) (layer F.SilkS) (width 0.12))
  (fp_line (start 9.001 -19.679) (end 9.001 -2.24) (layer F.SilkS) (width 0.12))
  (fp_line (start 9.001 2.24) (end 9.001 19.679) (layer F.SilkS) (width 0.12))
  (fp_line (start 9.041 -19.671) (end 9.041 -2.24) (layer F.SilkS) (width 0.12))
  (fp_line (start 9.041 2.24) (end 9.041 19.671) (layer F.SilkS) (width 0.12))
  (fp_line (start 9.081 -19.662) (end 9.081 -2.24) (layer F.SilkS) (width 0.12))
  (fp_line (start 9.081 2.24) (end 9.081 19.662) (layer F.SilkS) (width 0.12))
  (fp_line (start 9.121 -19.654) (end 9.121 -2.24) (layer F.SilkS) (width 0.12))
  (fp_line (start 9.121 2.24) (end 9.121 19.654) (layer F.SilkS) (width 0.12))
  (fp_line (start 9.161 -19.646) (end 9.161 -2.24) (layer F.SilkS) (width 0.12))
  (fp_line (start 9.161 2.24) (end 9.161 19.646) (layer F.SilkS) (width 0.12))
  (fp_line (start 9.201 -19.637) (end 9.201 -2.24) (layer F.SilkS) (width 0.12))
  (fp_line (start 9.201 2.24) (end 9.201 19.637) (layer F.SilkS) (width 0.12))
  (fp_line (start 9.241 -19.629) (end 9.241 -2.24) (layer F.SilkS) (width 0.12))
  (fp_line (start 9.241 2.24) (end 9.241 19.629) (layer F.SilkS) (width 0.12))
  (fp_line (start 9.281 -19.62) (end 9.281 -2.24) (layer F.SilkS) (width 0.12))
  (fp_line (start 9.281 2.24) (end 9.281 19.62) (layer F.SilkS) (width 0.12))
  (fp_line (start 9.321 -19.611) (end 9.321 -2.24) (layer F.SilkS) (width 0.12))
  (fp_line (start 9.321 2.24) (end 9.321 19.611) (layer F.SilkS) (width 0.12))
  (fp_line (start 9.361 -19.602) (end 9.361 -2.24) (layer F.SilkS) (width 0.12))
  (fp_line (start 9.361 2.24) (end 9.361 19.602) (layer F.SilkS) (width 0.12))
  (fp_line (start 9.401 -19.593) (end 9.401 -2.24) (layer F.SilkS) (width 0.12))
  (fp_line (start 9.401 2.24) (end 9.401 19.593) (layer F.SilkS) (width 0.12))
  (fp_line (start 9.441 -19.584) (end 9.441 -2.24) (layer F.SilkS) (width 0.12))
  (fp_line (start 9.441 2.24) (end 9.441 19.584) (layer F.SilkS) (width 0.12))
  (fp_line (start 9.481 -19.575) (end 9.481 -2.24) (layer F.SilkS) (width 0.12))
  (fp_line (start 9.481 2.24) (end 9.481 19.575) (layer F.SilkS) (width 0.12))
  (fp_line (start 9.521 -19.566) (end 9.521 -2.24) (layer F.SilkS) (width 0.12))
  (fp_line (start 9.521 2.24) (end 9.521 19.566) (layer F.SilkS) (width 0.12))
  (fp_line (start 9.561 -19.557) (end 9.561 -2.24) (layer F.SilkS) (width 0.12))
  (fp_line (start 9.561 2.24) (end 9.561 19.557) (layer F.SilkS) (width 0.12))
  (fp_line (start 9.601 -19.548) (end 9.601 -2.24) (layer F.SilkS) (width 0.12))
  (fp_line (start 9.601 2.24) (end 9.601 19.548) (layer F.SilkS) (width 0.12))
  (fp_line (start 9.641 -19.538) (end 9.641 -2.24) (layer F.SilkS) (width 0.12))
  (fp_line (start 9.641 2.24) (end 9.641 19.538) (layer F.SilkS) (width 0.12))
  (fp_line (start 9.681 -19.529) (end 9.681 -2.24) (layer F.SilkS) (width 0.12))
  (fp_line (start 9.681 2.24) (end 9.681 19.529) (layer F.SilkS) (width 0.12))
  (fp_line (start 9.721 -19.519) (end 9.721 -2.24) (layer F.SilkS) (width 0.12))
  (fp_line (start 9.721 2.24) (end 9.721 19.519) (layer F.SilkS) (width 0.12))
  (fp_line (start 9.761 -19.509) (end 9.761 -2.24) (layer F.SilkS) (width 0.12))
  (fp_line (start 9.761 2.24) (end 9.761 19.509) (layer F.SilkS) (width 0.12))
  (fp_line (start 9.801 -19.5) (end 9.801 -2.24) (layer F.SilkS) (width 0.12))
  (fp_line (start 9.801 2.24) (end 9.801 19.5) (layer F.SilkS) (width 0.12))
  (fp_line (start 9.841 -19.49) (end 9.841 -2.24) (layer F.SilkS) (width 0.12))
  (fp_line (start 9.841 2.24) (end 9.841 19.49) (layer F.SilkS) (width 0.12))
  (fp_line (start 9.881 -19.48) (end 9.881 -2.24) (layer F.SilkS) (width 0.12))
  (fp_line (start 9.881 2.24) (end 9.881 19.48) (layer F.SilkS) (width 0.12))
  (fp_line (start 9.921 -19.47) (end 9.921 -2.24) (layer F.SilkS) (width 0.12))
  (fp_line (start 9.921 2.24) (end 9.921 19.47) (layer F.SilkS) (width 0.12))
  (fp_line (start 9.961 -19.46) (end 9.961 -2.24) (layer F.SilkS) (width 0.12))
  (fp_line (start 9.961 2.24) (end 9.961 19.46) (layer F.SilkS) (width 0.12))
  (fp_line (start 10.001 -19.449) (end 10.001 -2.24) (layer F.SilkS) (width 0.12))
  (fp_line (start 10.001 2.24) (end 10.001 19.449) (layer F.SilkS) (width 0.12))
  (fp_line (start 10.041 -19.439) (end 10.041 -2.24) (layer F.SilkS) (width 0.12))
  (fp_line (start 10.041 2.24) (end 10.041 19.439) (layer F.SilkS) (width 0.12))
  (fp_line (start 10.081 -19.429) (end 10.081 -2.24) (layer F.SilkS) (width 0.12))
  (fp_line (start 10.081 2.24) (end 10.081 19.429) (layer F.SilkS) (width 0.12))
  (fp_line (start 10.121 -19.418) (end 10.121 -2.24) (layer F.SilkS) (width 0.12))
  (fp_line (start 10.121 2.24) (end 10.121 19.418) (layer F.SilkS) (width 0.12))
  (fp_line (start 10.161 -19.408) (end 10.161 -2.24) (layer F.SilkS) (width 0.12))
  (fp_line (start 10.161 2.24) (end 10.161 19.408) (layer F.SilkS) (width 0.12))
  (fp_line (start 10.201 -19.397) (end 10.201 -2.24) (layer F.SilkS) (width 0.12))
  (fp_line (start 10.201 2.24) (end 10.201 19.397) (layer F.SilkS) (width 0.12))
  (fp_line (start 10.241 -19.386) (end 10.241 -2.24) (layer F.SilkS) (width 0.12))
  (fp_line (start 10.241 2.24) (end 10.241 19.386) (layer F.SilkS) (width 0.12))
  (fp_line (start 10.281 -19.375) (end 10.281 -2.24) (layer F.SilkS) (width 0.12))
  (fp_line (start 10.281 2.24) (end 10.281 19.375) (layer F.SilkS) (width 0.12))
  (fp_line (start 10.321 -19.364) (end 10.321 -2.24) (layer F.SilkS) (width 0.12))
  (fp_line (start 10.321 2.24) (end 10.321 19.364) (layer F.SilkS) (width 0.12))
  (fp_line (start 10.361 -19.353) (end 10.361 -2.24) (layer F.SilkS) (width 0.12))
  (fp_line (start 10.361 2.24) (end 10.361 19.353) (layer F.SilkS) (width 0.12))
  (fp_line (start 10.401 -19.342) (end 10.401 -2.24) (layer F.SilkS) (width 0.12))
  (fp_line (start 10.401 2.24) (end 10.401 19.342) (layer F.SilkS) (width 0.12))
  (fp_line (start 10.441 -19.331) (end 10.441 -2.24) (layer F.SilkS) (width 0.12))
  (fp_line (start 10.441 2.24) (end 10.441 19.331) (layer F.SilkS) (width 0.12))
  (fp_line (start 10.481 -19.32) (end 10.481 -2.24) (layer F.SilkS) (width 0.12))
  (fp_line (start 10.481 2.24) (end 10.481 19.32) (layer F.SilkS) (width 0.12))
  (fp_line (start 10.521 -19.308) (end 10.521 -2.24) (layer F.SilkS) (width 0.12))
  (fp_line (start 10.521 2.24) (end 10.521 19.308) (layer F.SilkS) (width 0.12))
  (fp_line (start 10.561 -19.297) (end 10.561 -2.24) (layer F.SilkS) (width 0.12))
  (fp_line (start 10.561 2.24) (end 10.561 19.297) (layer F.SilkS) (width 0.12))
  (fp_line (start 10.601 -19.285) (end 10.601 -2.24) (layer F.SilkS) (width 0.12))
  (fp_line (start 10.601 2.24) (end 10.601 19.285) (layer F.SilkS) (width 0.12))
  (fp_line (start 10.641 -19.274) (end 10.641 -2.24) (layer F.SilkS) (width 0.12))
  (fp_line (start 10.641 2.24) (end 10.641 19.274) (layer F.SilkS) (width 0.12))
  (fp_line (start 10.681 -19.262) (end 10.681 -2.24) (layer F.SilkS) (width 0.12))
  (fp_line (start 10.681 2.24) (end 10.681 19.262) (layer F.SilkS) (width 0.12))
  (fp_line (start 10.721 -19.25) (end 10.721 -2.24) (layer F.SilkS) (width 0.12))
  (fp_line (start 10.721 2.24) (end 10.721 19.25) (layer F.SilkS) (width 0.12))
  (fp_line (start 10.761 -19.238) (end 10.761 -2.24) (layer F.SilkS) (width 0.12))
  (fp_line (start 10.761 2.24) (end 10.761 19.238) (layer F.SilkS) (width 0.12))
  (fp_line (start 10.801 -19.226) (end 10.801 -2.24) (layer F.SilkS) (width 0.12))
  (fp_line (start 10.801 2.24) (end 10.801 19.226) (layer F.SilkS) (width 0.12))
  (fp_line (start 10.841 -19.214) (end 10.841 -2.24) (layer F.SilkS) (width 0.12))
  (fp_line (start 10.841 2.24) (end 10.841 19.214) (layer F.SilkS) (width 0.12))
  (fp_line (start 10.881 -19.202) (end 10.881 -2.24) (layer F.SilkS) (width 0.12))
  (fp_line (start 10.881 2.24) (end 10.881 19.202) (layer F.SilkS) (width 0.12))
  (fp_line (start 10.921 -19.19) (end 10.921 -2.24) (layer F.SilkS) (width 0.12))
  (fp_line (start 10.921 2.24) (end 10.921 19.19) (layer F.SilkS) (width 0.12))
  (fp_line (start 10.961 -19.177) (end 10.961 -2.24) (layer F.SilkS) (width 0.12))
  (fp_line (start 10.961 2.24) (end 10.961 19.177) (layer F.SilkS) (width 0.12))
  (fp_line (start 11.001 -19.165) (end 11.001 -2.24) (layer F.SilkS) (width 0.12))
  (fp_line (start 11.001 2.24) (end 11.001 19.165) (layer F.SilkS) (width 0.12))
  (fp_line (start 11.041 -19.152) (end 11.041 -2.24) (layer F.SilkS) (width 0.12))
  (fp_line (start 11.041 2.24) (end 11.041 19.152) (layer F.SilkS) (width 0.12))
  (fp_line (start 11.081 -19.14) (end 11.081 -2.24) (layer F.SilkS) (width 0.12))
  (fp_line (start 11.081 2.24) (end 11.081 19.14) (layer F.SilkS) (width 0.12))
  (fp_line (start 11.121 -19.127) (end 11.121 -2.24) (layer F.SilkS) (width 0.12))
  (fp_line (start 11.121 2.24) (end 11.121 19.127) (layer F.SilkS) (width 0.12))
  (fp_line (start 11.161 -19.114) (end 11.161 -2.24) (layer F.SilkS) (width 0.12))
  (fp_line (start 11.161 2.24) (end 11.161 19.114) (layer F.SilkS) (width 0.12))
  (fp_line (start 11.201 -19.101) (end 11.201 -2.24) (layer F.SilkS) (width 0.12))
  (fp_line (start 11.201 2.24) (end 11.201 19.101) (layer F.SilkS) (width 0.12))
  (fp_line (start 11.241 -19.088) (end 11.241 -2.24) (layer F.SilkS) (width 0.12))
  (fp_line (start 11.241 2.24) (end 11.241 19.088) (layer F.SilkS) (width 0.12))
  (fp_line (start 11.281 -19.075) (end 11.281 -2.24) (layer F.SilkS) (width 0.12))
  (fp_line (start 11.281 2.24) (end 11.281 19.075) (layer F.SilkS) (width 0.12))
  (fp_line (start 11.321 -19.062) (end 11.321 -2.24) (layer F.SilkS) (width 0.12))
  (fp_line (start 11.321 2.24) (end 11.321 19.062) (layer F.SilkS) (width 0.12))
  (fp_line (start 11.361 -19.049) (end 11.361 -2.24) (layer F.SilkS) (width 0.12))
  (fp_line (start 11.361 2.24) (end 11.361 19.049) (layer F.SilkS) (width 0.12))
  (fp_line (start 11.401 -19.035) (end 11.401 -2.24) (layer F.SilkS) (width 0.12))
  (fp_line (start 11.401 2.24) (end 11.401 19.035) (layer F.SilkS) (width 0.12))
  (fp_line (start 11.441 -19.022) (end 11.441 -2.24) (layer F.SilkS) (width 0.12))
  (fp_line (start 11.441 2.24) (end 11.441 19.022) (layer F.SilkS) (width 0.12))
  (fp_line (start 11.481 -19.008) (end 11.481 -2.24) (layer F.SilkS) (width 0.12))
  (fp_line (start 11.481 2.24) (end 11.481 19.008) (layer F.SilkS) (width 0.12))
  (fp_line (start 11.521 -18.995) (end 11.521 -2.24) (layer F.SilkS) (width 0.12))
  (fp_line (start 11.521 2.24) (end 11.521 18.995) (layer F.SilkS) (width 0.12))
  (fp_line (start 11.561 -18.981) (end 11.561 -2.24) (layer F.SilkS) (width 0.12))
  (fp_line (start 11.561 2.24) (end 11.561 18.981) (layer F.SilkS) (width 0.12))
  (fp_line (start 11.601 -18.967) (end 11.601 -2.24) (layer F.SilkS) (width 0.12))
  (fp_line (start 11.601 2.24) (end 11.601 18.967) (layer F.SilkS) (width 0.12))
  (fp_line (start 11.641 -18.953) (end 11.641 -2.24) (layer F.SilkS) (width 0.12))
  (fp_line (start 11.641 2.24) (end 11.641 18.953) (layer F.SilkS) (width 0.12))
  (fp_line (start 11.681 -18.939) (end 11.681 -2.24) (layer F.SilkS) (width 0.12))
  (fp_line (start 11.681 2.24) (end 11.681 18.939) (layer F.SilkS) (width 0.12))
  (fp_line (start 11.721 -18.925) (end 11.721 -2.24) (layer F.SilkS) (width 0.12))
  (fp_line (start 11.721 2.24) (end 11.721 18.925) (layer F.SilkS) (width 0.12))
  (fp_line (start 11.761 -18.911) (end 11.761 -2.24) (layer F.SilkS) (width 0.12))
  (fp_line (start 11.761 2.24) (end 11.761 18.911) (layer F.SilkS) (width 0.12))
  (fp_line (start 11.801 -18.897) (end 11.801 -2.24) (layer F.SilkS) (width 0.12))
  (fp_line (start 11.801 2.24) (end 11.801 18.897) (layer F.SilkS) (width 0.12))
  (fp_line (start 11.841 -18.882) (end 11.841 -2.24) (layer F.SilkS) (width 0.12))
  (fp_line (start 11.841 2.24) (end 11.841 18.882) (layer F.SilkS) (width 0.12))
  (fp_line (start 11.881 -18.868) (end 11.881 -2.24) (layer F.SilkS) (width 0.12))
  (fp_line (start 11.881 2.24) (end 11.881 18.868) (layer F.SilkS) (width 0.12))
  (fp_line (start 11.921 -18.853) (end 11.921 -2.24) (layer F.SilkS) (width 0.12))
  (fp_line (start 11.921 2.24) (end 11.921 18.853) (layer F.SilkS) (width 0.12))
  (fp_line (start 11.961 -18.838) (end 11.961 -2.24) (layer F.SilkS) (width 0.12))
  (fp_line (start 11.961 2.24) (end 11.961 18.838) (layer F.SilkS) (width 0.12))
  (fp_line (start 12.001 -18.824) (end 12.001 -2.24) (layer F.SilkS) (width 0.12))
  (fp_line (start 12.001 2.24) (end 12.001 18.824) (layer F.SilkS) (width 0.12))
  (fp_line (start 12.041 -18.809) (end 12.041 -2.24) (layer F.SilkS) (width 0.12))
  (fp_line (start 12.041 2.24) (end 12.041 18.809) (layer F.SilkS) (width 0.12))
  (fp_line (start 12.081 -18.794) (end 12.081 -2.24) (layer F.SilkS) (width 0.12))
  (fp_line (start 12.081 2.24) (end 12.081 18.794) (layer F.SilkS) (width 0.12))
  (fp_line (start 12.121 -18.779) (end 12.121 -2.24) (layer F.SilkS) (width 0.12))
  (fp_line (start 12.121 2.24) (end 12.121 18.779) (layer F.SilkS) (width 0.12))
  (fp_line (start 12.161 -18.763) (end 12.161 -2.24) (layer F.SilkS) (width 0.12))
  (fp_line (start 12.161 2.24) (end 12.161 18.763) (layer F.SilkS) (width 0.12))
  (fp_line (start 12.201 -18.748) (end 12.201 -2.24) (layer F.SilkS) (width 0.12))
  (fp_line (start 12.201 2.24) (end 12.201 18.748) (layer F.SilkS) (width 0.12))
  (fp_line (start 12.241 -18.733) (end 12.241 18.733) (layer F.SilkS) (width 0.12))
  (fp_line (start 12.281 -18.717) (end 12.281 18.717) (layer F.SilkS) (width 0.12))
  (fp_line (start 12.321 -18.702) (end 12.321 18.702) (layer F.SilkS) (width 0.12))
  (fp_line (start 12.361 -18.686) (end 12.361 18.686) (layer F.SilkS) (width 0.12))
  (fp_line (start 12.401 -18.67) (end 12.401 18.67) (layer F.SilkS) (width 0.12))
  (fp_line (start 12.441 -18.654) (end 12.441 18.654) (layer F.SilkS) (width 0.12))
  (fp_line (start 12.481 -18.638) (end 12.481 18.638) (layer F.SilkS) (width 0.12))
  (fp_line (start 12.521 -18.622) (end 12.521 18.622) (layer F.SilkS) (width 0.12))
  (fp_line (start 12.561 -18.606) (end 12.561 18.606) (layer F.SilkS) (width 0.12))
  (fp_line (start 12.601 -18.59) (end 12.601 18.59) (layer F.SilkS) (width 0.12))
  (fp_line (start 12.641 -18.574) (end 12.641 18.574) (layer F.SilkS) (width 0.12))
  (fp_line (start 12.681 -18.557) (end 12.681 18.557) (layer F.SilkS) (width 0.12))
  (fp_line (start 12.721 -18.54) (end 12.721 18.54) (layer F.SilkS) (width 0.12))
  (fp_line (start 12.761 -18.524) (end 12.761 18.524) (layer F.SilkS) (width 0.12))
  (fp_line (start 12.801 -18.507) (end 12.801 18.507) (layer F.SilkS) (width 0.12))
  (fp_line (start 12.841 -18.49) (end 12.841 18.49) (layer F.SilkS) (width 0.12))
  (fp_line (start 12.881 -18.473) (end 12.881 18.473) (layer F.SilkS) (width 0.12))
  (fp_line (start 12.921 -18.456) (end 12.921 18.456) (layer F.SilkS) (width 0.12))
  (fp_line (start 12.961 -18.439) (end 12.961 18.439) (layer F.SilkS) (width 0.12))
  (fp_line (start 13.001 -18.422) (end 13.001 18.422) (layer F.SilkS) (width 0.12))
  (fp_line (start 13.041 -18.404) (end 13.041 18.404) (layer F.SilkS) (width 0.12))
  (fp_line (start 13.081 -18.387) (end 13.081 18.387) (layer F.SilkS) (width 0.12))
  (fp_line (start 13.121 -18.369) (end 13.121 18.369) (layer F.SilkS) (width 0.12))
  (fp_line (start 13.161 -18.351) (end 13.161 18.351) (layer F.SilkS) (width 0.12))
  (fp_line (start 13.2 -18.334) (end 13.2 18.334) (layer F.SilkS) (width 0.12))
  (fp_line (start 13.24 -18.316) (end 13.24 18.316) (layer F.SilkS) (width 0.12))
  (fp_line (start 13.28 -18.298) (end 13.28 18.298) (layer F.SilkS) (width 0.12))
  (fp_line (start 13.32 -18.28) (end 13.32 18.28) (layer F.SilkS) (width 0.12))
  (fp_line (start 13.36 -18.261) (end 13.36 18.261) (layer F.SilkS) (width 0.12))
  (fp_line (start 13.4 -18.243) (end 13.4 18.243) (layer F.SilkS) (width 0.12))
  (fp_line (start 13.44 -18.225) (end 13.44 18.225) (layer F.SilkS) (width 0.12))
  (fp_line (start 13.48 -18.206) (end 13.48 18.206) (layer F.SilkS) (width 0.12))
  (fp_line (start 13.52 -18.188) (end 13.52 18.188) (layer F.SilkS) (width 0.12))
  (fp_line (start 13.56 -18.169) (end 13.56 18.169) (layer F.SilkS) (width 0.12))
  (fp_line (start 13.6 -18.15) (end 13.6 18.15) (layer F.SilkS) (width 0.12))
  (fp_line (start 13.64 -18.131) (end 13.64 18.131) (layer F.SilkS) (width 0.12))
  (fp_line (start 13.68 -18.112) (end 13.68 18.112) (layer F.SilkS) (width 0.12))
  (fp_line (start 13.72 -18.093) (end 13.72 18.093) (layer F.SilkS) (width 0.12))
  (fp_line (start 13.76 -18.073) (end 13.76 18.073) (layer F.SilkS) (width 0.12))
  (fp_line (start 13.8 -18.054) (end 13.8 18.054) (layer F.SilkS) (width 0.12))
  (fp_line (start 13.84 -18.034) (end 13.84 18.034) (layer F.SilkS) (width 0.12))
  (fp_line (start 13.88 -18.015) (end 13.88 18.015) (layer F.SilkS) (width 0.12))
  (fp_line (start 13.92 -17.995) (end 13.92 17.995) (layer F.SilkS) (width 0.12))
  (fp_line (start 13.96 -17.975) (end 13.96 17.975) (layer F.SilkS) (width 0.12))
  (fp_line (start 14 -17.955) (end 14 17.955) (layer F.SilkS) (width 0.12))
  (fp_line (start 14.04 -17.935) (end 14.04 17.935) (layer F.SilkS) (width 0.12))
  (fp_line (start 14.08 -17.915) (end 14.08 17.915) (layer F.SilkS) (width 0.12))
  (fp_line (start 14.12 -17.895) (end 14.12 17.895) (layer F.SilkS) (width 0.12))
  (fp_line (start 14.16 -17.874) (end 14.16 17.874) (layer F.SilkS) (width 0.12))
  (fp_line (start 14.2 -17.854) (end 14.2 17.854) (layer F.SilkS) (width 0.12))
  (fp_line (start 14.24 -17.833) (end 14.24 17.833) (layer F.SilkS) (width 0.12))
  (fp_line (start 14.28 -17.813) (end 14.28 17.813) (layer F.SilkS) (width 0.12))
  (fp_line (start 14.32 -17.792) (end 14.32 17.792) (layer F.SilkS) (width 0.12))
  (fp_line (start 14.36 -17.771) (end 14.36 17.771) (layer F.SilkS) (width 0.12))
  (fp_line (start 14.4 -17.75) (end 14.4 17.75) (layer F.SilkS) (width 0.12))
  (fp_line (start 14.44 -17.728) (end 14.44 17.728) (layer F.SilkS) (width 0.12))
  (fp_line (start 14.48 -17.707) (end 14.48 17.707) (layer F.SilkS) (width 0.12))
  (fp_line (start 14.52 -17.686) (end 14.52 17.686) (layer F.SilkS) (width 0.12))
  (fp_line (start 14.56 -17.664) (end 14.56 17.664) (layer F.SilkS) (width 0.12))
  (fp_line (start 14.6 -17.643) (end 14.6 17.643) (layer F.SilkS) (width 0.12))
  (fp_line (start 14.64 -17.621) (end 14.64 17.621) (layer F.SilkS) (width 0.12))
  (fp_line (start 14.68 -17.599) (end 14.68 17.599) (layer F.SilkS) (width 0.12))
  (fp_line (start 14.72 -17.577) (end 14.72 17.577) (layer F.SilkS) (width 0.12))
  (fp_line (start 14.76 -17.555) (end 14.76 17.555) (layer F.SilkS) (width 0.12))
  (fp_line (start 14.8 -17.532) (end 14.8 17.532) (layer F.SilkS) (width 0.12))
  (fp_line (start 14.84 -17.51) (end 14.84 17.51) (layer F.SilkS) (width 0.12))
  (fp_line (start 14.88 -17.488) (end 14.88 17.488) (layer F.SilkS) (width 0.12))
  (fp_line (start 14.92 -17.465) (end 14.92 17.465) (layer F.SilkS) (width 0.12))
  (fp_line (start 14.96 -17.442) (end 14.96 17.442) (layer F.SilkS) (width 0.12))
  (fp_line (start 15 -17.419) (end 15 17.419) (layer F.SilkS) (width 0.12))
  (fp_line (start 15.04 -17.396) (end 15.04 17.396) (layer F.SilkS) (width 0.12))
  (fp_line (start 15.08 -17.373) (end 15.08 17.373) (layer F.SilkS) (width 0.12))
  (fp_line (start 15.12 -17.35) (end 15.12 17.35) (layer F.SilkS) (width 0.12))
  (fp_line (start 15.16 -17.327) (end 15.16 17.327) (layer F.SilkS) (width 0.12))
  (fp_line (start 15.2 -17.303) (end 15.2 17.303) (layer F.SilkS) (width 0.12))
  (fp_line (start 15.24 -17.28) (end 15.24 17.28) (layer F.SilkS) (width 0.12))
  (fp_line (start 15.28 -17.256) (end 15.28 17.256) (layer F.SilkS) (width 0.12))
  (fp_line (start 15.32 -17.232) (end 15.32 17.232) (layer F.SilkS) (width 0.12))
  (fp_line (start 15.36 -17.208) (end 15.36 17.208) (layer F.SilkS) (width 0.12))
  (fp_line (start 15.4 -17.184) (end 15.4 17.184) (layer F.SilkS) (width 0.12))
  (fp_line (start 15.44 -17.16) (end 15.44 17.16) (layer F.SilkS) (width 0.12))
  (fp_line (start 15.48 -17.136) (end 15.48 17.136) (layer F.SilkS) (width 0.12))
  (fp_line (start 15.52 -17.111) (end 15.52 17.111) (layer F.SilkS) (width 0.12))
  (fp_line (start 15.56 -17.087) (end 15.56 17.087) (layer F.SilkS) (width 0.12))
  (fp_line (start 15.6 -17.062) (end 15.6 17.062) (layer F.SilkS) (width 0.12))
  (fp_line (start 15.64 -17.037) (end 15.64 17.037) (layer F.SilkS) (width 0.12))
  (fp_line (start 15.68 -17.012) (end 15.68 17.012) (layer F.SilkS) (width 0.12))
  (fp_line (start 15.72 -16.987) (end 15.72 16.987) (layer F.SilkS) (width 0.12))
  (fp_line (start 15.76 -16.962) (end 15.76 16.962) (layer F.SilkS) (width 0.12))
  (fp_line (start 15.8 -16.936) (end 15.8 16.936) (layer F.SilkS) (width 0.12))
  (fp_line (start 15.84 -16.911) (end 15.84 16.911) (layer F.SilkS) (width 0.12))
  (fp_line (start 15.88 -16.885) (end 15.88 16.885) (layer F.SilkS) (width 0.12))
  (fp_line (start 15.92 -16.859) (end 15.92 16.859) (layer F.SilkS) (width 0.12))
  (fp_line (start 15.96 -16.833) (end 15.96 16.833) (layer F.SilkS) (width 0.12))
  (fp_line (start 16 -16.807) (end 16 16.807) (layer F.SilkS) (width 0.12))
  (fp_line (start 16.04 -16.781) (end 16.04 16.781) (layer F.SilkS) (width 0.12))
  (fp_line (start 16.08 -16.755) (end 16.08 16.755) (layer F.SilkS) (width 0.12))
  (fp_line (start 16.12 -16.728) (end 16.12 16.728) (layer F.SilkS) (width 0.12))
  (fp_line (start 16.16 -16.702) (end 16.16 16.702) (layer F.SilkS) (width 0.12))
  (fp_line (start 16.2 -16.675) (end 16.2 16.675) (layer F.SilkS) (width 0.12))
  (fp_line (start 16.24 -16.648) (end 16.24 16.648) (layer F.SilkS) (width 0.12))
  (fp_line (start 16.28 -16.621) (end 16.28 16.621) (layer F.SilkS) (width 0.12))
  (fp_line (start 16.32 -16.594) (end 16.32 16.594) (layer F.SilkS) (width 0.12))
  (fp_line (start 16.36 -16.567) (end 16.36 16.567) (layer F.SilkS) (width 0.12))
  (fp_line (start 16.4 -16.539) (end 16.4 16.539) (layer F.SilkS) (width 0.12))
  (fp_line (start 16.44 -16.512) (end 16.44 16.512) (layer F.SilkS) (width 0.12))
  (fp_line (start 16.48 -16.484) (end 16.48 16.484) (layer F.SilkS) (width 0.12))
  (fp_line (start 16.52 -16.456) (end 16.52 16.456) (layer F.SilkS) (width 0.12))
  (fp_line (start 16.56 -16.428) (end 16.56 16.428) (layer F.SilkS) (width 0.12))
  (fp_line (start 16.6 -16.4) (end 16.6 16.4) (layer F.SilkS) (width 0.12))
  (fp_line (start 16.64 -16.372) (end 16.64 16.372) (layer F.SilkS) (width 0.12))
  (fp_line (start 16.68 -16.343) (end 16.68 16.343) (layer F.SilkS) (width 0.12))
  (fp_line (start 16.72 -16.315) (end 16.72 16.315) (layer F.SilkS) (width 0.12))
  (fp_line (start 16.76 -16.286) (end 16.76 16.286) (layer F.SilkS) (width 0.12))
  (fp_line (start 16.8 -16.257) (end 16.8 16.257) (layer F.SilkS) (width 0.12))
  (fp_line (start 16.84 -16.228) (end 16.84 16.228) (layer F.SilkS) (width 0.12))
  (fp_line (start 16.88 -16.199) (end 16.88 16.199) (layer F.SilkS) (width 0.12))
  (fp_line (start 16.92 -16.169) (end 16.92 16.169) (layer F.SilkS) (width 0.12))
  (fp_line (start 16.96 -16.14) (end 16.96 16.14) (layer F.SilkS) (width 0.12))
  (fp_line (start 17 -16.11) (end 17 16.11) (layer F.SilkS) (width 0.12))
  (fp_line (start 17.04 -16.08) (end 17.04 16.08) (layer F.SilkS) (width 0.12))
  (fp_line (start 17.08 -16.05) (end 17.08 16.05) (layer F.SilkS) (width 0.12))
  (fp_line (start 17.12 -16.02) (end 17.12 16.02) (layer F.SilkS) (width 0.12))
  (fp_line (start 17.16 -15.99) (end 17.16 15.99) (layer F.SilkS) (width 0.12))
  (fp_line (start 17.2 -15.96) (end 17.2 15.96) (layer F.SilkS) (width 0.12))
  (fp_line (start 17.24 -15.929) (end 17.24 15.929) (layer F.SilkS) (width 0.12))
  (fp_line (start 17.28 -15.898) (end 17.28 15.898) (layer F.SilkS) (width 0.12))
  (fp_line (start 17.32 -15.867) (end 17.32 15.867) (layer F.SilkS) (width 0.12))
  (fp_line (start 17.36 -15.836) (end 17.36 15.836) (layer F.SilkS) (width 0.12))
  (fp_line (start 17.4 -15.805) (end 17.4 15.805) (layer F.SilkS) (width 0.12))
  (fp_line (start 17.44 -15.774) (end 17.44 15.774) (layer F.SilkS) (width 0.12))
  (fp_line (start 17.48 -15.742) (end 17.48 15.742) (layer F.SilkS) (width 0.12))
  (fp_line (start 17.52 -15.711) (end 17.52 15.711) (layer F.SilkS) (width 0.12))
  (fp_line (start 17.56 -15.679) (end 17.56 15.679) (layer F.SilkS) (width 0.12))
  (fp_line (start 17.6 -15.647) (end 17.6 15.647) (layer F.SilkS) (width 0.12))
  (fp_line (start 17.64 -15.614) (end 17.64 15.614) (layer F.SilkS) (width 0.12))
  (fp_line (start 17.68 -15.582) (end 17.68 15.582) (layer F.SilkS) (width 0.12))
  (fp_line (start 17.72 -15.549) (end 17.72 15.549) (layer F.SilkS) (width 0.12))
  (fp_line (start 17.76 -15.517) (end 17.76 15.517) (layer F.SilkS) (width 0.12))
  (fp_line (start 17.8 -15.484) (end 17.8 15.484) (layer F.SilkS) (width 0.12))
  (fp_line (start 17.84 -15.451) (end 17.84 15.451) (layer F.SilkS) (width 0.12))
  (fp_line (start 17.88 -15.418) (end 17.88 15.418) (layer F.SilkS) (width 0.12))
  (fp_line (start 17.92 -15.384) (end 17.92 15.384) (layer F.SilkS) (width 0.12))
  (fp_line (start 17.96 -15.351) (end 17.96 15.351) (layer F.SilkS) (width 0.12))
  (fp_line (start 18 -15.317) (end 18 15.317) (layer F.SilkS) (width 0.12))
  (fp_line (start 18.04 -15.283) (end 18.04 15.283) (layer F.SilkS) (width 0.12))
  (fp_line (start 18.08 -15.249) (end 18.08 15.249) (layer F.SilkS) (width 0.12))
  (fp_line (start 18.12 -15.214) (end 18.12 15.214) (layer F.SilkS) (width 0.12))
  (fp_line (start 18.16 -15.18) (end 18.16 15.18) (layer F.SilkS) (width 0.12))
  (fp_line (start 18.2 -15.145) (end 18.2 15.145) (layer F.SilkS) (width 0.12))
  (fp_line (start 18.24 -15.11) (end 18.24 15.11) (layer F.SilkS) (width 0.12))
  (fp_line (start 18.28 -15.075) (end 18.28 15.075) (layer F.SilkS) (width 0.12))
  (fp_line (start 18.32 -15.04) (end 18.32 15.04) (layer F.SilkS) (width 0.12))
  (fp_line (start 18.36 -15.005) (end 18.36 15.005) (layer F.SilkS) (width 0.12))
  (fp_line (start 18.4 -14.969) (end 18.4 14.969) (layer F.SilkS) (width 0.12))
  (fp_line (start 18.44 -14.933) (end 18.44 14.933) (layer F.SilkS) (width 0.12))
  (fp_line (start 18.48 -14.897) (end 18.48 14.897) (layer F.SilkS) (width 0.12))
  (fp_line (start 18.52 -14.861) (end 18.52 14.861) (layer F.SilkS) (width 0.12))
  (fp_line (start 18.56 -14.825) (end 18.56 14.825) (layer F.SilkS) (width 0.12))
  (fp_line (start 18.6 -14.788) (end 18.6 14.788) (layer F.SilkS) (width 0.12))
  (fp_line (start 18.64 -14.751) (end 18.64 14.751) (layer F.SilkS) (width 0.12))
  (fp_line (start 18.68 -14.714) (end 18.68 14.714) (layer F.SilkS) (width 0.12))
  (fp_line (start 18.72 -14.677) (end 18.72 14.677) (layer F.SilkS) (width 0.12))
  (fp_line (start 18.76 -14.64) (end 18.76 14.64) (layer F.SilkS) (width 0.12))
  (fp_line (start 18.8 -14.602) (end 18.8 14.602) (layer F.SilkS) (width 0.12))
  (fp_line (start 18.84 -14.564) (end 18.84 14.564) (layer F.SilkS) (width 0.12))
  (fp_line (start 18.88 -14.526) (end 18.88 14.526) (layer F.SilkS) (width 0.12))
  (fp_line (start 18.92 -14.488) (end 18.92 14.488) (layer F.SilkS) (width 0.12))
  (fp_line (start 18.96 -14.45) (end 18.96 14.45) (layer F.SilkS) (width 0.12))
  (fp_line (start 19 -14.411) (end 19 14.411) (layer F.SilkS) (width 0.12))
  (fp_line (start 19.04 -14.372) (end 19.04 14.372) (layer F.SilkS) (width 0.12))
  (fp_line (start 19.08 -14.333) (end 19.08 14.333) (layer F.SilkS) (width 0.12))
  (fp_line (start 19.12 -14.294) (end 19.12 14.294) (layer F.SilkS) (width 0.12))
  (fp_line (start 19.16 -14.254) (end 19.16 14.254) (layer F.SilkS) (width 0.12))
  (fp_line (start 19.2 -14.214) (end 19.2 14.214) (layer F.SilkS) (width 0.12))
  (fp_line (start 19.24 -14.174) (end 19.24 14.174) (layer F.SilkS) (width 0.12))
  (fp_line (start 19.28 -14.134) (end 19.28 14.134) (layer F.SilkS) (width 0.12))
  (fp_line (start 19.32 -14.094) (end 19.32 14.094) (layer F.SilkS) (width 0.12))
  (fp_line (start 19.36 -14.053) (end 19.36 14.053) (layer F.SilkS) (width 0.12))
  (fp_line (start 19.4 -14.012) (end 19.4 14.012) (layer F.SilkS) (width 0.12))
  (fp_line (start 19.44 -13.971) (end 19.44 13.971) (layer F.SilkS) (width 0.12))
  (fp_line (start 19.48 -13.93) (end 19.48 13.93) (layer F.SilkS) (width 0.12))
  (fp_line (start 19.52 -13.888) (end 19.52 13.888) (layer F.SilkS) (width 0.12))
  (fp_line (start 19.56 -13.846) (end 19.56 13.846) (layer F.SilkS) (width 0.12))
  (fp_line (start 19.6 -13.804) (end 19.6 13.804) (layer F.SilkS) (width 0.12))
  (fp_line (start 19.64 -13.762) (end 19.64 13.762) (layer F.SilkS) (width 0.12))
  (fp_line (start 19.68 -13.72) (end 19.68 13.72) (layer F.SilkS) (width 0.12))
  (fp_line (start 19.72 -13.677) (end 19.72 13.677) (layer F.SilkS) (width 0.12))
  (fp_line (start 19.76 -13.634) (end 19.76 13.634) (layer F.SilkS) (width 0.12))
  (fp_line (start 19.8 -13.59) (end 19.8 13.59) (layer F.SilkS) (width 0.12))
  (fp_line (start 19.84 -13.547) (end 19.84 13.547) (layer F.SilkS) (width 0.12))
  (fp_line (start 19.88 -13.503) (end 19.88 13.503) (layer F.SilkS) (width 0.12))
  (fp_line (start 19.92 -13.459) (end 19.92 13.459) (layer F.SilkS) (width 0.12))
  (fp_line (start 19.96 -13.415) (end 19.96 13.415) (layer F.SilkS) (width 0.12))
  (fp_line (start 20 -13.37) (end 20 13.37) (layer F.SilkS) (width 0.12))
  (fp_line (start 20.04 -13.325) (end 20.04 13.325) (layer F.SilkS) (width 0.12))
  (fp_line (start 20.08 -13.28) (end 20.08 13.28) (layer F.SilkS) (width 0.12))
  (fp_line (start 20.12 -13.235) (end 20.12 13.235) (layer F.SilkS) (width 0.12))
  (fp_line (start 20.16 -13.189) (end 20.16 13.189) (layer F.SilkS) (width 0.12))
  (fp_line (start 20.2 -13.143) (end 20.2 13.143) (layer F.SilkS) (width 0.12))
  (fp_line (start 20.24 -13.097) (end 20.24 13.097) (layer F.SilkS) (width 0.12))
  (fp_line (start 20.28 -13.05) (end 20.28 13.05) (layer F.SilkS) (width 0.12))
  (fp_line (start 20.32 -13.003) (end 20.32 13.003) (layer F.SilkS) (width 0.12))
  (fp_line (start 20.36 -12.956) (end 20.36 12.956) (layer F.SilkS) (width 0.12))
  (fp_line (start 20.4 -12.909) (end 20.4 12.909) (layer F.SilkS) (width 0.12))
  (fp_line (start 20.44 -12.861) (end 20.44 12.861) (layer F.SilkS) (width 0.12))
  (fp_line (start 20.48 -12.813) (end 20.48 12.813) (layer F.SilkS) (width 0.12))
  (fp_line (start 20.52 -12.765) (end 20.52 12.765) (layer F.SilkS) (width 0.12))
  (fp_line (start 20.56 -12.716) (end 20.56 12.716) (layer F.SilkS) (width 0.12))
  (fp_line (start 20.6 -12.667) (end 20.6 12.667) (layer F.SilkS) (width 0.12))
  (fp_line (start 20.64 -12.618) (end 20.64 12.618) (layer F.SilkS) (width 0.12))
  (fp_line (start 20.68 -12.568) (end 20.68 12.568) (layer F.SilkS) (width 0.12))
  (fp_line (start 20.72 -12.518) (end 20.72 12.518) (layer F.SilkS) (width 0.12))
  (fp_line (start 20.76 -12.468) (end 20.76 12.468) (layer F.SilkS) (width 0.12))
  (fp_line (start 20.8 -12.417) (end 20.8 12.417) (layer F.SilkS) (width 0.12))
  (fp_line (start 20.84 -12.366) (end 20.84 12.366) (layer F.SilkS) (width 0.12))
  (fp_line (start 20.88 -12.315) (end 20.88 12.315) (layer F.SilkS) (width 0.12))
  (fp_line (start 20.92 -12.264) (end 20.92 12.264) (layer F.SilkS) (width 0.12))
  (fp_line (start 20.96 -12.212) (end 20.96 12.212) (layer F.SilkS) (width 0.12))
  (fp_line (start 21 -12.159) (end 21 12.159) (layer F.SilkS) (width 0.12))
  (fp_line (start 21.04 -12.107) (end 21.04 12.107) (layer F.SilkS) (width 0.12))
  (fp_line (start 21.08 -12.054) (end 21.08 12.054) (layer F.SilkS) (width 0.12))
  (fp_line (start 21.12 -12) (end 21.12 12) (layer F.SilkS) (width 0.12))
  (fp_line (start 21.16 -11.947) (end 21.16 11.947) (layer F.SilkS) (width 0.12))
  (fp_line (start 21.2 -11.893) (end 21.2 11.893) (layer F.SilkS) (width 0.12))
  (fp_line (start 21.24 -11.838) (end 21.24 11.838) (layer F.SilkS) (width 0.12))
  (fp_line (start 21.28 -11.783) (end 21.28 11.783) (layer F.SilkS) (width 0.12))
  (fp_line (start 21.32 -11.728) (end 21.32 11.728) (layer F.SilkS) (width 0.12))
  (fp_line (start 21.36 -11.672) (end 21.36 11.672) (layer F.SilkS) (width 0.12))
  (fp_line (start 21.4 -11.616) (end 21.4 11.616) (layer F.SilkS) (width 0.12))
  (fp_line (start 21.44 -11.56) (end 21.44 11.56) (layer F.SilkS) (width 0.12))
  (fp_line (start 21.48 -11.503) (end 21.48 11.503) (layer F.SilkS) (width 0.12))
  (fp_line (start 21.52 -11.445) (end 21.52 11.445) (layer F.SilkS) (width 0.12))
  (fp_line (start 21.56 -11.388) (end 21.56 11.388) (layer F.SilkS) (width 0.12))
  (fp_line (start 21.6 -11.33) (end 21.6 11.33) (layer F.SilkS) (width 0.12))
  (fp_line (start 21.64 -11.271) (end 21.64 11.271) (layer F.SilkS) (width 0.12))
  (fp_line (start 21.68 -11.212) (end 21.68 11.212) (layer F.SilkS) (width 0.12))
  (fp_line (start 21.72 -11.152) (end 21.72 11.152) (layer F.SilkS) (width 0.12))
  (fp_line (start 21.76 -11.092) (end 21.76 11.092) (layer F.SilkS) (width 0.12))
  (fp_line (start 21.8 -11.032) (end 21.8 11.032) (layer F.SilkS) (width 0.12))
  (fp_line (start 21.84 -10.971) (end 21.84 10.971) (layer F.SilkS) (width 0.12))
  (fp_line (start 21.88 -10.909) (end 21.88 10.909) (layer F.SilkS) (width 0.12))
  (fp_line (start 21.92 -10.848) (end 21.92 10.848) (layer F.SilkS) (width 0.12))
  (fp_line (start 21.96 -10.785) (end 21.96 10.785) (layer F.SilkS) (width 0.12))
  (fp_line (start 22 -10.722) (end 22 10.722) (layer F.SilkS) (width 0.12))
  (fp_line (start 22.04 -10.659) (end 22.04 10.659) (layer F.SilkS) (width 0.12))
  (fp_line (start 22.08 -10.595) (end 22.08 10.595) (layer F.SilkS) (width 0.12))
  (fp_line (start 22.12 -10.53) (end 22.12 10.53) (layer F.SilkS) (width 0.12))
  (fp_line (start 22.16 -10.465) (end 22.16 10.465) (layer F.SilkS) (width 0.12))
  (fp_line (start 22.2 -10.4) (end 22.2 10.4) (layer F.SilkS) (width 0.12))
  (fp_line (start 22.24 -10.333) (end 22.24 10.333) (layer F.SilkS) (width 0.12))
  (fp_line (start 22.28 -10.267) (end 22.28 10.267) (layer F.SilkS) (width 0.12))
  (fp_line (start 22.32 -10.199) (end 22.32 10.199) (layer F.SilkS) (width 0.12))
  (fp_line (start 22.36 -10.131) (end 22.36 10.131) (layer F.SilkS) (width 0.12))
  (fp_line (start 22.4 -10.063) (end 22.4 10.063) (layer F.SilkS) (width 0.12))
  (fp_line (start 22.44 -9.993) (end 22.44 9.993) (layer F.SilkS) (width 0.12))
  (fp_line (start 22.48 -9.924) (end 22.48 9.924) (layer F.SilkS) (width 0.12))
  (fp_line (start 22.52 -9.853) (end 22.52 9.853) (layer F.SilkS) (width 0.12))
  (fp_line (start 22.56 -9.782) (end 22.56 9.782) (layer F.SilkS) (width 0.12))
  (fp_line (start 22.6 -9.71) (end 22.6 9.71) (layer F.SilkS) (width 0.12))
  (fp_line (start 22.64 -9.638) (end 22.64 9.638) (layer F.SilkS) (width 0.12))
  (fp_line (start 22.68 -9.564) (end 22.68 9.564) (layer F.SilkS) (width 0.12))
  (fp_line (start 22.72 -9.49) (end 22.72 9.49) (layer F.SilkS) (width 0.12))
  (fp_line (start 22.76 -9.415) (end 22.76 9.415) (layer F.SilkS) (width 0.12))
  (fp_line (start 22.8 -9.34) (end 22.8 9.34) (layer F.SilkS) (width 0.12))
  (fp_line (start 22.84 -9.264) (end 22.84 9.264) (layer F.SilkS) (width 0.12))
  (fp_line (start 22.88 -9.187) (end 22.88 9.187) (layer F.SilkS) (width 0.12))
  (fp_line (start 22.92 -9.109) (end 22.92 9.109) (layer F.SilkS) (width 0.12))
  (fp_line (start 22.96 -9.03) (end 22.96 9.03) (layer F.SilkS) (width 0.12))
  (fp_line (start 23 -8.95) (end 23 8.95) (layer F.SilkS) (width 0.12))
  (fp_line (start 23.04 -8.87) (end 23.04 8.87) (layer F.SilkS) (width 0.12))
  (fp_line (start 23.08 -8.788) (end 23.08 8.788) (layer F.SilkS) (width 0.12))
  (fp_line (start 23.12 -8.706) (end 23.12 8.706) (layer F.SilkS) (width 0.12))
  (fp_line (start 23.16 -8.622) (end 23.16 8.622) (layer F.SilkS) (width 0.12))
  (fp_line (start 23.2 -8.538) (end 23.2 8.538) (layer F.SilkS) (width 0.12))
  (fp_line (start 23.24 -8.453) (end 23.24 8.453) (layer F.SilkS) (width 0.12))
  (fp_line (start 23.28 -8.366) (end 23.28 8.366) (layer F.SilkS) (width 0.12))
  (fp_line (start 23.32 -8.279) (end 23.32 8.279) (layer F.SilkS) (width 0.12))
  (fp_line (start 23.36 -8.19) (end 23.36 8.19) (layer F.SilkS) (width 0.12))
  (fp_line (start 23.4 -8.1) (end 23.4 8.1) (layer F.SilkS) (width 0.12))
  (fp_line (start 23.44 -8.009) (end 23.44 8.009) (layer F.SilkS) (width 0.12))
  (fp_line (start 23.48 -7.917) (end 23.48 7.917) (layer F.SilkS) (width 0.12))
  (fp_line (start 23.52 -7.823) (end 23.52 7.823) (layer F.SilkS) (width 0.12))
  (fp_line (start 23.56 -7.728) (end 23.56 7.728) (layer F.SilkS) (width 0.12))
  (fp_line (start 23.6 -7.632) (end 23.6 7.632) (layer F.SilkS) (width 0.12))
  (fp_line (start 23.64 -7.534) (end 23.64 7.534) (layer F.SilkS) (width 0.12))
  (fp_line (start 23.68 -7.435) (end 23.68 7.435) (layer F.SilkS) (width 0.12))
  (fp_line (start 23.72 -7.335) (end 23.72 7.335) (layer F.SilkS) (width 0.12))
  (fp_line (start 23.76 -7.232) (end 23.76 7.232) (layer F.SilkS) (width 0.12))
  (fp_line (start 23.8 -7.128) (end 23.8 7.128) (layer F.SilkS) (width 0.12))
  (fp_line (start 23.84 -7.022) (end 23.84 7.022) (layer F.SilkS) (width 0.12))
  (fp_line (start 23.88 -6.915) (end 23.88 6.915) (layer F.SilkS) (width 0.12))
  (fp_line (start 23.92 -6.805) (end 23.92 6.805) (layer F.SilkS) (width 0.12))
  (fp_line (start 23.96 -6.693) (end 23.96 6.693) (layer F.SilkS) (width 0.12))
  (fp_line (start 24 -6.58) (end 24 6.58) (layer F.SilkS) (width 0.12))
  (fp_line (start 24.04 -6.464) (end 24.04 6.464) (layer F.SilkS) (width 0.12))
  (fp_line (start 24.08 -6.345) (end 24.08 6.345) (layer F.SilkS) (width 0.12))
  (fp_line (start 24.12 -6.225) (end 24.12 6.225) (layer F.SilkS) (width 0.12))
  (fp_line (start 24.16 -6.101) (end 24.16 6.101) (layer F.SilkS) (width 0.12))
  (fp_line (start 24.2 -5.975) (end 24.2 5.975) (layer F.SilkS) (width 0.12))
  (fp_line (start 24.24 -5.846) (end 24.24 5.846) (layer F.SilkS) (width 0.12))
  (fp_line (start 24.28 -5.713) (end 24.28 5.713) (layer F.SilkS) (width 0.12))
  (fp_line (start 24.32 -5.578) (end 24.32 5.578) (layer F.SilkS) (width 0.12))
  (fp_line (start 24.36 -5.438) (end 24.36 5.438) (layer F.SilkS) (width 0.12))
  (fp_line (start 24.4 -5.295) (end 24.4 5.295) (layer F.SilkS) (width 0.12))
  (fp_line (start 24.44 -5.147) (end 24.44 5.147) (layer F.SilkS) (width 0.12))
  (fp_line (start 24.48 -4.995) (end 24.48 4.995) (layer F.SilkS) (width 0.12))
  (fp_line (start 24.52 -4.837) (end 24.52 4.837) (layer F.SilkS) (width 0.12))
  (fp_line (start 24.56 -4.674) (end 24.56 4.674) (layer F.SilkS) (width 0.12))
  (fp_line (start 24.6 -4.505) (end 24.6 4.505) (layer F.SilkS) (width 0.12))
  (fp_line (start 24.64 -4.329) (end 24.64 4.329) (layer F.SilkS) (width 0.12))
  (fp_line (start 24.68 -4.145) (end 24.68 4.145) (layer F.SilkS) (width 0.12))
  (fp_line (start 24.72 -3.952) (end 24.72 3.952) (layer F.SilkS) (width 0.12))
  (fp_line (start 24.76 -3.75) (end 24.76 3.75) (layer F.SilkS) (width 0.12))
  (fp_line (start 24.8 -3.535) (end 24.8 3.535) (layer F.SilkS) (width 0.12))
  (fp_line (start 24.84 -3.305) (end 24.84 3.305) (layer F.SilkS) (width 0.12))
  (fp_line (start 24.88 -3.059) (end 24.88 3.059) (layer F.SilkS) (width 0.12))
  (fp_line (start 24.92 -2.79) (end 24.92 2.79) (layer F.SilkS) (width 0.12))
  (fp_line (start 24.96 -2.493) (end 24.96 2.493) (layer F.SilkS) (width 0.12))
  (fp_line (start 25 -2.155) (end 25 2.155) (layer F.SilkS) (width 0.12))
  (fp_line (start 25.04 -1.753) (end 25.04 1.753) (layer F.SilkS) (width 0.12))
  (fp_line (start 25.08 -1.229) (end 25.08 1.229) (layer F.SilkS) (width 0.12))
  (fp_line (start 25.12 -0.04) (end 25.12 0.04) (layer F.SilkS) (width 0.12))
  (fp_line (start -16.528873 -11.275) (end -12.528873 -11.275) (layer F.SilkS) (width 0.12))
  (fp_line (start -14.528873 -13.275) (end -14.528873 -9.275) (layer F.SilkS) (width 0.12))
  (pad 2 thru_hole circle (at 10 0) (size 4 4) (drill 2) (layers *.Cu *.Mask))
  (pad 1 thru_hole rect (at 0 0) (size 4 4) (drill 2) (layers *.Cu *.Mask))
  (model ${KISYS3DMOD}/Capacitor_THT.3dshapes/CP_Radial_D40.0mm_P10.00mm_SnapIn.wrl
    (at (xyz 0 0 0))
    (scale (xyz 1 1 1))
    (rotate (xyz 0 0 0))
  )
)
