(module CP_Radial_D8.0mm_P5.00mm (layer F.Cu) (tedit 5AE50EF0)
  (descr "CP, Radial series, Radial, pin pitch=5.00mm, , diameter=8mm, Electrolytic Capacitor")
  (tags "CP Radial series Radial pin pitch 5.00mm  diameter 8mm Electrolytic Capacitor")
  (fp_text reference REF** (at 2.5 -5.25) (layer F.SilkS)
    (effects (font (size 1 1) (thickness 0.15)))
  )
  (fp_text value CP_Radial_D8.0mm_P5.00mm (at 2.5 5.25) (layer F.Fab)
    (effects (font (size 1 1) (thickness 0.15)))
  )
  (fp_text user %R (at 2.5 0) (layer F.Fab)
    (effects (font (size 1 1) (thickness 0.15)))
  )
  (fp_circle (center 2.5 0) (end 6.5 0) (layer F.Fab) (width 0.1))
  (fp_circle (center 2.5 0) (end 6.62 0) (layer F.SilkS) (width 0.12))
  (fp_circle (center 2.5 0) (end 6.75 0) (layer F.CrtYd) (width 0.05))
  (fp_line (start -0.926759 -1.7475) (end -0.126759 -1.7475) (layer F.Fab) (width 0.1))
  (fp_line (start -0.526759 -2.1475) (end -0.526759 -1.3475) (layer F.Fab) (width 0.1))
  (fp_line (start 2.5 -4.08) (end 2.5 4.08) (layer F.SilkS) (width 0.12))
  (fp_line (start 2.54 -4.08) (end 2.54 4.08) (layer F.SilkS) (width 0.12))
  (fp_line (start 2.58 -4.08) (end 2.58 4.08) (layer F.SilkS) (width 0.12))
  (fp_line (start 2.62 -4.079) (end 2.62 4.079) (layer F.SilkS) (width 0.12))
  (fp_line (start 2.66 -4.077) (end 2.66 4.077) (layer F.SilkS) (width 0.12))
  (fp_line (start 2.7 -4.076) (end 2.7 4.076) (layer F.SilkS) (width 0.12))
  (fp_line (start 2.74 -4.074) (end 2.74 4.074) (layer F.SilkS) (width 0.12))
  (fp_line (start 2.78 -4.071) (end 2.78 4.071) (layer F.SilkS) (width 0.12))
  (fp_line (start 2.82 -4.068) (end 2.82 4.068) (layer F.SilkS) (width 0.12))
  (fp_line (start 2.86 -4.065) (end 2.86 4.065) (layer F.SilkS) (width 0.12))
  (fp_line (start 2.9 -4.061) (end 2.9 4.061) (layer F.SilkS) (width 0.12))
  (fp_line (start 2.94 -4.057) (end 2.94 4.057) (layer F.SilkS) (width 0.12))
  (fp_line (start 2.98 -4.052) (end 2.98 4.052) (layer F.SilkS) (width 0.12))
  (fp_line (start 3.02 -4.048) (end 3.02 4.048) (layer F.SilkS) (width 0.12))
  (fp_line (start 3.06 -4.042) (end 3.06 4.042) (layer F.SilkS) (width 0.12))
  (fp_line (start 3.1 -4.037) (end 3.1 4.037) (layer F.SilkS) (width 0.12))
  (fp_line (start 3.14 -4.03) (end 3.14 4.03) (layer F.SilkS) (width 0.12))
  (fp_line (start 3.18 -4.024) (end 3.18 4.024) (layer F.SilkS) (width 0.12))
  (fp_line (start 3.221 -4.017) (end 3.221 4.017) (layer F.SilkS) (width 0.12))
  (fp_line (start 3.261 -4.01) (end 3.261 4.01) (layer F.SilkS) (width 0.12))
  (fp_line (start 3.301 -4.002) (end 3.301 4.002) (layer F.SilkS) (width 0.12))
  (fp_line (start 3.341 -3.994) (end 3.341 3.994) (layer F.SilkS) (width 0.12))
  (fp_line (start 3.381 -3.985) (end 3.381 3.985) (layer F.SilkS) (width 0.12))
  (fp_line (start 3.421 -3.976) (end 3.421 3.976) (layer F.SilkS) (width 0.12))
  (fp_line (start 3.461 -3.967) (end 3.461 3.967) (layer F.SilkS) (width 0.12))
  (fp_line (start 3.501 -3.957) (end 3.501 3.957) (layer F.SilkS) (width 0.12))
  (fp_line (start 3.541 -3.947) (end 3.541 3.947) (layer F.SilkS) (width 0.12))
  (fp_line (start 3.581 -3.936) (end 3.581 3.936) (layer F.SilkS) (width 0.12))
  (fp_line (start 3.621 -3.925) (end 3.621 3.925) (layer F.SilkS) (width 0.12))
  (fp_line (start 3.661 -3.914) (end 3.661 3.914) (layer F.SilkS) (width 0.12))
  (fp_line (start 3.701 -3.902) (end 3.701 3.902) (layer F.SilkS) (width 0.12))
  (fp_line (start 3.741 -3.889) (end 3.741 3.889) (layer F.SilkS) (width 0.12))
  (fp_line (start 3.781 -3.877) (end 3.781 3.877) (layer F.SilkS) (width 0.12))
  (fp_line (start 3.821 -3.863) (end 3.821 3.863) (layer F.SilkS) (width 0.12))
  (fp_line (start 3.861 -3.85) (end 3.861 3.85) (layer F.SilkS) (width 0.12))
  (fp_line (start 3.901 -3.835) (end 3.901 3.835) (layer F.SilkS) (width 0.12))
  (fp_line (start 3.941 -3.821) (end 3.941 3.821) (layer F.SilkS) (width 0.12))
  (fp_line (start 3.981 -3.805) (end 3.981 -1.04) (layer F.SilkS) (width 0.12))
  (fp_line (start 3.981 1.04) (end 3.981 3.805) (layer F.SilkS) (width 0.12))
  (fp_line (start 4.021 -3.79) (end 4.021 -1.04) (layer F.SilkS) (width 0.12))
  (fp_line (start 4.021 1.04) (end 4.021 3.79) (layer F.SilkS) (width 0.12))
  (fp_line (start 4.061 -3.774) (end 4.061 -1.04) (layer F.SilkS) (width 0.12))
  (fp_line (start 4.061 1.04) (end 4.061 3.774) (layer F.SilkS) (width 0.12))
  (fp_line (start 4.101 -3.757) (end 4.101 -1.04) (layer F.SilkS) (width 0.12))
  (fp_line (start 4.101 1.04) (end 4.101 3.757) (layer F.SilkS) (width 0.12))
  (fp_line (start 4.141 -3.74) (end 4.141 -1.04) (layer F.SilkS) (width 0.12))
  (fp_line (start 4.141 1.04) (end 4.141 3.74) (layer F.SilkS) (width 0.12))
  (fp_line (start 4.181 -3.722) (end 4.181 -1.04) (layer F.SilkS) (width 0.12))
  (fp_line (start 4.181 1.04) (end 4.181 3.722) (layer F.SilkS) (width 0.12))
  (fp_line (start 4.221 -3.704) (end 4.221 -1.04) (layer F.SilkS) (width 0.12))
  (fp_line (start 4.221 1.04) (end 4.221 3.704) (layer F.SilkS) (width 0.12))
  (fp_line (start 4.261 -3.686) (end 4.261 -1.04) (layer F.SilkS) (width 0.12))
  (fp_line (start 4.261 1.04) (end 4.261 3.686) (layer F.SilkS) (width 0.12))
  (fp_line (start 4.301 -3.666) (end 4.301 -1.04) (layer F.SilkS) (width 0.12))
  (fp_line (start 4.301 1.04) (end 4.301 3.666) (layer F.SilkS) (width 0.12))
  (fp_line (start 4.341 -3.647) (end 4.341 -1.04) (layer F.SilkS) (width 0.12))
  (fp_line (start 4.341 1.04) (end 4.341 3.647) (layer F.SilkS) (width 0.12))
  (fp_line (start 4.381 -3.627) (end 4.381 -1.04) (layer F.SilkS) (width 0.12))
  (fp_line (start 4.381 1.04) (end 4.381 3.627) (layer F.SilkS) (width 0.12))
  (fp_line (start 4.421 -3.606) (end 4.421 -1.04) (layer F.SilkS) (width 0.12))
  (fp_line (start 4.421 1.04) (end 4.421 3.606) (layer F.SilkS) (width 0.12))
  (fp_line (start 4.461 -3.584) (end 4.461 -1.04) (layer F.SilkS) (width 0.12))
  (fp_line (start 4.461 1.04) (end 4.461 3.584) (layer F.SilkS) (width 0.12))
  (fp_line (start 4.501 -3.562) (end 4.501 -1.04) (layer F.SilkS) (width 0.12))
  (fp_line (start 4.501 1.04) (end 4.501 3.562) (layer F.SilkS) (width 0.12))
  (fp_line (start 4.541 -3.54) (end 4.541 -1.04) (layer F.SilkS) (width 0.12))
  (fp_line (start 4.541 1.04) (end 4.541 3.54) (layer F.SilkS) (width 0.12))
  (fp_line (start 4.581 -3.517) (end 4.581 -1.04) (layer F.SilkS) (width 0.12))
  (fp_line (start 4.581 1.04) (end 4.581 3.517) (layer F.SilkS) (width 0.12))
  (fp_line (start 4.621 -3.493) (end 4.621 -1.04) (layer F.SilkS) (width 0.12))
  (fp_line (start 4.621 1.04) (end 4.621 3.493) (layer F.SilkS) (width 0.12))
  (fp_line (start 4.661 -3.469) (end 4.661 -1.04) (layer F.SilkS) (width 0.12))
  (fp_line (start 4.661 1.04) (end 4.661 3.469) (layer F.SilkS) (width 0.12))
  (fp_line (start 4.701 -3.444) (end 4.701 -1.04) (layer F.SilkS) (width 0.12))
  (fp_line (start 4.701 1.04) (end 4.701 3.444) (layer F.SilkS) (width 0.12))
  (fp_line (start 4.741 -3.418) (end 4.741 -1.04) (layer F.SilkS) (width 0.12))
  (fp_line (start 4.741 1.04) (end 4.741 3.418) (layer F.SilkS) (width 0.12))
  (fp_line (start 4.781 -3.392) (end 4.781 -1.04) (layer F.SilkS) (width 0.12))
  (fp_line (start 4.781 1.04) (end 4.781 3.392) (layer F.SilkS) (width 0.12))
  (fp_line (start 4.821 -3.365) (end 4.821 -1.04) (layer F.SilkS) (width 0.12))
  (fp_line (start 4.821 1.04) (end 4.821 3.365) (layer F.SilkS) (width 0.12))
  (fp_line (start 4.861 -3.338) (end 4.861 -1.04) (layer F.SilkS) (width 0.12))
  (fp_line (start 4.861 1.04) (end 4.861 3.338) (layer F.SilkS) (width 0.12))
  (fp_line (start 4.901 -3.309) (end 4.901 -1.04) (layer F.SilkS) (width 0.12))
  (fp_line (start 4.901 1.04) (end 4.901 3.309) (layer F.SilkS) (width 0.12))
  (fp_line (start 4.941 -3.28) (end 4.941 -1.04) (layer F.SilkS) (width 0.12))
  (fp_line (start 4.941 1.04) (end 4.941 3.28) (layer F.SilkS) (width 0.12))
  (fp_line (start 4.981 -3.25) (end 4.981 -1.04) (layer F.SilkS) (width 0.12))
  (fp_line (start 4.981 1.04) (end 4.981 3.25) (layer F.SilkS) (width 0.12))
  (fp_line (start 5.021 -3.22) (end 5.021 -1.04) (layer F.SilkS) (width 0.12))
  (fp_line (start 5.021 1.04) (end 5.021 3.22) (layer F.SilkS) (width 0.12))
  (fp_line (start 5.061 -3.189) (end 5.061 -1.04) (layer F.SilkS) (width 0.12))
  (fp_line (start 5.061 1.04) (end 5.061 3.189) (layer F.SilkS) (width 0.12))
  (fp_line (start 5.101 -3.156) (end 5.101 -1.04) (layer F.SilkS) (width 0.12))
  (fp_line (start 5.101 1.04) (end 5.101 3.156) (layer F.SilkS) (width 0.12))
  (fp_line (start 5.141 -3.124) (end 5.141 -1.04) (layer F.SilkS) (width 0.12))
  (fp_line (start 5.141 1.04) (end 5.141 3.124) (layer F.SilkS) (width 0.12))
  (fp_line (start 5.181 -3.09) (end 5.181 -1.04) (layer F.SilkS) (width 0.12))
  (fp_line (start 5.181 1.04) (end 5.181 3.09) (layer F.SilkS) (width 0.12))
  (fp_line (start 5.221 -3.055) (end 5.221 -1.04) (layer F.SilkS) (width 0.12))
  (fp_line (start 5.221 1.04) (end 5.221 3.055) (layer F.SilkS) (width 0.12))
  (fp_line (start 5.261 -3.019) (end 5.261 -1.04) (layer F.SilkS) (width 0.12))
  (fp_line (start 5.261 1.04) (end 5.261 3.019) (layer F.SilkS) (width 0.12))
  (fp_line (start 5.301 -2.983) (end 5.301 -1.04) (layer F.SilkS) (width 0.12))
  (fp_line (start 5.301 1.04) (end 5.301 2.983) (layer F.SilkS) (width 0.12))
  (fp_line (start 5.341 -2.945) (end 5.341 -1.04) (layer F.SilkS) (width 0.12))
  (fp_line (start 5.341 1.04) (end 5.341 2.945) (layer F.SilkS) (width 0.12))
  (fp_line (start 5.381 -2.907) (end 5.381 -1.04) (layer F.SilkS) (width 0.12))
  (fp_line (start 5.381 1.04) (end 5.381 2.907) (layer F.SilkS) (width 0.12))
  (fp_line (start 5.421 -2.867) (end 5.421 -1.04) (layer F.SilkS) (width 0.12))
  (fp_line (start 5.421 1.04) (end 5.421 2.867) (layer F.SilkS) (width 0.12))
  (fp_line (start 5.461 -2.826) (end 5.461 -1.04) (layer F.SilkS) (width 0.12))
  (fp_line (start 5.461 1.04) (end 5.461 2.826) (layer F.SilkS) (width 0.12))
  (fp_line (start 5.501 -2.784) (end 5.501 -1.04) (layer F.SilkS) (width 0.12))
  (fp_line (start 5.501 1.04) (end 5.501 2.784) (layer F.SilkS) (width 0.12))
  (fp_line (start 5.541 -2.741) (end 5.541 -1.04) (layer F.SilkS) (width 0.12))
  (fp_line (start 5.541 1.04) (end 5.541 2.741) (layer F.SilkS) (width 0.12))
  (fp_line (start 5.581 -2.697) (end 5.581 -1.04) (layer F.SilkS) (width 0.12))
  (fp_line (start 5.581 1.04) (end 5.581 2.697) (layer F.SilkS) (width 0.12))
  (fp_line (start 5.621 -2.651) (end 5.621 -1.04) (layer F.SilkS) (width 0.12))
  (fp_line (start 5.621 1.04) (end 5.621 2.651) (layer F.SilkS) (width 0.12))
  (fp_line (start 5.661 -2.604) (end 5.661 -1.04) (layer F.SilkS) (width 0.12))
  (fp_line (start 5.661 1.04) (end 5.661 2.604) (layer F.SilkS) (width 0.12))
  (fp_line (start 5.701 -2.556) (end 5.701 -1.04) (layer F.SilkS) (width 0.12))
  (fp_line (start 5.701 1.04) (end 5.701 2.556) (layer F.SilkS) (width 0.12))
  (fp_line (start 5.741 -2.505) (end 5.741 -1.04) (layer F.SilkS) (width 0.12))
  (fp_line (start 5.741 1.04) (end 5.741 2.505) (layer F.SilkS) (width 0.12))
  (fp_line (start 5.781 -2.454) (end 5.781 -1.04) (layer F.SilkS) (width 0.12))
  (fp_line (start 5.781 1.04) (end 5.781 2.454) (layer F.SilkS) (width 0.12))
  (fp_line (start 5.821 -2.4) (end 5.821 -1.04) (layer F.SilkS) (width 0.12))
  (fp_line (start 5.821 1.04) (end 5.821 2.4) (layer F.SilkS) (width 0.12))
  (fp_line (start 5.861 -2.345) (end 5.861 -1.04) (layer F.SilkS) (width 0.12))
  (fp_line (start 5.861 1.04) (end 5.861 2.345) (layer F.SilkS) (width 0.12))
  (fp_line (start 5.901 -2.287) (end 5.901 -1.04) (layer F.SilkS) (width 0.12))
  (fp_line (start 5.901 1.04) (end 5.901 2.287) (layer F.SilkS) (width 0.12))
  (fp_line (start 5.941 -2.228) (end 5.941 -1.04) (layer F.SilkS) (width 0.12))
  (fp_line (start 5.941 1.04) (end 5.941 2.228) (layer F.SilkS) (width 0.12))
  (fp_line (start 5.981 -2.166) (end 5.981 -1.04) (layer F.SilkS) (width 0.12))
  (fp_line (start 5.981 1.04) (end 5.981 2.166) (layer F.SilkS) (width 0.12))
  (fp_line (start 6.021 -2.102) (end 6.021 -1.04) (layer F.SilkS) (width 0.12))
  (fp_line (start 6.021 1.04) (end 6.021 2.102) (layer F.SilkS) (width 0.12))
  (fp_line (start 6.061 -2.034) (end 6.061 2.034) (layer F.SilkS) (width 0.12))
  (fp_line (start 6.101 -1.964) (end 6.101 1.964) (layer F.SilkS) (width 0.12))
  (fp_line (start 6.141 -1.89) (end 6.141 1.89) (layer F.SilkS) (width 0.12))
  (fp_line (start 6.181 -1.813) (end 6.181 1.813) (layer F.SilkS) (width 0.12))
  (fp_line (start 6.221 -1.731) (end 6.221 1.731) (layer F.SilkS) (width 0.12))
  (fp_line (start 6.261 -1.645) (end 6.261 1.645) (layer F.SilkS) (width 0.12))
  (fp_line (start 6.301 -1.552) (end 6.301 1.552) (layer F.SilkS) (width 0.12))
  (fp_line (start 6.341 -1.453) (end 6.341 1.453) (layer F.SilkS) (width 0.12))
  (fp_line (start 6.381 -1.346) (end 6.381 1.346) (layer F.SilkS) (width 0.12))
  (fp_line (start 6.421 -1.229) (end 6.421 1.229) (layer F.SilkS) (width 0.12))
  (fp_line (start 6.461 -1.098) (end 6.461 1.098) (layer F.SilkS) (width 0.12))
  (fp_line (start 6.501 -0.948) (end 6.501 0.948) (layer F.SilkS) (width 0.12))
  (fp_line (start 6.541 -0.768) (end 6.541 0.768) (layer F.SilkS) (width 0.12))
  (fp_line (start 6.581 -0.533) (end 6.581 0.533) (layer F.SilkS) (width 0.12))
  (fp_line (start -1.909698 -2.315) (end -1.109698 -2.315) (layer F.SilkS) (width 0.12))
  (fp_line (start -1.509698 -2.715) (end -1.509698 -1.915) (layer F.SilkS) (width 0.12))
  (pad 2 thru_hole circle (at 5 0) (size 1.6 1.6) (drill 0.8) (layers *.Cu *.Mask))
  (pad 1 thru_hole rect (at 0 0) (size 1.6 1.6) (drill 0.8) (layers *.Cu *.Mask))
  (model ${KISYS3DMOD}/Capacitor_THT.3dshapes/CP_Radial_D8.0mm_P5.00mm.wrl
    (at (xyz 0 0 0))
    (scale (xyz 1 1 1))
    (rotate (xyz 0 0 0))
  )
)
