(module CP_Radial_D24.0mm_P10.00mm_3pin_SnapIn (layer F.Cu) (tedit 5AE50EF1)
  (descr "CP, Radial series, Radial, pin pitch=10.00mm, , diameter=24mm, Electrolytic Capacitor, , http://www.vishay.com/docs/28342/058059pll-si.pdf")
  (tags "CP Radial series Radial pin pitch 10.00mm  diameter 24mm Electrolytic Capacitor")
  (fp_text reference REF** (at 5 -13.25) (layer F.SilkS)
    (effects (font (size 1 1) (thickness 0.15)))
  )
  (fp_text value CP_Radial_D24.0mm_P10.00mm_3pin_SnapIn (at 5 13.25) (layer F.Fab)
    (effects (font (size 1 1) (thickness 0.15)))
  )
  (fp_text user %R (at 5 0) (layer F.Fab)
    (effects (font (size 1 1) (thickness 0.15)))
  )
  (fp_circle (center 5 0) (end 17 0) (layer F.Fab) (width 0.1))
  (fp_circle (center 5 0) (end 17.12 0) (layer F.SilkS) (width 0.12))
  (fp_circle (center 5 0) (end 17.25 0) (layer F.CrtYd) (width 0.05))
  (fp_line (start -5.323578 -5.2675) (end -2.923578 -5.2675) (layer F.Fab) (width 0.1))
  (fp_line (start -4.123578 -6.4675) (end -4.123578 -4.0675) (layer F.Fab) (width 0.1))
  (fp_line (start 5 -12.081) (end 5 -7.49) (layer F.SilkS) (width 0.12))
  (fp_line (start 5 -2.01) (end 5 12.081) (layer F.SilkS) (width 0.12))
  (fp_line (start 5.04 -12.08) (end 5.04 -7.49) (layer F.SilkS) (width 0.12))
  (fp_line (start 5.04 -2.01) (end 5.04 12.08) (layer F.SilkS) (width 0.12))
  (fp_line (start 5.08 -12.08) (end 5.08 -7.49) (layer F.SilkS) (width 0.12))
  (fp_line (start 5.08 -2.01) (end 5.08 12.08) (layer F.SilkS) (width 0.12))
  (fp_line (start 5.12 -12.08) (end 5.12 -7.49) (layer F.SilkS) (width 0.12))
  (fp_line (start 5.12 -2.01) (end 5.12 12.08) (layer F.SilkS) (width 0.12))
  (fp_line (start 5.16 -12.079) (end 5.16 -7.49) (layer F.SilkS) (width 0.12))
  (fp_line (start 5.16 -2.01) (end 5.16 12.079) (layer F.SilkS) (width 0.12))
  (fp_line (start 5.2 -12.079) (end 5.2 -7.49) (layer F.SilkS) (width 0.12))
  (fp_line (start 5.2 -2.01) (end 5.2 12.079) (layer F.SilkS) (width 0.12))
  (fp_line (start 5.24 -12.078) (end 5.24 -7.49) (layer F.SilkS) (width 0.12))
  (fp_line (start 5.24 -2.01) (end 5.24 12.078) (layer F.SilkS) (width 0.12))
  (fp_line (start 5.28 -12.077) (end 5.28 -7.49) (layer F.SilkS) (width 0.12))
  (fp_line (start 5.28 -2.01) (end 5.28 12.077) (layer F.SilkS) (width 0.12))
  (fp_line (start 5.32 -12.076) (end 5.32 -7.49) (layer F.SilkS) (width 0.12))
  (fp_line (start 5.32 -2.01) (end 5.32 12.076) (layer F.SilkS) (width 0.12))
  (fp_line (start 5.36 -12.075) (end 5.36 -7.49) (layer F.SilkS) (width 0.12))
  (fp_line (start 5.36 -2.01) (end 5.36 12.075) (layer F.SilkS) (width 0.12))
  (fp_line (start 5.4 -12.074) (end 5.4 -7.49) (layer F.SilkS) (width 0.12))
  (fp_line (start 5.4 -2.01) (end 5.4 12.074) (layer F.SilkS) (width 0.12))
  (fp_line (start 5.44 -12.073) (end 5.44 -7.49) (layer F.SilkS) (width 0.12))
  (fp_line (start 5.44 -2.01) (end 5.44 12.073) (layer F.SilkS) (width 0.12))
  (fp_line (start 5.48 -12.071) (end 5.48 -7.49) (layer F.SilkS) (width 0.12))
  (fp_line (start 5.48 -2.01) (end 5.48 12.071) (layer F.SilkS) (width 0.12))
  (fp_line (start 5.52 -12.069) (end 5.52 -7.49) (layer F.SilkS) (width 0.12))
  (fp_line (start 5.52 -2.01) (end 5.52 12.069) (layer F.SilkS) (width 0.12))
  (fp_line (start 5.56 -12.068) (end 5.56 -7.49) (layer F.SilkS) (width 0.12))
  (fp_line (start 5.56 -2.01) (end 5.56 12.068) (layer F.SilkS) (width 0.12))
  (fp_line (start 5.6 -12.066) (end 5.6 -7.49) (layer F.SilkS) (width 0.12))
  (fp_line (start 5.6 -2.01) (end 5.6 12.066) (layer F.SilkS) (width 0.12))
  (fp_line (start 5.64 -12.064) (end 5.64 -7.49) (layer F.SilkS) (width 0.12))
  (fp_line (start 5.64 -2.01) (end 5.64 12.064) (layer F.SilkS) (width 0.12))
  (fp_line (start 5.68 -12.061) (end 5.68 -7.49) (layer F.SilkS) (width 0.12))
  (fp_line (start 5.68 -2.01) (end 5.68 12.061) (layer F.SilkS) (width 0.12))
  (fp_line (start 5.721 -12.059) (end 5.721 -7.49) (layer F.SilkS) (width 0.12))
  (fp_line (start 5.721 -2.01) (end 5.721 12.059) (layer F.SilkS) (width 0.12))
  (fp_line (start 5.761 -12.057) (end 5.761 -7.49) (layer F.SilkS) (width 0.12))
  (fp_line (start 5.761 -2.01) (end 5.761 12.057) (layer F.SilkS) (width 0.12))
  (fp_line (start 5.801 -12.054) (end 5.801 -7.49) (layer F.SilkS) (width 0.12))
  (fp_line (start 5.801 -2.01) (end 5.801 12.054) (layer F.SilkS) (width 0.12))
  (fp_line (start 5.841 -12.051) (end 5.841 -7.49) (layer F.SilkS) (width 0.12))
  (fp_line (start 5.841 -2.01) (end 5.841 12.051) (layer F.SilkS) (width 0.12))
  (fp_line (start 5.881 -12.049) (end 5.881 -7.49) (layer F.SilkS) (width 0.12))
  (fp_line (start 5.881 -2.01) (end 5.881 12.049) (layer F.SilkS) (width 0.12))
  (fp_line (start 5.921 -12.046) (end 5.921 -7.49) (layer F.SilkS) (width 0.12))
  (fp_line (start 5.921 -2.01) (end 5.921 12.046) (layer F.SilkS) (width 0.12))
  (fp_line (start 5.961 -12.042) (end 5.961 -7.49) (layer F.SilkS) (width 0.12))
  (fp_line (start 5.961 -2.01) (end 5.961 12.042) (layer F.SilkS) (width 0.12))
  (fp_line (start 6.001 -12.039) (end 6.001 -7.49) (layer F.SilkS) (width 0.12))
  (fp_line (start 6.001 -2.01) (end 6.001 12.039) (layer F.SilkS) (width 0.12))
  (fp_line (start 6.041 -12.036) (end 6.041 -7.49) (layer F.SilkS) (width 0.12))
  (fp_line (start 6.041 -2.01) (end 6.041 12.036) (layer F.SilkS) (width 0.12))
  (fp_line (start 6.081 -12.032) (end 6.081 -7.49) (layer F.SilkS) (width 0.12))
  (fp_line (start 6.081 -2.01) (end 6.081 12.032) (layer F.SilkS) (width 0.12))
  (fp_line (start 6.121 -12.029) (end 6.121 -7.49) (layer F.SilkS) (width 0.12))
  (fp_line (start 6.121 -2.01) (end 6.121 12.029) (layer F.SilkS) (width 0.12))
  (fp_line (start 6.161 -12.025) (end 6.161 -7.49) (layer F.SilkS) (width 0.12))
  (fp_line (start 6.161 -2.01) (end 6.161 12.025) (layer F.SilkS) (width 0.12))
  (fp_line (start 6.201 -12.021) (end 6.201 -7.49) (layer F.SilkS) (width 0.12))
  (fp_line (start 6.201 -2.01) (end 6.201 12.021) (layer F.SilkS) (width 0.12))
  (fp_line (start 6.241 -12.017) (end 6.241 -7.49) (layer F.SilkS) (width 0.12))
  (fp_line (start 6.241 -2.01) (end 6.241 12.017) (layer F.SilkS) (width 0.12))
  (fp_line (start 6.281 -12.013) (end 6.281 -7.49) (layer F.SilkS) (width 0.12))
  (fp_line (start 6.281 -2.01) (end 6.281 12.013) (layer F.SilkS) (width 0.12))
  (fp_line (start 6.321 -12.008) (end 6.321 -7.49) (layer F.SilkS) (width 0.12))
  (fp_line (start 6.321 -2.01) (end 6.321 12.008) (layer F.SilkS) (width 0.12))
  (fp_line (start 6.361 -12.004) (end 6.361 -7.49) (layer F.SilkS) (width 0.12))
  (fp_line (start 6.361 -2.01) (end 6.361 12.004) (layer F.SilkS) (width 0.12))
  (fp_line (start 6.401 -11.999) (end 6.401 -7.49) (layer F.SilkS) (width 0.12))
  (fp_line (start 6.401 -2.01) (end 6.401 11.999) (layer F.SilkS) (width 0.12))
  (fp_line (start 6.441 -11.995) (end 6.441 -7.49) (layer F.SilkS) (width 0.12))
  (fp_line (start 6.441 -2.01) (end 6.441 11.995) (layer F.SilkS) (width 0.12))
  (fp_line (start 6.481 -11.99) (end 6.481 -7.49) (layer F.SilkS) (width 0.12))
  (fp_line (start 6.481 -2.01) (end 6.481 11.99) (layer F.SilkS) (width 0.12))
  (fp_line (start 6.521 -11.985) (end 6.521 -7.49) (layer F.SilkS) (width 0.12))
  (fp_line (start 6.521 -2.01) (end 6.521 11.985) (layer F.SilkS) (width 0.12))
  (fp_line (start 6.561 -11.98) (end 6.561 -7.49) (layer F.SilkS) (width 0.12))
  (fp_line (start 6.561 -2.01) (end 6.561 11.98) (layer F.SilkS) (width 0.12))
  (fp_line (start 6.601 -11.974) (end 6.601 -7.49) (layer F.SilkS) (width 0.12))
  (fp_line (start 6.601 -2.01) (end 6.601 11.974) (layer F.SilkS) (width 0.12))
  (fp_line (start 6.641 -11.969) (end 6.641 -7.49) (layer F.SilkS) (width 0.12))
  (fp_line (start 6.641 -2.01) (end 6.641 11.969) (layer F.SilkS) (width 0.12))
  (fp_line (start 6.681 -11.963) (end 6.681 -7.49) (layer F.SilkS) (width 0.12))
  (fp_line (start 6.681 -2.01) (end 6.681 11.963) (layer F.SilkS) (width 0.12))
  (fp_line (start 6.721 -11.958) (end 6.721 -7.49) (layer F.SilkS) (width 0.12))
  (fp_line (start 6.721 -2.01) (end 6.721 11.958) (layer F.SilkS) (width 0.12))
  (fp_line (start 6.761 -11.952) (end 6.761 -7.49) (layer F.SilkS) (width 0.12))
  (fp_line (start 6.761 -2.01) (end 6.761 11.952) (layer F.SilkS) (width 0.12))
  (fp_line (start 6.801 -11.946) (end 6.801 -7.49) (layer F.SilkS) (width 0.12))
  (fp_line (start 6.801 -2.01) (end 6.801 11.946) (layer F.SilkS) (width 0.12))
  (fp_line (start 6.841 -11.94) (end 6.841 -7.49) (layer F.SilkS) (width 0.12))
  (fp_line (start 6.841 -2.01) (end 6.841 11.94) (layer F.SilkS) (width 0.12))
  (fp_line (start 6.881 -11.934) (end 6.881 -7.49) (layer F.SilkS) (width 0.12))
  (fp_line (start 6.881 -2.01) (end 6.881 11.934) (layer F.SilkS) (width 0.12))
  (fp_line (start 6.921 -11.927) (end 6.921 -7.49) (layer F.SilkS) (width 0.12))
  (fp_line (start 6.921 -2.01) (end 6.921 11.927) (layer F.SilkS) (width 0.12))
  (fp_line (start 6.961 -11.921) (end 6.961 -7.49) (layer F.SilkS) (width 0.12))
  (fp_line (start 6.961 -2.01) (end 6.961 11.921) (layer F.SilkS) (width 0.12))
  (fp_line (start 7.001 -11.914) (end 7.001 -7.49) (layer F.SilkS) (width 0.12))
  (fp_line (start 7.001 -2.01) (end 7.001 11.914) (layer F.SilkS) (width 0.12))
  (fp_line (start 7.041 -11.908) (end 7.041 -7.49) (layer F.SilkS) (width 0.12))
  (fp_line (start 7.041 -2.01) (end 7.041 11.908) (layer F.SilkS) (width 0.12))
  (fp_line (start 7.081 -11.901) (end 7.081 -7.49) (layer F.SilkS) (width 0.12))
  (fp_line (start 7.081 -2.01) (end 7.081 11.901) (layer F.SilkS) (width 0.12))
  (fp_line (start 7.121 -11.894) (end 7.121 -7.49) (layer F.SilkS) (width 0.12))
  (fp_line (start 7.121 -2.01) (end 7.121 11.894) (layer F.SilkS) (width 0.12))
  (fp_line (start 7.161 -11.886) (end 7.161 -7.49) (layer F.SilkS) (width 0.12))
  (fp_line (start 7.161 -2.01) (end 7.161 11.886) (layer F.SilkS) (width 0.12))
  (fp_line (start 7.201 -11.879) (end 7.201 -7.49) (layer F.SilkS) (width 0.12))
  (fp_line (start 7.201 -2.01) (end 7.201 11.879) (layer F.SilkS) (width 0.12))
  (fp_line (start 7.241 -11.872) (end 7.241 -7.49) (layer F.SilkS) (width 0.12))
  (fp_line (start 7.241 -2.01) (end 7.241 11.872) (layer F.SilkS) (width 0.12))
  (fp_line (start 7.281 -11.864) (end 7.281 -7.49) (layer F.SilkS) (width 0.12))
  (fp_line (start 7.281 -2.01) (end 7.281 11.864) (layer F.SilkS) (width 0.12))
  (fp_line (start 7.321 -11.856) (end 7.321 -7.49) (layer F.SilkS) (width 0.12))
  (fp_line (start 7.321 -2.01) (end 7.321 11.856) (layer F.SilkS) (width 0.12))
  (fp_line (start 7.361 -11.849) (end 7.361 -7.49) (layer F.SilkS) (width 0.12))
  (fp_line (start 7.361 -2.01) (end 7.361 11.849) (layer F.SilkS) (width 0.12))
  (fp_line (start 7.401 -11.841) (end 7.401 -7.49) (layer F.SilkS) (width 0.12))
  (fp_line (start 7.401 -2.01) (end 7.401 11.841) (layer F.SilkS) (width 0.12))
  (fp_line (start 7.441 -11.832) (end 7.441 -7.49) (layer F.SilkS) (width 0.12))
  (fp_line (start 7.441 -2.01) (end 7.441 11.832) (layer F.SilkS) (width 0.12))
  (fp_line (start 7.481 -11.824) (end 7.481 -7.49) (layer F.SilkS) (width 0.12))
  (fp_line (start 7.481 -2.01) (end 7.481 11.824) (layer F.SilkS) (width 0.12))
  (fp_line (start 7.521 -11.816) (end 7.521 -7.49) (layer F.SilkS) (width 0.12))
  (fp_line (start 7.521 -2.01) (end 7.521 11.816) (layer F.SilkS) (width 0.12))
  (fp_line (start 7.561 -11.807) (end 7.561 -7.49) (layer F.SilkS) (width 0.12))
  (fp_line (start 7.561 -2.01) (end 7.561 11.807) (layer F.SilkS) (width 0.12))
  (fp_line (start 7.601 -11.798) (end 7.601 -7.49) (layer F.SilkS) (width 0.12))
  (fp_line (start 7.601 -2.01) (end 7.601 11.798) (layer F.SilkS) (width 0.12))
  (fp_line (start 7.641 -11.789) (end 7.641 -7.49) (layer F.SilkS) (width 0.12))
  (fp_line (start 7.641 -2.01) (end 7.641 11.789) (layer F.SilkS) (width 0.12))
  (fp_line (start 7.681 -11.78) (end 7.681 -7.49) (layer F.SilkS) (width 0.12))
  (fp_line (start 7.681 -2.01) (end 7.681 11.78) (layer F.SilkS) (width 0.12))
  (fp_line (start 7.721 -11.771) (end 7.721 -7.49) (layer F.SilkS) (width 0.12))
  (fp_line (start 7.721 -2.01) (end 7.721 11.771) (layer F.SilkS) (width 0.12))
  (fp_line (start 7.761 2.24) (end 7.761 11.762) (layer F.SilkS) (width 0.12))
  (fp_line (start 7.761 -11.762) (end 7.761 -7.49) (layer F.SilkS) (width 0.12))
  (fp_line (start 7.801 2.24) (end 7.801 11.753) (layer F.SilkS) (width 0.12))
  (fp_line (start 7.801 -11.753) (end 7.801 -7.49) (layer F.SilkS) (width 0.12))
  (fp_line (start 7.841 2.24) (end 7.841 11.743) (layer F.SilkS) (width 0.12))
  (fp_line (start 7.841 -11.743) (end 7.841 -7.49) (layer F.SilkS) (width 0.12))
  (fp_line (start 7.881 2.24) (end 7.881 11.733) (layer F.SilkS) (width 0.12))
  (fp_line (start 7.881 -11.733) (end 7.881 -7.49) (layer F.SilkS) (width 0.12))
  (fp_line (start 7.921 2.24) (end 7.921 11.723) (layer F.SilkS) (width 0.12))
  (fp_line (start 7.921 -11.723) (end 7.921 -7.49) (layer F.SilkS) (width 0.12))
  (fp_line (start 7.961 2.24) (end 7.961 11.713) (layer F.SilkS) (width 0.12))
  (fp_line (start 7.961 -11.713) (end 7.961 -7.49) (layer F.SilkS) (width 0.12))
  (fp_line (start 8.001 2.24) (end 8.001 11.703) (layer F.SilkS) (width 0.12))
  (fp_line (start 8.001 -11.703) (end 8.001 -7.49) (layer F.SilkS) (width 0.12))
  (fp_line (start 8.041 2.24) (end 8.041 11.693) (layer F.SilkS) (width 0.12))
  (fp_line (start 8.041 -11.693) (end 8.041 -7.49) (layer F.SilkS) (width 0.12))
  (fp_line (start 8.081 2.24) (end 8.081 11.683) (layer F.SilkS) (width 0.12))
  (fp_line (start 8.081 -11.683) (end 8.081 -7.49) (layer F.SilkS) (width 0.12))
  (fp_line (start 8.121 2.24) (end 8.121 11.672) (layer F.SilkS) (width 0.12))
  (fp_line (start 8.121 -11.672) (end 8.121 -7.49) (layer F.SilkS) (width 0.12))
  (fp_line (start 8.161 2.24) (end 8.161 11.661) (layer F.SilkS) (width 0.12))
  (fp_line (start 8.161 -11.661) (end 8.161 -7.49) (layer F.SilkS) (width 0.12))
  (fp_line (start 8.201 2.24) (end 8.201 11.65) (layer F.SilkS) (width 0.12))
  (fp_line (start 8.201 -11.65) (end 8.201 -7.49) (layer F.SilkS) (width 0.12))
  (fp_line (start 8.241 2.24) (end 8.241 11.639) (layer F.SilkS) (width 0.12))
  (fp_line (start 8.241 -11.639) (end 8.241 -7.49) (layer F.SilkS) (width 0.12))
  (fp_line (start 8.281 2.24) (end 8.281 11.628) (layer F.SilkS) (width 0.12))
  (fp_line (start 8.281 -11.628) (end 8.281 -7.49) (layer F.SilkS) (width 0.12))
  (fp_line (start 8.321 2.24) (end 8.321 11.617) (layer F.SilkS) (width 0.12))
  (fp_line (start 8.321 -11.617) (end 8.321 -7.49) (layer F.SilkS) (width 0.12))
  (fp_line (start 8.361 2.24) (end 8.361 11.605) (layer F.SilkS) (width 0.12))
  (fp_line (start 8.361 -11.605) (end 8.361 -7.49) (layer F.SilkS) (width 0.12))
  (fp_line (start 8.401 2.24) (end 8.401 11.594) (layer F.SilkS) (width 0.12))
  (fp_line (start 8.401 -11.594) (end 8.401 -7.49) (layer F.SilkS) (width 0.12))
  (fp_line (start 8.441 2.24) (end 8.441 11.582) (layer F.SilkS) (width 0.12))
  (fp_line (start 8.441 -11.582) (end 8.441 -7.49) (layer F.SilkS) (width 0.12))
  (fp_line (start 8.481 2.24) (end 8.481 11.57) (layer F.SilkS) (width 0.12))
  (fp_line (start 8.481 -11.57) (end 8.481 -7.49) (layer F.SilkS) (width 0.12))
  (fp_line (start 8.521 2.24) (end 8.521 11.558) (layer F.SilkS) (width 0.12))
  (fp_line (start 8.521 -11.558) (end 8.521 -7.49) (layer F.SilkS) (width 0.12))
  (fp_line (start 8.561 2.24) (end 8.561 11.546) (layer F.SilkS) (width 0.12))
  (fp_line (start 8.561 -11.546) (end 8.561 -7.49) (layer F.SilkS) (width 0.12))
  (fp_line (start 8.601 2.24) (end 8.601 11.534) (layer F.SilkS) (width 0.12))
  (fp_line (start 8.601 -11.534) (end 8.601 -7.49) (layer F.SilkS) (width 0.12))
  (fp_line (start 8.641 2.24) (end 8.641 11.521) (layer F.SilkS) (width 0.12))
  (fp_line (start 8.641 -11.521) (end 8.641 -7.49) (layer F.SilkS) (width 0.12))
  (fp_line (start 8.681 2.24) (end 8.681 11.508) (layer F.SilkS) (width 0.12))
  (fp_line (start 8.681 -11.508) (end 8.681 -7.49) (layer F.SilkS) (width 0.12))
  (fp_line (start 8.721 2.24) (end 8.721 11.495) (layer F.SilkS) (width 0.12))
  (fp_line (start 8.721 -11.495) (end 8.721 -7.49) (layer F.SilkS) (width 0.12))
  (fp_line (start 8.761 2.24) (end 8.761 11.483) (layer F.SilkS) (width 0.12))
  (fp_line (start 8.761 -11.483) (end 8.761 -7.49) (layer F.SilkS) (width 0.12))
  (fp_line (start 8.801 2.24) (end 8.801 11.469) (layer F.SilkS) (width 0.12))
  (fp_line (start 8.801 -11.469) (end 8.801 -7.49) (layer F.SilkS) (width 0.12))
  (fp_line (start 8.841 2.24) (end 8.841 11.456) (layer F.SilkS) (width 0.12))
  (fp_line (start 8.841 -11.456) (end 8.841 -7.49) (layer F.SilkS) (width 0.12))
  (fp_line (start 8.881 2.24) (end 8.881 11.443) (layer F.SilkS) (width 0.12))
  (fp_line (start 8.881 -11.443) (end 8.881 -7.49) (layer F.SilkS) (width 0.12))
  (fp_line (start 8.921 2.24) (end 8.921 11.429) (layer F.SilkS) (width 0.12))
  (fp_line (start 8.921 -11.429) (end 8.921 -7.49) (layer F.SilkS) (width 0.12))
  (fp_line (start 8.961 2.24) (end 8.961 11.415) (layer F.SilkS) (width 0.12))
  (fp_line (start 8.961 -11.415) (end 8.961 -7.49) (layer F.SilkS) (width 0.12))
  (fp_line (start 9.001 2.24) (end 9.001 11.401) (layer F.SilkS) (width 0.12))
  (fp_line (start 9.001 -11.401) (end 9.001 -7.49) (layer F.SilkS) (width 0.12))
  (fp_line (start 9.041 2.24) (end 9.041 11.387) (layer F.SilkS) (width 0.12))
  (fp_line (start 9.041 -11.387) (end 9.041 -7.49) (layer F.SilkS) (width 0.12))
  (fp_line (start 9.081 2.24) (end 9.081 11.373) (layer F.SilkS) (width 0.12))
  (fp_line (start 9.081 -11.373) (end 9.081 -7.49) (layer F.SilkS) (width 0.12))
  (fp_line (start 9.121 2.24) (end 9.121 11.359) (layer F.SilkS) (width 0.12))
  (fp_line (start 9.121 -11.359) (end 9.121 -7.49) (layer F.SilkS) (width 0.12))
  (fp_line (start 9.161 2.24) (end 9.161 11.344) (layer F.SilkS) (width 0.12))
  (fp_line (start 9.161 -11.344) (end 9.161 -7.49) (layer F.SilkS) (width 0.12))
  (fp_line (start 9.201 2.24) (end 9.201 11.33) (layer F.SilkS) (width 0.12))
  (fp_line (start 9.201 -11.33) (end 9.201 -7.49) (layer F.SilkS) (width 0.12))
  (fp_line (start 9.241 2.24) (end 9.241 11.315) (layer F.SilkS) (width 0.12))
  (fp_line (start 9.241 -11.315) (end 9.241 -7.49) (layer F.SilkS) (width 0.12))
  (fp_line (start 9.281 2.24) (end 9.281 11.3) (layer F.SilkS) (width 0.12))
  (fp_line (start 9.281 -11.3) (end 9.281 -7.49) (layer F.SilkS) (width 0.12))
  (fp_line (start 9.321 2.24) (end 9.321 11.284) (layer F.SilkS) (width 0.12))
  (fp_line (start 9.321 -11.284) (end 9.321 -7.49) (layer F.SilkS) (width 0.12))
  (fp_line (start 9.361 2.24) (end 9.361 11.269) (layer F.SilkS) (width 0.12))
  (fp_line (start 9.361 -11.269) (end 9.361 -7.49) (layer F.SilkS) (width 0.12))
  (fp_line (start 9.401 2.24) (end 9.401 11.254) (layer F.SilkS) (width 0.12))
  (fp_line (start 9.401 -11.254) (end 9.401 -7.49) (layer F.SilkS) (width 0.12))
  (fp_line (start 9.441 -11.238) (end 9.441 -2.24) (layer F.SilkS) (width 0.12))
  (fp_line (start 9.441 2.24) (end 9.441 11.238) (layer F.SilkS) (width 0.12))
  (fp_line (start 9.481 -11.222) (end 9.481 -2.24) (layer F.SilkS) (width 0.12))
  (fp_line (start 9.481 2.24) (end 9.481 11.222) (layer F.SilkS) (width 0.12))
  (fp_line (start 9.521 -11.206) (end 9.521 -2.24) (layer F.SilkS) (width 0.12))
  (fp_line (start 9.521 2.24) (end 9.521 11.206) (layer F.SilkS) (width 0.12))
  (fp_line (start 9.561 -11.19) (end 9.561 -2.24) (layer F.SilkS) (width 0.12))
  (fp_line (start 9.561 2.24) (end 9.561 11.19) (layer F.SilkS) (width 0.12))
  (fp_line (start 9.601 -11.174) (end 9.601 -2.24) (layer F.SilkS) (width 0.12))
  (fp_line (start 9.601 2.24) (end 9.601 11.174) (layer F.SilkS) (width 0.12))
  (fp_line (start 9.641 -11.157) (end 9.641 -2.24) (layer F.SilkS) (width 0.12))
  (fp_line (start 9.641 2.24) (end 9.641 11.157) (layer F.SilkS) (width 0.12))
  (fp_line (start 9.681 -11.14) (end 9.681 -2.24) (layer F.SilkS) (width 0.12))
  (fp_line (start 9.681 2.24) (end 9.681 11.14) (layer F.SilkS) (width 0.12))
  (fp_line (start 9.721 -11.124) (end 9.721 -2.24) (layer F.SilkS) (width 0.12))
  (fp_line (start 9.721 2.24) (end 9.721 11.124) (layer F.SilkS) (width 0.12))
  (fp_line (start 9.761 -11.107) (end 9.761 -2.24) (layer F.SilkS) (width 0.12))
  (fp_line (start 9.761 2.24) (end 9.761 11.107) (layer F.SilkS) (width 0.12))
  (fp_line (start 9.801 -11.089) (end 9.801 -2.24) (layer F.SilkS) (width 0.12))
  (fp_line (start 9.801 2.24) (end 9.801 11.089) (layer F.SilkS) (width 0.12))
  (fp_line (start 9.841 -11.072) (end 9.841 -2.24) (layer F.SilkS) (width 0.12))
  (fp_line (start 9.841 2.24) (end 9.841 11.072) (layer F.SilkS) (width 0.12))
  (fp_line (start 9.881 -11.055) (end 9.881 -2.24) (layer F.SilkS) (width 0.12))
  (fp_line (start 9.881 2.24) (end 9.881 11.055) (layer F.SilkS) (width 0.12))
  (fp_line (start 9.921 -11.037) (end 9.921 -2.24) (layer F.SilkS) (width 0.12))
  (fp_line (start 9.921 2.24) (end 9.921 11.037) (layer F.SilkS) (width 0.12))
  (fp_line (start 9.961 -11.019) (end 9.961 -2.24) (layer F.SilkS) (width 0.12))
  (fp_line (start 9.961 2.24) (end 9.961 11.019) (layer F.SilkS) (width 0.12))
  (fp_line (start 10.001 -11.001) (end 10.001 -2.24) (layer F.SilkS) (width 0.12))
  (fp_line (start 10.001 2.24) (end 10.001 11.001) (layer F.SilkS) (width 0.12))
  (fp_line (start 10.041 -10.983) (end 10.041 -2.24) (layer F.SilkS) (width 0.12))
  (fp_line (start 10.041 2.24) (end 10.041 10.983) (layer F.SilkS) (width 0.12))
  (fp_line (start 10.081 -10.964) (end 10.081 -2.24) (layer F.SilkS) (width 0.12))
  (fp_line (start 10.081 2.24) (end 10.081 10.964) (layer F.SilkS) (width 0.12))
  (fp_line (start 10.121 -10.946) (end 10.121 -2.24) (layer F.SilkS) (width 0.12))
  (fp_line (start 10.121 2.24) (end 10.121 10.946) (layer F.SilkS) (width 0.12))
  (fp_line (start 10.161 -10.927) (end 10.161 -2.24) (layer F.SilkS) (width 0.12))
  (fp_line (start 10.161 2.24) (end 10.161 10.927) (layer F.SilkS) (width 0.12))
  (fp_line (start 10.201 -10.908) (end 10.201 -2.24) (layer F.SilkS) (width 0.12))
  (fp_line (start 10.201 2.24) (end 10.201 10.908) (layer F.SilkS) (width 0.12))
  (fp_line (start 10.241 -10.889) (end 10.241 -2.24) (layer F.SilkS) (width 0.12))
  (fp_line (start 10.241 2.24) (end 10.241 10.889) (layer F.SilkS) (width 0.12))
  (fp_line (start 10.281 -10.87) (end 10.281 -2.24) (layer F.SilkS) (width 0.12))
  (fp_line (start 10.281 2.24) (end 10.281 10.87) (layer F.SilkS) (width 0.12))
  (fp_line (start 10.321 -10.85) (end 10.321 -2.24) (layer F.SilkS) (width 0.12))
  (fp_line (start 10.321 2.24) (end 10.321 10.85) (layer F.SilkS) (width 0.12))
  (fp_line (start 10.361 -10.831) (end 10.361 -2.24) (layer F.SilkS) (width 0.12))
  (fp_line (start 10.361 2.24) (end 10.361 10.831) (layer F.SilkS) (width 0.12))
  (fp_line (start 10.401 -10.811) (end 10.401 -2.24) (layer F.SilkS) (width 0.12))
  (fp_line (start 10.401 2.24) (end 10.401 10.811) (layer F.SilkS) (width 0.12))
  (fp_line (start 10.441 -10.791) (end 10.441 -2.24) (layer F.SilkS) (width 0.12))
  (fp_line (start 10.441 2.24) (end 10.441 10.791) (layer F.SilkS) (width 0.12))
  (fp_line (start 10.481 -10.771) (end 10.481 -2.24) (layer F.SilkS) (width 0.12))
  (fp_line (start 10.481 2.24) (end 10.481 10.771) (layer F.SilkS) (width 0.12))
  (fp_line (start 10.521 -10.75) (end 10.521 -2.24) (layer F.SilkS) (width 0.12))
  (fp_line (start 10.521 2.24) (end 10.521 10.75) (layer F.SilkS) (width 0.12))
  (fp_line (start 10.561 -10.73) (end 10.561 -2.24) (layer F.SilkS) (width 0.12))
  (fp_line (start 10.561 2.24) (end 10.561 10.73) (layer F.SilkS) (width 0.12))
  (fp_line (start 10.601 -10.709) (end 10.601 -2.24) (layer F.SilkS) (width 0.12))
  (fp_line (start 10.601 2.24) (end 10.601 10.709) (layer F.SilkS) (width 0.12))
  (fp_line (start 10.641 -10.688) (end 10.641 -2.24) (layer F.SilkS) (width 0.12))
  (fp_line (start 10.641 2.24) (end 10.641 10.688) (layer F.SilkS) (width 0.12))
  (fp_line (start 10.681 -10.667) (end 10.681 -2.24) (layer F.SilkS) (width 0.12))
  (fp_line (start 10.681 2.24) (end 10.681 10.667) (layer F.SilkS) (width 0.12))
  (fp_line (start 10.721 -10.646) (end 10.721 -2.24) (layer F.SilkS) (width 0.12))
  (fp_line (start 10.721 2.24) (end 10.721 10.646) (layer F.SilkS) (width 0.12))
  (fp_line (start 10.761 -10.624) (end 10.761 -2.24) (layer F.SilkS) (width 0.12))
  (fp_line (start 10.761 2.24) (end 10.761 10.624) (layer F.SilkS) (width 0.12))
  (fp_line (start 10.801 -10.603) (end 10.801 -2.24) (layer F.SilkS) (width 0.12))
  (fp_line (start 10.801 2.24) (end 10.801 10.603) (layer F.SilkS) (width 0.12))
  (fp_line (start 10.841 -10.581) (end 10.841 -2.24) (layer F.SilkS) (width 0.12))
  (fp_line (start 10.841 2.24) (end 10.841 10.581) (layer F.SilkS) (width 0.12))
  (fp_line (start 10.881 -10.559) (end 10.881 -2.24) (layer F.SilkS) (width 0.12))
  (fp_line (start 10.881 2.24) (end 10.881 10.559) (layer F.SilkS) (width 0.12))
  (fp_line (start 10.921 -10.536) (end 10.921 -2.24) (layer F.SilkS) (width 0.12))
  (fp_line (start 10.921 2.24) (end 10.921 10.536) (layer F.SilkS) (width 0.12))
  (fp_line (start 10.961 -10.514) (end 10.961 -2.24) (layer F.SilkS) (width 0.12))
  (fp_line (start 10.961 2.24) (end 10.961 10.514) (layer F.SilkS) (width 0.12))
  (fp_line (start 11.001 -10.491) (end 11.001 -2.24) (layer F.SilkS) (width 0.12))
  (fp_line (start 11.001 2.24) (end 11.001 10.491) (layer F.SilkS) (width 0.12))
  (fp_line (start 11.041 -10.468) (end 11.041 -2.24) (layer F.SilkS) (width 0.12))
  (fp_line (start 11.041 2.24) (end 11.041 10.468) (layer F.SilkS) (width 0.12))
  (fp_line (start 11.081 -10.445) (end 11.081 -2.24) (layer F.SilkS) (width 0.12))
  (fp_line (start 11.081 2.24) (end 11.081 10.445) (layer F.SilkS) (width 0.12))
  (fp_line (start 11.121 -10.422) (end 11.121 -2.24) (layer F.SilkS) (width 0.12))
  (fp_line (start 11.121 2.24) (end 11.121 10.422) (layer F.SilkS) (width 0.12))
  (fp_line (start 11.161 -10.398) (end 11.161 -2.24) (layer F.SilkS) (width 0.12))
  (fp_line (start 11.161 2.24) (end 11.161 10.398) (layer F.SilkS) (width 0.12))
  (fp_line (start 11.201 -10.375) (end 11.201 -2.24) (layer F.SilkS) (width 0.12))
  (fp_line (start 11.201 2.24) (end 11.201 10.375) (layer F.SilkS) (width 0.12))
  (fp_line (start 11.241 -10.351) (end 11.241 -2.24) (layer F.SilkS) (width 0.12))
  (fp_line (start 11.241 2.24) (end 11.241 10.351) (layer F.SilkS) (width 0.12))
  (fp_line (start 11.281 -10.327) (end 11.281 -2.24) (layer F.SilkS) (width 0.12))
  (fp_line (start 11.281 2.24) (end 11.281 10.327) (layer F.SilkS) (width 0.12))
  (fp_line (start 11.321 -10.302) (end 11.321 -2.24) (layer F.SilkS) (width 0.12))
  (fp_line (start 11.321 2.24) (end 11.321 10.302) (layer F.SilkS) (width 0.12))
  (fp_line (start 11.361 -10.278) (end 11.361 -2.24) (layer F.SilkS) (width 0.12))
  (fp_line (start 11.361 2.24) (end 11.361 10.278) (layer F.SilkS) (width 0.12))
  (fp_line (start 11.401 -10.253) (end 11.401 -2.24) (layer F.SilkS) (width 0.12))
  (fp_line (start 11.401 2.24) (end 11.401 10.253) (layer F.SilkS) (width 0.12))
  (fp_line (start 11.441 -10.228) (end 11.441 -2.24) (layer F.SilkS) (width 0.12))
  (fp_line (start 11.441 2.24) (end 11.441 10.228) (layer F.SilkS) (width 0.12))
  (fp_line (start 11.481 -10.203) (end 11.481 -2.24) (layer F.SilkS) (width 0.12))
  (fp_line (start 11.481 2.24) (end 11.481 10.203) (layer F.SilkS) (width 0.12))
  (fp_line (start 11.521 -10.177) (end 11.521 -2.24) (layer F.SilkS) (width 0.12))
  (fp_line (start 11.521 2.24) (end 11.521 10.177) (layer F.SilkS) (width 0.12))
  (fp_line (start 11.561 -10.152) (end 11.561 -2.24) (layer F.SilkS) (width 0.12))
  (fp_line (start 11.561 2.24) (end 11.561 10.152) (layer F.SilkS) (width 0.12))
  (fp_line (start 11.601 -10.126) (end 11.601 -2.24) (layer F.SilkS) (width 0.12))
  (fp_line (start 11.601 2.24) (end 11.601 10.126) (layer F.SilkS) (width 0.12))
  (fp_line (start 11.641 -10.1) (end 11.641 -2.24) (layer F.SilkS) (width 0.12))
  (fp_line (start 11.641 2.24) (end 11.641 10.1) (layer F.SilkS) (width 0.12))
  (fp_line (start 11.681 -10.073) (end 11.681 -2.24) (layer F.SilkS) (width 0.12))
  (fp_line (start 11.681 2.24) (end 11.681 10.073) (layer F.SilkS) (width 0.12))
  (fp_line (start 11.721 -10.047) (end 11.721 -2.24) (layer F.SilkS) (width 0.12))
  (fp_line (start 11.721 2.24) (end 11.721 10.047) (layer F.SilkS) (width 0.12))
  (fp_line (start 11.761 -10.02) (end 11.761 -2.24) (layer F.SilkS) (width 0.12))
  (fp_line (start 11.761 2.24) (end 11.761 10.02) (layer F.SilkS) (width 0.12))
  (fp_line (start 11.801 -9.993) (end 11.801 -2.24) (layer F.SilkS) (width 0.12))
  (fp_line (start 11.801 2.24) (end 11.801 9.993) (layer F.SilkS) (width 0.12))
  (fp_line (start 11.841 -9.966) (end 11.841 -2.24) (layer F.SilkS) (width 0.12))
  (fp_line (start 11.841 2.24) (end 11.841 9.966) (layer F.SilkS) (width 0.12))
  (fp_line (start 11.881 -9.938) (end 11.881 -2.24) (layer F.SilkS) (width 0.12))
  (fp_line (start 11.881 2.24) (end 11.881 9.938) (layer F.SilkS) (width 0.12))
  (fp_line (start 11.921 -9.911) (end 11.921 -2.24) (layer F.SilkS) (width 0.12))
  (fp_line (start 11.921 2.24) (end 11.921 9.911) (layer F.SilkS) (width 0.12))
  (fp_line (start 11.961 -9.883) (end 11.961 -2.24) (layer F.SilkS) (width 0.12))
  (fp_line (start 11.961 2.24) (end 11.961 9.883) (layer F.SilkS) (width 0.12))
  (fp_line (start 12.001 -9.855) (end 12.001 -2.24) (layer F.SilkS) (width 0.12))
  (fp_line (start 12.001 2.24) (end 12.001 9.855) (layer F.SilkS) (width 0.12))
  (fp_line (start 12.041 -9.826) (end 12.041 -2.24) (layer F.SilkS) (width 0.12))
  (fp_line (start 12.041 2.24) (end 12.041 9.826) (layer F.SilkS) (width 0.12))
  (fp_line (start 12.081 -9.798) (end 12.081 -2.24) (layer F.SilkS) (width 0.12))
  (fp_line (start 12.081 2.24) (end 12.081 9.798) (layer F.SilkS) (width 0.12))
  (fp_line (start 12.121 -9.769) (end 12.121 -2.24) (layer F.SilkS) (width 0.12))
  (fp_line (start 12.121 2.24) (end 12.121 9.769) (layer F.SilkS) (width 0.12))
  (fp_line (start 12.161 -9.739) (end 12.161 -2.24) (layer F.SilkS) (width 0.12))
  (fp_line (start 12.161 2.24) (end 12.161 9.739) (layer F.SilkS) (width 0.12))
  (fp_line (start 12.201 -9.71) (end 12.201 -2.24) (layer F.SilkS) (width 0.12))
  (fp_line (start 12.201 2.24) (end 12.201 9.71) (layer F.SilkS) (width 0.12))
  (fp_line (start 12.241 -9.68) (end 12.241 9.68) (layer F.SilkS) (width 0.12))
  (fp_line (start 12.281 -9.65) (end 12.281 9.65) (layer F.SilkS) (width 0.12))
  (fp_line (start 12.321 -9.62) (end 12.321 9.62) (layer F.SilkS) (width 0.12))
  (fp_line (start 12.361 -9.59) (end 12.361 9.59) (layer F.SilkS) (width 0.12))
  (fp_line (start 12.401 -9.559) (end 12.401 9.559) (layer F.SilkS) (width 0.12))
  (fp_line (start 12.441 -9.528) (end 12.441 9.528) (layer F.SilkS) (width 0.12))
  (fp_line (start 12.481 -9.497) (end 12.481 9.497) (layer F.SilkS) (width 0.12))
  (fp_line (start 12.521 -9.465) (end 12.521 9.465) (layer F.SilkS) (width 0.12))
  (fp_line (start 12.561 -9.434) (end 12.561 9.434) (layer F.SilkS) (width 0.12))
  (fp_line (start 12.601 -9.402) (end 12.601 9.402) (layer F.SilkS) (width 0.12))
  (fp_line (start 12.641 -9.369) (end 12.641 9.369) (layer F.SilkS) (width 0.12))
  (fp_line (start 12.681 -9.337) (end 12.681 9.337) (layer F.SilkS) (width 0.12))
  (fp_line (start 12.721 -9.304) (end 12.721 9.304) (layer F.SilkS) (width 0.12))
  (fp_line (start 12.761 -9.271) (end 12.761 9.271) (layer F.SilkS) (width 0.12))
  (fp_line (start 12.801 -9.237) (end 12.801 9.237) (layer F.SilkS) (width 0.12))
  (fp_line (start 12.841 -9.203) (end 12.841 9.203) (layer F.SilkS) (width 0.12))
  (fp_line (start 12.881 -9.169) (end 12.881 9.169) (layer F.SilkS) (width 0.12))
  (fp_line (start 12.921 -9.135) (end 12.921 9.135) (layer F.SilkS) (width 0.12))
  (fp_line (start 12.961 -9.1) (end 12.961 9.1) (layer F.SilkS) (width 0.12))
  (fp_line (start 13.001 -9.065) (end 13.001 9.065) (layer F.SilkS) (width 0.12))
  (fp_line (start 13.041 -9.03) (end 13.041 9.03) (layer F.SilkS) (width 0.12))
  (fp_line (start 13.081 -8.994) (end 13.081 8.994) (layer F.SilkS) (width 0.12))
  (fp_line (start 13.121 -8.958) (end 13.121 8.958) (layer F.SilkS) (width 0.12))
  (fp_line (start 13.161 -8.922) (end 13.161 8.922) (layer F.SilkS) (width 0.12))
  (fp_line (start 13.2 -8.885) (end 13.2 8.885) (layer F.SilkS) (width 0.12))
  (fp_line (start 13.24 -8.849) (end 13.24 8.849) (layer F.SilkS) (width 0.12))
  (fp_line (start 13.28 -8.811) (end 13.28 8.811) (layer F.SilkS) (width 0.12))
  (fp_line (start 13.32 -8.774) (end 13.32 8.774) (layer F.SilkS) (width 0.12))
  (fp_line (start 13.36 -8.736) (end 13.36 8.736) (layer F.SilkS) (width 0.12))
  (fp_line (start 13.4 -8.697) (end 13.4 8.697) (layer F.SilkS) (width 0.12))
  (fp_line (start 13.44 -8.659) (end 13.44 8.659) (layer F.SilkS) (width 0.12))
  (fp_line (start 13.48 -8.62) (end 13.48 8.62) (layer F.SilkS) (width 0.12))
  (fp_line (start 13.52 -8.58) (end 13.52 8.58) (layer F.SilkS) (width 0.12))
  (fp_line (start 13.56 -8.541) (end 13.56 8.541) (layer F.SilkS) (width 0.12))
  (fp_line (start 13.6 -8.501) (end 13.6 8.501) (layer F.SilkS) (width 0.12))
  (fp_line (start 13.64 -8.46) (end 13.64 8.46) (layer F.SilkS) (width 0.12))
  (fp_line (start 13.68 -8.419) (end 13.68 8.419) (layer F.SilkS) (width 0.12))
  (fp_line (start 13.72 -8.378) (end 13.72 8.378) (layer F.SilkS) (width 0.12))
  (fp_line (start 13.76 -8.336) (end 13.76 8.336) (layer F.SilkS) (width 0.12))
  (fp_line (start 13.8 -8.294) (end 13.8 8.294) (layer F.SilkS) (width 0.12))
  (fp_line (start 13.84 -8.252) (end 13.84 8.252) (layer F.SilkS) (width 0.12))
  (fp_line (start 13.88 -8.209) (end 13.88 8.209) (layer F.SilkS) (width 0.12))
  (fp_line (start 13.92 -8.166) (end 13.92 8.166) (layer F.SilkS) (width 0.12))
  (fp_line (start 13.96 -8.122) (end 13.96 8.122) (layer F.SilkS) (width 0.12))
  (fp_line (start 14 -8.078) (end 14 8.078) (layer F.SilkS) (width 0.12))
  (fp_line (start 14.04 -8.033) (end 14.04 8.033) (layer F.SilkS) (width 0.12))
  (fp_line (start 14.08 -7.988) (end 14.08 7.988) (layer F.SilkS) (width 0.12))
  (fp_line (start 14.12 -7.943) (end 14.12 7.943) (layer F.SilkS) (width 0.12))
  (fp_line (start 14.16 -7.897) (end 14.16 7.897) (layer F.SilkS) (width 0.12))
  (fp_line (start 14.2 -7.851) (end 14.2 7.851) (layer F.SilkS) (width 0.12))
  (fp_line (start 14.24 -7.804) (end 14.24 7.804) (layer F.SilkS) (width 0.12))
  (fp_line (start 14.28 -7.756) (end 14.28 7.756) (layer F.SilkS) (width 0.12))
  (fp_line (start 14.32 -7.709) (end 14.32 7.709) (layer F.SilkS) (width 0.12))
  (fp_line (start 14.36 -7.66) (end 14.36 7.66) (layer F.SilkS) (width 0.12))
  (fp_line (start 14.4 -7.611) (end 14.4 7.611) (layer F.SilkS) (width 0.12))
  (fp_line (start 14.44 -7.562) (end 14.44 7.562) (layer F.SilkS) (width 0.12))
  (fp_line (start 14.48 -7.512) (end 14.48 7.512) (layer F.SilkS) (width 0.12))
  (fp_line (start 14.52 -7.461) (end 14.52 7.461) (layer F.SilkS) (width 0.12))
  (fp_line (start 14.56 -7.41) (end 14.56 7.41) (layer F.SilkS) (width 0.12))
  (fp_line (start 14.6 -7.359) (end 14.6 7.359) (layer F.SilkS) (width 0.12))
  (fp_line (start 14.64 -7.307) (end 14.64 7.307) (layer F.SilkS) (width 0.12))
  (fp_line (start 14.68 -7.254) (end 14.68 7.254) (layer F.SilkS) (width 0.12))
  (fp_line (start 14.72 -7.2) (end 14.72 7.2) (layer F.SilkS) (width 0.12))
  (fp_line (start 14.76 -7.146) (end 14.76 7.146) (layer F.SilkS) (width 0.12))
  (fp_line (start 14.8 -7.092) (end 14.8 7.092) (layer F.SilkS) (width 0.12))
  (fp_line (start 14.84 -7.036) (end 14.84 7.036) (layer F.SilkS) (width 0.12))
  (fp_line (start 14.88 -6.98) (end 14.88 6.98) (layer F.SilkS) (width 0.12))
  (fp_line (start 14.92 -6.924) (end 14.92 6.924) (layer F.SilkS) (width 0.12))
  (fp_line (start 14.96 -6.866) (end 14.96 6.866) (layer F.SilkS) (width 0.12))
  (fp_line (start 15 -6.808) (end 15 6.808) (layer F.SilkS) (width 0.12))
  (fp_line (start 15.04 -6.75) (end 15.04 6.75) (layer F.SilkS) (width 0.12))
  (fp_line (start 15.08 -6.69) (end 15.08 6.69) (layer F.SilkS) (width 0.12))
  (fp_line (start 15.12 -6.63) (end 15.12 6.63) (layer F.SilkS) (width 0.12))
  (fp_line (start 15.16 -6.569) (end 15.16 6.569) (layer F.SilkS) (width 0.12))
  (fp_line (start 15.2 -6.507) (end 15.2 6.507) (layer F.SilkS) (width 0.12))
  (fp_line (start 15.24 -6.444) (end 15.24 6.444) (layer F.SilkS) (width 0.12))
  (fp_line (start 15.28 -6.38) (end 15.28 6.38) (layer F.SilkS) (width 0.12))
  (fp_line (start 15.32 -6.316) (end 15.32 6.316) (layer F.SilkS) (width 0.12))
  (fp_line (start 15.36 -6.251) (end 15.36 6.251) (layer F.SilkS) (width 0.12))
  (fp_line (start 15.4 -6.184) (end 15.4 6.184) (layer F.SilkS) (width 0.12))
  (fp_line (start 15.44 -6.117) (end 15.44 6.117) (layer F.SilkS) (width 0.12))
  (fp_line (start 15.48 -6.049) (end 15.48 6.049) (layer F.SilkS) (width 0.12))
  (fp_line (start 15.52 -5.979) (end 15.52 5.979) (layer F.SilkS) (width 0.12))
  (fp_line (start 15.56 -5.909) (end 15.56 5.909) (layer F.SilkS) (width 0.12))
  (fp_line (start 15.6 -5.837) (end 15.6 5.837) (layer F.SilkS) (width 0.12))
  (fp_line (start 15.64 -5.764) (end 15.64 5.764) (layer F.SilkS) (width 0.12))
  (fp_line (start 15.68 -5.69) (end 15.68 5.69) (layer F.SilkS) (width 0.12))
  (fp_line (start 15.72 -5.615) (end 15.72 5.615) (layer F.SilkS) (width 0.12))
  (fp_line (start 15.76 -5.539) (end 15.76 5.539) (layer F.SilkS) (width 0.12))
  (fp_line (start 15.8 -5.461) (end 15.8 5.461) (layer F.SilkS) (width 0.12))
  (fp_line (start 15.84 -5.382) (end 15.84 5.382) (layer F.SilkS) (width 0.12))
  (fp_line (start 15.88 -5.301) (end 15.88 5.301) (layer F.SilkS) (width 0.12))
  (fp_line (start 15.92 -5.219) (end 15.92 5.219) (layer F.SilkS) (width 0.12))
  (fp_line (start 15.96 -5.135) (end 15.96 5.135) (layer F.SilkS) (width 0.12))
  (fp_line (start 16 -5.049) (end 16 5.049) (layer F.SilkS) (width 0.12))
  (fp_line (start 16.04 -4.962) (end 16.04 4.962) (layer F.SilkS) (width 0.12))
  (fp_line (start 16.08 -4.873) (end 16.08 4.873) (layer F.SilkS) (width 0.12))
  (fp_line (start 16.12 -4.781) (end 16.12 4.781) (layer F.SilkS) (width 0.12))
  (fp_line (start 16.16 -4.688) (end 16.16 4.688) (layer F.SilkS) (width 0.12))
  (fp_line (start 16.2 -4.592) (end 16.2 4.592) (layer F.SilkS) (width 0.12))
  (fp_line (start 16.24 -4.494) (end 16.24 4.494) (layer F.SilkS) (width 0.12))
  (fp_line (start 16.28 -4.394) (end 16.28 4.394) (layer F.SilkS) (width 0.12))
  (fp_line (start 16.32 -4.291) (end 16.32 4.291) (layer F.SilkS) (width 0.12))
  (fp_line (start 16.36 -4.185) (end 16.36 4.185) (layer F.SilkS) (width 0.12))
  (fp_line (start 16.4 -4.076) (end 16.4 4.076) (layer F.SilkS) (width 0.12))
  (fp_line (start 16.44 -3.963) (end 16.44 3.963) (layer F.SilkS) (width 0.12))
  (fp_line (start 16.48 -3.847) (end 16.48 3.847) (layer F.SilkS) (width 0.12))
  (fp_line (start 16.52 -3.727) (end 16.52 3.727) (layer F.SilkS) (width 0.12))
  (fp_line (start 16.56 -3.602) (end 16.56 3.602) (layer F.SilkS) (width 0.12))
  (fp_line (start 16.6 -3.473) (end 16.6 3.473) (layer F.SilkS) (width 0.12))
  (fp_line (start 16.64 -3.338) (end 16.64 3.338) (layer F.SilkS) (width 0.12))
  (fp_line (start 16.68 -3.197) (end 16.68 3.197) (layer F.SilkS) (width 0.12))
  (fp_line (start 16.72 -3.049) (end 16.72 3.049) (layer F.SilkS) (width 0.12))
  (fp_line (start 16.76 -2.893) (end 16.76 2.893) (layer F.SilkS) (width 0.12))
  (fp_line (start 16.8 -2.727) (end 16.8 2.727) (layer F.SilkS) (width 0.12))
  (fp_line (start 16.84 -2.551) (end 16.84 2.551) (layer F.SilkS) (width 0.12))
  (fp_line (start 16.88 -2.361) (end 16.88 2.361) (layer F.SilkS) (width 0.12))
  (fp_line (start 16.92 -2.153) (end 16.92 2.153) (layer F.SilkS) (width 0.12))
  (fp_line (start 16.96 -1.923) (end 16.96 1.923) (layer F.SilkS) (width 0.12))
  (fp_line (start 17 -1.662) (end 17 1.662) (layer F.SilkS) (width 0.12))
  (fp_line (start 17.04 -1.351) (end 17.04 1.351) (layer F.SilkS) (width 0.12))
  (fp_line (start 17.08 -0.944) (end 17.08 0.944) (layer F.SilkS) (width 0.12))
  (fp_line (start 17.12 -0.04) (end 17.12 0.04) (layer F.SilkS) (width 0.12))
  (fp_line (start -7.969285 -6.795) (end -5.569285 -6.795) (layer F.SilkS) (width 0.12))
  (fp_line (start -6.769285 -7.995) (end -6.769285 -5.595) (layer F.SilkS) (width 0.12))
  (pad 2 thru_hole circle (at 6.7 -4.75) (size 5 5) (drill 2.5) (layers *.Cu *.Mask))
  (pad 2 thru_hole circle (at 10 0) (size 4 4) (drill 2) (layers *.Cu *.Mask))
  (pad 1 thru_hole rect (at 0 0) (size 4 4) (drill 2) (layers *.Cu *.Mask))
  (model ${KISYS3DMOD}/Capacitor_THT.3dshapes/CP_Radial_D24.0mm_P10.00mm_3pin_SnapIn.wrl
    (at (xyz 0 0 0))
    (scale (xyz 1 1 1))
    (rotate (xyz 0 0 0))
  )
)
