(module CP_Radial_D18.0mm_P7.50mm_H60mm_Horizontal1_Supported (layer F.Cu) (tedit 60782859)
  (descr "CP, Radial series, Horizontal with holes for supports, pin pitch=7.50mm, , diameter=18mm, height = 60mm, Electrolytic Capacitor, Alternate KiCad Library")
  (tags "CP Radial series Horizontal pin pitch 7.50mm  diameter 18mm height 60mm Electrolytic Capacitor Support")
  (fp_text reference REF** (at 3.75 -2) (layer F.SilkS)
    (effects (font (size 1 1) (thickness 0.15)))
  )
  (fp_text value CP_Radial_D18.0mm_P7.50mm_H60mm_Horizontal1_Supported (at -6.25 29 90) (layer F.Fab)
    (effects (font (size 1 1) (thickness 0.15)))
  )
  (fp_line (start 12 53) (end 12.75 53) (layer F.SilkS) (width 0.12))
  (fp_line (start 12 51) (end 12 53) (layer F.SilkS) (width 0.12))
  (fp_line (start 12.75 51) (end 12 51) (layer F.SilkS) (width 0.12))
  (fp_line (start 12 13) (end 12.75 13) (layer F.SilkS) (width 0.12))
  (fp_line (start 12 11) (end 12 13) (layer F.SilkS) (width 0.12))
  (fp_line (start 12.25 11) (end 12 11) (layer F.SilkS) (width 0.12))
  (fp_line (start 12.75 11) (end 12.25 11) (layer F.SilkS) (width 0.12))
  (fp_line (start 12.75 11) (end 12.75 7) (layer F.SilkS) (width 0.12))
  (fp_line (start 12.75 53) (end 12.75 62) (layer F.SilkS) (width 0.12))
  (fp_line (start 12.75 13) (end 12.75 31) (layer F.SilkS) (width 0.12))
  (fp_line (start -5.25 11) (end -5.25 7) (layer F.SilkS) (width 0.12))
  (fp_line (start -5.25 53) (end -5.25 62) (layer F.SilkS) (width 0.12))
  (fp_line (start 0 1.5) (end 0 2) (layer F.SilkS) (width 0.12))
  (fp_line (start 7.5 1.5) (end 7.5 2) (layer F.SilkS) (width 0.12))
  (fp_line (start -5.25 2) (end 12.75 2) (layer F.SilkS) (width 0.12))
  (fp_line (start -5.25 13) (end -5.25 31) (layer F.SilkS) (width 0.12))
  (fp_line (start -5.25 62) (end 12.75 62) (layer F.SilkS) (width 0.12))
  (fp_line (start 3.75 2) (end 3.75 62) (layer F.SilkS) (width 0.12))
  (fp_line (start -5.25 2) (end -5.25 4) (layer F.SilkS) (width 0.12))
  (fp_line (start -5.25 4) (end -3.75 5.5) (layer F.SilkS) (width 0.12))
  (fp_line (start -5.25 7) (end -3.75 5.5) (layer F.SilkS) (width 0.12))
  (fp_line (start 12.75 2) (end 12.75 4) (layer F.SilkS) (width 0.12))
  (fp_line (start 12.75 4) (end 11.25 5.5) (layer F.SilkS) (width 0.12))
  (fp_line (start 12.75 7) (end 11.25 5.5) (layer F.SilkS) (width 0.12))
  (fp_line (start -1.75 0.75) (end -2.75 0.75) (layer F.SilkS) (width 0.12))
  (fp_line (start -2.25 0.25) (end -2.25 1.25) (layer F.SilkS) (width 0.12))
  (fp_line (start -5.25 2) (end -5.25 62) (layer F.Fab) (width 0.12))
  (fp_line (start -5.25 62) (end 12.75 62) (layer F.Fab) (width 0.12))
  (fp_line (start 12.75 62) (end 12.75 2) (layer F.Fab) (width 0.12))
  (fp_line (start 12.75 2) (end -5.25 2) (layer F.Fab) (width 0.12))
  (fp_line (start 3.75 2) (end 3.75 62) (layer F.Fab) (width 0.12))
  (fp_poly (pts (xy 12.75 62) (xy 3.75 62) (xy 3.75 2) (xy 12.75 2)) (layer F.Fab) (width 0.1))
  (fp_line (start -5.5 62.25) (end 13 62.25) (layer F.CrtYd) (width 0.04))
  (fp_line (start 13 62.25) (end 13 -1.25) (layer F.CrtYd) (width 0.04))
  (fp_line (start 13 -1.25) (end -5.5 -1.25) (layer F.CrtYd) (width 0.04))
  (fp_line (start -5.5 -1.25) (end -5.5 62.25) (layer F.CrtYd) (width 0.04))
  (fp_line (start 12 33) (end 12.75 33) (layer F.SilkS) (width 0.12))
  (fp_line (start 12 31) (end 12 33) (layer F.SilkS) (width 0.12))
  (fp_line (start 12.75 31) (end 12 31) (layer F.SilkS) (width 0.12))
  (fp_line (start -5.25 33) (end -5.25 51) (layer F.SilkS) (width 0.12))
  (fp_line (start 12.75 33) (end 12.75 51) (layer F.SilkS) (width 0.12))
  (fp_poly (pts (xy 12.75 4) (xy 11.25 5.5) (xy 12.75 7) (xy 12.75 11)
    (xy 12 11) (xy 12 13) (xy 12.75 13) (xy 12.75 31)
    (xy 12 31) (xy 12 33) (xy 12.75 33) (xy 12.75 51)
    (xy 12 51) (xy 12 53) (xy 12.75 53) (xy 12.75 62)
    (xy 3.75 62) (xy 3.75 2) (xy 12.75 2)) (layer F.SilkS) (width 0.1))
  (fp_text user %R (at 3.75 0) (layer F.Fab)
    (effects (font (size 1 1) (thickness 0.15)))
  )
  (pad ~ thru_hole circle (at -5.75 32) (size 1.524 1.524) (drill 0.762) (layers *.Cu *.Mask))
  (pad ~ thru_hole circle (at 13.25 32) (size 1.524 1.524) (drill 0.762) (layers *.Cu *.Mask))
  (pad ~ thru_hole circle (at -5.75 12) (size 1.524 1.524) (drill 0.762) (layers *.Cu *.Mask))
  (pad ~ thru_hole circle (at 13.25 12) (size 1.524 1.524) (drill 0.762) (layers *.Cu *.Mask))
  (pad ~ thru_hole circle (at 13.25 52) (size 1.524 1.524) (drill 0.762) (layers *.Cu *.Mask))
  (pad ~ thru_hole circle (at -5.75 52) (size 1.524 1.524) (drill 0.762) (layers *.Cu *.Mask))
  (pad 2 thru_hole circle (at 7.5 0) (size 2.4 2.4) (drill 1.2) (layers *.Cu *.Mask))
  (pad 1 thru_hole rect (at 0 0) (size 2.4 2.4) (drill 1.2) (layers *.Cu *.Mask))
)
