(module CP_Radial_D10.0mm_P5.00mm_H30mm_Horizontal1_Supported (layer F.Cu) (tedit 60782131)
  (descr "CP, Radial series, Horizontal with holes for supports, pin pitch=5.00mm, , diameter=10mm, height = 30mm, Electrolytic Capacitor, Alternate KiCad Library")
  (tags "CP Radial series Horizontal pin pitch 5.00mm  diameter 10mm height 30mm Electrolytic Capacitor Support")
  (fp_text reference REF** (at 2.5 -1.7) (layer F.SilkS)
    (effects (font (size 1 1) (thickness 0.15)))
  )
  (fp_text value CP_Radial_D10.0mm_P5.00mm_H30mm_Horizontal1_Supported (at -3.5 13.25 90) (layer F.Fab)
    (effects (font (size 1 1) (thickness 0.15)))
  )
  (fp_line (start 5 1.7) (end 5 1.2) (layer F.SilkS) (width 0.12))
  (fp_line (start 0 1.7) (end 0 1.2) (layer F.SilkS) (width 0.12))
  (fp_line (start 2.5 31.7) (end 2.5 3.7) (layer F.SilkS) (width 0.12))
  (fp_line (start -2.5 31.7) (end 7.5 31.7) (layer F.SilkS) (width 0.12))
  (fp_line (start 7.5 22.5) (end 7.5 31.7) (layer F.SilkS) (width 0.12))
  (fp_line (start 7.5 4.7) (end 7.5 20.9) (layer F.SilkS) (width 0.12))
  (fp_line (start 7.5 1.7) (end 2.5 1.7) (layer F.SilkS) (width 0.12))
  (fp_line (start -2.5 22.5) (end -2.5 31.7) (layer F.SilkS) (width 0.12))
  (fp_line (start -2.5 3.8) (end -2.5 20.9) (layer F.SilkS) (width 0.12))
  (fp_line (start 2.5 1.7) (end -2.5 1.7) (layer F.SilkS) (width 0.12))
  (fp_line (start -1.4 0.7) (end -2.4 0.7) (layer F.SilkS) (width 0.12))
  (fp_line (start -1.9 0.2) (end -1.9 1.2) (layer F.SilkS) (width 0.12))
  (fp_line (start -2.5 1.7) (end -2.5 2.7) (layer F.SilkS) (width 0.12))
  (fp_line (start -2.5 2.7) (end -2 3.2) (layer F.SilkS) (width 0.12))
  (fp_line (start -2 3.2) (end -2.5 3.7) (layer F.SilkS) (width 0.12))
  (fp_line (start 7.5 1.7) (end 7.5 2.7) (layer F.SilkS) (width 0.12))
  (fp_line (start 7.5 2.7) (end 7 3.2) (layer F.SilkS) (width 0.12))
  (fp_line (start 7 3.2) (end 7.5 3.7) (layer F.SilkS) (width 0.12))
  (fp_line (start -2.5 1.7) (end -2.5 31.7) (layer F.Fab) (width 0.12))
  (fp_line (start -2.5 31.7) (end 7.5 31.7) (layer F.Fab) (width 0.12))
  (fp_line (start 7.5 31.7) (end 7.5 1.7) (layer F.Fab) (width 0.12))
  (fp_line (start 7.5 1.7) (end -2.5 1.7) (layer F.Fab) (width 0.12))
  (fp_line (start 0 1.7) (end 0 1.2) (layer F.Fab) (width 0.12))
  (fp_line (start 5 1.7) (end 5 1.2) (layer F.Fab) (width 0.12))
  (fp_line (start 2.5 3.7) (end 2.5 31.7) (layer F.Fab) (width 0.12))
  (fp_poly (pts (xy 7.5 31.7) (xy 2.5 31.7) (xy 2.5 1.7) (xy 7.5 1.7)) (layer F.Fab) (width 0.1))
  (fp_line (start 5.3 -1.2) (end 7.7 -1.2) (layer F.CrtYd) (width 0.04))
  (fp_line (start 7.7 -1.2) (end 7.7 31.9) (layer F.CrtYd) (width 0.04))
  (fp_line (start 7.7 31.9) (end -2.7 31.9) (layer F.CrtYd) (width 0.04))
  (fp_line (start -2.7 31.9) (end -2.7 -1.2) (layer F.CrtYd) (width 0.04))
  (fp_line (start -2.7 -1.2) (end 5.3 -1.2) (layer F.CrtYd) (width 0.04))
  (fp_line (start 7.5 22.5) (end 7 22.5) (layer F.SilkS) (width 0.12))
  (fp_line (start 7 21.9) (end 7 20.9) (layer F.SilkS) (width 0.12))
  (fp_line (start 7 22.5) (end 7 21.9) (layer F.SilkS) (width 0.12))
  (fp_line (start 7 20.9) (end 7.5 20.9) (layer F.SilkS) (width 0.12))
  (fp_poly (pts (xy 7.5 2.7) (xy 7 3.2) (xy 7.5 3.7) (xy 7.5 20.9)
    (xy 7 20.9) (xy 7 22.5) (xy 7.5 22.5) (xy 7.5 31.7)
    (xy 2.5 31.7) (xy 2.5 1.7) (xy 7.5 1.7)) (layer F.SilkS) (width 0.1))
  (fp_text user %R (at 2.5 0) (layer F.Fab)
    (effects (font (size 1 1) (thickness 0.15)))
  )
  (pad ~ thru_hole circle (at 7.8 21.7) (size 1.2 1.2) (drill 0.6) (layers *.Cu *.Mask))
  (pad ~ thru_hole circle (at -2.8 21.7) (size 1.2 1.2) (drill 0.6) (layers *.Cu *.Mask))
  (pad 2 thru_hole circle (at 5 0) (size 2 2) (drill 1) (layers *.Cu *.Mask))
  (pad 1 thru_hole rect (at 0 0) (size 2 2) (drill 1) (layers *.Cu *.Mask))
)
