(module CP_Radial_D10.0mm_P5.00mm_H60mm_Horizontal2_Supported (layer F.Cu) (tedit 607822BD)
  (descr "CP, Radial series, Horizontal flipped with holes for supports, pin pitch=5.00mm, , diameter=10mm, height = 60mm, Electrolytic Capacitor, Alternate KiCad Library")
  (tags "CP Radial series Horizontal pin pitch 5.00mm  diameter 10mm height 60mm Electrolytic Capacitor Support")
  (fp_text reference REF** (at 2.4 2) (layer F.SilkS)
    (effects (font (size 1 1) (thickness 0.15)))
  )
  (fp_text value CP_Radial_D10.0mm_P5.00mm_H60mm_Horizontal2_Supported (at -4.3 -36.8 270) (layer F.Fab)
    (effects (font (size 1 1) (thickness 0.15)))
  )
  (fp_poly (pts (xy 7.5 -2.7) (xy 7 -3.2) (xy 7.5 -3.7) (xy 7.5 -10.9)
    (xy 7 -10.9) (xy 7 -12.5) (xy 7.5 -12.5) (xy 7.5 -30.9)
    (xy 7 -30.9) (xy 7 -32.5) (xy 7.5 -32.5) (xy 7.5 -50.9)
    (xy 7 -50.9) (xy 7 -52.5) (xy 7.5 -52.5) (xy 7.5 -61.7)
    (xy 2.5 -61.7) (xy 2.5 -1.7) (xy 7.5 -1.7)) (layer F.SilkS) (width 0.1))
  (fp_line (start 7.5 -50.9) (end 7 -50.9) (layer F.SilkS) (width 0.12))
  (fp_line (start 7 -50.9) (end 7 -52.5) (layer F.SilkS) (width 0.12))
  (fp_line (start 7 -52.5) (end 7.5 -52.5) (layer F.SilkS) (width 0.12))
  (fp_line (start 7.5 -30.9) (end 7 -30.9) (layer F.SilkS) (width 0.12))
  (fp_line (start 7 -30.9) (end 7 -32.5) (layer F.SilkS) (width 0.12))
  (fp_line (start 7 -32.5) (end 7.5 -32.5) (layer F.SilkS) (width 0.12))
  (fp_line (start 7.5 -12.5) (end 7.5 -30.9) (layer F.SilkS) (width 0.12))
  (fp_line (start 7.5 -52.5) (end 7.5 -61.7) (layer F.SilkS) (width 0.12))
  (fp_line (start 7.5 -50.9) (end 7.5 -32.5) (layer F.SilkS) (width 0.12))
  (fp_line (start -2.5 -50.9) (end -2.5 -32.5) (layer F.SilkS) (width 0.12))
  (fp_line (start 5 -1.7) (end 5 -1.2) (layer F.SilkS) (width 0.12))
  (fp_line (start 0 -1.7) (end 0 -1.2) (layer F.SilkS) (width 0.12))
  (fp_line (start 2.5 -61.7) (end 2.5 -1.7) (layer F.SilkS) (width 0.12))
  (fp_line (start -2.5 -61.7) (end 7.5 -61.7) (layer F.SilkS) (width 0.12))
  (fp_line (start 7.5 -1.7) (end 2.5 -1.7) (layer F.SilkS) (width 0.12))
  (fp_line (start -2.5 -52.5) (end -2.5 -61.7) (layer F.SilkS) (width 0.12))
  (fp_line (start -2.5 -3.8) (end -2.5 -10.9) (layer F.SilkS) (width 0.12))
  (fp_line (start 2.5 -1.7) (end -2.5 -1.7) (layer F.SilkS) (width 0.12))
  (fp_line (start -1.4 -0.7) (end -2.4 -0.7) (layer F.SilkS) (width 0.12))
  (fp_line (start -1.9 -1.2) (end -1.9 -0.2) (layer F.SilkS) (width 0.12))
  (fp_line (start -2.5 -1.7) (end -2.5 -2.7) (layer F.SilkS) (width 0.12))
  (fp_line (start -2.5 -2.7) (end -2 -3.2) (layer F.SilkS) (width 0.12))
  (fp_line (start -2 -3.2) (end -2.5 -3.7) (layer F.SilkS) (width 0.12))
  (fp_line (start 7.5 -1.7) (end 7.5 -2.7) (layer F.SilkS) (width 0.12))
  (fp_line (start 7.5 -2.7) (end 7 -3.2) (layer F.SilkS) (width 0.12))
  (fp_line (start 7 -3.2) (end 7.5 -3.7) (layer F.SilkS) (width 0.12))
  (fp_line (start -2.5 -1.7) (end -2.5 -61.7) (layer F.Fab) (width 0.12))
  (fp_line (start -2.5 -61.7) (end 7.5 -61.7) (layer F.Fab) (width 0.12))
  (fp_line (start 7.5 -61.7) (end 7.5 -1.7) (layer F.Fab) (width 0.12))
  (fp_line (start 7.5 -1.7) (end -2.5 -1.7) (layer F.Fab) (width 0.12))
  (fp_line (start 0 -1.7) (end 0 -1.2) (layer F.Fab) (width 0.12))
  (fp_line (start 5 -1.7) (end 5 -1.2) (layer F.Fab) (width 0.12))
  (fp_line (start 2.5 -3.7) (end 2.5 -61.7) (layer F.Fab) (width 0.12))
  (fp_poly (pts (xy 7.5 -61.7) (xy 2.5 -61.7) (xy 2.5 -1.7) (xy 7.5 -1.7)) (layer F.Fab) (width 0.1))
  (fp_line (start 5.3 1.2) (end 7.7 1.2) (layer F.CrtYd) (width 0.04))
  (fp_line (start 7.7 1.2) (end 7.7 -61.9) (layer F.CrtYd) (width 0.04))
  (fp_line (start 7.7 -61.9) (end -2.7 -61.9) (layer F.CrtYd) (width 0.04))
  (fp_line (start -2.7 -61.9) (end -2.7 1.2) (layer F.CrtYd) (width 0.04))
  (fp_line (start -2.7 1.2) (end 5.3 1.2) (layer F.CrtYd) (width 0.04))
  (fp_line (start 5.3 1.2) (end 7.7 1.2) (layer B.CrtYd) (width 0.04))
  (fp_line (start 7.7 1.2) (end 7.7 -61.9) (layer B.CrtYd) (width 0.04))
  (fp_line (start 7.7 -61.9) (end -2.7 -61.9) (layer B.CrtYd) (width 0.04))
  (fp_line (start -2.7 -61.9) (end -2.7 1.2) (layer B.CrtYd) (width 0.04))
  (fp_line (start -2.7 1.2) (end 5.3 1.2) (layer B.CrtYd) (width 0.04))
  (fp_line (start -2.5 -12.5) (end -2.5 -30.9) (layer F.SilkS) (width 0.12))
  (fp_line (start 7.5 -3.7) (end 7.5 -10.9) (layer F.SilkS) (width 0.12))
  (fp_line (start 7.5 -10.9) (end 7 -10.9) (layer F.SilkS) (width 0.12))
  (fp_line (start 7 -10.9) (end 7 -12.5) (layer F.SilkS) (width 0.12))
  (fp_line (start 7 -12.5) (end 7.5 -12.5) (layer F.SilkS) (width 0.12))
  (fp_text user %R (at 2.5 0) (layer F.Fab)
    (effects (font (size 1 1) (thickness 0.15)))
  )
  (pad ~ thru_hole circle (at -2.8 -31.7) (size 1.2 1.2) (drill 0.6) (layers *.Cu *.Mask))
  (pad ~ thru_hole circle (at 7.8 -31.7 180) (size 1.2 1.2) (drill 0.6) (layers *.Cu *.Mask))
  (pad ~ thru_hole circle (at -2.8 -11.7) (size 1.2 1.2) (drill 0.6) (layers *.Cu *.Mask))
  (pad ~ thru_hole circle (at 7.8 -11.7 180) (size 1.2 1.2) (drill 0.6) (layers *.Cu *.Mask))
  (pad ~ thru_hole circle (at 7.8 -51.7 180) (size 1.2 1.2) (drill 0.6) (layers *.Cu *.Mask))
  (pad ~ thru_hole circle (at -2.8 -51.7 180) (size 1.2 1.2) (drill 0.6) (layers *.Cu *.Mask))
  (pad 2 thru_hole circle (at 5 0) (size 2 2) (drill 1) (layers *.Cu *.Mask))
  (pad 1 thru_hole rect (at 0 0) (size 2 2) (drill 1) (layers *.Cu *.Mask))
)
