(module CP_Radial_D16.0mm_P7.50mm_H60mm_Horizontal2_Supported (layer F.Cu) (tedit 6078277B)
  (descr "CP, Radial series, Horizontal flipped with holes for supports, pin pitch=7.50mm, , diameter=16mm, height = 60mm, Electrolytic Capacitor, Alternate KiCad Library")
  (tags "CP Radial series Horizontal pin pitch 7.50mm  diameter 16mm height 60mm Electrolytic Capacitor Support")
  (fp_text reference REF** (at 3.75 2.25) (layer F.SilkS)
    (effects (font (size 1 1) (thickness 0.15)))
  )
  (fp_text value CP_Radial_D16.0mm_P7.50mm_H60mm_Horizontal2_Supported (at -5.25 -23.5 270) (layer F.Fab)
    (effects (font (size 1 1) (thickness 0.15)))
  )
  (fp_line (start 0 -1.5) (end 0 -2) (layer F.SilkS) (width 0.12))
  (fp_line (start 7.5 -1.5) (end 7.5 -2) (layer F.SilkS) (width 0.12))
  (fp_line (start 3.75 -2) (end -4.25 -2) (layer F.SilkS) (width 0.12))
  (fp_line (start 3.75 -2) (end 11.75 -2) (layer F.SilkS) (width 0.12))
  (fp_line (start -4.25 -7.5) (end -4.25 -11.25) (layer F.SilkS) (width 0.12))
  (fp_line (start 11.75 -11.25) (end 11.75 -6.5) (layer F.SilkS) (width 0.12))
  (fp_line (start 11.75 -62) (end -4.25 -62) (layer F.SilkS) (width 0.12))
  (fp_line (start 3.75 -2) (end 3.75 -62) (layer F.SilkS) (width 0.12))
  (fp_line (start -1.75 -0.75) (end -2.75 -0.75) (layer F.SilkS) (width 0.12))
  (fp_line (start -2.25 -1.25) (end -2.25 -0.25) (layer F.SilkS) (width 0.12))
  (fp_line (start -4.25 -2) (end -4.25 -3.5) (layer F.SilkS) (width 0.12))
  (fp_line (start -4.25 -3.5) (end -2.75 -5) (layer F.SilkS) (width 0.12))
  (fp_line (start -2.75 -5) (end -4.25 -6.5) (layer F.SilkS) (width 0.12))
  (fp_line (start -4.25 -6.5) (end -4.25 -7.5) (layer F.SilkS) (width 0.12))
  (fp_line (start 11.75 -3.5) (end 10.25 -5) (layer F.SilkS) (width 0.12))
  (fp_line (start 10.25 -5) (end 11.75 -6.5) (layer F.SilkS) (width 0.12))
  (fp_line (start 11.75 -2) (end 11.75 -3.5) (layer F.SilkS) (width 0.12))
  (fp_line (start 0 -1.5) (end 0 -2) (layer F.Fab) (width 0.12))
  (fp_line (start 0 -2) (end -4.25 -2) (layer F.Fab) (width 0.12))
  (fp_line (start -4.25 -2) (end -4.25 -62) (layer F.Fab) (width 0.12))
  (fp_line (start -4.25 -62) (end 11.75 -62) (layer F.Fab) (width 0.12))
  (fp_line (start 11.75 -62) (end 11.75 -2) (layer F.Fab) (width 0.12))
  (fp_line (start 11.75 -2) (end 0 -2) (layer F.Fab) (width 0.12))
  (fp_line (start 7.5 -1.5) (end 7.5 -2) (layer F.Fab) (width 0.12))
  (fp_line (start 3.75 -2) (end 3.75 -62) (layer F.Fab) (width 0.12))
  (fp_poly (pts (xy 11.75 -62) (xy 3.75 -62) (xy 3.75 -2) (xy 11.75 -2)) (layer F.Fab) (width 0.1))
  (fp_line (start -4.5 1.5) (end 12 1.5) (layer F.CrtYd) (width 0.04))
  (fp_line (start 12 1.5) (end 12 -62.25) (layer F.CrtYd) (width 0.04))
  (fp_line (start 12 -62.25) (end -4.5 -62.25) (layer F.CrtYd) (width 0.04))
  (fp_line (start -4.5 -62.25) (end -4.5 1.5) (layer F.CrtYd) (width 0.04))
  (fp_line (start -4.25 -53.25) (end -4.25 -62) (layer F.SilkS) (width 0.12))
  (fp_line (start 11.75 -62) (end 11.75 -53.25) (layer F.SilkS) (width 0.12))
  (fp_line (start 11.75 -53.25) (end 11 -53.25) (layer F.SilkS) (width 0.12))
  (fp_line (start 11 -53.25) (end 11 -51.25) (layer F.SilkS) (width 0.12))
  (fp_line (start 11 -51.25) (end 11.75 -51.25) (layer F.SilkS) (width 0.12))
  (fp_line (start 11.75 -13.25) (end 11 -13.25) (layer F.SilkS) (width 0.12))
  (fp_line (start 11 -13.25) (end 11 -11.25) (layer F.SilkS) (width 0.12))
  (fp_line (start 11 -11.25) (end 11.75 -11.25) (layer F.SilkS) (width 0.12))
  (fp_line (start -4.25 -31.25) (end -4.25 -13.25) (layer F.SilkS) (width 0.12))
  (fp_line (start 11.75 -13.25) (end 11.75 -31.25) (layer F.SilkS) (width 0.12))
  (fp_line (start 11.75 -33.25) (end 11 -33.25) (layer F.SilkS) (width 0.12))
  (fp_line (start 11 -33.25) (end 11 -31.25) (layer F.SilkS) (width 0.12))
  (fp_line (start 11 -31.25) (end 11.75 -31.25) (layer F.SilkS) (width 0.12))
  (fp_line (start -4.25 -33.25) (end -4.25 -51.25) (layer F.SilkS) (width 0.12))
  (fp_line (start 11.75 -33.25) (end 11.75 -51.25) (layer F.SilkS) (width 0.12))
  (fp_poly (pts (xy 11.75 -3.5) (xy 10.25 -5) (xy 11.75 -6.5) (xy 11.75 -11.25)
    (xy 11 -11.25) (xy 11 -13.25) (xy 11.75 -13.25) (xy 11.75 -31.25)
    (xy 11 -31.25) (xy 11 -33.25) (xy 11.75 -33.25) (xy 11.75 -51.25)
    (xy 11 -51.25) (xy 11 -53.25) (xy 11.75 -53.25) (xy 11.75 -62)
    (xy 3.75 -62) (xy 3.75 -2) (xy 11.75 -2)) (layer F.SilkS) (width 0.1))
  (fp_text user %R (at 3.75 0) (layer F.Fab)
    (effects (font (size 1 1) (thickness 0.15)))
  )
  (pad ~ thru_hole circle (at -4.75 -32.25 180) (size 1.524 1.524) (drill 0.762) (layers *.Cu *.Mask))
  (pad ~ thru_hole circle (at 12.25 -32.25 180) (size 1.524 1.524) (drill 0.762) (layers *.Cu *.Mask))
  (pad ~ thru_hole circle (at -4.75 -12.25 180) (size 1.524 1.524) (drill 0.762) (layers *.Cu *.Mask))
  (pad ~ thru_hole circle (at 12.25 -12.25 180) (size 1.524 1.524) (drill 0.762) (layers *.Cu *.Mask))
  (pad ~ thru_hole circle (at 12.25 -52.25 180) (size 1.524 1.524) (drill 0.762) (layers *.Cu *.Mask))
  (pad ~ thru_hole circle (at -4.75 -52.25 180) (size 1.524 1.524) (drill 0.762) (layers *.Cu *.Mask))
  (pad 2 thru_hole circle (at 7.5 0) (size 2.4 2.4) (drill 1.2) (layers *.Cu *.Mask))
  (pad 1 thru_hole rect (at 0 0) (size 2.4 2.4) (drill 1.2) (layers *.Cu *.Mask))
)
