(module CP_Radial_Tantal_D7.0mm_P2.50mm (layer F.Cu) (tedit 5AE50EF0)
  (descr "CP, Radial_Tantal series, Radial, pin pitch=2.50mm, , diameter=7.0mm, Tantal Electrolytic Capacitor, http://cdn-reichelt.de/documents/datenblatt/B300/TANTAL-TB-Serie%23.pdf")
  (tags "CP Radial_Tantal series Radial pin pitch 2.50mm  diameter 7.0mm Tantal Electrolytic Capacitor")
  (fp_text reference REF** (at 1.25 -4.75) (layer F.SilkS)
    (effects (font (size 1 1) (thickness 0.15)))
  )
  (fp_text value CP_Radial_Tantal_D7.0mm_P2.50mm (at 1.25 4.75) (layer F.Fab)
    (effects (font (size 1 1) (thickness 0.15)))
  )
  (fp_text user %R (at 1.25 0) (layer F.Fab)
    (effects (font (size 1 1) (thickness 0.15)))
  )
  (fp_circle (center 1.25 0) (end 4.75 0) (layer F.Fab) (width 0.1))
  (fp_circle (center 1.25 0) (end 4.87 0) (layer F.SilkS) (width 0.12))
  (fp_circle (center 1.25 0) (end 5 0) (layer F.CrtYd) (width 0.05))
  (fp_line (start -1.745708 -1.5275) (end -1.045708 -1.5275) (layer F.Fab) (width 0.1))
  (fp_line (start -1.395708 -1.8775) (end -1.395708 -1.1775) (layer F.Fab) (width 0.1))
  (fp_line (start -2.624723 -2.035) (end -1.924723 -2.035) (layer F.SilkS) (width 0.12))
  (fp_line (start -2.274723 -2.385) (end -2.274723 -1.685) (layer F.SilkS) (width 0.12))
  (pad 2 thru_hole circle (at 2.5 0) (size 1.6 1.6) (drill 0.8) (layers *.Cu *.Mask))
  (pad 1 thru_hole rect (at 0 0) (size 1.6 1.6) (drill 0.8) (layers *.Cu *.Mask))
  (model ${KISYS3DMOD}/Capacitor_THT.3dshapes/CP_Radial_Tantal_D7.0mm_P2.50mm.wrl
    (at (xyz 0 0 0))
    (scale (xyz 1 1 1))
    (rotate (xyz 0 0 0))
  )
)
