(module CP_Radial_D12.5mm_P5.00mm_H30mm_Horizontal1_Supported (layer F.Cu) (tedit 60782366)
  (descr "CP, Radial series, Horizontal with holes for supports, pin pitch=5.00mm, , diameter=12.5mm, height = 30mm, Electrolytic Capacitor, Alternate KiCad Library")
  (tags "CP Radial series Horizontal pin pitch 5.00mm  diameter 12.5mm height 30mm Electrolytic Capacitor Support")
  (fp_text reference REF** (at 2.5 -1.9 180) (layer F.SilkS)
    (effects (font (size 1 1) (thickness 0.15)))
  )
  (fp_text value CP_Radial_D12.5mm_P5.00mm_H30mm_Horizontal1_Supported (at -4.75 15 90) (layer F.Fab)
    (effects (font (size 1 1) (thickness 0.15)))
  )
  (fp_line (start -3 4.25) (end -3.75 5) (layer F.SilkS) (width 0.12))
  (fp_line (start 8.75 3.5) (end 8 4.25) (layer F.SilkS) (width 0.12))
  (fp_line (start 8.75 2) (end 8.75 3.5) (layer F.SilkS) (width 0.12))
  (fp_line (start 8 4.25) (end 8.75 5) (layer F.SilkS) (width 0.12))
  (fp_line (start 2.5 2) (end 2.5 32) (layer F.SilkS) (width 0.12))
  (fp_line (start 8.75 32) (end -3.75 32) (layer F.SilkS) (width 0.12))
  (fp_line (start 8.75 5) (end 8.75 21.25) (layer F.SilkS) (width 0.12))
  (fp_line (start -3.75 5) (end -3.75 21.25) (layer F.SilkS) (width 0.12))
  (fp_line (start 2.5 2) (end -3.75 2) (layer F.SilkS) (width 0.12))
  (fp_line (start 2.5 2) (end 8.75 2) (layer F.SilkS) (width 0.12))
  (fp_line (start 5 1.5) (end 5 2) (layer F.SilkS) (width 0.12))
  (fp_line (start 0 1.5) (end 0 2) (layer F.SilkS) (width 0.12))
  (fp_line (start -1.65 0.9) (end -2.65 0.9) (layer F.SilkS) (width 0.12))
  (fp_line (start -2.15 0.4) (end -2.15 1.4) (layer F.SilkS) (width 0.12))
  (fp_line (start -3.75 2) (end -3.75 3.5) (layer F.SilkS) (width 0.12))
  (fp_line (start -3.75 3.5) (end -3 4.25) (layer F.SilkS) (width 0.12))
  (fp_line (start 0 1.5) (end 0 2) (layer F.Fab) (width 0.12))
  (fp_line (start 0 2) (end -3.75 2) (layer F.Fab) (width 0.12))
  (fp_line (start -3.75 2) (end -3.75 32) (layer F.Fab) (width 0.12))
  (fp_line (start -3.75 32) (end 8.75 32) (layer F.Fab) (width 0.12))
  (fp_line (start 8.75 32) (end 8.75 2) (layer F.Fab) (width 0.12))
  (fp_line (start 8.75 2) (end 0 2) (layer F.Fab) (width 0.12))
  (fp_line (start 5 2) (end 5 1.5) (layer F.Fab) (width 0.12))
  (fp_line (start 2.5 2) (end 2.5 32) (layer F.Fab) (width 0.12))
  (fp_poly (pts (xy 8.75 32) (xy 2.5 32) (xy 2.5 2) (xy 8.75 2)) (layer F.Fab) (width 0.1))
  (fp_line (start -3.85 -1.3) (end 8.85 -1.3) (layer F.CrtYd) (width 0.04))
  (fp_line (start 8.85 -1.3) (end 8.85 32.1) (layer F.CrtYd) (width 0.04))
  (fp_line (start 8.85 32.1) (end -3.85 32.1) (layer F.CrtYd) (width 0.04))
  (fp_line (start -3.85 32.1) (end -3.85 -1.3) (layer F.CrtYd) (width 0.04))
  (fp_line (start -3.75 32) (end -3.75 22.75) (layer F.SilkS) (width 0.12))
  (fp_line (start 8.75 32) (end 8.75 22.75) (layer F.SilkS) (width 0.12))
  (fp_line (start 8.75 22.75) (end 8.25 22.75) (layer F.SilkS) (width 0.12))
  (fp_line (start 8.25 22.75) (end 8.25 21.25) (layer F.SilkS) (width 0.12))
  (fp_line (start 8.25 21.25) (end 8.75 21.25) (layer F.SilkS) (width 0.12))
  (fp_poly (pts (xy 8.75 3.5) (xy 8 4.25) (xy 8.75 5) (xy 8.75 21.25)
    (xy 8.25 21.25) (xy 8.25 22.75) (xy 8.75 22.75) (xy 8.75 32)
    (xy 2.5 32) (xy 2.5 2) (xy 8.75 2)) (layer F.SilkS) (width 0.1))
  (fp_text user %R (at 2.5 0) (layer F.Fab)
    (effects (font (size 1 1) (thickness 0.15)))
  )
  (pad ~ thru_hole circle (at 9.05 22) (size 1.2 1.2) (drill 0.6) (layers *.Cu *.Mask))
  (pad ~ thru_hole circle (at -4.05 22) (size 1.2 1.2) (drill 0.6) (layers *.Cu *.Mask))
  (pad 2 thru_hole circle (at 5 0) (size 2.4 2.4) (drill 1.2) (layers *.Cu *.Mask))
  (pad 1 thru_hole rect (at 0 0) (size 2.4 2.4) (drill 1.2) (layers *.Cu *.Mask))
)
