(module CP_Radial_D7.5mm_P2.50mm (layer F.Cu) (tedit 5AE50EF0)
  (descr "CP, Radial series, Radial, pin pitch=2.50mm, , diameter=7.5mm, Electrolytic Capacitor")
  (tags "CP Radial series Radial pin pitch 2.50mm  diameter 7.5mm Electrolytic Capacitor")
  (fp_text reference REF** (at 1.25 -5) (layer F.SilkS)
    (effects (font (size 1 1) (thickness 0.15)))
  )
  (fp_text value CP_Radial_D7.5mm_P2.50mm (at 1.25 5) (layer F.Fab)
    (effects (font (size 1 1) (thickness 0.15)))
  )
  (fp_text user %R (at 1.25 0) (layer F.Fab)
    (effects (font (size 1 1) (thickness 0.15)))
  )
  (fp_circle (center 1.25 0) (end 5 0) (layer F.Fab) (width 0.1))
  (fp_circle (center 1.25 0) (end 5.12 0) (layer F.SilkS) (width 0.12))
  (fp_circle (center 1.25 0) (end 5.25 0) (layer F.CrtYd) (width 0.05))
  (fp_line (start -1.961233 -1.6375) (end -1.211233 -1.6375) (layer F.Fab) (width 0.1))
  (fp_line (start -1.586233 -2.0125) (end -1.586233 -1.2625) (layer F.Fab) (width 0.1))
  (fp_line (start 1.25 -3.83) (end 1.25 3.83) (layer F.SilkS) (width 0.12))
  (fp_line (start 1.29 -3.83) (end 1.29 3.83) (layer F.SilkS) (width 0.12))
  (fp_line (start 1.33 -3.83) (end 1.33 3.83) (layer F.SilkS) (width 0.12))
  (fp_line (start 1.37 -3.829) (end 1.37 3.829) (layer F.SilkS) (width 0.12))
  (fp_line (start 1.41 -3.827) (end 1.41 3.827) (layer F.SilkS) (width 0.12))
  (fp_line (start 1.45 -3.825) (end 1.45 3.825) (layer F.SilkS) (width 0.12))
  (fp_line (start 1.49 -3.823) (end 1.49 -1.04) (layer F.SilkS) (width 0.12))
  (fp_line (start 1.49 1.04) (end 1.49 3.823) (layer F.SilkS) (width 0.12))
  (fp_line (start 1.53 -3.82) (end 1.53 -1.04) (layer F.SilkS) (width 0.12))
  (fp_line (start 1.53 1.04) (end 1.53 3.82) (layer F.SilkS) (width 0.12))
  (fp_line (start 1.57 -3.817) (end 1.57 -1.04) (layer F.SilkS) (width 0.12))
  (fp_line (start 1.57 1.04) (end 1.57 3.817) (layer F.SilkS) (width 0.12))
  (fp_line (start 1.61 -3.814) (end 1.61 -1.04) (layer F.SilkS) (width 0.12))
  (fp_line (start 1.61 1.04) (end 1.61 3.814) (layer F.SilkS) (width 0.12))
  (fp_line (start 1.65 -3.81) (end 1.65 -1.04) (layer F.SilkS) (width 0.12))
  (fp_line (start 1.65 1.04) (end 1.65 3.81) (layer F.SilkS) (width 0.12))
  (fp_line (start 1.69 -3.805) (end 1.69 -1.04) (layer F.SilkS) (width 0.12))
  (fp_line (start 1.69 1.04) (end 1.69 3.805) (layer F.SilkS) (width 0.12))
  (fp_line (start 1.73 -3.801) (end 1.73 -1.04) (layer F.SilkS) (width 0.12))
  (fp_line (start 1.73 1.04) (end 1.73 3.801) (layer F.SilkS) (width 0.12))
  (fp_line (start 1.77 -3.795) (end 1.77 -1.04) (layer F.SilkS) (width 0.12))
  (fp_line (start 1.77 1.04) (end 1.77 3.795) (layer F.SilkS) (width 0.12))
  (fp_line (start 1.81 -3.79) (end 1.81 -1.04) (layer F.SilkS) (width 0.12))
  (fp_line (start 1.81 1.04) (end 1.81 3.79) (layer F.SilkS) (width 0.12))
  (fp_line (start 1.85 -3.784) (end 1.85 -1.04) (layer F.SilkS) (width 0.12))
  (fp_line (start 1.85 1.04) (end 1.85 3.784) (layer F.SilkS) (width 0.12))
  (fp_line (start 1.89 -3.777) (end 1.89 -1.04) (layer F.SilkS) (width 0.12))
  (fp_line (start 1.89 1.04) (end 1.89 3.777) (layer F.SilkS) (width 0.12))
  (fp_line (start 1.93 -3.77) (end 1.93 -1.04) (layer F.SilkS) (width 0.12))
  (fp_line (start 1.93 1.04) (end 1.93 3.77) (layer F.SilkS) (width 0.12))
  (fp_line (start 1.971 -3.763) (end 1.971 -1.04) (layer F.SilkS) (width 0.12))
  (fp_line (start 1.971 1.04) (end 1.971 3.763) (layer F.SilkS) (width 0.12))
  (fp_line (start 2.011 -3.755) (end 2.011 -1.04) (layer F.SilkS) (width 0.12))
  (fp_line (start 2.011 1.04) (end 2.011 3.755) (layer F.SilkS) (width 0.12))
  (fp_line (start 2.051 -3.747) (end 2.051 -1.04) (layer F.SilkS) (width 0.12))
  (fp_line (start 2.051 1.04) (end 2.051 3.747) (layer F.SilkS) (width 0.12))
  (fp_line (start 2.091 -3.738) (end 2.091 -1.04) (layer F.SilkS) (width 0.12))
  (fp_line (start 2.091 1.04) (end 2.091 3.738) (layer F.SilkS) (width 0.12))
  (fp_line (start 2.131 -3.729) (end 2.131 -1.04) (layer F.SilkS) (width 0.12))
  (fp_line (start 2.131 1.04) (end 2.131 3.729) (layer F.SilkS) (width 0.12))
  (fp_line (start 2.171 -3.72) (end 2.171 -1.04) (layer F.SilkS) (width 0.12))
  (fp_line (start 2.171 1.04) (end 2.171 3.72) (layer F.SilkS) (width 0.12))
  (fp_line (start 2.211 -3.71) (end 2.211 -1.04) (layer F.SilkS) (width 0.12))
  (fp_line (start 2.211 1.04) (end 2.211 3.71) (layer F.SilkS) (width 0.12))
  (fp_line (start 2.251 -3.699) (end 2.251 -1.04) (layer F.SilkS) (width 0.12))
  (fp_line (start 2.251 1.04) (end 2.251 3.699) (layer F.SilkS) (width 0.12))
  (fp_line (start 2.291 -3.688) (end 2.291 -1.04) (layer F.SilkS) (width 0.12))
  (fp_line (start 2.291 1.04) (end 2.291 3.688) (layer F.SilkS) (width 0.12))
  (fp_line (start 2.331 -3.677) (end 2.331 -1.04) (layer F.SilkS) (width 0.12))
  (fp_line (start 2.331 1.04) (end 2.331 3.677) (layer F.SilkS) (width 0.12))
  (fp_line (start 2.371 -3.665) (end 2.371 -1.04) (layer F.SilkS) (width 0.12))
  (fp_line (start 2.371 1.04) (end 2.371 3.665) (layer F.SilkS) (width 0.12))
  (fp_line (start 2.411 -3.653) (end 2.411 -1.04) (layer F.SilkS) (width 0.12))
  (fp_line (start 2.411 1.04) (end 2.411 3.653) (layer F.SilkS) (width 0.12))
  (fp_line (start 2.451 -3.64) (end 2.451 -1.04) (layer F.SilkS) (width 0.12))
  (fp_line (start 2.451 1.04) (end 2.451 3.64) (layer F.SilkS) (width 0.12))
  (fp_line (start 2.491 -3.626) (end 2.491 -1.04) (layer F.SilkS) (width 0.12))
  (fp_line (start 2.491 1.04) (end 2.491 3.626) (layer F.SilkS) (width 0.12))
  (fp_line (start 2.531 -3.613) (end 2.531 -1.04) (layer F.SilkS) (width 0.12))
  (fp_line (start 2.531 1.04) (end 2.531 3.613) (layer F.SilkS) (width 0.12))
  (fp_line (start 2.571 -3.598) (end 2.571 -1.04) (layer F.SilkS) (width 0.12))
  (fp_line (start 2.571 1.04) (end 2.571 3.598) (layer F.SilkS) (width 0.12))
  (fp_line (start 2.611 -3.584) (end 2.611 -1.04) (layer F.SilkS) (width 0.12))
  (fp_line (start 2.611 1.04) (end 2.611 3.584) (layer F.SilkS) (width 0.12))
  (fp_line (start 2.651 -3.568) (end 2.651 -1.04) (layer F.SilkS) (width 0.12))
  (fp_line (start 2.651 1.04) (end 2.651 3.568) (layer F.SilkS) (width 0.12))
  (fp_line (start 2.691 -3.553) (end 2.691 -1.04) (layer F.SilkS) (width 0.12))
  (fp_line (start 2.691 1.04) (end 2.691 3.553) (layer F.SilkS) (width 0.12))
  (fp_line (start 2.731 -3.536) (end 2.731 -1.04) (layer F.SilkS) (width 0.12))
  (fp_line (start 2.731 1.04) (end 2.731 3.536) (layer F.SilkS) (width 0.12))
  (fp_line (start 2.771 -3.52) (end 2.771 -1.04) (layer F.SilkS) (width 0.12))
  (fp_line (start 2.771 1.04) (end 2.771 3.52) (layer F.SilkS) (width 0.12))
  (fp_line (start 2.811 -3.502) (end 2.811 -1.04) (layer F.SilkS) (width 0.12))
  (fp_line (start 2.811 1.04) (end 2.811 3.502) (layer F.SilkS) (width 0.12))
  (fp_line (start 2.851 -3.484) (end 2.851 -1.04) (layer F.SilkS) (width 0.12))
  (fp_line (start 2.851 1.04) (end 2.851 3.484) (layer F.SilkS) (width 0.12))
  (fp_line (start 2.891 -3.466) (end 2.891 -1.04) (layer F.SilkS) (width 0.12))
  (fp_line (start 2.891 1.04) (end 2.891 3.466) (layer F.SilkS) (width 0.12))
  (fp_line (start 2.931 -3.447) (end 2.931 -1.04) (layer F.SilkS) (width 0.12))
  (fp_line (start 2.931 1.04) (end 2.931 3.447) (layer F.SilkS) (width 0.12))
  (fp_line (start 2.971 -3.427) (end 2.971 -1.04) (layer F.SilkS) (width 0.12))
  (fp_line (start 2.971 1.04) (end 2.971 3.427) (layer F.SilkS) (width 0.12))
  (fp_line (start 3.011 -3.407) (end 3.011 -1.04) (layer F.SilkS) (width 0.12))
  (fp_line (start 3.011 1.04) (end 3.011 3.407) (layer F.SilkS) (width 0.12))
  (fp_line (start 3.051 -3.386) (end 3.051 -1.04) (layer F.SilkS) (width 0.12))
  (fp_line (start 3.051 1.04) (end 3.051 3.386) (layer F.SilkS) (width 0.12))
  (fp_line (start 3.091 -3.365) (end 3.091 -1.04) (layer F.SilkS) (width 0.12))
  (fp_line (start 3.091 1.04) (end 3.091 3.365) (layer F.SilkS) (width 0.12))
  (fp_line (start 3.131 -3.343) (end 3.131 -1.04) (layer F.SilkS) (width 0.12))
  (fp_line (start 3.131 1.04) (end 3.131 3.343) (layer F.SilkS) (width 0.12))
  (fp_line (start 3.171 -3.321) (end 3.171 -1.04) (layer F.SilkS) (width 0.12))
  (fp_line (start 3.171 1.04) (end 3.171 3.321) (layer F.SilkS) (width 0.12))
  (fp_line (start 3.211 -3.297) (end 3.211 -1.04) (layer F.SilkS) (width 0.12))
  (fp_line (start 3.211 1.04) (end 3.211 3.297) (layer F.SilkS) (width 0.12))
  (fp_line (start 3.251 -3.274) (end 3.251 -1.04) (layer F.SilkS) (width 0.12))
  (fp_line (start 3.251 1.04) (end 3.251 3.274) (layer F.SilkS) (width 0.12))
  (fp_line (start 3.291 -3.249) (end 3.291 -1.04) (layer F.SilkS) (width 0.12))
  (fp_line (start 3.291 1.04) (end 3.291 3.249) (layer F.SilkS) (width 0.12))
  (fp_line (start 3.331 -3.224) (end 3.331 -1.04) (layer F.SilkS) (width 0.12))
  (fp_line (start 3.331 1.04) (end 3.331 3.224) (layer F.SilkS) (width 0.12))
  (fp_line (start 3.371 -3.198) (end 3.371 -1.04) (layer F.SilkS) (width 0.12))
  (fp_line (start 3.371 1.04) (end 3.371 3.198) (layer F.SilkS) (width 0.12))
  (fp_line (start 3.411 -3.172) (end 3.411 -1.04) (layer F.SilkS) (width 0.12))
  (fp_line (start 3.411 1.04) (end 3.411 3.172) (layer F.SilkS) (width 0.12))
  (fp_line (start 3.451 -3.144) (end 3.451 -1.04) (layer F.SilkS) (width 0.12))
  (fp_line (start 3.451 1.04) (end 3.451 3.144) (layer F.SilkS) (width 0.12))
  (fp_line (start 3.491 -3.116) (end 3.491 -1.04) (layer F.SilkS) (width 0.12))
  (fp_line (start 3.491 1.04) (end 3.491 3.116) (layer F.SilkS) (width 0.12))
  (fp_line (start 3.531 -3.088) (end 3.531 -1.04) (layer F.SilkS) (width 0.12))
  (fp_line (start 3.531 1.04) (end 3.531 3.088) (layer F.SilkS) (width 0.12))
  (fp_line (start 3.571 -3.058) (end 3.571 3.058) (layer F.SilkS) (width 0.12))
  (fp_line (start 3.611 -3.028) (end 3.611 3.028) (layer F.SilkS) (width 0.12))
  (fp_line (start 3.651 -2.996) (end 3.651 2.996) (layer F.SilkS) (width 0.12))
  (fp_line (start 3.691 -2.964) (end 3.691 2.964) (layer F.SilkS) (width 0.12))
  (fp_line (start 3.731 -2.931) (end 3.731 2.931) (layer F.SilkS) (width 0.12))
  (fp_line (start 3.771 -2.898) (end 3.771 2.898) (layer F.SilkS) (width 0.12))
  (fp_line (start 3.811 -2.863) (end 3.811 2.863) (layer F.SilkS) (width 0.12))
  (fp_line (start 3.851 -2.827) (end 3.851 2.827) (layer F.SilkS) (width 0.12))
  (fp_line (start 3.891 -2.79) (end 3.891 2.79) (layer F.SilkS) (width 0.12))
  (fp_line (start 3.931 -2.752) (end 3.931 2.752) (layer F.SilkS) (width 0.12))
  (fp_line (start 3.971 -2.713) (end 3.971 2.713) (layer F.SilkS) (width 0.12))
  (fp_line (start 4.011 -2.673) (end 4.011 2.673) (layer F.SilkS) (width 0.12))
  (fp_line (start 4.051 -2.632) (end 4.051 2.632) (layer F.SilkS) (width 0.12))
  (fp_line (start 4.091 -2.589) (end 4.091 2.589) (layer F.SilkS) (width 0.12))
  (fp_line (start 4.131 -2.546) (end 4.131 2.546) (layer F.SilkS) (width 0.12))
  (fp_line (start 4.171 -2.5) (end 4.171 2.5) (layer F.SilkS) (width 0.12))
  (fp_line (start 4.211 -2.454) (end 4.211 2.454) (layer F.SilkS) (width 0.12))
  (fp_line (start 4.251 -2.405) (end 4.251 2.405) (layer F.SilkS) (width 0.12))
  (fp_line (start 4.291 -2.355) (end 4.291 2.355) (layer F.SilkS) (width 0.12))
  (fp_line (start 4.331 -2.304) (end 4.331 2.304) (layer F.SilkS) (width 0.12))
  (fp_line (start 4.371 -2.25) (end 4.371 2.25) (layer F.SilkS) (width 0.12))
  (fp_line (start 4.411 -2.195) (end 4.411 2.195) (layer F.SilkS) (width 0.12))
  (fp_line (start 4.451 -2.137) (end 4.451 2.137) (layer F.SilkS) (width 0.12))
  (fp_line (start 4.491 -2.077) (end 4.491 2.077) (layer F.SilkS) (width 0.12))
  (fp_line (start 4.531 -2.014) (end 4.531 2.014) (layer F.SilkS) (width 0.12))
  (fp_line (start 4.571 -1.949) (end 4.571 1.949) (layer F.SilkS) (width 0.12))
  (fp_line (start 4.611 -1.881) (end 4.611 1.881) (layer F.SilkS) (width 0.12))
  (fp_line (start 4.651 -1.809) (end 4.651 1.809) (layer F.SilkS) (width 0.12))
  (fp_line (start 4.691 -1.733) (end 4.691 1.733) (layer F.SilkS) (width 0.12))
  (fp_line (start 4.731 -1.654) (end 4.731 1.654) (layer F.SilkS) (width 0.12))
  (fp_line (start 4.771 -1.569) (end 4.771 1.569) (layer F.SilkS) (width 0.12))
  (fp_line (start 4.811 -1.478) (end 4.811 1.478) (layer F.SilkS) (width 0.12))
  (fp_line (start 4.851 -1.381) (end 4.851 1.381) (layer F.SilkS) (width 0.12))
  (fp_line (start 4.891 -1.275) (end 4.891 1.275) (layer F.SilkS) (width 0.12))
  (fp_line (start 4.931 -1.158) (end 4.931 1.158) (layer F.SilkS) (width 0.12))
  (fp_line (start 4.971 -1.028) (end 4.971 1.028) (layer F.SilkS) (width 0.12))
  (fp_line (start 5.011 -0.877) (end 5.011 0.877) (layer F.SilkS) (width 0.12))
  (fp_line (start 5.051 -0.693) (end 5.051 0.693) (layer F.SilkS) (width 0.12))
  (fp_line (start 5.091 -0.441) (end 5.091 0.441) (layer F.SilkS) (width 0.12))
  (fp_line (start -2.892211 -2.175) (end -2.142211 -2.175) (layer F.SilkS) (width 0.12))
  (fp_line (start -2.517211 -2.55) (end -2.517211 -1.8) (layer F.SilkS) (width 0.12))
  (pad 2 thru_hole circle (at 2.5 0) (size 1.6 1.6) (drill 0.8) (layers *.Cu *.Mask))
  (pad 1 thru_hole rect (at 0 0) (size 1.6 1.6) (drill 0.8) (layers *.Cu *.Mask))
  (model ${KISYS3DMOD}/Capacitor_THT.3dshapes/CP_Radial_D7.5mm_P2.50mm.wrl
    (at (xyz 0 0 0))
    (scale (xyz 1 1 1))
    (rotate (xyz 0 0 0))
  )
)
