(module CP_Radial_Tantal_D6.0mm_P2.50mm (layer F.Cu) (tedit 5AE50EF0)
  (descr "CP, Radial_Tantal series, Radial, pin pitch=2.50mm, , diameter=6.0mm, Tantal Electrolytic Capacitor, http://cdn-reichelt.de/documents/datenblatt/B300/TANTAL-TB-Serie%23.pdf")
  (tags "CP Radial_Tantal series Radial pin pitch 2.50mm  diameter 6.0mm Tantal Electrolytic Capacitor")
  (fp_text reference REF** (at 1.25 -4.25) (layer F.SilkS)
    (effects (font (size 1 1) (thickness 0.15)))
  )
  (fp_text value CP_Radial_Tantal_D6.0mm_P2.50mm (at 1.25 4.25) (layer F.Fab)
    (effects (font (size 1 1) (thickness 0.15)))
  )
  (fp_text user %R (at 1.25 0) (layer F.Fab)
    (effects (font (size 1 1) (thickness 0.15)))
  )
  (fp_circle (center 1.25 0) (end 4.25 0) (layer F.Fab) (width 0.1))
  (fp_circle (center 1.25 0) (end 4.37 0) (layer F.SilkS) (width 0.12))
  (fp_circle (center 1.25 0) (end 4.5 0) (layer F.CrtYd) (width 0.05))
  (fp_line (start -1.314656 -1.3075) (end -0.714656 -1.3075) (layer F.Fab) (width 0.1))
  (fp_line (start -1.014656 -1.6075) (end -1.014656 -1.0075) (layer F.Fab) (width 0.1))
  (fp_line (start -2.089749 -1.755) (end -1.489749 -1.755) (layer F.SilkS) (width 0.12))
  (fp_line (start -1.789749 -2.055) (end -1.789749 -1.455) (layer F.SilkS) (width 0.12))
  (pad 2 thru_hole circle (at 2.5 0) (size 1.6 1.6) (drill 0.8) (layers *.Cu *.Mask))
  (pad 1 thru_hole rect (at 0 0) (size 1.6 1.6) (drill 0.8) (layers *.Cu *.Mask))
  (model ${KISYS3DMOD}/Capacitor_THT.3dshapes/CP_Radial_Tantal_D6.0mm_P2.50mm.wrl
    (at (xyz 0 0 0))
    (scale (xyz 1 1 1))
    (rotate (xyz 0 0 0))
  )
)
