(module CP_Radial_D26.0mm_P10.00mm_3pin_SnapIn (layer F.Cu) (tedit 5AE50EF2)
  (descr "CP, Radial series, Radial, pin pitch=10.00mm, , diameter=26mm, Electrolytic Capacitor, , http://www.vishay.com/docs/28342/058059pll-si.pdf")
  (tags "CP Radial series Radial pin pitch 10.00mm  diameter 26mm Electrolytic Capacitor")
  (fp_text reference REF** (at 5 -14.25) (layer F.SilkS)
    (effects (font (size 1 1) (thickness 0.15)))
  )
  (fp_text value CP_Radial_D26.0mm_P10.00mm_3pin_SnapIn (at 5 14.25) (layer F.Fab)
    (effects (font (size 1 1) (thickness 0.15)))
  )
  (fp_text user %R (at 5 0) (layer F.Fab)
    (effects (font (size 1 1) (thickness 0.15)))
  )
  (fp_circle (center 5 0) (end 18 0) (layer F.Fab) (width 0.1))
  (fp_circle (center 5 0) (end 18.12 0) (layer F.SilkS) (width 0.12))
  (fp_circle (center 5 0) (end 18.25 0) (layer F.CrtYd) (width 0.05))
  (fp_line (start -6.18568 -5.7075) (end -3.58568 -5.7075) (layer F.Fab) (width 0.1))
  (fp_line (start -4.88568 -7.0075) (end -4.88568 -4.4075) (layer F.Fab) (width 0.1))
  (fp_line (start 5 -13.081) (end 5 -7.49) (layer F.SilkS) (width 0.12))
  (fp_line (start 5 -2.01) (end 5 13.081) (layer F.SilkS) (width 0.12))
  (fp_line (start 5.04 -13.08) (end 5.04 -7.49) (layer F.SilkS) (width 0.12))
  (fp_line (start 5.04 -2.01) (end 5.04 13.08) (layer F.SilkS) (width 0.12))
  (fp_line (start 5.08 -13.08) (end 5.08 -7.49) (layer F.SilkS) (width 0.12))
  (fp_line (start 5.08 -2.01) (end 5.08 13.08) (layer F.SilkS) (width 0.12))
  (fp_line (start 5.12 -13.08) (end 5.12 -7.49) (layer F.SilkS) (width 0.12))
  (fp_line (start 5.12 -2.01) (end 5.12 13.08) (layer F.SilkS) (width 0.12))
  (fp_line (start 5.16 -13.08) (end 5.16 -7.49) (layer F.SilkS) (width 0.12))
  (fp_line (start 5.16 -2.01) (end 5.16 13.08) (layer F.SilkS) (width 0.12))
  (fp_line (start 5.2 -13.079) (end 5.2 -7.49) (layer F.SilkS) (width 0.12))
  (fp_line (start 5.2 -2.01) (end 5.2 13.079) (layer F.SilkS) (width 0.12))
  (fp_line (start 5.24 -13.078) (end 5.24 -7.49) (layer F.SilkS) (width 0.12))
  (fp_line (start 5.24 -2.01) (end 5.24 13.078) (layer F.SilkS) (width 0.12))
  (fp_line (start 5.28 -13.078) (end 5.28 -7.49) (layer F.SilkS) (width 0.12))
  (fp_line (start 5.28 -2.01) (end 5.28 13.078) (layer F.SilkS) (width 0.12))
  (fp_line (start 5.32 -13.077) (end 5.32 -7.49) (layer F.SilkS) (width 0.12))
  (fp_line (start 5.32 -2.01) (end 5.32 13.077) (layer F.SilkS) (width 0.12))
  (fp_line (start 5.36 -13.076) (end 5.36 -7.49) (layer F.SilkS) (width 0.12))
  (fp_line (start 5.36 -2.01) (end 5.36 13.076) (layer F.SilkS) (width 0.12))
  (fp_line (start 5.4 -13.074) (end 5.4 -7.49) (layer F.SilkS) (width 0.12))
  (fp_line (start 5.4 -2.01) (end 5.4 13.074) (layer F.SilkS) (width 0.12))
  (fp_line (start 5.44 -13.073) (end 5.44 -7.49) (layer F.SilkS) (width 0.12))
  (fp_line (start 5.44 -2.01) (end 5.44 13.073) (layer F.SilkS) (width 0.12))
  (fp_line (start 5.48 -13.072) (end 5.48 -7.49) (layer F.SilkS) (width 0.12))
  (fp_line (start 5.48 -2.01) (end 5.48 13.072) (layer F.SilkS) (width 0.12))
  (fp_line (start 5.52 -13.07) (end 5.52 -7.49) (layer F.SilkS) (width 0.12))
  (fp_line (start 5.52 -2.01) (end 5.52 13.07) (layer F.SilkS) (width 0.12))
  (fp_line (start 5.56 -13.069) (end 5.56 -7.49) (layer F.SilkS) (width 0.12))
  (fp_line (start 5.56 -2.01) (end 5.56 13.069) (layer F.SilkS) (width 0.12))
  (fp_line (start 5.6 -13.067) (end 5.6 -7.49) (layer F.SilkS) (width 0.12))
  (fp_line (start 5.6 -2.01) (end 5.6 13.067) (layer F.SilkS) (width 0.12))
  (fp_line (start 5.64 -13.065) (end 5.64 -7.49) (layer F.SilkS) (width 0.12))
  (fp_line (start 5.64 -2.01) (end 5.64 13.065) (layer F.SilkS) (width 0.12))
  (fp_line (start 5.68 -13.063) (end 5.68 -7.49) (layer F.SilkS) (width 0.12))
  (fp_line (start 5.68 -2.01) (end 5.68 13.063) (layer F.SilkS) (width 0.12))
  (fp_line (start 5.721 -13.061) (end 5.721 -7.49) (layer F.SilkS) (width 0.12))
  (fp_line (start 5.721 -2.01) (end 5.721 13.061) (layer F.SilkS) (width 0.12))
  (fp_line (start 5.761 -13.058) (end 5.761 -7.49) (layer F.SilkS) (width 0.12))
  (fp_line (start 5.761 -2.01) (end 5.761 13.058) (layer F.SilkS) (width 0.12))
  (fp_line (start 5.801 -13.056) (end 5.801 -7.49) (layer F.SilkS) (width 0.12))
  (fp_line (start 5.801 -2.01) (end 5.801 13.056) (layer F.SilkS) (width 0.12))
  (fp_line (start 5.841 -13.054) (end 5.841 -7.49) (layer F.SilkS) (width 0.12))
  (fp_line (start 5.841 -2.01) (end 5.841 13.054) (layer F.SilkS) (width 0.12))
  (fp_line (start 5.881 -13.051) (end 5.881 -7.49) (layer F.SilkS) (width 0.12))
  (fp_line (start 5.881 -2.01) (end 5.881 13.051) (layer F.SilkS) (width 0.12))
  (fp_line (start 5.921 -13.048) (end 5.921 -7.49) (layer F.SilkS) (width 0.12))
  (fp_line (start 5.921 -2.01) (end 5.921 13.048) (layer F.SilkS) (width 0.12))
  (fp_line (start 5.961 -13.045) (end 5.961 -7.49) (layer F.SilkS) (width 0.12))
  (fp_line (start 5.961 -2.01) (end 5.961 13.045) (layer F.SilkS) (width 0.12))
  (fp_line (start 6.001 -13.042) (end 6.001 -7.49) (layer F.SilkS) (width 0.12))
  (fp_line (start 6.001 -2.01) (end 6.001 13.042) (layer F.SilkS) (width 0.12))
  (fp_line (start 6.041 -13.039) (end 6.041 -7.49) (layer F.SilkS) (width 0.12))
  (fp_line (start 6.041 -2.01) (end 6.041 13.039) (layer F.SilkS) (width 0.12))
  (fp_line (start 6.081 -13.036) (end 6.081 -7.49) (layer F.SilkS) (width 0.12))
  (fp_line (start 6.081 -2.01) (end 6.081 13.036) (layer F.SilkS) (width 0.12))
  (fp_line (start 6.121 -13.033) (end 6.121 -7.49) (layer F.SilkS) (width 0.12))
  (fp_line (start 6.121 -2.01) (end 6.121 13.033) (layer F.SilkS) (width 0.12))
  (fp_line (start 6.161 -13.029) (end 6.161 -7.49) (layer F.SilkS) (width 0.12))
  (fp_line (start 6.161 -2.01) (end 6.161 13.029) (layer F.SilkS) (width 0.12))
  (fp_line (start 6.201 -13.026) (end 6.201 -7.49) (layer F.SilkS) (width 0.12))
  (fp_line (start 6.201 -2.01) (end 6.201 13.026) (layer F.SilkS) (width 0.12))
  (fp_line (start 6.241 -13.022) (end 6.241 -7.49) (layer F.SilkS) (width 0.12))
  (fp_line (start 6.241 -2.01) (end 6.241 13.022) (layer F.SilkS) (width 0.12))
  (fp_line (start 6.281 -13.018) (end 6.281 -7.49) (layer F.SilkS) (width 0.12))
  (fp_line (start 6.281 -2.01) (end 6.281 13.018) (layer F.SilkS) (width 0.12))
  (fp_line (start 6.321 -13.014) (end 6.321 -7.49) (layer F.SilkS) (width 0.12))
  (fp_line (start 6.321 -2.01) (end 6.321 13.014) (layer F.SilkS) (width 0.12))
  (fp_line (start 6.361 -13.01) (end 6.361 -7.49) (layer F.SilkS) (width 0.12))
  (fp_line (start 6.361 -2.01) (end 6.361 13.01) (layer F.SilkS) (width 0.12))
  (fp_line (start 6.401 -13.006) (end 6.401 -7.49) (layer F.SilkS) (width 0.12))
  (fp_line (start 6.401 -2.01) (end 6.401 13.006) (layer F.SilkS) (width 0.12))
  (fp_line (start 6.441 -13.001) (end 6.441 -7.49) (layer F.SilkS) (width 0.12))
  (fp_line (start 6.441 -2.01) (end 6.441 13.001) (layer F.SilkS) (width 0.12))
  (fp_line (start 6.481 -12.997) (end 6.481 -7.49) (layer F.SilkS) (width 0.12))
  (fp_line (start 6.481 -2.01) (end 6.481 12.997) (layer F.SilkS) (width 0.12))
  (fp_line (start 6.521 -12.992) (end 6.521 -7.49) (layer F.SilkS) (width 0.12))
  (fp_line (start 6.521 -2.01) (end 6.521 12.992) (layer F.SilkS) (width 0.12))
  (fp_line (start 6.561 -12.987) (end 6.561 -7.49) (layer F.SilkS) (width 0.12))
  (fp_line (start 6.561 -2.01) (end 6.561 12.987) (layer F.SilkS) (width 0.12))
  (fp_line (start 6.601 -12.983) (end 6.601 -7.49) (layer F.SilkS) (width 0.12))
  (fp_line (start 6.601 -2.01) (end 6.601 12.983) (layer F.SilkS) (width 0.12))
  (fp_line (start 6.641 -12.978) (end 6.641 -7.49) (layer F.SilkS) (width 0.12))
  (fp_line (start 6.641 -2.01) (end 6.641 12.978) (layer F.SilkS) (width 0.12))
  (fp_line (start 6.681 -12.972) (end 6.681 -7.49) (layer F.SilkS) (width 0.12))
  (fp_line (start 6.681 -2.01) (end 6.681 12.972) (layer F.SilkS) (width 0.12))
  (fp_line (start 6.721 -12.967) (end 6.721 -7.49) (layer F.SilkS) (width 0.12))
  (fp_line (start 6.721 -2.01) (end 6.721 12.967) (layer F.SilkS) (width 0.12))
  (fp_line (start 6.761 -12.962) (end 6.761 -7.49) (layer F.SilkS) (width 0.12))
  (fp_line (start 6.761 -2.01) (end 6.761 12.962) (layer F.SilkS) (width 0.12))
  (fp_line (start 6.801 -12.956) (end 6.801 -7.49) (layer F.SilkS) (width 0.12))
  (fp_line (start 6.801 -2.01) (end 6.801 12.956) (layer F.SilkS) (width 0.12))
  (fp_line (start 6.841 -12.951) (end 6.841 -7.49) (layer F.SilkS) (width 0.12))
  (fp_line (start 6.841 -2.01) (end 6.841 12.951) (layer F.SilkS) (width 0.12))
  (fp_line (start 6.881 -12.945) (end 6.881 -7.49) (layer F.SilkS) (width 0.12))
  (fp_line (start 6.881 -2.01) (end 6.881 12.945) (layer F.SilkS) (width 0.12))
  (fp_line (start 6.921 -12.939) (end 6.921 -7.49) (layer F.SilkS) (width 0.12))
  (fp_line (start 6.921 -2.01) (end 6.921 12.939) (layer F.SilkS) (width 0.12))
  (fp_line (start 6.961 -12.933) (end 6.961 -7.49) (layer F.SilkS) (width 0.12))
  (fp_line (start 6.961 -2.01) (end 6.961 12.933) (layer F.SilkS) (width 0.12))
  (fp_line (start 7.001 -12.927) (end 7.001 -7.49) (layer F.SilkS) (width 0.12))
  (fp_line (start 7.001 -2.01) (end 7.001 12.927) (layer F.SilkS) (width 0.12))
  (fp_line (start 7.041 -12.921) (end 7.041 -7.49) (layer F.SilkS) (width 0.12))
  (fp_line (start 7.041 -2.01) (end 7.041 12.921) (layer F.SilkS) (width 0.12))
  (fp_line (start 7.081 -12.915) (end 7.081 -7.49) (layer F.SilkS) (width 0.12))
  (fp_line (start 7.081 -2.01) (end 7.081 12.915) (layer F.SilkS) (width 0.12))
  (fp_line (start 7.121 -12.908) (end 7.121 -7.49) (layer F.SilkS) (width 0.12))
  (fp_line (start 7.121 -2.01) (end 7.121 12.908) (layer F.SilkS) (width 0.12))
  (fp_line (start 7.161 -12.901) (end 7.161 -7.49) (layer F.SilkS) (width 0.12))
  (fp_line (start 7.161 -2.01) (end 7.161 12.901) (layer F.SilkS) (width 0.12))
  (fp_line (start 7.201 -12.895) (end 7.201 -7.49) (layer F.SilkS) (width 0.12))
  (fp_line (start 7.201 -2.01) (end 7.201 12.895) (layer F.SilkS) (width 0.12))
  (fp_line (start 7.241 -12.888) (end 7.241 -7.49) (layer F.SilkS) (width 0.12))
  (fp_line (start 7.241 -2.01) (end 7.241 12.888) (layer F.SilkS) (width 0.12))
  (fp_line (start 7.281 -12.881) (end 7.281 -7.49) (layer F.SilkS) (width 0.12))
  (fp_line (start 7.281 -2.01) (end 7.281 12.881) (layer F.SilkS) (width 0.12))
  (fp_line (start 7.321 -12.874) (end 7.321 -7.49) (layer F.SilkS) (width 0.12))
  (fp_line (start 7.321 -2.01) (end 7.321 12.874) (layer F.SilkS) (width 0.12))
  (fp_line (start 7.361 -12.866) (end 7.361 -7.49) (layer F.SilkS) (width 0.12))
  (fp_line (start 7.361 -2.01) (end 7.361 12.866) (layer F.SilkS) (width 0.12))
  (fp_line (start 7.401 -12.859) (end 7.401 -7.49) (layer F.SilkS) (width 0.12))
  (fp_line (start 7.401 -2.01) (end 7.401 12.859) (layer F.SilkS) (width 0.12))
  (fp_line (start 7.441 -12.852) (end 7.441 -7.49) (layer F.SilkS) (width 0.12))
  (fp_line (start 7.441 -2.01) (end 7.441 12.852) (layer F.SilkS) (width 0.12))
  (fp_line (start 7.481 -12.844) (end 7.481 -7.49) (layer F.SilkS) (width 0.12))
  (fp_line (start 7.481 -2.01) (end 7.481 12.844) (layer F.SilkS) (width 0.12))
  (fp_line (start 7.521 -12.836) (end 7.521 -7.49) (layer F.SilkS) (width 0.12))
  (fp_line (start 7.521 -2.01) (end 7.521 12.836) (layer F.SilkS) (width 0.12))
  (fp_line (start 7.561 -12.828) (end 7.561 -7.49) (layer F.SilkS) (width 0.12))
  (fp_line (start 7.561 -2.01) (end 7.561 12.828) (layer F.SilkS) (width 0.12))
  (fp_line (start 7.601 -12.82) (end 7.601 -7.49) (layer F.SilkS) (width 0.12))
  (fp_line (start 7.601 -2.01) (end 7.601 12.82) (layer F.SilkS) (width 0.12))
  (fp_line (start 7.641 -12.812) (end 7.641 -7.49) (layer F.SilkS) (width 0.12))
  (fp_line (start 7.641 -2.01) (end 7.641 12.812) (layer F.SilkS) (width 0.12))
  (fp_line (start 7.681 -12.804) (end 7.681 -7.49) (layer F.SilkS) (width 0.12))
  (fp_line (start 7.681 -2.01) (end 7.681 12.804) (layer F.SilkS) (width 0.12))
  (fp_line (start 7.721 -12.795) (end 7.721 -7.49) (layer F.SilkS) (width 0.12))
  (fp_line (start 7.721 -2.01) (end 7.721 12.795) (layer F.SilkS) (width 0.12))
  (fp_line (start 7.761 2.24) (end 7.761 12.787) (layer F.SilkS) (width 0.12))
  (fp_line (start 7.761 -12.787) (end 7.761 -7.49) (layer F.SilkS) (width 0.12))
  (fp_line (start 7.801 2.24) (end 7.801 12.778) (layer F.SilkS) (width 0.12))
  (fp_line (start 7.801 -12.778) (end 7.801 -7.49) (layer F.SilkS) (width 0.12))
  (fp_line (start 7.841 2.24) (end 7.841 12.769) (layer F.SilkS) (width 0.12))
  (fp_line (start 7.841 -12.769) (end 7.841 -7.49) (layer F.SilkS) (width 0.12))
  (fp_line (start 7.881 2.24) (end 7.881 12.761) (layer F.SilkS) (width 0.12))
  (fp_line (start 7.881 -12.761) (end 7.881 -7.49) (layer F.SilkS) (width 0.12))
  (fp_line (start 7.921 2.24) (end 7.921 12.751) (layer F.SilkS) (width 0.12))
  (fp_line (start 7.921 -12.751) (end 7.921 -7.49) (layer F.SilkS) (width 0.12))
  (fp_line (start 7.961 2.24) (end 7.961 12.742) (layer F.SilkS) (width 0.12))
  (fp_line (start 7.961 -12.742) (end 7.961 -7.49) (layer F.SilkS) (width 0.12))
  (fp_line (start 8.001 2.24) (end 8.001 12.733) (layer F.SilkS) (width 0.12))
  (fp_line (start 8.001 -12.733) (end 8.001 -7.49) (layer F.SilkS) (width 0.12))
  (fp_line (start 8.041 2.24) (end 8.041 12.723) (layer F.SilkS) (width 0.12))
  (fp_line (start 8.041 -12.723) (end 8.041 -7.49) (layer F.SilkS) (width 0.12))
  (fp_line (start 8.081 2.24) (end 8.081 12.714) (layer F.SilkS) (width 0.12))
  (fp_line (start 8.081 -12.714) (end 8.081 -7.49) (layer F.SilkS) (width 0.12))
  (fp_line (start 8.121 2.24) (end 8.121 12.704) (layer F.SilkS) (width 0.12))
  (fp_line (start 8.121 -12.704) (end 8.121 -7.49) (layer F.SilkS) (width 0.12))
  (fp_line (start 8.161 2.24) (end 8.161 12.694) (layer F.SilkS) (width 0.12))
  (fp_line (start 8.161 -12.694) (end 8.161 -7.49) (layer F.SilkS) (width 0.12))
  (fp_line (start 8.201 2.24) (end 8.201 12.684) (layer F.SilkS) (width 0.12))
  (fp_line (start 8.201 -12.684) (end 8.201 -7.49) (layer F.SilkS) (width 0.12))
  (fp_line (start 8.241 2.24) (end 8.241 12.674) (layer F.SilkS) (width 0.12))
  (fp_line (start 8.241 -12.674) (end 8.241 -7.49) (layer F.SilkS) (width 0.12))
  (fp_line (start 8.281 2.24) (end 8.281 12.664) (layer F.SilkS) (width 0.12))
  (fp_line (start 8.281 -12.664) (end 8.281 -7.49) (layer F.SilkS) (width 0.12))
  (fp_line (start 8.321 2.24) (end 8.321 12.653) (layer F.SilkS) (width 0.12))
  (fp_line (start 8.321 -12.653) (end 8.321 -7.49) (layer F.SilkS) (width 0.12))
  (fp_line (start 8.361 2.24) (end 8.361 12.643) (layer F.SilkS) (width 0.12))
  (fp_line (start 8.361 -12.643) (end 8.361 -7.49) (layer F.SilkS) (width 0.12))
  (fp_line (start 8.401 2.24) (end 8.401 12.632) (layer F.SilkS) (width 0.12))
  (fp_line (start 8.401 -12.632) (end 8.401 -7.49) (layer F.SilkS) (width 0.12))
  (fp_line (start 8.441 2.24) (end 8.441 12.621) (layer F.SilkS) (width 0.12))
  (fp_line (start 8.441 -12.621) (end 8.441 -7.49) (layer F.SilkS) (width 0.12))
  (fp_line (start 8.481 2.24) (end 8.481 12.611) (layer F.SilkS) (width 0.12))
  (fp_line (start 8.481 -12.611) (end 8.481 -7.49) (layer F.SilkS) (width 0.12))
  (fp_line (start 8.521 2.24) (end 8.521 12.599) (layer F.SilkS) (width 0.12))
  (fp_line (start 8.521 -12.599) (end 8.521 -7.49) (layer F.SilkS) (width 0.12))
  (fp_line (start 8.561 2.24) (end 8.561 12.588) (layer F.SilkS) (width 0.12))
  (fp_line (start 8.561 -12.588) (end 8.561 -7.49) (layer F.SilkS) (width 0.12))
  (fp_line (start 8.601 2.24) (end 8.601 12.577) (layer F.SilkS) (width 0.12))
  (fp_line (start 8.601 -12.577) (end 8.601 -7.49) (layer F.SilkS) (width 0.12))
  (fp_line (start 8.641 2.24) (end 8.641 12.565) (layer F.SilkS) (width 0.12))
  (fp_line (start 8.641 -12.565) (end 8.641 -7.49) (layer F.SilkS) (width 0.12))
  (fp_line (start 8.681 2.24) (end 8.681 12.554) (layer F.SilkS) (width 0.12))
  (fp_line (start 8.681 -12.554) (end 8.681 -7.49) (layer F.SilkS) (width 0.12))
  (fp_line (start 8.721 2.24) (end 8.721 12.542) (layer F.SilkS) (width 0.12))
  (fp_line (start 8.721 -12.542) (end 8.721 -7.49) (layer F.SilkS) (width 0.12))
  (fp_line (start 8.761 2.24) (end 8.761 12.53) (layer F.SilkS) (width 0.12))
  (fp_line (start 8.761 -12.53) (end 8.761 -7.49) (layer F.SilkS) (width 0.12))
  (fp_line (start 8.801 2.24) (end 8.801 12.518) (layer F.SilkS) (width 0.12))
  (fp_line (start 8.801 -12.518) (end 8.801 -7.49) (layer F.SilkS) (width 0.12))
  (fp_line (start 8.841 2.24) (end 8.841 12.506) (layer F.SilkS) (width 0.12))
  (fp_line (start 8.841 -12.506) (end 8.841 -7.49) (layer F.SilkS) (width 0.12))
  (fp_line (start 8.881 2.24) (end 8.881 12.494) (layer F.SilkS) (width 0.12))
  (fp_line (start 8.881 -12.494) (end 8.881 -7.49) (layer F.SilkS) (width 0.12))
  (fp_line (start 8.921 2.24) (end 8.921 12.481) (layer F.SilkS) (width 0.12))
  (fp_line (start 8.921 -12.481) (end 8.921 -7.49) (layer F.SilkS) (width 0.12))
  (fp_line (start 8.961 2.24) (end 8.961 12.469) (layer F.SilkS) (width 0.12))
  (fp_line (start 8.961 -12.469) (end 8.961 -7.49) (layer F.SilkS) (width 0.12))
  (fp_line (start 9.001 2.24) (end 9.001 12.456) (layer F.SilkS) (width 0.12))
  (fp_line (start 9.001 -12.456) (end 9.001 -7.49) (layer F.SilkS) (width 0.12))
  (fp_line (start 9.041 2.24) (end 9.041 12.443) (layer F.SilkS) (width 0.12))
  (fp_line (start 9.041 -12.443) (end 9.041 -7.49) (layer F.SilkS) (width 0.12))
  (fp_line (start 9.081 2.24) (end 9.081 12.43) (layer F.SilkS) (width 0.12))
  (fp_line (start 9.081 -12.43) (end 9.081 -7.49) (layer F.SilkS) (width 0.12))
  (fp_line (start 9.121 2.24) (end 9.121 12.417) (layer F.SilkS) (width 0.12))
  (fp_line (start 9.121 -12.417) (end 9.121 -7.49) (layer F.SilkS) (width 0.12))
  (fp_line (start 9.161 2.24) (end 9.161 12.404) (layer F.SilkS) (width 0.12))
  (fp_line (start 9.161 -12.404) (end 9.161 -7.49) (layer F.SilkS) (width 0.12))
  (fp_line (start 9.201 2.24) (end 9.201 12.39) (layer F.SilkS) (width 0.12))
  (fp_line (start 9.201 -12.39) (end 9.201 -7.49) (layer F.SilkS) (width 0.12))
  (fp_line (start 9.241 2.24) (end 9.241 12.376) (layer F.SilkS) (width 0.12))
  (fp_line (start 9.241 -12.376) (end 9.241 -7.49) (layer F.SilkS) (width 0.12))
  (fp_line (start 9.281 2.24) (end 9.281 12.363) (layer F.SilkS) (width 0.12))
  (fp_line (start 9.281 -12.363) (end 9.281 -7.49) (layer F.SilkS) (width 0.12))
  (fp_line (start 9.321 2.24) (end 9.321 12.349) (layer F.SilkS) (width 0.12))
  (fp_line (start 9.321 -12.349) (end 9.321 -7.49) (layer F.SilkS) (width 0.12))
  (fp_line (start 9.361 2.24) (end 9.361 12.335) (layer F.SilkS) (width 0.12))
  (fp_line (start 9.361 -12.335) (end 9.361 -7.49) (layer F.SilkS) (width 0.12))
  (fp_line (start 9.401 2.24) (end 9.401 12.321) (layer F.SilkS) (width 0.12))
  (fp_line (start 9.401 -12.321) (end 9.401 -7.49) (layer F.SilkS) (width 0.12))
  (fp_line (start 9.441 -12.306) (end 9.441 -2.24) (layer F.SilkS) (width 0.12))
  (fp_line (start 9.441 2.24) (end 9.441 12.306) (layer F.SilkS) (width 0.12))
  (fp_line (start 9.481 -12.292) (end 9.481 -2.24) (layer F.SilkS) (width 0.12))
  (fp_line (start 9.481 2.24) (end 9.481 12.292) (layer F.SilkS) (width 0.12))
  (fp_line (start 9.521 -12.277) (end 9.521 -2.24) (layer F.SilkS) (width 0.12))
  (fp_line (start 9.521 2.24) (end 9.521 12.277) (layer F.SilkS) (width 0.12))
  (fp_line (start 9.561 -12.263) (end 9.561 -2.24) (layer F.SilkS) (width 0.12))
  (fp_line (start 9.561 2.24) (end 9.561 12.263) (layer F.SilkS) (width 0.12))
  (fp_line (start 9.601 -12.248) (end 9.601 -2.24) (layer F.SilkS) (width 0.12))
  (fp_line (start 9.601 2.24) (end 9.601 12.248) (layer F.SilkS) (width 0.12))
  (fp_line (start 9.641 -12.233) (end 9.641 -2.24) (layer F.SilkS) (width 0.12))
  (fp_line (start 9.641 2.24) (end 9.641 12.233) (layer F.SilkS) (width 0.12))
  (fp_line (start 9.681 -12.217) (end 9.681 -2.24) (layer F.SilkS) (width 0.12))
  (fp_line (start 9.681 2.24) (end 9.681 12.217) (layer F.SilkS) (width 0.12))
  (fp_line (start 9.721 -12.202) (end 9.721 -2.24) (layer F.SilkS) (width 0.12))
  (fp_line (start 9.721 2.24) (end 9.721 12.202) (layer F.SilkS) (width 0.12))
  (fp_line (start 9.761 -12.187) (end 9.761 -2.24) (layer F.SilkS) (width 0.12))
  (fp_line (start 9.761 2.24) (end 9.761 12.187) (layer F.SilkS) (width 0.12))
  (fp_line (start 9.801 -12.171) (end 9.801 -2.24) (layer F.SilkS) (width 0.12))
  (fp_line (start 9.801 2.24) (end 9.801 12.171) (layer F.SilkS) (width 0.12))
  (fp_line (start 9.841 -12.155) (end 9.841 -2.24) (layer F.SilkS) (width 0.12))
  (fp_line (start 9.841 2.24) (end 9.841 12.155) (layer F.SilkS) (width 0.12))
  (fp_line (start 9.881 -12.139) (end 9.881 -2.24) (layer F.SilkS) (width 0.12))
  (fp_line (start 9.881 2.24) (end 9.881 12.139) (layer F.SilkS) (width 0.12))
  (fp_line (start 9.921 -12.123) (end 9.921 -2.24) (layer F.SilkS) (width 0.12))
  (fp_line (start 9.921 2.24) (end 9.921 12.123) (layer F.SilkS) (width 0.12))
  (fp_line (start 9.961 -12.107) (end 9.961 -2.24) (layer F.SilkS) (width 0.12))
  (fp_line (start 9.961 2.24) (end 9.961 12.107) (layer F.SilkS) (width 0.12))
  (fp_line (start 10.001 -12.09) (end 10.001 -2.24) (layer F.SilkS) (width 0.12))
  (fp_line (start 10.001 2.24) (end 10.001 12.09) (layer F.SilkS) (width 0.12))
  (fp_line (start 10.041 -12.074) (end 10.041 -2.24) (layer F.SilkS) (width 0.12))
  (fp_line (start 10.041 2.24) (end 10.041 12.074) (layer F.SilkS) (width 0.12))
  (fp_line (start 10.081 -12.057) (end 10.081 -2.24) (layer F.SilkS) (width 0.12))
  (fp_line (start 10.081 2.24) (end 10.081 12.057) (layer F.SilkS) (width 0.12))
  (fp_line (start 10.121 -12.04) (end 10.121 -2.24) (layer F.SilkS) (width 0.12))
  (fp_line (start 10.121 2.24) (end 10.121 12.04) (layer F.SilkS) (width 0.12))
  (fp_line (start 10.161 -12.023) (end 10.161 -2.24) (layer F.SilkS) (width 0.12))
  (fp_line (start 10.161 2.24) (end 10.161 12.023) (layer F.SilkS) (width 0.12))
  (fp_line (start 10.201 -12.006) (end 10.201 -2.24) (layer F.SilkS) (width 0.12))
  (fp_line (start 10.201 2.24) (end 10.201 12.006) (layer F.SilkS) (width 0.12))
  (fp_line (start 10.241 -11.989) (end 10.241 -2.24) (layer F.SilkS) (width 0.12))
  (fp_line (start 10.241 2.24) (end 10.241 11.989) (layer F.SilkS) (width 0.12))
  (fp_line (start 10.281 -11.971) (end 10.281 -2.24) (layer F.SilkS) (width 0.12))
  (fp_line (start 10.281 2.24) (end 10.281 11.971) (layer F.SilkS) (width 0.12))
  (fp_line (start 10.321 -11.953) (end 10.321 -2.24) (layer F.SilkS) (width 0.12))
  (fp_line (start 10.321 2.24) (end 10.321 11.953) (layer F.SilkS) (width 0.12))
  (fp_line (start 10.361 -11.936) (end 10.361 -2.24) (layer F.SilkS) (width 0.12))
  (fp_line (start 10.361 2.24) (end 10.361 11.936) (layer F.SilkS) (width 0.12))
  (fp_line (start 10.401 -11.918) (end 10.401 -2.24) (layer F.SilkS) (width 0.12))
  (fp_line (start 10.401 2.24) (end 10.401 11.918) (layer F.SilkS) (width 0.12))
  (fp_line (start 10.441 -11.9) (end 10.441 -2.24) (layer F.SilkS) (width 0.12))
  (fp_line (start 10.441 2.24) (end 10.441 11.9) (layer F.SilkS) (width 0.12))
  (fp_line (start 10.481 -11.881) (end 10.481 -2.24) (layer F.SilkS) (width 0.12))
  (fp_line (start 10.481 2.24) (end 10.481 11.881) (layer F.SilkS) (width 0.12))
  (fp_line (start 10.521 -11.863) (end 10.521 -2.24) (layer F.SilkS) (width 0.12))
  (fp_line (start 10.521 2.24) (end 10.521 11.863) (layer F.SilkS) (width 0.12))
  (fp_line (start 10.561 -11.844) (end 10.561 -2.24) (layer F.SilkS) (width 0.12))
  (fp_line (start 10.561 2.24) (end 10.561 11.844) (layer F.SilkS) (width 0.12))
  (fp_line (start 10.601 -11.825) (end 10.601 -2.24) (layer F.SilkS) (width 0.12))
  (fp_line (start 10.601 2.24) (end 10.601 11.825) (layer F.SilkS) (width 0.12))
  (fp_line (start 10.641 -11.806) (end 10.641 -2.24) (layer F.SilkS) (width 0.12))
  (fp_line (start 10.641 2.24) (end 10.641 11.806) (layer F.SilkS) (width 0.12))
  (fp_line (start 10.681 -11.787) (end 10.681 -2.24) (layer F.SilkS) (width 0.12))
  (fp_line (start 10.681 2.24) (end 10.681 11.787) (layer F.SilkS) (width 0.12))
  (fp_line (start 10.721 -11.768) (end 10.721 -2.24) (layer F.SilkS) (width 0.12))
  (fp_line (start 10.721 2.24) (end 10.721 11.768) (layer F.SilkS) (width 0.12))
  (fp_line (start 10.761 -11.748) (end 10.761 -2.24) (layer F.SilkS) (width 0.12))
  (fp_line (start 10.761 2.24) (end 10.761 11.748) (layer F.SilkS) (width 0.12))
  (fp_line (start 10.801 -11.729) (end 10.801 -2.24) (layer F.SilkS) (width 0.12))
  (fp_line (start 10.801 2.24) (end 10.801 11.729) (layer F.SilkS) (width 0.12))
  (fp_line (start 10.841 -11.709) (end 10.841 -2.24) (layer F.SilkS) (width 0.12))
  (fp_line (start 10.841 2.24) (end 10.841 11.709) (layer F.SilkS) (width 0.12))
  (fp_line (start 10.881 -11.689) (end 10.881 -2.24) (layer F.SilkS) (width 0.12))
  (fp_line (start 10.881 2.24) (end 10.881 11.689) (layer F.SilkS) (width 0.12))
  (fp_line (start 10.921 -11.669) (end 10.921 -2.24) (layer F.SilkS) (width 0.12))
  (fp_line (start 10.921 2.24) (end 10.921 11.669) (layer F.SilkS) (width 0.12))
  (fp_line (start 10.961 -11.649) (end 10.961 -2.24) (layer F.SilkS) (width 0.12))
  (fp_line (start 10.961 2.24) (end 10.961 11.649) (layer F.SilkS) (width 0.12))
  (fp_line (start 11.001 -11.628) (end 11.001 -2.24) (layer F.SilkS) (width 0.12))
  (fp_line (start 11.001 2.24) (end 11.001 11.628) (layer F.SilkS) (width 0.12))
  (fp_line (start 11.041 -11.608) (end 11.041 -2.24) (layer F.SilkS) (width 0.12))
  (fp_line (start 11.041 2.24) (end 11.041 11.608) (layer F.SilkS) (width 0.12))
  (fp_line (start 11.081 -11.587) (end 11.081 -2.24) (layer F.SilkS) (width 0.12))
  (fp_line (start 11.081 2.24) (end 11.081 11.587) (layer F.SilkS) (width 0.12))
  (fp_line (start 11.121 -11.566) (end 11.121 -2.24) (layer F.SilkS) (width 0.12))
  (fp_line (start 11.121 2.24) (end 11.121 11.566) (layer F.SilkS) (width 0.12))
  (fp_line (start 11.161 -11.544) (end 11.161 -2.24) (layer F.SilkS) (width 0.12))
  (fp_line (start 11.161 2.24) (end 11.161 11.544) (layer F.SilkS) (width 0.12))
  (fp_line (start 11.201 -11.523) (end 11.201 -2.24) (layer F.SilkS) (width 0.12))
  (fp_line (start 11.201 2.24) (end 11.201 11.523) (layer F.SilkS) (width 0.12))
  (fp_line (start 11.241 -11.502) (end 11.241 -2.24) (layer F.SilkS) (width 0.12))
  (fp_line (start 11.241 2.24) (end 11.241 11.502) (layer F.SilkS) (width 0.12))
  (fp_line (start 11.281 -11.48) (end 11.281 -2.24) (layer F.SilkS) (width 0.12))
  (fp_line (start 11.281 2.24) (end 11.281 11.48) (layer F.SilkS) (width 0.12))
  (fp_line (start 11.321 -11.458) (end 11.321 -2.24) (layer F.SilkS) (width 0.12))
  (fp_line (start 11.321 2.24) (end 11.321 11.458) (layer F.SilkS) (width 0.12))
  (fp_line (start 11.361 -11.436) (end 11.361 -2.24) (layer F.SilkS) (width 0.12))
  (fp_line (start 11.361 2.24) (end 11.361 11.436) (layer F.SilkS) (width 0.12))
  (fp_line (start 11.401 -11.414) (end 11.401 -2.24) (layer F.SilkS) (width 0.12))
  (fp_line (start 11.401 2.24) (end 11.401 11.414) (layer F.SilkS) (width 0.12))
  (fp_line (start 11.441 -11.391) (end 11.441 -2.24) (layer F.SilkS) (width 0.12))
  (fp_line (start 11.441 2.24) (end 11.441 11.391) (layer F.SilkS) (width 0.12))
  (fp_line (start 11.481 -11.369) (end 11.481 -2.24) (layer F.SilkS) (width 0.12))
  (fp_line (start 11.481 2.24) (end 11.481 11.369) (layer F.SilkS) (width 0.12))
  (fp_line (start 11.521 -11.346) (end 11.521 -2.24) (layer F.SilkS) (width 0.12))
  (fp_line (start 11.521 2.24) (end 11.521 11.346) (layer F.SilkS) (width 0.12))
  (fp_line (start 11.561 -11.323) (end 11.561 -2.24) (layer F.SilkS) (width 0.12))
  (fp_line (start 11.561 2.24) (end 11.561 11.323) (layer F.SilkS) (width 0.12))
  (fp_line (start 11.601 -11.3) (end 11.601 -2.24) (layer F.SilkS) (width 0.12))
  (fp_line (start 11.601 2.24) (end 11.601 11.3) (layer F.SilkS) (width 0.12))
  (fp_line (start 11.641 -11.276) (end 11.641 -2.24) (layer F.SilkS) (width 0.12))
  (fp_line (start 11.641 2.24) (end 11.641 11.276) (layer F.SilkS) (width 0.12))
  (fp_line (start 11.681 -11.253) (end 11.681 -2.24) (layer F.SilkS) (width 0.12))
  (fp_line (start 11.681 2.24) (end 11.681 11.253) (layer F.SilkS) (width 0.12))
  (fp_line (start 11.721 -11.229) (end 11.721 -2.24) (layer F.SilkS) (width 0.12))
  (fp_line (start 11.721 2.24) (end 11.721 11.229) (layer F.SilkS) (width 0.12))
  (fp_line (start 11.761 -11.205) (end 11.761 -2.24) (layer F.SilkS) (width 0.12))
  (fp_line (start 11.761 2.24) (end 11.761 11.205) (layer F.SilkS) (width 0.12))
  (fp_line (start 11.801 -11.181) (end 11.801 -2.24) (layer F.SilkS) (width 0.12))
  (fp_line (start 11.801 2.24) (end 11.801 11.181) (layer F.SilkS) (width 0.12))
  (fp_line (start 11.841 -11.156) (end 11.841 -2.24) (layer F.SilkS) (width 0.12))
  (fp_line (start 11.841 2.24) (end 11.841 11.156) (layer F.SilkS) (width 0.12))
  (fp_line (start 11.881 -11.132) (end 11.881 -2.24) (layer F.SilkS) (width 0.12))
  (fp_line (start 11.881 2.24) (end 11.881 11.132) (layer F.SilkS) (width 0.12))
  (fp_line (start 11.921 -11.107) (end 11.921 -2.24) (layer F.SilkS) (width 0.12))
  (fp_line (start 11.921 2.24) (end 11.921 11.107) (layer F.SilkS) (width 0.12))
  (fp_line (start 11.961 -11.082) (end 11.961 -2.24) (layer F.SilkS) (width 0.12))
  (fp_line (start 11.961 2.24) (end 11.961 11.082) (layer F.SilkS) (width 0.12))
  (fp_line (start 12.001 -11.057) (end 12.001 -2.24) (layer F.SilkS) (width 0.12))
  (fp_line (start 12.001 2.24) (end 12.001 11.057) (layer F.SilkS) (width 0.12))
  (fp_line (start 12.041 -11.032) (end 12.041 -2.24) (layer F.SilkS) (width 0.12))
  (fp_line (start 12.041 2.24) (end 12.041 11.032) (layer F.SilkS) (width 0.12))
  (fp_line (start 12.081 -11.006) (end 12.081 -2.24) (layer F.SilkS) (width 0.12))
  (fp_line (start 12.081 2.24) (end 12.081 11.006) (layer F.SilkS) (width 0.12))
  (fp_line (start 12.121 -10.98) (end 12.121 -2.24) (layer F.SilkS) (width 0.12))
  (fp_line (start 12.121 2.24) (end 12.121 10.98) (layer F.SilkS) (width 0.12))
  (fp_line (start 12.161 -10.955) (end 12.161 -2.24) (layer F.SilkS) (width 0.12))
  (fp_line (start 12.161 2.24) (end 12.161 10.955) (layer F.SilkS) (width 0.12))
  (fp_line (start 12.201 -10.928) (end 12.201 -2.24) (layer F.SilkS) (width 0.12))
  (fp_line (start 12.201 2.24) (end 12.201 10.928) (layer F.SilkS) (width 0.12))
  (fp_line (start 12.241 -10.902) (end 12.241 10.902) (layer F.SilkS) (width 0.12))
  (fp_line (start 12.281 -10.875) (end 12.281 10.875) (layer F.SilkS) (width 0.12))
  (fp_line (start 12.321 -10.849) (end 12.321 10.849) (layer F.SilkS) (width 0.12))
  (fp_line (start 12.361 -10.822) (end 12.361 10.822) (layer F.SilkS) (width 0.12))
  (fp_line (start 12.401 -10.794) (end 12.401 10.794) (layer F.SilkS) (width 0.12))
  (fp_line (start 12.441 -10.767) (end 12.441 10.767) (layer F.SilkS) (width 0.12))
  (fp_line (start 12.481 -10.739) (end 12.481 10.739) (layer F.SilkS) (width 0.12))
  (fp_line (start 12.521 -10.711) (end 12.521 10.711) (layer F.SilkS) (width 0.12))
  (fp_line (start 12.561 -10.683) (end 12.561 10.683) (layer F.SilkS) (width 0.12))
  (fp_line (start 12.601 -10.655) (end 12.601 10.655) (layer F.SilkS) (width 0.12))
  (fp_line (start 12.641 -10.627) (end 12.641 10.627) (layer F.SilkS) (width 0.12))
  (fp_line (start 12.681 -10.598) (end 12.681 10.598) (layer F.SilkS) (width 0.12))
  (fp_line (start 12.721 -10.569) (end 12.721 10.569) (layer F.SilkS) (width 0.12))
  (fp_line (start 12.761 -10.54) (end 12.761 10.54) (layer F.SilkS) (width 0.12))
  (fp_line (start 12.801 -10.51) (end 12.801 10.51) (layer F.SilkS) (width 0.12))
  (fp_line (start 12.841 -10.48) (end 12.841 10.48) (layer F.SilkS) (width 0.12))
  (fp_line (start 12.881 -10.45) (end 12.881 10.45) (layer F.SilkS) (width 0.12))
  (fp_line (start 12.921 -10.42) (end 12.921 10.42) (layer F.SilkS) (width 0.12))
  (fp_line (start 12.961 -10.39) (end 12.961 10.39) (layer F.SilkS) (width 0.12))
  (fp_line (start 13.001 -10.359) (end 13.001 10.359) (layer F.SilkS) (width 0.12))
  (fp_line (start 13.041 -10.328) (end 13.041 10.328) (layer F.SilkS) (width 0.12))
  (fp_line (start 13.081 -10.297) (end 13.081 10.297) (layer F.SilkS) (width 0.12))
  (fp_line (start 13.121 -10.266) (end 13.121 10.266) (layer F.SilkS) (width 0.12))
  (fp_line (start 13.161 -10.234) (end 13.161 10.234) (layer F.SilkS) (width 0.12))
  (fp_line (start 13.2 -10.202) (end 13.2 10.202) (layer F.SilkS) (width 0.12))
  (fp_line (start 13.24 -10.17) (end 13.24 10.17) (layer F.SilkS) (width 0.12))
  (fp_line (start 13.28 -10.138) (end 13.28 10.138) (layer F.SilkS) (width 0.12))
  (fp_line (start 13.32 -10.105) (end 13.32 10.105) (layer F.SilkS) (width 0.12))
  (fp_line (start 13.36 -10.072) (end 13.36 10.072) (layer F.SilkS) (width 0.12))
  (fp_line (start 13.4 -10.039) (end 13.4 10.039) (layer F.SilkS) (width 0.12))
  (fp_line (start 13.44 -10.005) (end 13.44 10.005) (layer F.SilkS) (width 0.12))
  (fp_line (start 13.48 -9.972) (end 13.48 9.972) (layer F.SilkS) (width 0.12))
  (fp_line (start 13.52 -9.938) (end 13.52 9.938) (layer F.SilkS) (width 0.12))
  (fp_line (start 13.56 -9.903) (end 13.56 9.903) (layer F.SilkS) (width 0.12))
  (fp_line (start 13.6 -9.869) (end 13.6 9.869) (layer F.SilkS) (width 0.12))
  (fp_line (start 13.64 -9.834) (end 13.64 9.834) (layer F.SilkS) (width 0.12))
  (fp_line (start 13.68 -9.799) (end 13.68 9.799) (layer F.SilkS) (width 0.12))
  (fp_line (start 13.72 -9.763) (end 13.72 9.763) (layer F.SilkS) (width 0.12))
  (fp_line (start 13.76 -9.728) (end 13.76 9.728) (layer F.SilkS) (width 0.12))
  (fp_line (start 13.8 -9.692) (end 13.8 9.692) (layer F.SilkS) (width 0.12))
  (fp_line (start 13.84 -9.655) (end 13.84 9.655) (layer F.SilkS) (width 0.12))
  (fp_line (start 13.88 -9.619) (end 13.88 9.619) (layer F.SilkS) (width 0.12))
  (fp_line (start 13.92 -9.582) (end 13.92 9.582) (layer F.SilkS) (width 0.12))
  (fp_line (start 13.96 -9.544) (end 13.96 9.544) (layer F.SilkS) (width 0.12))
  (fp_line (start 14 -9.507) (end 14 9.507) (layer F.SilkS) (width 0.12))
  (fp_line (start 14.04 -9.469) (end 14.04 9.469) (layer F.SilkS) (width 0.12))
  (fp_line (start 14.08 -9.431) (end 14.08 9.431) (layer F.SilkS) (width 0.12))
  (fp_line (start 14.12 -9.392) (end 14.12 9.392) (layer F.SilkS) (width 0.12))
  (fp_line (start 14.16 -9.354) (end 14.16 9.354) (layer F.SilkS) (width 0.12))
  (fp_line (start 14.2 -9.314) (end 14.2 9.314) (layer F.SilkS) (width 0.12))
  (fp_line (start 14.24 -9.275) (end 14.24 9.275) (layer F.SilkS) (width 0.12))
  (fp_line (start 14.28 -9.235) (end 14.28 9.235) (layer F.SilkS) (width 0.12))
  (fp_line (start 14.32 -9.195) (end 14.32 9.195) (layer F.SilkS) (width 0.12))
  (fp_line (start 14.36 -9.154) (end 14.36 9.154) (layer F.SilkS) (width 0.12))
  (fp_line (start 14.4 -9.113) (end 14.4 9.113) (layer F.SilkS) (width 0.12))
  (fp_line (start 14.44 -9.072) (end 14.44 9.072) (layer F.SilkS) (width 0.12))
  (fp_line (start 14.48 -9.03) (end 14.48 9.03) (layer F.SilkS) (width 0.12))
  (fp_line (start 14.52 -8.988) (end 14.52 8.988) (layer F.SilkS) (width 0.12))
  (fp_line (start 14.56 -8.946) (end 14.56 8.946) (layer F.SilkS) (width 0.12))
  (fp_line (start 14.6 -8.903) (end 14.6 8.903) (layer F.SilkS) (width 0.12))
  (fp_line (start 14.64 -8.86) (end 14.64 8.86) (layer F.SilkS) (width 0.12))
  (fp_line (start 14.68 -8.817) (end 14.68 8.817) (layer F.SilkS) (width 0.12))
  (fp_line (start 14.72 -8.773) (end 14.72 8.773) (layer F.SilkS) (width 0.12))
  (fp_line (start 14.76 -8.728) (end 14.76 8.728) (layer F.SilkS) (width 0.12))
  (fp_line (start 14.8 -8.684) (end 14.8 8.684) (layer F.SilkS) (width 0.12))
  (fp_line (start 14.84 -8.639) (end 14.84 8.639) (layer F.SilkS) (width 0.12))
  (fp_line (start 14.88 -8.593) (end 14.88 8.593) (layer F.SilkS) (width 0.12))
  (fp_line (start 14.92 -8.547) (end 14.92 8.547) (layer F.SilkS) (width 0.12))
  (fp_line (start 14.96 -8.501) (end 14.96 8.501) (layer F.SilkS) (width 0.12))
  (fp_line (start 15 -8.454) (end 15 8.454) (layer F.SilkS) (width 0.12))
  (fp_line (start 15.04 -8.406) (end 15.04 8.406) (layer F.SilkS) (width 0.12))
  (fp_line (start 15.08 -8.359) (end 15.08 8.359) (layer F.SilkS) (width 0.12))
  (fp_line (start 15.12 -8.31) (end 15.12 8.31) (layer F.SilkS) (width 0.12))
  (fp_line (start 15.16 -8.262) (end 15.16 8.262) (layer F.SilkS) (width 0.12))
  (fp_line (start 15.2 -8.212) (end 15.2 8.212) (layer F.SilkS) (width 0.12))
  (fp_line (start 15.24 -8.163) (end 15.24 8.163) (layer F.SilkS) (width 0.12))
  (fp_line (start 15.28 -8.113) (end 15.28 8.113) (layer F.SilkS) (width 0.12))
  (fp_line (start 15.32 -8.062) (end 15.32 8.062) (layer F.SilkS) (width 0.12))
  (fp_line (start 15.36 -8.011) (end 15.36 8.011) (layer F.SilkS) (width 0.12))
  (fp_line (start 15.4 -7.959) (end 15.4 7.959) (layer F.SilkS) (width 0.12))
  (fp_line (start 15.44 -7.907) (end 15.44 7.907) (layer F.SilkS) (width 0.12))
  (fp_line (start 15.48 -7.854) (end 15.48 7.854) (layer F.SilkS) (width 0.12))
  (fp_line (start 15.52 -7.8) (end 15.52 7.8) (layer F.SilkS) (width 0.12))
  (fp_line (start 15.56 -7.746) (end 15.56 7.746) (layer F.SilkS) (width 0.12))
  (fp_line (start 15.6 -7.692) (end 15.6 7.692) (layer F.SilkS) (width 0.12))
  (fp_line (start 15.64 -7.637) (end 15.64 7.637) (layer F.SilkS) (width 0.12))
  (fp_line (start 15.68 -7.581) (end 15.68 7.581) (layer F.SilkS) (width 0.12))
  (fp_line (start 15.72 -7.525) (end 15.72 7.525) (layer F.SilkS) (width 0.12))
  (fp_line (start 15.76 -7.468) (end 15.76 7.468) (layer F.SilkS) (width 0.12))
  (fp_line (start 15.8 -7.41) (end 15.8 7.41) (layer F.SilkS) (width 0.12))
  (fp_line (start 15.84 -7.352) (end 15.84 7.352) (layer F.SilkS) (width 0.12))
  (fp_line (start 15.88 -7.293) (end 15.88 7.293) (layer F.SilkS) (width 0.12))
  (fp_line (start 15.92 -7.233) (end 15.92 7.233) (layer F.SilkS) (width 0.12))
  (fp_line (start 15.96 -7.172) (end 15.96 7.172) (layer F.SilkS) (width 0.12))
  (fp_line (start 16 -7.111) (end 16 7.111) (layer F.SilkS) (width 0.12))
  (fp_line (start 16.04 -7.049) (end 16.04 7.049) (layer F.SilkS) (width 0.12))
  (fp_line (start 16.08 -6.987) (end 16.08 6.987) (layer F.SilkS) (width 0.12))
  (fp_line (start 16.12 -6.923) (end 16.12 6.923) (layer F.SilkS) (width 0.12))
  (fp_line (start 16.16 -6.859) (end 16.16 6.859) (layer F.SilkS) (width 0.12))
  (fp_line (start 16.2 -6.794) (end 16.2 6.794) (layer F.SilkS) (width 0.12))
  (fp_line (start 16.24 -6.728) (end 16.24 6.728) (layer F.SilkS) (width 0.12))
  (fp_line (start 16.28 -6.661) (end 16.28 6.661) (layer F.SilkS) (width 0.12))
  (fp_line (start 16.32 -6.593) (end 16.32 6.593) (layer F.SilkS) (width 0.12))
  (fp_line (start 16.36 -6.524) (end 16.36 6.524) (layer F.SilkS) (width 0.12))
  (fp_line (start 16.4 -6.455) (end 16.4 6.455) (layer F.SilkS) (width 0.12))
  (fp_line (start 16.44 -6.384) (end 16.44 6.384) (layer F.SilkS) (width 0.12))
  (fp_line (start 16.48 -6.312) (end 16.48 6.312) (layer F.SilkS) (width 0.12))
  (fp_line (start 16.52 -6.239) (end 16.52 6.239) (layer F.SilkS) (width 0.12))
  (fp_line (start 16.56 -6.165) (end 16.56 6.165) (layer F.SilkS) (width 0.12))
  (fp_line (start 16.6 -6.09) (end 16.6 6.09) (layer F.SilkS) (width 0.12))
  (fp_line (start 16.64 -6.014) (end 16.64 6.014) (layer F.SilkS) (width 0.12))
  (fp_line (start 16.68 -5.936) (end 16.68 5.936) (layer F.SilkS) (width 0.12))
  (fp_line (start 16.72 -5.858) (end 16.72 5.858) (layer F.SilkS) (width 0.12))
  (fp_line (start 16.76 -5.777) (end 16.76 5.777) (layer F.SilkS) (width 0.12))
  (fp_line (start 16.8 -5.696) (end 16.8 5.696) (layer F.SilkS) (width 0.12))
  (fp_line (start 16.84 -5.613) (end 16.84 5.613) (layer F.SilkS) (width 0.12))
  (fp_line (start 16.88 -5.528) (end 16.88 5.528) (layer F.SilkS) (width 0.12))
  (fp_line (start 16.92 -5.442) (end 16.92 5.442) (layer F.SilkS) (width 0.12))
  (fp_line (start 16.96 -5.354) (end 16.96 5.354) (layer F.SilkS) (width 0.12))
  (fp_line (start 17 -5.265) (end 17 5.265) (layer F.SilkS) (width 0.12))
  (fp_line (start 17.04 -5.173) (end 17.04 5.173) (layer F.SilkS) (width 0.12))
  (fp_line (start 17.08 -5.08) (end 17.08 5.08) (layer F.SilkS) (width 0.12))
  (fp_line (start 17.12 -4.984) (end 17.12 4.984) (layer F.SilkS) (width 0.12))
  (fp_line (start 17.16 -4.887) (end 17.16 4.887) (layer F.SilkS) (width 0.12))
  (fp_line (start 17.2 -4.787) (end 17.2 4.787) (layer F.SilkS) (width 0.12))
  (fp_line (start 17.24 -4.685) (end 17.24 4.685) (layer F.SilkS) (width 0.12))
  (fp_line (start 17.28 -4.58) (end 17.28 4.58) (layer F.SilkS) (width 0.12))
  (fp_line (start 17.32 -4.472) (end 17.32 4.472) (layer F.SilkS) (width 0.12))
  (fp_line (start 17.36 -4.361) (end 17.36 4.361) (layer F.SilkS) (width 0.12))
  (fp_line (start 17.4 -4.247) (end 17.4 4.247) (layer F.SilkS) (width 0.12))
  (fp_line (start 17.44 -4.13) (end 17.44 4.13) (layer F.SilkS) (width 0.12))
  (fp_line (start 17.48 -4.008) (end 17.48 4.008) (layer F.SilkS) (width 0.12))
  (fp_line (start 17.52 -3.883) (end 17.52 3.883) (layer F.SilkS) (width 0.12))
  (fp_line (start 17.56 -3.753) (end 17.56 3.753) (layer F.SilkS) (width 0.12))
  (fp_line (start 17.6 -3.618) (end 17.6 3.618) (layer F.SilkS) (width 0.12))
  (fp_line (start 17.64 -3.477) (end 17.64 3.477) (layer F.SilkS) (width 0.12))
  (fp_line (start 17.68 -3.33) (end 17.68 3.33) (layer F.SilkS) (width 0.12))
  (fp_line (start 17.72 -3.175) (end 17.72 3.175) (layer F.SilkS) (width 0.12))
  (fp_line (start 17.76 -3.013) (end 17.76 3.013) (layer F.SilkS) (width 0.12))
  (fp_line (start 17.8 -2.841) (end 17.8 2.841) (layer F.SilkS) (width 0.12))
  (fp_line (start 17.84 -2.657) (end 17.84 2.657) (layer F.SilkS) (width 0.12))
  (fp_line (start 17.88 -2.458) (end 17.88 2.458) (layer F.SilkS) (width 0.12))
  (fp_line (start 17.92 -2.243) (end 17.92 2.243) (layer F.SilkS) (width 0.12))
  (fp_line (start 17.96 -2.003) (end 17.96 2.003) (layer F.SilkS) (width 0.12))
  (fp_line (start 18 -1.731) (end 18 1.731) (layer F.SilkS) (width 0.12))
  (fp_line (start 18.04 -1.407) (end 18.04 1.407) (layer F.SilkS) (width 0.12))
  (fp_line (start 18.08 -0.984) (end 18.08 0.984) (layer F.SilkS) (width 0.12))
  (fp_line (start 18.12 -0.04) (end 18.12 0.04) (layer F.SilkS) (width 0.12))
  (fp_line (start -9.039234 -7.355) (end -6.439234 -7.355) (layer F.SilkS) (width 0.12))
  (fp_line (start -7.739234 -8.655) (end -7.739234 -6.055) (layer F.SilkS) (width 0.12))
  (pad 2 thru_hole circle (at 6.7 -4.75) (size 5 5) (drill 2.5) (layers *.Cu *.Mask))
  (pad 2 thru_hole circle (at 10 0) (size 4 4) (drill 2) (layers *.Cu *.Mask))
  (pad 1 thru_hole rect (at 0 0) (size 4 4) (drill 2) (layers *.Cu *.Mask))
  (model ${KISYS3DMOD}/Capacitor_THT.3dshapes/CP_Radial_D26.0mm_P10.00mm_3pin_SnapIn.wrl
    (at (xyz 0 0 0))
    (scale (xyz 1 1 1))
    (rotate (xyz 0 0 0))
  )
)
