(module CP_Radial_Tantal_D10.5mm_P5.00mm (layer F.Cu) (tedit 60782D94)
  (descr "CP, Radial_Tantal series, Radial, pin pitch=5.00mm, , diameter=10.5mm, Tantal Electrolytic Capacitor, http://cdn-reichelt.de/documents/datenblatt/B300/TANTAL-TB-Serie%23.pdf, Alternate KiCad Library")
  (tags "CP Radial_Tantal series Radial pin pitch 5.00mm  diameter 10.5mm Tantal Electrolytic Capacitor")
  (fp_text reference REF** (at 2.5 -6.5) (layer F.SilkS)
    (effects (font (size 1 1) (thickness 0.15)))
  )
  (fp_text value CP_Radial_Tantal_D10.5mm_P5.00mm (at 2.5 6.5) (layer F.Fab)
    (effects (font (size 1 1) (thickness 0.15)))
  )
  (fp_line (start 2 -1) (end 2.3 -1) (layer F.SilkS) (width 0.12))
  (fp_line (start 2.3 1) (end 2 1) (layer F.SilkS) (width 0.12))
  (fp_line (start 1.3 0) (end 2 0) (layer F.SilkS) (width 0.12))
  (fp_line (start 2.3 -1) (end 2.3 1) (layer F.SilkS) (width 0.12))
  (fp_line (start 3.7 0) (end 3 0) (layer F.SilkS) (width 0.12))
  (fp_poly (pts (xy 3 1) (xy 2.7 1) (xy 2.7 -1) (xy 3 -1)) (layer F.SilkS) (width 0.1))
  (fp_line (start 2 1) (end 2 -1) (layer F.SilkS) (width 0.12))
  (fp_circle (center 2.5 0) (end 7.75 0) (layer F.Fab) (width 0.1))
  (fp_circle (center 2.5 0) (end 7.87 0) (layer F.SilkS) (width 0.12))
  (fp_circle (center 2.5 0) (end 8 0) (layer F.CrtYd) (width 0.05))
  (fp_line (start -2.004387 -2.2975) (end -0.954387 -2.2975) (layer F.Fab) (width 0.1))
  (fp_line (start -1.479387 -2.8225) (end -1.479387 -1.7725) (layer F.Fab) (width 0.1))
  (fp_line (start -3.247133 -3.015) (end -2.197133 -3.015) (layer F.SilkS) (width 0.12))
  (fp_line (start -2.722133 -3.54) (end -2.722133 -2.49) (layer F.SilkS) (width 0.12))
  (fp_text user %R (at 2.5 0) (layer F.Fab)
    (effects (font (size 1 1) (thickness 0.15)))
  )
  (pad 2 thru_hole circle (at 5 0) (size 1.6 1.6) (drill 0.8) (layers *.Cu *.Mask))
  (pad 1 thru_hole rect (at 0 0) (size 1.6 1.6) (drill 0.8) (layers *.Cu *.Mask))
  (model ${KISYS3DMOD}/Capacitor_THT.3dshapes/CP_Radial_Tantal_D10.5mm_P5.00mm.wrl
    (at (xyz 0 0 0))
    (scale (xyz 1 1 1))
    (rotate (xyz 0 0 0))
  )
)
