(module CP_Radial_Tantal_D8.0mm_P2.50mm (layer F.Cu) (tedit 5AE50EF0)
  (descr "CP, Radial_Tantal series, Radial, pin pitch=2.50mm, , diameter=8.0mm, Tantal Electrolytic Capacitor, http://cdn-reichelt.de/documents/datenblatt/B300/TANTAL-TB-Serie%23.pdf")
  (tags "CP Radial_Tantal series Radial pin pitch 2.50mm  diameter 8.0mm Tantal Electrolytic Capacitor")
  (fp_text reference REF** (at 1.25 -5.25) (layer F.SilkS)
    (effects (font (size 1 1) (thickness 0.15)))
  )
  (fp_text value CP_Radial_Tantal_D8.0mm_P2.50mm (at 1.25 5.25) (layer F.Fab)
    (effects (font (size 1 1) (thickness 0.15)))
  )
  (fp_text user %R (at 1.25 0) (layer F.Fab)
    (effects (font (size 1 1) (thickness 0.15)))
  )
  (fp_circle (center 1.25 0) (end 5.25 0) (layer F.Fab) (width 0.1))
  (fp_circle (center 1.25 0) (end 5.37 0) (layer F.SilkS) (width 0.12))
  (fp_circle (center 1.25 0) (end 5.5 0) (layer F.CrtYd) (width 0.05))
  (fp_line (start -2.176759 -1.7475) (end -1.376759 -1.7475) (layer F.Fab) (width 0.1))
  (fp_line (start -1.776759 -2.1475) (end -1.776759 -1.3475) (layer F.Fab) (width 0.1))
  (fp_line (start -3.159698 -2.315) (end -2.359698 -2.315) (layer F.SilkS) (width 0.12))
  (fp_line (start -2.759698 -2.715) (end -2.759698 -1.915) (layer F.SilkS) (width 0.12))
  (pad 2 thru_hole circle (at 2.5 0) (size 1.6 1.6) (drill 0.8) (layers *.Cu *.Mask))
  (pad 1 thru_hole rect (at 0 0) (size 1.6 1.6) (drill 0.8) (layers *.Cu *.Mask))
  (model ${KISYS3DMOD}/Capacitor_THT.3dshapes/CP_Radial_Tantal_D8.0mm_P2.50mm.wrl
    (at (xyz 0 0 0))
    (scale (xyz 1 1 1))
    (rotate (xyz 0 0 0))
  )
)
