(module CP_Radial_D10.0mm_P3.80mm (layer F.Cu) (tedit 5AE50EF1)
  (descr "CP, Radial series, Radial, pin pitch=3.80mm, , diameter=10mm, Electrolytic Capacitor")
  (tags "CP Radial series Radial pin pitch 3.80mm  diameter 10mm Electrolytic Capacitor")
  (fp_text reference REF** (at 1.9 -6.25) (layer F.SilkS)
    (effects (font (size 1 1) (thickness 0.15)))
  )
  (fp_text value CP_Radial_D10.0mm_P3.80mm (at 1.9 6.25) (layer F.Fab)
    (effects (font (size 1 1) (thickness 0.15)))
  )
  (fp_text user %R (at 1.9 0) (layer F.Fab)
    (effects (font (size 1 1) (thickness 0.15)))
  )
  (fp_circle (center 1.9 0) (end 6.9 0) (layer F.Fab) (width 0.1))
  (fp_circle (center 1.9 0) (end 7.02 0) (layer F.SilkS) (width 0.12))
  (fp_circle (center 1.9 0) (end 7.15 0) (layer F.CrtYd) (width 0.05))
  (fp_line (start -2.388861 -2.1875) (end -1.388861 -2.1875) (layer F.Fab) (width 0.1))
  (fp_line (start -1.888861 -2.6875) (end -1.888861 -1.6875) (layer F.Fab) (width 0.1))
  (fp_line (start 1.9 -5.08) (end 1.9 5.08) (layer F.SilkS) (width 0.12))
  (fp_line (start 1.94 -5.08) (end 1.94 5.08) (layer F.SilkS) (width 0.12))
  (fp_line (start 1.98 -5.08) (end 1.98 5.08) (layer F.SilkS) (width 0.12))
  (fp_line (start 2.02 -5.079) (end 2.02 5.079) (layer F.SilkS) (width 0.12))
  (fp_line (start 2.06 -5.078) (end 2.06 5.078) (layer F.SilkS) (width 0.12))
  (fp_line (start 2.1 -5.077) (end 2.1 5.077) (layer F.SilkS) (width 0.12))
  (fp_line (start 2.14 -5.075) (end 2.14 5.075) (layer F.SilkS) (width 0.12))
  (fp_line (start 2.18 -5.073) (end 2.18 5.073) (layer F.SilkS) (width 0.12))
  (fp_line (start 2.22 -5.07) (end 2.22 5.07) (layer F.SilkS) (width 0.12))
  (fp_line (start 2.26 -5.068) (end 2.26 5.068) (layer F.SilkS) (width 0.12))
  (fp_line (start 2.3 -5.065) (end 2.3 5.065) (layer F.SilkS) (width 0.12))
  (fp_line (start 2.34 -5.062) (end 2.34 5.062) (layer F.SilkS) (width 0.12))
  (fp_line (start 2.38 -5.058) (end 2.38 5.058) (layer F.SilkS) (width 0.12))
  (fp_line (start 2.42 -5.054) (end 2.42 5.054) (layer F.SilkS) (width 0.12))
  (fp_line (start 2.46 -5.05) (end 2.46 5.05) (layer F.SilkS) (width 0.12))
  (fp_line (start 2.5 -5.045) (end 2.5 5.045) (layer F.SilkS) (width 0.12))
  (fp_line (start 2.54 -5.04) (end 2.54 5.04) (layer F.SilkS) (width 0.12))
  (fp_line (start 2.58 -5.035) (end 2.58 -1.241) (layer F.SilkS) (width 0.12))
  (fp_line (start 2.58 1.241) (end 2.58 5.035) (layer F.SilkS) (width 0.12))
  (fp_line (start 2.621 -5.03) (end 2.621 -1.241) (layer F.SilkS) (width 0.12))
  (fp_line (start 2.621 1.241) (end 2.621 5.03) (layer F.SilkS) (width 0.12))
  (fp_line (start 2.661 -5.024) (end 2.661 -1.241) (layer F.SilkS) (width 0.12))
  (fp_line (start 2.661 1.241) (end 2.661 5.024) (layer F.SilkS) (width 0.12))
  (fp_line (start 2.701 -5.018) (end 2.701 -1.241) (layer F.SilkS) (width 0.12))
  (fp_line (start 2.701 1.241) (end 2.701 5.018) (layer F.SilkS) (width 0.12))
  (fp_line (start 2.741 -5.011) (end 2.741 -1.241) (layer F.SilkS) (width 0.12))
  (fp_line (start 2.741 1.241) (end 2.741 5.011) (layer F.SilkS) (width 0.12))
  (fp_line (start 2.781 -5.004) (end 2.781 -1.241) (layer F.SilkS) (width 0.12))
  (fp_line (start 2.781 1.241) (end 2.781 5.004) (layer F.SilkS) (width 0.12))
  (fp_line (start 2.821 -4.997) (end 2.821 -1.241) (layer F.SilkS) (width 0.12))
  (fp_line (start 2.821 1.241) (end 2.821 4.997) (layer F.SilkS) (width 0.12))
  (fp_line (start 2.861 -4.99) (end 2.861 -1.241) (layer F.SilkS) (width 0.12))
  (fp_line (start 2.861 1.241) (end 2.861 4.99) (layer F.SilkS) (width 0.12))
  (fp_line (start 2.901 -4.982) (end 2.901 -1.241) (layer F.SilkS) (width 0.12))
  (fp_line (start 2.901 1.241) (end 2.901 4.982) (layer F.SilkS) (width 0.12))
  (fp_line (start 2.941 -4.974) (end 2.941 -1.241) (layer F.SilkS) (width 0.12))
  (fp_line (start 2.941 1.241) (end 2.941 4.974) (layer F.SilkS) (width 0.12))
  (fp_line (start 2.981 -4.965) (end 2.981 -1.241) (layer F.SilkS) (width 0.12))
  (fp_line (start 2.981 1.241) (end 2.981 4.965) (layer F.SilkS) (width 0.12))
  (fp_line (start 3.021 -4.956) (end 3.021 -1.241) (layer F.SilkS) (width 0.12))
  (fp_line (start 3.021 1.241) (end 3.021 4.956) (layer F.SilkS) (width 0.12))
  (fp_line (start 3.061 -4.947) (end 3.061 -1.241) (layer F.SilkS) (width 0.12))
  (fp_line (start 3.061 1.241) (end 3.061 4.947) (layer F.SilkS) (width 0.12))
  (fp_line (start 3.101 -4.938) (end 3.101 -1.241) (layer F.SilkS) (width 0.12))
  (fp_line (start 3.101 1.241) (end 3.101 4.938) (layer F.SilkS) (width 0.12))
  (fp_line (start 3.141 -4.928) (end 3.141 -1.241) (layer F.SilkS) (width 0.12))
  (fp_line (start 3.141 1.241) (end 3.141 4.928) (layer F.SilkS) (width 0.12))
  (fp_line (start 3.181 -4.918) (end 3.181 -1.241) (layer F.SilkS) (width 0.12))
  (fp_line (start 3.181 1.241) (end 3.181 4.918) (layer F.SilkS) (width 0.12))
  (fp_line (start 3.221 -4.907) (end 3.221 -1.241) (layer F.SilkS) (width 0.12))
  (fp_line (start 3.221 1.241) (end 3.221 4.907) (layer F.SilkS) (width 0.12))
  (fp_line (start 3.261 -4.897) (end 3.261 -1.241) (layer F.SilkS) (width 0.12))
  (fp_line (start 3.261 1.241) (end 3.261 4.897) (layer F.SilkS) (width 0.12))
  (fp_line (start 3.301 -4.885) (end 3.301 -1.241) (layer F.SilkS) (width 0.12))
  (fp_line (start 3.301 1.241) (end 3.301 4.885) (layer F.SilkS) (width 0.12))
  (fp_line (start 3.341 -4.874) (end 3.341 -1.241) (layer F.SilkS) (width 0.12))
  (fp_line (start 3.341 1.241) (end 3.341 4.874) (layer F.SilkS) (width 0.12))
  (fp_line (start 3.381 -4.862) (end 3.381 -1.241) (layer F.SilkS) (width 0.12))
  (fp_line (start 3.381 1.241) (end 3.381 4.862) (layer F.SilkS) (width 0.12))
  (fp_line (start 3.421 -4.85) (end 3.421 -1.241) (layer F.SilkS) (width 0.12))
  (fp_line (start 3.421 1.241) (end 3.421 4.85) (layer F.SilkS) (width 0.12))
  (fp_line (start 3.461 -4.837) (end 3.461 -1.241) (layer F.SilkS) (width 0.12))
  (fp_line (start 3.461 1.241) (end 3.461 4.837) (layer F.SilkS) (width 0.12))
  (fp_line (start 3.501 -4.824) (end 3.501 -1.241) (layer F.SilkS) (width 0.12))
  (fp_line (start 3.501 1.241) (end 3.501 4.824) (layer F.SilkS) (width 0.12))
  (fp_line (start 3.541 -4.811) (end 3.541 -1.241) (layer F.SilkS) (width 0.12))
  (fp_line (start 3.541 1.241) (end 3.541 4.811) (layer F.SilkS) (width 0.12))
  (fp_line (start 3.581 -4.797) (end 3.581 -1.241) (layer F.SilkS) (width 0.12))
  (fp_line (start 3.581 1.241) (end 3.581 4.797) (layer F.SilkS) (width 0.12))
  (fp_line (start 3.621 -4.783) (end 3.621 -1.241) (layer F.SilkS) (width 0.12))
  (fp_line (start 3.621 1.241) (end 3.621 4.783) (layer F.SilkS) (width 0.12))
  (fp_line (start 3.661 -4.768) (end 3.661 -1.241) (layer F.SilkS) (width 0.12))
  (fp_line (start 3.661 1.241) (end 3.661 4.768) (layer F.SilkS) (width 0.12))
  (fp_line (start 3.701 -4.754) (end 3.701 -1.241) (layer F.SilkS) (width 0.12))
  (fp_line (start 3.701 1.241) (end 3.701 4.754) (layer F.SilkS) (width 0.12))
  (fp_line (start 3.741 -4.738) (end 3.741 -1.241) (layer F.SilkS) (width 0.12))
  (fp_line (start 3.741 1.241) (end 3.741 4.738) (layer F.SilkS) (width 0.12))
  (fp_line (start 3.781 -4.723) (end 3.781 -1.241) (layer F.SilkS) (width 0.12))
  (fp_line (start 3.781 1.241) (end 3.781 4.723) (layer F.SilkS) (width 0.12))
  (fp_line (start 3.821 -4.707) (end 3.821 -1.241) (layer F.SilkS) (width 0.12))
  (fp_line (start 3.821 1.241) (end 3.821 4.707) (layer F.SilkS) (width 0.12))
  (fp_line (start 3.861 -4.69) (end 3.861 -1.241) (layer F.SilkS) (width 0.12))
  (fp_line (start 3.861 1.241) (end 3.861 4.69) (layer F.SilkS) (width 0.12))
  (fp_line (start 3.901 -4.674) (end 3.901 -1.241) (layer F.SilkS) (width 0.12))
  (fp_line (start 3.901 1.241) (end 3.901 4.674) (layer F.SilkS) (width 0.12))
  (fp_line (start 3.941 -4.657) (end 3.941 -1.241) (layer F.SilkS) (width 0.12))
  (fp_line (start 3.941 1.241) (end 3.941 4.657) (layer F.SilkS) (width 0.12))
  (fp_line (start 3.981 -4.639) (end 3.981 -1.241) (layer F.SilkS) (width 0.12))
  (fp_line (start 3.981 1.241) (end 3.981 4.639) (layer F.SilkS) (width 0.12))
  (fp_line (start 4.021 -4.621) (end 4.021 -1.241) (layer F.SilkS) (width 0.12))
  (fp_line (start 4.021 1.241) (end 4.021 4.621) (layer F.SilkS) (width 0.12))
  (fp_line (start 4.061 -4.603) (end 4.061 -1.241) (layer F.SilkS) (width 0.12))
  (fp_line (start 4.061 1.241) (end 4.061 4.603) (layer F.SilkS) (width 0.12))
  (fp_line (start 4.101 -4.584) (end 4.101 -1.241) (layer F.SilkS) (width 0.12))
  (fp_line (start 4.101 1.241) (end 4.101 4.584) (layer F.SilkS) (width 0.12))
  (fp_line (start 4.141 -4.564) (end 4.141 -1.241) (layer F.SilkS) (width 0.12))
  (fp_line (start 4.141 1.241) (end 4.141 4.564) (layer F.SilkS) (width 0.12))
  (fp_line (start 4.181 -4.545) (end 4.181 -1.241) (layer F.SilkS) (width 0.12))
  (fp_line (start 4.181 1.241) (end 4.181 4.545) (layer F.SilkS) (width 0.12))
  (fp_line (start 4.221 -4.525) (end 4.221 -1.241) (layer F.SilkS) (width 0.12))
  (fp_line (start 4.221 1.241) (end 4.221 4.525) (layer F.SilkS) (width 0.12))
  (fp_line (start 4.261 -4.504) (end 4.261 -1.241) (layer F.SilkS) (width 0.12))
  (fp_line (start 4.261 1.241) (end 4.261 4.504) (layer F.SilkS) (width 0.12))
  (fp_line (start 4.301 -4.483) (end 4.301 -1.241) (layer F.SilkS) (width 0.12))
  (fp_line (start 4.301 1.241) (end 4.301 4.483) (layer F.SilkS) (width 0.12))
  (fp_line (start 4.341 -4.462) (end 4.341 -1.241) (layer F.SilkS) (width 0.12))
  (fp_line (start 4.341 1.241) (end 4.341 4.462) (layer F.SilkS) (width 0.12))
  (fp_line (start 4.381 -4.44) (end 4.381 -1.241) (layer F.SilkS) (width 0.12))
  (fp_line (start 4.381 1.241) (end 4.381 4.44) (layer F.SilkS) (width 0.12))
  (fp_line (start 4.421 -4.417) (end 4.421 -1.241) (layer F.SilkS) (width 0.12))
  (fp_line (start 4.421 1.241) (end 4.421 4.417) (layer F.SilkS) (width 0.12))
  (fp_line (start 4.461 -4.395) (end 4.461 -1.241) (layer F.SilkS) (width 0.12))
  (fp_line (start 4.461 1.241) (end 4.461 4.395) (layer F.SilkS) (width 0.12))
  (fp_line (start 4.501 -4.371) (end 4.501 -1.241) (layer F.SilkS) (width 0.12))
  (fp_line (start 4.501 1.241) (end 4.501 4.371) (layer F.SilkS) (width 0.12))
  (fp_line (start 4.541 -4.347) (end 4.541 -1.241) (layer F.SilkS) (width 0.12))
  (fp_line (start 4.541 1.241) (end 4.541 4.347) (layer F.SilkS) (width 0.12))
  (fp_line (start 4.581 -4.323) (end 4.581 -1.241) (layer F.SilkS) (width 0.12))
  (fp_line (start 4.581 1.241) (end 4.581 4.323) (layer F.SilkS) (width 0.12))
  (fp_line (start 4.621 -4.298) (end 4.621 -1.241) (layer F.SilkS) (width 0.12))
  (fp_line (start 4.621 1.241) (end 4.621 4.298) (layer F.SilkS) (width 0.12))
  (fp_line (start 4.661 -4.273) (end 4.661 -1.241) (layer F.SilkS) (width 0.12))
  (fp_line (start 4.661 1.241) (end 4.661 4.273) (layer F.SilkS) (width 0.12))
  (fp_line (start 4.701 -4.247) (end 4.701 -1.241) (layer F.SilkS) (width 0.12))
  (fp_line (start 4.701 1.241) (end 4.701 4.247) (layer F.SilkS) (width 0.12))
  (fp_line (start 4.741 -4.221) (end 4.741 -1.241) (layer F.SilkS) (width 0.12))
  (fp_line (start 4.741 1.241) (end 4.741 4.221) (layer F.SilkS) (width 0.12))
  (fp_line (start 4.781 -4.194) (end 4.781 -1.241) (layer F.SilkS) (width 0.12))
  (fp_line (start 4.781 1.241) (end 4.781 4.194) (layer F.SilkS) (width 0.12))
  (fp_line (start 4.821 -4.166) (end 4.821 -1.241) (layer F.SilkS) (width 0.12))
  (fp_line (start 4.821 1.241) (end 4.821 4.166) (layer F.SilkS) (width 0.12))
  (fp_line (start 4.861 -4.138) (end 4.861 -1.241) (layer F.SilkS) (width 0.12))
  (fp_line (start 4.861 1.241) (end 4.861 4.138) (layer F.SilkS) (width 0.12))
  (fp_line (start 4.901 -4.11) (end 4.901 -1.241) (layer F.SilkS) (width 0.12))
  (fp_line (start 4.901 1.241) (end 4.901 4.11) (layer F.SilkS) (width 0.12))
  (fp_line (start 4.941 -4.08) (end 4.941 -1.241) (layer F.SilkS) (width 0.12))
  (fp_line (start 4.941 1.241) (end 4.941 4.08) (layer F.SilkS) (width 0.12))
  (fp_line (start 4.981 -4.05) (end 4.981 -1.241) (layer F.SilkS) (width 0.12))
  (fp_line (start 4.981 1.241) (end 4.981 4.05) (layer F.SilkS) (width 0.12))
  (fp_line (start 5.021 -4.02) (end 5.021 -1.241) (layer F.SilkS) (width 0.12))
  (fp_line (start 5.021 1.241) (end 5.021 4.02) (layer F.SilkS) (width 0.12))
  (fp_line (start 5.061 -3.989) (end 5.061 3.989) (layer F.SilkS) (width 0.12))
  (fp_line (start 5.101 -3.957) (end 5.101 3.957) (layer F.SilkS) (width 0.12))
  (fp_line (start 5.141 -3.925) (end 5.141 3.925) (layer F.SilkS) (width 0.12))
  (fp_line (start 5.181 -3.892) (end 5.181 3.892) (layer F.SilkS) (width 0.12))
  (fp_line (start 5.221 -3.858) (end 5.221 3.858) (layer F.SilkS) (width 0.12))
  (fp_line (start 5.261 -3.824) (end 5.261 3.824) (layer F.SilkS) (width 0.12))
  (fp_line (start 5.301 -3.789) (end 5.301 3.789) (layer F.SilkS) (width 0.12))
  (fp_line (start 5.341 -3.753) (end 5.341 3.753) (layer F.SilkS) (width 0.12))
  (fp_line (start 5.381 -3.716) (end 5.381 3.716) (layer F.SilkS) (width 0.12))
  (fp_line (start 5.421 -3.679) (end 5.421 3.679) (layer F.SilkS) (width 0.12))
  (fp_line (start 5.461 -3.64) (end 5.461 3.64) (layer F.SilkS) (width 0.12))
  (fp_line (start 5.501 -3.601) (end 5.501 3.601) (layer F.SilkS) (width 0.12))
  (fp_line (start 5.541 -3.561) (end 5.541 3.561) (layer F.SilkS) (width 0.12))
  (fp_line (start 5.581 -3.52) (end 5.581 3.52) (layer F.SilkS) (width 0.12))
  (fp_line (start 5.621 -3.478) (end 5.621 3.478) (layer F.SilkS) (width 0.12))
  (fp_line (start 5.661 -3.436) (end 5.661 3.436) (layer F.SilkS) (width 0.12))
  (fp_line (start 5.701 -3.392) (end 5.701 3.392) (layer F.SilkS) (width 0.12))
  (fp_line (start 5.741 -3.347) (end 5.741 3.347) (layer F.SilkS) (width 0.12))
  (fp_line (start 5.781 -3.301) (end 5.781 3.301) (layer F.SilkS) (width 0.12))
  (fp_line (start 5.821 -3.254) (end 5.821 3.254) (layer F.SilkS) (width 0.12))
  (fp_line (start 5.861 -3.206) (end 5.861 3.206) (layer F.SilkS) (width 0.12))
  (fp_line (start 5.901 -3.156) (end 5.901 3.156) (layer F.SilkS) (width 0.12))
  (fp_line (start 5.941 -3.106) (end 5.941 3.106) (layer F.SilkS) (width 0.12))
  (fp_line (start 5.981 -3.054) (end 5.981 3.054) (layer F.SilkS) (width 0.12))
  (fp_line (start 6.021 -3) (end 6.021 3) (layer F.SilkS) (width 0.12))
  (fp_line (start 6.061 -2.945) (end 6.061 2.945) (layer F.SilkS) (width 0.12))
  (fp_line (start 6.101 -2.889) (end 6.101 2.889) (layer F.SilkS) (width 0.12))
  (fp_line (start 6.141 -2.83) (end 6.141 2.83) (layer F.SilkS) (width 0.12))
  (fp_line (start 6.181 -2.77) (end 6.181 2.77) (layer F.SilkS) (width 0.12))
  (fp_line (start 6.221 -2.709) (end 6.221 2.709) (layer F.SilkS) (width 0.12))
  (fp_line (start 6.261 -2.645) (end 6.261 2.645) (layer F.SilkS) (width 0.12))
  (fp_line (start 6.301 -2.579) (end 6.301 2.579) (layer F.SilkS) (width 0.12))
  (fp_line (start 6.341 -2.51) (end 6.341 2.51) (layer F.SilkS) (width 0.12))
  (fp_line (start 6.381 -2.439) (end 6.381 2.439) (layer F.SilkS) (width 0.12))
  (fp_line (start 6.421 -2.365) (end 6.421 2.365) (layer F.SilkS) (width 0.12))
  (fp_line (start 6.461 -2.289) (end 6.461 2.289) (layer F.SilkS) (width 0.12))
  (fp_line (start 6.501 -2.209) (end 6.501 2.209) (layer F.SilkS) (width 0.12))
  (fp_line (start 6.541 -2.125) (end 6.541 2.125) (layer F.SilkS) (width 0.12))
  (fp_line (start 6.581 -2.037) (end 6.581 2.037) (layer F.SilkS) (width 0.12))
  (fp_line (start 6.621 -1.944) (end 6.621 1.944) (layer F.SilkS) (width 0.12))
  (fp_line (start 6.661 -1.846) (end 6.661 1.846) (layer F.SilkS) (width 0.12))
  (fp_line (start 6.701 -1.742) (end 6.701 1.742) (layer F.SilkS) (width 0.12))
  (fp_line (start 6.741 -1.63) (end 6.741 1.63) (layer F.SilkS) (width 0.12))
  (fp_line (start 6.781 -1.51) (end 6.781 1.51) (layer F.SilkS) (width 0.12))
  (fp_line (start 6.821 -1.378) (end 6.821 1.378) (layer F.SilkS) (width 0.12))
  (fp_line (start 6.861 -1.23) (end 6.861 1.23) (layer F.SilkS) (width 0.12))
  (fp_line (start 6.901 -1.062) (end 6.901 1.062) (layer F.SilkS) (width 0.12))
  (fp_line (start 6.941 -0.862) (end 6.941 0.862) (layer F.SilkS) (width 0.12))
  (fp_line (start 6.981 -0.599) (end 6.981 0.599) (layer F.SilkS) (width 0.12))
  (fp_line (start -3.579646 -2.875) (end -2.579646 -2.875) (layer F.SilkS) (width 0.12))
  (fp_line (start -3.079646 -3.375) (end -3.079646 -2.375) (layer F.SilkS) (width 0.12))
  (pad 2 thru_hole circle (at 3.8 0) (size 2 2) (drill 1) (layers *.Cu *.Mask))
  (pad 1 thru_hole rect (at 0 0) (size 2 2) (drill 1) (layers *.Cu *.Mask))
  (model ${KISYS3DMOD}/Capacitor_THT.3dshapes/CP_Radial_D10.0mm_P3.80mm.wrl
    (at (xyz 0 0 0))
    (scale (xyz 1 1 1))
    (rotate (xyz 0 0 0))
  )
)
