(module CP_Radial_D30.0mm_P10.00mm_3pin_SnapIn (layer F.Cu) (tedit 5AE50EF2)
  (descr "CP, Radial series, Radial, pin pitch=10.00mm, , diameter=30mm, Electrolytic Capacitor, , http://www.vishay.com/docs/28342/058059pll-si.pdf")
  (tags "CP Radial series Radial pin pitch 10.00mm  diameter 30mm Electrolytic Capacitor")
  (fp_text reference REF** (at 5 -16.25) (layer F.SilkS)
    (effects (font (size 1 1) (thickness 0.15)))
  )
  (fp_text value CP_Radial_D30.0mm_P10.00mm_3pin_SnapIn (at 5 16.25) (layer F.Fab)
    (effects (font (size 1 1) (thickness 0.15)))
  )
  (fp_text user %R (at 5 0) (layer F.Fab)
    (effects (font (size 1 1) (thickness 0.15)))
  )
  (fp_circle (center 5 0) (end 20 0) (layer F.Fab) (width 0.1))
  (fp_circle (center 5 0) (end 20.12 0) (layer F.SilkS) (width 0.12))
  (fp_circle (center 5 0) (end 20.25 0) (layer F.CrtYd) (width 0.05))
  (fp_line (start -7.909885 -6.5875) (end -4.909885 -6.5875) (layer F.Fab) (width 0.1))
  (fp_line (start -6.409885 -8.0875) (end -6.409885 -5.0875) (layer F.Fab) (width 0.1))
  (fp_line (start 5 -15.081) (end 5 -7.49) (layer F.SilkS) (width 0.12))
  (fp_line (start 5 -2.01) (end 5 15.081) (layer F.SilkS) (width 0.12))
  (fp_line (start 5.04 -15.08) (end 5.04 -7.49) (layer F.SilkS) (width 0.12))
  (fp_line (start 5.04 -2.01) (end 5.04 15.08) (layer F.SilkS) (width 0.12))
  (fp_line (start 5.08 -15.08) (end 5.08 -7.49) (layer F.SilkS) (width 0.12))
  (fp_line (start 5.08 -2.01) (end 5.08 15.08) (layer F.SilkS) (width 0.12))
  (fp_line (start 5.12 -15.08) (end 5.12 -7.49) (layer F.SilkS) (width 0.12))
  (fp_line (start 5.12 -2.01) (end 5.12 15.08) (layer F.SilkS) (width 0.12))
  (fp_line (start 5.16 -15.08) (end 5.16 -7.49) (layer F.SilkS) (width 0.12))
  (fp_line (start 5.16 -2.01) (end 5.16 15.08) (layer F.SilkS) (width 0.12))
  (fp_line (start 5.2 -15.079) (end 5.2 -7.49) (layer F.SilkS) (width 0.12))
  (fp_line (start 5.2 -2.01) (end 5.2 15.079) (layer F.SilkS) (width 0.12))
  (fp_line (start 5.24 -15.079) (end 5.24 -7.49) (layer F.SilkS) (width 0.12))
  (fp_line (start 5.24 -2.01) (end 5.24 15.079) (layer F.SilkS) (width 0.12))
  (fp_line (start 5.28 -15.078) (end 5.28 -7.49) (layer F.SilkS) (width 0.12))
  (fp_line (start 5.28 -2.01) (end 5.28 15.078) (layer F.SilkS) (width 0.12))
  (fp_line (start 5.32 -15.077) (end 5.32 -7.49) (layer F.SilkS) (width 0.12))
  (fp_line (start 5.32 -2.01) (end 5.32 15.077) (layer F.SilkS) (width 0.12))
  (fp_line (start 5.36 -15.076) (end 5.36 -7.49) (layer F.SilkS) (width 0.12))
  (fp_line (start 5.36 -2.01) (end 5.36 15.076) (layer F.SilkS) (width 0.12))
  (fp_line (start 5.4 -15.075) (end 5.4 -7.49) (layer F.SilkS) (width 0.12))
  (fp_line (start 5.4 -2.01) (end 5.4 15.075) (layer F.SilkS) (width 0.12))
  (fp_line (start 5.44 -15.074) (end 5.44 -7.49) (layer F.SilkS) (width 0.12))
  (fp_line (start 5.44 -2.01) (end 5.44 15.074) (layer F.SilkS) (width 0.12))
  (fp_line (start 5.48 -15.073) (end 5.48 -7.49) (layer F.SilkS) (width 0.12))
  (fp_line (start 5.48 -2.01) (end 5.48 15.073) (layer F.SilkS) (width 0.12))
  (fp_line (start 5.52 -15.072) (end 5.52 -7.49) (layer F.SilkS) (width 0.12))
  (fp_line (start 5.52 -2.01) (end 5.52 15.072) (layer F.SilkS) (width 0.12))
  (fp_line (start 5.56 -15.07) (end 5.56 -7.49) (layer F.SilkS) (width 0.12))
  (fp_line (start 5.56 -2.01) (end 5.56 15.07) (layer F.SilkS) (width 0.12))
  (fp_line (start 5.6 -15.069) (end 5.6 -7.49) (layer F.SilkS) (width 0.12))
  (fp_line (start 5.6 -2.01) (end 5.6 15.069) (layer F.SilkS) (width 0.12))
  (fp_line (start 5.64 -15.067) (end 5.64 -7.49) (layer F.SilkS) (width 0.12))
  (fp_line (start 5.64 -2.01) (end 5.64 15.067) (layer F.SilkS) (width 0.12))
  (fp_line (start 5.68 -15.065) (end 5.68 -7.49) (layer F.SilkS) (width 0.12))
  (fp_line (start 5.68 -2.01) (end 5.68 15.065) (layer F.SilkS) (width 0.12))
  (fp_line (start 5.721 -15.063) (end 5.721 -7.49) (layer F.SilkS) (width 0.12))
  (fp_line (start 5.721 -2.01) (end 5.721 15.063) (layer F.SilkS) (width 0.12))
  (fp_line (start 5.761 -15.061) (end 5.761 -7.49) (layer F.SilkS) (width 0.12))
  (fp_line (start 5.761 -2.01) (end 5.761 15.061) (layer F.SilkS) (width 0.12))
  (fp_line (start 5.801 -15.059) (end 5.801 -7.49) (layer F.SilkS) (width 0.12))
  (fp_line (start 5.801 -2.01) (end 5.801 15.059) (layer F.SilkS) (width 0.12))
  (fp_line (start 5.841 -15.057) (end 5.841 -7.49) (layer F.SilkS) (width 0.12))
  (fp_line (start 5.841 -2.01) (end 5.841 15.057) (layer F.SilkS) (width 0.12))
  (fp_line (start 5.881 -15.055) (end 5.881 -7.49) (layer F.SilkS) (width 0.12))
  (fp_line (start 5.881 -2.01) (end 5.881 15.055) (layer F.SilkS) (width 0.12))
  (fp_line (start 5.921 -15.052) (end 5.921 -7.49) (layer F.SilkS) (width 0.12))
  (fp_line (start 5.921 -2.01) (end 5.921 15.052) (layer F.SilkS) (width 0.12))
  (fp_line (start 5.961 -15.05) (end 5.961 -7.49) (layer F.SilkS) (width 0.12))
  (fp_line (start 5.961 -2.01) (end 5.961 15.05) (layer F.SilkS) (width 0.12))
  (fp_line (start 6.001 -15.047) (end 6.001 -7.49) (layer F.SilkS) (width 0.12))
  (fp_line (start 6.001 -2.01) (end 6.001 15.047) (layer F.SilkS) (width 0.12))
  (fp_line (start 6.041 -15.045) (end 6.041 -7.49) (layer F.SilkS) (width 0.12))
  (fp_line (start 6.041 -2.01) (end 6.041 15.045) (layer F.SilkS) (width 0.12))
  (fp_line (start 6.081 -15.042) (end 6.081 -7.49) (layer F.SilkS) (width 0.12))
  (fp_line (start 6.081 -2.01) (end 6.081 15.042) (layer F.SilkS) (width 0.12))
  (fp_line (start 6.121 -15.039) (end 6.121 -7.49) (layer F.SilkS) (width 0.12))
  (fp_line (start 6.121 -2.01) (end 6.121 15.039) (layer F.SilkS) (width 0.12))
  (fp_line (start 6.161 -15.036) (end 6.161 -7.49) (layer F.SilkS) (width 0.12))
  (fp_line (start 6.161 -2.01) (end 6.161 15.036) (layer F.SilkS) (width 0.12))
  (fp_line (start 6.201 -15.033) (end 6.201 -7.49) (layer F.SilkS) (width 0.12))
  (fp_line (start 6.201 -2.01) (end 6.201 15.033) (layer F.SilkS) (width 0.12))
  (fp_line (start 6.241 -15.03) (end 6.241 -7.49) (layer F.SilkS) (width 0.12))
  (fp_line (start 6.241 -2.01) (end 6.241 15.03) (layer F.SilkS) (width 0.12))
  (fp_line (start 6.281 -15.026) (end 6.281 -7.49) (layer F.SilkS) (width 0.12))
  (fp_line (start 6.281 -2.01) (end 6.281 15.026) (layer F.SilkS) (width 0.12))
  (fp_line (start 6.321 -15.023) (end 6.321 -7.49) (layer F.SilkS) (width 0.12))
  (fp_line (start 6.321 -2.01) (end 6.321 15.023) (layer F.SilkS) (width 0.12))
  (fp_line (start 6.361 -15.019) (end 6.361 -7.49) (layer F.SilkS) (width 0.12))
  (fp_line (start 6.361 -2.01) (end 6.361 15.019) (layer F.SilkS) (width 0.12))
  (fp_line (start 6.401 -15.016) (end 6.401 -7.49) (layer F.SilkS) (width 0.12))
  (fp_line (start 6.401 -2.01) (end 6.401 15.016) (layer F.SilkS) (width 0.12))
  (fp_line (start 6.441 -15.012) (end 6.441 -7.49) (layer F.SilkS) (width 0.12))
  (fp_line (start 6.441 -2.01) (end 6.441 15.012) (layer F.SilkS) (width 0.12))
  (fp_line (start 6.481 -15.008) (end 6.481 -7.49) (layer F.SilkS) (width 0.12))
  (fp_line (start 6.481 -2.01) (end 6.481 15.008) (layer F.SilkS) (width 0.12))
  (fp_line (start 6.521 -15.004) (end 6.521 -7.49) (layer F.SilkS) (width 0.12))
  (fp_line (start 6.521 -2.01) (end 6.521 15.004) (layer F.SilkS) (width 0.12))
  (fp_line (start 6.561 -15) (end 6.561 -7.49) (layer F.SilkS) (width 0.12))
  (fp_line (start 6.561 -2.01) (end 6.561 15) (layer F.SilkS) (width 0.12))
  (fp_line (start 6.601 -14.996) (end 6.601 -7.49) (layer F.SilkS) (width 0.12))
  (fp_line (start 6.601 -2.01) (end 6.601 14.996) (layer F.SilkS) (width 0.12))
  (fp_line (start 6.641 -14.991) (end 6.641 -7.49) (layer F.SilkS) (width 0.12))
  (fp_line (start 6.641 -2.01) (end 6.641 14.991) (layer F.SilkS) (width 0.12))
  (fp_line (start 6.681 -14.987) (end 6.681 -7.49) (layer F.SilkS) (width 0.12))
  (fp_line (start 6.681 -2.01) (end 6.681 14.987) (layer F.SilkS) (width 0.12))
  (fp_line (start 6.721 -14.982) (end 6.721 -7.49) (layer F.SilkS) (width 0.12))
  (fp_line (start 6.721 -2.01) (end 6.721 14.982) (layer F.SilkS) (width 0.12))
  (fp_line (start 6.761 -14.978) (end 6.761 -7.49) (layer F.SilkS) (width 0.12))
  (fp_line (start 6.761 -2.01) (end 6.761 14.978) (layer F.SilkS) (width 0.12))
  (fp_line (start 6.801 -14.973) (end 6.801 -7.49) (layer F.SilkS) (width 0.12))
  (fp_line (start 6.801 -2.01) (end 6.801 14.973) (layer F.SilkS) (width 0.12))
  (fp_line (start 6.841 -14.968) (end 6.841 -7.49) (layer F.SilkS) (width 0.12))
  (fp_line (start 6.841 -2.01) (end 6.841 14.968) (layer F.SilkS) (width 0.12))
  (fp_line (start 6.881 -14.963) (end 6.881 -7.49) (layer F.SilkS) (width 0.12))
  (fp_line (start 6.881 -2.01) (end 6.881 14.963) (layer F.SilkS) (width 0.12))
  (fp_line (start 6.921 -14.958) (end 6.921 -7.49) (layer F.SilkS) (width 0.12))
  (fp_line (start 6.921 -2.01) (end 6.921 14.958) (layer F.SilkS) (width 0.12))
  (fp_line (start 6.961 -14.953) (end 6.961 -7.49) (layer F.SilkS) (width 0.12))
  (fp_line (start 6.961 -2.01) (end 6.961 14.953) (layer F.SilkS) (width 0.12))
  (fp_line (start 7.001 -14.948) (end 7.001 -7.49) (layer F.SilkS) (width 0.12))
  (fp_line (start 7.001 -2.01) (end 7.001 14.948) (layer F.SilkS) (width 0.12))
  (fp_line (start 7.041 -14.942) (end 7.041 -7.49) (layer F.SilkS) (width 0.12))
  (fp_line (start 7.041 -2.01) (end 7.041 14.942) (layer F.SilkS) (width 0.12))
  (fp_line (start 7.081 -14.937) (end 7.081 -7.49) (layer F.SilkS) (width 0.12))
  (fp_line (start 7.081 -2.01) (end 7.081 14.937) (layer F.SilkS) (width 0.12))
  (fp_line (start 7.121 -14.931) (end 7.121 -7.49) (layer F.SilkS) (width 0.12))
  (fp_line (start 7.121 -2.01) (end 7.121 14.931) (layer F.SilkS) (width 0.12))
  (fp_line (start 7.161 -14.925) (end 7.161 -7.49) (layer F.SilkS) (width 0.12))
  (fp_line (start 7.161 -2.01) (end 7.161 14.925) (layer F.SilkS) (width 0.12))
  (fp_line (start 7.201 -14.92) (end 7.201 -7.49) (layer F.SilkS) (width 0.12))
  (fp_line (start 7.201 -2.01) (end 7.201 14.92) (layer F.SilkS) (width 0.12))
  (fp_line (start 7.241 -14.914) (end 7.241 -7.49) (layer F.SilkS) (width 0.12))
  (fp_line (start 7.241 -2.01) (end 7.241 14.914) (layer F.SilkS) (width 0.12))
  (fp_line (start 7.281 -14.908) (end 7.281 -7.49) (layer F.SilkS) (width 0.12))
  (fp_line (start 7.281 -2.01) (end 7.281 14.908) (layer F.SilkS) (width 0.12))
  (fp_line (start 7.321 -14.901) (end 7.321 -7.49) (layer F.SilkS) (width 0.12))
  (fp_line (start 7.321 -2.01) (end 7.321 14.901) (layer F.SilkS) (width 0.12))
  (fp_line (start 7.361 -14.895) (end 7.361 -7.49) (layer F.SilkS) (width 0.12))
  (fp_line (start 7.361 -2.01) (end 7.361 14.895) (layer F.SilkS) (width 0.12))
  (fp_line (start 7.401 -14.889) (end 7.401 -7.49) (layer F.SilkS) (width 0.12))
  (fp_line (start 7.401 -2.01) (end 7.401 14.889) (layer F.SilkS) (width 0.12))
  (fp_line (start 7.441 -14.882) (end 7.441 -7.49) (layer F.SilkS) (width 0.12))
  (fp_line (start 7.441 -2.01) (end 7.441 14.882) (layer F.SilkS) (width 0.12))
  (fp_line (start 7.481 -14.876) (end 7.481 -7.49) (layer F.SilkS) (width 0.12))
  (fp_line (start 7.481 -2.01) (end 7.481 14.876) (layer F.SilkS) (width 0.12))
  (fp_line (start 7.521 -14.869) (end 7.521 -7.49) (layer F.SilkS) (width 0.12))
  (fp_line (start 7.521 -2.01) (end 7.521 14.869) (layer F.SilkS) (width 0.12))
  (fp_line (start 7.561 -14.862) (end 7.561 -7.49) (layer F.SilkS) (width 0.12))
  (fp_line (start 7.561 -2.01) (end 7.561 14.862) (layer F.SilkS) (width 0.12))
  (fp_line (start 7.601 -14.855) (end 7.601 -7.49) (layer F.SilkS) (width 0.12))
  (fp_line (start 7.601 -2.01) (end 7.601 14.855) (layer F.SilkS) (width 0.12))
  (fp_line (start 7.641 -14.848) (end 7.641 -7.49) (layer F.SilkS) (width 0.12))
  (fp_line (start 7.641 -2.01) (end 7.641 14.848) (layer F.SilkS) (width 0.12))
  (fp_line (start 7.681 -14.841) (end 7.681 -7.49) (layer F.SilkS) (width 0.12))
  (fp_line (start 7.681 -2.01) (end 7.681 14.841) (layer F.SilkS) (width 0.12))
  (fp_line (start 7.721 -14.834) (end 7.721 -7.49) (layer F.SilkS) (width 0.12))
  (fp_line (start 7.721 -2.01) (end 7.721 14.834) (layer F.SilkS) (width 0.12))
  (fp_line (start 7.761 2.24) (end 7.761 14.826) (layer F.SilkS) (width 0.12))
  (fp_line (start 7.761 -14.826) (end 7.761 -7.49) (layer F.SilkS) (width 0.12))
  (fp_line (start 7.801 2.24) (end 7.801 14.819) (layer F.SilkS) (width 0.12))
  (fp_line (start 7.801 -14.819) (end 7.801 -7.49) (layer F.SilkS) (width 0.12))
  (fp_line (start 7.841 2.24) (end 7.841 14.811) (layer F.SilkS) (width 0.12))
  (fp_line (start 7.841 -14.811) (end 7.841 -7.49) (layer F.SilkS) (width 0.12))
  (fp_line (start 7.881 2.24) (end 7.881 14.804) (layer F.SilkS) (width 0.12))
  (fp_line (start 7.881 -14.804) (end 7.881 -7.49) (layer F.SilkS) (width 0.12))
  (fp_line (start 7.921 2.24) (end 7.921 14.796) (layer F.SilkS) (width 0.12))
  (fp_line (start 7.921 -14.796) (end 7.921 -7.49) (layer F.SilkS) (width 0.12))
  (fp_line (start 7.961 2.24) (end 7.961 14.788) (layer F.SilkS) (width 0.12))
  (fp_line (start 7.961 -14.788) (end 7.961 -7.49) (layer F.SilkS) (width 0.12))
  (fp_line (start 8.001 2.24) (end 8.001 14.78) (layer F.SilkS) (width 0.12))
  (fp_line (start 8.001 -14.78) (end 8.001 -7.49) (layer F.SilkS) (width 0.12))
  (fp_line (start 8.041 2.24) (end 8.041 14.772) (layer F.SilkS) (width 0.12))
  (fp_line (start 8.041 -14.772) (end 8.041 -7.49) (layer F.SilkS) (width 0.12))
  (fp_line (start 8.081 2.24) (end 8.081 14.763) (layer F.SilkS) (width 0.12))
  (fp_line (start 8.081 -14.763) (end 8.081 -7.49) (layer F.SilkS) (width 0.12))
  (fp_line (start 8.121 2.24) (end 8.121 14.755) (layer F.SilkS) (width 0.12))
  (fp_line (start 8.121 -14.755) (end 8.121 -7.49) (layer F.SilkS) (width 0.12))
  (fp_line (start 8.161 2.24) (end 8.161 14.747) (layer F.SilkS) (width 0.12))
  (fp_line (start 8.161 -14.747) (end 8.161 -7.49) (layer F.SilkS) (width 0.12))
  (fp_line (start 8.201 2.24) (end 8.201 14.738) (layer F.SilkS) (width 0.12))
  (fp_line (start 8.201 -14.738) (end 8.201 -7.49) (layer F.SilkS) (width 0.12))
  (fp_line (start 8.241 2.24) (end 8.241 14.729) (layer F.SilkS) (width 0.12))
  (fp_line (start 8.241 -14.729) (end 8.241 -7.49) (layer F.SilkS) (width 0.12))
  (fp_line (start 8.281 2.24) (end 8.281 14.72) (layer F.SilkS) (width 0.12))
  (fp_line (start 8.281 -14.72) (end 8.281 -7.49) (layer F.SilkS) (width 0.12))
  (fp_line (start 8.321 2.24) (end 8.321 14.711) (layer F.SilkS) (width 0.12))
  (fp_line (start 8.321 -14.711) (end 8.321 -7.49) (layer F.SilkS) (width 0.12))
  (fp_line (start 8.361 2.24) (end 8.361 14.702) (layer F.SilkS) (width 0.12))
  (fp_line (start 8.361 -14.702) (end 8.361 -7.49) (layer F.SilkS) (width 0.12))
  (fp_line (start 8.401 2.24) (end 8.401 14.693) (layer F.SilkS) (width 0.12))
  (fp_line (start 8.401 -14.693) (end 8.401 -7.49) (layer F.SilkS) (width 0.12))
  (fp_line (start 8.441 2.24) (end 8.441 14.684) (layer F.SilkS) (width 0.12))
  (fp_line (start 8.441 -14.684) (end 8.441 -7.49) (layer F.SilkS) (width 0.12))
  (fp_line (start 8.481 2.24) (end 8.481 14.675) (layer F.SilkS) (width 0.12))
  (fp_line (start 8.481 -14.675) (end 8.481 -7.49) (layer F.SilkS) (width 0.12))
  (fp_line (start 8.521 2.24) (end 8.521 14.665) (layer F.SilkS) (width 0.12))
  (fp_line (start 8.521 -14.665) (end 8.521 -7.49) (layer F.SilkS) (width 0.12))
  (fp_line (start 8.561 2.24) (end 8.561 14.655) (layer F.SilkS) (width 0.12))
  (fp_line (start 8.561 -14.655) (end 8.561 -7.49) (layer F.SilkS) (width 0.12))
  (fp_line (start 8.601 2.24) (end 8.601 14.646) (layer F.SilkS) (width 0.12))
  (fp_line (start 8.601 -14.646) (end 8.601 -7.49) (layer F.SilkS) (width 0.12))
  (fp_line (start 8.641 2.24) (end 8.641 14.636) (layer F.SilkS) (width 0.12))
  (fp_line (start 8.641 -14.636) (end 8.641 -7.49) (layer F.SilkS) (width 0.12))
  (fp_line (start 8.681 2.24) (end 8.681 14.626) (layer F.SilkS) (width 0.12))
  (fp_line (start 8.681 -14.626) (end 8.681 -7.49) (layer F.SilkS) (width 0.12))
  (fp_line (start 8.721 2.24) (end 8.721 14.616) (layer F.SilkS) (width 0.12))
  (fp_line (start 8.721 -14.616) (end 8.721 -7.49) (layer F.SilkS) (width 0.12))
  (fp_line (start 8.761 2.24) (end 8.761 14.606) (layer F.SilkS) (width 0.12))
  (fp_line (start 8.761 -14.606) (end 8.761 -7.49) (layer F.SilkS) (width 0.12))
  (fp_line (start 8.801 2.24) (end 8.801 14.595) (layer F.SilkS) (width 0.12))
  (fp_line (start 8.801 -14.595) (end 8.801 -7.49) (layer F.SilkS) (width 0.12))
  (fp_line (start 8.841 2.24) (end 8.841 14.585) (layer F.SilkS) (width 0.12))
  (fp_line (start 8.841 -14.585) (end 8.841 -7.49) (layer F.SilkS) (width 0.12))
  (fp_line (start 8.881 2.24) (end 8.881 14.574) (layer F.SilkS) (width 0.12))
  (fp_line (start 8.881 -14.574) (end 8.881 -7.49) (layer F.SilkS) (width 0.12))
  (fp_line (start 8.921 2.24) (end 8.921 14.564) (layer F.SilkS) (width 0.12))
  (fp_line (start 8.921 -14.564) (end 8.921 -7.49) (layer F.SilkS) (width 0.12))
  (fp_line (start 8.961 2.24) (end 8.961 14.553) (layer F.SilkS) (width 0.12))
  (fp_line (start 8.961 -14.553) (end 8.961 -7.49) (layer F.SilkS) (width 0.12))
  (fp_line (start 9.001 2.24) (end 9.001 14.542) (layer F.SilkS) (width 0.12))
  (fp_line (start 9.001 -14.542) (end 9.001 -7.49) (layer F.SilkS) (width 0.12))
  (fp_line (start 9.041 2.24) (end 9.041 14.531) (layer F.SilkS) (width 0.12))
  (fp_line (start 9.041 -14.531) (end 9.041 -7.49) (layer F.SilkS) (width 0.12))
  (fp_line (start 9.081 2.24) (end 9.081 14.52) (layer F.SilkS) (width 0.12))
  (fp_line (start 9.081 -14.52) (end 9.081 -7.49) (layer F.SilkS) (width 0.12))
  (fp_line (start 9.121 2.24) (end 9.121 14.508) (layer F.SilkS) (width 0.12))
  (fp_line (start 9.121 -14.508) (end 9.121 -7.49) (layer F.SilkS) (width 0.12))
  (fp_line (start 9.161 2.24) (end 9.161 14.497) (layer F.SilkS) (width 0.12))
  (fp_line (start 9.161 -14.497) (end 9.161 -7.49) (layer F.SilkS) (width 0.12))
  (fp_line (start 9.201 2.24) (end 9.201 14.485) (layer F.SilkS) (width 0.12))
  (fp_line (start 9.201 -14.485) (end 9.201 -7.49) (layer F.SilkS) (width 0.12))
  (fp_line (start 9.241 2.24) (end 9.241 14.474) (layer F.SilkS) (width 0.12))
  (fp_line (start 9.241 -14.474) (end 9.241 -7.49) (layer F.SilkS) (width 0.12))
  (fp_line (start 9.281 2.24) (end 9.281 14.462) (layer F.SilkS) (width 0.12))
  (fp_line (start 9.281 -14.462) (end 9.281 -7.49) (layer F.SilkS) (width 0.12))
  (fp_line (start 9.321 2.24) (end 9.321 14.45) (layer F.SilkS) (width 0.12))
  (fp_line (start 9.321 -14.45) (end 9.321 -7.49) (layer F.SilkS) (width 0.12))
  (fp_line (start 9.361 2.24) (end 9.361 14.438) (layer F.SilkS) (width 0.12))
  (fp_line (start 9.361 -14.438) (end 9.361 -7.49) (layer F.SilkS) (width 0.12))
  (fp_line (start 9.401 2.24) (end 9.401 14.426) (layer F.SilkS) (width 0.12))
  (fp_line (start 9.401 -14.426) (end 9.401 -7.49) (layer F.SilkS) (width 0.12))
  (fp_line (start 9.441 -14.414) (end 9.441 -2.24) (layer F.SilkS) (width 0.12))
  (fp_line (start 9.441 2.24) (end 9.441 14.414) (layer F.SilkS) (width 0.12))
  (fp_line (start 9.481 -14.402) (end 9.481 -2.24) (layer F.SilkS) (width 0.12))
  (fp_line (start 9.481 2.24) (end 9.481 14.402) (layer F.SilkS) (width 0.12))
  (fp_line (start 9.521 -14.389) (end 9.521 -2.24) (layer F.SilkS) (width 0.12))
  (fp_line (start 9.521 2.24) (end 9.521 14.389) (layer F.SilkS) (width 0.12))
  (fp_line (start 9.561 -14.376) (end 9.561 -2.24) (layer F.SilkS) (width 0.12))
  (fp_line (start 9.561 2.24) (end 9.561 14.376) (layer F.SilkS) (width 0.12))
  (fp_line (start 9.601 -14.364) (end 9.601 -2.24) (layer F.SilkS) (width 0.12))
  (fp_line (start 9.601 2.24) (end 9.601 14.364) (layer F.SilkS) (width 0.12))
  (fp_line (start 9.641 -14.351) (end 9.641 -2.24) (layer F.SilkS) (width 0.12))
  (fp_line (start 9.641 2.24) (end 9.641 14.351) (layer F.SilkS) (width 0.12))
  (fp_line (start 9.681 -14.338) (end 9.681 -2.24) (layer F.SilkS) (width 0.12))
  (fp_line (start 9.681 2.24) (end 9.681 14.338) (layer F.SilkS) (width 0.12))
  (fp_line (start 9.721 -14.325) (end 9.721 -2.24) (layer F.SilkS) (width 0.12))
  (fp_line (start 9.721 2.24) (end 9.721 14.325) (layer F.SilkS) (width 0.12))
  (fp_line (start 9.761 -14.312) (end 9.761 -2.24) (layer F.SilkS) (width 0.12))
  (fp_line (start 9.761 2.24) (end 9.761 14.312) (layer F.SilkS) (width 0.12))
  (fp_line (start 9.801 -14.298) (end 9.801 -2.24) (layer F.SilkS) (width 0.12))
  (fp_line (start 9.801 2.24) (end 9.801 14.298) (layer F.SilkS) (width 0.12))
  (fp_line (start 9.841 -14.285) (end 9.841 -2.24) (layer F.SilkS) (width 0.12))
  (fp_line (start 9.841 2.24) (end 9.841 14.285) (layer F.SilkS) (width 0.12))
  (fp_line (start 9.881 -14.271) (end 9.881 -2.24) (layer F.SilkS) (width 0.12))
  (fp_line (start 9.881 2.24) (end 9.881 14.271) (layer F.SilkS) (width 0.12))
  (fp_line (start 9.921 -14.258) (end 9.921 -2.24) (layer F.SilkS) (width 0.12))
  (fp_line (start 9.921 2.24) (end 9.921 14.258) (layer F.SilkS) (width 0.12))
  (fp_line (start 9.961 -14.244) (end 9.961 -2.24) (layer F.SilkS) (width 0.12))
  (fp_line (start 9.961 2.24) (end 9.961 14.244) (layer F.SilkS) (width 0.12))
  (fp_line (start 10.001 -14.23) (end 10.001 -2.24) (layer F.SilkS) (width 0.12))
  (fp_line (start 10.001 2.24) (end 10.001 14.23) (layer F.SilkS) (width 0.12))
  (fp_line (start 10.041 -14.216) (end 10.041 -2.24) (layer F.SilkS) (width 0.12))
  (fp_line (start 10.041 2.24) (end 10.041 14.216) (layer F.SilkS) (width 0.12))
  (fp_line (start 10.081 -14.202) (end 10.081 -2.24) (layer F.SilkS) (width 0.12))
  (fp_line (start 10.081 2.24) (end 10.081 14.202) (layer F.SilkS) (width 0.12))
  (fp_line (start 10.121 -14.187) (end 10.121 -2.24) (layer F.SilkS) (width 0.12))
  (fp_line (start 10.121 2.24) (end 10.121 14.187) (layer F.SilkS) (width 0.12))
  (fp_line (start 10.161 -14.173) (end 10.161 -2.24) (layer F.SilkS) (width 0.12))
  (fp_line (start 10.161 2.24) (end 10.161 14.173) (layer F.SilkS) (width 0.12))
  (fp_line (start 10.201 -14.158) (end 10.201 -2.24) (layer F.SilkS) (width 0.12))
  (fp_line (start 10.201 2.24) (end 10.201 14.158) (layer F.SilkS) (width 0.12))
  (fp_line (start 10.241 -14.143) (end 10.241 -2.24) (layer F.SilkS) (width 0.12))
  (fp_line (start 10.241 2.24) (end 10.241 14.143) (layer F.SilkS) (width 0.12))
  (fp_line (start 10.281 -14.129) (end 10.281 -2.24) (layer F.SilkS) (width 0.12))
  (fp_line (start 10.281 2.24) (end 10.281 14.129) (layer F.SilkS) (width 0.12))
  (fp_line (start 10.321 -14.114) (end 10.321 -2.24) (layer F.SilkS) (width 0.12))
  (fp_line (start 10.321 2.24) (end 10.321 14.114) (layer F.SilkS) (width 0.12))
  (fp_line (start 10.361 -14.099) (end 10.361 -2.24) (layer F.SilkS) (width 0.12))
  (fp_line (start 10.361 2.24) (end 10.361 14.099) (layer F.SilkS) (width 0.12))
  (fp_line (start 10.401 -14.083) (end 10.401 -2.24) (layer F.SilkS) (width 0.12))
  (fp_line (start 10.401 2.24) (end 10.401 14.083) (layer F.SilkS) (width 0.12))
  (fp_line (start 10.441 -14.068) (end 10.441 -2.24) (layer F.SilkS) (width 0.12))
  (fp_line (start 10.441 2.24) (end 10.441 14.068) (layer F.SilkS) (width 0.12))
  (fp_line (start 10.481 -14.052) (end 10.481 -2.24) (layer F.SilkS) (width 0.12))
  (fp_line (start 10.481 2.24) (end 10.481 14.052) (layer F.SilkS) (width 0.12))
  (fp_line (start 10.521 -14.037) (end 10.521 -2.24) (layer F.SilkS) (width 0.12))
  (fp_line (start 10.521 2.24) (end 10.521 14.037) (layer F.SilkS) (width 0.12))
  (fp_line (start 10.561 -14.021) (end 10.561 -2.24) (layer F.SilkS) (width 0.12))
  (fp_line (start 10.561 2.24) (end 10.561 14.021) (layer F.SilkS) (width 0.12))
  (fp_line (start 10.601 -14.005) (end 10.601 -2.24) (layer F.SilkS) (width 0.12))
  (fp_line (start 10.601 2.24) (end 10.601 14.005) (layer F.SilkS) (width 0.12))
  (fp_line (start 10.641 -13.989) (end 10.641 -2.24) (layer F.SilkS) (width 0.12))
  (fp_line (start 10.641 2.24) (end 10.641 13.989) (layer F.SilkS) (width 0.12))
  (fp_line (start 10.681 -13.973) (end 10.681 -2.24) (layer F.SilkS) (width 0.12))
  (fp_line (start 10.681 2.24) (end 10.681 13.973) (layer F.SilkS) (width 0.12))
  (fp_line (start 10.721 -13.957) (end 10.721 -2.24) (layer F.SilkS) (width 0.12))
  (fp_line (start 10.721 2.24) (end 10.721 13.957) (layer F.SilkS) (width 0.12))
  (fp_line (start 10.761 -13.94) (end 10.761 -2.24) (layer F.SilkS) (width 0.12))
  (fp_line (start 10.761 2.24) (end 10.761 13.94) (layer F.SilkS) (width 0.12))
  (fp_line (start 10.801 -13.924) (end 10.801 -2.24) (layer F.SilkS) (width 0.12))
  (fp_line (start 10.801 2.24) (end 10.801 13.924) (layer F.SilkS) (width 0.12))
  (fp_line (start 10.841 -13.907) (end 10.841 -2.24) (layer F.SilkS) (width 0.12))
  (fp_line (start 10.841 2.24) (end 10.841 13.907) (layer F.SilkS) (width 0.12))
  (fp_line (start 10.881 -13.89) (end 10.881 -2.24) (layer F.SilkS) (width 0.12))
  (fp_line (start 10.881 2.24) (end 10.881 13.89) (layer F.SilkS) (width 0.12))
  (fp_line (start 10.921 -13.873) (end 10.921 -2.24) (layer F.SilkS) (width 0.12))
  (fp_line (start 10.921 2.24) (end 10.921 13.873) (layer F.SilkS) (width 0.12))
  (fp_line (start 10.961 -13.856) (end 10.961 -2.24) (layer F.SilkS) (width 0.12))
  (fp_line (start 10.961 2.24) (end 10.961 13.856) (layer F.SilkS) (width 0.12))
  (fp_line (start 11.001 -13.839) (end 11.001 -2.24) (layer F.SilkS) (width 0.12))
  (fp_line (start 11.001 2.24) (end 11.001 13.839) (layer F.SilkS) (width 0.12))
  (fp_line (start 11.041 -13.822) (end 11.041 -2.24) (layer F.SilkS) (width 0.12))
  (fp_line (start 11.041 2.24) (end 11.041 13.822) (layer F.SilkS) (width 0.12))
  (fp_line (start 11.081 -13.804) (end 11.081 -2.24) (layer F.SilkS) (width 0.12))
  (fp_line (start 11.081 2.24) (end 11.081 13.804) (layer F.SilkS) (width 0.12))
  (fp_line (start 11.121 -13.787) (end 11.121 -2.24) (layer F.SilkS) (width 0.12))
  (fp_line (start 11.121 2.24) (end 11.121 13.787) (layer F.SilkS) (width 0.12))
  (fp_line (start 11.161 -13.769) (end 11.161 -2.24) (layer F.SilkS) (width 0.12))
  (fp_line (start 11.161 2.24) (end 11.161 13.769) (layer F.SilkS) (width 0.12))
  (fp_line (start 11.201 -13.751) (end 11.201 -2.24) (layer F.SilkS) (width 0.12))
  (fp_line (start 11.201 2.24) (end 11.201 13.751) (layer F.SilkS) (width 0.12))
  (fp_line (start 11.241 -13.733) (end 11.241 -2.24) (layer F.SilkS) (width 0.12))
  (fp_line (start 11.241 2.24) (end 11.241 13.733) (layer F.SilkS) (width 0.12))
  (fp_line (start 11.281 -13.715) (end 11.281 -2.24) (layer F.SilkS) (width 0.12))
  (fp_line (start 11.281 2.24) (end 11.281 13.715) (layer F.SilkS) (width 0.12))
  (fp_line (start 11.321 -13.696) (end 11.321 -2.24) (layer F.SilkS) (width 0.12))
  (fp_line (start 11.321 2.24) (end 11.321 13.696) (layer F.SilkS) (width 0.12))
  (fp_line (start 11.361 -13.678) (end 11.361 -2.24) (layer F.SilkS) (width 0.12))
  (fp_line (start 11.361 2.24) (end 11.361 13.678) (layer F.SilkS) (width 0.12))
  (fp_line (start 11.401 -13.659) (end 11.401 -2.24) (layer F.SilkS) (width 0.12))
  (fp_line (start 11.401 2.24) (end 11.401 13.659) (layer F.SilkS) (width 0.12))
  (fp_line (start 11.441 -13.64) (end 11.441 -2.24) (layer F.SilkS) (width 0.12))
  (fp_line (start 11.441 2.24) (end 11.441 13.64) (layer F.SilkS) (width 0.12))
  (fp_line (start 11.481 -13.622) (end 11.481 -2.24) (layer F.SilkS) (width 0.12))
  (fp_line (start 11.481 2.24) (end 11.481 13.622) (layer F.SilkS) (width 0.12))
  (fp_line (start 11.521 -13.602) (end 11.521 -2.24) (layer F.SilkS) (width 0.12))
  (fp_line (start 11.521 2.24) (end 11.521 13.602) (layer F.SilkS) (width 0.12))
  (fp_line (start 11.561 -13.583) (end 11.561 -2.24) (layer F.SilkS) (width 0.12))
  (fp_line (start 11.561 2.24) (end 11.561 13.583) (layer F.SilkS) (width 0.12))
  (fp_line (start 11.601 -13.564) (end 11.601 -2.24) (layer F.SilkS) (width 0.12))
  (fp_line (start 11.601 2.24) (end 11.601 13.564) (layer F.SilkS) (width 0.12))
  (fp_line (start 11.641 -13.544) (end 11.641 -2.24) (layer F.SilkS) (width 0.12))
  (fp_line (start 11.641 2.24) (end 11.641 13.544) (layer F.SilkS) (width 0.12))
  (fp_line (start 11.681 -13.525) (end 11.681 -2.24) (layer F.SilkS) (width 0.12))
  (fp_line (start 11.681 2.24) (end 11.681 13.525) (layer F.SilkS) (width 0.12))
  (fp_line (start 11.721 -13.505) (end 11.721 -2.24) (layer F.SilkS) (width 0.12))
  (fp_line (start 11.721 2.24) (end 11.721 13.505) (layer F.SilkS) (width 0.12))
  (fp_line (start 11.761 -13.485) (end 11.761 -2.24) (layer F.SilkS) (width 0.12))
  (fp_line (start 11.761 2.24) (end 11.761 13.485) (layer F.SilkS) (width 0.12))
  (fp_line (start 11.801 -13.465) (end 11.801 -2.24) (layer F.SilkS) (width 0.12))
  (fp_line (start 11.801 2.24) (end 11.801 13.465) (layer F.SilkS) (width 0.12))
  (fp_line (start 11.841 -13.445) (end 11.841 -2.24) (layer F.SilkS) (width 0.12))
  (fp_line (start 11.841 2.24) (end 11.841 13.445) (layer F.SilkS) (width 0.12))
  (fp_line (start 11.881 -13.425) (end 11.881 -2.24) (layer F.SilkS) (width 0.12))
  (fp_line (start 11.881 2.24) (end 11.881 13.425) (layer F.SilkS) (width 0.12))
  (fp_line (start 11.921 -13.404) (end 11.921 -2.24) (layer F.SilkS) (width 0.12))
  (fp_line (start 11.921 2.24) (end 11.921 13.404) (layer F.SilkS) (width 0.12))
  (fp_line (start 11.961 -13.383) (end 11.961 -2.24) (layer F.SilkS) (width 0.12))
  (fp_line (start 11.961 2.24) (end 11.961 13.383) (layer F.SilkS) (width 0.12))
  (fp_line (start 12.001 -13.363) (end 12.001 -2.24) (layer F.SilkS) (width 0.12))
  (fp_line (start 12.001 2.24) (end 12.001 13.363) (layer F.SilkS) (width 0.12))
  (fp_line (start 12.041 -13.342) (end 12.041 -2.24) (layer F.SilkS) (width 0.12))
  (fp_line (start 12.041 2.24) (end 12.041 13.342) (layer F.SilkS) (width 0.12))
  (fp_line (start 12.081 -13.32) (end 12.081 -2.24) (layer F.SilkS) (width 0.12))
  (fp_line (start 12.081 2.24) (end 12.081 13.32) (layer F.SilkS) (width 0.12))
  (fp_line (start 12.121 -13.299) (end 12.121 -2.24) (layer F.SilkS) (width 0.12))
  (fp_line (start 12.121 2.24) (end 12.121 13.299) (layer F.SilkS) (width 0.12))
  (fp_line (start 12.161 -13.278) (end 12.161 -2.24) (layer F.SilkS) (width 0.12))
  (fp_line (start 12.161 2.24) (end 12.161 13.278) (layer F.SilkS) (width 0.12))
  (fp_line (start 12.201 -13.256) (end 12.201 -2.24) (layer F.SilkS) (width 0.12))
  (fp_line (start 12.201 2.24) (end 12.201 13.256) (layer F.SilkS) (width 0.12))
  (fp_line (start 12.241 -13.234) (end 12.241 13.234) (layer F.SilkS) (width 0.12))
  (fp_line (start 12.281 -13.213) (end 12.281 13.213) (layer F.SilkS) (width 0.12))
  (fp_line (start 12.321 -13.19) (end 12.321 13.19) (layer F.SilkS) (width 0.12))
  (fp_line (start 12.361 -13.168) (end 12.361 13.168) (layer F.SilkS) (width 0.12))
  (fp_line (start 12.401 -13.146) (end 12.401 13.146) (layer F.SilkS) (width 0.12))
  (fp_line (start 12.441 -13.123) (end 12.441 13.123) (layer F.SilkS) (width 0.12))
  (fp_line (start 12.481 -13.101) (end 12.481 13.101) (layer F.SilkS) (width 0.12))
  (fp_line (start 12.521 -13.078) (end 12.521 13.078) (layer F.SilkS) (width 0.12))
  (fp_line (start 12.561 -13.055) (end 12.561 13.055) (layer F.SilkS) (width 0.12))
  (fp_line (start 12.601 -13.032) (end 12.601 13.032) (layer F.SilkS) (width 0.12))
  (fp_line (start 12.641 -13.008) (end 12.641 13.008) (layer F.SilkS) (width 0.12))
  (fp_line (start 12.681 -12.985) (end 12.681 12.985) (layer F.SilkS) (width 0.12))
  (fp_line (start 12.721 -12.961) (end 12.721 12.961) (layer F.SilkS) (width 0.12))
  (fp_line (start 12.761 -12.937) (end 12.761 12.937) (layer F.SilkS) (width 0.12))
  (fp_line (start 12.801 -12.913) (end 12.801 12.913) (layer F.SilkS) (width 0.12))
  (fp_line (start 12.841 -12.889) (end 12.841 12.889) (layer F.SilkS) (width 0.12))
  (fp_line (start 12.881 -12.865) (end 12.881 12.865) (layer F.SilkS) (width 0.12))
  (fp_line (start 12.921 -12.84) (end 12.921 12.84) (layer F.SilkS) (width 0.12))
  (fp_line (start 12.961 -12.816) (end 12.961 12.816) (layer F.SilkS) (width 0.12))
  (fp_line (start 13.001 -12.791) (end 13.001 12.791) (layer F.SilkS) (width 0.12))
  (fp_line (start 13.041 -12.766) (end 13.041 12.766) (layer F.SilkS) (width 0.12))
  (fp_line (start 13.081 -12.74) (end 13.081 12.74) (layer F.SilkS) (width 0.12))
  (fp_line (start 13.121 -12.715) (end 13.121 12.715) (layer F.SilkS) (width 0.12))
  (fp_line (start 13.161 -12.69) (end 13.161 12.69) (layer F.SilkS) (width 0.12))
  (fp_line (start 13.2 -12.664) (end 13.2 12.664) (layer F.SilkS) (width 0.12))
  (fp_line (start 13.24 -12.638) (end 13.24 12.638) (layer F.SilkS) (width 0.12))
  (fp_line (start 13.28 -12.612) (end 13.28 12.612) (layer F.SilkS) (width 0.12))
  (fp_line (start 13.32 -12.586) (end 13.32 12.586) (layer F.SilkS) (width 0.12))
  (fp_line (start 13.36 -12.559) (end 13.36 12.559) (layer F.SilkS) (width 0.12))
  (fp_line (start 13.4 -12.532) (end 13.4 12.532) (layer F.SilkS) (width 0.12))
  (fp_line (start 13.44 -12.506) (end 13.44 12.506) (layer F.SilkS) (width 0.12))
  (fp_line (start 13.48 -12.479) (end 13.48 12.479) (layer F.SilkS) (width 0.12))
  (fp_line (start 13.52 -12.451) (end 13.52 12.451) (layer F.SilkS) (width 0.12))
  (fp_line (start 13.56 -12.424) (end 13.56 12.424) (layer F.SilkS) (width 0.12))
  (fp_line (start 13.6 -12.397) (end 13.6 12.397) (layer F.SilkS) (width 0.12))
  (fp_line (start 13.64 -12.369) (end 13.64 12.369) (layer F.SilkS) (width 0.12))
  (fp_line (start 13.68 -12.341) (end 13.68 12.341) (layer F.SilkS) (width 0.12))
  (fp_line (start 13.72 -12.313) (end 13.72 12.313) (layer F.SilkS) (width 0.12))
  (fp_line (start 13.76 -12.284) (end 13.76 12.284) (layer F.SilkS) (width 0.12))
  (fp_line (start 13.8 -12.256) (end 13.8 12.256) (layer F.SilkS) (width 0.12))
  (fp_line (start 13.84 -12.227) (end 13.84 12.227) (layer F.SilkS) (width 0.12))
  (fp_line (start 13.88 -12.198) (end 13.88 12.198) (layer F.SilkS) (width 0.12))
  (fp_line (start 13.92 -12.169) (end 13.92 12.169) (layer F.SilkS) (width 0.12))
  (fp_line (start 13.96 -12.14) (end 13.96 12.14) (layer F.SilkS) (width 0.12))
  (fp_line (start 14 -12.11) (end 14 12.11) (layer F.SilkS) (width 0.12))
  (fp_line (start 14.04 -12.08) (end 14.04 12.08) (layer F.SilkS) (width 0.12))
  (fp_line (start 14.08 -12.05) (end 14.08 12.05) (layer F.SilkS) (width 0.12))
  (fp_line (start 14.12 -12.02) (end 14.12 12.02) (layer F.SilkS) (width 0.12))
  (fp_line (start 14.16 -11.99) (end 14.16 11.99) (layer F.SilkS) (width 0.12))
  (fp_line (start 14.2 -11.959) (end 14.2 11.959) (layer F.SilkS) (width 0.12))
  (fp_line (start 14.24 -11.929) (end 14.24 11.929) (layer F.SilkS) (width 0.12))
  (fp_line (start 14.28 -11.898) (end 14.28 11.898) (layer F.SilkS) (width 0.12))
  (fp_line (start 14.32 -11.866) (end 14.32 11.866) (layer F.SilkS) (width 0.12))
  (fp_line (start 14.36 -11.835) (end 14.36 11.835) (layer F.SilkS) (width 0.12))
  (fp_line (start 14.4 -11.803) (end 14.4 11.803) (layer F.SilkS) (width 0.12))
  (fp_line (start 14.44 -11.772) (end 14.44 11.772) (layer F.SilkS) (width 0.12))
  (fp_line (start 14.48 -11.739) (end 14.48 11.739) (layer F.SilkS) (width 0.12))
  (fp_line (start 14.52 -11.707) (end 14.52 11.707) (layer F.SilkS) (width 0.12))
  (fp_line (start 14.56 -11.675) (end 14.56 11.675) (layer F.SilkS) (width 0.12))
  (fp_line (start 14.6 -11.642) (end 14.6 11.642) (layer F.SilkS) (width 0.12))
  (fp_line (start 14.64 -11.609) (end 14.64 11.609) (layer F.SilkS) (width 0.12))
  (fp_line (start 14.68 -11.576) (end 14.68 11.576) (layer F.SilkS) (width 0.12))
  (fp_line (start 14.72 -11.542) (end 14.72 11.542) (layer F.SilkS) (width 0.12))
  (fp_line (start 14.76 -11.509) (end 14.76 11.509) (layer F.SilkS) (width 0.12))
  (fp_line (start 14.8 -11.475) (end 14.8 11.475) (layer F.SilkS) (width 0.12))
  (fp_line (start 14.84 -11.44) (end 14.84 11.44) (layer F.SilkS) (width 0.12))
  (fp_line (start 14.88 -11.406) (end 14.88 11.406) (layer F.SilkS) (width 0.12))
  (fp_line (start 14.92 -11.371) (end 14.92 11.371) (layer F.SilkS) (width 0.12))
  (fp_line (start 14.96 -11.336) (end 14.96 11.336) (layer F.SilkS) (width 0.12))
  (fp_line (start 15 -11.301) (end 15 11.301) (layer F.SilkS) (width 0.12))
  (fp_line (start 15.04 -11.266) (end 15.04 11.266) (layer F.SilkS) (width 0.12))
  (fp_line (start 15.08 -11.23) (end 15.08 11.23) (layer F.SilkS) (width 0.12))
  (fp_line (start 15.12 -11.194) (end 15.12 11.194) (layer F.SilkS) (width 0.12))
  (fp_line (start 15.16 -11.158) (end 15.16 11.158) (layer F.SilkS) (width 0.12))
  (fp_line (start 15.2 -11.122) (end 15.2 11.122) (layer F.SilkS) (width 0.12))
  (fp_line (start 15.24 -11.085) (end 15.24 11.085) (layer F.SilkS) (width 0.12))
  (fp_line (start 15.28 -11.048) (end 15.28 11.048) (layer F.SilkS) (width 0.12))
  (fp_line (start 15.32 -11.011) (end 15.32 11.011) (layer F.SilkS) (width 0.12))
  (fp_line (start 15.36 -10.973) (end 15.36 10.973) (layer F.SilkS) (width 0.12))
  (fp_line (start 15.4 -10.936) (end 15.4 10.936) (layer F.SilkS) (width 0.12))
  (fp_line (start 15.44 -10.898) (end 15.44 10.898) (layer F.SilkS) (width 0.12))
  (fp_line (start 15.48 -10.859) (end 15.48 10.859) (layer F.SilkS) (width 0.12))
  (fp_line (start 15.52 -10.821) (end 15.52 10.821) (layer F.SilkS) (width 0.12))
  (fp_line (start 15.56 -10.782) (end 15.56 10.782) (layer F.SilkS) (width 0.12))
  (fp_line (start 15.6 -10.743) (end 15.6 10.743) (layer F.SilkS) (width 0.12))
  (fp_line (start 15.64 -10.703) (end 15.64 10.703) (layer F.SilkS) (width 0.12))
  (fp_line (start 15.68 -10.663) (end 15.68 10.663) (layer F.SilkS) (width 0.12))
  (fp_line (start 15.72 -10.623) (end 15.72 10.623) (layer F.SilkS) (width 0.12))
  (fp_line (start 15.76 -10.583) (end 15.76 10.583) (layer F.SilkS) (width 0.12))
  (fp_line (start 15.8 -10.542) (end 15.8 10.542) (layer F.SilkS) (width 0.12))
  (fp_line (start 15.84 -10.501) (end 15.84 10.501) (layer F.SilkS) (width 0.12))
  (fp_line (start 15.88 -10.46) (end 15.88 10.46) (layer F.SilkS) (width 0.12))
  (fp_line (start 15.92 -10.418) (end 15.92 10.418) (layer F.SilkS) (width 0.12))
  (fp_line (start 15.96 -10.376) (end 15.96 10.376) (layer F.SilkS) (width 0.12))
  (fp_line (start 16 -10.334) (end 16 10.334) (layer F.SilkS) (width 0.12))
  (fp_line (start 16.04 -10.292) (end 16.04 10.292) (layer F.SilkS) (width 0.12))
  (fp_line (start 16.08 -10.249) (end 16.08 10.249) (layer F.SilkS) (width 0.12))
  (fp_line (start 16.12 -10.205) (end 16.12 10.205) (layer F.SilkS) (width 0.12))
  (fp_line (start 16.16 -10.162) (end 16.16 10.162) (layer F.SilkS) (width 0.12))
  (fp_line (start 16.2 -10.118) (end 16.2 10.118) (layer F.SilkS) (width 0.12))
  (fp_line (start 16.24 -10.074) (end 16.24 10.074) (layer F.SilkS) (width 0.12))
  (fp_line (start 16.28 -10.029) (end 16.28 10.029) (layer F.SilkS) (width 0.12))
  (fp_line (start 16.32 -9.984) (end 16.32 9.984) (layer F.SilkS) (width 0.12))
  (fp_line (start 16.36 -9.939) (end 16.36 9.939) (layer F.SilkS) (width 0.12))
  (fp_line (start 16.4 -9.893) (end 16.4 9.893) (layer F.SilkS) (width 0.12))
  (fp_line (start 16.44 -9.847) (end 16.44 9.847) (layer F.SilkS) (width 0.12))
  (fp_line (start 16.48 -9.8) (end 16.48 9.8) (layer F.SilkS) (width 0.12))
  (fp_line (start 16.52 -9.754) (end 16.52 9.754) (layer F.SilkS) (width 0.12))
  (fp_line (start 16.56 -9.706) (end 16.56 9.706) (layer F.SilkS) (width 0.12))
  (fp_line (start 16.6 -9.659) (end 16.6 9.659) (layer F.SilkS) (width 0.12))
  (fp_line (start 16.64 -9.611) (end 16.64 9.611) (layer F.SilkS) (width 0.12))
  (fp_line (start 16.68 -9.562) (end 16.68 9.562) (layer F.SilkS) (width 0.12))
  (fp_line (start 16.72 -9.513) (end 16.72 9.513) (layer F.SilkS) (width 0.12))
  (fp_line (start 16.76 -9.464) (end 16.76 9.464) (layer F.SilkS) (width 0.12))
  (fp_line (start 16.8 -9.414) (end 16.8 9.414) (layer F.SilkS) (width 0.12))
  (fp_line (start 16.84 -9.364) (end 16.84 9.364) (layer F.SilkS) (width 0.12))
  (fp_line (start 16.88 -9.314) (end 16.88 9.314) (layer F.SilkS) (width 0.12))
  (fp_line (start 16.92 -9.263) (end 16.92 9.263) (layer F.SilkS) (width 0.12))
  (fp_line (start 16.96 -9.211) (end 16.96 9.211) (layer F.SilkS) (width 0.12))
  (fp_line (start 17 -9.159) (end 17 9.159) (layer F.SilkS) (width 0.12))
  (fp_line (start 17.04 -9.107) (end 17.04 9.107) (layer F.SilkS) (width 0.12))
  (fp_line (start 17.08 -9.054) (end 17.08 9.054) (layer F.SilkS) (width 0.12))
  (fp_line (start 17.12 -9) (end 17.12 9) (layer F.SilkS) (width 0.12))
  (fp_line (start 17.16 -8.947) (end 17.16 8.947) (layer F.SilkS) (width 0.12))
  (fp_line (start 17.2 -8.892) (end 17.2 8.892) (layer F.SilkS) (width 0.12))
  (fp_line (start 17.24 -8.837) (end 17.24 8.837) (layer F.SilkS) (width 0.12))
  (fp_line (start 17.28 -8.782) (end 17.28 8.782) (layer F.SilkS) (width 0.12))
  (fp_line (start 17.32 -8.726) (end 17.32 8.726) (layer F.SilkS) (width 0.12))
  (fp_line (start 17.36 -8.669) (end 17.36 8.669) (layer F.SilkS) (width 0.12))
  (fp_line (start 17.4 -8.612) (end 17.4 8.612) (layer F.SilkS) (width 0.12))
  (fp_line (start 17.44 -8.555) (end 17.44 8.555) (layer F.SilkS) (width 0.12))
  (fp_line (start 17.48 -8.497) (end 17.48 8.497) (layer F.SilkS) (width 0.12))
  (fp_line (start 17.52 -8.438) (end 17.52 8.438) (layer F.SilkS) (width 0.12))
  (fp_line (start 17.56 -8.378) (end 17.56 8.378) (layer F.SilkS) (width 0.12))
  (fp_line (start 17.6 -8.318) (end 17.6 8.318) (layer F.SilkS) (width 0.12))
  (fp_line (start 17.64 -8.258) (end 17.64 8.258) (layer F.SilkS) (width 0.12))
  (fp_line (start 17.68 -8.197) (end 17.68 8.197) (layer F.SilkS) (width 0.12))
  (fp_line (start 17.72 -8.135) (end 17.72 8.135) (layer F.SilkS) (width 0.12))
  (fp_line (start 17.76 -8.072) (end 17.76 8.072) (layer F.SilkS) (width 0.12))
  (fp_line (start 17.8 -8.009) (end 17.8 8.009) (layer F.SilkS) (width 0.12))
  (fp_line (start 17.84 -7.945) (end 17.84 7.945) (layer F.SilkS) (width 0.12))
  (fp_line (start 17.88 -7.88) (end 17.88 7.88) (layer F.SilkS) (width 0.12))
  (fp_line (start 17.92 -7.815) (end 17.92 7.815) (layer F.SilkS) (width 0.12))
  (fp_line (start 17.96 -7.748) (end 17.96 7.748) (layer F.SilkS) (width 0.12))
  (fp_line (start 18 -7.682) (end 18 7.682) (layer F.SilkS) (width 0.12))
  (fp_line (start 18.04 -7.614) (end 18.04 7.614) (layer F.SilkS) (width 0.12))
  (fp_line (start 18.08 -7.545) (end 18.08 7.545) (layer F.SilkS) (width 0.12))
  (fp_line (start 18.12 -7.476) (end 18.12 7.476) (layer F.SilkS) (width 0.12))
  (fp_line (start 18.16 -7.406) (end 18.16 7.406) (layer F.SilkS) (width 0.12))
  (fp_line (start 18.2 -7.334) (end 18.2 7.334) (layer F.SilkS) (width 0.12))
  (fp_line (start 18.24 -7.262) (end 18.24 7.262) (layer F.SilkS) (width 0.12))
  (fp_line (start 18.28 -7.189) (end 18.28 7.189) (layer F.SilkS) (width 0.12))
  (fp_line (start 18.32 -7.115) (end 18.32 7.115) (layer F.SilkS) (width 0.12))
  (fp_line (start 18.36 -7.04) (end 18.36 7.04) (layer F.SilkS) (width 0.12))
  (fp_line (start 18.4 -6.964) (end 18.4 6.964) (layer F.SilkS) (width 0.12))
  (fp_line (start 18.44 -6.887) (end 18.44 6.887) (layer F.SilkS) (width 0.12))
  (fp_line (start 18.48 -6.809) (end 18.48 6.809) (layer F.SilkS) (width 0.12))
  (fp_line (start 18.52 -6.73) (end 18.52 6.73) (layer F.SilkS) (width 0.12))
  (fp_line (start 18.56 -6.649) (end 18.56 6.649) (layer F.SilkS) (width 0.12))
  (fp_line (start 18.6 -6.568) (end 18.6 6.568) (layer F.SilkS) (width 0.12))
  (fp_line (start 18.64 -6.485) (end 18.64 6.485) (layer F.SilkS) (width 0.12))
  (fp_line (start 18.68 -6.4) (end 18.68 6.4) (layer F.SilkS) (width 0.12))
  (fp_line (start 18.72 -6.315) (end 18.72 6.315) (layer F.SilkS) (width 0.12))
  (fp_line (start 18.76 -6.228) (end 18.76 6.228) (layer F.SilkS) (width 0.12))
  (fp_line (start 18.8 -6.139) (end 18.8 6.139) (layer F.SilkS) (width 0.12))
  (fp_line (start 18.84 -6.049) (end 18.84 6.049) (layer F.SilkS) (width 0.12))
  (fp_line (start 18.88 -5.957) (end 18.88 5.957) (layer F.SilkS) (width 0.12))
  (fp_line (start 18.92 -5.864) (end 18.92 5.864) (layer F.SilkS) (width 0.12))
  (fp_line (start 18.96 -5.768) (end 18.96 5.768) (layer F.SilkS) (width 0.12))
  (fp_line (start 19 -5.671) (end 19 5.671) (layer F.SilkS) (width 0.12))
  (fp_line (start 19.04 -5.572) (end 19.04 5.572) (layer F.SilkS) (width 0.12))
  (fp_line (start 19.08 -5.471) (end 19.08 5.471) (layer F.SilkS) (width 0.12))
  (fp_line (start 19.12 -5.368) (end 19.12 5.368) (layer F.SilkS) (width 0.12))
  (fp_line (start 19.16 -5.262) (end 19.16 5.262) (layer F.SilkS) (width 0.12))
  (fp_line (start 19.2 -5.154) (end 19.2 5.154) (layer F.SilkS) (width 0.12))
  (fp_line (start 19.24 -5.043) (end 19.24 5.043) (layer F.SilkS) (width 0.12))
  (fp_line (start 19.28 -4.93) (end 19.28 4.93) (layer F.SilkS) (width 0.12))
  (fp_line (start 19.32 -4.814) (end 19.32 4.814) (layer F.SilkS) (width 0.12))
  (fp_line (start 19.36 -4.694) (end 19.36 4.694) (layer F.SilkS) (width 0.12))
  (fp_line (start 19.4 -4.571) (end 19.4 4.571) (layer F.SilkS) (width 0.12))
  (fp_line (start 19.44 -4.444) (end 19.44 4.444) (layer F.SilkS) (width 0.12))
  (fp_line (start 19.48 -4.313) (end 19.48 4.313) (layer F.SilkS) (width 0.12))
  (fp_line (start 19.52 -4.178) (end 19.52 4.178) (layer F.SilkS) (width 0.12))
  (fp_line (start 19.56 -4.037) (end 19.56 4.037) (layer F.SilkS) (width 0.12))
  (fp_line (start 19.6 -3.892) (end 19.6 3.892) (layer F.SilkS) (width 0.12))
  (fp_line (start 19.64 -3.74) (end 19.64 3.74) (layer F.SilkS) (width 0.12))
  (fp_line (start 19.68 -3.582) (end 19.68 3.582) (layer F.SilkS) (width 0.12))
  (fp_line (start 19.72 -3.415) (end 19.72 3.415) (layer F.SilkS) (width 0.12))
  (fp_line (start 19.76 -3.24) (end 19.76 3.24) (layer F.SilkS) (width 0.12))
  (fp_line (start 19.8 -3.055) (end 19.8 3.055) (layer F.SilkS) (width 0.12))
  (fp_line (start 19.84 -2.857) (end 19.84 2.857) (layer F.SilkS) (width 0.12))
  (fp_line (start 19.88 -2.644) (end 19.88 2.644) (layer F.SilkS) (width 0.12))
  (fp_line (start 19.92 -2.412) (end 19.92 2.412) (layer F.SilkS) (width 0.12))
  (fp_line (start 19.96 -2.154) (end 19.96 2.154) (layer F.SilkS) (width 0.12))
  (fp_line (start 20 -1.862) (end 20 1.862) (layer F.SilkS) (width 0.12))
  (fp_line (start 20.04 -1.514) (end 20.04 1.514) (layer F.SilkS) (width 0.12))
  (fp_line (start 20.08 -1.06) (end 20.08 1.06) (layer F.SilkS) (width 0.12))
  (fp_line (start 20.12 -0.04) (end 20.12 0.04) (layer F.SilkS) (width 0.12))
  (fp_line (start -11.179131 -8.475) (end -8.179131 -8.475) (layer F.SilkS) (width 0.12))
  (fp_line (start -9.679131 -9.975) (end -9.679131 -6.975) (layer F.SilkS) (width 0.12))
  (pad 2 thru_hole circle (at 6.7 -4.75) (size 5 5) (drill 2.5) (layers *.Cu *.Mask))
  (pad 2 thru_hole circle (at 10 0) (size 4 4) (drill 2) (layers *.Cu *.Mask))
  (pad 1 thru_hole rect (at 0 0) (size 4 4) (drill 2) (layers *.Cu *.Mask))
  (model ${KISYS3DMOD}/Capacitor_THT.3dshapes/CP_Radial_D30.0mm_P10.00mm_3pin_SnapIn.wrl
    (at (xyz 0 0 0))
    (scale (xyz 1 1 1))
    (rotate (xyz 0 0 0))
  )
)
