(module CP_Radial_D35.0mm_P10.00mm_3pin_SnapIn (layer F.Cu) (tedit 5AE50EF2)
  (descr "CP, Radial series, Radial, pin pitch=10.00mm, , diameter=35mm, Electrolytic Capacitor, , http://www.vishay.com/docs/28342/058059pll-si.pdf")
  (tags "CP Radial series Radial pin pitch 10.00mm  diameter 35mm Electrolytic Capacitor")
  (fp_text reference REF** (at 5 -18.75) (layer F.SilkS)
    (effects (font (size 1 1) (thickness 0.15)))
  )
  (fp_text value CP_Radial_D35.0mm_P10.00mm_3pin_SnapIn (at 5 18.75) (layer F.Fab)
    (effects (font (size 1 1) (thickness 0.15)))
  )
  (fp_text user %R (at 5 0) (layer F.Fab)
    (effects (font (size 1 1) (thickness 0.15)))
  )
  (fp_circle (center 5 0) (end 22.5 0) (layer F.Fab) (width 0.1))
  (fp_circle (center 5 0) (end 22.62 0) (layer F.SilkS) (width 0.12))
  (fp_circle (center 5 0) (end 22.75 0) (layer F.CrtYd) (width 0.05))
  (fp_line (start -10.065141 -7.6875) (end -6.565141 -7.6875) (layer F.Fab) (width 0.1))
  (fp_line (start -8.315141 -9.4375) (end -8.315141 -5.9375) (layer F.Fab) (width 0.1))
  (fp_line (start 5 -17.58) (end 5 -7.49) (layer F.SilkS) (width 0.12))
  (fp_line (start 5 -2.01) (end 5 17.58) (layer F.SilkS) (width 0.12))
  (fp_line (start 5.04 -17.58) (end 5.04 -7.49) (layer F.SilkS) (width 0.12))
  (fp_line (start 5.04 -2.01) (end 5.04 17.58) (layer F.SilkS) (width 0.12))
  (fp_line (start 5.08 -17.58) (end 5.08 -7.49) (layer F.SilkS) (width 0.12))
  (fp_line (start 5.08 -2.01) (end 5.08 17.58) (layer F.SilkS) (width 0.12))
  (fp_line (start 5.12 -17.58) (end 5.12 -7.49) (layer F.SilkS) (width 0.12))
  (fp_line (start 5.12 -2.01) (end 5.12 17.58) (layer F.SilkS) (width 0.12))
  (fp_line (start 5.16 -17.58) (end 5.16 -7.49) (layer F.SilkS) (width 0.12))
  (fp_line (start 5.16 -2.01) (end 5.16 17.58) (layer F.SilkS) (width 0.12))
  (fp_line (start 5.2 -17.579) (end 5.2 -7.49) (layer F.SilkS) (width 0.12))
  (fp_line (start 5.2 -2.01) (end 5.2 17.579) (layer F.SilkS) (width 0.12))
  (fp_line (start 5.24 -17.579) (end 5.24 -7.49) (layer F.SilkS) (width 0.12))
  (fp_line (start 5.24 -2.01) (end 5.24 17.579) (layer F.SilkS) (width 0.12))
  (fp_line (start 5.28 -17.578) (end 5.28 -7.49) (layer F.SilkS) (width 0.12))
  (fp_line (start 5.28 -2.01) (end 5.28 17.578) (layer F.SilkS) (width 0.12))
  (fp_line (start 5.32 -17.578) (end 5.32 -7.49) (layer F.SilkS) (width 0.12))
  (fp_line (start 5.32 -2.01) (end 5.32 17.578) (layer F.SilkS) (width 0.12))
  (fp_line (start 5.36 -17.577) (end 5.36 -7.49) (layer F.SilkS) (width 0.12))
  (fp_line (start 5.36 -2.01) (end 5.36 17.577) (layer F.SilkS) (width 0.12))
  (fp_line (start 5.4 -17.576) (end 5.4 -7.49) (layer F.SilkS) (width 0.12))
  (fp_line (start 5.4 -2.01) (end 5.4 17.576) (layer F.SilkS) (width 0.12))
  (fp_line (start 5.44 -17.575) (end 5.44 -7.49) (layer F.SilkS) (width 0.12))
  (fp_line (start 5.44 -2.01) (end 5.44 17.575) (layer F.SilkS) (width 0.12))
  (fp_line (start 5.48 -17.574) (end 5.48 -7.49) (layer F.SilkS) (width 0.12))
  (fp_line (start 5.48 -2.01) (end 5.48 17.574) (layer F.SilkS) (width 0.12))
  (fp_line (start 5.52 -17.573) (end 5.52 -7.49) (layer F.SilkS) (width 0.12))
  (fp_line (start 5.52 -2.01) (end 5.52 17.573) (layer F.SilkS) (width 0.12))
  (fp_line (start 5.56 -17.572) (end 5.56 -7.49) (layer F.SilkS) (width 0.12))
  (fp_line (start 5.56 -2.01) (end 5.56 17.572) (layer F.SilkS) (width 0.12))
  (fp_line (start 5.6 -17.57) (end 5.6 -7.49) (layer F.SilkS) (width 0.12))
  (fp_line (start 5.6 -2.01) (end 5.6 17.57) (layer F.SilkS) (width 0.12))
  (fp_line (start 5.64 -17.569) (end 5.64 -7.49) (layer F.SilkS) (width 0.12))
  (fp_line (start 5.64 -2.01) (end 5.64 17.569) (layer F.SilkS) (width 0.12))
  (fp_line (start 5.68 -17.567) (end 5.68 -7.49) (layer F.SilkS) (width 0.12))
  (fp_line (start 5.68 -2.01) (end 5.68 17.567) (layer F.SilkS) (width 0.12))
  (fp_line (start 5.721 -17.566) (end 5.721 -7.49) (layer F.SilkS) (width 0.12))
  (fp_line (start 5.721 -2.01) (end 5.721 17.566) (layer F.SilkS) (width 0.12))
  (fp_line (start 5.761 -17.564) (end 5.761 -7.49) (layer F.SilkS) (width 0.12))
  (fp_line (start 5.761 -2.01) (end 5.761 17.564) (layer F.SilkS) (width 0.12))
  (fp_line (start 5.801 -17.562) (end 5.801 -7.49) (layer F.SilkS) (width 0.12))
  (fp_line (start 5.801 -2.01) (end 5.801 17.562) (layer F.SilkS) (width 0.12))
  (fp_line (start 5.841 -17.56) (end 5.841 -7.49) (layer F.SilkS) (width 0.12))
  (fp_line (start 5.841 -2.01) (end 5.841 17.56) (layer F.SilkS) (width 0.12))
  (fp_line (start 5.881 -17.559) (end 5.881 -7.49) (layer F.SilkS) (width 0.12))
  (fp_line (start 5.881 -2.01) (end 5.881 17.559) (layer F.SilkS) (width 0.12))
  (fp_line (start 5.921 -17.556) (end 5.921 -7.49) (layer F.SilkS) (width 0.12))
  (fp_line (start 5.921 -2.01) (end 5.921 17.556) (layer F.SilkS) (width 0.12))
  (fp_line (start 5.961 -17.554) (end 5.961 -7.49) (layer F.SilkS) (width 0.12))
  (fp_line (start 5.961 -2.01) (end 5.961 17.554) (layer F.SilkS) (width 0.12))
  (fp_line (start 6.001 -17.552) (end 6.001 -7.49) (layer F.SilkS) (width 0.12))
  (fp_line (start 6.001 -2.01) (end 6.001 17.552) (layer F.SilkS) (width 0.12))
  (fp_line (start 6.041 -17.55) (end 6.041 -7.49) (layer F.SilkS) (width 0.12))
  (fp_line (start 6.041 -2.01) (end 6.041 17.55) (layer F.SilkS) (width 0.12))
  (fp_line (start 6.081 -17.547) (end 6.081 -7.49) (layer F.SilkS) (width 0.12))
  (fp_line (start 6.081 -2.01) (end 6.081 17.547) (layer F.SilkS) (width 0.12))
  (fp_line (start 6.121 -17.545) (end 6.121 -7.49) (layer F.SilkS) (width 0.12))
  (fp_line (start 6.121 -2.01) (end 6.121 17.545) (layer F.SilkS) (width 0.12))
  (fp_line (start 6.161 -17.542) (end 6.161 -7.49) (layer F.SilkS) (width 0.12))
  (fp_line (start 6.161 -2.01) (end 6.161 17.542) (layer F.SilkS) (width 0.12))
  (fp_line (start 6.201 -17.54) (end 6.201 -7.49) (layer F.SilkS) (width 0.12))
  (fp_line (start 6.201 -2.01) (end 6.201 17.54) (layer F.SilkS) (width 0.12))
  (fp_line (start 6.241 -17.537) (end 6.241 -7.49) (layer F.SilkS) (width 0.12))
  (fp_line (start 6.241 -2.01) (end 6.241 17.537) (layer F.SilkS) (width 0.12))
  (fp_line (start 6.281 -17.534) (end 6.281 -7.49) (layer F.SilkS) (width 0.12))
  (fp_line (start 6.281 -2.01) (end 6.281 17.534) (layer F.SilkS) (width 0.12))
  (fp_line (start 6.321 -17.531) (end 6.321 -7.49) (layer F.SilkS) (width 0.12))
  (fp_line (start 6.321 -2.01) (end 6.321 17.531) (layer F.SilkS) (width 0.12))
  (fp_line (start 6.361 -17.528) (end 6.361 -7.49) (layer F.SilkS) (width 0.12))
  (fp_line (start 6.361 -2.01) (end 6.361 17.528) (layer F.SilkS) (width 0.12))
  (fp_line (start 6.401 -17.525) (end 6.401 -7.49) (layer F.SilkS) (width 0.12))
  (fp_line (start 6.401 -2.01) (end 6.401 17.525) (layer F.SilkS) (width 0.12))
  (fp_line (start 6.441 -17.522) (end 6.441 -7.49) (layer F.SilkS) (width 0.12))
  (fp_line (start 6.441 -2.01) (end 6.441 17.522) (layer F.SilkS) (width 0.12))
  (fp_line (start 6.481 -17.518) (end 6.481 -7.49) (layer F.SilkS) (width 0.12))
  (fp_line (start 6.481 -2.01) (end 6.481 17.518) (layer F.SilkS) (width 0.12))
  (fp_line (start 6.521 -17.515) (end 6.521 -7.49) (layer F.SilkS) (width 0.12))
  (fp_line (start 6.521 -2.01) (end 6.521 17.515) (layer F.SilkS) (width 0.12))
  (fp_line (start 6.561 -17.511) (end 6.561 -7.49) (layer F.SilkS) (width 0.12))
  (fp_line (start 6.561 -2.01) (end 6.561 17.511) (layer F.SilkS) (width 0.12))
  (fp_line (start 6.601 -17.508) (end 6.601 -7.49) (layer F.SilkS) (width 0.12))
  (fp_line (start 6.601 -2.01) (end 6.601 17.508) (layer F.SilkS) (width 0.12))
  (fp_line (start 6.641 -17.504) (end 6.641 -7.49) (layer F.SilkS) (width 0.12))
  (fp_line (start 6.641 -2.01) (end 6.641 17.504) (layer F.SilkS) (width 0.12))
  (fp_line (start 6.681 -17.5) (end 6.681 -7.49) (layer F.SilkS) (width 0.12))
  (fp_line (start 6.681 -2.01) (end 6.681 17.5) (layer F.SilkS) (width 0.12))
  (fp_line (start 6.721 -17.496) (end 6.721 -7.49) (layer F.SilkS) (width 0.12))
  (fp_line (start 6.721 -2.01) (end 6.721 17.496) (layer F.SilkS) (width 0.12))
  (fp_line (start 6.761 -17.492) (end 6.761 -7.49) (layer F.SilkS) (width 0.12))
  (fp_line (start 6.761 -2.01) (end 6.761 17.492) (layer F.SilkS) (width 0.12))
  (fp_line (start 6.801 -17.488) (end 6.801 -7.49) (layer F.SilkS) (width 0.12))
  (fp_line (start 6.801 -2.01) (end 6.801 17.488) (layer F.SilkS) (width 0.12))
  (fp_line (start 6.841 -17.484) (end 6.841 -7.49) (layer F.SilkS) (width 0.12))
  (fp_line (start 6.841 -2.01) (end 6.841 17.484) (layer F.SilkS) (width 0.12))
  (fp_line (start 6.881 -17.48) (end 6.881 -7.49) (layer F.SilkS) (width 0.12))
  (fp_line (start 6.881 -2.01) (end 6.881 17.48) (layer F.SilkS) (width 0.12))
  (fp_line (start 6.921 -17.476) (end 6.921 -7.49) (layer F.SilkS) (width 0.12))
  (fp_line (start 6.921 -2.01) (end 6.921 17.476) (layer F.SilkS) (width 0.12))
  (fp_line (start 6.961 -17.471) (end 6.961 -7.49) (layer F.SilkS) (width 0.12))
  (fp_line (start 6.961 -2.01) (end 6.961 17.471) (layer F.SilkS) (width 0.12))
  (fp_line (start 7.001 -17.467) (end 7.001 -7.49) (layer F.SilkS) (width 0.12))
  (fp_line (start 7.001 -2.01) (end 7.001 17.467) (layer F.SilkS) (width 0.12))
  (fp_line (start 7.041 -17.462) (end 7.041 -7.49) (layer F.SilkS) (width 0.12))
  (fp_line (start 7.041 -2.01) (end 7.041 17.462) (layer F.SilkS) (width 0.12))
  (fp_line (start 7.081 -17.457) (end 7.081 -7.49) (layer F.SilkS) (width 0.12))
  (fp_line (start 7.081 -2.01) (end 7.081 17.457) (layer F.SilkS) (width 0.12))
  (fp_line (start 7.121 -17.452) (end 7.121 -7.49) (layer F.SilkS) (width 0.12))
  (fp_line (start 7.121 -2.01) (end 7.121 17.452) (layer F.SilkS) (width 0.12))
  (fp_line (start 7.161 -17.448) (end 7.161 -7.49) (layer F.SilkS) (width 0.12))
  (fp_line (start 7.161 -2.01) (end 7.161 17.448) (layer F.SilkS) (width 0.12))
  (fp_line (start 7.201 -17.443) (end 7.201 -7.49) (layer F.SilkS) (width 0.12))
  (fp_line (start 7.201 -2.01) (end 7.201 17.443) (layer F.SilkS) (width 0.12))
  (fp_line (start 7.241 -17.438) (end 7.241 -7.49) (layer F.SilkS) (width 0.12))
  (fp_line (start 7.241 -2.01) (end 7.241 17.438) (layer F.SilkS) (width 0.12))
  (fp_line (start 7.281 -17.432) (end 7.281 -7.49) (layer F.SilkS) (width 0.12))
  (fp_line (start 7.281 -2.01) (end 7.281 17.432) (layer F.SilkS) (width 0.12))
  (fp_line (start 7.321 -17.427) (end 7.321 -7.49) (layer F.SilkS) (width 0.12))
  (fp_line (start 7.321 -2.01) (end 7.321 17.427) (layer F.SilkS) (width 0.12))
  (fp_line (start 7.361 -17.422) (end 7.361 -7.49) (layer F.SilkS) (width 0.12))
  (fp_line (start 7.361 -2.01) (end 7.361 17.422) (layer F.SilkS) (width 0.12))
  (fp_line (start 7.401 -17.416) (end 7.401 -7.49) (layer F.SilkS) (width 0.12))
  (fp_line (start 7.401 -2.01) (end 7.401 17.416) (layer F.SilkS) (width 0.12))
  (fp_line (start 7.441 -17.411) (end 7.441 -7.49) (layer F.SilkS) (width 0.12))
  (fp_line (start 7.441 -2.01) (end 7.441 17.411) (layer F.SilkS) (width 0.12))
  (fp_line (start 7.481 -17.405) (end 7.481 -7.49) (layer F.SilkS) (width 0.12))
  (fp_line (start 7.481 -2.01) (end 7.481 17.405) (layer F.SilkS) (width 0.12))
  (fp_line (start 7.521 -17.399) (end 7.521 -7.49) (layer F.SilkS) (width 0.12))
  (fp_line (start 7.521 -2.01) (end 7.521 17.399) (layer F.SilkS) (width 0.12))
  (fp_line (start 7.561 -17.394) (end 7.561 -7.49) (layer F.SilkS) (width 0.12))
  (fp_line (start 7.561 -2.01) (end 7.561 17.394) (layer F.SilkS) (width 0.12))
  (fp_line (start 7.601 -17.388) (end 7.601 -7.49) (layer F.SilkS) (width 0.12))
  (fp_line (start 7.601 -2.01) (end 7.601 17.388) (layer F.SilkS) (width 0.12))
  (fp_line (start 7.641 -17.382) (end 7.641 -7.49) (layer F.SilkS) (width 0.12))
  (fp_line (start 7.641 -2.01) (end 7.641 17.382) (layer F.SilkS) (width 0.12))
  (fp_line (start 7.681 -17.375) (end 7.681 -7.49) (layer F.SilkS) (width 0.12))
  (fp_line (start 7.681 -2.01) (end 7.681 17.375) (layer F.SilkS) (width 0.12))
  (fp_line (start 7.721 -17.369) (end 7.721 -7.49) (layer F.SilkS) (width 0.12))
  (fp_line (start 7.721 -2.01) (end 7.721 17.369) (layer F.SilkS) (width 0.12))
  (fp_line (start 7.761 2.24) (end 7.761 17.363) (layer F.SilkS) (width 0.12))
  (fp_line (start 7.761 -17.363) (end 7.761 -7.49) (layer F.SilkS) (width 0.12))
  (fp_line (start 7.801 2.24) (end 7.801 17.357) (layer F.SilkS) (width 0.12))
  (fp_line (start 7.801 -17.357) (end 7.801 -7.49) (layer F.SilkS) (width 0.12))
  (fp_line (start 7.841 2.24) (end 7.841 17.35) (layer F.SilkS) (width 0.12))
  (fp_line (start 7.841 -17.35) (end 7.841 -7.49) (layer F.SilkS) (width 0.12))
  (fp_line (start 7.881 2.24) (end 7.881 17.344) (layer F.SilkS) (width 0.12))
  (fp_line (start 7.881 -17.344) (end 7.881 -7.49) (layer F.SilkS) (width 0.12))
  (fp_line (start 7.921 2.24) (end 7.921 17.337) (layer F.SilkS) (width 0.12))
  (fp_line (start 7.921 -17.337) (end 7.921 -7.49) (layer F.SilkS) (width 0.12))
  (fp_line (start 7.961 2.24) (end 7.961 17.33) (layer F.SilkS) (width 0.12))
  (fp_line (start 7.961 -17.33) (end 7.961 -7.49) (layer F.SilkS) (width 0.12))
  (fp_line (start 8.001 2.24) (end 8.001 17.323) (layer F.SilkS) (width 0.12))
  (fp_line (start 8.001 -17.323) (end 8.001 -7.49) (layer F.SilkS) (width 0.12))
  (fp_line (start 8.041 2.24) (end 8.041 17.316) (layer F.SilkS) (width 0.12))
  (fp_line (start 8.041 -17.316) (end 8.041 -7.49) (layer F.SilkS) (width 0.12))
  (fp_line (start 8.081 2.24) (end 8.081 17.309) (layer F.SilkS) (width 0.12))
  (fp_line (start 8.081 -17.309) (end 8.081 -7.49) (layer F.SilkS) (width 0.12))
  (fp_line (start 8.121 2.24) (end 8.121 17.302) (layer F.SilkS) (width 0.12))
  (fp_line (start 8.121 -17.302) (end 8.121 -7.49) (layer F.SilkS) (width 0.12))
  (fp_line (start 8.161 2.24) (end 8.161 17.295) (layer F.SilkS) (width 0.12))
  (fp_line (start 8.161 -17.295) (end 8.161 -7.49) (layer F.SilkS) (width 0.12))
  (fp_line (start 8.201 2.24) (end 8.201 17.287) (layer F.SilkS) (width 0.12))
  (fp_line (start 8.201 -17.287) (end 8.201 -7.49) (layer F.SilkS) (width 0.12))
  (fp_line (start 8.241 2.24) (end 8.241 17.28) (layer F.SilkS) (width 0.12))
  (fp_line (start 8.241 -17.28) (end 8.241 -7.49) (layer F.SilkS) (width 0.12))
  (fp_line (start 8.281 2.24) (end 8.281 17.273) (layer F.SilkS) (width 0.12))
  (fp_line (start 8.281 -17.273) (end 8.281 -7.49) (layer F.SilkS) (width 0.12))
  (fp_line (start 8.321 2.24) (end 8.321 17.265) (layer F.SilkS) (width 0.12))
  (fp_line (start 8.321 -17.265) (end 8.321 -7.49) (layer F.SilkS) (width 0.12))
  (fp_line (start 8.361 2.24) (end 8.361 17.257) (layer F.SilkS) (width 0.12))
  (fp_line (start 8.361 -17.257) (end 8.361 -7.49) (layer F.SilkS) (width 0.12))
  (fp_line (start 8.401 2.24) (end 8.401 17.249) (layer F.SilkS) (width 0.12))
  (fp_line (start 8.401 -17.249) (end 8.401 -7.49) (layer F.SilkS) (width 0.12))
  (fp_line (start 8.441 2.24) (end 8.441 17.241) (layer F.SilkS) (width 0.12))
  (fp_line (start 8.441 -17.241) (end 8.441 -7.49) (layer F.SilkS) (width 0.12))
  (fp_line (start 8.481 2.24) (end 8.481 17.233) (layer F.SilkS) (width 0.12))
  (fp_line (start 8.481 -17.233) (end 8.481 -7.49) (layer F.SilkS) (width 0.12))
  (fp_line (start 8.521 2.24) (end 8.521 17.225) (layer F.SilkS) (width 0.12))
  (fp_line (start 8.521 -17.225) (end 8.521 -7.49) (layer F.SilkS) (width 0.12))
  (fp_line (start 8.561 2.24) (end 8.561 17.217) (layer F.SilkS) (width 0.12))
  (fp_line (start 8.561 -17.217) (end 8.561 -7.49) (layer F.SilkS) (width 0.12))
  (fp_line (start 8.601 2.24) (end 8.601 17.209) (layer F.SilkS) (width 0.12))
  (fp_line (start 8.601 -17.209) (end 8.601 -7.49) (layer F.SilkS) (width 0.12))
  (fp_line (start 8.641 2.24) (end 8.641 17.2) (layer F.SilkS) (width 0.12))
  (fp_line (start 8.641 -17.2) (end 8.641 -7.49) (layer F.SilkS) (width 0.12))
  (fp_line (start 8.681 2.24) (end 8.681 17.192) (layer F.SilkS) (width 0.12))
  (fp_line (start 8.681 -17.192) (end 8.681 -7.49) (layer F.SilkS) (width 0.12))
  (fp_line (start 8.721 2.24) (end 8.721 17.183) (layer F.SilkS) (width 0.12))
  (fp_line (start 8.721 -17.183) (end 8.721 -7.49) (layer F.SilkS) (width 0.12))
  (fp_line (start 8.761 2.24) (end 8.761 17.175) (layer F.SilkS) (width 0.12))
  (fp_line (start 8.761 -17.175) (end 8.761 -7.49) (layer F.SilkS) (width 0.12))
  (fp_line (start 8.801 2.24) (end 8.801 17.166) (layer F.SilkS) (width 0.12))
  (fp_line (start 8.801 -17.166) (end 8.801 -7.49) (layer F.SilkS) (width 0.12))
  (fp_line (start 8.841 2.24) (end 8.841 17.157) (layer F.SilkS) (width 0.12))
  (fp_line (start 8.841 -17.157) (end 8.841 -7.49) (layer F.SilkS) (width 0.12))
  (fp_line (start 8.881 2.24) (end 8.881 17.148) (layer F.SilkS) (width 0.12))
  (fp_line (start 8.881 -17.148) (end 8.881 -7.49) (layer F.SilkS) (width 0.12))
  (fp_line (start 8.921 2.24) (end 8.921 17.139) (layer F.SilkS) (width 0.12))
  (fp_line (start 8.921 -17.139) (end 8.921 -7.49) (layer F.SilkS) (width 0.12))
  (fp_line (start 8.961 2.24) (end 8.961 17.13) (layer F.SilkS) (width 0.12))
  (fp_line (start 8.961 -17.13) (end 8.961 -7.49) (layer F.SilkS) (width 0.12))
  (fp_line (start 9.001 2.24) (end 9.001 17.12) (layer F.SilkS) (width 0.12))
  (fp_line (start 9.001 -17.12) (end 9.001 -7.49) (layer F.SilkS) (width 0.12))
  (fp_line (start 9.041 2.24) (end 9.041 17.111) (layer F.SilkS) (width 0.12))
  (fp_line (start 9.041 -17.111) (end 9.041 -7.49) (layer F.SilkS) (width 0.12))
  (fp_line (start 9.081 2.24) (end 9.081 17.102) (layer F.SilkS) (width 0.12))
  (fp_line (start 9.081 -17.102) (end 9.081 -7.49) (layer F.SilkS) (width 0.12))
  (fp_line (start 9.121 2.24) (end 9.121 17.092) (layer F.SilkS) (width 0.12))
  (fp_line (start 9.121 -17.092) (end 9.121 -7.49) (layer F.SilkS) (width 0.12))
  (fp_line (start 9.161 2.24) (end 9.161 17.082) (layer F.SilkS) (width 0.12))
  (fp_line (start 9.161 -17.082) (end 9.161 -7.49) (layer F.SilkS) (width 0.12))
  (fp_line (start 9.201 2.24) (end 9.201 17.073) (layer F.SilkS) (width 0.12))
  (fp_line (start 9.201 -17.073) (end 9.201 -7.49) (layer F.SilkS) (width 0.12))
  (fp_line (start 9.241 2.24) (end 9.241 17.063) (layer F.SilkS) (width 0.12))
  (fp_line (start 9.241 -17.063) (end 9.241 -7.49) (layer F.SilkS) (width 0.12))
  (fp_line (start 9.281 2.24) (end 9.281 17.053) (layer F.SilkS) (width 0.12))
  (fp_line (start 9.281 -17.053) (end 9.281 -7.49) (layer F.SilkS) (width 0.12))
  (fp_line (start 9.321 2.24) (end 9.321 17.043) (layer F.SilkS) (width 0.12))
  (fp_line (start 9.321 -17.043) (end 9.321 -7.49) (layer F.SilkS) (width 0.12))
  (fp_line (start 9.361 2.24) (end 9.361 17.033) (layer F.SilkS) (width 0.12))
  (fp_line (start 9.361 -17.033) (end 9.361 -7.49) (layer F.SilkS) (width 0.12))
  (fp_line (start 9.401 2.24) (end 9.401 17.022) (layer F.SilkS) (width 0.12))
  (fp_line (start 9.401 -17.022) (end 9.401 -7.49) (layer F.SilkS) (width 0.12))
  (fp_line (start 9.441 -17.012) (end 9.441 -2.24) (layer F.SilkS) (width 0.12))
  (fp_line (start 9.441 2.24) (end 9.441 17.012) (layer F.SilkS) (width 0.12))
  (fp_line (start 9.481 -17.001) (end 9.481 -2.24) (layer F.SilkS) (width 0.12))
  (fp_line (start 9.481 2.24) (end 9.481 17.001) (layer F.SilkS) (width 0.12))
  (fp_line (start 9.521 -16.991) (end 9.521 -2.24) (layer F.SilkS) (width 0.12))
  (fp_line (start 9.521 2.24) (end 9.521 16.991) (layer F.SilkS) (width 0.12))
  (fp_line (start 9.561 -16.98) (end 9.561 -2.24) (layer F.SilkS) (width 0.12))
  (fp_line (start 9.561 2.24) (end 9.561 16.98) (layer F.SilkS) (width 0.12))
  (fp_line (start 9.601 -16.969) (end 9.601 -2.24) (layer F.SilkS) (width 0.12))
  (fp_line (start 9.601 2.24) (end 9.601 16.969) (layer F.SilkS) (width 0.12))
  (fp_line (start 9.641 -16.959) (end 9.641 -2.24) (layer F.SilkS) (width 0.12))
  (fp_line (start 9.641 2.24) (end 9.641 16.959) (layer F.SilkS) (width 0.12))
  (fp_line (start 9.681 -16.948) (end 9.681 -2.24) (layer F.SilkS) (width 0.12))
  (fp_line (start 9.681 2.24) (end 9.681 16.948) (layer F.SilkS) (width 0.12))
  (fp_line (start 9.721 -16.937) (end 9.721 -2.24) (layer F.SilkS) (width 0.12))
  (fp_line (start 9.721 2.24) (end 9.721 16.937) (layer F.SilkS) (width 0.12))
  (fp_line (start 9.761 -16.925) (end 9.761 -2.24) (layer F.SilkS) (width 0.12))
  (fp_line (start 9.761 2.24) (end 9.761 16.925) (layer F.SilkS) (width 0.12))
  (fp_line (start 9.801 -16.914) (end 9.801 -2.24) (layer F.SilkS) (width 0.12))
  (fp_line (start 9.801 2.24) (end 9.801 16.914) (layer F.SilkS) (width 0.12))
  (fp_line (start 9.841 -16.903) (end 9.841 -2.24) (layer F.SilkS) (width 0.12))
  (fp_line (start 9.841 2.24) (end 9.841 16.903) (layer F.SilkS) (width 0.12))
  (fp_line (start 9.881 -16.891) (end 9.881 -2.24) (layer F.SilkS) (width 0.12))
  (fp_line (start 9.881 2.24) (end 9.881 16.891) (layer F.SilkS) (width 0.12))
  (fp_line (start 9.921 -16.88) (end 9.921 -2.24) (layer F.SilkS) (width 0.12))
  (fp_line (start 9.921 2.24) (end 9.921 16.88) (layer F.SilkS) (width 0.12))
  (fp_line (start 9.961 -16.868) (end 9.961 -2.24) (layer F.SilkS) (width 0.12))
  (fp_line (start 9.961 2.24) (end 9.961 16.868) (layer F.SilkS) (width 0.12))
  (fp_line (start 10.001 -16.856) (end 10.001 -2.24) (layer F.SilkS) (width 0.12))
  (fp_line (start 10.001 2.24) (end 10.001 16.856) (layer F.SilkS) (width 0.12))
  (fp_line (start 10.041 -16.844) (end 10.041 -2.24) (layer F.SilkS) (width 0.12))
  (fp_line (start 10.041 2.24) (end 10.041 16.844) (layer F.SilkS) (width 0.12))
  (fp_line (start 10.081 -16.832) (end 10.081 -2.24) (layer F.SilkS) (width 0.12))
  (fp_line (start 10.081 2.24) (end 10.081 16.832) (layer F.SilkS) (width 0.12))
  (fp_line (start 10.121 -16.82) (end 10.121 -2.24) (layer F.SilkS) (width 0.12))
  (fp_line (start 10.121 2.24) (end 10.121 16.82) (layer F.SilkS) (width 0.12))
  (fp_line (start 10.161 -16.808) (end 10.161 -2.24) (layer F.SilkS) (width 0.12))
  (fp_line (start 10.161 2.24) (end 10.161 16.808) (layer F.SilkS) (width 0.12))
  (fp_line (start 10.201 -16.796) (end 10.201 -2.24) (layer F.SilkS) (width 0.12))
  (fp_line (start 10.201 2.24) (end 10.201 16.796) (layer F.SilkS) (width 0.12))
  (fp_line (start 10.241 -16.783) (end 10.241 -2.24) (layer F.SilkS) (width 0.12))
  (fp_line (start 10.241 2.24) (end 10.241 16.783) (layer F.SilkS) (width 0.12))
  (fp_line (start 10.281 -16.771) (end 10.281 -2.24) (layer F.SilkS) (width 0.12))
  (fp_line (start 10.281 2.24) (end 10.281 16.771) (layer F.SilkS) (width 0.12))
  (fp_line (start 10.321 -16.758) (end 10.321 -2.24) (layer F.SilkS) (width 0.12))
  (fp_line (start 10.321 2.24) (end 10.321 16.758) (layer F.SilkS) (width 0.12))
  (fp_line (start 10.361 -16.745) (end 10.361 -2.24) (layer F.SilkS) (width 0.12))
  (fp_line (start 10.361 2.24) (end 10.361 16.745) (layer F.SilkS) (width 0.12))
  (fp_line (start 10.401 -16.733) (end 10.401 -2.24) (layer F.SilkS) (width 0.12))
  (fp_line (start 10.401 2.24) (end 10.401 16.733) (layer F.SilkS) (width 0.12))
  (fp_line (start 10.441 -16.72) (end 10.441 -2.24) (layer F.SilkS) (width 0.12))
  (fp_line (start 10.441 2.24) (end 10.441 16.72) (layer F.SilkS) (width 0.12))
  (fp_line (start 10.481 -16.707) (end 10.481 -2.24) (layer F.SilkS) (width 0.12))
  (fp_line (start 10.481 2.24) (end 10.481 16.707) (layer F.SilkS) (width 0.12))
  (fp_line (start 10.521 -16.694) (end 10.521 -2.24) (layer F.SilkS) (width 0.12))
  (fp_line (start 10.521 2.24) (end 10.521 16.694) (layer F.SilkS) (width 0.12))
  (fp_line (start 10.561 -16.68) (end 10.561 -2.24) (layer F.SilkS) (width 0.12))
  (fp_line (start 10.561 2.24) (end 10.561 16.68) (layer F.SilkS) (width 0.12))
  (fp_line (start 10.601 -16.667) (end 10.601 -2.24) (layer F.SilkS) (width 0.12))
  (fp_line (start 10.601 2.24) (end 10.601 16.667) (layer F.SilkS) (width 0.12))
  (fp_line (start 10.641 -16.653) (end 10.641 -2.24) (layer F.SilkS) (width 0.12))
  (fp_line (start 10.641 2.24) (end 10.641 16.653) (layer F.SilkS) (width 0.12))
  (fp_line (start 10.681 -16.64) (end 10.681 -2.24) (layer F.SilkS) (width 0.12))
  (fp_line (start 10.681 2.24) (end 10.681 16.64) (layer F.SilkS) (width 0.12))
  (fp_line (start 10.721 -16.626) (end 10.721 -2.24) (layer F.SilkS) (width 0.12))
  (fp_line (start 10.721 2.24) (end 10.721 16.626) (layer F.SilkS) (width 0.12))
  (fp_line (start 10.761 -16.612) (end 10.761 -2.24) (layer F.SilkS) (width 0.12))
  (fp_line (start 10.761 2.24) (end 10.761 16.612) (layer F.SilkS) (width 0.12))
  (fp_line (start 10.801 -16.599) (end 10.801 -2.24) (layer F.SilkS) (width 0.12))
  (fp_line (start 10.801 2.24) (end 10.801 16.599) (layer F.SilkS) (width 0.12))
  (fp_line (start 10.841 -16.585) (end 10.841 -2.24) (layer F.SilkS) (width 0.12))
  (fp_line (start 10.841 2.24) (end 10.841 16.585) (layer F.SilkS) (width 0.12))
  (fp_line (start 10.881 -16.57) (end 10.881 -2.24) (layer F.SilkS) (width 0.12))
  (fp_line (start 10.881 2.24) (end 10.881 16.57) (layer F.SilkS) (width 0.12))
  (fp_line (start 10.921 -16.556) (end 10.921 -2.24) (layer F.SilkS) (width 0.12))
  (fp_line (start 10.921 2.24) (end 10.921 16.556) (layer F.SilkS) (width 0.12))
  (fp_line (start 10.961 -16.542) (end 10.961 -2.24) (layer F.SilkS) (width 0.12))
  (fp_line (start 10.961 2.24) (end 10.961 16.542) (layer F.SilkS) (width 0.12))
  (fp_line (start 11.001 -16.527) (end 11.001 -2.24) (layer F.SilkS) (width 0.12))
  (fp_line (start 11.001 2.24) (end 11.001 16.527) (layer F.SilkS) (width 0.12))
  (fp_line (start 11.041 -16.513) (end 11.041 -2.24) (layer F.SilkS) (width 0.12))
  (fp_line (start 11.041 2.24) (end 11.041 16.513) (layer F.SilkS) (width 0.12))
  (fp_line (start 11.081 -16.498) (end 11.081 -2.24) (layer F.SilkS) (width 0.12))
  (fp_line (start 11.081 2.24) (end 11.081 16.498) (layer F.SilkS) (width 0.12))
  (fp_line (start 11.121 -16.484) (end 11.121 -2.24) (layer F.SilkS) (width 0.12))
  (fp_line (start 11.121 2.24) (end 11.121 16.484) (layer F.SilkS) (width 0.12))
  (fp_line (start 11.161 -16.469) (end 11.161 -2.24) (layer F.SilkS) (width 0.12))
  (fp_line (start 11.161 2.24) (end 11.161 16.469) (layer F.SilkS) (width 0.12))
  (fp_line (start 11.201 -16.454) (end 11.201 -2.24) (layer F.SilkS) (width 0.12))
  (fp_line (start 11.201 2.24) (end 11.201 16.454) (layer F.SilkS) (width 0.12))
  (fp_line (start 11.241 -16.439) (end 11.241 -2.24) (layer F.SilkS) (width 0.12))
  (fp_line (start 11.241 2.24) (end 11.241 16.439) (layer F.SilkS) (width 0.12))
  (fp_line (start 11.281 -16.423) (end 11.281 -2.24) (layer F.SilkS) (width 0.12))
  (fp_line (start 11.281 2.24) (end 11.281 16.423) (layer F.SilkS) (width 0.12))
  (fp_line (start 11.321 -16.408) (end 11.321 -2.24) (layer F.SilkS) (width 0.12))
  (fp_line (start 11.321 2.24) (end 11.321 16.408) (layer F.SilkS) (width 0.12))
  (fp_line (start 11.361 -16.393) (end 11.361 -2.24) (layer F.SilkS) (width 0.12))
  (fp_line (start 11.361 2.24) (end 11.361 16.393) (layer F.SilkS) (width 0.12))
  (fp_line (start 11.401 -16.377) (end 11.401 -2.24) (layer F.SilkS) (width 0.12))
  (fp_line (start 11.401 2.24) (end 11.401 16.377) (layer F.SilkS) (width 0.12))
  (fp_line (start 11.441 -16.361) (end 11.441 -2.24) (layer F.SilkS) (width 0.12))
  (fp_line (start 11.441 2.24) (end 11.441 16.361) (layer F.SilkS) (width 0.12))
  (fp_line (start 11.481 -16.346) (end 11.481 -2.24) (layer F.SilkS) (width 0.12))
  (fp_line (start 11.481 2.24) (end 11.481 16.346) (layer F.SilkS) (width 0.12))
  (fp_line (start 11.521 -16.33) (end 11.521 -2.24) (layer F.SilkS) (width 0.12))
  (fp_line (start 11.521 2.24) (end 11.521 16.33) (layer F.SilkS) (width 0.12))
  (fp_line (start 11.561 -16.314) (end 11.561 -2.24) (layer F.SilkS) (width 0.12))
  (fp_line (start 11.561 2.24) (end 11.561 16.314) (layer F.SilkS) (width 0.12))
  (fp_line (start 11.601 -16.298) (end 11.601 -2.24) (layer F.SilkS) (width 0.12))
  (fp_line (start 11.601 2.24) (end 11.601 16.298) (layer F.SilkS) (width 0.12))
  (fp_line (start 11.641 -16.281) (end 11.641 -2.24) (layer F.SilkS) (width 0.12))
  (fp_line (start 11.641 2.24) (end 11.641 16.281) (layer F.SilkS) (width 0.12))
  (fp_line (start 11.681 -16.265) (end 11.681 -2.24) (layer F.SilkS) (width 0.12))
  (fp_line (start 11.681 2.24) (end 11.681 16.265) (layer F.SilkS) (width 0.12))
  (fp_line (start 11.721 -16.249) (end 11.721 -2.24) (layer F.SilkS) (width 0.12))
  (fp_line (start 11.721 2.24) (end 11.721 16.249) (layer F.SilkS) (width 0.12))
  (fp_line (start 11.761 -16.232) (end 11.761 -2.24) (layer F.SilkS) (width 0.12))
  (fp_line (start 11.761 2.24) (end 11.761 16.232) (layer F.SilkS) (width 0.12))
  (fp_line (start 11.801 -16.215) (end 11.801 -2.24) (layer F.SilkS) (width 0.12))
  (fp_line (start 11.801 2.24) (end 11.801 16.215) (layer F.SilkS) (width 0.12))
  (fp_line (start 11.841 -16.199) (end 11.841 -2.24) (layer F.SilkS) (width 0.12))
  (fp_line (start 11.841 2.24) (end 11.841 16.199) (layer F.SilkS) (width 0.12))
  (fp_line (start 11.881 -16.182) (end 11.881 -2.24) (layer F.SilkS) (width 0.12))
  (fp_line (start 11.881 2.24) (end 11.881 16.182) (layer F.SilkS) (width 0.12))
  (fp_line (start 11.921 -16.165) (end 11.921 -2.24) (layer F.SilkS) (width 0.12))
  (fp_line (start 11.921 2.24) (end 11.921 16.165) (layer F.SilkS) (width 0.12))
  (fp_line (start 11.961 -16.148) (end 11.961 -2.24) (layer F.SilkS) (width 0.12))
  (fp_line (start 11.961 2.24) (end 11.961 16.148) (layer F.SilkS) (width 0.12))
  (fp_line (start 12.001 -16.13) (end 12.001 -2.24) (layer F.SilkS) (width 0.12))
  (fp_line (start 12.001 2.24) (end 12.001 16.13) (layer F.SilkS) (width 0.12))
  (fp_line (start 12.041 -16.113) (end 12.041 -2.24) (layer F.SilkS) (width 0.12))
  (fp_line (start 12.041 2.24) (end 12.041 16.113) (layer F.SilkS) (width 0.12))
  (fp_line (start 12.081 -16.095) (end 12.081 -2.24) (layer F.SilkS) (width 0.12))
  (fp_line (start 12.081 2.24) (end 12.081 16.095) (layer F.SilkS) (width 0.12))
  (fp_line (start 12.121 -16.078) (end 12.121 -2.24) (layer F.SilkS) (width 0.12))
  (fp_line (start 12.121 2.24) (end 12.121 16.078) (layer F.SilkS) (width 0.12))
  (fp_line (start 12.161 -16.06) (end 12.161 -2.24) (layer F.SilkS) (width 0.12))
  (fp_line (start 12.161 2.24) (end 12.161 16.06) (layer F.SilkS) (width 0.12))
  (fp_line (start 12.201 -16.042) (end 12.201 -2.24) (layer F.SilkS) (width 0.12))
  (fp_line (start 12.201 2.24) (end 12.201 16.042) (layer F.SilkS) (width 0.12))
  (fp_line (start 12.241 -16.024) (end 12.241 16.024) (layer F.SilkS) (width 0.12))
  (fp_line (start 12.281 -16.006) (end 12.281 16.006) (layer F.SilkS) (width 0.12))
  (fp_line (start 12.321 -15.988) (end 12.321 15.988) (layer F.SilkS) (width 0.12))
  (fp_line (start 12.361 -15.97) (end 12.361 15.97) (layer F.SilkS) (width 0.12))
  (fp_line (start 12.401 -15.951) (end 12.401 15.951) (layer F.SilkS) (width 0.12))
  (fp_line (start 12.441 -15.933) (end 12.441 15.933) (layer F.SilkS) (width 0.12))
  (fp_line (start 12.481 -15.914) (end 12.481 15.914) (layer F.SilkS) (width 0.12))
  (fp_line (start 12.521 -15.895) (end 12.521 15.895) (layer F.SilkS) (width 0.12))
  (fp_line (start 12.561 -15.876) (end 12.561 15.876) (layer F.SilkS) (width 0.12))
  (fp_line (start 12.601 -15.857) (end 12.601 15.857) (layer F.SilkS) (width 0.12))
  (fp_line (start 12.641 -15.838) (end 12.641 15.838) (layer F.SilkS) (width 0.12))
  (fp_line (start 12.681 -15.819) (end 12.681 15.819) (layer F.SilkS) (width 0.12))
  (fp_line (start 12.721 -15.799) (end 12.721 15.799) (layer F.SilkS) (width 0.12))
  (fp_line (start 12.761 -15.78) (end 12.761 15.78) (layer F.SilkS) (width 0.12))
  (fp_line (start 12.801 -15.76) (end 12.801 15.76) (layer F.SilkS) (width 0.12))
  (fp_line (start 12.841 -15.74) (end 12.841 15.74) (layer F.SilkS) (width 0.12))
  (fp_line (start 12.881 -15.72) (end 12.881 15.72) (layer F.SilkS) (width 0.12))
  (fp_line (start 12.921 -15.7) (end 12.921 15.7) (layer F.SilkS) (width 0.12))
  (fp_line (start 12.961 -15.68) (end 12.961 15.68) (layer F.SilkS) (width 0.12))
  (fp_line (start 13.001 -15.66) (end 13.001 15.66) (layer F.SilkS) (width 0.12))
  (fp_line (start 13.041 -15.639) (end 13.041 15.639) (layer F.SilkS) (width 0.12))
  (fp_line (start 13.081 -15.619) (end 13.081 15.619) (layer F.SilkS) (width 0.12))
  (fp_line (start 13.121 -15.598) (end 13.121 15.598) (layer F.SilkS) (width 0.12))
  (fp_line (start 13.161 -15.577) (end 13.161 15.577) (layer F.SilkS) (width 0.12))
  (fp_line (start 13.2 -15.556) (end 13.2 15.556) (layer F.SilkS) (width 0.12))
  (fp_line (start 13.24 -15.535) (end 13.24 15.535) (layer F.SilkS) (width 0.12))
  (fp_line (start 13.28 -15.514) (end 13.28 15.514) (layer F.SilkS) (width 0.12))
  (fp_line (start 13.32 -15.492) (end 13.32 15.492) (layer F.SilkS) (width 0.12))
  (fp_line (start 13.36 -15.471) (end 13.36 15.471) (layer F.SilkS) (width 0.12))
  (fp_line (start 13.4 -15.449) (end 13.4 15.449) (layer F.SilkS) (width 0.12))
  (fp_line (start 13.44 -15.428) (end 13.44 15.428) (layer F.SilkS) (width 0.12))
  (fp_line (start 13.48 -15.406) (end 13.48 15.406) (layer F.SilkS) (width 0.12))
  (fp_line (start 13.52 -15.384) (end 13.52 15.384) (layer F.SilkS) (width 0.12))
  (fp_line (start 13.56 -15.361) (end 13.56 15.361) (layer F.SilkS) (width 0.12))
  (fp_line (start 13.6 -15.339) (end 13.6 15.339) (layer F.SilkS) (width 0.12))
  (fp_line (start 13.64 -15.317) (end 13.64 15.317) (layer F.SilkS) (width 0.12))
  (fp_line (start 13.68 -15.294) (end 13.68 15.294) (layer F.SilkS) (width 0.12))
  (fp_line (start 13.72 -15.271) (end 13.72 15.271) (layer F.SilkS) (width 0.12))
  (fp_line (start 13.76 -15.249) (end 13.76 15.249) (layer F.SilkS) (width 0.12))
  (fp_line (start 13.8 -15.226) (end 13.8 15.226) (layer F.SilkS) (width 0.12))
  (fp_line (start 13.84 -15.203) (end 13.84 15.203) (layer F.SilkS) (width 0.12))
  (fp_line (start 13.88 -15.179) (end 13.88 15.179) (layer F.SilkS) (width 0.12))
  (fp_line (start 13.92 -15.156) (end 13.92 15.156) (layer F.SilkS) (width 0.12))
  (fp_line (start 13.96 -15.132) (end 13.96 15.132) (layer F.SilkS) (width 0.12))
  (fp_line (start 14 -15.109) (end 14 15.109) (layer F.SilkS) (width 0.12))
  (fp_line (start 14.04 -15.085) (end 14.04 15.085) (layer F.SilkS) (width 0.12))
  (fp_line (start 14.08 -15.061) (end 14.08 15.061) (layer F.SilkS) (width 0.12))
  (fp_line (start 14.12 -15.037) (end 14.12 15.037) (layer F.SilkS) (width 0.12))
  (fp_line (start 14.16 -15.012) (end 14.16 15.012) (layer F.SilkS) (width 0.12))
  (fp_line (start 14.2 -14.988) (end 14.2 14.988) (layer F.SilkS) (width 0.12))
  (fp_line (start 14.24 -14.963) (end 14.24 14.963) (layer F.SilkS) (width 0.12))
  (fp_line (start 14.28 -14.939) (end 14.28 14.939) (layer F.SilkS) (width 0.12))
  (fp_line (start 14.32 -14.914) (end 14.32 14.914) (layer F.SilkS) (width 0.12))
  (fp_line (start 14.36 -14.889) (end 14.36 14.889) (layer F.SilkS) (width 0.12))
  (fp_line (start 14.4 -14.864) (end 14.4 14.864) (layer F.SilkS) (width 0.12))
  (fp_line (start 14.44 -14.838) (end 14.44 14.838) (layer F.SilkS) (width 0.12))
  (fp_line (start 14.48 -14.813) (end 14.48 14.813) (layer F.SilkS) (width 0.12))
  (fp_line (start 14.52 -14.787) (end 14.52 14.787) (layer F.SilkS) (width 0.12))
  (fp_line (start 14.56 -14.762) (end 14.56 14.762) (layer F.SilkS) (width 0.12))
  (fp_line (start 14.6 -14.736) (end 14.6 14.736) (layer F.SilkS) (width 0.12))
  (fp_line (start 14.64 -14.71) (end 14.64 14.71) (layer F.SilkS) (width 0.12))
  (fp_line (start 14.68 -14.683) (end 14.68 14.683) (layer F.SilkS) (width 0.12))
  (fp_line (start 14.72 -14.657) (end 14.72 14.657) (layer F.SilkS) (width 0.12))
  (fp_line (start 14.76 -14.63) (end 14.76 14.63) (layer F.SilkS) (width 0.12))
  (fp_line (start 14.8 -14.604) (end 14.8 14.604) (layer F.SilkS) (width 0.12))
  (fp_line (start 14.84 -14.577) (end 14.84 14.577) (layer F.SilkS) (width 0.12))
  (fp_line (start 14.88 -14.55) (end 14.88 14.55) (layer F.SilkS) (width 0.12))
  (fp_line (start 14.92 -14.523) (end 14.92 14.523) (layer F.SilkS) (width 0.12))
  (fp_line (start 14.96 -14.495) (end 14.96 14.495) (layer F.SilkS) (width 0.12))
  (fp_line (start 15 -14.468) (end 15 14.468) (layer F.SilkS) (width 0.12))
  (fp_line (start 15.04 -14.44) (end 15.04 14.44) (layer F.SilkS) (width 0.12))
  (fp_line (start 15.08 -14.412) (end 15.08 14.412) (layer F.SilkS) (width 0.12))
  (fp_line (start 15.12 -14.384) (end 15.12 14.384) (layer F.SilkS) (width 0.12))
  (fp_line (start 15.16 -14.356) (end 15.16 14.356) (layer F.SilkS) (width 0.12))
  (fp_line (start 15.2 -14.328) (end 15.2 14.328) (layer F.SilkS) (width 0.12))
  (fp_line (start 15.24 -14.299) (end 15.24 14.299) (layer F.SilkS) (width 0.12))
  (fp_line (start 15.28 -14.271) (end 15.28 14.271) (layer F.SilkS) (width 0.12))
  (fp_line (start 15.32 -14.242) (end 15.32 14.242) (layer F.SilkS) (width 0.12))
  (fp_line (start 15.36 -14.213) (end 15.36 14.213) (layer F.SilkS) (width 0.12))
  (fp_line (start 15.4 -14.184) (end 15.4 14.184) (layer F.SilkS) (width 0.12))
  (fp_line (start 15.44 -14.155) (end 15.44 14.155) (layer F.SilkS) (width 0.12))
  (fp_line (start 15.48 -14.125) (end 15.48 14.125) (layer F.SilkS) (width 0.12))
  (fp_line (start 15.52 -14.095) (end 15.52 14.095) (layer F.SilkS) (width 0.12))
  (fp_line (start 15.56 -14.065) (end 15.56 14.065) (layer F.SilkS) (width 0.12))
  (fp_line (start 15.6 -14.035) (end 15.6 14.035) (layer F.SilkS) (width 0.12))
  (fp_line (start 15.64 -14.005) (end 15.64 14.005) (layer F.SilkS) (width 0.12))
  (fp_line (start 15.68 -13.975) (end 15.68 13.975) (layer F.SilkS) (width 0.12))
  (fp_line (start 15.72 -13.944) (end 15.72 13.944) (layer F.SilkS) (width 0.12))
  (fp_line (start 15.76 -13.914) (end 15.76 13.914) (layer F.SilkS) (width 0.12))
  (fp_line (start 15.8 -13.883) (end 15.8 13.883) (layer F.SilkS) (width 0.12))
  (fp_line (start 15.84 -13.851) (end 15.84 13.851) (layer F.SilkS) (width 0.12))
  (fp_line (start 15.88 -13.82) (end 15.88 13.82) (layer F.SilkS) (width 0.12))
  (fp_line (start 15.92 -13.789) (end 15.92 13.789) (layer F.SilkS) (width 0.12))
  (fp_line (start 15.96 -13.757) (end 15.96 13.757) (layer F.SilkS) (width 0.12))
  (fp_line (start 16 -13.725) (end 16 13.725) (layer F.SilkS) (width 0.12))
  (fp_line (start 16.04 -13.693) (end 16.04 13.693) (layer F.SilkS) (width 0.12))
  (fp_line (start 16.08 -13.661) (end 16.08 13.661) (layer F.SilkS) (width 0.12))
  (fp_line (start 16.12 -13.628) (end 16.12 13.628) (layer F.SilkS) (width 0.12))
  (fp_line (start 16.16 -13.596) (end 16.16 13.596) (layer F.SilkS) (width 0.12))
  (fp_line (start 16.2 -13.563) (end 16.2 13.563) (layer F.SilkS) (width 0.12))
  (fp_line (start 16.24 -13.53) (end 16.24 13.53) (layer F.SilkS) (width 0.12))
  (fp_line (start 16.28 -13.497) (end 16.28 13.497) (layer F.SilkS) (width 0.12))
  (fp_line (start 16.32 -13.463) (end 16.32 13.463) (layer F.SilkS) (width 0.12))
  (fp_line (start 16.36 -13.43) (end 16.36 13.43) (layer F.SilkS) (width 0.12))
  (fp_line (start 16.4 -13.396) (end 16.4 13.396) (layer F.SilkS) (width 0.12))
  (fp_line (start 16.44 -13.362) (end 16.44 13.362) (layer F.SilkS) (width 0.12))
  (fp_line (start 16.48 -13.327) (end 16.48 13.327) (layer F.SilkS) (width 0.12))
  (fp_line (start 16.52 -13.293) (end 16.52 13.293) (layer F.SilkS) (width 0.12))
  (fp_line (start 16.56 -13.258) (end 16.56 13.258) (layer F.SilkS) (width 0.12))
  (fp_line (start 16.6 -13.223) (end 16.6 13.223) (layer F.SilkS) (width 0.12))
  (fp_line (start 16.64 -13.188) (end 16.64 13.188) (layer F.SilkS) (width 0.12))
  (fp_line (start 16.68 -13.153) (end 16.68 13.153) (layer F.SilkS) (width 0.12))
  (fp_line (start 16.72 -13.117) (end 16.72 13.117) (layer F.SilkS) (width 0.12))
  (fp_line (start 16.76 -13.082) (end 16.76 13.082) (layer F.SilkS) (width 0.12))
  (fp_line (start 16.8 -13.046) (end 16.8 13.046) (layer F.SilkS) (width 0.12))
  (fp_line (start 16.84 -13.01) (end 16.84 13.01) (layer F.SilkS) (width 0.12))
  (fp_line (start 16.88 -12.973) (end 16.88 12.973) (layer F.SilkS) (width 0.12))
  (fp_line (start 16.92 -12.937) (end 16.92 12.937) (layer F.SilkS) (width 0.12))
  (fp_line (start 16.96 -12.9) (end 16.96 12.9) (layer F.SilkS) (width 0.12))
  (fp_line (start 17 -12.863) (end 17 12.863) (layer F.SilkS) (width 0.12))
  (fp_line (start 17.04 -12.825) (end 17.04 12.825) (layer F.SilkS) (width 0.12))
  (fp_line (start 17.08 -12.788) (end 17.08 12.788) (layer F.SilkS) (width 0.12))
  (fp_line (start 17.12 -12.75) (end 17.12 12.75) (layer F.SilkS) (width 0.12))
  (fp_line (start 17.16 -12.712) (end 17.16 12.712) (layer F.SilkS) (width 0.12))
  (fp_line (start 17.2 -12.674) (end 17.2 12.674) (layer F.SilkS) (width 0.12))
  (fp_line (start 17.24 -12.635) (end 17.24 12.635) (layer F.SilkS) (width 0.12))
  (fp_line (start 17.28 -12.596) (end 17.28 12.596) (layer F.SilkS) (width 0.12))
  (fp_line (start 17.32 -12.557) (end 17.32 12.557) (layer F.SilkS) (width 0.12))
  (fp_line (start 17.36 -12.518) (end 17.36 12.518) (layer F.SilkS) (width 0.12))
  (fp_line (start 17.4 -12.479) (end 17.4 12.479) (layer F.SilkS) (width 0.12))
  (fp_line (start 17.44 -12.439) (end 17.44 12.439) (layer F.SilkS) (width 0.12))
  (fp_line (start 17.48 -12.399) (end 17.48 12.399) (layer F.SilkS) (width 0.12))
  (fp_line (start 17.52 -12.359) (end 17.52 12.359) (layer F.SilkS) (width 0.12))
  (fp_line (start 17.56 -12.318) (end 17.56 12.318) (layer F.SilkS) (width 0.12))
  (fp_line (start 17.6 -12.277) (end 17.6 12.277) (layer F.SilkS) (width 0.12))
  (fp_line (start 17.64 -12.236) (end 17.64 12.236) (layer F.SilkS) (width 0.12))
  (fp_line (start 17.68 -12.195) (end 17.68 12.195) (layer F.SilkS) (width 0.12))
  (fp_line (start 17.72 -12.153) (end 17.72 12.153) (layer F.SilkS) (width 0.12))
  (fp_line (start 17.76 -12.111) (end 17.76 12.111) (layer F.SilkS) (width 0.12))
  (fp_line (start 17.8 -12.069) (end 17.8 12.069) (layer F.SilkS) (width 0.12))
  (fp_line (start 17.84 -12.027) (end 17.84 12.027) (layer F.SilkS) (width 0.12))
  (fp_line (start 17.88 -11.984) (end 17.88 11.984) (layer F.SilkS) (width 0.12))
  (fp_line (start 17.92 -11.941) (end 17.92 11.941) (layer F.SilkS) (width 0.12))
  (fp_line (start 17.96 -11.898) (end 17.96 11.898) (layer F.SilkS) (width 0.12))
  (fp_line (start 18 -11.854) (end 18 11.854) (layer F.SilkS) (width 0.12))
  (fp_line (start 18.04 -11.811) (end 18.04 11.811) (layer F.SilkS) (width 0.12))
  (fp_line (start 18.08 -11.766) (end 18.08 11.766) (layer F.SilkS) (width 0.12))
  (fp_line (start 18.12 -11.722) (end 18.12 11.722) (layer F.SilkS) (width 0.12))
  (fp_line (start 18.16 -11.677) (end 18.16 11.677) (layer F.SilkS) (width 0.12))
  (fp_line (start 18.2 -11.632) (end 18.2 11.632) (layer F.SilkS) (width 0.12))
  (fp_line (start 18.24 -11.587) (end 18.24 11.587) (layer F.SilkS) (width 0.12))
  (fp_line (start 18.28 -11.541) (end 18.28 11.541) (layer F.SilkS) (width 0.12))
  (fp_line (start 18.32 -11.495) (end 18.32 11.495) (layer F.SilkS) (width 0.12))
  (fp_line (start 18.36 -11.449) (end 18.36 11.449) (layer F.SilkS) (width 0.12))
  (fp_line (start 18.4 -11.402) (end 18.4 11.402) (layer F.SilkS) (width 0.12))
  (fp_line (start 18.44 -11.355) (end 18.44 11.355) (layer F.SilkS) (width 0.12))
  (fp_line (start 18.48 -11.307) (end 18.48 11.307) (layer F.SilkS) (width 0.12))
  (fp_line (start 18.52 -11.26) (end 18.52 11.26) (layer F.SilkS) (width 0.12))
  (fp_line (start 18.56 -11.212) (end 18.56 11.212) (layer F.SilkS) (width 0.12))
  (fp_line (start 18.6 -11.163) (end 18.6 11.163) (layer F.SilkS) (width 0.12))
  (fp_line (start 18.64 -11.115) (end 18.64 11.115) (layer F.SilkS) (width 0.12))
  (fp_line (start 18.68 -11.066) (end 18.68 11.066) (layer F.SilkS) (width 0.12))
  (fp_line (start 18.72 -11.016) (end 18.72 11.016) (layer F.SilkS) (width 0.12))
  (fp_line (start 18.76 -10.966) (end 18.76 10.966) (layer F.SilkS) (width 0.12))
  (fp_line (start 18.8 -10.916) (end 18.8 10.916) (layer F.SilkS) (width 0.12))
  (fp_line (start 18.84 -10.865) (end 18.84 10.865) (layer F.SilkS) (width 0.12))
  (fp_line (start 18.88 -10.815) (end 18.88 10.815) (layer F.SilkS) (width 0.12))
  (fp_line (start 18.92 -10.763) (end 18.92 10.763) (layer F.SilkS) (width 0.12))
  (fp_line (start 18.96 -10.711) (end 18.96 10.711) (layer F.SilkS) (width 0.12))
  (fp_line (start 19 -10.659) (end 19 10.659) (layer F.SilkS) (width 0.12))
  (fp_line (start 19.04 -10.607) (end 19.04 10.607) (layer F.SilkS) (width 0.12))
  (fp_line (start 19.08 -10.554) (end 19.08 10.554) (layer F.SilkS) (width 0.12))
  (fp_line (start 19.12 -10.5) (end 19.12 10.5) (layer F.SilkS) (width 0.12))
  (fp_line (start 19.16 -10.447) (end 19.16 10.447) (layer F.SilkS) (width 0.12))
  (fp_line (start 19.2 -10.392) (end 19.2 10.392) (layer F.SilkS) (width 0.12))
  (fp_line (start 19.24 -10.338) (end 19.24 10.338) (layer F.SilkS) (width 0.12))
  (fp_line (start 19.28 -10.283) (end 19.28 10.283) (layer F.SilkS) (width 0.12))
  (fp_line (start 19.32 -10.227) (end 19.32 10.227) (layer F.SilkS) (width 0.12))
  (fp_line (start 19.36 -10.171) (end 19.36 10.171) (layer F.SilkS) (width 0.12))
  (fp_line (start 19.4 -10.115) (end 19.4 10.115) (layer F.SilkS) (width 0.12))
  (fp_line (start 19.44 -10.058) (end 19.44 10.058) (layer F.SilkS) (width 0.12))
  (fp_line (start 19.48 -10) (end 19.48 10) (layer F.SilkS) (width 0.12))
  (fp_line (start 19.52 -9.942) (end 19.52 9.942) (layer F.SilkS) (width 0.12))
  (fp_line (start 19.56 -9.884) (end 19.56 9.884) (layer F.SilkS) (width 0.12))
  (fp_line (start 19.6 -9.825) (end 19.6 9.825) (layer F.SilkS) (width 0.12))
  (fp_line (start 19.64 -9.765) (end 19.64 9.765) (layer F.SilkS) (width 0.12))
  (fp_line (start 19.68 -9.705) (end 19.68 9.705) (layer F.SilkS) (width 0.12))
  (fp_line (start 19.72 -9.645) (end 19.72 9.645) (layer F.SilkS) (width 0.12))
  (fp_line (start 19.76 -9.584) (end 19.76 9.584) (layer F.SilkS) (width 0.12))
  (fp_line (start 19.8 -9.522) (end 19.8 9.522) (layer F.SilkS) (width 0.12))
  (fp_line (start 19.84 -9.46) (end 19.84 9.46) (layer F.SilkS) (width 0.12))
  (fp_line (start 19.88 -9.397) (end 19.88 9.397) (layer F.SilkS) (width 0.12))
  (fp_line (start 19.92 -9.334) (end 19.92 9.334) (layer F.SilkS) (width 0.12))
  (fp_line (start 19.96 -9.27) (end 19.96 9.27) (layer F.SilkS) (width 0.12))
  (fp_line (start 20 -9.205) (end 20 9.205) (layer F.SilkS) (width 0.12))
  (fp_line (start 20.04 -9.14) (end 20.04 9.14) (layer F.SilkS) (width 0.12))
  (fp_line (start 20.08 -9.074) (end 20.08 9.074) (layer F.SilkS) (width 0.12))
  (fp_line (start 20.12 -9.008) (end 20.12 9.008) (layer F.SilkS) (width 0.12))
  (fp_line (start 20.16 -8.94) (end 20.16 8.94) (layer F.SilkS) (width 0.12))
  (fp_line (start 20.2 -8.873) (end 20.2 8.873) (layer F.SilkS) (width 0.12))
  (fp_line (start 20.24 -8.804) (end 20.24 8.804) (layer F.SilkS) (width 0.12))
  (fp_line (start 20.28 -8.735) (end 20.28 8.735) (layer F.SilkS) (width 0.12))
  (fp_line (start 20.32 -8.665) (end 20.32 8.665) (layer F.SilkS) (width 0.12))
  (fp_line (start 20.36 -8.594) (end 20.36 8.594) (layer F.SilkS) (width 0.12))
  (fp_line (start 20.4 -8.522) (end 20.4 8.522) (layer F.SilkS) (width 0.12))
  (fp_line (start 20.44 -8.45) (end 20.44 8.45) (layer F.SilkS) (width 0.12))
  (fp_line (start 20.48 -8.377) (end 20.48 8.377) (layer F.SilkS) (width 0.12))
  (fp_line (start 20.52 -8.303) (end 20.52 8.303) (layer F.SilkS) (width 0.12))
  (fp_line (start 20.56 -8.228) (end 20.56 8.228) (layer F.SilkS) (width 0.12))
  (fp_line (start 20.6 -8.152) (end 20.6 8.152) (layer F.SilkS) (width 0.12))
  (fp_line (start 20.64 -8.076) (end 20.64 8.076) (layer F.SilkS) (width 0.12))
  (fp_line (start 20.68 -7.998) (end 20.68 7.998) (layer F.SilkS) (width 0.12))
  (fp_line (start 20.72 -7.92) (end 20.72 7.92) (layer F.SilkS) (width 0.12))
  (fp_line (start 20.76 -7.84) (end 20.76 7.84) (layer F.SilkS) (width 0.12))
  (fp_line (start 20.8 -7.759) (end 20.8 7.759) (layer F.SilkS) (width 0.12))
  (fp_line (start 20.84 -7.678) (end 20.84 7.678) (layer F.SilkS) (width 0.12))
  (fp_line (start 20.88 -7.595) (end 20.88 7.595) (layer F.SilkS) (width 0.12))
  (fp_line (start 20.92 -7.512) (end 20.92 7.512) (layer F.SilkS) (width 0.12))
  (fp_line (start 20.96 -7.427) (end 20.96 7.427) (layer F.SilkS) (width 0.12))
  (fp_line (start 21 -7.341) (end 21 7.341) (layer F.SilkS) (width 0.12))
  (fp_line (start 21.04 -7.253) (end 21.04 7.253) (layer F.SilkS) (width 0.12))
  (fp_line (start 21.08 -7.165) (end 21.08 7.165) (layer F.SilkS) (width 0.12))
  (fp_line (start 21.12 -7.075) (end 21.12 7.075) (layer F.SilkS) (width 0.12))
  (fp_line (start 21.16 -6.983) (end 21.16 6.983) (layer F.SilkS) (width 0.12))
  (fp_line (start 21.2 -6.89) (end 21.2 6.89) (layer F.SilkS) (width 0.12))
  (fp_line (start 21.24 -6.796) (end 21.24 6.796) (layer F.SilkS) (width 0.12))
  (fp_line (start 21.28 -6.7) (end 21.28 6.7) (layer F.SilkS) (width 0.12))
  (fp_line (start 21.32 -6.603) (end 21.32 6.603) (layer F.SilkS) (width 0.12))
  (fp_line (start 21.36 -6.504) (end 21.36 6.504) (layer F.SilkS) (width 0.12))
  (fp_line (start 21.4 -6.403) (end 21.4 6.403) (layer F.SilkS) (width 0.12))
  (fp_line (start 21.44 -6.3) (end 21.44 6.3) (layer F.SilkS) (width 0.12))
  (fp_line (start 21.48 -6.195) (end 21.48 6.195) (layer F.SilkS) (width 0.12))
  (fp_line (start 21.52 -6.089) (end 21.52 6.089) (layer F.SilkS) (width 0.12))
  (fp_line (start 21.56 -5.98) (end 21.56 5.98) (layer F.SilkS) (width 0.12))
  (fp_line (start 21.6 -5.868) (end 21.6 5.868) (layer F.SilkS) (width 0.12))
  (fp_line (start 21.64 -5.755) (end 21.64 5.755) (layer F.SilkS) (width 0.12))
  (fp_line (start 21.68 -5.639) (end 21.68 5.639) (layer F.SilkS) (width 0.12))
  (fp_line (start 21.72 -5.52) (end 21.72 5.52) (layer F.SilkS) (width 0.12))
  (fp_line (start 21.76 -5.398) (end 21.76 5.398) (layer F.SilkS) (width 0.12))
  (fp_line (start 21.8 -5.273) (end 21.8 5.273) (layer F.SilkS) (width 0.12))
  (fp_line (start 21.84 -5.145) (end 21.84 5.145) (layer F.SilkS) (width 0.12))
  (fp_line (start 21.88 -5.013) (end 21.88 5.013) (layer F.SilkS) (width 0.12))
  (fp_line (start 21.92 -4.878) (end 21.92 4.878) (layer F.SilkS) (width 0.12))
  (fp_line (start 21.96 -4.738) (end 21.96 4.738) (layer F.SilkS) (width 0.12))
  (fp_line (start 22 -4.593) (end 22 4.593) (layer F.SilkS) (width 0.12))
  (fp_line (start 22.04 -4.444) (end 22.04 4.444) (layer F.SilkS) (width 0.12))
  (fp_line (start 22.08 -4.289) (end 22.08 4.289) (layer F.SilkS) (width 0.12))
  (fp_line (start 22.12 -4.128) (end 22.12 4.128) (layer F.SilkS) (width 0.12))
  (fp_line (start 22.16 -3.96) (end 22.16 3.96) (layer F.SilkS) (width 0.12))
  (fp_line (start 22.2 -3.785) (end 22.2 3.785) (layer F.SilkS) (width 0.12))
  (fp_line (start 22.24 -3.6) (end 22.24 3.6) (layer F.SilkS) (width 0.12))
  (fp_line (start 22.28 -3.405) (end 22.28 3.405) (layer F.SilkS) (width 0.12))
  (fp_line (start 22.32 -3.198) (end 22.32 3.198) (layer F.SilkS) (width 0.12))
  (fp_line (start 22.36 -2.976) (end 22.36 2.976) (layer F.SilkS) (width 0.12))
  (fp_line (start 22.4 -2.736) (end 22.4 2.736) (layer F.SilkS) (width 0.12))
  (fp_line (start 22.44 -2.473) (end 22.44 2.473) (layer F.SilkS) (width 0.12))
  (fp_line (start 22.48 -2.177) (end 22.48 2.177) (layer F.SilkS) (width 0.12))
  (fp_line (start 22.52 -1.835) (end 22.52 1.835) (layer F.SilkS) (width 0.12))
  (fp_line (start 22.56 -1.413) (end 22.56 1.413) (layer F.SilkS) (width 0.12))
  (fp_line (start 22.6 -0.8) (end 22.6 0.8) (layer F.SilkS) (width 0.12))
  (fp_line (start -13.854002 -9.875) (end -10.354002 -9.875) (layer F.SilkS) (width 0.12))
  (fp_line (start -12.104002 -11.625) (end -12.104002 -8.125) (layer F.SilkS) (width 0.12))
  (pad 2 thru_hole circle (at 6.7 -4.75) (size 5 5) (drill 2.5) (layers *.Cu *.Mask))
  (pad 2 thru_hole circle (at 10 0) (size 4 4) (drill 2) (layers *.Cu *.Mask))
  (pad 1 thru_hole rect (at 0 0) (size 4 4) (drill 2) (layers *.Cu *.Mask))
  (model ${KISYS3DMOD}/Capacitor_THT.3dshapes/CP_Radial_D35.0mm_P10.00mm_3pin_SnapIn.wrl
    (at (xyz 0 0 0))
    (scale (xyz 1 1 1))
    (rotate (xyz 0 0 0))
  )
)
