(module CP_Radial_D13.0mm_P5.00mm (layer F.Cu) (tedit 5AE50EF1)
  (descr "CP, Radial series, Radial, pin pitch=5.00mm, , diameter=13mm, Electrolytic Capacitor")
  (tags "CP Radial series Radial pin pitch 5.00mm  diameter 13mm Electrolytic Capacitor")
  (fp_text reference REF** (at 2.5 -7.75) (layer F.SilkS)
    (effects (font (size 1 1) (thickness 0.15)))
  )
  (fp_text value CP_Radial_D13.0mm_P5.00mm (at 2.5 7.75) (layer F.Fab)
    (effects (font (size 1 1) (thickness 0.15)))
  )
  (fp_text user %R (at 2.5 0) (layer F.Fab)
    (effects (font (size 1 1) (thickness 0.15)))
  )
  (fp_circle (center 2.5 0) (end 9 0) (layer F.Fab) (width 0.1))
  (fp_circle (center 2.5 0) (end 9.12 0) (layer F.SilkS) (width 0.12))
  (fp_circle (center 2.5 0) (end 9.25 0) (layer F.CrtYd) (width 0.05))
  (fp_line (start -3.082015 -2.8475) (end -1.782015 -2.8475) (layer F.Fab) (width 0.1))
  (fp_line (start -2.432015 -3.4975) (end -2.432015 -2.1975) (layer F.Fab) (width 0.1))
  (fp_line (start 2.5 -6.58) (end 2.5 6.58) (layer F.SilkS) (width 0.12))
  (fp_line (start 2.54 -6.58) (end 2.54 6.58) (layer F.SilkS) (width 0.12))
  (fp_line (start 2.58 -6.58) (end 2.58 6.58) (layer F.SilkS) (width 0.12))
  (fp_line (start 2.62 -6.579) (end 2.62 6.579) (layer F.SilkS) (width 0.12))
  (fp_line (start 2.66 -6.579) (end 2.66 6.579) (layer F.SilkS) (width 0.12))
  (fp_line (start 2.7 -6.577) (end 2.7 6.577) (layer F.SilkS) (width 0.12))
  (fp_line (start 2.74 -6.576) (end 2.74 6.576) (layer F.SilkS) (width 0.12))
  (fp_line (start 2.78 -6.575) (end 2.78 6.575) (layer F.SilkS) (width 0.12))
  (fp_line (start 2.82 -6.573) (end 2.82 6.573) (layer F.SilkS) (width 0.12))
  (fp_line (start 2.86 -6.571) (end 2.86 6.571) (layer F.SilkS) (width 0.12))
  (fp_line (start 2.9 -6.568) (end 2.9 6.568) (layer F.SilkS) (width 0.12))
  (fp_line (start 2.94 -6.566) (end 2.94 6.566) (layer F.SilkS) (width 0.12))
  (fp_line (start 2.98 -6.563) (end 2.98 6.563) (layer F.SilkS) (width 0.12))
  (fp_line (start 3.02 -6.56) (end 3.02 6.56) (layer F.SilkS) (width 0.12))
  (fp_line (start 3.06 -6.557) (end 3.06 6.557) (layer F.SilkS) (width 0.12))
  (fp_line (start 3.1 -6.553) (end 3.1 6.553) (layer F.SilkS) (width 0.12))
  (fp_line (start 3.14 -6.549) (end 3.14 6.549) (layer F.SilkS) (width 0.12))
  (fp_line (start 3.18 -6.545) (end 3.18 6.545) (layer F.SilkS) (width 0.12))
  (fp_line (start 3.221 -6.541) (end 3.221 6.541) (layer F.SilkS) (width 0.12))
  (fp_line (start 3.261 -6.537) (end 3.261 6.537) (layer F.SilkS) (width 0.12))
  (fp_line (start 3.301 -6.532) (end 3.301 6.532) (layer F.SilkS) (width 0.12))
  (fp_line (start 3.341 -6.527) (end 3.341 6.527) (layer F.SilkS) (width 0.12))
  (fp_line (start 3.381 -6.522) (end 3.381 6.522) (layer F.SilkS) (width 0.12))
  (fp_line (start 3.421 -6.516) (end 3.421 6.516) (layer F.SilkS) (width 0.12))
  (fp_line (start 3.461 -6.511) (end 3.461 6.511) (layer F.SilkS) (width 0.12))
  (fp_line (start 3.501 -6.505) (end 3.501 6.505) (layer F.SilkS) (width 0.12))
  (fp_line (start 3.541 -6.498) (end 3.541 6.498) (layer F.SilkS) (width 0.12))
  (fp_line (start 3.581 -6.492) (end 3.581 -1.44) (layer F.SilkS) (width 0.12))
  (fp_line (start 3.581 1.44) (end 3.581 6.492) (layer F.SilkS) (width 0.12))
  (fp_line (start 3.621 -6.485) (end 3.621 -1.44) (layer F.SilkS) (width 0.12))
  (fp_line (start 3.621 1.44) (end 3.621 6.485) (layer F.SilkS) (width 0.12))
  (fp_line (start 3.661 -6.478) (end 3.661 -1.44) (layer F.SilkS) (width 0.12))
  (fp_line (start 3.661 1.44) (end 3.661 6.478) (layer F.SilkS) (width 0.12))
  (fp_line (start 3.701 -6.471) (end 3.701 -1.44) (layer F.SilkS) (width 0.12))
  (fp_line (start 3.701 1.44) (end 3.701 6.471) (layer F.SilkS) (width 0.12))
  (fp_line (start 3.741 -6.463) (end 3.741 -1.44) (layer F.SilkS) (width 0.12))
  (fp_line (start 3.741 1.44) (end 3.741 6.463) (layer F.SilkS) (width 0.12))
  (fp_line (start 3.781 -6.456) (end 3.781 -1.44) (layer F.SilkS) (width 0.12))
  (fp_line (start 3.781 1.44) (end 3.781 6.456) (layer F.SilkS) (width 0.12))
  (fp_line (start 3.821 -6.448) (end 3.821 -1.44) (layer F.SilkS) (width 0.12))
  (fp_line (start 3.821 1.44) (end 3.821 6.448) (layer F.SilkS) (width 0.12))
  (fp_line (start 3.861 -6.439) (end 3.861 -1.44) (layer F.SilkS) (width 0.12))
  (fp_line (start 3.861 1.44) (end 3.861 6.439) (layer F.SilkS) (width 0.12))
  (fp_line (start 3.901 -6.431) (end 3.901 -1.44) (layer F.SilkS) (width 0.12))
  (fp_line (start 3.901 1.44) (end 3.901 6.431) (layer F.SilkS) (width 0.12))
  (fp_line (start 3.941 -6.422) (end 3.941 -1.44) (layer F.SilkS) (width 0.12))
  (fp_line (start 3.941 1.44) (end 3.941 6.422) (layer F.SilkS) (width 0.12))
  (fp_line (start 3.981 -6.413) (end 3.981 -1.44) (layer F.SilkS) (width 0.12))
  (fp_line (start 3.981 1.44) (end 3.981 6.413) (layer F.SilkS) (width 0.12))
  (fp_line (start 4.021 -6.404) (end 4.021 -1.44) (layer F.SilkS) (width 0.12))
  (fp_line (start 4.021 1.44) (end 4.021 6.404) (layer F.SilkS) (width 0.12))
  (fp_line (start 4.061 -6.394) (end 4.061 -1.44) (layer F.SilkS) (width 0.12))
  (fp_line (start 4.061 1.44) (end 4.061 6.394) (layer F.SilkS) (width 0.12))
  (fp_line (start 4.101 -6.384) (end 4.101 -1.44) (layer F.SilkS) (width 0.12))
  (fp_line (start 4.101 1.44) (end 4.101 6.384) (layer F.SilkS) (width 0.12))
  (fp_line (start 4.141 -6.374) (end 4.141 -1.44) (layer F.SilkS) (width 0.12))
  (fp_line (start 4.141 1.44) (end 4.141 6.374) (layer F.SilkS) (width 0.12))
  (fp_line (start 4.181 -6.364) (end 4.181 -1.44) (layer F.SilkS) (width 0.12))
  (fp_line (start 4.181 1.44) (end 4.181 6.364) (layer F.SilkS) (width 0.12))
  (fp_line (start 4.221 -6.353) (end 4.221 -1.44) (layer F.SilkS) (width 0.12))
  (fp_line (start 4.221 1.44) (end 4.221 6.353) (layer F.SilkS) (width 0.12))
  (fp_line (start 4.261 -6.342) (end 4.261 -1.44) (layer F.SilkS) (width 0.12))
  (fp_line (start 4.261 1.44) (end 4.261 6.342) (layer F.SilkS) (width 0.12))
  (fp_line (start 4.301 -6.331) (end 4.301 -1.44) (layer F.SilkS) (width 0.12))
  (fp_line (start 4.301 1.44) (end 4.301 6.331) (layer F.SilkS) (width 0.12))
  (fp_line (start 4.341 -6.32) (end 4.341 -1.44) (layer F.SilkS) (width 0.12))
  (fp_line (start 4.341 1.44) (end 4.341 6.32) (layer F.SilkS) (width 0.12))
  (fp_line (start 4.381 -6.308) (end 4.381 -1.44) (layer F.SilkS) (width 0.12))
  (fp_line (start 4.381 1.44) (end 4.381 6.308) (layer F.SilkS) (width 0.12))
  (fp_line (start 4.421 -6.296) (end 4.421 -1.44) (layer F.SilkS) (width 0.12))
  (fp_line (start 4.421 1.44) (end 4.421 6.296) (layer F.SilkS) (width 0.12))
  (fp_line (start 4.461 -6.284) (end 4.461 -1.44) (layer F.SilkS) (width 0.12))
  (fp_line (start 4.461 1.44) (end 4.461 6.284) (layer F.SilkS) (width 0.12))
  (fp_line (start 4.501 -6.271) (end 4.501 -1.44) (layer F.SilkS) (width 0.12))
  (fp_line (start 4.501 1.44) (end 4.501 6.271) (layer F.SilkS) (width 0.12))
  (fp_line (start 4.541 -6.258) (end 4.541 -1.44) (layer F.SilkS) (width 0.12))
  (fp_line (start 4.541 1.44) (end 4.541 6.258) (layer F.SilkS) (width 0.12))
  (fp_line (start 4.581 -6.245) (end 4.581 -1.44) (layer F.SilkS) (width 0.12))
  (fp_line (start 4.581 1.44) (end 4.581 6.245) (layer F.SilkS) (width 0.12))
  (fp_line (start 4.621 -6.232) (end 4.621 -1.44) (layer F.SilkS) (width 0.12))
  (fp_line (start 4.621 1.44) (end 4.621 6.232) (layer F.SilkS) (width 0.12))
  (fp_line (start 4.661 -6.218) (end 4.661 -1.44) (layer F.SilkS) (width 0.12))
  (fp_line (start 4.661 1.44) (end 4.661 6.218) (layer F.SilkS) (width 0.12))
  (fp_line (start 4.701 -6.204) (end 4.701 -1.44) (layer F.SilkS) (width 0.12))
  (fp_line (start 4.701 1.44) (end 4.701 6.204) (layer F.SilkS) (width 0.12))
  (fp_line (start 4.741 -6.19) (end 4.741 -1.44) (layer F.SilkS) (width 0.12))
  (fp_line (start 4.741 1.44) (end 4.741 6.19) (layer F.SilkS) (width 0.12))
  (fp_line (start 4.781 -6.175) (end 4.781 -1.44) (layer F.SilkS) (width 0.12))
  (fp_line (start 4.781 1.44) (end 4.781 6.175) (layer F.SilkS) (width 0.12))
  (fp_line (start 4.821 -6.161) (end 4.821 -1.44) (layer F.SilkS) (width 0.12))
  (fp_line (start 4.821 1.44) (end 4.821 6.161) (layer F.SilkS) (width 0.12))
  (fp_line (start 4.861 -6.146) (end 4.861 -1.44) (layer F.SilkS) (width 0.12))
  (fp_line (start 4.861 1.44) (end 4.861 6.146) (layer F.SilkS) (width 0.12))
  (fp_line (start 4.901 -6.13) (end 4.901 -1.44) (layer F.SilkS) (width 0.12))
  (fp_line (start 4.901 1.44) (end 4.901 6.13) (layer F.SilkS) (width 0.12))
  (fp_line (start 4.941 -6.114) (end 4.941 -1.44) (layer F.SilkS) (width 0.12))
  (fp_line (start 4.941 1.44) (end 4.941 6.114) (layer F.SilkS) (width 0.12))
  (fp_line (start 4.981 -6.098) (end 4.981 -1.44) (layer F.SilkS) (width 0.12))
  (fp_line (start 4.981 1.44) (end 4.981 6.098) (layer F.SilkS) (width 0.12))
  (fp_line (start 5.021 -6.082) (end 5.021 -1.44) (layer F.SilkS) (width 0.12))
  (fp_line (start 5.021 1.44) (end 5.021 6.082) (layer F.SilkS) (width 0.12))
  (fp_line (start 5.061 -6.065) (end 5.061 -1.44) (layer F.SilkS) (width 0.12))
  (fp_line (start 5.061 1.44) (end 5.061 6.065) (layer F.SilkS) (width 0.12))
  (fp_line (start 5.101 -6.049) (end 5.101 -1.44) (layer F.SilkS) (width 0.12))
  (fp_line (start 5.101 1.44) (end 5.101 6.049) (layer F.SilkS) (width 0.12))
  (fp_line (start 5.141 -6.031) (end 5.141 -1.44) (layer F.SilkS) (width 0.12))
  (fp_line (start 5.141 1.44) (end 5.141 6.031) (layer F.SilkS) (width 0.12))
  (fp_line (start 5.181 -6.014) (end 5.181 -1.44) (layer F.SilkS) (width 0.12))
  (fp_line (start 5.181 1.44) (end 5.181 6.014) (layer F.SilkS) (width 0.12))
  (fp_line (start 5.221 -5.996) (end 5.221 -1.44) (layer F.SilkS) (width 0.12))
  (fp_line (start 5.221 1.44) (end 5.221 5.996) (layer F.SilkS) (width 0.12))
  (fp_line (start 5.261 -5.978) (end 5.261 -1.44) (layer F.SilkS) (width 0.12))
  (fp_line (start 5.261 1.44) (end 5.261 5.978) (layer F.SilkS) (width 0.12))
  (fp_line (start 5.301 -5.959) (end 5.301 -1.44) (layer F.SilkS) (width 0.12))
  (fp_line (start 5.301 1.44) (end 5.301 5.959) (layer F.SilkS) (width 0.12))
  (fp_line (start 5.341 -5.94) (end 5.341 -1.44) (layer F.SilkS) (width 0.12))
  (fp_line (start 5.341 1.44) (end 5.341 5.94) (layer F.SilkS) (width 0.12))
  (fp_line (start 5.381 -5.921) (end 5.381 -1.44) (layer F.SilkS) (width 0.12))
  (fp_line (start 5.381 1.44) (end 5.381 5.921) (layer F.SilkS) (width 0.12))
  (fp_line (start 5.421 -5.902) (end 5.421 -1.44) (layer F.SilkS) (width 0.12))
  (fp_line (start 5.421 1.44) (end 5.421 5.902) (layer F.SilkS) (width 0.12))
  (fp_line (start 5.461 -5.882) (end 5.461 -1.44) (layer F.SilkS) (width 0.12))
  (fp_line (start 5.461 1.44) (end 5.461 5.882) (layer F.SilkS) (width 0.12))
  (fp_line (start 5.501 -5.862) (end 5.501 -1.44) (layer F.SilkS) (width 0.12))
  (fp_line (start 5.501 1.44) (end 5.501 5.862) (layer F.SilkS) (width 0.12))
  (fp_line (start 5.541 -5.841) (end 5.541 -1.44) (layer F.SilkS) (width 0.12))
  (fp_line (start 5.541 1.44) (end 5.541 5.841) (layer F.SilkS) (width 0.12))
  (fp_line (start 5.581 -5.82) (end 5.581 -1.44) (layer F.SilkS) (width 0.12))
  (fp_line (start 5.581 1.44) (end 5.581 5.82) (layer F.SilkS) (width 0.12))
  (fp_line (start 5.621 -5.799) (end 5.621 -1.44) (layer F.SilkS) (width 0.12))
  (fp_line (start 5.621 1.44) (end 5.621 5.799) (layer F.SilkS) (width 0.12))
  (fp_line (start 5.661 -5.778) (end 5.661 -1.44) (layer F.SilkS) (width 0.12))
  (fp_line (start 5.661 1.44) (end 5.661 5.778) (layer F.SilkS) (width 0.12))
  (fp_line (start 5.701 -5.756) (end 5.701 -1.44) (layer F.SilkS) (width 0.12))
  (fp_line (start 5.701 1.44) (end 5.701 5.756) (layer F.SilkS) (width 0.12))
  (fp_line (start 5.741 -5.733) (end 5.741 -1.44) (layer F.SilkS) (width 0.12))
  (fp_line (start 5.741 1.44) (end 5.741 5.733) (layer F.SilkS) (width 0.12))
  (fp_line (start 5.781 -5.711) (end 5.781 -1.44) (layer F.SilkS) (width 0.12))
  (fp_line (start 5.781 1.44) (end 5.781 5.711) (layer F.SilkS) (width 0.12))
  (fp_line (start 5.821 -5.688) (end 5.821 -1.44) (layer F.SilkS) (width 0.12))
  (fp_line (start 5.821 1.44) (end 5.821 5.688) (layer F.SilkS) (width 0.12))
  (fp_line (start 5.861 -5.664) (end 5.861 -1.44) (layer F.SilkS) (width 0.12))
  (fp_line (start 5.861 1.44) (end 5.861 5.664) (layer F.SilkS) (width 0.12))
  (fp_line (start 5.901 -5.641) (end 5.901 -1.44) (layer F.SilkS) (width 0.12))
  (fp_line (start 5.901 1.44) (end 5.901 5.641) (layer F.SilkS) (width 0.12))
  (fp_line (start 5.941 -5.617) (end 5.941 -1.44) (layer F.SilkS) (width 0.12))
  (fp_line (start 5.941 1.44) (end 5.941 5.617) (layer F.SilkS) (width 0.12))
  (fp_line (start 5.981 -5.592) (end 5.981 -1.44) (layer F.SilkS) (width 0.12))
  (fp_line (start 5.981 1.44) (end 5.981 5.592) (layer F.SilkS) (width 0.12))
  (fp_line (start 6.021 -5.567) (end 6.021 -1.44) (layer F.SilkS) (width 0.12))
  (fp_line (start 6.021 1.44) (end 6.021 5.567) (layer F.SilkS) (width 0.12))
  (fp_line (start 6.061 -5.542) (end 6.061 -1.44) (layer F.SilkS) (width 0.12))
  (fp_line (start 6.061 1.44) (end 6.061 5.542) (layer F.SilkS) (width 0.12))
  (fp_line (start 6.101 -5.516) (end 6.101 -1.44) (layer F.SilkS) (width 0.12))
  (fp_line (start 6.101 1.44) (end 6.101 5.516) (layer F.SilkS) (width 0.12))
  (fp_line (start 6.141 -5.49) (end 6.141 -1.44) (layer F.SilkS) (width 0.12))
  (fp_line (start 6.141 1.44) (end 6.141 5.49) (layer F.SilkS) (width 0.12))
  (fp_line (start 6.181 -5.463) (end 6.181 -1.44) (layer F.SilkS) (width 0.12))
  (fp_line (start 6.181 1.44) (end 6.181 5.463) (layer F.SilkS) (width 0.12))
  (fp_line (start 6.221 -5.436) (end 6.221 -1.44) (layer F.SilkS) (width 0.12))
  (fp_line (start 6.221 1.44) (end 6.221 5.436) (layer F.SilkS) (width 0.12))
  (fp_line (start 6.261 -5.409) (end 6.261 -1.44) (layer F.SilkS) (width 0.12))
  (fp_line (start 6.261 1.44) (end 6.261 5.409) (layer F.SilkS) (width 0.12))
  (fp_line (start 6.301 -5.381) (end 6.301 -1.44) (layer F.SilkS) (width 0.12))
  (fp_line (start 6.301 1.44) (end 6.301 5.381) (layer F.SilkS) (width 0.12))
  (fp_line (start 6.341 -5.353) (end 6.341 -1.44) (layer F.SilkS) (width 0.12))
  (fp_line (start 6.341 1.44) (end 6.341 5.353) (layer F.SilkS) (width 0.12))
  (fp_line (start 6.381 -5.324) (end 6.381 -1.44) (layer F.SilkS) (width 0.12))
  (fp_line (start 6.381 1.44) (end 6.381 5.324) (layer F.SilkS) (width 0.12))
  (fp_line (start 6.421 -5.295) (end 6.421 -1.44) (layer F.SilkS) (width 0.12))
  (fp_line (start 6.421 1.44) (end 6.421 5.295) (layer F.SilkS) (width 0.12))
  (fp_line (start 6.461 -5.265) (end 6.461 5.265) (layer F.SilkS) (width 0.12))
  (fp_line (start 6.501 -5.235) (end 6.501 5.235) (layer F.SilkS) (width 0.12))
  (fp_line (start 6.541 -5.205) (end 6.541 5.205) (layer F.SilkS) (width 0.12))
  (fp_line (start 6.581 -5.174) (end 6.581 5.174) (layer F.SilkS) (width 0.12))
  (fp_line (start 6.621 -5.142) (end 6.621 5.142) (layer F.SilkS) (width 0.12))
  (fp_line (start 6.661 -5.11) (end 6.661 5.11) (layer F.SilkS) (width 0.12))
  (fp_line (start 6.701 -5.078) (end 6.701 5.078) (layer F.SilkS) (width 0.12))
  (fp_line (start 6.741 -5.044) (end 6.741 5.044) (layer F.SilkS) (width 0.12))
  (fp_line (start 6.781 -5.011) (end 6.781 5.011) (layer F.SilkS) (width 0.12))
  (fp_line (start 6.821 -4.977) (end 6.821 4.977) (layer F.SilkS) (width 0.12))
  (fp_line (start 6.861 -4.942) (end 6.861 4.942) (layer F.SilkS) (width 0.12))
  (fp_line (start 6.901 -4.907) (end 6.901 4.907) (layer F.SilkS) (width 0.12))
  (fp_line (start 6.941 -4.871) (end 6.941 4.871) (layer F.SilkS) (width 0.12))
  (fp_line (start 6.981 -4.834) (end 6.981 4.834) (layer F.SilkS) (width 0.12))
  (fp_line (start 7.021 -4.797) (end 7.021 4.797) (layer F.SilkS) (width 0.12))
  (fp_line (start 7.061 -4.76) (end 7.061 4.76) (layer F.SilkS) (width 0.12))
  (fp_line (start 7.101 -4.721) (end 7.101 4.721) (layer F.SilkS) (width 0.12))
  (fp_line (start 7.141 -4.682) (end 7.141 4.682) (layer F.SilkS) (width 0.12))
  (fp_line (start 7.181 -4.643) (end 7.181 4.643) (layer F.SilkS) (width 0.12))
  (fp_line (start 7.221 -4.602) (end 7.221 4.602) (layer F.SilkS) (width 0.12))
  (fp_line (start 7.261 -4.561) (end 7.261 4.561) (layer F.SilkS) (width 0.12))
  (fp_line (start 7.301 -4.519) (end 7.301 4.519) (layer F.SilkS) (width 0.12))
  (fp_line (start 7.341 -4.477) (end 7.341 4.477) (layer F.SilkS) (width 0.12))
  (fp_line (start 7.381 -4.434) (end 7.381 4.434) (layer F.SilkS) (width 0.12))
  (fp_line (start 7.421 -4.39) (end 7.421 4.39) (layer F.SilkS) (width 0.12))
  (fp_line (start 7.461 -4.345) (end 7.461 4.345) (layer F.SilkS) (width 0.12))
  (fp_line (start 7.501 -4.299) (end 7.501 4.299) (layer F.SilkS) (width 0.12))
  (fp_line (start 7.541 -4.253) (end 7.541 4.253) (layer F.SilkS) (width 0.12))
  (fp_line (start 7.581 -4.205) (end 7.581 4.205) (layer F.SilkS) (width 0.12))
  (fp_line (start 7.621 -4.157) (end 7.621 4.157) (layer F.SilkS) (width 0.12))
  (fp_line (start 7.661 -4.108) (end 7.661 4.108) (layer F.SilkS) (width 0.12))
  (fp_line (start 7.701 -4.057) (end 7.701 4.057) (layer F.SilkS) (width 0.12))
  (fp_line (start 7.741 -4.006) (end 7.741 4.006) (layer F.SilkS) (width 0.12))
  (fp_line (start 7.781 -3.954) (end 7.781 3.954) (layer F.SilkS) (width 0.12))
  (fp_line (start 7.821 -3.9) (end 7.821 3.9) (layer F.SilkS) (width 0.12))
  (fp_line (start 7.861 -3.846) (end 7.861 3.846) (layer F.SilkS) (width 0.12))
  (fp_line (start 7.901 -3.79) (end 7.901 3.79) (layer F.SilkS) (width 0.12))
  (fp_line (start 7.941 -3.733) (end 7.941 3.733) (layer F.SilkS) (width 0.12))
  (fp_line (start 7.981 -3.675) (end 7.981 3.675) (layer F.SilkS) (width 0.12))
  (fp_line (start 8.021 -3.615) (end 8.021 3.615) (layer F.SilkS) (width 0.12))
  (fp_line (start 8.061 -3.554) (end 8.061 3.554) (layer F.SilkS) (width 0.12))
  (fp_line (start 8.101 -3.491) (end 8.101 3.491) (layer F.SilkS) (width 0.12))
  (fp_line (start 8.141 -3.427) (end 8.141 3.427) (layer F.SilkS) (width 0.12))
  (fp_line (start 8.181 -3.361) (end 8.181 3.361) (layer F.SilkS) (width 0.12))
  (fp_line (start 8.221 -3.293) (end 8.221 3.293) (layer F.SilkS) (width 0.12))
  (fp_line (start 8.261 -3.223) (end 8.261 3.223) (layer F.SilkS) (width 0.12))
  (fp_line (start 8.301 -3.152) (end 8.301 3.152) (layer F.SilkS) (width 0.12))
  (fp_line (start 8.341 -3.078) (end 8.341 3.078) (layer F.SilkS) (width 0.12))
  (fp_line (start 8.381 -3.002) (end 8.381 3.002) (layer F.SilkS) (width 0.12))
  (fp_line (start 8.421 -2.923) (end 8.421 2.923) (layer F.SilkS) (width 0.12))
  (fp_line (start 8.461 -2.842) (end 8.461 2.842) (layer F.SilkS) (width 0.12))
  (fp_line (start 8.501 -2.758) (end 8.501 2.758) (layer F.SilkS) (width 0.12))
  (fp_line (start 8.541 -2.67) (end 8.541 2.67) (layer F.SilkS) (width 0.12))
  (fp_line (start 8.581 -2.579) (end 8.581 2.579) (layer F.SilkS) (width 0.12))
  (fp_line (start 8.621 -2.484) (end 8.621 2.484) (layer F.SilkS) (width 0.12))
  (fp_line (start 8.661 -2.385) (end 8.661 2.385) (layer F.SilkS) (width 0.12))
  (fp_line (start 8.701 -2.281) (end 8.701 2.281) (layer F.SilkS) (width 0.12))
  (fp_line (start 8.741 -2.171) (end 8.741 2.171) (layer F.SilkS) (width 0.12))
  (fp_line (start 8.781 -2.055) (end 8.781 2.055) (layer F.SilkS) (width 0.12))
  (fp_line (start 8.821 -1.931) (end 8.821 1.931) (layer F.SilkS) (width 0.12))
  (fp_line (start 8.861 -1.798) (end 8.861 1.798) (layer F.SilkS) (width 0.12))
  (fp_line (start 8.901 -1.653) (end 8.901 1.653) (layer F.SilkS) (width 0.12))
  (fp_line (start 8.941 -1.494) (end 8.941 1.494) (layer F.SilkS) (width 0.12))
  (fp_line (start 8.981 -1.315) (end 8.981 1.315) (layer F.SilkS) (width 0.12))
  (fp_line (start 9.021 -1.107) (end 9.021 1.107) (layer F.SilkS) (width 0.12))
  (fp_line (start 9.061 -0.85) (end 9.061 0.85) (layer F.SilkS) (width 0.12))
  (fp_line (start 9.101 -0.475) (end 9.101 0.475) (layer F.SilkS) (width 0.12))
  (fp_line (start -4.584569 -3.715) (end -3.284569 -3.715) (layer F.SilkS) (width 0.12))
  (fp_line (start -3.934569 -4.365) (end -3.934569 -3.065) (layer F.SilkS) (width 0.12))
  (pad 2 thru_hole circle (at 5 0) (size 2.4 2.4) (drill 1.2) (layers *.Cu *.Mask))
  (pad 1 thru_hole rect (at 0 0) (size 2.4 2.4) (drill 1.2) (layers *.Cu *.Mask))
  (model ${KISYS3DMOD}/Capacitor_THT.3dshapes/CP_Radial_D13.0mm_P5.00mm.wrl
    (at (xyz 0 0 0))
    (scale (xyz 1 1 1))
    (rotate (xyz 0 0 0))
  )
)
