(module R_0815_2038Metric_Pad1.20x4.05mm (layer F.Cu) (tedit 609037E8)
  (descr "Resistor SMD 0815 (2038 Metric), square (rectangular) end terminal, IPC_7351 nominal with elongated pad for handsoldering. (Body size source: https://www.susumu.co.jp/common/pdf/n_catalog_partition07_en.pdf), Alternate KiCad Library")
  (tags "resistor handsolder")
  (attr smd)
  (fp_text reference REF** (at 0 -3.048) (layer F.SilkS)
    (effects (font (size 1 1) (thickness 0.15)))
  )
  (fp_text value R_0815_2038Metric_Pad1.20x4.05mm (at 0 2.98) (layer F.Fab)
    (effects (font (size 1 1) (thickness 0.15)))
  )
  (fp_line (start 1.88 2.28) (end -1.88 2.28) (layer F.CrtYd) (width 0.05))
  (fp_line (start 1.88 -2.28) (end 1.88 2.28) (layer F.CrtYd) (width 0.05))
  (fp_line (start -1.88 -2.28) (end 1.88 -2.28) (layer F.CrtYd) (width 0.05))
  (fp_line (start -1.88 2.28) (end -1.88 -2.28) (layer F.CrtYd) (width 0.05))
  (fp_line (start 1 1.875) (end -1 1.875) (layer F.Fab) (width 0.1))
  (fp_line (start 1 -1.875) (end 1 1.875) (layer F.Fab) (width 0.1))
  (fp_line (start -1 -1.875) (end 1 -1.875) (layer F.Fab) (width 0.1))
  (fp_line (start -1 1.875) (end -1 -1.875) (layer F.Fab) (width 0.1))
  (fp_line (start -1.905 -2.286) (end -1.905 2.286) (layer F.SilkS) (width 0.12))
  (fp_line (start -1.905 2.286) (end 1.905 2.286) (layer F.SilkS) (width 0.12))
  (fp_line (start 1.905 2.286) (end 1.905 -2.286) (layer F.SilkS) (width 0.12))
  (fp_line (start 1.905 -2.286) (end -1.905 -2.286) (layer F.SilkS) (width 0.12))
  (fp_text user %R (at 0 0) (layer F.Fab)
    (effects (font (size 0.5 0.5) (thickness 0.08)))
  )
  (pad 2 smd roundrect (at 1.025 0) (size 1.2 4.05) (layers F.Cu F.Paste F.Mask) (roundrect_rratio 0.208333))
  (pad 1 smd roundrect (at -1.025 0) (size 1.2 4.05) (layers F.Cu F.Paste F.Mask) (roundrect_rratio 0.208333))
  (model ${KISYS3DMOD}/Resistor_SMD.3dshapes/R_0815_2038Metric.wrl
    (at (xyz 0 0 0))
    (scale (xyz 1 1 1))
    (rotate (xyz 0 0 0))
  )
)
