(module R_1020_2550Metric_Pad1.33x5.20mm (layer F.Cu) (tedit 60903815)
  (descr "Resistor SMD 1020 (2550 Metric), square (rectangular) end terminal, IPC_7351 nominal with elongated pad for handsoldering. (Body size source: https://www.vishay.com/docs/20019/rcwe.pdf), Alternate KiCad Library")
  (tags "resistor handsolder")
  (attr smd)
  (fp_text reference REF** (at 0 -3.683) (layer F.SilkS)
    (effects (font (size 1 1) (thickness 0.15)))
  )
  (fp_text value R_1020_2550Metric_Pad1.33x5.20mm (at 0 3.55) (layer F.Fab)
    (effects (font (size 1 1) (thickness 0.15)))
  )
  (fp_line (start 2.12 2.85) (end -2.12 2.85) (layer F.CrtYd) (width 0.05))
  (fp_line (start 2.12 -2.85) (end 2.12 2.85) (layer F.CrtYd) (width 0.05))
  (fp_line (start -2.12 -2.85) (end 2.12 -2.85) (layer F.CrtYd) (width 0.05))
  (fp_line (start -2.12 2.85) (end -2.12 -2.85) (layer F.CrtYd) (width 0.05))
  (fp_line (start 1.25 2.5) (end -1.25 2.5) (layer F.Fab) (width 0.1))
  (fp_line (start 1.25 -2.5) (end 1.25 2.5) (layer F.Fab) (width 0.1))
  (fp_line (start -1.25 -2.5) (end 1.25 -2.5) (layer F.Fab) (width 0.1))
  (fp_line (start -1.25 2.5) (end -1.25 -2.5) (layer F.Fab) (width 0.1))
  (fp_line (start 2.0955 -2.8575) (end -2.0955 -2.8575) (layer F.SilkS) (width 0.12))
  (fp_line (start -2.0955 -2.8575) (end -2.159 -2.8575) (layer F.SilkS) (width 0.12))
  (fp_line (start -2.159 -2.8575) (end -2.159 2.8575) (layer F.SilkS) (width 0.12))
  (fp_line (start -2.159 2.8575) (end 2.159 2.8575) (layer F.SilkS) (width 0.12))
  (fp_line (start 2.159 2.8575) (end 2.159 -2.8575) (layer F.SilkS) (width 0.12))
  (fp_line (start 2.159 -2.8575) (end 2.0955 -2.8575) (layer F.SilkS) (width 0.12))
  (fp_text user %R (at 0 0) (layer F.Fab)
    (effects (font (size 0.62 0.62) (thickness 0.09)))
  )
  (pad 2 smd roundrect (at 1.2125 0) (size 1.325 5.2) (layers F.Cu F.Paste F.Mask) (roundrect_rratio 0.188679))
  (pad 1 smd roundrect (at -1.2125 0) (size 1.325 5.2) (layers F.Cu F.Paste F.Mask) (roundrect_rratio 0.188679))
  (model ${KISYS3DMOD}/Resistor_SMD.3dshapes/R_1020_2550Metric.wrl
    (at (xyz 0 0 0))
    (scale (xyz 1 1 1))
    (rotate (xyz 0 0 0))
  )
)
