(module R_1812_4532Metric (layer F.Cu) (tedit 60810D79)
  (descr "Resistor SMD 1812 (4532 Metric), square (rectangular) end terminal, IPC_7351 nominal, (Body size source: https://www.nikhef.nl/pub/departments/mt/projects/detectorR_D/dtddice/ERJ2G.pdf), Alternate KiCad Library")
  (tags resistor)
  (attr smd)
  (fp_text reference REF** (at 0 -2.7305) (layer F.SilkS)
    (effects (font (size 1 1) (thickness 0.15)))
  )
  (fp_text value R_1812_4532Metric (at 0 2.65) (layer F.Fab)
    (effects (font (size 1 1) (thickness 0.15)))
  )
  (fp_line (start -2.9845 -1.9685) (end -2.9845 -1.905) (layer F.SilkS) (width 0.12))
  (fp_line (start 2.9845 -1.9685) (end -2.9845 -1.9685) (layer F.SilkS) (width 0.12))
  (fp_line (start 2.9845 1.9685) (end 2.9845 -1.9685) (layer F.SilkS) (width 0.12))
  (fp_line (start -2.9845 1.9685) (end 2.9845 1.9685) (layer F.SilkS) (width 0.12))
  (fp_line (start -2.9845 1.905) (end -2.9845 1.9685) (layer F.SilkS) (width 0.12))
  (fp_line (start -2.9845 -1.905) (end -2.9845 1.905) (layer F.SilkS) (width 0.12))
  (fp_line (start -2.25 1.6) (end -2.25 -1.6) (layer F.Fab) (width 0.1))
  (fp_line (start -2.25 -1.6) (end 2.25 -1.6) (layer F.Fab) (width 0.1))
  (fp_line (start 2.25 -1.6) (end 2.25 1.6) (layer F.Fab) (width 0.1))
  (fp_line (start 2.25 1.6) (end -2.25 1.6) (layer F.Fab) (width 0.1))
  (fp_line (start -2.95 1.95) (end -2.95 -1.95) (layer F.CrtYd) (width 0.05))
  (fp_line (start -2.95 -1.95) (end 2.95 -1.95) (layer F.CrtYd) (width 0.05))
  (fp_line (start 2.95 -1.95) (end 2.95 1.95) (layer F.CrtYd) (width 0.05))
  (fp_line (start 2.95 1.95) (end -2.95 1.95) (layer F.CrtYd) (width 0.05))
  (fp_text user %R (at 0 0) (layer F.Fab)
    (effects (font (size 1 1) (thickness 0.15)))
  )
  (pad 2 smd roundrect (at 2.1375 0) (size 1.125 3.4) (layers F.Cu F.Paste F.Mask) (roundrect_rratio 0.222222))
  (pad 1 smd roundrect (at -2.1375 0) (size 1.125 3.4) (layers F.Cu F.Paste F.Mask) (roundrect_rratio 0.222222))
  (model ${KISYS3DMOD}/Resistor_SMD.3dshapes/R_1812_4532Metric.wrl
    (at (xyz 0 0 0))
    (scale (xyz 1 1 1))
    (rotate (xyz 0 0 0))
  )
)
