(module R_2010_5025Metric_Pad1.40x2.65mm (layer F.Cu) (tedit 6090385A)
  (descr "Resistor SMD 2010 (5025 Metric), square (rectangular) end terminal, IPC_7351 nominal with elongated pad for handsoldering. (Body size source: IPC-SM-782 page 72, https://www.pcb-3d.com/wordpress/wp-content/uploads/ipc-sm-782a_amendment_1_and_2.pdf), Alternate KiCad Library")
  (tags "resistor handsolder")
  (attr smd)
  (fp_text reference REF** (at 0 -2.28) (layer F.SilkS)
    (effects (font (size 1 1) (thickness 0.15)))
  )
  (fp_text value R_2010_5025Metric_Pad1.40x2.65mm (at 0 2.28) (layer F.Fab)
    (effects (font (size 1 1) (thickness 0.15)))
  )
  (fp_line (start 3.35 1.58) (end -3.35 1.58) (layer F.CrtYd) (width 0.05))
  (fp_line (start 3.35 -1.58) (end 3.35 1.58) (layer F.CrtYd) (width 0.05))
  (fp_line (start -3.35 -1.58) (end 3.35 -1.58) (layer F.CrtYd) (width 0.05))
  (fp_line (start -3.35 1.58) (end -3.35 -1.58) (layer F.CrtYd) (width 0.05))
  (fp_line (start 2.5 1.25) (end -2.5 1.25) (layer F.Fab) (width 0.1))
  (fp_line (start 2.5 -1.25) (end 2.5 1.25) (layer F.Fab) (width 0.1))
  (fp_line (start -2.5 -1.25) (end 2.5 -1.25) (layer F.Fab) (width 0.1))
  (fp_line (start -2.5 1.25) (end -2.5 -1.25) (layer F.Fab) (width 0.1))
  (fp_line (start -3.3655 -1.5875) (end -3.3655 1.5875) (layer F.SilkS) (width 0.12))
  (fp_line (start -3.3655 1.5875) (end 3.3655 1.5875) (layer F.SilkS) (width 0.12))
  (fp_line (start 3.3655 1.5875) (end 3.3655 -1.5875) (layer F.SilkS) (width 0.12))
  (fp_line (start 3.3655 -1.5875) (end -3.3655 -1.5875) (layer F.SilkS) (width 0.12))
  (fp_text user %R (at 0 0) (layer F.Fab)
    (effects (font (size 1 1) (thickness 0.15)))
  )
  (pad 2 smd roundrect (at 2.4 0) (size 1.4 2.65) (layers F.Cu F.Paste F.Mask) (roundrect_rratio 0.178571))
  (pad 1 smd roundrect (at -2.4 0) (size 1.4 2.65) (layers F.Cu F.Paste F.Mask) (roundrect_rratio 0.178571))
  (model ${KISYS3DMOD}/Resistor_SMD.3dshapes/R_2010_5025Metric.wrl
    (at (xyz 0 0 0))
    (scale (xyz 1 1 1))
    (rotate (xyz 0 0 0))
  )
)
