(module R_2512_6332Metric_Pad1.52x3.35mm (layer F.Cu) (tedit 60903878)
  (descr "Resistor SMD 2512 (6332 Metric), square (rectangular) end terminal, IPC_7351 nominal with elongated pad for handsoldering. (Body size source: http://www.tortai-tech.com/upload/download/2011102023233369053.pdf), Alternate KiCad Library")
  (tags "resistor handsolder")
  (attr smd)
  (fp_text reference REF** (at 0 -2.62) (layer F.SilkS)
    (effects (font (size 1 1) (thickness 0.15)))
  )
  (fp_text value R_2512_6332Metric_Pad1.52x3.35mm (at 0 2.62) (layer F.Fab)
    (effects (font (size 1 1) (thickness 0.15)))
  )
  (fp_line (start 4 1.92) (end -4 1.92) (layer F.CrtYd) (width 0.05))
  (fp_line (start 4 -1.92) (end 4 1.92) (layer F.CrtYd) (width 0.05))
  (fp_line (start -4 -1.92) (end 4 -1.92) (layer F.CrtYd) (width 0.05))
  (fp_line (start -4 1.92) (end -4 -1.92) (layer F.CrtYd) (width 0.05))
  (fp_line (start 3.15 1.6) (end -3.15 1.6) (layer F.Fab) (width 0.1))
  (fp_line (start 3.15 -1.6) (end 3.15 1.6) (layer F.Fab) (width 0.1))
  (fp_line (start -3.15 -1.6) (end 3.15 -1.6) (layer F.Fab) (width 0.1))
  (fp_line (start -3.15 1.6) (end -3.15 -1.6) (layer F.Fab) (width 0.1))
  (fp_line (start -4.0005 1.905) (end -4.0005 -1.905) (layer F.SilkS) (width 0.12))
  (fp_line (start -4.0005 -1.905) (end 4.0005 -1.905) (layer F.SilkS) (width 0.12))
  (fp_line (start 4.0005 -1.905) (end 4.0005 1.905) (layer F.SilkS) (width 0.12))
  (fp_line (start 4.0005 1.905) (end -4.0005 1.905) (layer F.SilkS) (width 0.12))
  (fp_text user %R (at 0 0) (layer F.Fab)
    (effects (font (size 1 1) (thickness 0.15)))
  )
  (pad 2 smd roundrect (at 2.9875 0) (size 1.525 3.35) (layers F.Cu F.Paste F.Mask) (roundrect_rratio 0.163934))
  (pad 1 smd roundrect (at -2.9875 0) (size 1.525 3.35) (layers F.Cu F.Paste F.Mask) (roundrect_rratio 0.163934))
  (model ${KISYS3DMOD}/Resistor_SMD.3dshapes/R_2512_6332Metric.wrl
    (at (xyz 0 0 0))
    (scale (xyz 1 1 1))
    (rotate (xyz 0 0 0))
  )
)
