(module R_4020_10251Metric_Pad1.65x5.30mm (layer F.Cu) (tedit 6090388C)
  (descr "Resistor SMD 4020 (10251 Metric), square (rectangular) end terminal, IPC_7351 nominal with elongated pad for handsoldering. (Body size source: http://datasheet.octopart.com/HVC0603T5004FET-Ohmite-datasheet-26699797.pdf), Alternate KiCad Library")
  (tags "resistor handsolder")
  (attr smd)
  (fp_text reference REF** (at 0 -3.6) (layer F.SilkS)
    (effects (font (size 1 1) (thickness 0.15)))
  )
  (fp_text value R_4020_10251Metric_Pad1.65x5.30mm (at 0 3.6) (layer F.Fab)
    (effects (font (size 1 1) (thickness 0.15)))
  )
  (fp_line (start 5.98 2.9) (end -5.98 2.9) (layer F.CrtYd) (width 0.05))
  (fp_line (start 5.98 -2.9) (end 5.98 2.9) (layer F.CrtYd) (width 0.05))
  (fp_line (start -5.98 -2.9) (end 5.98 -2.9) (layer F.CrtYd) (width 0.05))
  (fp_line (start -5.98 2.9) (end -5.98 -2.9) (layer F.CrtYd) (width 0.05))
  (fp_line (start 5.1 2.55) (end -5.1 2.55) (layer F.Fab) (width 0.1))
  (fp_line (start 5.1 -2.55) (end 5.1 2.55) (layer F.Fab) (width 0.1))
  (fp_line (start -5.1 -2.55) (end 5.1 -2.55) (layer F.Fab) (width 0.1))
  (fp_line (start -5.1 2.55) (end -5.1 -2.55) (layer F.Fab) (width 0.1))
  (fp_line (start -3.7465 -2.921) (end -5.969 -2.921) (layer F.SilkS) (width 0.12))
  (fp_line (start -5.969 -2.921) (end -5.969 2.921) (layer F.SilkS) (width 0.12))
  (fp_line (start -5.969 2.921) (end 5.969 2.921) (layer F.SilkS) (width 0.12))
  (fp_line (start 5.969 2.921) (end 5.969 -2.921) (layer F.SilkS) (width 0.12))
  (fp_line (start 5.969 -2.921) (end -3.7465 -2.921) (layer F.SilkS) (width 0.12))
  (fp_text user %R (at 0 0) (layer F.Fab)
    (effects (font (size 1 1) (thickness 0.15)))
  )
  (pad 2 smd roundrect (at 4.9 0) (size 1.65 5.3) (layers F.Cu F.Paste F.Mask) (roundrect_rratio 0.151515))
  (pad 1 smd roundrect (at -4.9 0) (size 1.65 5.3) (layers F.Cu F.Paste F.Mask) (roundrect_rratio 0.151515))
  (model ${KISYS3DMOD}/Resistor_SMD.3dshapes/R_4020_10251Metric.wrl
    (at (xyz 0 0 0))
    (scale (xyz 1 1 1))
    (rotate (xyz 0 0 0))
  )
)
