(module R_Array_Concave_2x0603 (layer F.Cu) (tedit 60903890)
  (descr "Thick Film Chip Resistor Array, Wave soldering, Vishay CRA06P (see cra06p.pdf), Alternate KiCad Library")
  (tags "resistor array")
  (attr smd)
  (fp_text reference REF** (at 0 -1.75) (layer F.SilkS)
    (effects (font (size 1 1) (thickness 0.15)))
  )
  (fp_text value R_Array_Concave_2x0603 (at 0 1.85) (layer F.Fab)
    (effects (font (size 1 1) (thickness 0.15)))
  )
  (fp_line (start 1.55 1.05) (end -1.55 1.05) (layer F.CrtYd) (width 0.05))
  (fp_line (start 1.55 1.05) (end 1.55 -1.05) (layer F.CrtYd) (width 0.05))
  (fp_line (start -1.55 -1.05) (end -1.55 1.05) (layer F.CrtYd) (width 0.05))
  (fp_line (start -1.55 -1.05) (end 1.55 -1.05) (layer F.CrtYd) (width 0.05))
  (fp_line (start -0.8 0.8) (end -0.8 -0.8) (layer F.Fab) (width 0.1))
  (fp_line (start 0.8 0.8) (end -0.8 0.8) (layer F.Fab) (width 0.1))
  (fp_line (start 0.8 -0.8) (end 0.8 0.8) (layer F.Fab) (width 0.1))
  (fp_line (start -0.8 -0.8) (end 0.8 -0.8) (layer F.Fab) (width 0.1))
  (fp_line (start -1.5875 -1.0795) (end -1.5875 1.0795) (layer F.SilkS) (width 0.12))
  (fp_line (start -1.5875 1.0795) (end 1.5875 1.0795) (layer F.SilkS) (width 0.12))
  (fp_line (start 1.5875 1.0795) (end 1.5875 -1.0795) (layer F.SilkS) (width 0.12))
  (fp_line (start 1.5875 -1.0795) (end -1.5875 -1.0795) (layer F.SilkS) (width 0.12))
  (fp_line (start -1.5875 0) (end -1.4605 0) (layer F.SilkS) (width 0.12))
  (fp_line (start 1.5875 0) (end 1.4605 0) (layer F.SilkS) (width 0.12))
  (fp_text user %R (at 0 -1.75) (layer F.Fab)
    (effects (font (size 1 1) (thickness 0.15)))
  )
  (pad 4 smd rect (at 0.85 -0.4) (size 0.9 0.4) (layers F.Cu F.Paste F.Mask))
  (pad 3 smd rect (at 0.85 0.4) (size 0.9 0.4) (layers F.Cu F.Paste F.Mask))
  (pad 2 smd rect (at -0.85 0.4) (size 0.9 0.4) (layers F.Cu F.Paste F.Mask))
  (pad 1 smd rect (at -0.85 -0.4) (size 0.9 0.4) (layers F.Cu F.Paste F.Mask))
  (model ${KISYS3DMOD}/Resistor_SMD.3dshapes/R_Array_Concave_2x0603.wrl
    (at (xyz 0 0 0))
    (scale (xyz 1 1 1))
    (rotate (xyz 0 0 0))
  )
)
