(module R_Array_Convex_4x0603 (layer F.Cu) (tedit 609038D0)
  (descr "Chip Resistor Network, ROHM MNR14 (see mnr_g.pdf), Alternate KiCad Library")
  (tags "resistor array")
  (attr smd)
  (fp_text reference REF** (at 0 -2.8) (layer F.SilkS)
    (effects (font (size 1 1) (thickness 0.15)))
  )
  (fp_text value R_Array_Convex_4x0603 (at 0 2.8) (layer F.Fab)
    (effects (font (size 1 1) (thickness 0.15)))
  )
  (fp_line (start 1.55 1.85) (end -1.55 1.85) (layer F.CrtYd) (width 0.05))
  (fp_line (start 1.55 1.85) (end 1.55 -1.85) (layer F.CrtYd) (width 0.05))
  (fp_line (start -1.55 -1.85) (end -1.55 1.85) (layer F.CrtYd) (width 0.05))
  (fp_line (start -1.55 -1.85) (end 1.55 -1.85) (layer F.CrtYd) (width 0.05))
  (fp_line (start -0.8 1.6) (end -0.8 -1.6) (layer F.Fab) (width 0.1))
  (fp_line (start 0.8 1.6) (end -0.8 1.6) (layer F.Fab) (width 0.1))
  (fp_line (start 0.8 -1.6) (end 0.8 1.6) (layer F.Fab) (width 0.1))
  (fp_line (start -0.8 -1.6) (end 0.8 -1.6) (layer F.Fab) (width 0.1))
  (fp_line (start 1.524 1.8415) (end -1.524 1.8415) (layer F.SilkS) (width 0.12))
  (fp_line (start -1.524 1.8415) (end -1.5875 1.8415) (layer F.SilkS) (width 0.12))
  (fp_line (start -1.5875 1.8415) (end -1.5875 -1.8415) (layer F.SilkS) (width 0.12))
  (fp_line (start -1.5875 -1.8415) (end 1.5875 -1.8415) (layer F.SilkS) (width 0.12))
  (fp_line (start 1.5875 -1.8415) (end 1.5875 1.8415) (layer F.SilkS) (width 0.12))
  (fp_line (start 1.5875 1.8415) (end 1.524 1.8415) (layer F.SilkS) (width 0.12))
  (fp_line (start 1.5875 0) (end 1.4605 0) (layer F.SilkS) (width 0.12))
  (fp_line (start 1.4605 -0.7747) (end 1.5748 -0.7747) (layer F.SilkS) (width 0.12))
  (fp_line (start 1.4605 0.7747) (end 1.5748 0.7747) (layer F.SilkS) (width 0.12))
  (fp_line (start -1.5875 0) (end -1.4605 0) (layer F.SilkS) (width 0.12))
  (fp_line (start -1.4605 0.7747) (end -1.5748 0.7747) (layer F.SilkS) (width 0.12))
  (fp_line (start -1.4605 -0.7747) (end -1.5748 -0.7747) (layer F.SilkS) (width 0.12))
  (fp_text user %R (at 0 0 90) (layer F.Fab)
    (effects (font (size 0.5 0.5) (thickness 0.075)))
  )
  (pad 5 smd rect (at 0.9 1.2) (size 0.8 0.5) (layers F.Cu F.Paste F.Mask))
  (pad 6 smd rect (at 0.9 0.4) (size 0.8 0.4) (layers F.Cu F.Paste F.Mask))
  (pad 8 smd rect (at 0.9 -1.2) (size 0.8 0.5) (layers F.Cu F.Paste F.Mask))
  (pad 7 smd rect (at 0.9 -0.4) (size 0.8 0.4) (layers F.Cu F.Paste F.Mask))
  (pad 4 smd rect (at -0.9 1.2) (size 0.8 0.5) (layers F.Cu F.Paste F.Mask))
  (pad 2 smd rect (at -0.9 -0.4) (size 0.8 0.4) (layers F.Cu F.Paste F.Mask))
  (pad 3 smd rect (at -0.9 0.4) (size 0.8 0.4) (layers F.Cu F.Paste F.Mask))
  (pad 1 smd rect (at -0.9 -1.2) (size 0.8 0.5) (layers F.Cu F.Paste F.Mask))
  (model ${KISYS3DMOD}/Resistor_SMD.3dshapes/R_Array_Convex_4x0603.wrl
    (at (xyz 0 0 0))
    (scale (xyz 1 1 1))
    (rotate (xyz 0 0 0))
  )
)
