(module R_Array_Convex_8x0602 (layer F.Cu) (tedit 60810E40)
  (descr "Chip Resistor Network, ROHM MNR18 (see mnr_g.pdf), Alternate KiCad Library")
  (tags "resistor array")
  (attr smd)
  (fp_text reference REF** (at 0 -3) (layer F.SilkS)
    (effects (font (size 1 1) (thickness 0.15)))
  )
  (fp_text value R_Array_Convex_8x0602 (at 0 3) (layer F.Fab)
    (effects (font (size 1 1) (thickness 0.15)))
  )
  (fp_line (start 1.5875 -2.2225) (end -1.5875 -2.2225) (layer F.SilkS) (width 0.12))
  (fp_line (start 1.5875 2.2225) (end 1.5875 -2.2225) (layer F.SilkS) (width 0.12))
  (fp_line (start 1.524 2.2225) (end 1.5875 2.2225) (layer F.SilkS) (width 0.12))
  (fp_line (start -1.5875 2.2225) (end 1.524 2.2225) (layer F.SilkS) (width 0.12))
  (fp_line (start -1.5875 -2.2225) (end -1.5875 2.2225) (layer F.SilkS) (width 0.12))
  (fp_line (start -0.8 -2) (end -0.8 2) (layer F.Fab) (width 0.1))
  (fp_line (start -0.8 2) (end 0.8 2) (layer F.Fab) (width 0.1))
  (fp_line (start 0.8 2) (end 0.8 -2) (layer F.Fab) (width 0.1))
  (fp_line (start 0.8 -2) (end -0.8 -2) (layer F.Fab) (width 0.1))
  (fp_line (start -1.55 -2.25) (end 1.55 -2.25) (layer F.CrtYd) (width 0.05))
  (fp_line (start -1.55 -2.25) (end -1.55 2.25) (layer F.CrtYd) (width 0.05))
  (fp_line (start 1.55 2.25) (end 1.55 -2.25) (layer F.CrtYd) (width 0.05))
  (fp_line (start 1.55 2.25) (end -1.55 2.25) (layer F.CrtYd) (width 0.05))
  (fp_text user %R (at 0 0 90) (layer F.Fab)
    (effects (font (size 1 1) (thickness 0.15)))
  )
  (pad 10 smd rect (at 0.9 1.25) (size 0.8 0.3) (layers F.Cu F.Paste F.Mask))
  (pad 12 smd rect (at 0.9 0.25) (size 0.8 0.3) (layers F.Cu F.Paste F.Mask))
  (pad 11 smd rect (at 0.9 0.75) (size 0.8 0.3) (layers F.Cu F.Paste F.Mask))
  (pad 13 smd rect (at 0.9 -0.25) (size 0.8 0.3) (layers F.Cu F.Paste F.Mask))
  (pad 14 smd rect (at 0.9 -0.75) (size 0.8 0.3) (layers F.Cu F.Paste F.Mask))
  (pad 15 smd rect (at 0.9 -1.25) (size 0.8 0.3) (layers F.Cu F.Paste F.Mask))
  (pad 7 smd rect (at -0.9 1.25) (size 0.8 0.3) (layers F.Cu F.Paste F.Mask))
  (pad 6 smd rect (at -0.9 0.75) (size 0.8 0.3) (layers F.Cu F.Paste F.Mask))
  (pad 5 smd rect (at -0.9 0.25) (size 0.8 0.3) (layers F.Cu F.Paste F.Mask))
  (pad 4 smd rect (at -0.9 -0.25) (size 0.8 0.3) (layers F.Cu F.Paste F.Mask))
  (pad 3 smd rect (at -0.9 -0.75) (size 0.8 0.3) (layers F.Cu F.Paste F.Mask))
  (pad 2 smd rect (at -0.9 -1.25) (size 0.8 0.3) (layers F.Cu F.Paste F.Mask))
  (pad 9 smd rect (at 0.9 1.75) (size 0.8 0.3) (layers F.Cu F.Paste F.Mask))
  (pad 8 smd rect (at -0.9 1.75) (size 0.8 0.3) (layers F.Cu F.Paste F.Mask))
  (pad 16 smd rect (at 0.9 -1.75) (size 0.8 0.3) (layers F.Cu F.Paste F.Mask))
  (pad 1 smd rect (at -0.9 -1.75) (size 0.8 0.3) (layers F.Cu F.Paste F.Mask))
  (model ${KISYS3DMOD}/Resistor_SMD.3dshapes/R_Array_Convex_8x0602.wrl
    (at (xyz 0 0 0))
    (scale (xyz 1 1 1))
    (rotate (xyz 0 0 0))
  )
)
