(module R_Array_Convex_2x1206 (layer F.Cu) (tedit 609038CA)
  (descr "Chip Resistor Network, ROHM MNR32 (see mnr_g.pdf), Alternate KiCad Library")
  (tags "resistor array")
  (attr smd)
  (fp_text reference REF** (at 0 -2.3) (layer F.SilkS)
    (effects (font (size 1 1) (thickness 0.15)))
  )
  (fp_text value R_Array_Convex_2x1206 (at 0 2.3) (layer F.Fab)
    (effects (font (size 1 1) (thickness 0.15)))
  )
  (fp_line (start 2.2 1.55) (end -2.21 1.55) (layer F.CrtYd) (width 0.05))
  (fp_line (start 2.2 1.55) (end 2.2 -1.55) (layer F.CrtYd) (width 0.05))
  (fp_line (start -2.21 -1.55) (end -2.21 1.55) (layer F.CrtYd) (width 0.05))
  (fp_line (start -2.21 -1.55) (end 2.2 -1.55) (layer F.CrtYd) (width 0.05))
  (fp_line (start -1.55 1.3) (end -1.55 -1.3) (layer F.Fab) (width 0.1))
  (fp_line (start 1.6 1.3) (end -1.55 1.3) (layer F.Fab) (width 0.1))
  (fp_line (start 1.6 -1.3) (end 1.6 1.3) (layer F.Fab) (width 0.1))
  (fp_line (start -1.55 -1.3) (end 1.6 -1.3) (layer F.Fab) (width 0.1))
  (fp_line (start 2.2225 -1.524) (end -2.2225 -1.524) (layer F.SilkS) (width 0.12))
  (fp_line (start -2.2225 -1.524) (end -2.2225 1.524) (layer F.SilkS) (width 0.12))
  (fp_line (start -2.2225 1.524) (end 2.2225 1.524) (layer F.SilkS) (width 0.12))
  (fp_line (start 2.2225 1.524) (end 2.2225 -1.524) (layer F.SilkS) (width 0.12))
  (fp_text user %R (at 0.025 0) (layer F.Fab)
    (effects (font (size 0.7 0.7) (thickness 0.105)))
  )
  (fp_line (start -2.2225 0) (end -1.905 0) (layer F.SilkS) (width 0.12))
  (fp_line (start 2.2225 0) (end 1.905 0) (layer F.SilkS) (width 0.12))
  (pad 4 smd rect (at 1.5 -0.7) (size 0.9 0.9) (layers F.Cu F.Paste F.Mask))
  (pad 3 smd rect (at 1.5 0.7) (size 0.9 0.9) (layers F.Cu F.Paste F.Mask))
  (pad 2 smd rect (at -1.5 0.7) (size 0.9 0.9) (layers F.Cu F.Paste F.Mask))
  (pad 1 smd rect (at -1.5 -0.7) (size 0.9 0.9) (layers F.Cu F.Paste F.Mask))
  (model ${KISYS3DMOD}/Resistor_SMD.3dshapes/R_Array_Convex_2x1206.wrl
    (at (xyz 0 0 0))
    (scale (xyz 1 1 1))
    (rotate (xyz 0 0 0))
  )
)
