(module R_MELF_MMB-0207 (layer F.Cu) (tedit 60810E56)
  (descr "Resistor, MELF, MMB-0207, http://www.vishay.com/docs/28713/melfprof.pdf, Alternate KiCad Library")
  (tags "MELF Resistor")
  (attr smd)
  (fp_text reference REF** (at 0 -2.54) (layer F.SilkS)
    (effects (font (size 1 1) (thickness 0.15)))
  )
  (fp_text value R_MELF_MMB-0207 (at 0 2.2) (layer F.Fab)
    (effects (font (size 1 1) (thickness 0.15)))
  )
  (fp_line (start 3.7465 -1.524) (end -3.7465 -1.524) (layer F.SilkS) (width 0.12))
  (fp_line (start 3.7465 1.524) (end 3.7465 -1.524) (layer F.SilkS) (width 0.12))
  (fp_line (start -3.7465 1.524) (end 3.7465 1.524) (layer F.SilkS) (width 0.12))
  (fp_line (start -3.7465 -1.524) (end -3.7465 1.524) (layer F.SilkS) (width 0.12))
  (fp_line (start 1.7 -1.1) (end 1.7 1.1) (layer F.Fab) (width 0.12))
  (fp_line (start -1.7 -1.1) (end -1.7 1.1) (layer F.Fab) (width 0.12))
  (fp_line (start -2.9 -1.1) (end -2.9 1.1) (layer F.Fab) (width 0.12))
  (fp_line (start -2.9 1.1) (end 2.9 1.1) (layer F.Fab) (width 0.12))
  (fp_line (start 2.9 1.1) (end 2.9 -1.1) (layer F.Fab) (width 0.12))
  (fp_line (start 2.9 -1.1) (end -2.9 -1.1) (layer F.Fab) (width 0.12))
  (fp_line (start -3.75 -1.55) (end 3.75 -1.55) (layer F.CrtYd) (width 0.05))
  (fp_line (start -3.75 -1.55) (end -3.75 1.55) (layer F.CrtYd) (width 0.05))
  (fp_line (start 3.75 1.55) (end 3.75 -1.55) (layer F.CrtYd) (width 0.05))
  (fp_line (start 3.75 1.55) (end -3.75 1.55) (layer F.CrtYd) (width 0.05))
  (fp_text user %R (at 0 0) (layer F.Fab)
    (effects (font (size 1 1) (thickness 0.15)))
  )
  (pad 2 smd rect (at 2.45 0) (size 2.1 2.6) (layers F.Cu F.Paste F.Mask))
  (pad 1 smd rect (at -2.45 0) (size 2.1 2.6) (layers F.Cu F.Paste F.Mask))
  (model ${KISYS3DMOD}/Resistor_SMD.3dshapes/R_MELF_MMB-0207.wrl
    (at (xyz 0 0 0))
    (scale (xyz 1 1 1))
    (rotate (xyz 0 0 0))
  )
)
