(module R_MiniMELF_MMA-0204 (layer F.Cu) (tedit 60810E61)
  (descr "Resistor, MiniMELF, MMA-0204, http://www.vishay.com/docs/28713/melfprof.pdf, Alternate KiCad Library")
  (tags "MiniMELF Resistor")
  (attr smd)
  (fp_text reference REF** (at 0 -1.9685) (layer F.SilkS)
    (effects (font (size 1 1) (thickness 0.15)))
  )
  (fp_text value R_MiniMELF_MMA-0204 (at 0 1.7) (layer F.Fab)
    (effects (font (size 1 1) (thickness 0.15)))
  )
  (fp_line (start 2.54 -1.2065) (end -2.54 -1.2065) (layer F.SilkS) (width 0.12))
  (fp_line (start 2.54 1.2065) (end 2.54 -1.2065) (layer F.SilkS) (width 0.12))
  (fp_line (start -2.54 1.2065) (end 2.54 1.2065) (layer F.SilkS) (width 0.12))
  (fp_line (start -2.54 -1.2065) (end -2.54 1.2065) (layer F.SilkS) (width 0.12))
  (fp_line (start 0.9 0.7) (end 0.9 -0.7) (layer F.Fab) (width 0.12))
  (fp_line (start -0.9 -0.7) (end -0.9 0.7) (layer F.Fab) (width 0.12))
  (fp_line (start -1.8 -0.7) (end -1.8 0.7) (layer F.Fab) (width 0.12))
  (fp_line (start -1.8 0.7) (end 1.8 0.7) (layer F.Fab) (width 0.12))
  (fp_line (start 1.8 0.7) (end 1.8 -0.7) (layer F.Fab) (width 0.12))
  (fp_line (start 1.8 -0.7) (end -1.8 -0.7) (layer F.Fab) (width 0.12))
  (fp_line (start -2.5 -1.15) (end 2.5 -1.15) (layer F.CrtYd) (width 0.05))
  (fp_line (start -2.5 -1.15) (end -2.5 1.15) (layer F.CrtYd) (width 0.05))
  (fp_line (start 2.5 1.15) (end 2.5 -1.15) (layer F.CrtYd) (width 0.05))
  (fp_line (start 2.5 1.15) (end -2.5 1.15) (layer F.CrtYd) (width 0.05))
  (fp_text user %R (at 0 0) (layer F.Fab)
    (effects (font (size 0.6 0.6) (thickness 0.12)))
  )
  (pad 2 smd rect (at 1.5 0) (size 1.5 1.8) (layers F.Cu F.Paste F.Mask))
  (pad 1 smd rect (at -1.5 0) (size 1.5 1.8) (layers F.Cu F.Paste F.Mask))
  (model ${KISYS3DMOD}/Resistor_SMD.3dshapes/R_MiniMELF_MMA-0204.wrl
    (at (xyz 0 0 0))
    (scale (xyz 1 1 1))
    (rotate (xyz 0 0 0))
  )
)
