(module R_Shunt_Vishay_WSKW0612 (layer F.Cu) (tedit 60810EA3)
  (descr "https://www.vishay.com/docs/30332/wskw0612.pdf, Alternate KiCad Library")
  (tags "4-Terminal SMD Shunt")
  (attr smd)
  (fp_text reference REF** (at 0 -2.413) (layer F.SilkS)
    (effects (font (size 1 1) (thickness 0.15)))
  )
  (fp_text value R_Shunt_Vishay_WSKW0612 (at 0 2.4) (layer F.Fab)
    (effects (font (size 1 1) (thickness 0.15)))
  )
  (fp_line (start 1.9685 -1.651) (end -1.9685 -1.651) (layer F.SilkS) (width 0.12))
  (fp_line (start 1.9685 1.651) (end 1.9685 -1.651) (layer F.SilkS) (width 0.12))
  (fp_line (start -1.9685 1.651) (end 1.9685 1.651) (layer F.SilkS) (width 0.12))
  (fp_line (start -1.9685 -1.651) (end -1.9685 1.651) (layer F.SilkS) (width 0.12))
  (fp_line (start -1.525 0.75) (end -1.525 -0.25) (layer F.Fab) (width 0.1))
  (fp_line (start 1.525 -0.75) (end -1.025 -0.75) (layer F.Fab) (width 0.1))
  (fp_line (start -1.525 0.75) (end 1.525 0.75) (layer F.Fab) (width 0.1))
  (fp_line (start 1.525 0.75) (end 1.525 -0.75) (layer F.Fab) (width 0.1))
  (fp_line (start -1.525 -0.25) (end -1.025 -0.75) (layer F.Fab) (width 0.1))
  (fp_line (start -1.97 1.64) (end 1.97 1.64) (layer F.CrtYd) (width 0.05))
  (fp_line (start 1.97 -1.64) (end 1.97 1.64) (layer F.CrtYd) (width 0.05))
  (fp_line (start 1.97 -1.64) (end -1.97 -1.64) (layer F.CrtYd) (width 0.05))
  (fp_line (start -1.97 1.64) (end -1.97 -1.64) (layer F.CrtYd) (width 0.05))
  (fp_text user %R (at 0 0) (layer F.Fab)
    (effects (font (size 0.5 0.5) (thickness 0.1)))
  )
  (pad 2 smd rect (at 1.334 -0.885) (size 0.762 1.01) (layers F.Cu F.Paste F.Mask))
  (pad 3 smd rect (at 1.334 0.885) (size 0.762 1.01) (layers F.Cu F.Paste F.Mask))
  (pad 4 smd rect (at -0.5715 0.885) (size 2.287 1.01) (layers F.Cu F.Paste F.Mask))
  (pad 1 smd rect (at -0.572 -0.885) (size 2.287 1.01) (layers F.Cu F.Paste F.Mask))
  (model ${KISYS3DMOD}/Resistor_SMD.3dshapes/R_Shunt_Vishay_WSKW0612.wrl
    (at (xyz 0 0 0))
    (scale (xyz 1 1 1))
    (rotate (xyz 0 0 0))
  )
)
