(module D_0805_2012Metric (layer F.Cu) (tedit 608F9C37)
  (descr "Diode SMD 0805 (2012 Metric), square (rectangular) end terminal, IPC_7351 nominal, (Body size source: https://docs.google.com/spreadsheets/d/1BsfQQcO9C6DZCsRaXUlFlo91Tg2WpOkGARC1WS5S8t0/edit?usp=sharing), Alternate KiCad Library")
  (tags "diode 0805")
  (attr smd)
  (fp_text reference REF** (at 0 -2.032) (layer F.SilkS)
    (effects (font (size 1 1) (thickness 0.15)))
  )
  (fp_text value D_0805_2012Metric (at 0 1.65) (layer F.Fab)
    (effects (font (size 1 1) (thickness 0.15)))
  )
  (fp_poly (pts (xy -0.127 1.143) (xy -0.889 1.143) (xy -0.889 0.889) (xy -0.127 0.889)) (layer F.SilkS) (width 0.1))
  (fp_poly (pts (xy -0.127 -0.889) (xy -0.889 -0.889) (xy -0.889 -1.143) (xy -0.127 -1.143)) (layer F.SilkS) (width 0.1))
  (fp_line (start 1 -0.6) (end -0.7 -0.6) (layer F.Fab) (width 0.1))
  (fp_line (start -0.7 -0.6) (end -1 -0.3) (layer F.Fab) (width 0.1))
  (fp_line (start -1 -0.3) (end -1 0.6) (layer F.Fab) (width 0.1))
  (fp_line (start -1 0.6) (end 1 0.6) (layer F.Fab) (width 0.1))
  (fp_line (start 1 0.6) (end 1 -0.6) (layer F.Fab) (width 0.1))
  (fp_line (start -1.7272 1.2192) (end -1.7272 -1.2192) (layer F.CrtYd) (width 0.05))
  (fp_line (start -1.7272 -1.2192) (end 1.7272 -1.2192) (layer F.CrtYd) (width 0.05))
  (fp_line (start 1.7272 -1.2192) (end 1.7272 1.2192) (layer F.CrtYd) (width 0.05))
  (fp_line (start 1.7272 1.2192) (end -1.7272 1.2192) (layer F.CrtYd) (width 0.05))
  (fp_line (start -1.651 -0.127) (end -1.651 -0.889) (layer F.SilkS) (width 0.12))
  (fp_line (start -1.651 -0.889) (end 1.651 -0.889) (layer F.SilkS) (width 0.12))
  (fp_line (start 1.651 -0.889) (end 1.651 0.889) (layer F.SilkS) (width 0.12))
  (fp_line (start 1.651 0.889) (end -1.651 0.889) (layer F.SilkS) (width 0.12))
  (fp_line (start -1.651 0.889) (end -1.651 -0.127) (layer F.SilkS) (width 0.12))
  (fp_text user %R (at 0 0) (layer F.Fab)
    (effects (font (size 0.5 0.5) (thickness 0.08)))
  )
  (pad 2 smd roundrect (at 0.9375 0) (size 0.975 1.4) (layers F.Cu F.Paste F.Mask) (roundrect_rratio 0.25))
  (pad 1 smd roundrect (at -0.9375 0) (size 0.975 1.4) (layers F.Cu F.Paste F.Mask) (roundrect_rratio 0.25))
  (model ${KISYS3DMOD}/Diode_SMD.3dshapes/D_0805_2012Metric.wrl
    (at (xyz 0 0 0))
    (scale (xyz 1 1 1))
    (rotate (xyz 0 0 0))
  )
)
