(module D_1210_3225Metric (layer F.Cu) (tedit 608F9CD3)
  (descr "Diode SMD 1210 (3225 Metric), square (rectangular) end terminal, IPC_7351 nominal, (Body size source: http://www.tortai-tech.com/upload/download/2011102023233369053.pdf), Alternate KiCad Library")
  (tags "diode 1210")
  (attr smd)
  (fp_text reference REF** (at 0 -2.667) (layer F.SilkS)
    (effects (font (size 1 1) (thickness 0.15)))
  )
  (fp_text value D_1210_3225Metric (at 0 2.28) (layer F.Fab)
    (effects (font (size 1 1) (thickness 0.15)))
  )
  (fp_poly (pts (xy -0.254 1.8415) (xy -1.2065 1.8415) (xy -1.2065 1.5875) (xy -0.254 1.5875)) (layer F.SilkS) (width 0.1))
  (fp_poly (pts (xy -0.254 -1.5875) (xy -1.2065 -1.5875) (xy -1.2065 -1.8415) (xy -0.254 -1.8415)) (layer F.SilkS) (width 0.1))
  (fp_line (start 2.3495 1.905) (end -2.3495 1.905) (layer F.CrtYd) (width 0.05))
  (fp_line (start 2.3495 -1.905) (end 2.3495 1.905) (layer F.CrtYd) (width 0.05))
  (fp_line (start -2.3495 -1.905) (end 2.3495 -1.905) (layer F.CrtYd) (width 0.05))
  (fp_line (start -2.3495 1.905) (end -2.3495 -1.905) (layer F.CrtYd) (width 0.05))
  (fp_line (start 1.6 1.25) (end 1.6 -1.25) (layer F.Fab) (width 0.1))
  (fp_line (start -1.6 1.25) (end 1.6 1.25) (layer F.Fab) (width 0.1))
  (fp_line (start -1.6 -0.625) (end -1.6 1.25) (layer F.Fab) (width 0.1))
  (fp_line (start -0.975 -1.25) (end -1.6 -0.625) (layer F.Fab) (width 0.1))
  (fp_line (start 1.6 -1.25) (end -0.975 -1.25) (layer F.Fab) (width 0.1))
  (fp_line (start -2.286 -1.5875) (end 2.286 -1.5875) (layer F.SilkS) (width 0.12))
  (fp_line (start 2.286 -1.5875) (end 2.286 1.5875) (layer F.SilkS) (width 0.12))
  (fp_line (start 2.286 1.5875) (end -2.286 1.5875) (layer F.SilkS) (width 0.12))
  (fp_line (start -2.286 1.5875) (end -2.286 -1.5875) (layer F.SilkS) (width 0.12))
  (fp_text user %R (at 0 0) (layer F.Fab)
    (effects (font (size 0.8 0.8) (thickness 0.12)))
  )
  (pad 1 smd roundrect (at -1.4 0) (size 1.25 2.65) (layers F.Cu F.Paste F.Mask) (roundrect_rratio 0.2))
  (pad 2 smd roundrect (at 1.4 0) (size 1.25 2.65) (layers F.Cu F.Paste F.Mask) (roundrect_rratio 0.2))
  (model ${KISYS3DMOD}/Diode_SMD.3dshapes/D_1210_3225Metric.wrl
    (at (xyz 0 0 0))
    (scale (xyz 1 1 1))
    (rotate (xyz 0 0 0))
  )
)
