(module D_1206_3216Metric_TVS (layer F.Cu) (tedit 608F9CC7)
  (descr "Diode SMD 1206 (3216 Metric), square (rectangular) end terminal, IPC_7351 nominal, (Body size source: http://www.tortai-tech.com/upload/download/2011102023233369053.pdf), Bidirectional zener or TVS, Alternate KiCad Library")
  (tags "diode 1206 TVS")
  (attr smd)
  (fp_text reference REF** (at 0 -2.159) (layer F.SilkS)
    (effects (font (size 1 1) (thickness 0.15)))
  )
  (fp_text value D_1206_3216Metric_TVS (at 0 1.82) (layer F.Fab)
    (effects (font (size 1 1) (thickness 0.15)))
  )
  (fp_line (start 2.286 -1.143) (end -2.286 -1.143) (layer F.SilkS) (width 0.12))
  (fp_line (start 2.286 1.143) (end 2.286 -1.143) (layer F.SilkS) (width 0.12))
  (fp_line (start -2.286 1.143) (end 2.286 1.143) (layer F.SilkS) (width 0.12))
  (fp_line (start -2.286 -1.143) (end -2.286 1.143) (layer F.SilkS) (width 0.12))
  (fp_line (start 1.6 -0.8) (end -1.2 -0.8) (layer F.Fab) (width 0.1))
  (fp_line (start -1.2 -0.8) (end -1.6 -0.4) (layer F.Fab) (width 0.1))
  (fp_line (start -1.6 -0.4) (end -1.6 0.8) (layer F.Fab) (width 0.1))
  (fp_line (start -1.6 0.8) (end 1.6 0.8) (layer F.Fab) (width 0.1))
  (fp_line (start 1.6 0.8) (end 1.6 -0.8) (layer F.Fab) (width 0.1))
  (fp_line (start -2.3495 1.2065) (end -2.3495 -1.2065) (layer F.CrtYd) (width 0.05))
  (fp_line (start -2.3495 -1.2065) (end 2.3495 -1.2065) (layer F.CrtYd) (width 0.05))
  (fp_line (start 2.3495 -1.2065) (end 2.3495 1.2065) (layer F.CrtYd) (width 0.05))
  (fp_line (start 2.3495 1.2065) (end -2.3495 1.2065) (layer F.CrtYd) (width 0.05))
  (fp_text user %R (at 0 0) (layer F.Fab)
    (effects (font (size 0.8 0.8) (thickness 0.12)))
  )
  (pad 1 smd roundrect (at -1.4 0) (size 1.25 1.75) (layers F.Cu F.Paste F.Mask) (roundrect_rratio 0.2))
  (pad 2 smd roundrect (at 1.4 0) (size 1.25 1.75) (layers F.Cu F.Paste F.Mask) (roundrect_rratio 0.2))
  (model ${KISYS3DMOD}/Diode_SMD.3dshapes/D_1206_3216Metric.wrl
    (at (xyz 0 0 0))
    (scale (xyz 1 1 1))
    (rotate (xyz 0 0 0))
  )
)
