(module D_2114_3652Metric_Pad1.85x3.75mm (layer F.Cu) (tedit 608F9DAF)
  (descr "Diode SMD 2114 (3652 Metric), square (rectangular) end terminal, IPC_7351 nominal, (Body size from: http://datasheets.avx.com/schottky.pdf), Alternate KiCad Library")
  (tags "diode 2114 handsolder")
  (attr smd)
  (fp_text reference REF** (at 0 -3.048) (layer F.SilkS)
    (effects (font (size 1 1) (thickness 0.15)))
  )
  (fp_text value D_2114_3652Metric_Pad1.85x3.75mm (at 0 2.82) (layer F.Fab)
    (effects (font (size 1 1) (thickness 0.15)))
  )
  (fp_poly (pts (xy -1.016 2.413) (xy -1.905 2.413) (xy -1.905 2.159) (xy -1.016 2.159)) (layer F.SilkS) (width 0.1))
  (fp_poly (pts (xy -1.016 -2.159) (xy -1.905 -2.159) (xy -1.905 -2.413) (xy -1.016 -2.413)) (layer F.SilkS) (width 0.1))
  (fp_line (start 3.4925 -2.159) (end -3.4925 -2.159) (layer F.SilkS) (width 0.12))
  (fp_line (start 3.4925 2.159) (end 3.4925 -2.159) (layer F.SilkS) (width 0.12))
  (fp_line (start -3.4925 2.159) (end 3.4925 2.159) (layer F.SilkS) (width 0.12))
  (fp_line (start -3.4925 -2.159) (end -3.4925 2.159) (layer F.SilkS) (width 0.12))
  (fp_line (start 2.6 -1.8) (end -1.7 -1.8) (layer F.Fab) (width 0.1))
  (fp_line (start -1.7 -1.8) (end -2.6 -0.9) (layer F.Fab) (width 0.1))
  (fp_line (start -2.6 -0.9) (end -2.6 1.8) (layer F.Fab) (width 0.1))
  (fp_line (start -2.6 1.8) (end 2.6 1.8) (layer F.Fab) (width 0.1))
  (fp_line (start 2.6 1.8) (end 2.6 -1.8) (layer F.Fab) (width 0.1))
  (fp_line (start -3.556 2.4765) (end -3.556 -2.4765) (layer F.CrtYd) (width 0.05))
  (fp_line (start -3.556 -2.4765) (end 3.556 -2.4765) (layer F.CrtYd) (width 0.05))
  (fp_line (start 3.556 -2.4765) (end 3.556 2.4765) (layer F.CrtYd) (width 0.05))
  (fp_line (start 3.556 2.4765) (end -3.556 2.4765) (layer F.CrtYd) (width 0.05))
  (fp_text user %R (at 0 0) (layer F.Fab)
    (effects (font (size 1 1) (thickness 0.15)))
  )
  (pad 1 smd roundrect (at -2.275 0) (size 1.85 3.75) (layers F.Cu F.Paste F.Mask) (roundrect_rratio 0.135135))
  (pad 2 smd roundrect (at 2.275 0) (size 1.85 3.75) (layers F.Cu F.Paste F.Mask) (roundrect_rratio 0.135135))
  (model ${KISYS3DMOD}/Diode_SMD.3dshapes/D_2114_3652Metric.wrl
    (at (xyz 0 0 0))
    (scale (xyz 1 1 1))
    (rotate (xyz 0 0 0))
  )
)
