(module D_2512_6332Metric (layer F.Cu) (tedit 608F9DC0)
  (descr "Diode SMD 2512 (6332 Metric), square (rectangular) end terminal, IPC_7351 nominal, (Body size source: http://www.tortai-tech.com/upload/download/2011102023233369053.pdf), Alternate KiCad Library")
  (tags "diode 2512")
  (attr smd)
  (fp_text reference REF** (at 0 -2.921) (layer F.SilkS)
    (effects (font (size 1 1) (thickness 0.15)))
  )
  (fp_text value D_2512_6332Metric (at 0 2.62) (layer F.Fab)
    (effects (font (size 1 1) (thickness 0.15)))
  )
  (fp_poly (pts (xy -1.524 2.286) (xy -2.794 2.286) (xy -2.794 1.905) (xy -1.524 1.905)) (layer F.SilkS) (width 0.1))
  (fp_poly (pts (xy -1.524 -1.905) (xy -2.794 -1.905) (xy -2.794 -2.286) (xy -1.524 -2.286)) (layer F.SilkS) (width 0.1))
  (fp_line (start 3.81 -1.905) (end -3.81 -1.905) (layer F.SilkS) (width 0.12))
  (fp_line (start 3.81 1.905) (end 3.81 -1.905) (layer F.SilkS) (width 0.12))
  (fp_line (start -3.81 1.905) (end 3.81 1.905) (layer F.SilkS) (width 0.12))
  (fp_line (start -3.81 -1.905) (end -3.81 1.905) (layer F.SilkS) (width 0.12))
  (fp_line (start 3.15 -1.6) (end -2.35 -1.6) (layer F.Fab) (width 0.1))
  (fp_line (start -2.35 -1.6) (end -3.15 -0.8) (layer F.Fab) (width 0.1))
  (fp_line (start -3.15 -0.8) (end -3.15 1.6) (layer F.Fab) (width 0.1))
  (fp_line (start -3.15 1.6) (end 3.15 1.6) (layer F.Fab) (width 0.1))
  (fp_line (start 3.15 1.6) (end 3.15 -1.6) (layer F.Fab) (width 0.1))
  (fp_line (start -3.8735 2.3495) (end -3.8735 -2.3495) (layer F.CrtYd) (width 0.05))
  (fp_line (start -3.8735 -2.3495) (end 3.8735 -2.3495) (layer F.CrtYd) (width 0.05))
  (fp_line (start 3.8735 -2.3495) (end 3.8735 2.3495) (layer F.CrtYd) (width 0.05))
  (fp_line (start 3.8735 2.3495) (end -3.8735 2.3495) (layer F.CrtYd) (width 0.05))
  (fp_text user %R (at 0 0) (layer F.Fab)
    (effects (font (size 1 1) (thickness 0.15)))
  )
  (pad 1 smd roundrect (at -2.9 0) (size 1.35 3.35) (layers F.Cu F.Paste F.Mask) (roundrect_rratio 0.185185))
  (pad 2 smd roundrect (at 2.9 0) (size 1.35 3.35) (layers F.Cu F.Paste F.Mask) (roundrect_rratio 0.185185))
  (model ${KISYS3DMOD}/Diode_SMD.3dshapes/D_2512_6332Metric.wrl
    (at (xyz 0 0 0))
    (scale (xyz 1 1 1))
    (rotate (xyz 0 0 0))
  )
)
