(module D_MicroMELF_TVS (layer F.Cu) (tedit 607933B3)
  (descr "Diode, MicroMELF, Bidirectional zener or TVS, Reflow Soldering, http://www.vishay.com/docs/85597/bzm55.pdf, Alternate KiCad Library")
  (tags "MicroMELF Diode TVS")
  (attr smd)
  (fp_text reference REF** (at 0 -1.754) (layer F.SilkS)
    (effects (font (size 1 1) (thickness 0.15)))
  )
  (fp_text value D_MicroMELF_TVS (at 0 1.5) (layer F.Fab)
    (effects (font (size 1 1) (thickness 0.15)))
  )
  (fp_line (start 1.524 0.889) (end -1.524 0.889) (layer F.CrtYd) (width 0.05))
  (fp_line (start 1.524 0.889) (end 1.524 -0.889) (layer F.CrtYd) (width 0.05))
  (fp_line (start -1.524 -0.889) (end -1.524 0.889) (layer F.CrtYd) (width 0.05))
  (fp_line (start -1.524 -0.889) (end 1.524 -0.889) (layer F.CrtYd) (width 0.05))
  (fp_line (start -0.95 0.575) (end -0.95 -0.575) (layer F.Fab) (width 0.1))
  (fp_line (start 0.95 0.575) (end -0.95 0.575) (layer F.Fab) (width 0.1))
  (fp_line (start 0.95 -0.575) (end 0.95 0.575) (layer F.Fab) (width 0.1))
  (fp_line (start -0.95 -0.575) (end 0.95 -0.575) (layer F.Fab) (width 0.1))
  (fp_line (start -0.25 -0.25) (end -0.25 0.25) (layer F.Fab) (width 0.1))
  (fp_line (start -0.25 0) (end -0.75 0) (layer F.Fab) (width 0.1))
  (fp_line (start 0.25 0.25) (end -0.25 0) (layer F.Fab) (width 0.1))
  (fp_line (start 0.25 -0.25) (end 0.25 0.25) (layer F.Fab) (width 0.1))
  (fp_line (start -0.25 0) (end 0.25 -0.25) (layer F.Fab) (width 0.1))
  (fp_line (start 0.25 0) (end 0.75 0) (layer F.Fab) (width 0.1))
  (fp_line (start -1.4605 -0.8255) (end 1.4605 -0.8255) (layer F.SilkS) (width 0.12))
  (fp_line (start 1.4605 -0.8255) (end 1.4605 0.8255) (layer F.SilkS) (width 0.12))
  (fp_line (start 1.4605 0.8255) (end -1.4605 0.8255) (layer F.SilkS) (width 0.12))
  (fp_line (start -1.4605 0.8255) (end -1.4605 -0.8255) (layer F.SilkS) (width 0.12))
  (fp_text user %R (at 0 -1.754) (layer F.Fab)
    (effects (font (size 1 1) (thickness 0.15)))
  )
  (pad 1 smd rect (at -0.8 0) (size 0.8 1.2) (layers F.Cu F.Paste F.Mask))
  (pad 2 smd rect (at 0.8 0) (size 0.8 1.2) (layers F.Cu F.Paste F.Mask))
  (model ${KISYS3DMOD}/Diode_SMD.3dshapes/D_MicroMELF.wrl
    (at (xyz 0 0 0))
    (scale (xyz 1 1 1))
    (rotate (xyz 0 0 0))
  )
)
