(module D_MiniMELF_BigPads (layer F.Cu) (tedit 608F9F09)
  (descr "Diode Mini-MELF Handsoldering, Alternate KiCad Library")
  (tags "Diode Mini-MELF Handsoldering")
  (attr smd)
  (fp_text reference REF** (at 0 -2.131) (layer F.SilkS)
    (effects (font (size 1 1) (thickness 0.15)))
  )
  (fp_text value D_MiniMELF_BigPads (at 0 1.75) (layer F.Fab)
    (effects (font (size 1 1) (thickness 0.15)))
  )
  (fp_poly (pts (xy -0.508 1.397) (xy -1.27 1.397) (xy -1.27 1.143) (xy -0.508 1.143)) (layer F.SilkS) (width 0.1))
  (fp_poly (pts (xy -0.508 -1.143) (xy -1.27 -1.143) (xy -1.27 -1.397) (xy -0.508 -1.397)) (layer F.SilkS) (width 0.1))
  (fp_line (start 4.699 1.143) (end 4.699 -1.143) (layer F.SilkS) (width 0.12))
  (fp_line (start -4.699 1.143) (end 4.699 1.143) (layer F.SilkS) (width 0.12))
  (fp_line (start -4.699 -1.143) (end -4.699 1.143) (layer F.SilkS) (width 0.12))
  (fp_line (start 4.699 -1.143) (end -4.699 -1.143) (layer F.SilkS) (width 0.12))
  (fp_line (start 1.65 -0.8) (end 1.65 0.8) (layer F.Fab) (width 0.1))
  (fp_line (start 1.65 0.8) (end -1.65 0.8) (layer F.Fab) (width 0.1))
  (fp_line (start -1.65 0.8) (end -1.65 -0.8) (layer F.Fab) (width 0.1))
  (fp_line (start -1.65 -0.8) (end 1.65 -0.8) (layer F.Fab) (width 0.1))
  (fp_line (start 0.25 0) (end 0.75 0) (layer F.Fab) (width 0.1))
  (fp_line (start 0.25 0.4) (end -0.35 0) (layer F.Fab) (width 0.1))
  (fp_line (start 0.25 -0.4) (end 0.25 0.4) (layer F.Fab) (width 0.1))
  (fp_line (start -0.35 0) (end 0.25 -0.4) (layer F.Fab) (width 0.1))
  (fp_line (start -0.35 0) (end -0.35 0.55) (layer F.Fab) (width 0.1))
  (fp_line (start -0.35 0) (end -0.35 -0.55) (layer F.Fab) (width 0.1))
  (fp_line (start -0.75 0) (end -0.35 0) (layer F.Fab) (width 0.1))
  (fp_line (start -4.7625 -1.4605) (end 4.7625 -1.4605) (layer F.CrtYd) (width 0.05))
  (fp_line (start 4.7625 -1.4605) (end 4.7625 1.4605) (layer F.CrtYd) (width 0.05))
  (fp_line (start 4.7625 1.4605) (end -4.7625 1.4605) (layer F.CrtYd) (width 0.05))
  (fp_line (start -4.7625 1.4605) (end -4.7625 -1.4605) (layer F.CrtYd) (width 0.05))
  (fp_text user %R (at 0 -2.131) (layer F.Fab)
    (effects (font (size 1 1) (thickness 0.15)))
  )
  (pad 1 smd rect (at -2.75 0) (size 3.3 1.7) (layers F.Cu F.Paste F.Mask))
  (pad 2 smd rect (at 2.75 0) (size 3.3 1.7) (layers F.Cu F.Paste F.Mask))
  (model ${KISYS3DMOD}/Diode_SMD.3dshapes/D_MiniMELF.wrl
    (at (xyz 0 0 0))
    (scale (xyz 1 1 1))
    (rotate (xyz 0 0 0))
  )
)
