(module D_Powermite3 (layer F.Cu) (tedit 6079345F)
  (descr "Microsemi Powermite 3 SMD power package (https://www.microsemi.com/packaging-information/partpackage/details?pid=5340), Alternate KiCad Library")
  (tags PowerMite3)
  (attr smd)
  (fp_text reference REF** (at 0 -3.4) (layer F.SilkS)
    (effects (font (size 1 1) (thickness 0.15)))
  )
  (fp_text value D_Powermite3 (at 0 3.4) (layer F.Fab)
    (effects (font (size 1 1) (thickness 0.15)))
  )
  (fp_line (start -3.683 2.667) (end -3.683 -2.667) (layer F.SilkS) (width 0.12))
  (fp_line (start 2.159 2.667) (end -3.683 2.667) (layer F.SilkS) (width 0.12))
  (fp_line (start 2.159 1.651) (end 2.159 2.667) (layer F.SilkS) (width 0.12))
  (fp_line (start 3.7465 1.651) (end 2.159 1.651) (layer F.SilkS) (width 0.12))
  (fp_line (start 3.7465 -1.651) (end 3.7465 1.651) (layer F.SilkS) (width 0.12))
  (fp_line (start 2.159 -1.651) (end 3.7465 -1.651) (layer F.SilkS) (width 0.12))
  (fp_line (start 2.159 -2.667) (end 2.159 -1.651) (layer F.SilkS) (width 0.12))
  (fp_line (start -3.683 -2.667) (end 2.159 -2.667) (layer F.SilkS) (width 0.12))
  (fp_line (start -3.69 -2.67) (end -3.69 2.67) (layer F.CrtYd) (width 0.05))
  (fp_line (start 2.16 -2.67) (end -3.69 -2.67) (layer F.CrtYd) (width 0.05))
  (fp_line (start 2.16 -1.61) (end 2.16 -2.67) (layer F.CrtYd) (width 0.05))
  (fp_line (start 3.69 -1.61) (end 2.16 -1.61) (layer F.CrtYd) (width 0.05))
  (fp_line (start 3.69 1.61) (end 3.69 -1.61) (layer F.CrtYd) (width 0.05))
  (fp_line (start 2.16 1.61) (end 3.69 1.61) (layer F.CrtYd) (width 0.05))
  (fp_line (start 2.16 2.67) (end 2.16 1.61) (layer F.CrtYd) (width 0.05))
  (fp_line (start -3.69 2.67) (end 2.16 2.67) (layer F.CrtYd) (width 0.05))
  (fp_line (start -2.464 0.89) (end -3.154 0.89) (layer F.Fab) (width 0.1))
  (fp_line (start -3.154 0.89) (end -3.154 -0.89) (layer F.Fab) (width 0.1))
  (fp_line (start -3.154 -0.89) (end -2.464 -0.89) (layer F.Fab) (width 0.1))
  (fp_line (start 1.936 2.03) (end 1.936 -2.03) (layer F.Fab) (width 0.1))
  (fp_line (start 1.936 -2.03) (end -2.464 -2.03) (layer F.Fab) (width 0.1))
  (fp_line (start -2.464 -2.03) (end -2.464 2.03) (layer F.Fab) (width 0.1))
  (fp_line (start -2.464 2.03) (end 1.936 2.03) (layer F.Fab) (width 0.1))
  (fp_line (start 3.358 -0.4705) (end 3.358 -1.3595) (layer F.Fab) (width 0.1))
  (fp_line (start 3.358 -1.3595) (end 1.936 -1.3595) (layer F.Fab) (width 0.1))
  (fp_line (start 3.358 -0.4705) (end 1.936 -0.4705) (layer F.Fab) (width 0.1))
  (fp_line (start 3.358 1.3595) (end 1.936 1.3595) (layer F.Fab) (width 0.1))
  (fp_line (start 3.358 1.3595) (end 3.358 0.4705) (layer F.Fab) (width 0.1))
  (fp_line (start 3.358 0.4705) (end 1.936 0.4705) (layer F.Fab) (width 0.1))
  (fp_line (start 2.4765 1.397) (end 2.138 1.397) (layer F.SilkS) (width 0.12))
  (fp_line (start 2.4765 -1.397) (end 2.138 -1.397) (layer F.SilkS) (width 0.12))
  (fp_line (start 2.4765 0.4445) (end 2.138 0.4445) (layer F.SilkS) (width 0.12))
  (fp_line (start 2.4765 -0.4445) (end 2.138 -0.4445) (layer F.SilkS) (width 0.12))
  (fp_text user %R (at -0.2 0) (layer F.Fab)
    (effects (font (size 1 1) (thickness 0.15)))
  )
  (pad 3 smd rect (at 3.053 0.9145 180) (size 0.762 0.965) (layers F.Cu F.Paste F.Mask))
  (pad 2 smd rect (at 3.053 -0.9145 180) (size 0.762 0.965) (layers F.Cu F.Paste F.Mask))
  (pad 1 smd rect (at -0.762 0 180) (size 5.344 4.826) (layers F.Cu F.Paste F.Mask))
  (model ${KISYS3DMOD}/Diode_SMD.3dshapes/D_Powermite3.wrl
    (at (xyz 0 0 0))
    (scale (xyz 1 1 1))
    (rotate (xyz 0 0 0))
  )
)
