(module D_SC-80 (layer F.Cu) (tedit 608F9F27)
  (descr "JEITA SC-80, Alternate KiCad Library")
  (tags SC-80)
  (attr smd)
  (fp_text reference REF** (at 0 -1.654) (layer F.SilkS)
    (effects (font (size 1 1) (thickness 0.15)))
  )
  (fp_text value D_SC-80 (at 0 1.5) (layer F.Fab)
    (effects (font (size 1 1) (thickness 0.15)))
  )
  (fp_poly (pts (xy -0.254 0.889) (xy -0.889 0.889) (xy -0.889 0.635) (xy -0.254 0.635)) (layer F.SilkS) (width 0.1))
  (fp_poly (pts (xy -0.254 -0.635) (xy -0.889 -0.635) (xy -0.889 -0.889) (xy -0.254 -0.889)) (layer F.SilkS) (width 0.1))
  (fp_line (start -1.143 0.635) (end -1.143 -0.635) (layer F.SilkS) (width 0.12))
  (fp_line (start 1.143 0.635) (end -1.143 0.635) (layer F.SilkS) (width 0.12))
  (fp_line (start 1.143 -0.635) (end 1.143 0.635) (layer F.SilkS) (width 0.12))
  (fp_line (start -1.143 -0.635) (end 1.143 -0.635) (layer F.SilkS) (width 0.12))
  (fp_line (start -0.65 0.4) (end -0.65 -0.4) (layer F.Fab) (width 0.1))
  (fp_line (start 0.65 0.4) (end -0.65 0.4) (layer F.Fab) (width 0.1))
  (fp_line (start 0.65 -0.4) (end 0.65 0.4) (layer F.Fab) (width 0.1))
  (fp_line (start -0.65 -0.4) (end 0.65 -0.4) (layer F.Fab) (width 0.1))
  (fp_line (start -0.2 0) (end 0.2 -0.225) (layer F.Fab) (width 0.1))
  (fp_line (start -0.2 0) (end -0.475 0) (layer F.Fab) (width 0.1))
  (fp_line (start 0.2 0.225) (end -0.2 0) (layer F.Fab) (width 0.1))
  (fp_line (start 0.2 -0.225) (end 0.2 0.225) (layer F.Fab) (width 0.1))
  (fp_line (start -0.2 -0.275) (end -0.2 0.275) (layer F.Fab) (width 0.1))
  (fp_line (start 0.2 0) (end 0.45 0) (layer F.Fab) (width 0.1))
  (fp_line (start -1.2065 0.9525) (end -1.2065 -0.9525) (layer F.CrtYd) (width 0.05))
  (fp_line (start 1.2065 0.9525) (end -1.2065 0.9525) (layer F.CrtYd) (width 0.05))
  (fp_line (start 1.2065 -0.3975) (end 1.2065 0.9525) (layer F.CrtYd) (width 0.05))
  (fp_line (start -1.2065 -0.9525) (end 1.0435 -0.9525) (layer F.CrtYd) (width 0.05))
  (fp_line (start 1.2065 -0.9525) (end 1.2065 -0.3945) (layer F.CrtYd) (width 0.05))
  (fp_line (start 1.0435 -0.9525) (end 1.2065 -0.9525) (layer F.CrtYd) (width 0.05))
  (fp_text user %R (at 0 -1.654) (layer F.Fab)
    (effects (font (size 1 1) (thickness 0.15)))
  )
  (pad 2 smd rect (at 0.725 0) (size 0.35 0.35) (layers F.Cu F.Paste F.Mask))
  (pad 1 smd rect (at -0.725 0) (size 0.35 0.35) (layers F.Cu F.Paste F.Mask))
  (model ${KISYS3DMOD}/Diode_SMD.3dshapes/D_SC-80.wrl
    (at (xyz 0 0 0))
    (scale (xyz 1 1 1))
    (rotate (xyz 0 0 0))
  )
)
