(module D_SMF (layer F.Cu) (tedit 608F9FF9)
  (descr "Diode SMF (DO-219AB), http://www.vishay.com/docs/95572/smf_do-219ab.pdf, Alternate KiCad Library")
  (tags "Diode SMF (DO-214AB)")
  (attr smd)
  (fp_text reference REF** (at 0 -2.254) (layer F.SilkS)
    (effects (font (size 1 1) (thickness 0.15)))
  )
  (fp_text value D_SMF (at 0 2) (layer F.Fab)
    (effects (font (size 1 1) (thickness 0.15)))
  )
  (fp_poly (pts (xy -0.889 1.524) (xy -1.778 1.524) (xy -1.778 1.143) (xy -0.889 1.143)) (layer F.SilkS) (width 0.1))
  (fp_poly (pts (xy -0.889 -1.143) (xy -1.778 -1.143) (xy -1.778 -1.524) (xy -0.889 -1.524)) (layer F.SilkS) (width 0.1))
  (fp_line (start 2.413 1.143) (end 2.413 -1.143) (layer F.SilkS) (width 0.12))
  (fp_line (start -2.413 1.143) (end 2.413 1.143) (layer F.SilkS) (width 0.12))
  (fp_line (start -2.413 -1.143) (end -2.413 1.143) (layer F.SilkS) (width 0.12))
  (fp_line (start 2.413 -1.143) (end -2.413 -1.143) (layer F.SilkS) (width 0.12))
  (fp_line (start 1.4 0.9) (end -1.4 0.9) (layer F.Fab) (width 0.1))
  (fp_line (start -1.4 0.9) (end -1.4 -0.9) (layer F.Fab) (width 0.1))
  (fp_line (start 1.4 -0.9) (end 1.4 0.9) (layer F.Fab) (width 0.1))
  (fp_line (start 1.4 -0.9) (end -1.4 -0.9) (layer F.Fab) (width 0.1))
  (fp_line (start -2.4765 -1.5875) (end 2.4765 -1.5875) (layer F.CrtYd) (width 0.05))
  (fp_line (start 2.4765 -1.5875) (end 2.4765 1.5875) (layer F.CrtYd) (width 0.05))
  (fp_line (start 2.4765 1.5875) (end -2.4765 1.5875) (layer F.CrtYd) (width 0.05))
  (fp_line (start -2.4765 1.5875) (end -2.4765 -1.5875) (layer F.CrtYd) (width 0.05))
  (fp_line (start -0.3 0) (end -0.9 0) (layer F.Fab) (width 0.1))
  (fp_line (start 0.3 0) (end 0.9 0) (layer F.Fab) (width 0.1))
  (fp_line (start -0.3 -0.4) (end -0.3 0.4) (layer F.Fab) (width 0.1))
  (fp_line (start 0.3 0.4) (end 0.3 -0.4) (layer F.Fab) (width 0.1))
  (fp_line (start -0.3 0.00102) (end 0.3 0.4) (layer F.Fab) (width 0.1))
  (fp_line (start -0.3 0) (end 0.3 -0.4) (layer F.Fab) (width 0.1))
  (fp_text user %R (at 0 -2.254) (layer F.Fab)
    (effects (font (size 1 1) (thickness 0.15)))
  )
  (pad 1 smd rect (at -1.45 0) (size 1.3 1.4) (layers F.Cu F.Paste F.Mask))
  (pad 2 smd rect (at 1.45 0) (size 1.3 1.4) (layers F.Cu F.Paste F.Mask))
  (model ${KISYS3DMOD}/Diode_SMD.3dshapes/D_SMF.wrl
    (at (xyz 0 0 0))
    (scale (xyz 1 1 1))
    (rotate (xyz 0 0 0))
  )
)
