(module D_SMC_BigPads (layer F.Cu) (tedit 608F9FCA)
  (descr "Diode SMC (DO-214AB) Handsoldering, Alternate KiCad Library")
  (tags "Diode SMC (DO-214AB) Handsoldering")
  (attr smd)
  (fp_text reference REF** (at 0 -4.1) (layer F.SilkS)
    (effects (font (size 1 1) (thickness 0.15)))
  )
  (fp_text value D_SMC_BigPads (at 0 4.2) (layer F.Fab)
    (effects (font (size 1 1) (thickness 0.15)))
  )
  (fp_poly (pts (xy -2.667 3.81) (xy -4.191 3.81) (xy -4.191 3.302) (xy -2.667 3.302)) (layer F.SilkS) (width 0.1))
  (fp_poly (pts (xy -2.667 -3.302) (xy -4.191 -3.302) (xy -4.191 -3.81) (xy -2.667 -3.81)) (layer F.SilkS) (width 0.1))
  (fp_line (start 6.985 3.302) (end 6.985 -3.302) (layer F.SilkS) (width 0.12))
  (fp_line (start -6.985 3.302) (end 6.985 3.302) (layer F.SilkS) (width 0.12))
  (fp_line (start -6.985 -3.302) (end -6.985 3.302) (layer F.SilkS) (width 0.12))
  (fp_line (start 6.985 -3.302) (end -6.985 -3.302) (layer F.SilkS) (width 0.12))
  (fp_line (start 3.55 3.1) (end -3.55 3.1) (layer F.Fab) (width 0.1))
  (fp_line (start -3.55 3.1) (end -3.55 -3.1) (layer F.Fab) (width 0.1))
  (fp_line (start 3.55 -3.1) (end 3.55 3.1) (layer F.Fab) (width 0.1))
  (fp_line (start 3.55 -3.1) (end -3.55 -3.1) (layer F.Fab) (width 0.1))
  (fp_line (start -7.0485 -3.8735) (end 7.0485 -3.8735) (layer F.CrtYd) (width 0.05))
  (fp_line (start 7.0485 -3.8735) (end 7.0485 3.8735) (layer F.CrtYd) (width 0.05))
  (fp_line (start 7.0485 3.8735) (end -7.0485 3.8735) (layer F.CrtYd) (width 0.05))
  (fp_line (start -7.0485 3.8735) (end -7.0485 -3.8735) (layer F.CrtYd) (width 0.05))
  (fp_line (start -0.64944 0.00102) (end -1.55114 0.00102) (layer F.Fab) (width 0.1))
  (fp_line (start 0.50118 0.00102) (end 1.4994 0.00102) (layer F.Fab) (width 0.1))
  (fp_line (start -0.64944 -0.79908) (end -0.64944 0.80112) (layer F.Fab) (width 0.1))
  (fp_line (start 0.50118 0.75032) (end 0.50118 -0.79908) (layer F.Fab) (width 0.1))
  (fp_line (start -0.64944 0.00102) (end 0.50118 0.75032) (layer F.Fab) (width 0.1))
  (fp_line (start -0.64944 0.00102) (end 0.50118 -0.79908) (layer F.Fab) (width 0.1))
  (fp_text user %R (at 0 -1.5) (layer F.Fab)
    (effects (font (size 1 1) (thickness 0.15)))
  )
  (pad 1 smd rect (at -4.4 0 90) (size 3.3 4.5) (layers F.Cu F.Paste F.Mask))
  (pad 2 smd rect (at 4.4 0 90) (size 3.3 4.5) (layers F.Cu F.Paste F.Mask))
  (model ${KISYS3DMOD}/Diode_SMD.3dshapes/D_SMC.wrl
    (at (xyz 0 0 0))
    (scale (xyz 1 1 1))
    (rotate (xyz 0 0 0))
  )
)
