(module D_SMC (layer F.Cu) (tedit 608F9FAF)
  (descr "Diode SMC (DO-214AB), Alternate KiCad Library")
  (tags "Diode SMC (DO-214AB)")
  (attr smd)
  (fp_text reference REF** (at 0 -4.445) (layer F.SilkS)
    (effects (font (size 1 1) (thickness 0.15)))
  )
  (fp_text value D_SMC (at 0 4.2) (layer F.Fab)
    (effects (font (size 1 1) (thickness 0.15)))
  )
  (fp_poly (pts (xy -2.54 3.81) (xy -4.064 3.81) (xy -4.064 3.302) (xy -2.54 3.302)) (layer F.SilkS) (width 0.1))
  (fp_poly (pts (xy -2.54 -3.302) (xy -4.064 -3.302) (xy -4.064 -3.81) (xy -2.54 -3.81)) (layer F.SilkS) (width 0.1))
  (fp_line (start -4.953 3.302) (end -4.953 -3.302) (layer F.SilkS) (width 0.12))
  (fp_line (start 4.953 3.302) (end -4.953 3.302) (layer F.SilkS) (width 0.12))
  (fp_line (start 4.953 -3.302) (end 4.953 3.302) (layer F.SilkS) (width 0.12))
  (fp_line (start -4.953 -3.302) (end 4.953 -3.302) (layer F.SilkS) (width 0.12))
  (fp_line (start 3.55 3.1) (end -3.55 3.1) (layer F.Fab) (width 0.1))
  (fp_line (start -3.55 3.1) (end -3.55 -3.1) (layer F.Fab) (width 0.1))
  (fp_line (start 3.55 -3.1) (end 3.55 3.1) (layer F.Fab) (width 0.1))
  (fp_line (start 3.55 -3.1) (end -3.55 -3.1) (layer F.Fab) (width 0.1))
  (fp_line (start -5.0165 -3.8735) (end 5.0165 -3.8735) (layer F.CrtYd) (width 0.05))
  (fp_line (start 5.0165 -3.8735) (end 5.0165 3.8735) (layer F.CrtYd) (width 0.05))
  (fp_line (start 5.0165 3.8735) (end -5.0165 3.8735) (layer F.CrtYd) (width 0.05))
  (fp_line (start -5.0165 3.8735) (end -5.0165 -3.8735) (layer F.CrtYd) (width 0.05))
  (fp_line (start -0.64944 0.00102) (end -1.55114 0.00102) (layer F.Fab) (width 0.1))
  (fp_line (start 0.50118 0.00102) (end 1.4994 0.00102) (layer F.Fab) (width 0.1))
  (fp_line (start -0.64944 -0.79908) (end -0.64944 0.80112) (layer F.Fab) (width 0.1))
  (fp_line (start 0.50118 0.75032) (end 0.50118 -0.79908) (layer F.Fab) (width 0.1))
  (fp_line (start -0.64944 0.00102) (end 0.50118 0.75032) (layer F.Fab) (width 0.1))
  (fp_line (start -0.64944 0.00102) (end 0.50118 -0.79908) (layer F.Fab) (width 0.1))
  (fp_text user %R (at 0 -1.9) (layer F.Fab)
    (effects (font (size 1 1) (thickness 0.15)))
  )
  (pad 1 smd rect (at -3.4 0 90) (size 3.3 2.5) (layers F.Cu F.Paste F.Mask))
  (pad 2 smd rect (at 3.4 0 90) (size 3.3 2.5) (layers F.Cu F.Paste F.Mask))
  (model ${KISYS3DMOD}/Diode_SMD.3dshapes/D_SMC.wrl
    (at (xyz 0 0 0))
    (scale (xyz 1 1 1))
    (rotate (xyz 0 0 0))
  )
)
