(module D_SMB_BigPads (layer F.Cu) (tedit 608F9F9A)
  (descr "Diode SMB (DO-214AA) Handsoldering, Alternate KiCad Library")
  (tags "Diode SMB (DO-214AA) Handsoldering")
  (attr smd)
  (fp_text reference REF** (at 0 -3.381) (layer F.SilkS)
    (effects (font (size 1 1) (thickness 0.15)))
  )
  (fp_text value D_SMB_BigPads (at 0 3) (layer F.Fab)
    (effects (font (size 1 1) (thickness 0.15)))
  )
  (fp_poly (pts (xy -1.524 2.54) (xy -2.54 2.54) (xy -2.54 2.159) (xy -1.524 2.159)) (layer F.SilkS) (width 0.1))
  (fp_poly (pts (xy -1.524 -2.159) (xy -2.54 -2.159) (xy -2.54 -2.54) (xy -1.524 -2.54)) (layer F.SilkS) (width 0.1))
  (fp_line (start -0.64944 0.00102) (end 0.50118 -0.79908) (layer F.Fab) (width 0.1))
  (fp_line (start -0.64944 0.00102) (end 0.50118 0.75032) (layer F.Fab) (width 0.1))
  (fp_line (start 0.50118 0.75032) (end 0.50118 -0.79908) (layer F.Fab) (width 0.1))
  (fp_line (start -0.64944 -0.79908) (end -0.64944 0.80112) (layer F.Fab) (width 0.1))
  (fp_line (start 0.50118 0.00102) (end 1.4994 0.00102) (layer F.Fab) (width 0.1))
  (fp_line (start -0.64944 0.00102) (end -1.55114 0.00102) (layer F.Fab) (width 0.1))
  (fp_line (start -4.7625 2.6035) (end -4.7625 -2.6035) (layer F.CrtYd) (width 0.05))
  (fp_line (start 4.7625 2.6035) (end -4.7625 2.6035) (layer F.CrtYd) (width 0.05))
  (fp_line (start 4.7625 -2.6035) (end 4.7625 2.6035) (layer F.CrtYd) (width 0.05))
  (fp_line (start -4.7625 -2.6035) (end 4.7625 -2.6035) (layer F.CrtYd) (width 0.05))
  (fp_line (start 2.3 -2) (end -2.3 -2) (layer F.Fab) (width 0.1))
  (fp_line (start 2.3 -2) (end 2.3 2) (layer F.Fab) (width 0.1))
  (fp_line (start -2.3 2) (end -2.3 -2) (layer F.Fab) (width 0.1))
  (fp_line (start 2.3 2) (end -2.3 2) (layer F.Fab) (width 0.1))
  (fp_line (start 4.699 -2.159) (end -4.699 -2.159) (layer F.SilkS) (width 0.12))
  (fp_line (start -4.699 -2.159) (end -4.699 2.159) (layer F.SilkS) (width 0.12))
  (fp_line (start -4.699 2.159) (end 4.699 2.159) (layer F.SilkS) (width 0.12))
  (fp_line (start 4.699 2.159) (end 4.699 -2.159) (layer F.SilkS) (width 0.12))
  (fp_text user %R (at 0 -3.381) (layer F.Fab)
    (effects (font (size 1 1) (thickness 0.15)))
  )
  (pad 1 smd rect (at -2.7 0) (size 3.5 2.3) (layers F.Cu F.Paste F.Mask))
  (pad 2 smd rect (at 2.7 0) (size 3.5 2.3) (layers F.Cu F.Paste F.Mask))
  (model ${KISYS3DMOD}/Diode_SMD.3dshapes/D_SMB.wrl
    (at (xyz 0 0 0))
    (scale (xyz 1 1 1))
    (rotate (xyz 0 0 0))
  )
)
