(module D_SMA-SMB_Universal (layer F.Cu) (tedit 608F9F54)
  (descr "Diode, Universal, SMA (DO-214AC) or SMB (DO-214AA), Handsoldering, Alternate KiCad Library")
  (tags "Diode Universal SMA (DO-214AC) SMB (DO-214AA) Handsoldering ")
  (attr smd)
  (fp_text reference REF** (at 0 -3.254) (layer F.SilkS)
    (effects (font (size 1 1) (thickness 0.15)))
  )
  (fp_text value D_SMA-SMB_Universal (at 0 3.1) (layer F.Fab)
    (effects (font (size 1 1) (thickness 0.15)))
  )
  (fp_poly (pts (xy -1.778 2.54) (xy -2.921 2.54) (xy -2.921 2.159) (xy -1.778 2.159)) (layer F.SilkS) (width 0.1))
  (fp_poly (pts (xy -1.778 -2.159) (xy -2.921 -2.159) (xy -2.921 -2.54) (xy -1.778 -2.54)) (layer F.SilkS) (width 0.1))
  (fp_line (start 4.953 2.159) (end 4.953 -2.159) (layer F.SilkS) (width 0.12))
  (fp_line (start -4.953 2.159) (end 4.953 2.159) (layer F.SilkS) (width 0.12))
  (fp_line (start -4.953 -2.159) (end -4.953 2.159) (layer F.SilkS) (width 0.12))
  (fp_line (start 4.953 -2.159) (end -4.953 -2.159) (layer F.SilkS) (width 0.12))
  (fp_line (start 2.3 2) (end -2.3 2) (layer F.Fab) (width 0.1))
  (fp_line (start -2.3 2) (end -2.3 -2) (layer F.Fab) (width 0.1))
  (fp_line (start 2.3 -2) (end 2.3 2) (layer F.Fab) (width 0.1))
  (fp_line (start 2.3 -2) (end -2.3 -2) (layer F.Fab) (width 0.1))
  (fp_line (start 2.3 1.5) (end -2.3 1.5) (layer F.Fab) (width 0.1))
  (fp_line (start -2.3 1.5) (end -2.3 -1.5) (layer F.Fab) (width 0.1))
  (fp_line (start 2.3 -1.5) (end 2.3 1.5) (layer F.Fab) (width 0.1))
  (fp_line (start 2.3 -1.5) (end -2.3 -1.5) (layer F.Fab) (width 0.1))
  (fp_line (start -5.0165 -2.6035) (end 5.0165 -2.6035) (layer F.CrtYd) (width 0.05))
  (fp_line (start 5.0165 -2.6035) (end 5.0165 2.6035) (layer F.CrtYd) (width 0.05))
  (fp_line (start 5.0165 2.6035) (end -5.0165 2.6035) (layer F.CrtYd) (width 0.05))
  (fp_line (start -5.0165 2.6035) (end -5.0165 -2.6035) (layer F.CrtYd) (width 0.05))
  (fp_line (start -0.64944 0.00102) (end -1.55114 0.00102) (layer F.Fab) (width 0.1))
  (fp_line (start 0.50118 0.00102) (end 1.4994 0.00102) (layer F.Fab) (width 0.1))
  (fp_line (start -0.64944 -0.79908) (end -0.64944 0.80112) (layer F.Fab) (width 0.1))
  (fp_line (start 0.50118 0.75032) (end 0.50118 -0.79908) (layer F.Fab) (width 0.1))
  (fp_line (start -0.64944 0.00102) (end 0.50118 0.75032) (layer F.Fab) (width 0.1))
  (fp_line (start -0.64944 0.00102) (end 0.50118 -0.79908) (layer F.Fab) (width 0.1))
  (fp_text user %R (at 0 -3.254) (layer F.Fab)
    (effects (font (size 1 1) (thickness 0.15)))
  )
  (pad 1 smd trapezoid (at -2.9 0) (size 3.6 1.7) (rect_delta 0.6 0 ) (layers F.Cu F.Paste F.Mask))
  (pad 2 smd trapezoid (at 2.9 0 180) (size 3.6 1.7) (rect_delta 0.6 0 ) (layers F.Cu F.Paste F.Mask))
  (model ${KISYS3DMOD}/Diode_SMD.3dshapes/D_SMB.wrl
    (at (xyz 0 0 0))
    (scale (xyz 1 1 1))
    (rotate (xyz 0 0 0))
  )
)
