(module D_SMA (layer F.Cu) (tedit 608F9F48)
  (descr "Diode SMA (DO-214AC), Alternate KiCad Library")
  (tags "Diode SMA (DO-214AC)")
  (attr smd)
  (fp_text reference REF** (at 0 -2.754) (layer F.SilkS)
    (effects (font (size 1 1) (thickness 0.15)))
  )
  (fp_text value D_SMA (at 0 2.6) (layer F.Fab)
    (effects (font (size 1 1) (thickness 0.15)))
  )
  (fp_poly (pts (xy -1.397 2.032) (xy -2.54 2.032) (xy -2.54 1.651) (xy -1.397 1.651)) (layer F.SilkS) (width 0.1))
  (fp_poly (pts (xy -1.397 -1.651) (xy -2.54 -1.651) (xy -2.54 -2.032) (xy -1.397 -2.032)) (layer F.SilkS) (width 0.1))
  (fp_line (start 3.556 1.651) (end 3.556 -1.651) (layer F.SilkS) (width 0.12))
  (fp_line (start -3.556 1.651) (end 3.556 1.651) (layer F.SilkS) (width 0.12))
  (fp_line (start -3.556 -1.651) (end -3.556 1.651) (layer F.SilkS) (width 0.12))
  (fp_line (start 3.556 -1.651) (end -3.556 -1.651) (layer F.SilkS) (width 0.12))
  (fp_line (start 2.3 1.5) (end -2.3 1.5) (layer F.Fab) (width 0.1))
  (fp_line (start -2.3 1.5) (end -2.3 -1.5) (layer F.Fab) (width 0.1))
  (fp_line (start 2.3 -1.5) (end 2.3 1.5) (layer F.Fab) (width 0.1))
  (fp_line (start 2.3 -1.5) (end -2.3 -1.5) (layer F.Fab) (width 0.1))
  (fp_line (start -3.6195 -2.0955) (end 3.6195 -2.0955) (layer F.CrtYd) (width 0.05))
  (fp_line (start 3.6195 -2.0955) (end 3.6195 2.0955) (layer F.CrtYd) (width 0.05))
  (fp_line (start 3.6195 2.0955) (end -3.6195 2.0955) (layer F.CrtYd) (width 0.05))
  (fp_line (start -3.6195 2.0955) (end -3.6195 -2.0955) (layer F.CrtYd) (width 0.05))
  (fp_line (start -0.64944 0.00102) (end -1.55114 0.00102) (layer F.Fab) (width 0.1))
  (fp_line (start 0.50118 0.00102) (end 1.4994 0.00102) (layer F.Fab) (width 0.1))
  (fp_line (start -0.64944 -0.79908) (end -0.64944 0.80112) (layer F.Fab) (width 0.1))
  (fp_line (start 0.50118 0.75032) (end 0.50118 -0.79908) (layer F.Fab) (width 0.1))
  (fp_line (start -0.64944 0.00102) (end 0.50118 0.75032) (layer F.Fab) (width 0.1))
  (fp_line (start -0.64944 0.00102) (end 0.50118 -0.79908) (layer F.Fab) (width 0.1))
  (fp_text user %R (at 0 -2.754) (layer F.Fab)
    (effects (font (size 1 1) (thickness 0.15)))
  )
  (pad 1 smd rect (at -2 0) (size 2.5 1.8) (layers F.Cu F.Paste F.Mask))
  (pad 2 smd rect (at 2 0) (size 2.5 1.8) (layers F.Cu F.Paste F.Mask))
  (model ${KISYS3DMOD}/Diode_SMD.3dshapes/D_SMA.wrl
    (at (xyz 0 0 0))
    (scale (xyz 1 1 1))
    (rotate (xyz 0 0 0))
  )
)
