(module D_SOD-323_TVS (layer F.Cu) (tedit 608FA063)
  (descr "SOD-323, Bidirectional zener or TVS, Alternate KiCad Library")
  (tags SOD-323)
  (attr smd)
  (fp_text reference REF** (at 0 -1.7145) (layer F.SilkS)
    (effects (font (size 1 1) (thickness 0.15)))
  )
  (fp_text value D_SOD-323_TVS (at 0.1 1.9) (layer F.Fab)
    (effects (font (size 1 1) (thickness 0.15)))
  )
  (fp_line (start -1.651 -1.016) (end -1.651 1.016) (layer F.CrtYd) (width 0.05))
  (fp_line (start -1.651 1.016) (end 1.651 1.016) (layer F.CrtYd) (width 0.05))
  (fp_line (start 1.651 -1.016) (end 1.651 1.016) (layer F.CrtYd) (width 0.05))
  (fp_line (start -1.651 -1.016) (end 1.651 -1.016) (layer F.CrtYd) (width 0.05))
  (fp_line (start -0.9 -0.7) (end 0.9 -0.7) (layer F.Fab) (width 0.1))
  (fp_line (start 0.9 -0.7) (end 0.9 0.7) (layer F.Fab) (width 0.1))
  (fp_line (start 0.9 0.7) (end -0.9 0.7) (layer F.Fab) (width 0.1))
  (fp_line (start -0.9 0.7) (end -0.9 -0.7) (layer F.Fab) (width 0.1))
  (fp_line (start -0.3 -0.35) (end -0.3 0.35) (layer F.Fab) (width 0.1))
  (fp_line (start -0.3 0) (end -0.5 0) (layer F.Fab) (width 0.1))
  (fp_line (start -0.3 0) (end 0.2 -0.35) (layer F.Fab) (width 0.1))
  (fp_line (start 0.2 -0.35) (end 0.2 0.35) (layer F.Fab) (width 0.1))
  (fp_line (start 0.2 0.35) (end -0.3 0) (layer F.Fab) (width 0.1))
  (fp_line (start 0.2 0) (end 0.45 0) (layer F.Fab) (width 0.1))
  (fp_line (start 1.5875 -0.9525) (end -1.5875 -0.9525) (layer F.SilkS) (width 0.12))
  (fp_line (start -1.5875 -0.9525) (end -1.5875 0.9525) (layer F.SilkS) (width 0.12))
  (fp_line (start -1.5875 0.9525) (end 1.5875 0.9525) (layer F.SilkS) (width 0.12))
  (fp_line (start 1.5875 0.9525) (end 1.5875 -0.889) (layer F.SilkS) (width 0.12))
  (fp_line (start 1.5875 -0.889) (end 1.5875 -0.9525) (layer F.SilkS) (width 0.12))
  (fp_text user %R (at 0 -2.0405) (layer F.Fab)
    (effects (font (size 1 1) (thickness 0.15)))
  )
  (pad 1 smd rect (at -1.05 0) (size 0.6 0.45) (layers F.Cu F.Paste F.Mask))
  (pad 2 smd rect (at 1.05 0) (size 0.6 0.45) (layers F.Cu F.Paste F.Mask))
  (model ${KISYS3DMOD}/Diode_SMD.3dshapes/D_SOD-323.wrl
    (at (xyz 0 0 0))
    (scale (xyz 1 1 1))
    (rotate (xyz 0 0 0))
  )
)
