(module D_SOD-123 (layer F.Cu) (tedit 608FA019)
  (descr "SOD-123, Alternate KiCad Library")
  (tags SOD-123)
  (attr smd)
  (fp_text reference REF** (at 0 -2.127) (layer F.SilkS)
    (effects (font (size 1 1) (thickness 0.15)))
  )
  (fp_text value D_SOD-123 (at 0 2.1) (layer F.Fab)
    (effects (font (size 1 1) (thickness 0.15)))
  )
  (fp_line (start -2.4765 -1.4605) (end -2.4765 1.4605) (layer F.CrtYd) (width 0.05))
  (fp_line (start 2.4765 1.4605) (end -2.4765 1.4605) (layer F.CrtYd) (width 0.05))
  (fp_line (start 2.4765 -1.4605) (end 2.4765 1.4605) (layer F.CrtYd) (width 0.05))
  (fp_line (start -2.4765 -1.4605) (end 2.4765 -1.4605) (layer F.CrtYd) (width 0.05))
  (fp_line (start -1.4 -0.9) (end 1.4 -0.9) (layer F.Fab) (width 0.1))
  (fp_line (start 1.4 -0.9) (end 1.4 0.9) (layer F.Fab) (width 0.1))
  (fp_line (start 1.4 0.9) (end -1.4 0.9) (layer F.Fab) (width 0.1))
  (fp_line (start -1.4 0.9) (end -1.4 -0.9) (layer F.Fab) (width 0.1))
  (fp_line (start -0.75 0) (end -0.35 0) (layer F.Fab) (width 0.1))
  (fp_line (start -0.35 0) (end -0.35 -0.55) (layer F.Fab) (width 0.1))
  (fp_line (start -0.35 0) (end -0.35 0.55) (layer F.Fab) (width 0.1))
  (fp_line (start -0.35 0) (end 0.25 -0.4) (layer F.Fab) (width 0.1))
  (fp_line (start 0.25 -0.4) (end 0.25 0.4) (layer F.Fab) (width 0.1))
  (fp_line (start 0.25 0.4) (end -0.35 0) (layer F.Fab) (width 0.1))
  (fp_line (start 0.25 0) (end 0.75 0) (layer F.Fab) (width 0.1))
  (fp_line (start 2.413 -1.143) (end -2.413 -1.143) (layer F.SilkS) (width 0.12))
  (fp_line (start -2.413 -1.143) (end -2.413 1.016) (layer F.SilkS) (width 0.12))
  (fp_line (start -2.413 1.016) (end -2.413 1.143) (layer F.SilkS) (width 0.12))
  (fp_line (start -2.413 1.143) (end 2.413 1.143) (layer F.SilkS) (width 0.12))
  (fp_line (start 2.413 1.143) (end 2.413 -1.143) (layer F.SilkS) (width 0.12))
  (fp_poly (pts (xy -0.762 -1.143) (xy -1.524 -1.143) (xy -1.524 -1.397) (xy -0.762 -1.397)) (layer F.SilkS) (width 0.1))
  (fp_poly (pts (xy -0.762 1.397) (xy -1.524 1.397) (xy -1.524 1.143) (xy -0.762 1.143)) (layer F.SilkS) (width 0.1))
  (fp_text user %R (at 0 -2.127) (layer F.Fab)
    (effects (font (size 1 1) (thickness 0.15)))
  )
  (pad 1 smd rect (at -1.65 0) (size 0.9 1.2) (layers F.Cu F.Paste F.Mask))
  (pad 2 smd rect (at 1.65 0) (size 0.9 1.2) (layers F.Cu F.Paste F.Mask))
  (model ${KISYS3DMOD}/Diode_SMD.3dshapes/D_SOD-123.wrl
    (at (xyz 0 0 0))
    (scale (xyz 1 1 1))
    (rotate (xyz 0 0 0))
  )
)
