(module D_SOD-128 (layer F.Cu) (tedit 608FA031)
  (descr "D_SOD-128 (CFP5 SlimSMAW), https://assets.nexperia.com/documents/outline-drawing/SOD128.pdf, Alternate KiCad Library")
  (tags D_SOD-128)
  (attr smd)
  (fp_text reference REF** (at 0 -2.635) (layer F.SilkS)
    (effects (font (size 1 1) (thickness 0.15)))
  )
  (fp_text value D_SOD-128 (at 0 2) (layer F.Fab)
    (effects (font (size 1 1) (thickness 0.15)))
  )
  (fp_poly (pts (xy -1.016 1.905) (xy -2.032 1.905) (xy -2.032 1.524) (xy -1.016 1.524)) (layer F.SilkS) (width 0.1))
  (fp_poly (pts (xy -1.016 -1.524) (xy -2.032 -1.524) (xy -2.032 -1.905) (xy -1.016 -1.905)) (layer F.SilkS) (width 0.1))
  (fp_line (start 3.175 1.524) (end 3.175 -1.524) (layer F.SilkS) (width 0.12))
  (fp_line (start -3.175 1.524) (end 3.175 1.524) (layer F.SilkS) (width 0.12))
  (fp_line (start -3.175 -1.524) (end -3.175 1.524) (layer F.SilkS) (width 0.12))
  (fp_line (start 3.175 -1.524) (end -3.175 -1.524) (layer F.SilkS) (width 0.12))
  (fp_line (start 0.25 0) (end 0.75 0) (layer F.Fab) (width 0.1))
  (fp_line (start 0.25 0.4) (end -0.35 0) (layer F.Fab) (width 0.1))
  (fp_line (start 0.25 -0.4) (end 0.25 0.4) (layer F.Fab) (width 0.1))
  (fp_line (start -0.35 0) (end 0.25 -0.4) (layer F.Fab) (width 0.1))
  (fp_line (start -0.35 0) (end -0.35 0.55) (layer F.Fab) (width 0.1))
  (fp_line (start -0.35 0) (end -0.35 -0.55) (layer F.Fab) (width 0.1))
  (fp_line (start -0.75 0) (end -0.35 0) (layer F.Fab) (width 0.1))
  (fp_line (start -1.9 1.25) (end -1.9 -1.25) (layer F.Fab) (width 0.1))
  (fp_line (start 1.9 1.25) (end -1.9 1.25) (layer F.Fab) (width 0.1))
  (fp_line (start 1.9 -1.25) (end 1.9 1.25) (layer F.Fab) (width 0.1))
  (fp_line (start -1.9 -1.25) (end 1.9 -1.25) (layer F.Fab) (width 0.1))
  (fp_line (start -3.2385 -1.9685) (end 3.2385 -1.9685) (layer F.CrtYd) (width 0.05))
  (fp_line (start 3.2385 -1.9685) (end 3.2385 1.9685) (layer F.CrtYd) (width 0.05))
  (fp_line (start 3.2385 1.9685) (end -3.2385 1.9685) (layer F.CrtYd) (width 0.05))
  (fp_line (start -3.2385 -1.9685) (end -3.2385 1.9685) (layer F.CrtYd) (width 0.05))
  (fp_text user %R (at 0 -2.635) (layer F.Fab)
    (effects (font (size 1 1) (thickness 0.15)))
  )
  (pad 1 smd rect (at -2.2 0) (size 1.4 2.1) (layers F.Cu F.Paste F.Mask))
  (pad 2 smd rect (at 2.2 0) (size 1.4 2.1) (layers F.Cu F.Paste F.Mask))
  (model ${KISYS3DMOD}/Diode_SMD.3dshapes/D_SOD-128.wrl
    (at (xyz 0 0 0))
    (scale (xyz 1 1 1))
    (rotate (xyz 0 0 0))
  )
)
