(module D_SOD-123F_TVS (layer F.Cu) (tedit 608FA021)
  (descr "D_SOD-123F, Bidirectional zener or TVS, Alternate KiCad Library")
  (tags "D_SOD-123F TVS")
  (attr smd)
  (fp_text reference REF** (at 0 -1.9685) (layer F.SilkS)
    (effects (font (size 1 1) (thickness 0.15)))
  )
  (fp_text value D_SOD-123F_TVS (at 0 2.1) (layer F.Fab)
    (effects (font (size 1 1) (thickness 0.15)))
  )
  (fp_line (start -2.286 1.143) (end -2.286 -1.143) (layer F.SilkS) (width 0.12))
  (fp_line (start 2.286 1.143) (end -2.286 1.143) (layer F.SilkS) (width 0.12))
  (fp_line (start 2.286 -1.143) (end 2.286 1.143) (layer F.SilkS) (width 0.12))
  (fp_line (start -2.286 -1.143) (end 2.286 -1.143) (layer F.SilkS) (width 0.12))
  (fp_line (start 0.25 0) (end 0.75 0) (layer F.Fab) (width 0.1))
  (fp_line (start 0.25 0.4) (end -0.35 0) (layer F.Fab) (width 0.1))
  (fp_line (start 0.25 -0.4) (end 0.25 0.4) (layer F.Fab) (width 0.1))
  (fp_line (start -0.35 0) (end 0.25 -0.4) (layer F.Fab) (width 0.1))
  (fp_line (start -0.35 0) (end -0.35 0.55) (layer F.Fab) (width 0.1))
  (fp_line (start -0.35 0) (end -0.35 -0.55) (layer F.Fab) (width 0.1))
  (fp_line (start -0.75 0) (end -0.35 0) (layer F.Fab) (width 0.1))
  (fp_line (start -1.4 0.9) (end -1.4 -0.9) (layer F.Fab) (width 0.1))
  (fp_line (start 1.4 0.9) (end -1.4 0.9) (layer F.Fab) (width 0.1))
  (fp_line (start 1.4 -0.9) (end 1.4 0.9) (layer F.Fab) (width 0.1))
  (fp_line (start -1.4 -0.9) (end 1.4 -0.9) (layer F.Fab) (width 0.1))
  (fp_line (start -2.3495 -1.2065) (end 2.3495 -1.2065) (layer F.CrtYd) (width 0.05))
  (fp_line (start 2.3495 -1.2065) (end 2.3495 1.2065) (layer F.CrtYd) (width 0.05))
  (fp_line (start 2.3495 1.2065) (end -2.3495 1.2065) (layer F.CrtYd) (width 0.05))
  (fp_line (start -2.3495 -1.2065) (end -2.3495 1.2065) (layer F.CrtYd) (width 0.05))
  (fp_text user %R (at -0.127 -2.159) (layer F.Fab)
    (effects (font (size 1 1) (thickness 0.15)))
  )
  (pad 1 smd rect (at -1.4 0) (size 1.1 1.1) (layers F.Cu F.Paste F.Mask))
  (pad 2 smd rect (at 1.4 0) (size 1.1 1.1) (layers F.Cu F.Paste F.Mask))
  (model ${KISYS3DMOD}/Diode_SMD.3dshapes/D_SOD-123F.wrl
    (at (xyz 0 0 0))
    (scale (xyz 1 1 1))
    (rotate (xyz 0 0 0))
  )
)
