(module Diode_Bridge_Diotec_ABS (layer F.Cu) (tedit 60793808)
  (descr "SMD diode bridge ABS (Diotec), see https://diotec.com/tl_files/diotec/files/pdf/datasheets/abs2.pdf, Alternate KiCad Library")
  (tags "ABS MBLS")
  (attr smd)
  (fp_text reference REF** (at 0 -3.7) (layer F.SilkS)
    (effects (font (size 1 1) (thickness 0.15)))
  )
  (fp_text value Diode_Bridge_Diotec_ABS (at 0 3.7) (layer F.Fab)
    (effects (font (size 1 1) (thickness 0.15)))
  )
  (fp_line (start 3.7465 -2.7305) (end -3.7465 -2.7305) (layer F.SilkS) (width 0.12))
  (fp_line (start 3.7465 2.7305) (end 3.7465 -2.7305) (layer F.SilkS) (width 0.12))
  (fp_line (start -3.7465 2.7305) (end 3.7465 2.7305) (layer F.SilkS) (width 0.12))
  (fp_line (start -3.7465 -2.7305) (end -3.7465 2.7305) (layer F.SilkS) (width 0.12))
  (fp_line (start -2.2 2.5) (end 2.2 2.5) (layer F.Fab) (width 0.12))
  (fp_line (start 2.2 2.5) (end 2.2 -2.5) (layer F.Fab) (width 0.12))
  (fp_line (start 2.2 -2.5) (end -1.8 -2.5) (layer F.Fab) (width 0.12))
  (fp_line (start -1.8 -2.5) (end -2.2 -2) (layer F.Fab) (width 0.12))
  (fp_line (start -2.2 -2) (end -2.2 2.5) (layer F.Fab) (width 0.12))
  (fp_line (start -3.72 -2.75) (end 3.73 -2.75) (layer F.CrtYd) (width 0.05))
  (fp_line (start -3.72 -2.75) (end -3.72 2.75) (layer F.CrtYd) (width 0.05))
  (fp_line (start 3.73 2.75) (end 3.73 -2.75) (layer F.CrtYd) (width 0.05))
  (fp_line (start 3.73 2.75) (end -3.72 2.75) (layer F.CrtYd) (width 0.05))
  (fp_line (start -3.429 -1.016) (end -2.667 -1.016) (layer F.SilkS) (width 0.12))
  (fp_line (start -3.048 -1.397) (end -3.048 -0.635) (layer F.SilkS) (width 0.12))
  (fp_line (start -3.429 1.016) (end -2.667 1.016) (layer F.SilkS) (width 0.12))
  (fp_text user %R (at 0 -0.065) (layer F.Fab)
    (effects (font (size 1 1) (thickness 0.15)))
  )
  (fp_arc (start 2.7305 -0.635) (end 2.984499 -1.015999) (angle -67.38013505) (layer F.SilkS) (width 0.12))
  (fp_arc (start 3.238501 -1.396999) (end 2.984502 -1.016) (angle -67.38013505) (layer F.SilkS) (width 0.12))
  (fp_arc (start 2.7305 1.524) (end 2.984499 1.143001) (angle -67.38013505) (layer F.SilkS) (width 0.12))
  (fp_arc (start 3.238501 0.762001) (end 2.984502 1.143) (angle -67.38013505) (layer F.SilkS) (width 0.12))
  (pad 1 smd rect (at -2.975 -2) (size 1 0.7) (layers F.Cu F.Paste F.Mask))
  (pad 2 smd rect (at -2.975 2) (size 1 0.7) (layers F.Cu F.Paste F.Mask))
  (pad 3 smd rect (at 2.975 2) (size 1 0.7) (layers F.Cu F.Paste F.Mask))
  (pad 4 smd rect (at 2.975 -2) (size 1 0.7) (layers F.Cu F.Paste F.Mask))
  (model ${KISYS3DMOD}/Diode_SMD.3dshapes/Diode_Bridge_Diotec_ABS.wrl
    (at (xyz 0 0 0))
    (scale (xyz 1 1 1))
    (rotate (xyz 0 0 0))
  )
)
